 Date,Open,High,Low,Close,Volume,Adj Close
2016-06-29,20.83,21.35,20.74,20.77,24407600,20.77
2016-06-28,20.540001,21.030001,20.42,20.629999,18658500,20.629999
2016-06-27,21.00,21.389999,20.190001,21.110001,30785200,21.110001
2016-06-24,21.00,21.08,19.969999,20.469999,29073600,20.469999
2016-06-23,19.440001,19.77,19.26,19.35,10314800,19.35
2016-06-22,19.219999,19.700001,19.00,19.65,14408000,19.65
2016-06-21,19.389999,19.66,19.15,19.16,21169100,19.16
2016-06-20,19.389999,19.860001,19.15,19.76,17292600,19.76
2016-06-17,20.41,20.52,19.809999,20.110001,34176800,20.110001
2016-06-16,21.209999,21.40,19.889999,20.059999,26980500,20.059999
2016-06-15,19.68,20.780001,19.65,20.50,22494600,20.50
2016-06-14,20.290001,20.33,19.610001,19.790001,16447500,19.790001
2016-06-13,20.35,20.469999,19.959999,20.219999,20669700,20.219999
2016-06-10,19.83,20.440001,19.50,19.610001,24422700,19.610001
2016-06-09,19.23,19.67,19.18,19.58,12851000,19.58
2016-06-08,19.540001,19.92,19.10,19.219999,19431300,19.219999
2016-06-07,18.700001,19.07,18.66,18.82,11310000,18.82
2016-06-06,19.09,19.200001,18.549999,18.92,18181600,18.92
2016-06-03,18.00,19.23,18.00,19.18,30028200,19.18
2016-06-02,16.709999,17.07,16.629999,16.959999,10786300,16.959999
2016-06-01,16.99,17.24,16.629999,16.90,13251100,16.90
2016-05-31,16.59,17.200001,16.40,16.77,24952900,16.77
2016-05-27,16.950001,17.200001,16.540001,16.620001,20209200,16.620001
2016-05-26,17.60,17.780001,16.969999,17.129999,15775400,17.109999
2016-05-25,16.709999,17.49,16.24,17.280001,21649200,17.259826
2016-05-24,17.50,17.799999,16.889999,16.91,18616500,16.890257
2016-05-23,17.85,18.209999,17.67,17.91,14189800,17.889089
2016-05-20,18.299999,18.469999,17.60,18.200001,15001700,18.178752
2016-05-19,17.27,18.290001,17.049999,18.15,24397100,18.128809
2016-05-18,19.059999,19.379999,17.57,17.620001,29603000,17.599429
2016-05-17,18.780001,19.73,18.67,19.370001,24636000,19.347386
2016-05-16,18.889999,19.139999,18.65,18.91,14315900,18.887922
2016-05-13,18.09,18.690001,18.09,18.41,13043600,18.388506
2016-05-12,18.42,18.65,17.950001,18.120001,11745500,18.098845
2016-05-11,18.450001,18.75,17.860001,18.440001,17899300,18.418471
2016-05-10,17.42,18.00,17.209999,17.93,14467200,17.909066
2016-05-09,17.809999,17.90,17.299999,17.389999,15199300,17.369696
2016-05-06,18.16,18.84,18.139999,18.469999,17339000,18.448435
2016-05-05,17.809999,18.190001,17.49,17.870001,16446600,17.849137
2016-05-04,17.809999,18.469999,17.32,17.459999,24385700,17.439614
2016-05-03,18.709999,18.91,18.18,18.379999,21665000,18.35854
2016-05-02,19.459999,19.50,18.83,19.110001,32058600,19.087689
2016-04-29,17.959999,19.40,17.950001,19.370001,35558300,19.347386
2016-04-28,16.790001,17.65,16.76,17.549999,18314700,17.529509
2016-04-27,16.59,16.719999,16.120001,16.610001,18355900,16.590608
2016-04-26,16.16,16.59,16.030001,16.48,15016300,16.460759
2016-04-25,16.25,16.290001,16.01,16.110001,13938900,16.091192
2016-04-22,16.139999,16.549999,15.81,16.120001,15879400,16.10118
2016-04-21,16.23,16.700001,16.02,16.34,24333400,16.320923
2016-04-20,16.309999,16.65,15.61,15.89,24826400,15.871448
2016-04-19,16.370001,16.57,16.10,16.32,20985800,16.300946
2016-04-18,15.92,15.92,15.54,15.82,11413200,15.801529
2016-04-15,15.48,15.76,15.19,15.64,12919400,15.62174
2016-04-14,16.00,16.139999,15.10,15.42,21159900,15.401997
2016-04-13,16.01,16.25,15.86,16.049999,15611000,16.03126
2016-04-12,16.280001,16.67,15.95,16.35,19119500,16.330911
2016-04-11,15.45,16.370001,15.42,16.309999,26119900,16.290957
2016-04-08,14.61,15.32,14.61,15.18,20664500,15.162277
2016-04-07,14.28,14.68,14.25,14.52,23743400,14.503048
2016-04-06,13.91,14.10,13.80,13.97,17236900,13.95369
2016-04-05,13.90,14.05,13.52,14.01,13426100,13.993643
2016-04-04,13.58,13.69,13.39,13.50,11365500,13.484238
2016-04-01,13.21,13.70,13.04,13.65,14610600,13.634063
2016-03-31,13.96,14.00,13.57,13.58,11409000,13.564145
2016-03-30,13.94,14.04,13.50,13.74,15902000,13.723958
2016-03-29,13.71,14.15,13.54,14.05,18278900,14.033596
2016-03-28,13.56,13.69,13.34,13.61,9792300,13.594109
2016-03-24,13.38,13.67,13.24,13.56,13018800,13.544169
2016-03-23,13.93,13.93,13.23,13.27,31735300,13.254507
2016-03-22,14.98,15.07,14.42,14.50,16881300,14.483071
2016-03-21,14.63,14.91,14.54,14.69,15666400,14.672848
2016-03-18,14.67,15.02,14.55,14.74,23750500,14.72279
2016-03-17,15.25,15.52,14.75,14.78,31421100,14.762744
2016-03-16,13.96,15.22,13.74,15.18,30391900,15.162277
2016-03-15,13.78,14.25,13.63,14.19,26885600,14.173432
2016-03-14,14.07,14.28,13.66,13.67,18801100,13.65404
2016-03-11,14.10,14.34,13.87,13.95,15392900,13.933713
2016-03-10,13.97,14.36,13.86,14.17,23647600,14.153456
2016-03-09,12.89,13.79,12.64,13.69,38507200,13.674016
2016-03-08,14.14,14.32,13.14,13.33,25470200,13.314437
2016-03-07,13.97,14.67,13.61,13.86,31945100,13.843818
2016-03-04,14.05,14.80,13.61,13.72,31811200,13.703982
2016-03-03,13.57,14.09,13.57,13.91,20359000,13.893759
2016-03-02,13.30,13.60,13.23,13.58,14811300,13.564145
2016-03-01,14.00,14.02,13.10,13.27,21344000,13.254507
2016-02-29,13.64,14.00,13.60,13.89,17055200,13.873783
2016-02-26,13.03,13.60,13.03,13.53,18683000,13.514203
2016-02-25,13.35,13.87,13.35,13.58,21647900,13.564145
2016-02-24,13.92,14.45,13.16,13.48,40165000,13.444284
2016-02-23,12.95,13.57,12.90,13.54,34525200,13.504126
2016-02-22,12.16,13.13,12.12,12.82,24530800,12.786033
2016-02-19,12.46,12.94,12.40,12.56,23409000,12.526723
2016-02-18,11.76,12.67,11.68,12.63,32225300,12.596537
2016-02-17,11.73,12.00,11.50,11.89,22669300,11.858498
2016-02-16,11.56,12.04,11.49,11.59,24508800,11.559293
2016-02-12,11.69,12.32,11.62,12.25,18949000,12.217544
2016-02-11,12.61,12.66,11.91,11.97,33803700,11.938286
2016-02-10,10.92,11.60,10.57,11.58,27524600,11.549319
2016-02-09,12.05,12.17,11.18,11.22,32384900,11.190273
2016-02-08,11.93,12.47,11.79,11.91,39140300,11.878444
2016-02-05,10.82,11.64,10.61,11.64,23223800,11.60916
2016-02-04,10.91,11.44,10.84,11.18,33191400,11.150379
2016-02-03,9.98,10.80,9.96,10.73,23070200,10.701571
2016-02-02,9.90,10.05,9.65,9.86,12446400,9.833876
2016-02-01,10.03,10.30,9.88,10.07,16790300,10.043319
2016-01-29,9.50,9.95,9.50,9.91,17992800,9.883743
2016-01-28,9.53,9.94,9.30,9.66,24911200,9.634406
2016-01-27,9.29,9.88,9.23,9.84,29434100,9.813929
2016-01-26,9.41,9.57,9.29,9.53,28802200,9.50475
2016-01-25,8.74,9.34,8.69,9.27,36763000,9.24544
2016-01-22,8.10,8.64,8.09,8.58,23255200,8.557267
2016-01-21,7.92,8.35,7.82,8.33,23635200,8.30793
2016-01-20,7.80,8.25,7.77,8.11,29243000,8.088512
2016-01-19,7.96,7.98,7.39,7.59,30794000,7.569891
2016-01-15,7.99,8.04,7.77,7.90,33732400,7.879069
2016-01-14,7.90,8.08,7.44,7.58,24017100,7.559917
2016-01-13,7.82,8.25,7.80,8.04,20811200,8.018698
2016-01-12,8.04,8.05,7.71,7.90,21541400,7.879069
2016-01-11,8.46,8.52,7.95,8.15,23091600,8.128406
2016-01-08,8.48,8.69,8.29,8.42,23231100,8.397691
2016-01-07,8.23,8.83,8.22,8.75,38298500,8.726817
2016-01-06,7.83,8.06,7.82,7.94,27686600,7.918963
2016-01-05,7.80,7.83,7.59,7.65,10416400,7.629732
2016-01-04,7.69,7.87,7.60,7.75,16529200,7.729466
2015-12-31,7.34,7.44,7.29,7.38,7765100,7.360447
2015-12-30,7.38,7.45,7.31,7.37,6921200,7.350473
2015-12-29,7.62,7.69,7.47,7.59,9923500,7.569891
2015-12-28,7.69,7.71,7.46,7.53,9601200,7.51005
2015-12-24,7.72,7.86,7.70,7.82,5990100,7.799281
2015-12-23,7.51,7.68,7.47,7.66,10690600,7.639705
2015-12-22,7.43,7.68,7.41,7.47,13543000,7.450208
2015-12-21,7.39,7.60,7.33,7.47,16836500,7.450208
2015-12-18,7.07,7.38,7.02,7.23,21511200,7.210844
2015-12-17,7.26,7.27,6.94,6.94,20657100,6.921613
2015-12-16,7.28,7.75,7.22,7.65,24884500,7.629732
2015-12-15,7.12,7.19,6.94,7.10,16340300,7.081189
2015-12-14,7.68,7.74,7.05,7.05,21191200,7.031321
2015-12-11,7.54,7.87,7.39,7.75,15209000,7.729466
2015-12-10,7.70,7.86,7.65,7.66,10033200,7.639705
2015-12-09,7.69,7.88,7.61,7.73,14169200,7.709519
2015-12-08,7.71,7.75,7.47,7.52,13196400,7.500076
2015-12-07,7.96,7.98,7.64,7.69,14454700,7.669626
2015-12-04,7.70,8.10,7.65,8.09,30526800,8.068566
2015-12-03,7.49,7.73,7.46,7.57,14349900,7.549944
2015-12-02,7.36,7.54,7.25,7.42,11738100,7.400341
2015-12-01,7.38,7.62,7.28,7.60,15541700,7.579864
2015-11-30,7.14,7.43,7.13,7.34,15264600,7.320553
2015-11-27,7.17,7.27,7.05,7.11,7677900,7.091162
2015-11-25,7.26,7.50,7.21,7.38,9490700,7.3405
2015-11-24,7.22,7.47,7.06,7.38,13602200,7.3405
2015-11-23,7.12,7.23,7.03,7.12,9627700,7.081891
2015-11-20,7.60,7.67,7.14,7.19,12522800,7.151517
2015-11-19,7.28,7.60,7.20,7.54,15310200,7.499643
2015-11-18,7.06,7.26,6.90,7.23,13850800,7.191303
2015-11-17,7.60,7.62,6.92,6.99,25872600,6.952587
2015-11-16,7.59,7.74,7.55,7.63,11116300,7.589162
2015-11-13,7.49,7.59,7.37,7.54,10528400,7.499643
2015-11-12,7.17,7.68,7.09,7.55,19297100,7.50959
2015-11-11,7.24,7.34,7.16,7.28,8533100,7.241035
2015-11-10,7.23,7.30,7.12,7.20,8848000,7.161463
2015-11-09,7.06,7.39,7.02,7.36,13645800,7.320607
2015-11-06,7.00,7.19,6.90,7.05,23367000,7.012266
2015-11-05,7.53,7.56,7.21,7.36,31339700,7.320607
2015-11-04,7.91,8.00,7.52,7.57,18672600,7.529483
2015-11-03,7.64,7.92,7.60,7.84,16128700,7.798038
2015-11-02,7.61,7.82,7.54,7.76,12999700,7.718466
2015-10-30,7.83,7.99,7.69,7.69,17543000,7.648841
2015-10-29,7.64,8.33,7.62,7.82,30773100,7.778145
2015-10-28,7.66,8.19,7.44,7.69,31892200,7.648841
2015-10-27,7.47,7.59,7.37,7.55,16647300,7.50959
2015-10-26,7.75,7.76,7.50,7.50,12566600,7.459858
2015-10-23,7.71,7.82,7.45,7.75,20955400,7.70852
2015-10-22,7.46,7.73,7.45,7.59,15245100,7.549376
2015-10-21,7.74,7.80,7.48,7.51,16279300,7.469804
2015-10-20,7.65,8.02,7.61,7.89,17049100,7.84777
2015-10-19,7.76,7.90,7.53,7.56,15880800,7.519536
2015-10-16,8.08,8.16,7.82,7.85,16283800,7.807984
2015-10-15,8.03,8.19,7.92,8.16,22680400,8.116325
2015-10-14,7.71,8.20,7.70,8.18,31098600,8.136218
2015-10-13,7.40,7.65,7.28,7.46,14780700,7.420072
2015-10-12,7.82,7.83,7.29,7.41,19924700,7.370339
2015-10-09,7.45,7.66,7.39,7.61,21282700,7.569269
2015-10-08,7.11,7.52,7.09,7.16,21249800,7.121677
2015-10-07,7.32,7.45,7.10,7.24,22327400,7.201249
2015-10-06,7.09,7.46,7.05,7.30,28732300,7.260928
2015-10-05,6.63,6.94,6.61,6.85,20582300,6.813337
2015-10-02,6.43,6.63,6.42,6.57,19712800,6.534835
2015-10-01,6.41,6.50,6.13,6.19,14439300,6.156869
2015-09-30,6.14,6.36,6.04,6.36,19589300,6.325959
2015-09-29,6.33,6.46,6.15,6.21,13473400,6.176762
2015-09-28,6.36,6.47,6.26,6.26,17148800,6.226495
2015-09-25,6.40,6.63,6.36,6.57,22610200,6.534835
2015-09-24,6.08,6.58,6.02,6.56,33177000,6.524889
2015-09-23,6.22,6.23,5.91,5.94,16237000,5.908207
2015-09-22,6.41,6.46,6.08,6.11,20562900,6.077297
2015-09-21,6.65,6.75,6.56,6.58,16618400,6.544782
2015-09-18,6.94,7.01,6.66,6.75,28545800,6.713872
2015-09-17,6.59,7.04,6.49,6.84,27386100,6.80339
2015-09-16,6.41,6.72,6.38,6.70,31870700,6.664139
2015-09-15,6.18,6.42,6.14,6.25,12517300,6.216548
2015-09-14,6.29,6.40,6.16,6.23,14768600,6.196655
2015-09-11,6.13,6.40,5.95,6.35,21091200,6.316013
2015-09-10,6.40,6.42,6.13,6.21,17477100,6.176762
2015-09-09,6.41,6.54,6.25,6.27,18824400,6.236441
2015-09-08,6.48,6.60,6.35,6.52,12933600,6.485103
2015-09-04,6.41,6.44,6.23,6.41,16294200,6.375691
2015-09-03,6.59,6.91,6.45,6.48,18802700,6.445317
2015-09-02,6.74,6.78,6.50,6.69,16477100,6.654193
2015-09-01,7.03,7.18,6.69,6.75,21711000,6.713872
2015-08-31,6.98,7.00,6.63,6.95,23252800,6.912801
2015-08-28,6.89,7.28,6.87,7.13,27217000,7.091838
2015-08-27,6.60,6.91,6.51,6.84,31487300,6.80339
2015-08-26,6.92,6.92,6.52,6.55,29322800,6.49505
2015-08-25,7.42,7.50,6.86,6.99,17932200,6.931358
2015-08-24,7.72,7.82,7.15,7.23,30264100,7.169345
2015-08-21,8.39,8.44,7.91,8.01,24266200,7.942801
2015-08-20,8.19,8.52,8.18,8.24,28769400,8.170871
2015-08-19,7.81,8.04,7.72,7.90,23993200,7.833724
2015-08-18,7.74,7.75,7.50,7.66,21143600,7.595737
2015-08-17,7.81,7.98,7.67,7.87,17357600,7.803975
2015-08-14,7.92,8.05,7.64,7.68,14913700,7.615569
2015-08-13,7.92,8.12,7.72,7.77,21070800,7.704814
2015-08-12,7.88,8.16,7.86,8.13,36070200,8.061794
2015-08-11,7.92,7.94,7.25,7.68,32489300,7.615569
2015-08-10,7.19,7.69,7.00,7.61,25882200,7.546157
2015-08-07,7.02,7.38,6.95,7.04,27463100,6.980938
2015-08-06,6.70,7.11,6.68,6.88,31155100,6.822281
2015-08-05,6.87,6.93,6.52,6.54,18036900,6.485133
2015-08-04,6.82,6.90,6.72,6.80,20794200,6.742952
2015-08-03,7.02,7.02,6.62,6.70,16055600,6.643791
2015-07-31,7.22,7.33,6.91,7.06,29460900,7.000771
2015-07-30,7.10,7.18,6.95,7.05,19647200,6.990855
2015-07-29,6.94,7.34,6.85,7.23,28305800,7.169345
2015-07-28,7.01,7.03,6.88,6.89,21553400,6.832197
2015-07-27,7.21,7.53,6.84,6.90,33730300,6.842113
2015-07-24,6.96,7.27,6.79,7.25,42134900,7.189177
2015-07-23,7.44,7.46,7.04,7.07,25243700,7.010687
2015-07-22,7.29,7.50,7.03,7.36,28402300,7.298254
2015-07-21,7.72,7.88,7.36,7.50,36732600,7.437079
2015-07-20,8.39,8.46,7.38,7.41,51243100,7.347834
2015-07-17,9.19,9.21,8.61,8.79,26103200,8.716257
2015-07-16,9.60,9.63,9.21,9.24,20033400,9.162482
2015-07-15,9.79,9.87,9.60,9.65,13087000,9.569042
2015-07-14,10.00,10.18,9.88,9.89,12978400,9.807029
2015-07-13,9.99,10.03,9.74,9.97,11291100,9.886358
2015-07-10,10.24,10.27,10.05,10.11,7351600,10.025183
2015-07-09,10.44,10.44,10.12,10.15,10201400,10.064847
2015-07-08,10.39,10.51,10.27,10.30,14730200,10.213589
2015-07-07,10.50,10.60,10.25,10.32,20011600,10.233421
2015-07-06,10.52,11.00,10.47,10.85,10551500,10.758975
2015-07-02,10.52,10.59,10.43,10.57,8117300,10.481324
2015-07-01,10.63,10.66,10.40,10.45,10582200,10.36233
2015-06-30,10.74,10.86,10.56,10.66,9690000,10.570569
2015-06-29,10.96,10.99,10.72,10.78,9930000,10.689562
2015-06-26,10.97,11.07,10.87,10.90,8858300,10.808555
2015-06-25,11.11,11.19,10.97,10.99,10482300,10.8978
2015-06-24,11.12,11.17,10.97,11.11,10624000,11.016793
2015-06-23,11.12,11.20,11.06,11.16,10233400,11.066374
2015-06-22,11.30,11.35,11.16,11.16,10341400,11.066374
2015-06-19,11.65,11.80,11.41,11.48,14185200,11.383689
2015-06-18,11.82,11.97,11.66,11.71,18426600,11.61176
2015-06-17,11.19,11.57,11.06,11.54,14363100,11.443186
2015-06-16,11.38,11.40,11.14,11.18,12842900,11.086207
2015-06-15,11.25,11.62,11.21,11.47,8738900,11.373774
2015-06-12,11.25,11.46,11.18,11.27,7176200,11.175452
2015-06-11,11.56,11.56,11.25,11.27,8250200,11.175452
2015-06-10,11.77,11.82,11.55,11.63,8865100,11.532431
2015-06-09,11.57,11.71,11.49,11.53,10324700,11.43327
2015-06-08,11.48,11.51,11.30,11.46,10512700,11.363857
2015-06-05,11.51,11.60,11.38,11.47,13753000,11.373774
2015-06-04,11.85,11.88,11.66,11.69,10278600,11.591927
2015-06-03,11.88,12.15,11.87,11.99,12854500,11.889411
2015-06-02,11.96,12.17,11.92,11.98,11180600,11.879494
2015-06-01,11.94,12.06,11.76,11.82,9065000,11.720837
2015-05-29,11.97,12.05,11.73,11.86,11674000,11.760501
2015-05-28,11.73,12.03,11.53,12.00,13398300,11.899327
2015-05-27,11.74,11.75,11.56,11.70,9348500,11.601844
2015-05-26,12.05,12.06,11.62,11.71,21707400,11.562179
2015-05-22,12.46,12.49,12.24,12.29,7871000,12.134857
2015-05-21,12.42,12.49,12.24,12.44,8620000,12.282963
2015-05-20,12.64,12.66,12.42,12.43,8264300,12.27309
2015-05-19,12.94,13.07,12.46,12.47,14190200,12.312585
2015-05-18,13.18,13.39,13.13,13.19,6434700,13.023496
2015-05-15,13.06,13.44,12.97,13.12,10455700,12.95438
2015-05-14,13.37,13.61,13.13,13.18,9854600,13.013623
2015-05-13,12.99,13.41,12.95,13.25,17002100,13.082739
2015-05-12,12.85,12.94,12.71,12.83,6279200,12.668041
2015-05-11,12.72,12.90,12.67,12.78,6351600,12.618672
2015-05-08,12.76,12.90,12.65,12.75,8258600,12.589051
2015-05-07,12.53,12.72,12.27,12.69,10866100,12.529808
2015-05-06,13.20,13.21,12.58,12.63,12566800,12.470565
2015-05-05,13.33,13.54,13.02,13.11,8579200,12.944506
2015-05-04,13.37,13.43,13.14,13.17,8245000,13.003749
2015-05-01,12.85,13.10,12.76,13.07,10473900,12.905011
2015-04-30,13.17,13.24,12.93,13.02,14933600,12.855643
2015-04-29,13.36,13.70,13.28,13.51,15877500,13.339457
2015-04-28,12.54,13.42,12.52,13.30,16149400,13.132108
2015-04-27,12.66,13.34,12.64,12.80,23700700,12.63842
2015-04-24,12.58,12.74,12.41,12.52,10012200,12.361954
2015-04-23,12.41,12.74,12.36,12.64,8614000,12.480439
2015-04-22,12.80,12.86,12.32,12.37,11527700,12.213847
2015-04-21,12.65,12.87,12.45,12.81,8566200,12.648294
2015-04-20,12.66,12.86,12.56,12.75,9041100,12.589051
2015-04-17,12.76,12.99,12.73,12.76,9334600,12.598925
2015-04-16,12.90,13.03,12.58,12.65,11749200,12.490312
2015-04-15,12.55,13.03,12.49,12.85,14091800,12.687789
2015-04-14,12.40,12.61,12.31,12.51,7362200,12.35208
2015-04-13,12.61,12.66,12.33,12.36,7920600,12.203973
2015-04-10,12.63,12.77,12.56,12.68,9019600,12.519934
2015-04-09,12.16,12.66,12.12,12.42,12856400,12.263216
2015-04-08,12.44,12.50,12.16,12.32,11273600,12.164478
2015-04-07,12.46,12.64,12.33,12.36,15746100,12.203973
2015-04-06,12.32,12.69,12.23,12.61,16712300,12.450817
2015-04-02,11.84,12.11,11.71,11.88,11378300,11.730033
2015-04-01,11.07,12.20,11.06,12.01,26495200,11.858392
2015-03-31,11.10,11.20,10.90,10.96,9558600,10.821647
2015-03-30,11.05,11.30,11.01,11.14,9911700,10.999375
2015-03-27,11.22,11.48,11.04,11.29,10823000,11.147481
2015-03-26,11.56,11.71,11.25,11.29,15229900,11.147481
2015-03-25,11.46,11.57,11.28,11.36,13451400,11.216597
2015-03-24,11.45,11.53,11.23,11.37,9020800,11.226471
2015-03-23,11.24,11.45,11.19,11.40,10506800,11.256092
2015-03-20,10.98,11.34,10.98,11.10,28775100,10.95988
2015-03-19,10.85,10.96,10.66,10.89,15648500,10.752531
2015-03-18,10.30,11.10,10.30,10.97,20628700,10.831521
2015-03-17,10.39,10.60,10.29,10.33,14378500,10.199599
2015-03-16,10.56,10.63,10.30,10.56,12741500,10.426696
2015-03-13,10.70,10.71,10.31,10.60,11839400,10.466191
2015-03-12,11.03,11.07,10.59,10.66,12814000,10.525433
2015-03-11,10.68,10.94,10.52,10.89,15086500,10.752531
2015-03-10,10.69,11.09,10.58,10.68,15075100,10.545181
2015-03-09,11.41,11.42,10.71,10.80,19821200,10.663667
2015-03-06,11.82,11.82,11.29,11.34,20398900,11.19685
2015-03-05,12.18,12.49,12.10,12.19,9882900,12.036119
2015-03-04,12.51,12.58,12.08,12.15,12873900,11.996624
2015-03-03,12.80,13.04,12.49,12.51,12371900,12.35208
2015-03-02,13.04,13.11,12.64,12.76,16977000,12.598925
2015-02-27,12.83,13.24,12.81,13.02,14261700,12.855643
2015-02-26,12.91,12.97,12.73,12.76,8433800,12.598925
2015-02-25,12.71,12.78,12.53,12.78,15997800,12.618672
2015-02-24,12.59,12.72,12.50,12.58,10869500,12.371828
2015-02-23,12.69,13.03,12.58,12.71,13306100,12.499677
2015-02-20,12.86,13.19,12.79,12.89,18397600,12.676698
2015-02-19,12.55,13.05,12.45,12.82,30671600,12.607856
2015-02-18,12.03,12.44,11.91,12.23,15644900,12.027619
2015-02-17,11.90,12.18,11.88,12.03,13651800,11.830929
2015-02-13,12.25,12.38,12.13,12.14,11347700,11.939109
2015-02-12,12.12,12.22,11.93,12.13,11627200,11.929275
2015-02-11,12.20,12.26,11.89,11.94,11344000,11.742418
2015-02-10,12.28,12.30,11.95,12.17,17280400,11.968613
2015-02-09,12.39,12.60,12.35,12.50,11698200,12.293152
2015-02-06,12.55,12.69,12.19,12.32,18986200,12.11613
2015-02-05,12.87,13.15,12.75,13.06,10661300,12.843885
2015-02-04,12.76,13.06,12.72,12.91,12409700,12.696367
2015-02-03,12.80,13.14,12.46,12.68,19240300,12.470173
2015-02-02,12.52,13.04,12.50,12.89,14963000,12.676698
2015-01-30,12.35,12.94,12.17,12.78,16184700,12.568518
2015-01-29,12.28,12.43,12.07,12.29,18368200,12.086627
2015-01-28,12.92,13.12,12.49,12.61,19198600,12.401331
2015-01-27,12.89,13.25,12.84,13.11,23691300,12.893057
2015-01-26,12.10,12.76,12.00,12.69,15653600,12.480007
2015-01-23,12.66,12.79,12.34,12.43,19713500,12.22431
2015-01-22,12.90,13.25,12.66,12.79,25263700,12.578353
2015-01-21,12.78,13.09,12.28,12.74,36016800,12.52918
2015-01-20,12.20,12.67,12.10,12.53,35889300,12.322655
2015-01-16,11.49,11.90,11.42,11.75,32505500,11.555563
2015-01-15,10.72,11.42,10.57,11.37,47959200,11.181851
2015-01-14,10.82,10.86,10.15,10.41,24995100,10.237737
2015-01-13,11.47,11.49,10.52,10.68,27751100,10.503269
2015-01-12,11.06,11.42,10.88,11.33,31410200,11.142513
2015-01-09,10.96,11.19,10.72,10.99,18536300,10.808139
2015-01-08,11.01,11.30,10.75,10.81,18134100,10.631118
2015-01-07,11.08,11.41,10.93,11.12,14361600,10.935988
2015-01-06,11.02,11.46,10.93,11.27,21643700,11.083506
2015-01-05,10.98,11.08,10.52,10.90,16028900,10.719628
2015-01-02,10.54,10.94,10.45,10.91,13884500,10.729463
2014-12-31,10.82,10.89,10.57,10.75,10791300,10.572111
2014-12-30,10.58,11.03,10.57,10.86,16975400,10.68029
2014-12-29,10.50,10.64,10.37,10.48,13918000,10.306578
2014-12-26,10.57,10.78,10.48,10.58,14282300,10.404924
2014-12-24,10.19,10.42,10.04,10.31,9273600,10.139392
2014-12-23,10.34,10.56,10.12,10.17,15624500,10.001708
2014-12-22,10.84,10.91,10.27,10.32,18471500,10.149226
2014-12-19,11.08,11.24,10.83,10.83,47500400,10.650787
2014-12-18,10.95,11.14,10.80,11.09,19607800,10.906484
2014-12-17,10.32,10.88,10.30,10.76,21296400,10.581945
2014-12-16,10.76,10.77,10.26,10.32,25554600,10.149226
2014-12-15,11.19,11.30,10.44,10.45,24684100,10.277075
2014-12-12,11.78,11.90,11.42,11.47,15284900,11.280196
2014-12-11,11.81,12.28,11.64,11.82,16496000,11.624404
2014-12-10,12.08,12.52,11.91,11.94,19150800,11.742418
2014-12-09,11.85,12.31,11.78,12.06,17570500,11.860433
2014-12-08,11.68,11.71,11.19,11.54,18570400,11.349038
2014-12-05,11.72,11.80,11.43,11.56,15812400,11.368707
2014-12-04,12.34,12.48,11.91,11.96,14253100,11.762088
2014-12-03,12.07,12.50,12.00,12.33,12212800,12.125965
2014-12-02,12.12,12.32,11.87,11.93,14912900,11.732584
2014-12-01,12.21,12.50,11.83,12.41,29024200,12.204641
2014-11-28,12.32,12.36,11.83,11.89,13464100,11.693246
2014-11-26,13.06,13.06,12.82,12.93,11325500,12.716036
2014-11-25,12.65,12.95,12.52,12.90,17969000,12.63736
2014-11-24,12.79,12.89,12.53,12.58,11092200,12.323875
2014-11-21,13.18,13.18,12.68,12.85,12992200,12.588378
2014-11-20,12.61,12.95,12.51,12.83,13994300,12.568785
2014-11-19,13.25,13.25,12.36,12.46,23847300,12.206318
2014-11-18,12.74,13.33,12.69,13.29,26007400,13.01942
2014-11-17,12.31,12.63,12.09,12.47,15598300,12.216115
2014-11-14,11.42,12.35,11.30,12.28,17843700,12.029983
2014-11-13,11.85,11.91,11.45,11.51,12109800,11.27566
2014-11-12,11.93,11.94,11.49,11.73,11830100,11.49118
2014-11-11,11.50,11.80,11.40,11.64,19777100,11.403013
2014-11-10,11.93,11.99,11.26,11.35,17389200,11.118918
2014-11-07,11.57,12.19,11.55,12.16,20838400,11.912426
2014-11-06,11.15,11.53,11.09,11.34,19088000,11.109121
2014-11-05,11.17,11.48,10.90,10.97,26788000,10.746654
2014-11-04,11.98,12.03,11.40,11.46,16736600,11.226678
2014-11-03,11.82,12.00,11.51,11.92,18582200,11.677313
2014-10-31,11.97,12.12,11.33,11.87,33658100,11.62833
2014-10-30,12.85,12.98,12.20,12.29,26752100,12.039779
2014-10-29,13.39,13.42,12.80,12.83,15936500,12.568785
2014-10-28,13.38,13.57,13.25,13.52,6878500,13.244737
2014-10-27,13.40,13.43,13.28,13.30,9042000,13.029216
2014-10-24,13.52,13.59,13.32,13.52,9428700,13.244737
2014-10-23,13.33,13.65,13.16,13.45,11017900,13.176162
2014-10-22,13.57,13.71,13.37,13.39,10546400,13.117384
2014-10-21,13.87,13.87,13.52,13.62,9726500,13.342701
2014-10-20,13.54,13.73,13.43,13.68,7813300,13.40148
2014-10-17,13.85,13.88,13.41,13.41,11240000,13.136976
2014-10-16,13.47,14.00,13.41,13.78,12820700,13.499443
2014-10-15,13.62,13.94,13.40,13.55,13742700,13.274126
2014-10-14,13.63,13.91,13.53,13.67,10181900,13.391683
2014-10-13,13.63,13.88,13.42,13.45,10546700,13.176162
2014-10-10,13.82,14.04,13.46,13.48,11679900,13.205551
2014-10-09,14.40,14.41,13.57,13.93,19648600,13.64639
2014-10-08,13.90,14.48,13.41,14.37,20503900,14.077431
2014-10-07,14.26,14.32,13.58,13.66,20884600,13.381886
2014-10-06,14.25,14.35,14.15,14.24,13519500,13.950078
2014-10-03,14.41,14.41,14.06,14.16,14979200,13.871707
2014-10-02,14.84,14.90,14.48,14.70,13280300,14.400712
2014-10-01,14.76,15.03,14.67,14.75,11922400,14.449694
2014-09-30,14.88,15.00,14.55,14.66,15680800,14.361527
2014-09-29,15.32,15.36,14.99,15.00,7872200,14.694605
2014-09-26,15.38,15.38,15.15,15.24,8276800,14.929718
2014-09-25,15.26,15.62,15.21,15.42,12407500,15.106054
2014-09-24,15.45,15.65,15.29,15.33,8989100,15.017886
2014-09-23,15.64,15.72,15.40,15.54,10405900,15.22361
2014-09-22,15.57,15.59,15.31,15.41,13348700,15.096257
2014-09-19,15.91,15.97,15.55,15.65,17804700,15.33137
2014-09-18,16.27,16.32,15.97,16.00,10900800,15.674245
2014-09-17,16.49,16.639999,16.18,16.25,9664900,15.919155
2014-09-16,16.459999,16.719999,16.280001,16.57,9668300,16.23264
2014-09-15,16.68,16.690001,16.370001,16.440001,6969900,16.105287
2014-09-12,16.73,16.959999,16.459999,16.52,9636700,16.183658
2014-09-11,16.639999,16.93,16.50,16.860001,9962700,16.516736
2014-09-10,16.84,17.01,16.629999,16.74,10331600,16.399178
2014-09-09,16.77,16.98,16.559999,16.879999,8151900,16.536328
2014-09-08,17.030001,17.09,16.68,16.74,10162900,16.399178
2014-09-05,17.110001,17.25,16.92,17.16,10167000,16.810627
2014-09-04,17.85,17.870001,17.00,17.02,14899200,16.673478
2014-09-03,17.98,18.00,17.73,17.75,5056500,17.388615
2014-09-02,18.040001,18.129999,17.83,17.860001,8611900,17.496376
2014-08-29,18.200001,18.43,18.08,18.389999,5076500,18.015585
2014-08-28,18.299999,18.299999,18.129999,18.219999,4829000,17.849046
2014-08-27,18.280001,18.299999,17.940001,18.120001,3573700,17.751083
2014-08-26,18.26,18.280001,18.08,18.25,6523400,17.829454
2014-08-25,18.219999,18.26,17.959999,18.01,5669500,17.594984
2014-08-22,18.42,18.450001,18.190001,18.24,8141300,17.819684
2014-08-21,18.440001,18.49,18.18,18.450001,9529200,18.024846
2014-08-20,18.799999,18.83,18.59,18.719999,5890000,18.288623
2014-08-19,18.959999,19.09,18.76,18.83,4012200,18.396088
2014-08-18,18.799999,19.01,18.690001,19.01,6010600,18.571941
2014-08-15,18.82,19.049999,18.77,18.950001,6126300,18.513324
2014-08-14,19.040001,19.290001,19.01,19.120001,9049700,18.679407
2014-08-13,19.25,19.360001,19.049999,19.059999,6881900,18.620788
2014-08-12,18.860001,19.26,18.799999,19.18,10271900,18.738023
2014-08-11,18.690001,18.82,18.559999,18.700001,5724100,18.269085
2014-08-08,18.67,19.00,18.559999,18.690001,8532600,18.259315
2014-08-07,18.33,18.51,18.23,18.49,6635000,18.063923
2014-08-06,18.32,18.43,18.23,18.360001,8441700,17.93692
2014-08-05,18.01,18.09,17.75,18.030001,7039000,17.614524
2014-08-04,18.200001,18.32,17.870001,18.049999,6918500,17.634062
2014-08-01,18.27,18.41,18.02,18.209999,9151400,17.790375
2014-07-31,18.07,18.450001,18.049999,18.08,9035100,17.663371
2014-07-30,18.469999,18.59,18.24,18.469999,7316800,18.044383
2014-07-29,18.68,18.780001,18.530001,18.59,3920200,18.161619
2014-07-28,18.60,18.719999,18.42,18.690001,5871600,18.259315
2014-07-25,18.25,18.700001,18.200001,18.68,8675400,18.249545
2014-07-24,18.620001,18.66,18.25,18.299999,9275300,17.878301
2014-07-23,18.83,18.93,18.709999,18.74,7517200,18.308162
2014-07-22,19.059999,19.08,18.76,18.84,6165900,18.405858
2014-07-21,19.219999,19.23,18.799999,19.10,7394900,18.659867
2014-07-18,18.92,19.200001,18.870001,19.190001,9853600,18.747793
2014-07-17,18.98,19.209999,18.780001,19.18,12789100,18.738023
2014-07-16,18.530001,19.00,18.440001,18.889999,17182800,18.454705
2014-07-15,18.98,19.209999,18.290001,18.33,14481000,17.90761
2014-07-14,18.639999,19.18,18.610001,18.879999,11639000,18.444935
2014-07-11,18.700001,19.299999,18.50,19.290001,13204300,18.845489
2014-07-10,19.219999,19.49,18.49,18.59,19431300,18.161619
2014-07-09,18.780001,19.07,18.66,18.90,10934700,18.464475
2014-07-08,18.40,18.709999,18.07,18.690001,19589200,18.259315
2014-07-07,18.209999,18.34,18.02,18.309999,12778500,17.888071
2014-07-03,18.18,18.469999,18.049999,18.440001,6755700,18.015076
2014-07-02,18.139999,18.459999,18.129999,18.34,6742700,17.91738
2014-07-01,18.299999,18.450001,18.02,18.190001,7210200,17.770837
2014-06-30,17.93,18.34,17.84,18.299999,7898600,17.878301
2014-06-27,18.00,18.190001,17.860001,18.02,9221900,17.604754
2014-06-26,17.709999,18.01,17.559999,18.01,7946600,17.594984
2014-06-25,17.809999,17.93,17.68,17.77,6211300,17.360515
2014-06-24,18.23,18.32,17.620001,17.74,9831500,17.331206
2014-06-23,17.84,18.25,17.76,18.200001,8748100,17.780607
2014-06-20,17.82,18.09,17.74,17.82,16426800,17.409362
2014-06-19,17.700001,18.040001,17.540001,18.01,17776000,17.594984
2014-06-18,17.049999,17.41,16.879999,17.40,8889300,16.99904
2014-06-17,16.790001,17.16,16.709999,17.07,8765600,16.676645
2014-06-16,17.02,17.110001,16.82,16.940001,8929300,16.549641
2014-06-13,16.74,17.059999,16.48,16.99,11771500,16.598488
2014-06-12,16.549999,16.799999,16.52,16.75,8992700,16.364019
2014-06-11,16.370001,16.549999,16.24,16.440001,7668100,16.061163
2014-06-10,16.110001,16.290001,16.10,16.26,6352300,15.885311
2014-06-09,16.07,16.25,15.97,15.98,4593900,15.611762
2014-06-06,16.17,16.200001,15.81,16.049999,6237300,15.680149
2014-06-05,16.030001,16.280001,16.01,16.09,7417700,15.719228
2014-06-04,16.01,16.040001,15.86,15.92,6503500,15.553145
2014-06-03,15.92,16.09,15.69,15.97,6550700,15.601993
2014-06-02,16.07,16.110001,15.83,15.90,7319200,15.533606
2014-05-30,15.85,16.120001,15.72,16.110001,13017200,15.738768
2014-05-29,15.67,16.030001,15.65,15.77,8912400,15.406602
2014-05-28,15.87,15.92,15.47,15.69,11999600,15.328445
2014-05-27,16.360001,16.360001,15.89,15.94,12191200,15.523837
2014-05-23,16.620001,16.73,16.48,16.52,5805900,16.088695
2014-05-22,16.950001,16.959999,16.530001,16.59,8605600,16.156867
2014-05-21,16.610001,16.799999,16.50,16.780001,6173500,16.341907
2014-05-20,16.459999,16.74,16.450001,16.66,6245300,16.225039
2014-05-19,16.709999,16.74,16.35,16.559999,9567100,16.12765
2014-05-16,16.82,16.82,16.51,16.620001,6932800,16.186084
2014-05-15,17.35,17.360001,16.75,16.85,12810000,16.410079
2014-05-14,17.43,17.60,17.370001,17.40,7907500,16.945719
2014-05-13,17.379999,17.49,17.219999,17.25,5048400,16.799636
2014-05-12,17.459999,17.48,17.309999,17.360001,5839200,16.906764
2014-05-09,17.299999,17.379999,17.08,17.23,6686000,16.780157
2014-05-08,17.290001,17.360001,17.049999,17.17,6941300,16.721724
2014-05-07,17.35,17.41,17.129999,17.280001,8865300,16.828853
2014-05-06,17.52,17.559999,17.370001,17.450001,5257600,16.994415
2014-05-05,17.620001,17.65,17.370001,17.469999,8555300,17.013891
2014-05-02,17.190001,17.48,17.049999,17.40,12876800,16.945719
2014-05-01,17.280001,17.34,17.07,17.110001,13209200,16.663291
2014-04-30,17.41,17.77,17.35,17.469999,11828100,17.013891
2014-04-29,17.48,17.799999,17.370001,17.67,11074000,17.20867
2014-04-28,17.879999,17.90,17.27,17.33,14423700,16.877547
2014-04-25,17.629999,17.90,17.530001,17.889999,10665000,17.422926
2014-04-24,17.60,17.90,17.40,17.469999,13352300,17.013891
2014-04-23,17.629999,18.00,17.459999,17.809999,12320300,17.345014
2014-04-22,17.52,17.629999,17.360001,17.549999,18948500,17.091802
2014-04-21,17.90,18.030001,17.17,17.280001,25719200,16.828853
2014-04-17,18.389999,18.440001,17.950001,17.98,8633600,17.510576
2014-04-16,18.52,18.58,18.209999,18.32,7649300,17.8417
2014-04-15,18.23,18.610001,18.09,18.540001,10447900,18.055957
2014-04-14,18.84,19.00,18.73,18.83,11703900,18.338385
2014-04-11,18.799999,19.15,18.58,18.620001,8482300,18.133868
2014-04-10,19.09,19.17,18.690001,18.790001,9889900,18.29943
2014-04-09,18.57,19.219999,18.50,18.93,10035000,18.435774
2014-04-08,18.700001,18.85,18.549999,18.790001,7522600,18.29943
2014-04-07,18.40,18.620001,18.219999,18.35,6474000,17.870917
2014-04-04,18.889999,19.01,18.379999,18.48,9460700,17.997522
2014-04-03,18.450001,18.459999,18.16,18.35,10580300,17.870917
2014-04-02,18.25,18.76,18.25,18.620001,14418500,18.133868
2014-04-01,17.93,18.09,17.74,17.889999,8008000,17.422926
2014-03-31,18.18,18.290001,17.75,17.83,10144600,17.364493
2014-03-28,18.01,18.459999,17.799999,18.299999,12542500,17.822221
2014-03-27,17.83,18.24,17.719999,18.08,12531300,17.607966
2014-03-26,18.51,18.629999,17.84,17.879999,15661600,17.413187
2014-03-25,18.620001,18.799999,18.379999,18.52,8651600,18.036479
2014-03-24,19.15,19.200001,18.35,18.530001,15150300,18.046218
2014-03-21,19.690001,19.700001,19.17,19.40,16002500,18.893503
2014-03-20,19.190001,19.629999,19.10,19.42,9341000,18.912981
2014-03-19,19.90,20.01,19.33,19.389999,13300000,18.883764
2014-03-18,19.969999,20.379999,19.959999,20.219999,11402600,19.692094
2014-03-17,20.780001,20.889999,20.440001,20.450001,10722200,19.91609
2014-03-14,21.00,21.10,20.65,20.91,12194000,20.36408
2014-03-13,20.360001,20.860001,20.219999,20.790001,12390200,20.247214
2014-03-12,20.110001,20.379999,20.040001,20.34,10076200,19.808962
2014-03-11,19.860001,20.01,19.74,19.82,10476900,19.302537
2014-03-10,19.92,19.93,19.58,19.75,7728000,19.234365
2014-03-07,19.879999,20.09,19.709999,19.91,11147500,19.390188
2014-03-06,20.52,20.57,20.23,20.35,10918600,19.818701
2014-03-05,20.42,20.66,20.129999,20.379999,10306100,19.847916
2014-03-04,20.360001,20.60,20.209999,20.360001,9318100,19.82844
2014-03-03,20.940001,21.02,20.440001,20.50,11817000,19.964784
2014-02-28,20.719999,20.799999,20.299999,20.379999,12270100,19.847916
2014-02-27,20.780001,21.110001,20.52,20.700001,11472100,20.159563
2014-02-26,20.92,21.07,20.48,20.790001,13212600,20.247214
2014-02-25,21.200001,21.450001,21.02,21.08,12230900,20.480946
2014-02-24,21.24,21.379999,20.98,21.23,15749100,20.626683
2014-02-21,20.98,21.209999,20.74,20.950001,13874800,20.354641
2014-02-20,20.18,21.030001,19.809999,20.98,19645300,20.383787
2014-02-19,20.32,20.66,19.68,19.77,14044300,19.208174
2014-02-18,20.83,20.84,20.16,20.360001,13883800,19.781408
2014-02-14,20.50,20.74,20.08,20.34,19717500,19.761976
2014-02-13,19.17,20.219999,19.129999,20.09,21827900,19.51908
2014-02-12,19.65,19.690001,18.809999,18.969999,18589200,18.430908
2014-02-11,19.43,19.719999,19.280001,19.57,13500600,19.013857
2014-02-10,19.129999,19.41,19.10,19.280001,10776800,18.732099
2014-02-07,18.60,18.99,18.549999,18.889999,10385700,18.353181
2014-02-06,18.67,18.799999,18.34,18.50,7270400,17.974265
2014-02-05,19.209999,19.32,18.540001,18.559999,14268100,18.032559
2014-02-04,19.17,19.299999,19.01,19.15,13351500,18.605793
2014-02-03,19.48,19.76,19.280001,19.299999,17360300,18.751529
2014-01-31,19.33,19.57,19.059999,19.280001,16130300,18.732099
2014-01-30,18.85,19.370001,18.75,19.219999,17025000,18.673803
2014-01-29,19.110001,19.60,19.07,19.52,20759800,18.965279
2014-01-28,18.620001,18.879999,18.49,18.799999,11698900,18.265739
2014-01-27,18.870001,18.93,18.469999,18.530001,13700000,18.003413
2014-01-24,19.459999,19.950001,18.709999,19.030001,22899500,18.489204
2014-01-23,19.09,19.60,19.08,19.309999,18033900,18.761246
2014-01-22,19.00,19.00,18.67,18.799999,11668400,18.265739
2014-01-21,18.76,19.299999,18.620001,19.25,18186700,18.702951
2014-01-17,18.450001,18.90,18.450001,18.77,19137300,18.236592
2014-01-16,18.190001,18.299999,17.950001,18.209999,8824300,17.692505
2014-01-15,17.639999,18.129999,17.58,18.040001,8504400,17.527338
2014-01-14,18.09,18.27,17.690001,17.799999,12127200,17.294157
2014-01-13,18.129999,18.200001,17.690001,18.17,13278200,17.653643
2014-01-10,18.02,18.40,17.91,18.18,15409700,17.663359
2014-01-09,17.91,17.940001,17.68,17.74,10538600,17.235862
2014-01-08,18.110001,18.110001,17.780001,17.959999,13334700,17.44961
2014-01-07,18.190001,18.299999,17.950001,18.27,10197600,17.750801
2014-01-06,18.450001,18.559999,18.17,18.35,11572400,17.828528
2014-01-03,18.43,18.52,18.08,18.15,13974300,17.634211
2014-01-02,17.959999,18.35,17.91,18.309999,17437300,17.789664
2013-12-31,16.98,17.65,16.90,17.629999,13362600,17.128988
2013-12-30,17.32,17.60,17.08,17.110001,12358400,16.623766
2013-12-27,17.389999,17.469999,17.26,17.459999,7344500,16.963819
2013-12-26,17.41,17.629999,17.129999,17.290001,9427900,16.798652
2013-12-24,16.719999,17.34,16.709999,17.290001,9338000,16.798652
2013-12-23,16.68,16.74,16.360001,16.67,11577900,16.19627
2013-12-20,16.709999,16.84,16.549999,16.58,27821300,16.108827
2013-12-19,16.50,16.82,16.440001,16.58,17758400,16.108827
2013-12-18,17.190001,17.379999,16.889999,16.91,22478500,16.429449
2013-12-17,16.99,17.24,16.870001,17.200001,15641100,16.711209
2013-12-16,16.809999,17.23,16.620001,17.049999,15207800,16.56547
2013-12-13,16.639999,16.98,16.51,16.74,15426700,16.26428
2013-12-12,15.95,16.51,15.94,16.459999,15321000,15.992237
2013-12-11,16.85,16.879999,16.32,16.379999,15990000,15.91451
2013-12-10,16.549999,17.00,16.51,16.870001,21759600,16.390587
2013-12-09,15.63,16.16,15.61,16.00,17704600,15.54531
2013-12-06,15.49,15.68,15.35,15.40,13779400,14.962361
2013-12-05,15.47,15.82,15.32,15.43,16348300,14.991509
2013-12-04,15.61,15.85,15.26,15.68,26336700,15.234404
2013-12-03,15.52,15.81,15.42,15.51,16259200,15.069235
2013-12-02,16.25,16.48,15.53,15.54,19954800,15.098382
2013-11-29,16.58,16.67,16.440001,16.49,5895800,16.021385
2013-11-27,16.450001,16.60,16.190001,16.360001,11241600,15.89508
2013-11-26,16.18,16.379999,16.02,16.209999,14120400,15.700762
2013-11-25,16.200001,16.68,15.90,16.389999,27836200,15.875108
2013-11-22,16.93,17.18,16.35,16.379999,19916100,15.865422
2013-11-21,17.02,17.120001,16.57,16.85,25783700,16.320658
2013-11-20,17.60,17.780001,16.959999,17.18,25133200,16.640291
2013-11-19,17.75,17.90,17.65,17.83,11678100,17.269871
2013-11-18,18.040001,18.049999,17.58,17.67,16396400,17.114897
2013-11-15,18.15,18.18,18.07,18.07,16064800,17.502331
2013-11-14,18.18,18.219999,18.00,18.110001,21292900,17.541075
2013-11-13,18.139999,18.190001,18.01,18.10,13874900,17.531389
2013-11-12,18.15,18.25,17.940001,18.030001,14658000,17.463588
2013-11-11,18.02,18.26,17.860001,18.190001,16576400,17.618562
2013-11-08,18.00,18.25,17.59,18.219999,20904100,17.647618
2013-11-07,18.17,18.35,18.10,18.18,29830200,17.608876
2013-11-06,18.290001,18.35,18.209999,18.34,32918800,17.763849
2013-11-05,18.219999,18.299999,18.09,18.280001,16473200,17.705735
2013-11-04,18.18,18.34,17.940001,18.309999,23644000,17.734791
2013-11-01,18.16,18.459999,17.870001,18.01,74458200,17.444216
2013-10-31,19.93,20.190001,19.27,19.389999,24625600,18.780863
2013-10-30,20.10,20.530001,19.42,20.50,22733500,19.855993
2013-10-29,20.16,20.219999,19.73,19.77,11607700,19.148926
2013-10-28,20.24,20.620001,19.83,20.25,12320200,19.613847
2013-10-25,19.99,20.200001,19.639999,20.139999,12223300,19.507302
2013-10-24,19.82,20.370001,19.59,20.07,16434100,19.439501
2013-10-23,19.690001,19.879999,19.26,19.389999,12051400,18.780863
2013-10-22,19.25,19.91,19.25,19.879999,18320100,19.255469
2013-10-21,18.66,18.969999,18.639999,18.950001,8509300,18.354687
2013-10-18,18.459999,18.639999,18.35,18.52,8759400,17.938195
2013-10-17,18.190001,18.84,18.10,18.50,18348100,17.918823
2013-10-16,17.700001,17.860001,17.389999,17.620001,13051300,17.066469
2013-10-15,17.18,17.799999,17.129999,17.780001,15538100,17.221442
2013-10-14,17.370001,17.450001,17.129999,17.26,9570900,16.717778
2013-10-11,17.48,17.58,17.15,17.23,20542600,16.688719
2013-10-10,17.639999,18.15,17.41,17.84,16105600,17.279557
2013-10-09,17.559999,17.889999,17.18,17.67,12505200,17.114897
2013-10-08,18.26,18.280001,17.549999,17.66,10710700,17.105211
2013-10-07,18.139999,18.370001,18.110001,18.280001,7740100,17.705735
2013-10-04,18.16,18.299999,18.00,18.030001,7255500,17.463588
2013-10-03,18.33,18.49,18.049999,18.10,11519400,17.531389
2013-10-02,18.34,18.790001,18.23,18.41,16569700,17.83165
2013-10-01,18.17,18.27,17.85,18.030001,14123300,17.463588
2013-09-30,18.370001,18.82,18.299999,18.620001,10616100,18.035054
2013-09-27,18.75,18.98,18.440001,18.530001,11783500,17.947881
2013-09-26,18.74,18.93,18.360001,18.530001,11301300,17.947881
2013-09-25,18.610001,19.040001,18.40,18.67,14006500,18.083482
2013-09-24,18.219999,18.700001,18.049999,18.559999,16019300,17.976937
2013-09-23,18.559999,19.00,18.290001,18.35,14641900,17.773535
2013-09-20,19.17,19.24,18.50,18.610001,32678000,18.025368
2013-09-19,20.110001,20.18,19.059999,19.440001,23338300,18.829293
2013-09-18,18.110001,20.389999,18.07,20.110001,32510100,19.478245
2013-09-17,18.43,18.49,17.950001,18.33,13382800,17.754163
2013-09-16,18.10,18.629999,18.01,18.139999,20108800,17.570132
2013-09-13,17.50,17.84,17.389999,17.719999,14576500,17.163326
2013-09-12,17.90,18.040001,17.57,17.610001,18555100,17.056783
2013-09-11,18.48,18.65,18.24,18.639999,12780700,18.054424
2013-09-10,18.690001,18.860001,18.280001,18.440001,18749800,17.860708
2013-09-09,19.139999,19.32,19.02,19.200001,11958100,18.596833
2013-09-06,19.33,19.52,19.030001,19.08,15915900,18.480602
2013-09-05,19.27,19.35,18.84,18.91,13964800,18.315942
2013-09-04,19.200001,19.48,19.139999,19.41,15867900,18.800235
2013-09-03,19.440001,19.73,19.370001,19.51,13564000,18.897094
2013-08-30,19.370001,19.440001,19.01,19.15,17245400,18.548403
2013-08-29,19.209999,19.889999,18.870001,19.690001,17170200,19.071439
2013-08-28,19.870001,20.440001,19.26,19.33,18754400,18.722748
2013-08-27,20.99,21.200001,19.67,19.719999,21779600,19.052067
2013-08-26,20.299999,20.629999,20.07,20.43,16662700,19.73802
2013-08-23,19.540001,20.299999,19.379999,20.07,18043900,19.390212
2013-08-22,19.49,19.85,19.32,19.559999,12628800,18.897486
2013-08-21,19.629999,19.85,19.059999,19.07,18525700,18.424083
2013-08-20,19.10,19.940001,19.059999,19.77,14342100,19.100374
2013-08-19,19.42,19.610001,19.030001,19.23,16903800,18.578664
2013-08-16,19.99,20.25,19.10,19.33,22409700,18.675277
2013-08-15,18.49,19.879999,18.370001,19.809999,30550500,19.139019
2013-08-14,17.98,18.860001,17.90,18.73,19878000,18.095599
2013-08-13,18.030001,18.27,17.60,17.799999,15051600,17.197099
2013-08-12,18.10,18.440001,18.08,18.209999,22492000,17.593212
2013-08-09,17.059999,17.719999,16.790001,17.42,18483100,16.82997
2013-08-08,15.83,17.139999,15.81,17.10,26162100,16.520809
2013-08-07,15.56,15.96,15.53,15.55,11890100,15.023309
2013-08-06,16.16,16.190001,15.63,15.65,14259200,15.119921
2013-08-05,16.67,16.82,16.35,16.389999,11899700,15.834857
2013-08-02,16.74,17.450001,16.629999,16.68,16412600,16.115035
2013-08-01,17.34,17.43,16.799999,16.809999,18662900,16.240631
2013-07-31,17.120001,17.530001,16.620001,16.969999,19604300,16.395212
2013-07-30,17.469999,17.540001,17.129999,17.200001,14006300,16.617423
2013-07-29,17.82,17.84,17.440001,17.549999,11062600,16.955566
2013-07-26,17.360001,17.82,17.17,17.82,13327700,17.216422
2013-07-25,17.190001,17.809999,17.030001,17.51,13205700,16.916922
2013-07-24,18.00,18.059999,16.84,17.17,23099200,16.588438
2013-07-23,17.58,18.15,17.370001,18.10,20759400,17.486939
2013-07-22,17.34,17.860001,17.24,17.559999,26066900,16.965228
2013-07-19,15.89,16.57,15.80,16.540001,16158900,15.979778
2013-07-18,15.90,15.99,15.61,15.74,12650400,15.206873
2013-07-17,16.17,16.309999,15.67,15.70,20612900,15.168228
2013-07-16,15.20,16.09,15.17,16.02,20720000,15.47739
2013-07-15,15.22,15.35,14.92,15.06,14306900,14.549906
2013-07-12,15.07,15.15,14.79,14.94,14130300,14.43397
2013-07-11,14.82,15.27,14.75,15.22,24124600,14.704486
2013-07-10,14.03,14.25,13.79,14.00,16716500,13.525809
2013-07-09,14.12,14.36,13.85,13.91,17911700,13.438857
2013-07-08,14.03,14.21,13.73,13.79,20878100,13.322921
2013-07-05,14.25,14.30,13.43,13.76,29391000,13.293938
2013-07-03,14.62,14.93,14.47,14.69,16332100,14.192437
2013-07-02,15.25,15.25,14.33,14.51,26995700,14.018535
2013-07-01,15.89,16.15,15.08,15.25,29417400,14.73347
2013-06-28,14.73,15.92,14.67,15.74,31004700,15.206873
2013-06-27,15.03,15.30,14.78,14.87,30697400,14.366341
2013-06-26,15.47,15.52,14.75,14.78,35431700,14.279389
2013-06-25,16.440001,16.57,15.95,16.110001,19463700,15.564342
2013-06-24,16.530001,17.209999,15.71,16.57,31080500,16.00876
2013-06-21,16.77,16.99,16.16,16.889999,24954800,16.317921
2013-06-20,17.209999,17.24,16.309999,16.60,32680800,16.037745
2013-06-19,18.940001,19.139999,17.92,18.01,19959200,17.399987
2013-06-18,19.299999,19.34,18.74,18.90,13483100,18.259841
2013-06-17,19.540001,19.73,19.309999,19.42,8120500,18.762229
2013-06-14,19.969999,20.00,19.459999,19.50,9362400,18.839519
2013-06-13,19.60,19.83,19.209999,19.809999,14190400,19.139019
2013-06-12,19.75,20.33,19.610001,19.77,11928600,19.100374
2013-06-11,19.93,20.24,19.610001,19.65,11586800,18.984438
2013-06-10,20.110001,20.530001,19.799999,20.40,8690400,19.709035
2013-06-07,20.700001,20.719999,20.02,20.25,13200800,19.564116
2013-06-06,20.940001,21.450001,20.809999,21.129999,13879700,20.414309
2013-06-05,20.93,21.43,20.75,21.00,11856900,20.288713
2013-06-04,20.950001,21.01,20.360001,20.870001,14235700,20.163117
2013-06-03,21.309999,21.68,21.190001,21.40,14017100,20.675164
2013-05-31,20.950001,21.629999,20.83,21.120001,22924300,20.404649
2013-05-30,20.33,21.35,20.32,21.290001,29740000,20.568891
2013-05-29,19.16,19.860001,19.049999,19.82,16590600,19.14868
2013-05-28,19.27,19.629999,18.889999,19.15,15387700,18.308148
2013-05-24,19.559999,19.790001,18.860001,19.16,12432800,18.317708
2013-05-23,19.889999,19.940001,19.379999,19.549999,12399400,18.690563
2013-05-22,19.84,20.25,19.190001,19.50,24389000,18.642762
2013-05-21,19.25,19.76,19.07,19.370001,19838500,18.518478
2013-05-20,18.66,20.030001,18.51,19.93,18297600,19.053859
2013-05-17,19.129999,19.200001,18.469999,18.58,20580900,17.763206
2013-05-16,18.98,19.639999,18.639999,19.26,19656600,18.413313
2013-05-15,20.15,20.379999,19.32,19.440001,23813100,18.5854
2013-05-14,20.17,20.67,20.030001,20.50,11597400,19.598801
2013-05-13,20.58,20.67,20.23,20.299999,11611200,19.407592
2013-05-10,20.41,20.879999,20.10,20.879999,15005900,19.962095
2013-05-09,21.110001,21.700001,20.77,20.91,20009100,19.990777
2013-05-08,20.110001,21.49,20.10,21.41,25726500,20.468796
2013-05-07,20.059999,20.10,19.530001,19.74,21534400,18.872211
2013-05-06,20.35,20.48,20.15,20.35,19843300,19.455395
2013-05-03,19.809999,20.10,19.629999,20.00,18835700,19.120781
2013-05-02,19.60,19.75,19.15,19.540001,14977000,18.681004
2013-05-01,19.219999,19.52,18.93,19.209999,23535200,18.36551
2013-04-30,19.360001,19.709999,18.91,19.709999,18086900,18.843529
2013-04-29,18.98,19.35,18.809999,19.26,16591700,18.413313
2013-04-26,19.23,19.32,18.299999,18.549999,24557400,17.734524
2013-04-25,19.50,19.700001,19.00,19.059999,29369300,18.222104
2013-04-24,18.34,19.10,17.950001,18.91,30314000,18.078699
2013-04-23,17.83,18.030001,17.530001,17.59,21383500,16.816727
2013-04-22,18.809999,18.809999,17.60,18.01,24289400,17.218264
2013-04-19,18.51,18.92,17.76,18.17,30542100,17.37123
2013-04-18,18.00,18.25,17.59,17.98,39948000,17.189582
2013-04-17,18.85,19.110001,17.51,17.65,55695000,16.874089
2013-04-16,20.76,20.76,18.639999,18.860001,42665000,18.030897
2013-04-15,21.26,21.309999,19.65,19.780001,58926000,18.910453
2013-04-12,24.16,24.17,22.58,22.620001,39112700,21.625605
2013-04-11,24.629999,25.10,24.299999,24.73,22332800,23.642846
2013-04-10,25.969999,26.02,24.26,24.459999,40065800,23.384715
2013-04-09,26.43,27.25,26.360001,26.690001,12111200,25.516683
2013-04-08,26.610001,26.77,26.15,26.33,9406600,25.172509
2013-04-05,27.290001,27.43,26.299999,26.690001,14646400,25.516683
2013-04-04,26.469999,27.43,26.15,27.01,15828800,25.822616
2013-04-03,28.200001,28.469999,26.540001,26.700001,23498700,25.526244
2013-04-02,28.77,28.83,28.27,28.290001,8806800,27.046346
2013-04-01,29.32,29.389999,28.940001,29.02,5668300,27.744254
2013-03-28,29.209999,29.459999,29.02,29.40,4946200,28.107548
2013-03-27,28.75,29.48,28.65,29.370001,11632800,28.078868
2013-03-26,28.99,29.049999,28.690001,28.82,6098600,27.553046
2013-03-25,29.23,29.450001,28.860001,29.01,6442100,27.734694
2013-03-22,29.52,29.700001,29.17,29.379999,7285900,28.088427
2013-03-21,29.049999,29.84,28.93,29.610001,10421200,28.308317
2013-03-20,28.91,29.049999,28.67,28.809999,6082600,27.543485
2013-03-19,28.85,29.16,28.68,28.84,9393800,27.572167
2013-03-18,29.09,29.34,28.82,28.870001,6933900,27.600849
2013-03-15,28.60,28.870001,28.51,28.620001,13488600,27.361839
2013-03-14,28.43,28.91,28.41,28.59,9622700,27.333157
2013-03-13,29.24,29.389999,28.450001,28.559999,10000600,27.304475
2013-03-12,29.290001,29.59,29.139999,29.18,11406700,27.89722
2013-03-11,28.91,29.08,28.51,28.879999,7131900,27.610408
2013-03-08,28.879999,29.440001,28.59,28.91,10616900,27.639089
2013-03-07,29.76,30.10,28.93,29.049999,9963000,27.772934
2013-03-06,28.49,29.700001,28.309999,29.690001,14215400,28.384801
2013-03-05,28.940001,29.09,28.50,28.52,9098400,27.266235
2013-03-04,29.33,29.450001,28.51,28.65,12897400,27.390519
2013-03-01,30.41,30.459999,29.33,29.40,17466900,28.107548
2013-02-28,30.77,30.77,30.15,30.24,9116500,28.910621
2013-02-27,31.120001,31.219999,30.620001,30.91,10039300,29.551168
2013-02-26,30.879999,31.60,30.59,31.26,11583100,29.885782
2013-02-25,30.77,31.440001,30.559999,30.99,10249900,29.436443
2013-02-22,30.34,30.639999,30.139999,30.49,5848900,28.961509
2013-02-21,30.32,30.77,30.200001,30.389999,11462000,28.866521
2013-02-20,30.99,31.32,30.23,30.27,16653200,28.752538
2013-02-19,31.50,31.73,30.90,31.51,11709500,29.930375
2013-02-15,32.040001,32.119999,31.360001,31.629999,15273100,30.044359
2013-02-14,31.92,33.360001,31.92,32.41,25047500,30.785257
2013-02-13,32.360001,32.580002,31.58,31.59,13872000,30.006365
2013-02-12,32.049999,32.50,31.84,32.490002,7647700,30.861249
2013-02-11,32.349998,32.41,32.07,32.299999,5705900,30.680771
2013-02-08,32.73,32.939999,32.57,32.720001,3710300,31.079718
2013-02-07,32.580002,33.049999,32.419998,32.73,5912700,31.089215
2013-02-06,32.52,33.009998,32.41,32.759998,5727700,31.11771
2013-02-05,32.599998,32.790001,32.310001,32.52,6547700,30.889743
2013-02-04,32.060001,32.73,32.00,32.349998,12808800,30.728264
2013-02-01,32.27,32.400002,31.77,32.200001,12795100,30.585786
2013-01-31,32.200001,32.220001,31.809999,31.92,8956000,30.319822
2013-01-30,33.209999,33.360001,32.310001,32.389999,11880300,30.766259
2013-01-29,32.869999,33.049999,32.490002,32.830002,11984000,31.184204
2013-01-28,32.869999,32.889999,32.439999,32.549999,7137600,30.918238
2013-01-25,33.150002,33.18,32.68,32.810001,10347400,31.165206
2013-01-24,33.91,33.939999,33.279999,33.290001,11803400,31.621143
2013-01-23,34.900002,34.990002,34.080002,34.080002,7735400,32.371541
2013-01-22,34.18,34.959999,34.009998,34.810001,7821200,33.064945
2013-01-18,34.119999,34.209999,33.950001,34.040001,5363500,32.333545
2013-01-17,33.959999,34.360001,33.509998,34.080002,8865800,32.371541
2013-01-16,34.43,34.459999,34.029999,34.139999,8229800,32.42853
2013-01-15,34.450001,35.060001,34.150002,34.59,8214800,32.855972
2013-01-14,34.419998,34.619999,34.09,34.18,6118000,32.466526
2013-01-11,34.490002,34.509998,34.02,34.25,8236700,32.533017
2013-01-10,33.970001,34.66,33.91,34.50,8636000,32.770484
2013-01-09,33.560001,33.720001,33.310001,33.610001,7252400,31.925101
2013-01-08,34.040001,34.060001,33.32,33.509998,9684000,31.830112
2013-01-07,34.34,34.450001,33.990002,34.09,6081800,32.381038
2013-01-04,34.060001,34.700001,33.939999,34.599998,6942400,32.865469
2013-01-03,35.470001,35.549999,34.32,34.450001,6611600,32.722991
2013-01-02,35.919998,36.080002,35.380001,35.529999,7048000,33.748848
2012-12-31,34.040001,35.18,34.00,35.009998,8321500,33.254915
2012-12-28,34.25,34.43,34.009998,34.009998,4054500,32.305046
2012-12-27,33.73,34.689999,33.709999,34.259998,7162200,32.542514
2012-12-26,33.82,34.380001,33.799999,34.099998,4801200,32.390535
2012-12-24,33.380001,33.799999,33.25,33.75,3622500,32.058082
2012-12-21,33.650002,33.93,33.290001,33.380001,12908600,31.706631
2012-12-20,33.50,33.68,32.810001,33.639999,10203200,31.953596
2012-12-19,33.919998,34.060001,33.50,33.810001,6038000,32.115075
2012-12-18,34.459999,34.490002,33.66,33.970001,7317700,32.267054
2012-12-17,34.25,34.560001,34.009998,34.490002,4435800,32.760987
2012-12-14,34.290001,34.48,33.950001,34.23,5191900,32.514019
2012-12-13,34.560001,34.77,34.040001,34.369999,6551900,32.647
2012-12-12,34.43,35.529999,34.330002,35.119999,8409000,33.359402
2012-12-11,34.169998,34.419998,34.00,34.009998,4772700,32.305046
2012-12-10,33.830002,34.310001,33.799999,34.189999,5041800,32.476023
2012-12-07,33.68,33.880001,33.450001,33.599998,5729800,31.9156
2012-12-06,33.41,33.91,33.200001,33.43,7115800,31.754124
2012-12-05,34.220001,34.220001,33.330002,33.400002,8778200,31.725629
2012-12-04,33.34,34.470001,33.25,34.189999,8307600,32.476023
2012-12-03,34.619999,34.669998,33.66,33.709999,10200700,32.020086
2012-11-30,34.759998,35.07,34.130001,34.529999,6130500,32.798979
2012-11-29,35.130001,35.27,34.599998,34.900002,5496700,33.150433
2012-11-28,33.790001,34.84,33.549999,34.830002,8176500,33.083942
2012-11-27,35.200001,35.299999,34.509998,34.540001,5931600,32.618505
2012-11-26,35.490002,35.50,34.720001,35.259998,6265100,33.298448
2012-11-23,35.060001,35.650002,34.66,35.540001,5130500,33.562874
2012-11-21,34.200001,34.860001,34.080002,34.790001,4944600,32.854597
2012-11-20,34.310001,34.599998,34.009998,34.290001,6172000,32.382412
2012-11-19,34.25,34.540001,34.130001,34.299999,6518400,32.391855
2012-11-16,33.18,34.02,32.869999,33.720001,9821300,31.844122
2012-11-15,33.990002,34.040001,33.029999,33.27,11104800,31.419156
2012-11-14,35.259998,35.330002,33.810001,33.93,10496200,32.042439
2012-11-13,35.360001,35.669998,35.25,35.290001,6144400,33.326781
2012-11-12,36.07,36.349998,35.560001,35.880001,4542200,33.883959
2012-11-09,36.900002,36.91,36.02,36.07,5835400,34.063388
2012-11-08,36.290001,36.830002,35.830002,36.50,8223200,34.469467
2012-11-07,36.080002,36.400002,35.07,36.259998,10688900,34.242817
2012-11-06,35.59,36.07,35.169998,35.560001,9856900,33.581761
2012-11-05,35.740002,35.919998,35.080002,35.080002,9632900,33.128465
2012-11-02,36.34,36.34,35.369999,35.380001,15241100,33.411775
2012-11-01,37.490002,38.00,36.560001,36.700001,22771100,34.658341
2012-10-31,40.299999,40.799999,39.950001,40.50,8440300,38.246943
2012-10-26,39.669998,39.68,39.130001,39.18,5249600,37.000376
2012-10-25,39.209999,39.630001,39.07,39.490002,5763800,37.293132
2012-10-24,39.240002,39.27,38.330002,38.470001,7328800,36.329875
2012-10-23,38.669998,39.09,38.369999,38.91,6896000,36.745396
2012-10-22,38.630001,39.43,38.529999,39.299999,6594900,37.113699
2012-10-19,38.919998,39.099998,38.240002,38.779999,10262700,36.622627
2012-10-18,39.459999,39.68,38.849998,38.919998,6597700,36.754838
2012-10-17,39.77,40.310001,39.220001,39.939999,6250500,37.718095
2012-10-16,39.32,39.900002,39.00,39.810001,7363700,37.59533
2012-10-15,38.740002,38.860001,38.279999,38.84,7465100,36.67929
2012-10-12,39.830002,39.880001,38.889999,39.02,7044800,36.849277
2012-10-11,40.290001,40.41,39.869999,39.91,5808800,37.689765
2012-10-10,40.060001,40.950001,40.029999,40.150002,6559900,37.916415
2012-10-09,41.59,41.599998,40.48,40.490002,5573600,38.237501
2012-10-08,41.529999,41.700001,41.060001,41.369999,3337700,39.068543
2012-10-05,41.970001,42.459999,41.779999,42.00,6283000,39.663496
2012-10-04,41.650002,42.189999,41.419998,42.189999,8129700,39.842925
2012-10-03,41.700001,41.889999,41.009998,41.110001,4875900,38.823008
2012-10-02,42.07,42.130001,41.330002,41.619999,4792600,39.304635
2012-10-01,42.209999,42.540001,41.759998,41.900002,5361100,39.569061
2012-09-28,41.619999,41.91,41.23,41.759998,8178000,39.436846
2012-09-27,41.380001,41.860001,41.02,41.860001,7796400,39.531285
2012-09-26,40.279999,41.16,39.900002,40.950001,9403600,38.67191
2012-09-25,41.990002,42.279999,40.93,40.950001,8609600,38.67191
2012-09-24,42.18,42.50,41.25,41.310001,9036300,39.011883
2012-09-21,42.950001,43.189999,42.349998,42.860001,13202200,40.475654
2012-09-20,42.25,42.48,41.889999,42.459999,7936700,40.097905
2012-09-19,42.349998,42.939999,42.080002,42.740002,9207000,40.362331
2012-09-18,41.959999,42.290001,41.669998,42.049999,11608400,39.710714
2012-09-17,42.490002,42.759998,41.580002,42.169998,9018000,39.824037
2012-09-14,42.23,42.75,42.09,42.380001,12663200,40.022357
2012-09-13,39.700001,41.669998,38.970001,41.630001,14618700,39.314081
2012-09-12,39.84,39.880001,38.639999,39.709999,8799400,37.50089
2012-09-11,39.84,40.00,39.259998,39.459999,6052600,37.264798
2012-09-10,40.09,40.279999,39.310001,39.380001,5706900,37.189251
2012-09-07,39.970001,40.48,39.669998,40.16,10265500,37.925857
2012-09-06,38.619999,39.00,38.169998,39.00,8160600,36.830389
2012-09-05,38.240002,38.299999,37.25,38.09,5935000,35.971014
2012-09-04,38.68,38.740002,37.950001,38.25,6168000,36.122113
2012-08-31,37.419998,38.68,37.150002,38.52,10514100,36.377093
2012-08-30,37.040001,37.389999,36.799999,37.09,5499100,35.026645
2012-08-29,37.669998,37.669998,36.91,37.080002,6792200,35.017203
2012-08-28,37.66,38.150002,37.560001,37.73,6615000,35.442168
2012-08-27,37.810001,37.970001,37.369999,37.48,5016800,35.207327
2012-08-24,37.939999,38.220001,37.610001,37.779999,6606400,35.489135
2012-08-23,38.07,38.299999,37.549999,38.040001,13793300,35.733372
2012-08-22,37.009998,37.700001,36.369999,37.630001,8992700,35.348233
2012-08-21,37.299999,37.799999,36.75,36.900002,10330600,34.662498
2012-08-20,36.110001,36.52,35.700001,36.439999,6430900,34.230389
2012-08-17,36.23,36.41,35.50,35.98,7272600,33.798283
2012-08-16,35.049999,36.099998,34.939999,36.07,9544200,33.882825
2012-08-15,34.139999,34.740002,33.98,34.689999,5302300,32.586503
2012-08-14,34.029999,34.450001,33.919998,34.139999,4530100,32.069854
2012-08-13,34.880001,35.16,34.099998,34.220001,6443200,32.145005
2012-08-10,34.189999,34.610001,33.849998,34.59,7727900,32.492568
2012-08-09,34.029999,34.360001,33.650002,34.139999,4781800,32.069854
2012-08-08,34.25,34.709999,33.689999,33.779999,6871500,31.731683
2012-08-07,33.709999,34.16,33.529999,34.029999,7383800,31.966524
2012-08-06,33.049999,33.84,32.849998,33.360001,5608800,31.337152
2012-08-03,32.740002,32.990002,32.439999,32.75,8165300,30.76414
2012-08-02,32.360001,33.029999,32.00,32.139999,8077900,30.191128
2012-08-01,32.799999,33.189999,31.48,32.48,9008200,30.510512
2012-07-31,33.209999,33.50,32.73,32.880001,7348400,30.886258
2012-07-30,32.450001,33.18,32.330002,33.060001,8386500,31.055344
2012-07-27,32.959999,32.98,31.84,32.349998,13232700,30.388394
2012-07-26,31.57,33.060001,31.00,32.73,26770400,30.745353
2012-07-25,33.84,34.470001,33.330002,33.799999,9379700,31.750471
2012-07-24,34.130001,34.130001,32.880001,33.110001,9097100,31.102312
2012-07-23,34.02,34.07,33.509998,33.610001,6883500,31.571993
2012-07-20,34.740002,35.040001,34.43,34.57,6510600,32.473781
2012-07-19,34.740002,35.23,34.43,34.77,8502000,32.661654
2012-07-18,34.41,34.720001,33.950001,34.310001,7312500,32.229548
2012-07-17,34.810001,34.950001,33.970001,34.650002,6819800,32.548932
2012-07-16,35.060001,35.099998,34.470001,34.869999,7061300,32.755589
2012-07-13,34.84,35.189999,34.52,34.84,7269800,32.727409
2012-07-12,34.540001,34.759998,33.669998,34.560001,13021700,32.464389
2012-07-11,35.57,35.669998,34.470001,34.950001,12921500,32.83074
2012-07-10,36.82,37.049999,35.369999,35.630001,7726000,33.469507
2012-07-09,36.900002,37.09,36.220001,36.630001,6007600,34.40887
2012-07-06,37.380001,37.950001,36.849998,36.860001,7411500,34.624923
2012-07-05,38.27,38.41,37.880001,38.099998,9722300,35.789731
2012-07-03,38.470001,39.00,38.200001,38.709999,5209500,36.362743
2012-07-02,37.630001,37.91,37.080002,37.450001,4355300,35.179147
2012-06-29,37.66,37.77,36.869999,37.57,9027300,35.29187
2012-06-28,36.200001,36.299999,35.549999,36.23,7509900,34.033123
2012-06-27,36.970001,37.029999,36.220001,36.580002,7499000,34.361903
2012-06-26,37.790001,38.139999,36.580002,36.919998,8733700,34.681283
2012-06-25,37.720001,38.619999,37.220001,38.240002,8593500,35.921245
2012-06-22,38.470001,38.900002,37.459999,37.919998,8444500,35.620646
2012-06-21,39.490002,39.610001,38.279999,38.290001,7831300,35.968213
2012-06-20,39.889999,40.91,39.549999,40.32,12683900,37.875118
2012-06-19,40.27,40.459999,39.700001,40.279999,9144300,37.837543
2012-06-18,39.150002,40.23,38.970001,40.189999,10069100,37.753
2012-06-15,39.119999,39.509998,38.73,39.509998,19713700,37.114233
2012-06-14,38.869999,39.02,38.09,38.990002,9463800,36.625767
2012-06-13,39.009998,39.049999,38.200001,38.470001,9482400,36.137298
2012-06-12,38.75,39.200001,38.040001,38.540001,9812200,36.203053
2012-06-11,39.299999,39.360001,38.27,38.310001,7423100,35.987
2012-06-08,38.259998,39.380001,38.080002,39.029999,7119100,36.663339
2012-06-07,40.279999,40.360001,38.07,38.779999,17367800,36.428498
2012-06-06,42.970001,43.299999,40.060001,40.450001,19618000,37.997237
2012-06-05,42.060001,42.200001,41.669998,42.049999,6835900,39.500216
2012-06-04,41.91,42.18,40.93,42.150002,12351700,39.594155
2012-06-01,40.200001,42.150002,40.029999,41.91,17475900,39.368706
2012-05-31,39.00,39.619999,38.540001,39.060001,9465000,36.691523
2012-05-30,38.349998,39.830002,37.91,39.07,7208800,36.700915
2012-05-29,40.18,40.369999,38.490002,38.93,7094500,36.569404
2012-05-25,39.73,40.209999,39.450001,40.00,5457700,37.386649
2012-05-24,39.82,40.389999,38.919998,39.509998,14729500,36.928661
2012-05-23,37.099998,39.599998,36.889999,39.599998,13600000,37.012781
2012-05-22,38.02,38.639999,37.310001,37.619999,10191800,35.162142
2012-05-21,37.139999,38.299999,37.029999,38.16,4883900,35.666863
2012-05-18,38.110001,38.75,36.93,37.119999,10651500,34.694809
2012-05-17,35.560001,37.66,35.560001,37.41,15911300,34.965863
2012-05-16,35.139999,36.189999,34.82,35.240002,11590800,32.937639
2012-05-15,36.630001,36.68,34.860001,34.990002,11164200,32.703972
2012-05-14,36.619999,37.459999,36.099998,36.529999,7042300,34.143356
2012-05-11,37.470001,37.810001,37.00,37.040001,6002500,34.620038
2012-05-10,38.09,38.240002,37.389999,37.77,7737900,35.302343
2012-05-09,36.040001,38.299999,35.610001,37.619999,12715600,35.162142
2012-05-08,37.27,37.400002,36.200001,36.720001,9742200,34.320945
2012-05-07,38.02,38.310001,37.360001,37.939999,6729700,35.461235
2012-05-04,37.950001,38.50,37.84,37.889999,7726200,35.414502
2012-05-03,38.900002,38.98,37.450001,37.98,11681400,35.498622
2012-05-02,39.799999,39.849998,39.119999,39.360001,8935500,36.788463
2012-05-01,40.580002,40.759998,40.099998,40.439999,4654100,37.797901
2012-04-30,40.389999,40.59,39.75,40.43,6105700,37.788555
2012-04-27,40.389999,40.689999,40.130001,40.66,6361900,38.003528
2012-04-26,39.959999,40.209999,39.59,39.939999,8732900,37.330567
2012-04-25,39.950001,40.110001,39.380001,39.970001,9113800,37.35861
2012-04-24,40.029999,40.09,39.32,39.610001,4557700,37.022129
2012-04-23,39.709999,39.779999,38.459999,39.689999,9194000,37.096901
2012-04-20,41.240002,41.259998,40.220001,40.259998,8212400,37.62966
2012-04-19,41.34,41.48,40.810001,40.950001,5583600,38.274582
2012-04-18,41.02,41.59,40.759998,41.09,6349100,38.405435
2012-04-17,41.02,41.720001,40.669998,41.310001,5312900,38.611063
2012-04-16,41.580002,41.91,40.779999,40.810001,6254100,38.14373
2012-04-13,42.130001,42.139999,41.32,41.610001,5739900,38.891462
2012-04-12,41.23,42.439999,41.00,42.200001,6746300,39.442915
2012-04-11,41.869999,41.869999,40.98,41.040001,5168900,38.358702
2012-04-10,41.029999,41.75,40.709999,41.48,9793200,38.769954
2012-04-09,41.00,41.619999,40.830002,40.93,8061400,38.255889
2012-04-05,41.43,41.580002,40.41,40.73,9032800,38.068955
2012-04-04,42.150002,42.48,40.459999,41.310001,14840700,38.611063
2012-04-03,44.259998,44.34,42.48,42.939999,9368300,40.134566
2012-04-02,43.68,44.50,43.509998,44.209999,6732400,41.321593
2012-03-30,43.720001,43.740002,42.950001,43.48,6550600,40.639287
2012-03-29,43.040001,43.139999,42.200001,43.130001,9073100,40.312155
2012-03-28,43.68,43.77,42.77,43.150002,7779000,40.330849
2012-03-27,44.790001,44.869999,43.779999,43.799999,6565300,40.93838
2012-03-26,44.75,44.810001,43.950001,44.490002,7310300,41.583302
2012-03-23,43.349998,43.98,43.09,43.759998,6707100,40.900992
2012-03-22,42.889999,43.369999,42.50,43.080002,6964000,40.265422
2012-03-21,44.23,44.23,43.50,43.630001,7823900,40.779488
2012-03-20,43.16,43.91,42.529999,43.790001,9013400,40.929034
2012-03-19,44.029999,44.400002,43.549999,43.639999,8052500,40.788833
2012-03-16,43.470001,44.099998,43.389999,43.950001,16756000,41.078581
2012-03-15,43.330002,44.48,43.049999,43.849998,12350300,40.985112
2012-03-14,44.709999,44.73,42.720001,43.32,22560100,40.48974
2012-03-13,45.50,46.009998,45.049999,45.349998,6943500,42.387111
2012-03-12,45.529999,45.860001,45.23,45.630001,3719600,42.64882
2012-03-09,45.709999,46.189999,45.43,45.810001,7563500,42.817061
2012-03-08,46.32,46.400002,45.700001,46.049999,5574700,43.041379
2012-03-07,45.93,45.950001,45.200001,45.799999,5986700,42.807712
2012-03-06,45.93,45.939999,45.139999,45.73,7738600,42.742286
2012-03-05,47.240002,47.240002,46.330002,46.759998,7063600,43.704991
2012-03-02,47.82,47.98,47.110001,47.419998,5466200,44.32187
2012-03-01,47.880001,48.59,47.439999,48.040001,6271800,44.901366
2012-02-29,49.529999,49.900002,47.48,47.73,13748200,44.611618
2012-02-28,48.880001,49.669998,48.57,49.459999,6200600,46.22859
2012-02-27,49.02,49.110001,48.330002,48.509998,5162200,45.340657
2012-02-24,49.439999,49.549999,48.560001,48.860001,5879600,45.527592
2012-02-23,49.68,50.02,49.200001,49.580002,6605400,46.198487
2012-02-22,48.400002,49.650002,47.91,49.439999,8231600,46.068032
2012-02-21,47.779999,48.549999,47.529999,48.450001,6246800,45.145555
2012-02-17,48.48,48.490002,46.880001,47.029999,7232700,43.822402
2012-02-16,46.66,48.380001,45.889999,48.169998,10171200,44.88465
2012-02-15,48.189999,48.200001,47.380001,47.43,5468600,44.195122
2012-02-14,48.16,48.259998,47.099998,47.610001,7176000,44.362846
2012-02-13,48.419998,48.52,47.599998,48.029999,4334800,44.754199
2012-02-10,48.310001,48.419998,47.709999,48.150002,6284000,44.866017
2012-02-09,49.619999,49.849998,48.799999,49.00,4801500,45.658043
2012-02-08,49.400002,49.830002,48.860001,49.07,4937900,45.723268
2012-02-07,49.209999,50.00,48.509998,49.279999,6899700,45.918945
2012-02-06,48.50,49.610001,48.43,49.169998,6006600,45.816446
2012-02-03,49.23,49.369999,48.459999,49.07,9947600,45.723268
2012-02-02,49.66,50.389999,49.369999,49.830002,5884100,46.431436
2012-02-01,49.939999,49.970001,49.040001,49.259998,5872500,45.900308
2012-01-31,49.950001,50.23,48.759998,49.259998,6715300,45.900308
2012-01-30,48.459999,49.560001,48.279999,49.18,5256900,45.825766
2012-01-27,48.790001,49.900002,48.759998,49.509998,8238900,46.133257
2012-01-26,49.470001,49.889999,48.610001,48.860001,12248700,45.527592
2012-01-25,45.459999,48.740002,45.200001,48.41,12864500,45.108282
2012-01-24,46.150002,46.279999,45.299999,45.48,6933300,42.378118
2012-01-23,46.130001,46.970001,46.119999,46.950001,9693900,43.74786
2012-01-20,46.389999,47.029999,45.310001,45.830002,14123400,42.704249
2012-01-19,47.59,48.009998,45.970001,46.459999,9693800,43.291278
2012-01-18,47.919998,48.360001,47.52,47.950001,5821900,44.679657
2012-01-17,48.630001,48.939999,47.41,48.00,6999600,44.726246
2012-01-13,48.34,48.400002,47.50,48.34,3645700,45.043057
2012-01-12,48.880001,49.509998,48.360001,48.810001,4033900,45.481003
2012-01-11,48.43,48.950001,47.959999,48.77,4169600,45.44373
2012-01-10,48.59,48.889999,48.279999,48.330002,6594300,45.033741
2012-01-09,47.720001,48.029999,47.25,47.709999,3958600,44.456024
2012-01-06,48.299999,48.299999,47.27,47.540001,4527100,44.29762
2012-01-05,47.720001,48.52,47.419998,48.02,5800800,44.744882
2012-01-04,47.48,48.490002,47.330002,48.220001,8905400,44.931242
2012-01-03,46.27,47.77,46.200001,47.509998,9010200,44.269664
2011-12-30,45.599998,45.959999,45.139999,45.25,4394400,42.163805
2011-12-29,43.889999,45.240002,43.720001,45.18,4910700,42.098579
2011-12-28,45.59,45.75,44.00,44.240002,6032900,41.222692
2011-12-27,45.790001,46.09,45.330002,45.50,2519500,42.396754
2011-12-23,46.310001,46.400002,45.84,46.02,2941500,42.881289
2011-12-22,46.130001,46.279999,45.299999,45.889999,8771500,42.760154
2011-12-21,46.639999,46.73,45.810001,46.279999,6149400,43.123554
2011-12-20,45.700001,46.48,45.549999,46.09,7736600,42.946514
2011-12-19,45.09,45.279999,44.220001,44.599998,7744300,41.558135
2011-12-16,44.700001,45.790001,44.57,44.93,10801600,41.86563
2011-12-15,44.990002,45.50,44.119999,44.189999,8795800,41.176099
2011-12-14,45.529999,45.810001,44.139999,44.669998,14061300,41.623361
2011-12-13,47.849998,48.799999,46.23,46.650002,8433200,43.468322
2011-12-12,48.509998,48.529999,47.27,47.880001,7740600,44.614431
2011-12-09,49.580002,50.080002,49.110001,49.810001,5410300,46.412799
2011-12-08,50.360001,50.57,49.299999,49.59,5546900,46.207803
2011-12-07,51.189999,51.380001,50.599998,51.18,4820800,47.68936
2011-12-06,49.950001,51.810001,49.759998,51.200001,6114400,47.707996
2011-12-05,50.540001,51.779999,49.919998,50.27,8264700,46.841425
2011-12-02,53.02,53.139999,50.91,51.02,7713100,47.540273
2011-12-01,52.549999,53.00,52.099998,52.810001,5495200,49.20819
2011-11-30,51.849998,52.900002,51.540001,52.880001,8190300,49.273415
2011-11-29,49.25,50.290001,49.220001,49.93,4821200,46.524614
2011-11-28,49.720001,50.419998,49.290001,49.540001,6277200,46.161214
2011-11-25,47.400002,48.580002,47.400002,47.59,2423800,44.204439
2011-11-23,48.369999,48.580002,47.52,47.959999,6195900,44.548117
2011-11-22,48.459999,49.650002,48.360001,49.060001,5565400,45.569865
2011-11-21,48.290001,48.34,47.34,48.09,7551200,44.668869
2011-11-18,49.490002,50.209999,48.709999,48.84,6442400,45.365514
2011-11-17,50.860001,51.119999,49.200001,49.279999,7369900,45.774211
2011-11-16,51.700001,52.43,51.299999,51.459999,4443300,47.799126
2011-11-15,52.040001,52.630001,51.619999,52.299999,4378500,48.579368
2011-11-14,52.73,53.139999,51.799999,52.23,4718100,48.514348
2011-11-11,51.810001,53.209999,51.619999,53.169998,5217100,49.387475
2011-11-10,51.189999,51.73,50.099998,51.099998,6570600,47.464736
2011-11-09,51.759998,52.98,51.099998,51.150002,13107100,47.511182
2011-11-08,52.27,53.259998,52.02,52.060001,7551600,48.356444
2011-11-07,51.93,52.880001,51.799999,52.810001,4933700,49.053089
2011-11-04,51.360001,51.880001,50.490002,51.419998,4575800,47.761971
2011-11-03,51.380001,52.040001,50.720001,52.029999,7138300,48.328576
2011-11-02,50.040001,51.48,49.93,50.52,8795000,46.925999
2011-11-01,47.720001,49.900002,47.189999,49.32,8431500,45.811367
2011-10-31,50.080002,50.25,49.450001,49.50,6421600,45.978562
2011-10-28,49.09,50.990002,48.799999,50.849998,9014000,47.232521
2011-10-27,48.639999,49.540001,47.689999,48.959999,14538800,45.476976
2011-10-26,47.900002,48.349998,47.09,47.849998,9360500,44.445941
2011-10-25,46.330002,47.900002,45.599998,47.200001,8685300,43.842185
2011-10-24,45.25,46.439999,45.189999,46.279999,6885800,42.987632
2011-10-21,45.549999,45.549999,44.080002,44.59,7426500,41.41786
2011-10-20,44.59,44.630001,43.119999,44.330002,11497100,41.176358
2011-10-19,47.450001,47.450001,44.639999,44.799999,11010700,41.61292
2011-10-18,46.48,47.419998,45.299999,47.119999,8544000,43.767874
2011-10-17,48.150002,48.25,47.029999,47.200001,3665700,43.842185
2011-10-14,47.610001,48.279999,47.310001,48.240002,4553500,44.8082
2011-10-13,47.66,47.709999,46.490002,47.00,5408800,43.656412
2011-10-12,48.639999,48.73,47.82,48.189999,5691000,44.761754
2011-10-11,47.82,48.080002,47.07,47.849998,4175500,44.445941
2011-10-10,47.619999,48.00,47.00,47.950001,4292900,44.53883
2011-10-07,48.529999,48.619999,46.290001,46.639999,5677100,43.322022
2011-10-06,46.419998,47.779999,45.740002,47.720001,8525100,44.325192
2011-10-05,44.200001,46.400002,44.150002,46.27,8415100,42.978345
2011-10-04,45.150002,45.52,42.889999,44.610001,12300000,41.436438
2011-10-03,47.240002,47.630001,46.169998,46.209999,6940000,42.922612
2011-09-30,45.900002,47.599998,45.610001,46.650002,7154600,43.331312
2011-09-29,46.720001,46.880001,45.450001,46.25,6553000,42.959767
2011-09-28,47.959999,48.330002,45.73,45.869999,7805500,42.606799
2011-09-27,49.080002,49.389999,47.389999,47.639999,8972200,44.250882
2011-09-26,46.130001,47.639999,45.150002,47.389999,9615000,44.018667
2011-09-23,47.27,47.900002,45.709999,46.419998,11648500,43.117672
2011-09-22,50.459999,50.459999,47.970001,48.759998,15615300,45.291204
2011-09-21,53.990002,55.200001,53.25,53.32,9274900,49.526806
2011-09-20,53.259998,55.110001,52.950001,53.990002,13188500,50.149144
2011-09-19,53.48,54.529999,53.189999,53.419998,8136000,49.61969
2011-09-16,53.369999,53.77,52.849998,53.580002,9175300,49.768311
2011-09-15,52.400002,53.240002,51.799999,52.869999,7724500,49.108818
2011-09-14,53.52,53.689999,52.509998,52.700001,7610000,48.950914
2011-09-13,53.540001,53.889999,52.50,53.639999,6839600,49.824041
2011-09-12,53.650002,54.720001,52.209999,53.330002,8838300,49.536096
2011-09-09,54.400002,55.50,54.169998,54.549999,7856300,50.669303
2011-09-08,55.200001,55.950001,55.09,55.18,11040700,51.254486
2011-09-07,52.66,54.490002,52.139999,54.48,10007700,50.604283
2011-09-06,53.48,54.959999,53.009998,53.59,13266100,49.777598
2011-09-02,52.150002,53.98,52.080002,52.869999,11098800,49.108818
2011-09-01,50.709999,51.98,50.419998,51.669998,6360300,47.994186
2011-08-31,50.830002,51.389999,50.02,50.75,9719500,47.139636
2011-08-30,50.73,51.209999,50.080002,50.849998,8718100,47.232521
2011-08-29,51.110001,51.150002,49.66,50.209999,7169700,46.638051
2011-08-26,50.34,51.099998,48.93,51.029999,8085400,47.288256
2011-08-25,48.349998,50.360001,47.82,49.990002,9163100,46.324516
2011-08-24,49.970001,50.389999,48.02,48.990002,13220900,45.39784
2011-08-23,51.27,51.799999,50.060001,50.689999,11976000,46.973186
2011-08-22,51.32,52.779999,51.220001,52.049999,13597900,48.233465
2011-08-19,50.50,51.619999,50.439999,50.779999,12060900,47.056587
2011-08-18,50.630001,50.630001,49.639999,49.880001,10195500,46.222581
2011-08-17,50.099998,51.029999,50.009998,50.43,5941700,46.732252
2011-08-16,50.540001,50.860001,49.880001,50.169998,6155300,46.491314
2011-08-15,49.650002,50.900002,49.110001,50.68,8902700,46.963921
2011-08-12,49.349998,49.919998,48.68,49.560001,8466100,45.926045
2011-08-11,49.259998,50.450001,47.869999,49.869999,13326400,46.213312
2011-08-10,47.790001,50.330002,47.07,49.66,17351700,46.018711
2011-08-09,46.919998,47.810001,45.84,47.740002,15078000,44.239496
2011-08-08,46.259998,48.310001,45.91,46.139999,17595700,42.756812
2011-08-05,46.369999,47.27,44.59,45.860001,12828300,42.497344
2011-08-04,49.439999,49.48,45.139999,46.209999,15371700,42.821679
2011-08-03,48.959999,49.900002,48.869999,49.119999,9929900,45.518305
2011-08-02,48.860001,49.040001,48.00,48.59,9317600,45.027168
2011-08-01,48.09,48.900002,47.68,48.02,6941300,44.498964
2011-07-29,48.279999,48.279999,47.279999,47.57,6135400,44.081959
2011-07-28,48.029999,48.360001,47.25,48.169998,10314200,44.637963
2011-07-27,50.169998,50.369999,48.450001,48.540001,7866600,44.980835
2011-07-26,49.959999,50.07,49.450001,49.790001,4341600,46.13918
2011-07-25,50.700001,51.00,49.68,49.759998,8030400,46.111377
2011-07-22,49.82,50.380001,49.619999,50.25,7039000,46.56545
2011-07-21,49.619999,49.990002,49.380001,49.580002,10357500,45.944579
2011-07-20,48.48,49.27,48.02,49.189999,8918000,45.583172
2011-07-19,49.369999,49.389999,48.25,48.560001,8702600,44.999369
2011-07-18,48.75,49.259998,48.48,49.029999,9031200,45.434904
2011-07-15,47.990002,48.48,47.919998,48.310001,5759300,44.7677
2011-07-14,49.07,49.099998,47.799999,47.950001,8334400,44.434097
2011-07-13,47.759998,49.07,47.68,48.529999,13395300,44.971567
2011-07-12,45.75,47.439999,45.599998,47.040001,8798300,43.590822
2011-07-11,46.50,46.66,45.610001,45.880001,6319800,42.515878
2011-07-08,46.599998,46.759998,46.00,46.240002,6194400,42.849482
2011-07-07,46.490002,47.040001,46.139999,46.189999,8338200,42.803146
2011-07-06,46.529999,46.669998,46.07,46.150002,6834600,42.766081
2011-07-05,45.889999,46.400002,45.150002,45.98,8058500,42.608544
2011-07-01,45.099998,45.25,44.25,44.779999,4930000,41.496533
2011-06-30,45.32,45.400002,44.66,45.290001,6254600,41.96914
2011-06-29,44.509998,45.709999,44.25,45.080002,7683100,41.774539
2011-06-28,43.299999,44.130001,43.07,43.889999,6532500,40.671792
2011-06-27,42.810001,43.360001,42.50,43.16,7418400,39.99532
2011-06-24,43.98,44.00,42.919998,43.040001,6200200,39.884119
2011-06-23,43.66,44.049999,43.099998,43.990002,8392700,40.764462
2011-06-22,44.259998,45.650002,44.200001,44.759998,8185900,41.477999
2011-06-21,43.529999,44.41,43.290001,44.189999,5812400,40.949794
2011-06-20,43.110001,43.830002,43.09,43.169998,5637800,40.004585
2011-06-17,43.07,43.669998,42.939999,43.18,8763600,40.013853
2011-06-16,43.900002,44.00,42.720001,43.080002,8096100,39.921187
2011-06-15,43.73,44.50,43.32,43.93,7845800,40.70886
2011-06-14,43.639999,44.23,43.57,43.91,5138000,40.690326
2011-06-13,43.610001,44.029999,43.09,43.389999,6277800,40.208454
2011-06-10,43.900002,44.099998,43.349998,43.560001,8023300,40.365991
2011-06-09,44.290001,44.970001,43.970001,44.400002,7136000,41.144399
2011-06-08,44.810001,44.91,43.889999,44.32,9716600,41.070263
2011-06-07,45.73,45.98,45.25,45.330002,4692700,42.006207
2011-06-06,46.07,46.549999,45.240002,45.490002,6569600,42.154475
2011-06-03,45.970001,46.099998,45.50,45.830002,7652600,42.469545
2011-06-02,47.27,47.470001,45.689999,46.220001,9831800,42.830948
2011-06-01,48.00,48.220001,47.220001,47.279999,7816300,43.813222
2011-05-31,48.099998,48.110001,47.110001,47.759998,7266300,44.258026
2011-05-27,47.599998,47.91,47.169998,47.389999,5979600,43.915157
2011-05-26,47.27,47.41,46.639999,47.169998,6389100,43.600085
2011-05-25,46.959999,47.450001,46.439999,47.119999,8432200,43.55387
2011-05-24,46.169998,46.93,45.889999,46.810001,9640100,43.267333
2011-05-23,45.470001,46.209999,45.02,45.529999,8353900,42.084204
2011-05-20,45.52,46.119999,44.59,45.599998,11316700,42.148906
2011-05-19,45.490002,45.849998,45.119999,45.57,6220500,42.121177
2011-05-18,45.66,45.740002,45.150002,45.349998,8361500,41.917826
2011-05-17,44.959999,45.459999,44.529999,45.240002,9694400,41.816154
2011-05-16,45.099998,45.950001,44.77,45.169998,10102400,41.751448
2011-05-13,45.25,45.459999,44.25,45.009998,11141500,41.603558
2011-05-12,45.259998,46.639999,44.57,45.150002,12361700,41.732965
2011-05-11,47.57,47.650002,45.009998,45.549999,16704100,42.10269
2011-05-10,48.139999,48.139999,47.360001,47.650002,6459900,44.043761
2011-05-09,47.419998,47.700001,47.049999,47.669998,6201100,44.062244
2011-05-06,47.66,47.98,46.549999,46.84,9429100,43.295062
2011-05-05,47.540001,48.029999,46.25,46.830002,15338000,43.28582
2011-05-04,48.84,48.84,47.169998,48.110001,14648600,44.468946
2011-05-03,49.529999,49.93,48.110001,48.619999,11781800,44.940347
2011-05-02,50.93,51.00,49.200001,49.650002,11502800,45.892397
2011-04-29,51.32,51.330002,50.23,51.009998,10885800,47.149467
2011-04-28,51.689999,51.779999,50.689999,50.720001,13561400,46.881417
2011-04-27,50.900002,51.169998,49.560001,50.84,17844300,46.992334
2011-04-26,51.669998,51.740002,49.950001,50.189999,20000000,46.391526
2011-04-25,54.150002,54.689999,51.779999,51.860001,25443100,47.935139
2011-04-21,55.240002,55.740002,54.869999,55.630001,6251900,51.419819
2011-04-20,54.790001,55.400002,54.639999,54.810001,7578300,50.661878
2011-04-19,53.360001,54.380001,53.16,54.23,7296100,50.125772
2011-04-18,53.48,53.82,52.049999,53.470001,9967400,49.423292
2011-04-15,53.400002,53.759998,53.00,53.330002,5558900,49.293888
2011-04-14,52.330002,53.77,52.150002,53.419998,7961800,49.377073
2011-04-13,52.799999,53.18,51.93,52.16,6229300,48.212434
2011-04-12,52.560001,52.860001,51.650002,52.34,7047600,48.378811
2011-04-11,54.189999,54.349998,52.549999,53.080002,7159000,49.062808
2011-04-08,54.759998,54.880001,53.959999,54.369999,9452700,50.255176
2011-04-07,54.02,54.48,53.59,53.77,8473900,49.700587
2011-04-06,54.450001,54.889999,53.619999,54.18,9739800,50.079557
2011-04-05,51.41,54.360001,51.220001,54.279999,12727100,50.171987
2011-04-04,51.59,52.169998,51.310001,51.389999,4272800,47.500708
2011-04-01,51.700001,52.310001,51.23,51.27,6675100,47.389791
2011-03-31,52.00,52.369999,51.82,51.91,4899000,47.981354
2011-03-30,51.27,51.860001,50.880001,51.549999,5640200,47.648599
2011-03-29,50.869999,51.450001,50.419998,50.689999,4468100,46.853685
2011-03-28,51.099998,51.82,50.66,50.950001,4908700,47.09401
2011-03-25,51.599998,52.330002,51.23,51.509998,5350400,47.611626
2011-03-24,52.029999,52.849998,51.43,51.610001,9136700,47.70406
2011-03-23,50.450001,52.130001,50.279999,52.029999,9192600,48.092271
2011-03-22,50.259998,50.799999,49.990002,50.220001,5717500,46.419258
2011-03-21,50.619999,50.68,50.00,50.32,6449300,46.511688
2011-03-18,48.990002,49.860001,48.619999,49.400002,11388800,45.661317
2011-03-17,48.889999,49.00,48.07,48.459999,8115000,44.792456
2011-03-16,49.66,50.029999,47.900002,48.380001,10413800,44.718512
2011-03-15,48.799999,49.73,48.439999,49.23,10652500,45.504181
2011-03-14,50.560001,51.25,50.32,51.00,4233400,47.140225
2011-03-11,49.900002,51.34,49.799999,50.810001,5372500,46.964606
2011-03-10,50.509998,51.220001,49.98,50.360001,8955700,46.548662
2011-03-09,52.48,52.700001,51.220001,51.669998,6078200,47.759516
2011-03-08,53.029999,53.110001,51.790001,52.25,7928000,48.295623
2011-03-07,53.439999,53.580002,52.779999,52.990002,6295000,48.97962
2011-03-04,52.700001,53.450001,52.650002,52.830002,6121300,48.831729
2011-03-03,52.869999,53.029999,52.029999,52.599998,8132300,48.619132
2011-03-02,53.959999,54.259998,53.34,53.880001,8594900,49.802262
2011-03-01,53.48,54.200001,53.349998,53.77,11798500,49.700587
2011-02-28,52.189999,52.889999,51.91,52.82,6283000,48.822484
2011-02-25,51.299999,52.00,51.130001,51.880001,7384500,47.953626
2011-02-24,52.830002,52.830002,50.860001,51.07,9379700,47.204927
2011-02-23,51.869999,53.009998,51.610001,52.529999,10336300,48.443514
2011-02-22,52.610001,52.869999,51.52,51.52,12152100,47.512087
2011-02-18,51.060001,51.900002,50.880001,51.400002,10363700,47.401423
2011-02-17,50.970001,51.00,50.23,50.639999,10679000,46.700544
2011-02-16,49.66,49.82,49.049999,49.720001,9399900,45.852115
2011-02-15,49.099998,49.52,49.040001,49.189999,9306900,45.363343
2011-02-14,47.77,48.630001,47.720001,48.529999,8349100,44.754687
2011-02-11,47.919998,48.48,47.259998,47.490002,9632500,43.795595
2011-02-10,47.599998,47.959999,47.099998,47.720001,6976800,44.007702
2011-02-09,48.709999,48.919998,47.689999,48.02,7516200,44.284363
2011-02-08,48.68,48.860001,48.23,48.689999,8123100,44.90224
2011-02-07,48.360001,48.43,47.630001,47.830002,7869800,44.109145
2011-02-04,49.150002,49.220001,47.919998,48.110001,7528600,44.367362
2011-02-03,47.619999,48.869999,47.310001,48.669998,9639100,44.883795
2011-02-02,48.310001,48.360001,47.18,47.529999,7530900,43.83248
2011-02-01,48.240002,48.48,47.389999,48.259998,12297500,44.505691
2011-01-31,47.130001,47.59,46.700001,47.509998,10441100,43.814036
2011-01-28,46.279999,48.419998,46.150002,47.299999,16273100,43.620373
2011-01-27,47.740002,47.790001,46.259998,46.369999,11400900,42.762721
2011-01-26,46.209999,47.84,46.040001,47.799999,13495000,44.081477
2011-01-25,46.049999,46.529999,45.599998,46.130001,13583200,42.541393
2011-01-24,47.07,47.369999,46.119999,46.369999,7539200,42.762721
2011-01-21,47.029999,47.610001,46.599998,46.950001,9347600,43.297602
2011-01-20,46.889999,47.080002,45.75,46.98,16180800,43.325268
2011-01-19,48.759998,48.759998,47.48,47.700001,7742400,43.989257
2011-01-18,47.889999,48.27,47.52,48.16,8697600,44.413472
2011-01-14,47.23,47.25,46.290001,47.080002,19764600,43.41749
2011-01-13,50.290001,50.330002,47.299999,47.439999,14808200,43.749482
2011-01-12,50.310001,50.349998,49.290001,50.00,7623000,46.110332
2011-01-11,49.889999,50.080002,49.259998,49.970001,6762900,46.082667
2011-01-10,49.450001,49.540001,48.709999,49.049999,6637000,45.234235
2011-01-07,49.099998,49.959999,48.970001,49.099998,8104900,45.280345
2011-01-06,50.169998,50.259998,48.689999,49.259998,14156500,45.427898
2011-01-05,51.169998,51.240002,49.889999,49.900002,16166800,46.018113
2011-01-04,52.23,52.419998,50.599998,51.669998,11896300,47.650415
2011-01-03,53.919998,53.93,52.389999,52.59,6088900,48.498847
2010-12-31,52.860001,53.459999,52.599998,53.18,3579200,49.042949
2010-12-30,53.130001,53.259998,52.450001,52.599998,2943700,48.508068
2010-12-29,53.32,53.380001,52.669998,53.080002,4044000,48.95073
2010-12-28,52.549999,53.200001,52.18,52.959999,4241700,48.840063
2010-12-27,51.599998,51.720001,50.959999,51.599998,2007800,47.585861
2010-12-23,51.07,51.970001,50.700001,51.630001,3681200,47.61353
2010-12-22,51.799999,51.799999,51.169998,51.220001,3383200,47.235425
2010-12-21,51.98,52.009998,51.380001,51.68,3586800,47.659639
2010-12-20,52.029999,52.279999,51.619999,51.889999,3829900,47.853302
2010-12-17,51.950001,52.00,50.650002,51.630001,7569000,47.61353
2010-12-16,52.07,52.220001,50.720001,51.630001,10810400,47.61353
2010-12-15,52.619999,53.200001,52.290001,52.529999,7217300,48.443514
2010-12-14,54.009998,54.040001,52.860001,53.150002,6972700,49.015284
2010-12-13,54.150002,54.470001,53.59,53.880001,6249300,49.688495
2010-12-10,53.040001,53.669998,52.66,53.299999,6270300,49.153613
2010-12-09,53.740002,53.740002,52.84,53.380001,5995400,49.227391
2010-12-08,53.549999,54.139999,52.669998,52.950001,10762400,48.830842
2010-12-07,55.540001,55.720001,53.91,54.16,9491700,49.946711
2010-12-06,54.330002,54.98,54.02,54.830002,10005100,50.564592
2010-12-03,53.799999,55.380001,53.779999,54.00,12022000,49.799159
2010-12-02,52.779999,53.77,52.779999,53.290001,9217400,49.144393
2010-12-01,52.09,52.59,51.57,52.439999,7351900,48.360515
2010-11-30,50.66,52.139999,50.50,51.650002,11043100,47.631974
2010-11-29,50.18,50.490002,49.380001,50.330002,6702800,46.414662
2010-11-26,50.080002,50.560001,49.93,50.43,3618500,46.506881
2010-11-24,50.900002,51.27,50.509998,50.98,5420000,46.903427
2010-11-23,50.23,50.990002,50.00,50.82,9379900,46.756221
2010-11-22,49.59,50.470001,49.369999,50.25,6533100,46.231801
2010-11-19,49.27,49.889999,49.029999,49.77,5702200,45.790184
2010-11-18,50.200001,50.279999,49.400002,49.549999,8552600,45.587775
2010-11-17,48.790001,49.900002,48.66,49.169998,8108300,45.238161
2010-11-16,49.450001,50.080002,48.57,48.849998,13796900,44.943749
2010-11-15,50.900002,51.040001,50.099998,50.150002,7198900,46.139799
2010-11-12,50.91,51.799999,50.220001,50.73,9906900,46.673418
2010-11-11,52.049999,52.200001,50.959999,51.880001,8277900,47.73146
2010-11-10,51.310001,51.93,50.290001,51.810001,13391100,47.667058
2010-11-09,52.080002,53.439999,50.349998,50.889999,23471700,46.820623
2010-11-08,48.970001,51.27,48.939999,51.209999,12023000,47.115034
2010-11-05,49.23,49.950001,48.799999,49.209999,9976300,45.274963
2010-11-04,49.869999,50.07,49.189999,49.310001,17054300,45.366968
2010-11-03,48.509998,48.889999,47.630001,48.380001,10040600,44.511335
2010-11-02,48.599998,49.029999,48.139999,48.740002,6191300,44.842548
2010-11-01,48.459999,48.50,47.650002,48.049999,5379900,44.207721
2010-10-29,47.549999,48.310001,47.470001,48.09,8252400,44.244524
2010-10-28,46.43,47.23,45.669998,47.02,9663300,43.260086
2010-10-27,45.98,46.060001,44.98,45.599998,10822700,41.953633
2010-10-26,45.919998,46.91,45.900002,46.619999,5848600,42.89207
2010-10-25,47.080002,47.110001,46.209999,46.529999,7477900,42.809266
2010-10-22,45.599998,46.00,45.099998,45.970001,5293800,42.294049
2010-10-21,46.07,46.450001,44.860001,45.450001,9475500,41.81563
2010-10-20,45.549999,46.50,45.419998,45.900002,9520000,42.229646
2010-10-19,45.860001,45.990002,45.009998,45.459999,15659100,41.824828
2010-10-18,47.529999,47.970001,47.080002,47.82,7955600,43.996114
2010-10-15,48.630001,48.82,47.540001,47.990002,9168400,44.152521
2010-10-14,49.32,49.34,48.439999,48.740002,8881500,44.842548
2010-10-13,49.240002,49.66,49.099998,49.25,12344500,45.311765
2010-10-12,48.369999,48.630001,47.860001,48.439999,8243300,44.566535
2010-10-11,48.529999,49.130001,48.00,48.709999,5955400,44.814945
2010-10-08,47.830002,48.650002,47.779999,48.57,8646200,44.68614
2010-10-07,48.849998,48.990002,47.209999,47.68,13010900,43.867309
2010-10-06,47.599998,48.810001,47.509998,48.59,12178100,44.704542
2010-10-05,47.110001,47.810001,46.77,47.32,10733200,43.536096
2010-10-04,46.880001,46.900002,45.75,45.98,5863100,42.303247
2010-10-01,46.849998,47.279999,46.549999,47.009998,8649200,43.250883
2010-09-30,47.23,47.290001,45.52,46.290001,11947800,42.58846
2010-09-29,46.939999,47.099998,46.470001,46.959999,7465100,43.204882
2010-09-28,45.41,46.860001,44.759998,46.759998,12645800,43.020874
2010-09-27,46.639999,46.799999,45.66,45.759998,6124600,42.100838
2010-09-24,47.509998,47.509998,46.189999,46.369999,7157100,42.662061
2010-09-23,46.959999,47.470001,46.450001,46.709999,8390200,42.974873
2010-09-22,47.389999,47.549999,46.849998,47.220001,10221500,43.444093
2010-09-21,46.310001,46.970001,44.91,46.82,15842400,43.076078
2010-09-20,46.41,47.110001,46.139999,46.450001,7221100,42.735665
2010-09-17,46.459999,46.75,45.900002,45.990002,8182000,42.31245
2010-09-16,45.540001,45.939999,45.25,45.900002,10068400,42.229646
2010-09-15,45.220001,45.66,44.880001,44.990002,8930500,41.392414
2010-09-14,45.09,45.869999,44.93,45.220001,12919100,41.604022
2010-09-13,44.650002,44.950001,44.09,44.209999,5755800,40.674784
2010-09-10,43.990002,44.959999,43.830002,44.720001,4311600,41.144004
2010-09-09,45.779999,45.799999,44.02,44.189999,8824200,40.656382
2010-09-08,45.93,46.349998,45.450001,45.450001,5874700,41.81563
2010-09-07,45.889999,46.34,45.50,45.75,6319200,42.09164
2010-09-03,45.009998,45.369999,44.619999,45.299999,7876600,41.677623
2010-09-02,45.740002,45.75,44.709999,45.220001,9313600,41.604022
2010-09-01,47.32,47.560001,45.279999,45.330002,10696000,41.705226
2010-08-31,46.639999,47.50,46.599998,46.759998,8829200,43.020874
2010-08-30,46.389999,46.830002,46.240002,46.34,5052000,42.634461
2010-08-27,45.93,46.540001,45.41,46.50,9719000,42.781667
2010-08-26,45.139999,46.240002,45.139999,46.130001,9047300,42.330851
2010-08-25,44.07,45.27,43.869999,45.130001,6611100,41.413209
2010-08-24,42.900002,44.389999,42.799999,43.779999,7023000,40.174389
2010-08-23,44.549999,44.650002,43.799999,44.110001,4224500,40.477213
2010-08-20,44.27,44.790001,44.00,44.779999,4753200,41.092032
2010-08-19,45.299999,45.75,44.400002,44.880001,5231700,41.183798
2010-08-18,44.040001,45.490002,43.860001,45.259998,7388700,41.5325
2010-08-17,43.970001,44.48,43.529999,44.290001,6580700,40.642389
2010-08-16,43.389999,43.689999,43.200001,43.630001,6417700,40.036745
2010-08-13,43.25,43.450001,42.830002,42.919998,5537000,39.385216
2010-08-12,42.93,43.299999,42.82,43.200001,9283500,39.642158
2010-08-11,43.509998,43.619999,42.23,42.400002,7585100,38.908045
2010-08-10,42.619999,43.560001,42.279999,43.490002,8615200,39.908275
2010-08-09,43.41,43.48,42.779999,43.349998,4338600,39.779802
2010-08-06,43.119999,43.970001,43.060001,43.389999,7886900,39.816509
2010-08-05,42.669998,42.849998,42.299999,42.73,4805800,39.210865
2010-08-04,42.080002,42.880001,42.07,42.610001,8791400,39.100749
2010-08-03,41.169998,41.889999,41.09,41.369999,6762300,37.962871
2010-08-02,41.77,41.98,40.66,40.950001,6215700,37.577462
2010-07-30,40.509998,41.349998,40.419998,41.099998,6736700,37.715107
2010-07-29,40.84,41.00,40.040001,40.540001,9152300,37.201229
2010-07-28,39.939999,40.290001,39.669998,40.029999,12615100,36.73323
2010-07-27,41.59,41.650002,39.900002,40.029999,15109500,36.73323
2010-07-26,42.529999,42.66,41.689999,41.75,7818500,38.311576
2010-07-23,42.509998,42.759998,42.099998,42.369999,7482900,38.880513
2010-07-22,42.200001,42.830002,42.00,42.23,7323700,38.752044
2010-07-21,42.110001,42.43,41.43,41.73,7082800,38.293223
2010-07-20,40.91,42.00,40.880001,41.810001,6300800,38.366636
2010-07-19,41.299999,41.459999,40.580002,41.150002,8061000,37.760992
2010-07-16,42.23,42.23,41.560001,41.75,9219800,38.311576
2010-07-15,43.32,43.349998,42.43,43.07,7955200,39.522864
2010-07-14,43.389999,43.77,42.740002,42.990002,7473600,39.449454
2010-07-13,44.599998,44.779999,43.09,43.130001,11125400,39.577923
2010-07-12,43.439999,44.380001,43.349998,43.57,8744100,39.981685
2010-07-09,43.380001,44.130001,43.189999,43.57,8876200,39.981685
2010-07-08,44.279999,44.290001,42.009998,42.580002,13310800,39.073221
2010-07-07,42.849998,43.880001,42.41,43.880001,8243300,40.266155
2010-07-06,43.75,43.869999,42.439999,42.98,11110100,39.440276
2010-07-02,43.25,44.029999,42.959999,43.240002,8881500,39.678865
2010-07-01,45.080002,45.34,42.400002,43.099998,13166800,39.550392
2010-06-30,44.959999,46.00,44.84,45.41,9236100,41.670147
2010-06-29,45.48,45.740002,44.720001,45.00,9638900,41.293914
2010-06-28,46.529999,47.25,45.720001,46.189999,10759100,42.385907
2010-06-25,45.189999,46.880001,45.119999,46.330002,10028300,42.51438
2010-06-24,44.759998,45.349998,44.48,44.59,7868800,40.917681
2010-06-23,44.240002,44.959999,43.91,44.740002,8229500,41.055329
2010-06-22,44.93,45.529999,44.619999,44.73,7222900,41.04615
2010-06-21,46.16,46.360001,44.470001,44.799999,10666300,41.110385
2010-06-18,45.57,46.459999,45.299999,46.380001,15919500,42.560262
2010-06-17,44.18,44.939999,43.889999,44.82,13523500,41.128738
2010-06-16,42.810001,43.470001,42.709999,43.189999,7015600,39.63298
2010-06-15,42.040001,42.939999,41.75,42.939999,6560600,39.403569
2010-06-14,42.91,43.00,41.84,42.00,10313000,38.540986
2010-06-11,43.189999,43.50,42.880001,43.110001,6817200,39.55957
2010-06-10,42.619999,43.419998,42.540001,42.919998,8155300,39.385216
2010-06-09,43.139999,43.529999,42.43,42.720001,9044700,39.20169
2010-06-08,43.529999,44.599998,43.220001,43.34,14242300,39.770628
2010-06-07,41.369999,43.57,41.130001,43.119999,12417200,39.568745
2010-06-04,41.779999,42.25,41.169998,41.419998,11224300,38.008752
2010-06-03,43.400002,43.419998,41.82,42.299999,8165900,38.816278
2010-06-02,42.740002,43.240002,42.599998,43.099998,9254200,39.550392
2010-06-01,42.509998,43.73,42.50,42.59,13757600,39.082396
2010-05-28,42.52,42.66,41.759998,42.080002,7276200,38.6144
2010-05-27,42.220001,42.919998,42.130001,42.439999,7678100,38.944748
2010-05-26,42.939999,43.099998,41.799999,41.810001,10695800,38.183107
2010-05-25,40.830002,42.48,40.599998,42.349998,14100900,38.676261
2010-05-24,41.66,42.110001,41.07,41.119999,6727300,37.55296
2010-05-21,40.18,41.400002,39.950001,41.02,12102200,37.461636
2010-05-20,41.669998,42.369999,40.75,41.00,17154400,37.443371
2010-05-19,43.869999,44.09,41.509998,42.700001,16803700,38.995902
2010-05-18,43.970001,44.990002,43.900002,44.48,10548100,40.621491
2010-05-17,45.799999,45.799999,43.889999,44.43,10873100,40.575829
2010-05-14,45.34,46.049999,44.110001,45.619999,15599400,41.662599
2010-05-13,45.540001,45.740002,44.59,44.810001,10487500,40.922866
2010-05-12,46.68,47.209999,45.619999,45.66,19186000,41.69913
2010-05-11,44.889999,46.549999,44.849998,45.880001,21066500,41.900046
2010-05-10,43.060001,43.990002,42.299999,43.91,13956700,40.100937
2010-05-07,43.279999,44.240002,42.459999,42.82,22665600,39.105491
2010-05-06,42.73,44.330002,42.529999,43.68,22070900,39.890889
2010-05-05,41.759998,43.27,41.630001,42.880001,11408900,39.160287
2010-05-04,43.200001,43.560001,41.950001,42.91,13668600,39.187684
2010-05-03,43.950001,44.110001,42.32,42.82,8114800,39.105491
2010-04-30,43.400002,44.369999,43.27,43.549999,14732000,39.772165
2010-04-29,42.810001,43.50,42.470001,42.869999,14168800,39.151153
2010-04-28,41.630001,42.799999,41.349998,42.169998,20871400,38.511875
2010-04-27,39.93,40.939999,39.790001,40.669998,10573900,37.141996
2010-04-26,40.529999,40.84,40.209999,40.459999,4993200,36.950214
2010-04-23,40.049999,40.630001,39.470001,40.459999,7112900,36.950214
2010-04-22,39.110001,40.23,38.799999,40.169998,9783300,36.685369
2010-04-21,39.330002,39.869999,39.02,39.50,6532900,36.073492
2010-04-20,39.700001,39.84,39.110001,39.130001,5841700,35.735589
2010-04-19,38.50,39.139999,38.139999,39.139999,6921100,35.74472
2010-04-16,39.610001,39.919998,38.439999,39.110001,13494200,35.717323
2010-04-15,40.52,40.860001,39.939999,40.00,8862500,36.530118
2010-04-14,41.169998,41.360001,40.360001,40.669998,7943900,37.141996
2010-04-13,40.470001,40.560001,39.549999,40.43,8968700,36.922817
2010-04-12,40.970001,41.720001,40.59,40.759998,10686700,37.224189
2010-04-09,41.209999,41.849998,40.869999,41.290001,9274800,37.708215
2010-04-08,40.549999,41.110001,40.169998,40.950001,9116800,37.397709
2010-04-07,39.84,40.959999,39.779999,40.700001,14422600,37.169396
2010-04-06,39.48,39.709999,39.279999,39.419998,7381100,36.00043
2010-04-05,39.650002,39.900002,39.25,39.650002,6073500,36.210481
2010-04-01,38.950001,39.52,38.610001,39.450001,10128200,36.02783
2010-03-31,38.389999,38.709999,38.049999,38.34,10159700,35.014118
2010-03-30,37.919998,38.049999,37.41,37.759998,6781800,34.48443
2010-03-29,37.639999,37.970001,37.34,37.810001,9091300,34.530095
2010-03-26,36.950001,37.580002,36.689999,37.41,10229300,34.164793
2010-03-25,37.790001,37.799999,36.75,36.77,12310200,33.580311
2010-03-24,38.240002,38.299999,37.110001,37.240002,17135100,34.009541
2010-03-23,39.240002,39.759998,38.619999,38.82,13548500,35.452479
2010-03-22,38.900002,39.419998,38.50,39.41,8867200,35.991299
2010-03-19,39.419998,39.889999,38.810001,39.419998,12486800,36.00043
2010-03-18,40.099998,40.57,39.43,39.779999,7572200,36.329201
2010-03-17,40.290001,40.610001,40.080002,40.16,9115800,36.676238
2010-03-16,39.68,40.349998,39.459999,40.09,10711100,36.612311
2010-03-15,39.220001,39.27,38.52,39.009998,7127600,35.625996
2010-03-12,39.27,39.52,38.630001,39.060001,8514500,35.671661
2010-03-11,38.549999,39.189999,38.360001,39.18,7734700,35.781251
2010-03-10,39.549999,39.790001,38.48,38.75,10638400,35.388552
2010-03-09,39.220001,39.889999,39.139999,39.540001,7938100,36.110022
2010-03-08,40.310001,40.799999,39.52,39.68,7688000,36.237877
2010-03-05,40.200001,40.66,40.040001,40.259998,8325500,36.767562
2010-03-04,40.110001,40.330002,39.34,39.799999,11379700,36.347467
2010-03-03,39.990002,40.540001,39.529999,40.139999,10786500,36.657973
2010-03-02,38.970001,40.110001,38.709999,39.470001,14067100,36.046095
2010-03-01,38.099998,38.549999,37.310001,38.450001,9514700,35.114577
2010-02-26,37.84,37.959999,37.220001,37.66,10350900,34.393106
2010-02-25,36.369999,37.689999,35.790001,37.439999,15717700,34.192189
2010-02-24,37.07,37.790001,36.549999,36.709999,10596200,33.525515
2010-02-23,38.34,38.529999,36.91,37.27,11865100,34.036938
2010-02-22,39.57,39.689999,38.34,38.369999,10046200,35.041515
2010-02-19,38.84,40.00,38.610001,39.369999,15954500,35.954768
2010-02-18,38.00,39.470001,37.950001,39.23,17736200,35.826913
2010-02-17,37.439999,38.240002,37.360001,37.860001,16229100,34.575757
2010-02-16,37.860001,37.970001,37.360001,37.439999,15387100,34.192189
2010-02-12,36.400002,36.830002,36.040001,36.700001,9089200,33.516384
2010-02-11,36.009998,37.169998,35.580002,37.07,11410900,33.854287
2010-02-10,35.740002,35.919998,34.939999,35.68,9750200,32.584866
2010-02-09,35.27,36.150002,34.93,35.669998,14080500,32.575731
2010-02-08,35.740002,35.880001,34.490002,34.57,10398800,31.571154
2010-02-05,33.919998,35.950001,33.650002,35.830002,19976300,32.721855
2010-02-04,35.09,35.209999,33.759998,34.00,16379700,31.0506
2010-02-03,36.09,36.619999,35.810001,35.91,8183500,32.794913
2010-02-02,37.009998,37.029999,36.09,36.209999,11346800,33.068888
2010-02-01,35.189999,36.50,35.169998,36.50,9282200,33.333733
2010-01-29,35.799999,36.380001,34.630001,34.82,14432300,31.799467
2010-01-28,36.279999,36.32,34.84,35.91,15317700,32.794913
2010-01-27,36.02,36.27,35.200001,35.740002,12467900,32.639662
2010-01-26,35.779999,36.779999,35.619999,36.07,13030200,32.941034
2010-01-25,37.18,37.18,36.040001,36.040001,11523200,32.913637
2010-01-22,36.369999,37.52,36.110001,36.50,17339800,33.333733
2010-01-21,37.75,37.779999,36.349998,36.52,21433700,33.351998
2010-01-20,38.459999,38.639999,37.23,37.869999,16581300,34.584888
2010-01-19,39.279999,39.720001,38.990002,39.66,9429200,36.219612
2010-01-15,40.189999,40.27,39.360001,39.700001,11620800,36.256143
2010-01-14,40.650002,40.849998,39.950001,40.470001,8470600,36.959348
2010-01-13,40.529999,40.799999,39.43,40.700001,9581100,37.169396
2010-01-12,41.16,41.52,39.950001,40.299999,12126500,36.804093
2010-01-11,42.57,42.639999,41.32,41.639999,13778000,38.027852
2010-01-08,41.599998,41.669998,40.700001,41.43,9198600,37.83607
2010-01-07,41.669998,41.669998,40.889999,41.169998,9291000,37.598622
2010-01-06,41.32,42.34,41.139999,41.759998,12329200,38.137442
2010-01-05,40.66,41.099998,40.040001,40.889999,13018600,37.342913
2010-01-04,40.700001,41.18,40.25,40.389999,14212200,36.886286