Date,High,Low,Open,Close,Volume,Adj Close
2017-10-26,10.229999542236328,10.093000411987305,10.229999542236328,10.109999656677246,5800.0,10.109999656677246
2017-11-03,8.484000205993652,5.869999885559082,8.170000076293945,6.050000190734863,523500.0,6.050000190734863
2017-11-06,6.460000038146973,5.599999904632568,6.010000228881836,5.599999904632568,70600.0,5.599999904632568
2017-11-07,5.730000019073486,5.599999904632568,5.599999904632568,5.599999904632568,32600.0,5.599999904632568
2017-11-08,5.650000095367432,5.599999904632568,5.599999904632568,5.599999904632568,118500.0,5.599999904632568
2017-11-09,5.630000114440918,5.599999904632568,5.599999904632568,5.60099983215332,34700.0,5.60099983215332
2017-11-10,5.760000228881836,5.610000133514404,5.650000095367432,5.71999979019165,9800.0,5.71999979019165
2017-11-13,6.189000129699707,5.71999979019165,5.760000228881836,5.96999979019165,21800.0,5.96999979019165
2017-11-14,6.349999904632568,5.650000095367432,6.150000095367432,5.96999979019165,60400.0,5.96999979019165
2017-11-15,6.239999771118164,5.789999961853027,5.909999847412109,6.239999771118164,36800.0,6.239999771118164
2017-11-16,6.590000152587891,6.199999809265137,6.199999809265137,6.519999980926514,33600.0,6.519999980926514
2017-11-17,6.889999866485596,6.590000152587891,6.699999809265137,6.889999866485596,31400.0,6.889999866485596
2017-11-20,7.840000152587891,6.980000019073486,7.0,7.340000152587891,56100.0,7.340000152587891
2017-11-21,7.650000095367432,7.360000133514404,7.650000095367432,7.420000076293945,40100.0,7.420000076293945
2017-11-22,7.502999782562256,6.900000095367432,7.5,6.949999809265137,23200.0,6.949999809265137
2017-11-24,7.210000038146973,6.849999904632568,6.849999904632568,6.869999885559082,25500.0,6.869999885559082
2017-11-27,7.199999809265137,6.828999996185303,6.869999885559082,6.900000095367432,23800.0,6.900000095367432
2017-11-28,6.88100004196167,6.708000183105469,6.869999885559082,6.800000190734863,6300.0,6.800000190734863
2017-11-29,7.050000190734863,6.539999961853027,6.820000171661377,6.78000020980835,25500.0,6.78000020980835
2017-11-30,6.900000095367432,6.639999866485596,6.670000076293945,6.75,2900.0,6.75
2017-12-01,6.900000095367432,6.400000095367432,6.400000095367432,6.789999961853027,13700.0,6.789999961853027
2017-12-04,6.789999961853027,6.400000095367432,6.789999961853027,6.460000038146973,22800.0,6.460000038146973
2017-12-05,6.409999847412109,5.880000114440918,6.409999847412109,5.980000019073486,21800.0,5.980000019073486
2017-12-06,6.110000133514404,5.800000190734863,6.0,5.889999866485596,18000.0,5.889999866485596
2017-12-07,6.260000228881836,5.809999942779541,5.909999847412109,5.900000095367432,7100.0,5.900000095367432
2017-12-08,6.239999771118164,5.920000076293945,5.920000076293945,6.050000190734863,2500.0,6.050000190734863
2017-12-11,6.199999809265137,5.949999809265137,5.980000019073486,5.960000038146973,18800.0,5.960000038146973
2017-12-12,6.110000133514404,5.690000057220459,6.099999904632568,5.840000152587891,19600.0,5.840000152587891
2017-12-13,6.0,5.510000228881836,5.849999904632568,5.53000020980835,20400.0,5.53000020980835
2017-12-14,5.789999961853027,5.539999961853027,5.579999923706055,5.539999961853027,15400.0,5.539999961853027
2017-12-15,5.699999809265137,5.0,5.550000190734863,5.0,54100.0,5.0
2017-12-18,5.21999979019165,5.0,5.0,5.139999866485596,40700.0,5.139999866485596
2017-12-19,5.239999771118164,5.019999980926514,5.179999828338623,5.019999980926514,27100.0,5.019999980926514
2017-12-20,5.1519999504089355,4.820000171661377,5.1519999504089355,4.820000171661377,26400.0,4.820000171661377
2017-12-21,5.210000038146973,4.849999904632568,4.889999866485596,5.159999847412109,14700.0,5.159999847412109
2017-12-22,5.03000020980835,4.949999809265137,5.019999980926514,4.949999809265137,16100.0,4.949999809265137
2017-12-26,5.050000190734863,4.968999862670898,4.968999862670898,5.010000228881836,10400.0,5.010000228881836
2017-12-27,5.019999980926514,4.909999847412109,5.010000228881836,4.920000076293945,61700.0,4.920000076293945
2017-12-28,5.114999771118164,4.940000057220459,4.980000019073486,5.050000190734863,5700.0,5.050000190734863
2017-12-29,5.25,5.050000190734863,5.050000190734863,5.25,6800.0,5.25
2018-01-02,5.619999885559082,5.059999942779541,5.25,5.619999885559082,4900.0,5.619999885559082
2018-01-03,5.622000217437744,5.201000213623047,5.599999904632568,5.300000190734863,9600.0,5.300000190734863
2018-01-04,5.460000038146973,5.145999908447266,5.269999980926514,5.315000057220459,3100.0,5.315000057220459
2018-01-05,5.5279998779296875,5.300000190734863,5.300000190734863,5.510000228881836,2800.0,5.510000228881836
2018-01-08,5.550000190734863,5.179999828338623,5.550000190734863,5.239999771118164,26300.0,5.239999771118164
2018-01-09,5.439000129699707,5.210000038146973,5.214000225067139,5.239999771118164,11200.0,5.239999771118164
2018-01-10,5.550000190734863,5.159999847412109,5.5289998054504395,5.190000057220459,15600.0,5.190000057220459
2018-01-11,5.394999980926514,5.21999979019165,5.239999771118164,5.239999771118164,2200.0,5.239999771118164
2018-01-12,5.380000114440918,5.03000020980835,5.269999980926514,5.170000076293945,12800.0,5.170000076293945
2018-01-16,5.230000019073486,4.809999942779541,5.199999809265137,4.940000057220459,32200.0,4.940000057220459
2018-01-17,5.070000171661377,4.809999942779541,4.809999942779541,5.0,16700.0,5.0
2018-01-18,5.025000095367432,4.960000038146973,5.0,4.960000038146973,3300.0,4.960000038146973
2018-01-19,5.03000020980835,4.800000190734863,4.820000171661377,4.989999771118164,30300.0,4.989999771118164
2018-01-22,5.015999794006348,4.74399995803833,5.0,4.75,33600.0,4.75
2018-01-23,5.968999862670898,5.0,5.0,5.659999847412109,304600.0,5.659999847412109
2018-01-24,6.349999904632568,5.300000190734863,5.71999979019165,5.429999828338623,168800.0,5.429999828338623
2018-01-25,5.710000038146973,5.300000190734863,5.489999771118164,5.309999942779541,104200.0,5.309999942779541
2018-01-26,5.400000095367432,5.25,5.300000190734863,5.300000190734863,41900.0,5.300000190734863
2018-01-29,5.552999973297119,5.349999904632568,5.552999973297119,5.440000057220459,18300.0,5.440000057220459
2018-01-30,5.465000152587891,5.110000133514404,5.460000038146973,5.110000133514404,33300.0,5.110000133514404
2018-01-31,5.519999980926514,5.139999866485596,5.139999866485596,5.369999885559082,66900.0,5.369999885559082
2018-02-01,6.289999961853027,5.300000190734863,5.300000190734863,6.0,155800.0,6.0
2018-02-02,6.289999961853027,5.864999771118164,6.010000228881836,6.110000133514404,36700.0,6.110000133514404
2018-02-05,6.835000038146973,6.179999828338623,6.190000057220459,6.75,64800.0,6.75
2018-02-06,6.829999923706055,6.119999885559082,6.329999923706055,6.829999923706055,45400.0,6.829999923706055
2018-02-07,6.920000076293945,6.610000133514404,6.78000020980835,6.78000020980835,8600.0,6.78000020980835
2018-02-08,6.78000020980835,6.329999923706055,6.78000020980835,6.440000057220459,14700.0,6.440000057220459
2018-02-09,6.927000045776367,6.447000026702881,6.449999809265137,6.5,51500.0,6.5
2018-02-12,6.579999923706055,6.449999809265137,6.449999809265137,6.579999923706055,4900.0,6.579999923706055
2018-02-13,6.815999984741211,6.420000076293945,6.815999984741211,6.519999980926514,17300.0,6.519999980926514
2018-02-14,6.599999904632568,6.199999809265137,6.53000020980835,6.239999771118164,23200.0,6.239999771118164
2018-02-15,6.650000095367432,6.230000019073486,6.230000019073486,6.409999847412109,59200.0,6.409999847412109
2018-02-16,6.599999904632568,6.400000095367432,6.599999904632568,6.480000019073486,24400.0,6.480000019073486
2018-02-20,6.6539998054504395,6.513999938964844,6.513999938964844,6.559999942779541,2700.0,6.559999942779541
2018-02-21,7.440000057220459,6.599999904632568,6.650000095367432,6.849999904632568,35500.0,6.849999904632568
2018-02-22,7.159999847412109,6.965000152587891,7.0,7.010000228881836,8200.0,7.010000228881836
2018-02-23,7.380000114440918,7.0,7.210000038146973,7.159999847412109,36200.0,7.159999847412109
2018-02-26,7.324999809265137,6.96999979019165,7.25,6.989999771118164,15400.0,6.989999771118164
2018-02-27,7.090000152587891,6.989999771118164,7.039999961853027,7.090000152587891,36600.0,7.090000152587891
2018-02-28,7.050000190734863,6.71999979019165,7.0,6.800000190734863,27800.0,6.800000190734863
2018-03-01,6.97599983215332,6.590000152587891,6.710000038146973,6.71999979019165,4400.0,6.71999979019165
2018-03-02,7.239999771118164,6.630000114440918,6.760000228881836,7.239999771118164,36200.0,7.239999771118164
2018-03-05,8.4399995803833,7.500999927520752,8.0,7.855000019073486,165900.0,7.855000019073486
2018-03-06,13.1899995803833,7.960000038146973,8.039999961853027,11.0,1210100.0,11.0
2018-03-07,12.729000091552734,10.470000267028809,11.199999809265137,11.989999771118164,293300.0,11.989999771118164
2018-03-08,13.739999771118164,12.109999656677246,12.109999656677246,13.460000038146973,250400.0,13.460000038146973
2018-03-09,13.699999809265137,12.670000076293945,13.699999809265137,13.130000114440918,160400.0,13.130000114440918
2018-03-12,14.49899959564209,13.034000396728516,13.039999961853027,13.699999809265137,103800.0,13.699999809265137
2018-03-13,14.59000015258789,13.600000381469727,13.65999984741211,14.239999771118164,50500.0,14.239999771118164
2018-03-14,15.595000267028809,14.479999542236328,14.479999542236328,14.9399995803833,76400.0,14.9399995803833
2018-03-15,15.513999938964844,13.01099967956543,15.0,14.029999732971191,71000.0,14.029999732971191
2018-03-16,14.390000343322754,12.0,14.239999771118164,12.4399995803833,206000.0,12.4399995803833
2018-03-19,12.597999572753906,10.5,12.399999618530273,11.430000305175781,271800.0,11.430000305175781
2018-03-20,13.569000244140625,11.16100025177002,11.510000228881836,13.170000076293945,70300.0,13.170000076293945
2018-03-21,13.600000381469727,11.720000267028809,13.220000267028809,12.25,41500.0,12.25
2018-03-22,12.569999694824219,11.869999885559082,12.149999618530273,12.5,32100.0,12.5
2018-03-23,13.329999923706055,12.539999961853027,13.050000190734863,12.90999984741211,73500.0,12.90999984741211
2018-03-26,13.100000381469727,12.5,13.100000381469727,12.779999732971191,38200.0,12.779999732971191
2018-03-27,13.039999961853027,12.090999603271484,12.729999542236328,12.890000343322754,35800.0,12.890000343322754
2018-03-28,12.8100004196167,12.25,12.8100004196167,12.380000114440918,26000.0,12.380000114440918
2018-03-29,12.40999984741211,12.0,12.25,12.300000190734863,15600.0,12.300000190734863
2018-04-02,12.739999771118164,12.1899995803833,12.1899995803833,12.3100004196167,35300.0,12.3100004196167
2018-04-03,12.550000190734863,12.140000343322754,12.550000190734863,12.3100004196167,18600.0,12.3100004196167
2018-04-04,12.829999923706055,11.800000190734863,12.130000114440918,12.300000190734863,32800.0,12.300000190734863
2018-04-05,12.5,11.800000190734863,12.5,12.0,40700.0,12.0
2018-04-06,11.979999542236328,11.800000190734863,11.869999885559082,11.800000190734863,11800.0,11.800000190734863
2018-04-09,12.199999809265137,11.901000022888184,11.920000076293945,12.0,18100.0,12.0
2018-04-10,12.710000038146973,12.0,12.0,12.510000228881836,40300.0,12.510000228881836
2018-04-11,12.739999771118164,12.199999809265137,12.619999885559082,12.739999771118164,43000.0,12.739999771118164
2018-04-12,14.0,12.739999771118164,12.739999771118164,13.899999618530273,67600.0,13.899999618530273
2018-04-13,14.380000114440918,13.300000190734863,13.989999771118164,13.59000015258789,36000.0,13.59000015258789
2018-04-16,14.180000305175781,12.4399995803833,13.829999923706055,12.699999809265137,49400.0,12.699999809265137
2018-04-17,12.850000381469727,12.15999984741211,12.819999694824219,12.3100004196167,35200.0,12.3100004196167
2018-04-18,12.479999542236328,12.010000228881836,12.260000228881836,12.039999961853027,35100.0,12.039999961853027
2018-04-19,12.300000190734863,11.670000076293945,12.1899995803833,11.989999771118164,59900.0,11.989999771118164
2018-04-20,12.210000038146973,11.770000457763672,11.850000381469727,11.84000015258789,23200.0,11.84000015258789
2018-04-23,11.876999855041504,11.329999923706055,11.876999855041504,11.399999618530273,33700.0,11.399999618530273
2018-04-24,11.350000381469727,10.232000350952148,11.289999961853027,10.510000228881836,69000.0,10.510000228881836
2018-04-25,10.770000457763672,10.399999618530273,10.520000457763672,10.609999656677246,24900.0,10.609999656677246
2018-04-26,10.880000114440918,10.270000457763672,10.699999809265137,10.270000457763672,14600.0,10.270000457763672
2018-04-27,10.3100004196167,10.010000228881836,10.3100004196167,10.09000015258789,36400.0,10.09000015258789
2018-04-30,10.319999694824219,10.09000015258789,10.09000015258789,10.100000381469727,9400.0,10.100000381469727
2018-05-01,10.369999885559082,10.100000381469727,10.100000381469727,10.119999885559082,7600.0,10.119999885559082
2018-05-02,10.40999984741211,10.050000190734863,10.095000267028809,10.15999984741211,6600.0,10.15999984741211
2018-05-03,10.40999984741211,10.180000305175781,10.239999771118164,10.300000190734863,24100.0,10.300000190734863
2018-05-04,10.84000015258789,10.300000190734863,10.489999771118164,10.8100004196167,24500.0,10.8100004196167
2018-05-07,12.789999961853027,10.869999885559082,10.869999885559082,12.510000228881836,36300.0,12.510000228881836
2018-05-08,12.079999923706055,10.579999923706055,12.079999923706055,11.539999961853027,78400.0,11.539999961853027
2018-05-09,11.930000305175781,11.380000114440918,11.380000114440918,11.75,26900.0,11.75
2018-05-10,12.109999656677246,11.649999618530273,11.970000267028809,12.039999961853027,89400.0,12.039999961853027
2018-05-11,12.15999984741211,11.5600004196167,12.079999923706055,12.09000015258789,42500.0,12.09000015258789
2018-05-14,12.069999694824219,11.515000343322754,12.069999694824219,11.890000343322754,20000.0,11.890000343322754
2018-05-15,12.069999694824219,11.65999984741211,11.779999732971191,11.890000343322754,29600.0,11.890000343322754
2018-05-16,12.0,11.630000114440918,11.819999694824219,11.75,16100.0,11.75
2018-05-17,11.84000015258789,11.359999656677246,11.84000015258789,11.399999618530273,37000.0,11.399999618530273
2018-05-18,11.392999649047852,11.140000343322754,11.359999656677246,11.3100004196167,23000.0,11.3100004196167
2018-05-21,11.475000381469727,11.180000305175781,11.399999618530273,11.229999542236328,12300.0,11.229999542236328
2018-05-22,11.489999771118164,11.140000343322754,11.210000038146973,11.25,64000.0,11.25
2018-05-23,11.199999809265137,11.0,11.1899995803833,11.020000457763672,12700.0,11.020000457763672
2018-05-24,11.979999542236328,11.0,11.069999694824219,11.720000267028809,67800.0,11.720000267028809
2018-05-25,11.600000381469727,11.199999809265137,11.600000381469727,11.229999542236328,25300.0,11.229999542236328
2018-05-29,11.640000343322754,11.229999542236328,11.260000228881836,11.539999961853027,58200.0,11.539999961853027
2018-05-30,12.800000190734863,11.581999778747559,11.581999778747559,12.529999732971191,169800.0,12.529999732971191
2018-05-31,13.010000228881836,12.279999732971191,12.279999732971191,12.710000038146973,112800.0,12.710000038146973
2018-06-01,14.979999542236328,12.538000106811523,12.649999618530273,14.0600004196167,301700.0,14.0600004196167
2018-06-04,14.229999542236328,12.779999732971191,14.100000381469727,13.479999542236328,103900.0,13.479999542236328
2018-06-05,13.59000015258789,12.510000228881836,13.399999618530273,12.59000015258789,53200.0,12.59000015258789
2018-06-06,12.72599983215332,12.460000038146973,12.680000305175781,12.630000114440918,23700.0,12.630000114440918
2018-06-07,12.609999656677246,12.079999923706055,12.609999656677246,12.220000267028809,31200.0,12.220000267028809
2018-06-08,12.416999816894531,12.0,12.279999732971191,12.069999694824219,43500.0,12.069999694824219
2018-06-11,12.770000457763672,11.899999618530273,12.0,12.760000228881836,91800.0,12.760000228881836
2018-06-12,13.609999656677246,12.859999656677246,12.859999656677246,13.4399995803833,91100.0,13.4399995803833
2018-06-13,14.0,13.180000305175781,13.479999542236328,13.359999656677246,99300.0,13.359999656677246
2018-06-14,13.800000190734863,13.260000228881836,13.489999771118164,13.40999984741211,93600.0,13.40999984741211
2018-06-15,13.989999771118164,13.149999618530273,13.359999656677246,13.979999542236328,161700.0,13.979999542236328
2018-06-18,14.800000190734863,13.420000076293945,13.989999771118164,13.579999923706055,168000.0,13.579999923706055
2018-06-19,13.84000015258789,12.630000114440918,13.390000343322754,12.710000038146973,145500.0,12.710000038146973
2018-06-20,13.260000228881836,12.5600004196167,12.829999923706055,12.960000038146973,82500.0,12.960000038146973
2018-06-21,13.0,11.539999961853027,13.0,11.9399995803833,158200.0,11.9399995803833
2018-06-22,12.720000267028809,11.800999641418457,11.9399995803833,12.539999961853027,915900.0,12.539999961853027
2018-06-25,12.710000038146973,11.829999923706055,12.430000305175781,11.960000038146973,100700.0,11.960000038146973
2018-06-26,12.234999656677246,11.680000305175781,12.039999961853027,11.930000305175781,115100.0,11.930000305175781
2018-06-27,12.04699993133545,11.010000228881836,11.989999771118164,11.050000190734863,107600.0,11.050000190734863
2018-06-28,11.319999694824219,10.819999694824219,11.029999732971191,10.890000343322754,54600.0,10.890000343322754
2018-06-29,11.09000015258789,10.475000381469727,11.0,10.779999732971191,71800.0,10.779999732971191
2018-07-02,10.8100004196167,9.829999923706055,10.779999732971191,10.020000457763672,99500.0,10.020000457763672
2018-07-03,11.010000228881836,9.934000015258789,10.069999694824219,10.989999771118164,43400.0,10.989999771118164
2018-07-05,11.220000267028809,10.5,10.979999542236328,10.619999885559082,100200.0,10.619999885559082
2018-07-06,11.079999923706055,10.65999984741211,10.65999984741211,10.850000381469727,44300.0,10.850000381469727
2018-07-09,11.369999885559082,10.66100025177002,10.829999923706055,11.260000228881836,35600.0,11.260000228881836
2018-07-10,11.5,11.130000114440918,11.319999694824219,11.380000114440918,30200.0,11.380000114440918
2018-07-11,11.489999771118164,10.800000190734863,11.260000228881836,10.890000343322754,73600.0,10.890000343322754
2018-07-12,12.489999771118164,10.899999618530273,10.979999542236328,12.4399995803833,190700.0,12.4399995803833
2018-07-13,12.90999984741211,12.260000228881836,12.5,12.630000114440918,111800.0,12.630000114440918
2018-07-16,13.149999618530273,12.09000015258789,12.6899995803833,12.34000015258789,130200.0,12.34000015258789
2018-07-17,12.760000228881836,12.25,12.329999923706055,12.420000076293945,46800.0,12.420000076293945
2018-07-18,12.789999961853027,12.220000267028809,12.420000076293945,12.359999656677246,29500.0,12.359999656677246
2018-07-19,12.479999542236328,12.083999633789062,12.380000114440918,12.449999809265137,19400.0,12.449999809265137
2018-07-20,12.850000381469727,12.295999526977539,12.40999984741211,12.680000305175781,33500.0,12.680000305175781
2018-07-23,13.920000076293945,12.479999542236328,12.8100004196167,13.430000305175781,160200.0,13.430000305175781
2018-07-24,13.800000190734863,13.220000267028809,13.619999885559082,13.619999885559082,50000.0,13.619999885559082
2018-07-25,13.659000396728516,13.050000190734863,13.600000381469727,13.470000267028809,26400.0,13.470000267028809
2018-07-26,13.779999732971191,13.402999877929688,13.5,13.65999984741211,39400.0,13.65999984741211
2018-07-27,13.699999809265137,13.0600004196167,13.699999809265137,13.239999771118164,55700.0,13.239999771118164
2018-07-30,13.399999618530273,12.699999809265137,13.300000190734863,12.779999732971191,35000.0,12.779999732971191
2018-07-31,13.5,12.880000114440918,12.920000076293945,12.960000038146973,50700.0,12.960000038146973
2018-08-01,13.850000381469727,12.800000190734863,13.050000190734863,13.850000381469727,78700.0,13.850000381469727
2018-08-02,14.399999618530273,13.550000190734863,13.9399995803833,14.289999961853027,109100.0,14.289999961853027
2018-08-03,14.800000190734863,13.9399995803833,13.9399995803833,14.739999771118164,112900.0,14.739999771118164
2018-08-06,14.829999923706055,14.449999809265137,14.800000190734863,14.670000076293945,74000.0,14.670000076293945
2018-08-07,15.010000228881836,13.579999923706055,15.0,13.739999771118164,255400.0,13.739999771118164
2018-08-08,14.640000343322754,13.756999969482422,14.149999618530273,14.539999961853027,81400.0,14.539999961853027
2018-08-09,14.829999923706055,14.270000457763672,14.680000305175781,14.630000114440918,103200.0,14.630000114440918
2018-08-10,14.800000190734863,14.029999732971191,14.550000190734863,14.75,54800.0,14.75
2018-08-13,14.899999618530273,13.520000457763672,14.699999809265137,13.75,119500.0,13.75
2018-08-14,13.890000343322754,12.90999984741211,13.729999542236328,13.359999656677246,52200.0,13.359999656677246
2018-08-15,13.244000434875488,12.1850004196167,13.100000381469727,12.819999694824219,73900.0,12.819999694824219
2018-08-16,13.34000015258789,12.350000381469727,12.760000228881836,12.970000267028809,30500.0,12.970000267028809
2018-08-17,13.079999923706055,12.6899995803833,12.970000267028809,12.75,18200.0,12.75
2018-08-20,13.0,12.520000457763672,12.781000137329102,12.84000015258789,28100.0,12.84000015258789
2018-08-21,13.5,12.960000038146973,12.960000038146973,13.5,46100.0,13.5
2018-08-22,13.567999839782715,13.0600004196167,13.539999961853027,13.09000015258789,30200.0,13.09000015258789
2018-08-23,13.25,12.899999618530273,13.029999732971191,13.119999885559082,18900.0,13.119999885559082
2018-08-24,13.5,13.119999885559082,13.119999885559082,13.5,28600.0,13.5
2018-08-27,13.819999694824219,13.5600004196167,13.670000076293945,13.75,39000.0,13.75
2018-08-28,14.128000259399414,13.600000381469727,13.869999885559082,13.960000038146973,103500.0,13.960000038146973
2018-08-29,14.359999656677246,13.572999954223633,14.029999732971191,13.84000015258789,89100.0,13.84000015258789
2018-08-30,14.09000015258789,13.829999923706055,13.84000015258789,14.010000228881836,16900.0,14.010000228881836
2018-08-31,14.199999809265137,14.029999732971191,14.029999732971191,14.109999656677246,32200.0,14.109999656677246
2018-09-04,14.100000381469727,13.520000457763672,14.100000381469727,13.670000076293945,28600.0,13.670000076293945
2018-09-05,13.829999923706055,13.199999809265137,13.600000381469727,13.640000343322754,35200.0,13.640000343322754
2018-09-06,13.710000038146973,13.130000114440918,13.630000114440918,13.300000190734863,16200.0,13.300000190734863
2018-09-07,13.600000381469727,13.0,13.25,13.470000267028809,16000.0,13.470000267028809
2018-09-10,13.569999694824219,12.6899995803833,13.569999694824219,12.739999771118164,48600.0,12.739999771118164
2018-09-11,12.710000038146973,12.279999732971191,12.699999809265137,12.510000228881836,29300.0,12.510000228881836
2018-09-12,12.5,11.050000190734863,12.399999618530273,11.350000381469727,105100.0,11.350000381469727
2018-09-13,12.4399995803833,11.539999961853027,11.539999961853027,12.135000228881836,24900.0,12.135000228881836
2018-09-14,12.390000343322754,11.40999984741211,12.069999694824219,11.6899995803833,32300.0,11.6899995803833
2018-09-17,12.239999771118164,11.680000305175781,11.680000305175781,12.020000457763672,20000.0,12.020000457763672
2018-09-18,12.359999656677246,11.859999656677246,12.010000228881836,11.890000343322754,26900.0,11.890000343322754
2018-09-19,11.920000076293945,11.479999542236328,11.850000381469727,11.710000038146973,25700.0,11.710000038146973
2018-09-20,12.420000076293945,12.0,12.00100040435791,12.260000228881836,14400.0,12.260000228881836
2018-09-21,12.350000381469727,11.880000114440918,12.25,11.90999984741211,33700.0,11.90999984741211
2018-09-24,11.850000381469727,11.5600004196167,11.850000381469727,11.640000343322754,11100.0,11.640000343322754
2018-09-25,11.979999542236328,11.20300006866455,11.6899995803833,11.289999961853027,31000.0,11.289999961853027
2018-09-26,11.399999618530273,11.069999694824219,11.319999694824219,11.09000015258789,27000.0,11.09000015258789
2018-09-27,11.239999771118164,10.770000457763672,11.050000190734863,10.850000381469727,36900.0,10.850000381469727
2018-09-28,11.175000190734863,10.836000442504883,11.109999656677246,11.069999694824219,31100.0,11.069999694824219
2018-10-01,11.550000190734863,11.100000381469727,11.1899995803833,11.319999694824219,22200.0,11.319999694824219
2018-10-02,11.59000015258789,11.010000228881836,11.300000190734863,11.029999732971191,15300.0,11.029999732971191
2018-10-03,11.199999809265137,11.0,11.0,11.170000076293945,20900.0,11.170000076293945
2018-10-04,11.199999809265137,10.850000381469727,11.09000015258789,10.930000305175781,14600.0,10.930000305175781
2018-10-05,10.920000076293945,10.229999542236328,10.920000076293945,10.350000381469727,87200.0,10.350000381469727
2018-10-08,10.880000114440918,10.289999961853027,10.289999961853027,10.710000038146973,17700.0,10.710000038146973
2018-10-09,11.199999809265137,10.680000305175781,10.680000305175781,11.100000381469727,20100.0,11.100000381469727
2018-10-10,11.09000015258789,10.25,11.09000015258789,10.3100004196167,30900.0,10.3100004196167
2018-10-11,10.5,9.859999656677246,10.199999809265137,9.960000038146973,77600.0,9.960000038146973
2018-10-12,10.390000343322754,10.128000259399414,10.25,10.270000457763672,27100.0,10.270000457763672
2018-10-15,10.699999809265137,10.369999885559082,10.390000343322754,10.6899995803833,22000.0,10.6899995803833
2018-10-16,10.850000381469727,10.279999732971191,10.619999885559082,10.350000381469727,25800.0,10.350000381469727
2018-10-17,10.425000190734863,10.100000381469727,10.359999656677246,10.279999732971191,6300.0,10.279999732971191
2018-10-18,10.670000076293945,9.9399995803833,10.670000076293945,10.069999694824219,50700.0,10.069999694824219
2018-10-19,10.449999809265137,10.0600004196167,10.0600004196167,10.239999771118164,20400.0,10.239999771118164
2018-10-22,10.140000343322754,9.989999771118164,9.989999771118164,10.069999694824219,15000.0,10.069999694824219
2018-10-23,10.039999961853027,9.649999618530273,9.829999923706055,9.819999694824219,53700.0,9.819999694824219
2018-10-24,9.859999656677246,9.609999656677246,9.829999923706055,9.609999656677246,20200.0,9.609999656677246
2018-10-25,9.84000015258789,9.510000228881836,9.680000305175781,9.649999618530273,30700.0,9.649999618530273
2018-10-26,9.630000114440918,9.289999961853027,9.5,9.449999809265137,24900.0,9.449999809265137
2018-10-29,9.960000038146973,9.319999694824219,9.539999961853027,9.470000267028809,19500.0,9.470000267028809
2018-10-30,9.569999694824219,9.289999961853027,9.3100004196167,9.470000267028809,21500.0,9.470000267028809
2018-10-31,9.739999771118164,9.5,9.59000015258789,9.550000190734863,17400.0,9.550000190734863
2018-11-01,10.0,9.550000190734863,9.59000015258789,10.0,7900.0,10.0
2018-11-02,10.180000305175781,9.899999618530273,10.0,10.020000457763672,26300.0,10.020000457763672
2018-11-05,10.100000381469727,9.800000190734863,10.029999732971191,9.989999771118164,12600.0,9.989999771118164
2018-11-06,10.119999885559082,9.9399995803833,10.0,10.0,8700.0,10.0
2018-11-07,10.300000190734863,9.949999809265137,10.010000228881836,10.300000190734863,36000.0,10.300000190734863
2018-11-08,12.0,10.300000190734863,10.300000190734863,12.0,153400.0,12.0
2018-11-09,11.800000190734863,11.449999809265137,11.800000190734863,11.729999542236328,32800.0,11.729999542236328
2018-11-12,11.800000190734863,11.279999732971191,11.800000190734863,11.300000190734863,30600.0,11.300000190734863
2018-11-13,11.600000381469727,11.1899995803833,11.34000015258789,11.460000038146973,28500.0,11.460000038146973
2018-11-14,11.729999542236328,11.199999809265137,11.729999542236328,11.350000381469727,20300.0,11.350000381469727
2018-11-15,11.720000267028809,10.65999984741211,11.199999809265137,11.520000457763672,17400.0,11.520000457763672
2018-11-16,11.449999809265137,10.871000289916992,11.430000305175781,11.229999542236328,31000.0,11.229999542236328
2018-11-19,11.300000190734863,10.829999923706055,11.300000190734863,10.9399995803833,15800.0,10.9399995803833
2018-11-20,10.890000343322754,9.699999809265137,10.819999694824219,10.4399995803833,26200.0,10.4399995803833
2018-11-21,11.09000015258789,10.479999542236328,10.479999542236328,10.989999771118164,17100.0,10.989999771118164
2018-11-23,11.069999694824219,10.59000015258789,10.670000076293945,10.850000381469727,9300.0,10.850000381469727
2018-11-26,11.25,10.880999565124512,11.029999732971191,11.119999885559082,13000.0,11.119999885559082
2018-11-27,11.069999694824219,10.420000076293945,11.069999694824219,10.760000228881836,22300.0,10.760000228881836
2018-11-28,11.260000228881836,10.550000190734863,10.770000457763672,11.029999732971191,39400.0,11.029999732971191
2018-11-29,11.109999656677246,10.800000190734863,11.020000457763672,11.0,13500.0,11.0
2018-11-30,11.300000190734863,10.890000343322754,11.010000228881836,11.149999618530273,21000.0,11.149999618530273
2018-12-03,11.449999809265137,10.90999984741211,11.40999984741211,11.03499984741211,11900.0,11.03499984741211
2018-12-04,11.100000381469727,10.319999694824219,11.029999732971191,10.470000267028809,29200.0,10.470000267028809
2018-12-06,10.779999732971191,10.100000381469727,10.470000267028809,10.779999732971191,15800.0,10.779999732971191
2018-12-07,10.989999771118164,10.130000114440918,10.670000076293945,10.470000267028809,25500.0,10.470000267028809
2018-12-10,10.65999984741211,10.289999961853027,10.520000457763672,10.380000114440918,12100.0,10.380000114440918
2018-12-11,10.739999771118164,10.369999885559082,10.369999885559082,10.640000343322754,1300.0,10.640000343322754
2018-12-12,10.960000038146973,10.699999809265137,10.960000038146973,10.779999732971191,12400.0,10.779999732971191
2018-12-13,10.949999809265137,10.380000114440918,10.949999809265137,10.619999885559082,7800.0,10.619999885559082
2018-12-14,10.859999656677246,10.40999984741211,10.859999656677246,10.40999984741211,3600.0,10.40999984741211
2018-12-17,10.720000267028809,10.0600004196167,10.390000343322754,10.270000457763672,29300.0,10.270000457763672
2018-12-18,10.550000190734863,10.220000267028809,10.3100004196167,10.220000267028809,12200.0,10.220000267028809
2018-12-19,10.550000190734863,10.109999656677246,10.390000343322754,10.149999618530273,17500.0,10.149999618530273
2018-12-20,10.5,10.039999961853027,10.329999923706055,10.260000228881836,28100.0,10.260000228881836
2018-12-21,10.300000190734863,10.109999656677246,10.25,10.260000228881836,46800.0,10.260000228881836
2018-12-24,10.489999771118164,10.0600004196167,10.100000381469727,10.0600004196167,14800.0,10.0600004196167
2018-12-26,10.5,10.039999961853027,10.319999694824219,10.420000076293945,27500.0,10.420000076293945
2018-12-27,10.5,10.100000381469727,10.359999656677246,10.460000038146973,32800.0,10.460000038146973
2018-12-28,10.5,10.210000038146973,10.5,10.470000267028809,28100.0,10.470000267028809
2018-12-31,10.979999542236328,10.270000457763672,10.550000190734863,10.880000114440918,19800.0,10.880000114440918
2019-01-02,10.989999771118164,10.619999885559082,10.770000457763672,10.869999885559082,26300.0,10.869999885559082
2019-01-03,10.800000190734863,10.310999870300293,10.800000190734863,10.369999885559082,21300.0,10.369999885559082
2019-01-04,10.800000190734863,10.357000350952148,10.371999740600586,10.699999809265137,22700.0,10.699999809265137
2019-01-07,10.859999656677246,9.991999626159668,10.517000198364258,10.75,27200.0,10.75
2019-01-08,10.800000190734863,10.430000305175781,10.800000190734863,10.729999542236328,12400.0,10.729999542236328
2019-01-09,10.739999771118164,10.399999618530273,10.718999862670898,10.579999923706055,17200.0,10.579999923706055
2019-01-10,10.600000381469727,10.359999656677246,10.550000190734863,10.5,7300.0,10.5
2019-01-11,10.510000228881836,10.300000190734863,10.449999809265137,10.510000228881836,9400.0,10.510000228881836
2019-01-14,10.460000038146973,10.180000305175781,10.354999542236328,10.260000228881836,11000.0,10.260000228881836
2019-01-15,10.430000305175781,10.220000267028809,10.380000114440918,10.430000305175781,4500.0,10.430000305175781
2019-01-16,10.5,10.24899959564209,10.5,10.449999809265137,10700.0,10.449999809265137
2019-01-17,10.390000343322754,10.020000457763672,10.25,10.279999732971191,13000.0,10.279999732971191
2019-01-18,10.336999893188477,9.579999923706055,10.289999961853027,9.770000457763672,28700.0,9.770000457763672
2019-01-22,9.890000343322754,9.34000015258789,9.770000457763672,9.350000381469727,33100.0,9.350000381469727
2019-01-23,9.699999809265137,9.220000267028809,9.5,9.270000457763672,28800.0,9.270000457763672
2019-01-24,9.75,9.260000228881836,9.260000228881836,9.75,26500.0,9.75
2019-01-25,10.119999885559082,9.800000190734863,9.869999885559082,10.020000457763672,23900.0,10.020000457763672
2019-01-28,10.039999961853027,9.600000381469727,9.770000457763672,9.720000267028809,17900.0,9.720000267028809
2019-01-29,9.800000190734863,9.5,9.800000190734863,9.609999656677246,9100.0,9.609999656677246
2019-01-30,9.576000213623047,9.329000473022461,9.569999694824219,9.489999771118164,18900.0,9.489999771118164
2019-01-31,9.5600004196167,9.279999732971191,9.359999656677246,9.3100004196167,45600.0,9.3100004196167
2019-02-01,9.489999771118164,9.210000038146973,9.3100004196167,9.289999961853027,28000.0,9.289999961853027
2019-02-04,9.420000076293945,9.220000267028809,9.34000015258789,9.319999694824219,21900.0,9.319999694824219
2019-02-05,9.489999771118164,9.25,9.319999694824219,9.420000076293945,17900.0,9.420000076293945
2019-02-06,9.427000045776367,9.3100004196167,9.329999923706055,9.390000343322754,11500.0,9.390000343322754
2019-02-07,9.449999809265137,9.220000267028809,9.350000381469727,9.260000228881836,23000.0,9.260000228881836
2019-02-08,9.380000114440918,9.277999877929688,9.277999877929688,9.3100004196167,23700.0,9.3100004196167
2019-02-11,9.489999771118164,9.3100004196167,9.34000015258789,9.319999694824219,31300.0,9.319999694824219
2019-02-12,9.489999771118164,9.020000457763672,9.350000381469727,9.479999542236328,45100.0,9.479999542236328
2019-02-13,9.710000038146973,9.15999984741211,9.350000381469727,9.34000015258789,40200.0,9.34000015258789
2019-02-14,9.699999809265137,9.199999809265137,9.350000381469727,9.430000305175781,71800.0,9.430000305175781
2019-02-15,9.5600004196167,9.3100004196167,9.399999618530273,9.5,33700.0,9.5
2019-02-19,9.975000381469727,9.449999809265137,9.5,9.970000267028809,79000.0,9.970000267028809
2019-02-20,11.723999977111816,9.989999771118164,9.989999771118164,11.5,191800.0,11.5
2019-02-21,11.390000343322754,10.75,11.390000343322754,11.140000343322754,58100.0,11.140000343322754
2019-02-22,11.65999984741211,11.140000343322754,11.199999809265137,11.59000015258789,127100.0,11.59000015258789
2019-02-25,11.949999809265137,11.600000381469727,11.600000381469727,11.75,67300.0,11.75
2019-02-26,11.720000267028809,11.430000305175781,11.539999961853027,11.449999809265137,9300.0,11.449999809265137
2019-02-27,11.510000228881836,11.140000343322754,11.479999542236328,11.380000114440918,11400.0,11.380000114440918
2019-02-28,11.5,11.26200008392334,11.390000343322754,11.350000381469727,20800.0,11.350000381469727
2019-03-01,11.640000343322754,11.427000045776367,11.5,11.600000381469727,13400.0,11.600000381469727
2019-03-04,12.479999542236328,11.600000381469727,11.600000381469727,12.430000305175781,103700.0,12.430000305175781
2019-03-05,13.359999656677246,12.420000076293945,12.420000076293945,13.350000381469727,154200.0,13.350000381469727
2019-03-06,13.350000381469727,12.489999771118164,13.350000381469727,12.680000305175781,124500.0,12.680000305175781
2019-03-07,12.949999809265137,10.649999618530273,12.949999809265137,11.09000015258789,199100.0,11.09000015258789
2019-03-08,11.989999771118164,10.90999984741211,10.90999984741211,11.649999618530273,50900.0,11.649999618530273
2019-03-11,12.0,11.539999961853027,11.760000228881836,11.859999656677246,51800.0,11.859999656677246
2019-03-12,11.979999542236328,11.6850004196167,11.979999542236328,11.890000343322754,50900.0,11.890000343322754
2019-03-13,12.890000343322754,11.869999885559082,11.880000114440918,12.65999984741211,100600.0,12.65999984741211
2019-03-14,14.0,12.75,12.770000457763672,13.800000190734863,340800.0,13.800000190734863
2019-03-15,13.880000114440918,13.239999771118164,13.84000015258789,13.649999618530273,151300.0,13.649999618530273
2019-03-18,14.899999618530273,13.520000457763672,13.630000114440918,14.869999885559082,405600.0,14.869999885559082
2019-03-19,17.5,14.819999694824219,14.880000114440918,15.949999809265137,719000.0,15.949999809265137
2019-03-20,16.389999389648438,14.50100040435791,15.680000305175781,15.930000305175781,307600.0,15.930000305175781
2019-03-21,16.68000030517578,15.899999618530273,15.90999984741211,16.440000534057617,108900.0,16.440000534057617
2019-03-22,16.31999969482422,14.279999732971191,16.260000228881836,14.479999542236328,159100.0,14.479999542236328
2019-03-25,15.5,14.470000267028809,14.930000305175781,15.15999984741211,110100.0,15.15999984741211
2019-03-26,16.0,15.039999961853027,15.039999961853027,15.800000190734863,161100.0,15.800000190734863
2019-03-27,15.871000289916992,14.859999656677246,15.75,15.079999923706055,75500.0,15.079999923706055
2019-03-28,15.270000457763672,14.600000381469727,15.079999923706055,15.149999618530273,55900.0,15.149999618530273
2019-03-29,15.579999923706055,14.75,15.380000114440918,15.430000305175781,69400.0,15.430000305175781
2019-04-01,15.729999542236328,15.020000457763672,15.460000038146973,15.460000038146973,97100.0,15.460000038146973
2019-04-02,15.640000343322754,15.192000389099121,15.470000267028809,15.279999732971191,49200.0,15.279999732971191
2019-04-03,15.949999809265137,15.390000343322754,15.489999771118164,15.6899995803833,82200.0,15.6899995803833
2019-04-04,16.0,15.279999732971191,15.84000015258789,15.84000015258789,72900.0,15.84000015258789
2019-04-05,16.0,15.630000114440918,15.9399995803833,15.800000190734863,52900.0,15.800000190734863
2019-04-08,15.789999961853027,15.369999885559082,15.789999961853027,15.539999961853027,33000.0,15.539999961853027
2019-04-09,15.720000267028809,15.079999923706055,15.529999732971191,15.149999618530273,38500.0,15.149999618530273
2019-04-10,15.609000205993652,14.920000076293945,15.329999923706055,15.350000381469727,81800.0,15.350000381469727
2019-04-11,15.430000305175781,15.300000190734863,15.350000381469727,15.390000343322754,18100.0,15.390000343322754
2019-04-12,16.110000610351562,15.197999954223633,15.619999885559082,15.5600004196167,93700.0,15.5600004196167
2019-04-15,15.609999656677246,15.199999809265137,15.609999656677246,15.4399995803833,24800.0,15.4399995803833
2019-04-16,16.65999984741211,15.5,15.579999923706055,16.399999618530273,220700.0,16.399999618530273
2019-04-17,17.84000015258789,16.405000686645508,16.65999984741211,17.510000228881836,327200.0,17.510000228881836
2019-04-18,18.479999542236328,17.049999237060547,17.690000534057617,18.3799991607666,215300.0,18.3799991607666
2019-04-22,19.399999618530273,15.609999656677246,18.579999923706055,16.360000610351562,353600.0,16.360000610351562
2019-04-23,17.3799991607666,16.209999084472656,16.31999969482422,16.809999465942383,126800.0,16.809999465942383
2019-04-24,17.444000244140625,16.600000381469727,16.860000610351562,16.75,55300.0,16.75
2019-04-25,16.81999969482422,15.800000190734863,16.739999771118164,15.989999771118164,106300.0,15.989999771118164
2019-04-26,16.389999389648438,15.989999771118164,16.06999969482422,16.270000457763672,51800.0,16.270000457763672
2019-04-29,17.299999237060547,15.8100004196167,16.260000228881836,17.200000762939453,89300.0,17.200000762939453
2019-04-30,17.639999389648438,17.01799964904785,17.399999618530273,17.229999542236328,73200.0,17.229999542236328
2019-05-01,17.540000915527344,17.104999542236328,17.290000915527344,17.389999389648438,42000.0,17.389999389648438
2019-05-02,18.260000228881836,17.049999237060547,17.229999542236328,17.950000762939453,87500.0,17.950000762939453
2019-05-03,18.5,17.81100082397461,17.950000762939453,18.299999237060547,59100.0,18.299999237060547
2019-05-06,18.5,16.94700050354004,18.1200008392334,18.31999969482422,154900.0,18.31999969482422
2019-05-07,19.280000686645508,18.260000228881836,18.270000457763672,18.75,112100.0,18.75
2019-05-08,19.5,18.0,19.200000762939453,18.420000076293945,159400.0,18.420000076293945
2019-05-09,18.888999938964844,17.190000534057617,18.799999237060547,18.510000228881836,116900.0,18.510000228881836
2019-05-10,19.200000762939453,18.479999542236328,18.479999542236328,19.020000457763672,77600.0,19.020000457763672
2019-05-13,19.079999923706055,18.170000076293945,18.969999313354492,18.719999313354492,132700.0,18.719999313354492
2019-05-14,20.0,18.75,18.920000076293945,19.84000015258789,166400.0,19.84000015258789
2019-05-15,21.8799991607666,19.399999618530273,19.610000610351562,21.350000381469727,209000.0,21.350000381469727
2019-05-16,21.75,18.72800064086914,21.5,18.940000534057617,203700.0,18.940000534057617
2019-05-17,19.649999618530273,18.65999984741211,18.65999984741211,19.239999771118164,91800.0,19.239999771118164
2019-05-20,18.950000762939453,17.65999984741211,18.950000762939453,17.729999542236328,126000.0,17.729999542236328
2019-05-21,18.459999084472656,17.780000686645508,17.979999542236328,18.239999771118164,85500.0,18.239999771118164
2019-05-22,18.149999618530273,16.579999923706055,17.969999313354492,17.479999542236328,109500.0,17.479999542236328
2019-05-23,17.790000915527344,16.549999237060547,17.280000686645508,17.639999389648438,130200.0,17.639999389648438
2019-05-24,18.389999389648438,17.520000457763672,17.649999618530273,18.09000015258789,34900.0,18.09000015258789
