Date,High,Low,Open,Close,Volume,Adj Close
2016-04-07,10.720000267028809,9.609999656677246,10.0,9.770000457763672,1429300,9.770000457763672
2016-04-08,12.75,10.0,10.0,11.989999771118164,560400,11.989999771118164
2016-04-11,12.039999961853027,10.300000190734863,11.869999885559082,10.420000076293945,182600,10.420000076293945
2016-04-12,10.739999771118164,9.420000076293945,10.4399995803833,9.649999618530273,193200,9.649999618530273
2016-04-13,10.859999656677246,9.850000381469727,9.9399995803833,10.069999694824219,70900,10.069999694824219
2016-04-14,10.4399995803833,9.75,10.170000076293945,9.760000228881836,39600,9.760000228881836
2016-04-15,10.239999771118164,9.829999923706055,10.149999618530273,9.960000038146973,34800,9.960000038146973
2016-04-18,10.079999923706055,9.649999618530273,10.069999694824219,9.710000038146973,32300,9.710000038146973
2016-04-19,10.0,8.359999656677246,10.0,8.489999771118164,130400,8.489999771118164
2016-04-20,8.878000259399414,8.399999618530273,8.729999542236328,8.539999961853027,19200,8.539999961853027
2016-04-21,8.800000190734863,8.5,8.800000190734863,8.59000015258789,12300,8.59000015258789
2016-04-22,9.449999809265137,8.510000228881836,8.960000038146973,9.1899995803833,91500,9.1899995803833
2016-04-25,10.25,9.220000267028809,9.40999984741211,9.699999809265137,122100,9.699999809265137
2016-04-26,10.149999618530273,9.180000305175781,9.800000190734863,9.890000343322754,157700,9.890000343322754
2016-04-27,9.850000381469727,9.3100004196167,9.59000015258789,9.520000457763672,46400,9.520000457763672
2016-04-28,9.774999618530273,8.930000305175781,9.520000457763672,9.1899995803833,35900,9.1899995803833
2016-04-29,9.319000244140625,8.550000190734863,9.199999809265137,8.760000228881836,73700,8.760000228881836
2016-05-02,10.0,8.878000259399414,8.989999771118164,9.760000228881836,113800,9.760000228881836
2016-05-03,10.050000190734863,9.300000190734863,10.0,9.399999618530273,52900,9.399999618530273
2016-05-04,9.890000343322754,8.600000381469727,9.649999618530273,9.100000381469727,33300,9.100000381469727
2016-05-05,9.25,8.569999694824219,9.020000457763672,8.614999771118164,37400,8.614999771118164
2016-05-06,9.25,8.600000381469727,8.710000038146973,8.710000038146973,29100,8.710000038146973
2016-05-09,9.25,8.720000267028809,8.720000267028809,8.8100004196167,80400,8.8100004196167
2016-05-10,8.9350004196167,8.611000061035156,8.859999656677246,8.770000457763672,17700,8.770000457763672
2016-05-11,8.899999618530273,8.079999923706055,8.619999885559082,8.145000457763672,83100,8.145000457763672
2016-05-12,8.65999984741211,7.300000190734863,8.100000381469727,7.460000038146973,75200,7.460000038146973
2016-05-13,7.440000057220459,6.679999828338623,7.190000057220459,7.170000076293945,57200,7.170000076293945
2016-05-16,8.5,7.150000095367432,7.340000152587891,7.230000019073486,538200,7.230000019073486
2016-05-17,7.519999980926514,6.809999942779541,7.019999980926514,7.28000020980835,83300,7.28000020980835
2016-05-18,8.0,7.0,7.0,7.409999847412109,16800,7.409999847412109
2016-05-19,7.75,7.019999980926514,7.019999980926514,7.360000133514404,31800,7.360000133514404
2016-05-20,7.599999904632568,7.170000076293945,7.400000095367432,7.460000038146973,38000,7.460000038146973
2016-05-23,7.75,7.070000171661377,7.46999979019165,7.309999942779541,65000,7.309999942779541
2016-05-24,8.239999771118164,7.099999904632568,8.0,7.360000133514404,105100,7.360000133514404
2016-05-25,7.480000019073486,7.190000057220459,7.21999979019165,7.380000114440918,22000,7.380000114440918
2016-05-26,7.489999771118164,7.110000133514404,7.269999980926514,7.449999809265137,36300,7.449999809265137
2016-05-27,7.400000095367432,6.849999904632568,7.309999942779541,7.239999771118164,71900,7.239999771118164
2016-05-31,7.599999904632568,6.849999904632568,7.25,7.5,34500,7.5
2016-06-01,7.699999809265137,7.300000190734863,7.5,7.380000114440918,29900,7.380000114440918
2016-06-02,7.679999828338623,7.28000020980835,7.28000020980835,7.679999828338623,57000,7.679999828338623
2016-06-03,7.679999828338623,7.34499979019165,7.679999828338623,7.599999904632568,12200,7.599999904632568
2016-06-06,7.614999771118164,7.2729997634887695,7.599999904632568,7.590000152587891,11300,7.590000152587891
2016-06-07,7.489999771118164,7.111999988555908,7.309999942779541,7.349999904632568,17900,7.349999904632568
2016-06-08,7.590000152587891,7.190000057220459,7.190000057220459,7.260000228881836,10300,7.260000228881836
2016-06-09,7.599999904632568,6.869999885559082,7.25,7.25,149000,7.25
2016-06-10,7.179999828338623,5.849999904632568,7.179999828338623,6.28000020980835,95500,6.28000020980835
2016-06-13,6.510000228881836,6.039999961853027,6.210000038146973,6.170000076293945,44000,6.170000076293945
2016-06-14,6.539999961853027,5.309999942779541,6.159999847412109,5.889999866485596,43600,5.889999866485596
2016-06-15,6.269999980926514,5.010000228881836,5.889999866485596,5.360000133514404,227300,5.360000133514404
2016-06-16,5.849999904632568,5.050000190734863,5.360000133514404,5.199999809265137,122400,5.199999809265137
2016-06-17,5.489999771118164,4.389999866485596,5.400000095367432,4.460000038146973,214300,4.460000038146973
2016-06-20,4.860000133514404,4.289999961853027,4.610000133514404,4.46999979019165,102500,4.46999979019165
2016-06-21,4.676000118255615,4.304999828338623,4.559999942779541,4.360000133514404,59400,4.360000133514404
2016-06-22,4.703000068664551,4.099999904632568,4.409999847412109,4.454999923706055,35000,4.454999923706055
2016-06-23,5.130000114440918,4.489999771118164,4.579999923706055,4.800000190734863,111900,4.800000190734863
2016-06-24,5.420000076293945,4.735000133514404,4.989999771118164,5.360000133514404,65900,5.360000133514404
2016-06-27,5.96999979019165,5.360000133514404,5.360000133514404,5.449999809265137,97500,5.449999809265137
2016-06-28,5.980000019073486,5.210000038146973,5.349999904632568,5.449999809265137,69800,5.449999809265137
2016-06-29,5.829999923706055,5.019999980926514,5.829999923706055,5.230000019073486,37000,5.230000019073486
2016-06-30,5.150000095367432,4.71999979019165,5.0,4.860000133514404,30300,4.860000133514404
2016-07-01,5.804999828338623,4.650000095367432,5.804999828338623,4.849999904632568,31500,4.849999904632568
2016-07-05,4.929999828338623,4.429999828338623,4.929999828338623,4.579999923706055,26400,4.579999923706055
2016-07-06,4.690000057220459,4.25,4.590000152587891,4.559999942779541,8700,4.559999942779541
2016-07-07,4.489999771118164,3.890000104904175,4.489999771118164,3.9600000381469727,89700,3.9600000381469727
2016-07-08,4.328000068664551,3.9600000381469727,3.9600000381469727,4.210000038146973,34500,4.210000038146973
2016-07-11,4.300000190734863,4.050000190734863,4.297999858856201,4.119999885559082,54400,4.119999885559082
2016-07-12,4.380000114440918,4.067999839782715,4.130000114440918,4.199999809265137,38900,4.199999809265137
2016-07-13,4.760000228881836,4.190000057220459,4.190000057220459,4.75,45600,4.75
2016-07-14,4.880000114440918,4.650000095367432,4.699999809265137,4.650000095367432,35500,4.650000095367432
2016-07-15,4.677999973297119,4.369999885559082,4.598999977111816,4.519999980926514,31700,4.519999980926514
2016-07-18,4.705999851226807,4.25,4.705999851226807,4.480000019073486,36600,4.480000019073486
2016-07-19,4.749000072479248,4.400000095367432,4.400000095367432,4.639999866485596,23700,4.639999866485596
2016-07-20,4.730000019073486,4.550000190734863,4.730000019073486,4.570000171661377,18300,4.570000171661377
2016-07-21,4.611000061035156,4.400000095367432,4.570000171661377,4.539999961853027,12900,4.539999961853027
2016-07-22,4.659999847412109,4.400000095367432,4.400000095367432,4.650000095367432,8700,4.650000095367432
2016-07-25,4.699999809265137,4.480000019073486,4.699999809265137,4.510000228881836,15100,4.510000228881836
2016-07-26,4.730000019073486,4.5,4.585999965667725,4.699999809265137,22500,4.699999809265137
2016-07-27,5.046999931335449,4.610000133514404,4.699999809265137,4.699999809265137,12700,4.699999809265137
2016-07-28,4.934999942779541,4.71999979019165,4.760000228881836,4.809999942779541,6100,4.809999942779541
2016-07-29,4.997000217437744,4.650000095367432,4.78000020980835,4.800000190734863,9100,4.800000190734863
2016-08-01,4.921999931335449,4.71999979019165,4.75,4.769999980926514,5900,4.769999980926514
2016-08-02,4.800000190734863,4.5,4.699999809265137,4.579999923706055,14700,4.579999923706055
2016-08-03,4.764999866485596,4.599999904632568,4.764999866485596,4.619999885559082,3400,4.619999885559082
2016-08-04,4.929999828338623,4.659999847412109,4.659999847412109,4.789999961853027,3000,4.789999961853027
2016-08-05,4.699999809265137,4.659999847412109,4.699999809265137,4.690000057220459,6400,4.690000057220459
2016-08-08,4.889999866485596,4.599999904632568,4.670000076293945,4.599999904632568,5800,4.599999904632568
2016-08-09,4.820000171661377,4.590000152587891,4.590000152587891,4.739999771118164,6100,4.739999771118164
2016-08-10,4.78000020980835,4.550000190734863,4.78000020980835,4.599999904632568,14200,4.599999904632568
2016-08-11,4.599999904632568,4.550000190734863,4.599999904632568,4.590000152587891,19600,4.590000152587891
2016-08-12,4.683000087738037,4.578999996185303,4.664999961853027,4.599999904632568,1600,4.599999904632568
2016-08-15,4.690000057220459,4.5,4.685999870300293,4.690000057220459,11200,4.690000057220459
2016-08-16,5.199999809265137,4.650000095367432,4.679999828338623,5.199999809265137,241900,5.199999809265137
2016-08-17,6.0,5.199999809265137,5.199999809265137,5.900000095367432,91100,5.900000095367432
2016-08-18,6.0,5.53000020980835,5.900000095367432,5.880000114440918,20300,5.880000114440918
2016-08-19,5.710000038146973,5.010000228881836,5.6620001792907715,5.159999847412109,19500,5.159999847412109
2016-08-22,5.670000076293945,5.25,5.25,5.639999866485596,27900,5.639999866485596
2016-08-23,5.690000057220459,5.440000057220459,5.579999923706055,5.570000171661377,8900,5.570000171661377
2016-08-24,5.960000038146973,5.5,5.5,5.789999961853027,25900,5.789999961853027
2016-08-25,5.900000095367432,5.020999908447266,5.380000114440918,5.869999885559082,15200,5.869999885559082
2016-08-26,5.900000095367432,5.701000213623047,5.710000038146973,5.894999980926514,20700,5.894999980926514
2016-08-29,5.900000095367432,5.570000171661377,5.809999942779541,5.840000152587891,20300,5.840000152587891
2016-08-30,5.820000171661377,5.735000133514404,5.820000171661377,5.789999961853027,4700,5.789999961853027
2016-08-31,5.769999980926514,5.480000019073486,5.769999980926514,5.639999866485596,6600,5.639999866485596
2016-09-01,5.900000095367432,5.599999904632568,5.599999904632568,5.784999847412109,4200,5.784999847412109
2016-09-02,6.369999885559082,5.831999778747559,5.900000095367432,6.25,81200,6.25
2016-09-06,6.96999979019165,6.289999961853027,6.300000190734863,6.96999979019165,62800,6.96999979019165
2016-09-07,7.0,6.679999828338623,7.0,6.949999809265137,25600,6.949999809265137
2016-09-08,7.329999923706055,6.951000213623047,6.951000213623047,7.329999923706055,27000,7.329999923706055
2016-09-09,7.539999961853027,6.800000190734863,7.28000020980835,6.949999809265137,40400,6.949999809265137
2016-09-12,7.519999980926514,6.880000114440918,6.880000114440918,7.449999809265137,34000,7.449999809265137
2016-09-13,7.840000152587891,7.440000057220459,7.579999923706055,7.769999980926514,26700,7.769999980926514
2016-09-14,8.199999809265137,7.5,7.5,8.109999656677246,30900,8.109999656677246
2016-09-15,8.300000190734863,7.639999866485596,8.300000190734863,7.760000228881836,60700,7.760000228881836
2016-09-16,7.949999809265137,7.440999984741211,7.829999923706055,7.710000038146973,63300,7.710000038146973
2016-09-19,7.75,6.880000114440918,7.710000038146973,6.940000057220459,33500,6.940000057220459
2016-09-20,7.25,6.880000114440918,6.929999828338623,6.880000114440918,18200,6.880000114440918
2016-09-21,6.900000095367432,6.110000133514404,6.880000114440918,6.369999885559082,20200,6.369999885559082
2016-09-22,6.449999809265137,6.211999893188477,6.349999904632568,6.420000076293945,29900,6.420000076293945
2016-09-23,6.800000190734863,6.409999847412109,6.480000019073486,6.489999771118164,9400,6.489999771118164
2016-09-26,6.96999979019165,6.434999942779541,6.579999923706055,6.800000190734863,15400,6.800000190734863
2016-09-27,6.880000114440918,6.6579999923706055,6.860000133514404,6.860000133514404,13100,6.860000133514404
2016-09-28,7.440000057220459,6.75,6.809999942779541,7.010000228881836,19900,7.010000228881836
2016-09-29,7.070000171661377,6.539999961853027,6.989999771118164,6.650000095367432,21100,6.650000095367432
2016-09-30,6.800000190734863,6.409999847412109,6.75,6.409999847412109,12200,6.409999847412109
2016-10-03,6.5,6.355999946594238,6.489999771118164,6.409999847412109,5300,6.409999847412109
2016-10-04,6.840000152587891,6.525000095367432,6.5320000648498535,6.78000020980835,3800,6.78000020980835
2016-10-05,6.829999923706055,6.627999782562256,6.769999980926514,6.829999923706055,10900,6.829999923706055
2016-10-06,7.25,6.53000020980835,6.53000020980835,6.989999771118164,26900,6.989999771118164
2016-10-07,7.36899995803833,6.559999942779541,7.36899995803833,6.840000152587891,5300,6.840000152587891
2016-10-10,6.710000038146973,6.46999979019165,6.599999904632568,6.5,21700,6.5
2016-10-11,6.985000133514404,6.510000228881836,6.510000228881836,6.900000095367432,9800,6.900000095367432
2016-10-12,7.190000057220459,6.869999885559082,6.920000076293945,6.900000095367432,6800,6.900000095367432
2016-10-13,7.03000020980835,6.71999979019165,7.03000020980835,6.71999979019165,1700,6.71999979019165
2016-10-14,7.208000183105469,6.659999847412109,6.71999979019165,6.75,8200,6.75
2016-10-17,6.980000019073486,6.650000095367432,6.879000186920166,6.739999771118164,2600,6.739999771118164
2016-10-18,6.75,6.539999961853027,6.739999771118164,6.739999771118164,8500,6.739999771118164
2016-10-19,6.760000228881836,6.130000114440918,6.760000228881836,6.579999923706055,51200,6.579999923706055
2016-10-20,6.53000020980835,6.218999862670898,6.218999862670898,6.329999923706055,64800,6.329999923706055
2016-10-21,6.5980000495910645,6.199999809265137,6.579999923706055,6.269999980926514,33000,6.269999980926514
2016-10-24,6.78000020980835,6.010000228881836,6.480000019073486,6.119999885559082,76600,6.119999885559082
2016-10-25,6.349999904632568,5.260000228881836,6.349999904632568,5.980000019073486,73700,5.980000019073486
2016-10-26,6.03000020980835,5.400000095367432,5.78000020980835,6.03000020980835,12200,6.03000020980835
2016-10-27,6.019999980926514,5.46999979019165,6.019999980926514,5.875,15700,5.875
2016-10-28,5.889999866485596,5.75,5.78000020980835,5.800000190734863,12300,5.800000190734863
2016-10-31,5.8420000076293945,5.320000171661377,5.810999870300293,5.360000133514404,13200,5.360000133514404
2016-11-01,6.0,5.320000171661377,5.440000057220459,5.860000133514404,26600,5.860000133514404
2016-11-02,5.829999923706055,5.639999866485596,5.829999923706055,5.699999809265137,2600,5.699999809265137
2016-11-03,5.929999828338623,5.324999809265137,5.730000019073486,5.929999828338623,18300,5.929999828338623
2016-11-04,6.34499979019165,5.460000038146973,5.460000038146973,6.119999885559082,12700,6.119999885559082
2016-11-07,6.110000133514404,5.627999782562256,6.110000133514404,6.079999923706055,11500,6.079999923706055
2016-11-08,6.03000020980835,5.949999809265137,6.0,5.96999979019165,6100,5.96999979019165
2016-11-09,5.948999881744385,5.630000114440918,5.71999979019165,5.860000133514404,4300,5.860000133514404
2016-11-10,5.900000095367432,5.500999927520752,5.880000114440918,5.900000095367432,8600,5.900000095367432
2016-11-11,5.929999828338623,5.73199987411499,5.920000076293945,5.929999828338623,2600,5.929999828338623
2016-11-14,6.519999980926514,5.730000019073486,6.0,6.050000190734863,45000,6.050000190734863
2016-11-15,6.238999843597412,5.989999771118164,6.050000190734863,6.0,9400,6.0
2016-11-16,6.139999866485596,6.0,6.09499979019165,6.03000020980835,5200,6.03000020980835
2016-11-17,6.53000020980835,5.769999980926514,6.019999980926514,6.199999809265137,46000,6.199999809265137
2016-11-18,6.25,5.659999847412109,6.25,5.829999923706055,22100,5.829999923706055
2016-11-21,10.34000015258789,5.75,5.900000095367432,5.889999866485596,721200,5.889999866485596
2016-11-22,5.889999866485596,5.21999979019165,5.820000171661377,5.284999847412109,274300,5.284999847412109
2016-11-23,5.691999912261963,4.900000095367432,5.691999912261963,5.010000228881836,56500,5.010000228881836
2016-11-25,5.400000095367432,4.900000095367432,5.400000095367432,5.090000152587891,25900,5.090000152587891
2016-11-28,5.366000175476074,5.0,5.199999809265137,5.340000152587891,66000,5.340000152587891
2016-11-29,5.599999904632568,5.0,5.09499979019165,5.315000057220459,73900,5.315000057220459
2016-11-30,5.5,5.159999847412109,5.289999961853027,5.170000076293945,42600,5.170000076293945
2016-12-01,5.809999942779541,5.190000057220459,5.190000057220459,5.699999809265137,47000,5.699999809265137
2016-12-02,5.75,5.185999870300293,5.75,5.699999809265137,12600,5.699999809265137
2016-12-05,5.820000171661377,5.335000038146973,5.650000095367432,5.739999771118164,10700,5.739999771118164
2016-12-06,6.150000095367432,5.610000133514404,5.829999923706055,6.079999923706055,46600,6.079999923706055
2016-12-07,6.269999980926514,5.429999828338623,6.130000114440918,5.96999979019165,32200,5.96999979019165
2016-12-08,6.059999942779541,5.539999961853027,5.800000190734863,5.699999809265137,46700,5.699999809265137
2016-12-09,6.0,5.145999908447266,5.699999809265137,5.519999980926514,51900,5.519999980926514
2016-12-12,5.480000019073486,5.139999866485596,5.480000019073486,5.349999904632568,11200,5.349999904632568
2016-12-13,5.480000019073486,5.269999980926514,5.409999847412109,5.369999885559082,23000,5.369999885559082
2016-12-14,5.889999866485596,5.360000133514404,5.360000133514404,5.480000019073486,28300,5.480000019073486
2016-12-15,5.900000095367432,5.230000019073486,5.900000095367432,5.230000019073486,10700,5.230000019073486
2016-12-16,5.704999923706055,5.2270002365112305,5.409999847412109,5.400000095367432,33500,5.400000095367432
2016-12-19,5.51200008392334,4.949999809265137,5.440000057220459,5.010000228881836,19600,5.010000228881836
2016-12-20,5.390999794006348,4.760000228881836,5.059999942779541,5.059999942779541,133900,5.059999942779541
2016-12-21,5.420000076293945,4.900000095367432,5.019999980926514,5.110000133514404,21600,5.110000133514404
2016-12-22,5.244999885559082,4.960000038146973,5.070000171661377,5.119999885559082,9400,5.119999885559082
2016-12-23,5.25,4.840000152587891,5.099999904632568,5.099999904632568,27900,5.099999904632568
2016-12-27,5.25,4.960000038146973,5.050000190734863,5.070000171661377,10600,5.070000171661377
2016-12-28,5.050000190734863,4.769999980926514,5.019999980926514,4.769999980926514,18300,4.769999980926514
2016-12-29,4.860000133514404,4.426000118255615,4.829999923706055,4.639999866485596,43900,4.639999866485596
2016-12-30,4.630000114440918,4.269999980926514,4.505000114440918,4.349999904632568,50800,4.349999904632568
2017-01-03,4.732999801635742,4.360000133514404,4.360000133514404,4.570000171661377,15000,4.570000171661377
2017-01-04,5.239999771118164,4.570000171661377,4.619999885559082,4.989999771118164,23200,4.989999771118164
2017-01-05,5.199999809265137,4.710000038146973,5.000999927520752,4.940000057220459,13200,4.940000057220459
2017-01-06,5.400000095367432,4.794000148773193,5.294000148773193,5.260000228881836,12900,5.260000228881836
2017-01-09,5.323999881744385,5.059000015258789,5.110000133514404,5.210000038146973,9500,5.210000038146973
2017-01-10,5.300000190734863,5.010000228881836,5.110000133514404,5.010000228881836,9700,5.010000228881836
2017-01-11,5.389999866485596,5.03000020980835,5.078999996185303,5.329999923706055,8400,5.329999923706055
2017-01-12,5.35099983215332,5.150000095367432,5.289999961853027,5.179999828338623,2700,5.179999828338623
2017-01-13,5.374000072479248,5.050000190734863,5.11299991607666,5.190000057220459,17900,5.190000057220459
2017-01-17,5.295000076293945,5.070000171661377,5.25,5.070000171661377,9500,5.070000171661377
2017-01-18,5.25,5.150000095367432,5.150000095367432,5.179999828338623,19200,5.179999828338623
2017-01-19,5.239999771118164,4.863999843597412,5.170000076293945,4.889999866485596,13600,4.889999866485596
2017-01-20,4.900000095367432,4.599999904632568,4.900000095367432,4.610000133514404,13100,4.610000133514404
2017-01-23,5.0,4.349999904632568,4.739999771118164,4.619999885559082,86500,4.619999885559082
2017-01-24,4.579999923706055,4.380000114440918,4.579999923706055,4.380000114440918,35300,4.380000114440918
2017-01-25,4.989999771118164,4.199999809265137,4.820000171661377,4.210000038146973,31400,4.210000038146973
2017-01-26,4.208000183105469,4.019999980926514,4.199999809265137,4.099999904632568,50400,4.099999904632568
2017-01-27,4.409999847412109,4.0,4.199999809265137,4.019999980926514,183600,4.019999980926514
2017-01-30,4.39300012588501,4.0,4.059999942779541,4.010000228881836,77900,4.010000228881836
2017-01-31,4.230000019073486,3.6600000858306885,4.079999923706055,3.990000009536743,71900,3.990000009536743
2017-02-01,4.099999904632568,3.8320000171661377,4.010000228881836,4.089000225067139,46800,4.089000225067139
2017-02-02,4.109000205993652,3.9700000286102295,4.1020002365112305,4.090000152587891,14600,4.090000152587891
2017-02-03,4.099999904632568,4.019999980926514,4.099999904632568,4.019999980926514,16900,4.019999980926514
2017-02-06,4.379000186920166,4.050000190734863,4.110000133514404,4.289999961853027,115500,4.289999961853027
2017-02-07,4.293000221252441,4.159999847412109,4.293000221252441,4.189000129699707,49000,4.189000129699707
2017-02-08,4.380000114440918,4.099999904632568,4.190000057220459,4.210000038146973,91300,4.210000038146973
2017-02-09,4.8470001220703125,4.150000095367432,4.150000095367432,4.59499979019165,353600,4.59499979019165
2017-02-10,4.739999771118164,4.309999942779541,4.639999866485596,4.710000038146973,390300,4.710000038146973
2017-02-13,4.929999828338623,4.610000133514404,4.75,4.800000190734863,230500,4.800000190734863
2017-02-14,5.230000019073486,4.75,4.940000057220459,5.179999828338623,340300,5.179999828338623
2017-02-15,5.3470001220703125,4.931000232696533,5.139999866485596,5.039999961853027,175200,5.039999961853027
2017-02-16,5.144000053405762,4.946000099182129,4.980000019073486,5.099999904632568,115900,5.099999904632568
2017-02-17,5.550000190734863,5.078999996185303,5.099999904632568,5.21999979019165,191100,5.21999979019165
2017-02-21,5.670000076293945,5.159999847412109,5.21999979019165,5.599999904632568,113400,5.599999904632568
2017-02-22,6.184999942779541,5.35699987411499,5.650000095367432,6.0,206000,6.0
2017-02-23,6.2829999923706055,5.5,6.119999885559082,5.800000190734863,175000,5.800000190734863
2017-02-24,6.170000076293945,5.679999828338623,5.800000190734863,5.829999923706055,120500,5.829999923706055
2017-02-27,6.0,5.650000095367432,5.960000038146973,5.940000057220459,116500,5.940000057220459
2017-02-28,6.439000129699707,5.808000087738037,6.0,6.199999809265137,144200,6.199999809265137
2017-03-01,6.324999809265137,5.730000019073486,6.230000019073486,6.159999847412109,87400,6.159999847412109
2017-03-02,6.388999938964844,5.801000118255615,6.239999771118164,6.130000114440918,148400,6.130000114440918
2017-03-03,6.269999980926514,5.840000152587891,6.179999828338623,6.130000114440918,56600,6.130000114440918
2017-03-06,6.210000038146973,6.0,6.179999828338623,6.090000152587891,17700,6.090000152587891
2017-03-07,6.210000038146973,5.679999828338623,6.099999904632568,5.940000057220459,144900,5.940000057220459
2017-03-08,6.875999927520752,5.920000076293945,5.980000019073486,6.320000171661377,310100,6.320000171661377
2017-03-09,6.78000020980835,6.2729997634887695,6.2729997634887695,6.550000190734863,84300,6.550000190734863
2017-03-10,6.78000020980835,5.879000186920166,6.550000190734863,6.53000020980835,209900,6.53000020980835
2017-03-13,6.96999979019165,6.429999828338623,6.480000019073486,6.920000076293945,135300,6.920000076293945
2017-03-14,7.050000190734863,6.769999980926514,6.923999786376953,7.0,81600,7.0
2017-03-15,7.610000133514404,6.4720001220703125,7.026000022888184,7.309999942779541,208100,7.309999942779541
2017-03-16,7.599999904632568,7.059999942779541,7.300000190734863,7.190000057220459,67500,7.190000057220459
2017-03-17,7.989999771118164,6.909999847412109,7.190000057220459,7.739999771118164,116900,7.739999771118164
2017-03-20,8.140000343322754,7.26200008392334,7.690000057220459,8.029999732971191,89000,8.029999732971191
2017-03-21,8.09000015258789,6.860000133514404,8.09000015258789,7.519999980926514,110800,7.519999980926514
2017-03-22,7.75,7.135000228881836,7.46999979019165,7.710000038146973,30100,7.710000038146973
2017-03-23,7.809999942779541,7.034999847412109,7.809999942779541,7.320000171661377,83000,7.320000171661377
2017-03-24,7.46999979019165,7.099999904632568,7.320000171661377,7.369999885559082,152800,7.369999885559082
2017-03-27,7.440000057220459,6.760000228881836,7.059999942779541,7.289999961853027,37300,7.289999961853027
2017-03-28,7.360000133514404,7.070000171661377,7.289999961853027,7.179999828338623,37800,7.179999828338623
2017-03-29,7.383999824523926,7.011000156402588,7.011000156402588,7.230000019073486,32800,7.230000019073486
2017-03-30,7.60099983215332,6.929999828338623,7.297999858856201,7.340000152587891,52800,7.340000152587891
2017-03-31,7.650000095367432,7.130000114440918,7.179999828338623,7.449999809265137,28200,7.449999809265137
2017-04-03,7.619999885559082,6.96999979019165,7.5,7.190000057220459,41800,7.190000057220459
2017-04-04,7.380000114440918,7.110000133514404,7.224999904632568,7.190000057220459,18400,7.190000057220459
2017-04-05,7.300000190734863,6.730000019073486,7.300000190734863,7.190000057220459,38800,7.190000057220459
2017-04-06,7.309999942779541,6.559999942779541,7.130000114440918,7.050000190734863,78100,7.050000190734863
2017-04-07,7.25,6.553999900817871,6.940000057220459,7.25,22800,7.25
2017-04-10,7.552000045776367,6.538000106811523,7.260000228881836,7.119999885559082,27000,7.119999885559082
2017-04-11,7.199999809265137,6.860000133514404,7.170000076293945,6.900000095367432,16900,6.900000095367432
2017-04-12,7.235000133514404,6.918000221252441,6.980000019073486,7.190000057220459,26400,7.190000057220459
2017-04-13,7.489999771118164,7.010000228881836,7.260000228881836,7.440000057220459,21200,7.440000057220459
2017-04-17,7.739999771118164,7.449999809265137,7.5,7.539999961853027,23900,7.539999961853027
2017-04-18,7.579999923706055,7.150000095367432,7.570000171661377,7.21999979019165,16800,7.21999979019165
2017-04-19,7.25,6.769999980926514,7.25,7.090000152587891,70400,7.090000152587891
2017-04-20,7.327000141143799,6.840000152587891,7.090000152587891,6.900000095367432,17000,6.900000095367432
2017-04-21,7.130000114440918,6.710000038146973,6.789999961853027,7.039999961853027,37400,7.039999961853027
2017-04-24,7.349999904632568,6.918000221252441,7.03000020980835,7.0,21900,7.0
2017-04-25,7.210000038146973,6.875,7.210000038146973,6.900000095367432,23300,6.900000095367432
2017-04-26,7.019999980926514,6.820000171661377,6.994999885559082,6.949999809265137,16700,6.949999809265137
2017-04-27,7.010000228881836,6.849999904632568,6.960000038146973,6.960000038146973,16700,6.960000038146973
2017-04-28,7.150000095367432,7.0,7.051000118255615,7.150000095367432,12700,7.150000095367432
2017-05-01,7.2820000648498535,6.710000038146973,7.113999843597412,6.860000133514404,36100,6.860000133514404
2017-05-02,6.923999786376953,6.510000228881836,6.760000228881836,6.679999828338623,35300,6.679999828338623
2017-05-03,7.0,6.53000020980835,6.659999847412109,6.630000114440918,30000,6.630000114440918
2017-05-04,6.691999912261963,6.550000190734863,6.659999847412109,6.590000152587891,12700,6.590000152587891
2017-05-05,6.730000019073486,6.510000228881836,6.619999885559082,6.510000228881836,11300,6.510000228881836
2017-05-08,6.690000057220459,6.329999923706055,6.5,6.429999828338623,17200,6.429999828338623
2017-05-09,6.369999885559082,5.949999809265137,6.369999885559082,6.239999771118164,28000,6.239999771118164
2017-05-10,6.289999961853027,6.0,6.119999885559082,6.289999961853027,13700,6.289999961853027
2017-05-11,6.315000057220459,6.051000118255615,6.199999809265137,6.230000019073486,8100,6.230000019073486
2017-05-12,6.300000190734863,6.151000022888184,6.210000038146973,6.300000190734863,11100,6.300000190734863
2017-05-15,6.53000020980835,6.2820000648498535,6.300000190734863,6.449999809265137,11700,6.449999809265137
2017-05-16,6.535999774932861,6.349999904632568,6.449999809265137,6.389999866485596,15300,6.389999866485596
2017-05-17,6.369999885559082,6.177000045776367,6.369999885559082,6.25,10100,6.25
2017-05-18,6.210000038146973,6.109000205993652,6.199999809265137,6.139999866485596,2400,6.139999866485596
2017-05-19,6.480000019073486,6.079999923706055,6.179999828338623,6.480000019073486,58100,6.480000019073486
2017-05-22,6.739999771118164,6.130000114440918,6.480000019073486,6.199999809265137,45600,6.199999809265137
2017-05-23,6.289999961853027,5.260000228881836,6.260000228881836,5.570000171661377,141700,5.570000171661377
2017-05-24,5.534999847412109,4.329999923706055,5.534999847412109,4.75,198900,4.75
2017-05-25,5.019000053405762,4.420000076293945,4.710000038146973,4.429999828338623,45900,4.429999828338623
2017-05-26,4.599999904632568,4.260000228881836,4.440000057220459,4.5,78900,4.5
2017-05-30,4.5,4.210000038146973,4.415999889373779,4.21999979019165,103200,4.21999979019165
2017-05-31,4.400000095367432,4.210000038146973,4.230000019073486,4.21999979019165,46400,4.21999979019165
2017-06-01,4.511000156402588,4.090000152587891,4.21999979019165,4.269999980926514,159900,4.269999980926514
2017-06-02,4.440000057220459,4.159999847412109,4.269999980926514,4.179999828338623,25300,4.179999828338623
2017-06-05,4.429999828338623,4.179999828338623,4.210000038146973,4.260000228881836,67000,4.260000228881836
2017-06-06,4.079999923706055,3.5799999237060547,4.019999980926514,3.5899999141693115,314600,3.5899999141693115
2017-06-07,3.799999952316284,3.630000114440918,3.630000114440918,3.690000057220459,71200,3.690000057220459
2017-06-08,3.8399999141693115,3.609999895095825,3.7300000190734863,3.640000104904175,53600,3.640000104904175
2017-06-09,3.884999990463257,3.5199999809265137,3.619999885559082,3.569999933242798,49100,3.569999933242798
2017-06-12,3.609999895095825,3.2799999713897705,3.5999999046325684,3.430000066757202,70100,3.430000066757202
2017-06-13,3.6600000858306885,3.299999952316284,3.430000066757202,3.509999990463257,65900,3.509999990463257
2017-06-14,3.569999933242798,3.4010000228881836,3.569999933242798,3.4800000190734863,40800,3.4800000190734863
2017-06-15,3.5850000381469727,3.359999895095825,3.5,3.4000000953674316,45800,3.4000000953674316
2017-06-16,3.690000057220459,3.2799999713897705,3.390000104904175,3.5,114100,3.5
2017-06-19,3.7200000286102295,3.380000114440918,3.5,3.690000057220459,85500,3.690000057220459
2017-06-20,3.884999990463257,3.5199999809265137,3.680000066757202,3.799999952316284,124500,3.799999952316284
2017-06-21,4.043000221252441,3.809999942779541,3.8499999046325684,3.950000047683716,108300,3.950000047683716
2017-06-22,4.0289998054504395,3.8259999752044678,3.990000009536743,3.950000047683716,79500,3.950000047683716
2017-06-23,4.00600004196167,3.5399999618530273,3.9200000762939453,3.5799999237060547,53300,3.5799999237060547
2017-06-26,3.950000047683716,3.609999895095825,3.609999895095825,3.880000114440918,93900,3.880000114440918
2017-06-27,3.869999885559082,3.740000009536743,3.7769999504089355,3.869999885559082,25600,3.869999885559082
2017-06-28,4.0,3.809999942779541,3.869999885559082,3.8499999046325684,13500,3.8499999046325684
2017-06-29,3.9200000762939453,3.7750000953674316,3.816999912261963,3.859999895095825,11300,3.859999895095825
2017-06-30,3.8499999046325684,3.7200000286102295,3.7200000286102295,3.8499999046325684,5800,3.8499999046325684
2017-07-03,3.9100000858306885,3.759999990463257,3.7929999828338623,3.759999990463257,1600,3.759999990463257
2017-07-05,3.8510000705718994,3.5199999809265137,3.8299999237060547,3.5399999618530273,42600,3.5399999618530273
2017-07-06,3.5980000495910645,3.430000066757202,3.5399999618530273,3.4600000381469727,36700,3.4600000381469727
2017-07-07,3.630000114440918,3.309999942779541,3.630000114440918,3.390000104904175,32100,3.390000104904175
2017-07-10,3.700000047683716,3.299999952316284,3.4000000953674316,3.6600000858306885,82200,3.6600000858306885
2017-07-11,3.7750000953674316,3.359999895095825,3.6700000762939453,3.490000009536743,109200,3.490000009536743
2017-07-12,3.8299999237060547,3.3389999866485596,3.8299999237060547,3.440000057220459,58100,3.440000057220459
2017-07-13,3.700000047683716,3.299999952316284,3.4200000762939453,3.569999933242798,121500,3.569999933242798
2017-07-14,3.940000057220459,3.509999990463257,3.5999999046325684,3.7899999618530273,91100,3.7899999618530273
2017-07-17,3.890000104904175,3.609999895095825,3.799999952316284,3.759999990463257,54700,3.759999990463257
2017-07-18,3.7799999713897705,3.549999952316284,3.7300000190734863,3.5999999046325684,72700,3.5999999046325684
2017-07-19,3.7300000190734863,3.4809999465942383,3.7300000190734863,3.549999952316284,34500,3.549999952316284
2017-07-20,3.690000057220459,3.380000114440918,3.559999942779541,3.619999885559082,46400,3.619999885559082
2017-07-21,3.859999895095825,3.369999885559082,3.4100000858306885,3.700000047683716,98500,3.700000047683716
2017-07-24,3.799999952316284,3.4709999561309814,3.549999952316284,3.7699999809265137,81200,3.7699999809265137
2017-07-25,3.8499999046325684,3.5899999141693115,3.759999990463257,3.619999885559082,53300,3.619999885559082
2017-07-26,3.7899999618530273,3.5399999618530273,3.619999885559082,3.5899999141693115,30800,3.5899999141693115
2017-07-27,3.609999895095825,3.319999933242798,3.5899999141693115,3.490000009536743,69300,3.490000009536743
2017-07-28,3.640000104904175,3.259999990463257,3.640000104904175,3.3299999237060547,69900,3.3299999237060547
2017-07-31,3.4820001125335693,3.3499999046325684,3.3499999046325684,3.4100000858306885,33000,3.4100000858306885
2017-08-01,3.630000114440918,3.140000104904175,3.5999999046325684,3.3499999046325684,69500,3.3499999046325684
2017-08-02,3.359999895095825,3.1500000953674316,3.3499999046325684,3.25,29400,3.25
2017-08-03,3.309999942779541,3.109999895095825,3.259999990463257,3.1600000858306885,20300,3.1600000858306885
2017-08-04,3.25,3.109999895095825,3.2300000190734863,3.25,20000,3.25
2017-08-07,3.3399999141693115,3.25,3.2699999809265137,3.309999942779541,22100,3.309999942779541
2017-08-08,3.319999933242798,3.109999895095825,3.259999990463257,3.190000057220459,37400,3.190000057220459
2017-08-09,3.1700000762939453,2.8450000286102295,3.140000104904175,2.9800000190734863,163800,2.9800000190734863
2017-08-10,3.2799999713897705,2.9100000858306885,3.2799999713897705,2.990000009536743,40900,2.990000009536743
2017-08-11,3.049999952316284,2.809999942779541,3.0,2.9100000858306885,53600,2.9100000858306885
2017-08-14,2.9600000381469727,2.890000104904175,2.9100000858306885,2.9600000381469727,27100,2.9600000381469727
2017-08-15,2.994999885559082,2.8299999237060547,2.8399999141693115,2.9600000381469727,50000,2.9600000381469727
2017-08-16,3.130000114440918,2.9100000858306885,2.950000047683716,2.9600000381469727,103500,2.9600000381469727
2017-08-17,2.990000009536743,2.809999942779541,2.9700000286102295,2.9100000858306885,70500,2.9100000858306885
2017-08-18,2.9700000286102295,2.869999885559082,2.890000104904175,2.9700000286102295,29400,2.9700000286102295
2017-08-21,3.0299999713897705,2.940000057220459,3.0,3.009999990463257,12400,3.009999990463257
2017-08-22,3.140000104904175,2.9600000381469727,3.0,3.0999999046325684,24400,3.0999999046325684
2017-08-23,3.2699999809265137,2.950000047683716,3.049999952316284,3.059999942779541,66800,3.059999942779541
2017-08-24,3.140000104904175,2.9600000381469727,3.069999933242798,3.109999895095825,26000,3.109999895095825
2017-08-25,3.2799999713897705,3.0999999046325684,3.1500000953674316,3.2799999713897705,42300,3.2799999713897705
2017-08-28,3.380000114440918,3.200000047683716,3.25,3.299999952316284,59700,3.299999952316284
2017-08-29,3.740000009536743,3.2100000381469727,3.299999952316284,3.7200000286102295,150500,3.7200000286102295
2017-08-30,4.010000228881836,3.609999895095825,3.7200000286102295,3.890000104904175,120500,3.890000104904175
2017-08-31,4.760000228881836,3.9000000953674316,3.9000000953674316,4.110000133514404,182800,4.110000133514404
2017-09-01,4.25,3.865999937057495,4.170000076293945,4.090000152587891,55400,4.090000152587891
2017-09-05,4.199999809265137,4.0,4.059999942779541,4.125,42000,4.125
2017-09-06,4.369999885559082,4.052999973297119,4.199999809265137,4.340000152587891,45300,4.340000152587891
2017-09-07,4.888999938964844,4.142000198364258,4.409999847412109,4.840000152587891,97100,4.840000152587891
2017-09-08,4.900000095367432,4.300000190734863,4.880000114440918,4.300000190734863,62700,4.300000190734863
2017-09-11,4.420000076293945,4.052999973297119,4.420000076293945,4.260000228881836,49200,4.260000228881836
2017-09-12,4.429999828338623,4.269999980926514,4.320000171661377,4.28000020980835,22900,4.28000020980835
2017-09-13,4.699999809265137,4.179999828338623,4.179999828338623,4.539999961853027,29500,4.539999961853027
2017-09-14,4.650000095367432,4.449999809265137,4.449999809265137,4.590000152587891,30800,4.590000152587891
2017-09-15,4.800000190734863,4.409999847412109,4.539999961853027,4.800000190734863,43500,4.800000190734863
2017-09-18,4.869999885559082,4.605999946594238,4.75,4.639999866485596,38700,4.639999866485596
2017-09-19,4.710999965667725,4.440000057220459,4.440000057220459,4.539999961853027,17000,4.539999961853027
2017-09-20,4.690000057220459,4.409999847412109,4.46999979019165,4.630000114440918,11700,4.630000114440918
2017-09-21,5.119999885559082,4.394000053405762,4.570000171661377,4.730000019073486,25900,4.730000019073486
2017-09-22,4.938000202178955,4.710000038146973,4.938000202178955,4.860000133514404,28500,4.860000133514404
2017-09-25,4.949999809265137,4.650000095367432,4.849999904632568,4.690000057220459,62300,4.690000057220459
2017-09-26,4.800000190734863,4.53000020980835,4.75,4.53000020980835,19100,4.53000020980835
2017-09-27,4.880000114440918,4.539999961853027,4.650000095367432,4.579999923706055,32000,4.579999923706055
2017-09-28,4.789999961853027,4.630000114440918,4.679999828338623,4.630000114440918,8300,4.630000114440918
2017-09-29,4.989999771118164,4.599999904632568,4.650000095367432,4.929999828338623,48200,4.929999828338623
2017-10-02,5.289999961853027,4.929999828338623,5.059999942779541,5.010000228881836,86200,5.010000228881836
2017-10-03,5.210000038146973,4.659999847412109,5.0,5.019999980926514,54900,5.019999980926514
2017-10-04,5.239999771118164,4.949999809265137,4.949999809265137,5.159999847412109,62900,5.159999847412109
2017-10-05,5.448999881744385,4.920000076293945,5.199999809265137,5.210000038146973,46100,5.210000038146973
2017-10-06,5.369999885559082,5.1519999504089355,5.25,5.335000038146973,33000,5.335000038146973
2017-10-09,5.889999866485596,5.340000152587891,5.340000152587891,5.710000038146973,62800,5.710000038146973
2017-10-10,6.239999771118164,5.665999889373779,5.760000228881836,5.974999904632568,150100,5.974999904632568
2017-10-11,6.0,5.520999908447266,5.949999809265137,5.980000019073486,43000,5.980000019073486
2017-10-12,6.038000106811523,5.1020002365112305,5.929999828338623,5.429999828338623,49400,5.429999828338623
2017-10-13,5.593999862670898,4.789999961853027,5.389999866485596,5.130000114440918,84600,5.130000114440918
2017-10-16,5.923999786376953,5.079999923706055,5.599999904632568,5.119999885559082,121600,5.119999885559082
2017-10-17,5.400000095367432,4.900000095367432,5.099999904632568,5.119999885559082,74500,5.119999885559082
2017-10-18,5.150000095367432,4.910999774932861,5.090000152587891,4.96999979019165,36100,4.96999979019165
2017-10-19,5.179999828338623,4.935999870300293,5.010000228881836,5.090000152587891,34100,5.090000152587891
2017-10-20,5.090000152587891,4.820000171661377,5.070000171661377,5.050000190734863,13800,5.050000190734863
2017-10-23,5.010000228881836,4.5,4.960000038146973,4.630000114440918,76300,4.630000114440918
2017-10-24,4.940000057220459,4.519000053405762,4.679999828338623,4.739999771118164,33300,4.739999771118164
2017-10-25,4.761000156402588,4.550000190734863,4.75,4.550000190734863,5700,4.550000190734863
2017-10-26,4.639999866485596,4.400000095367432,4.599999904632568,4.639999866485596,12300,4.639999866485596
2017-10-27,4.610000133514404,4.28000020980835,4.610000133514404,4.380000114440918,84200,4.380000114440918
2017-10-30,4.71999979019165,4.369999885559082,4.374000072479248,4.519999980926514,46100,4.519999980926514
2017-10-31,4.579999923706055,4.260000228881836,4.550000190734863,4.380000114440918,14200,4.380000114440918
2017-11-01,4.409999847412109,4.199999809265137,4.340000152587891,4.230000019073486,18300,4.230000019073486
2017-11-02,4.730000019073486,4.139999866485596,4.377999782562256,4.349999904632568,56100,4.349999904632568
2017-11-03,5.010000228881836,4.380000114440918,4.480000019073486,4.929999828338623,240100,4.929999828338623
2017-11-06,5.260000228881836,4.800000190734863,4.900000095367432,4.909999847412109,37900,4.909999847412109
2017-11-07,5.170000076293945,4.7170000076293945,4.96999979019165,4.849999904632568,17700,4.849999904632568
2017-11-08,4.870999813079834,4.670000076293945,4.867000102996826,4.670000076293945,6700,4.670000076293945
2017-11-09,5.110000133514404,4.5,4.650000095367432,5.010000228881836,51400,5.010000228881836
2017-11-10,5.230000019073486,4.789999961853027,4.949999809265137,5.130000114440918,56500,5.130000114440918
2017-11-13,5.199999809265137,4.71999979019165,5.110000133514404,4.820000171661377,62600,4.820000171661377
2017-11-14,5.050000190734863,4.420000076293945,4.989999771118164,4.539999961853027,74900,4.539999961853027
2017-11-15,4.889999866485596,4.420000076293945,4.539999961853027,4.650000095367432,59700,4.650000095367432
2017-11-16,4.860000133514404,4.440000057220459,4.650000095367432,4.739999771118164,33800,4.739999771118164
2017-11-17,4.949999809265137,4.510000228881836,4.800000190734863,4.539999961853027,31100,4.539999961853027
2017-11-20,4.75,4.480000019073486,4.610000133514404,4.489999771118164,43200,4.489999771118164
2017-11-21,4.650000095367432,4.21999979019165,4.570000171661377,4.300000190734863,74500,4.300000190734863
2017-11-22,4.480000019073486,4.224999904632568,4.269999980926514,4.349999904632568,36700,4.349999904632568
2017-11-24,4.449999809265137,4.139999866485596,4.360000133514404,4.269999980926514,18100,4.269999980926514
2017-11-27,4.349999904632568,4.159999847412109,4.21999979019165,4.210000038146973,20100,4.210000038146973
2017-11-28,4.389999866485596,4.099999904632568,4.269999980926514,4.099999904632568,44500,4.099999904632568
2017-11-29,4.385000228881836,3.9100000858306885,4.184999942779541,4.005000114440918,45400,4.005000114440918
2017-11-30,4.190000057220459,3.75,3.990000009536743,4.0,154700,4.0
2017-12-01,4.980000019073486,4.004000186920166,4.039999961853027,4.730000019073486,189600,4.730000019073486
2017-12-04,5.179999828338623,4.829999923706055,4.889999866485596,5.079999923706055,119800,5.079999923706055
2017-12-05,5.110000133514404,4.570000171661377,5.079999923706055,4.739999771118164,76200,4.739999771118164
2017-12-06,5.078000068664551,4.75,4.849999904632568,4.880000114440918,68700,4.880000114440918
2017-12-07,5.170000076293945,4.809999942779541,4.820000171661377,4.909999847412109,62800,4.909999847412109
2017-12-08,5.150000095367432,4.86899995803833,4.909999847412109,5.139999866485596,34700,5.139999866485596
2017-12-11,5.699999809265137,5.090000152587891,5.190000057220459,5.269999980926514,164000,5.269999980926514
2017-12-12,5.340000152587891,4.929999828338623,5.340000152587891,5.199999809265137,57200,5.199999809265137
2017-12-13,5.380000114440918,4.769999980926514,5.170000076293945,4.96999979019165,67500,4.96999979019165
2017-12-14,5.449999809265137,4.896999835968018,4.896999835968018,5.21999979019165,53100,5.21999979019165
2017-12-15,5.275000095367432,4.863999843597412,5.21999979019165,4.869999885559082,39800,4.869999885559082
2017-12-18,5.099999904632568,4.900000095367432,4.900000095367432,5.010000228881836,151700,5.010000228881836
2017-12-19,5.199999809265137,4.860000133514404,5.019999980926514,4.989999771118164,78500,4.989999771118164
2017-12-20,5.21999979019165,4.860000133514404,4.929999828338623,4.989999771118164,40200,4.989999771118164
2017-12-21,5.269999980926514,4.96999979019165,4.96999979019165,5.03000020980835,35900,5.03000020980835
2017-12-22,5.275000095367432,5.111999988555908,5.275000095367432,5.179999828338623,23000,5.179999828338623
2017-12-26,5.679999828338623,5.130000114440918,5.179999828338623,5.519999980926514,42500,5.519999980926514
2017-12-27,5.65500020980835,5.360000133514404,5.5,5.510000228881836,25800,5.510000228881836
2017-12-28,5.880000114440918,5.360000133514404,5.550000190734863,5.369999885559082,69000,5.369999885559082
2017-12-29,5.659999847412109,5.360000133514404,5.360000133514404,5.409999847412109,44600,5.409999847412109
2018-01-02,5.659999847412109,5.366000175476074,5.440000057220459,5.380000114440918,19700,5.380000114440918
2018-01-03,5.579999923706055,5.050000190734863,5.389999866485596,5.449999809265137,38300,5.449999809265137
2018-01-04,5.78000020980835,5.400000095367432,5.400000095367432,5.690000057220459,59800,5.690000057220459
2018-01-05,5.880000114440918,5.501999855041504,5.639999866485596,5.519999980926514,52700,5.519999980926514
2018-01-08,5.769999980926514,4.949999809265137,5.570000171661377,5.070000171661377,69200,5.070000171661377
2018-01-09,5.576000213623047,5.074999809265137,5.119999885559082,5.25,84500,5.25
2018-01-10,6.190000057220459,5.090000152587891,5.139999866485596,5.710000038146973,131800,5.710000038146973
2018-01-11,6.460000038146973,5.609000205993652,5.78000020980835,6.0,191500,6.0
2018-01-12,6.739999771118164,6.050000190734863,6.130000114440918,6.260000228881836,84700,6.260000228881836
2018-01-16,6.5,6.019999980926514,6.349999904632568,6.119999885559082,88600,6.119999885559082
2018-01-17,6.599999904632568,5.951000213623047,6.090000152587891,6.489999771118164,147700,6.489999771118164
2018-01-18,6.650000095367432,5.900000095367432,6.389999866485596,6.599999904632568,87300,6.599999904632568
2018-01-19,6.880000114440918,6.400000095367432,6.75,6.75,115600,6.75
2018-01-22,7.5,6.71999979019165,6.800000190734863,7.400000095367432,155700,7.400000095367432
2018-01-23,7.670000076293945,6.510000228881836,7.360000133514404,6.579999923706055,117800,6.579999923706055
2018-01-24,6.770999908447266,6.1539998054504395,6.5,6.559999942779541,84600,6.559999942779541
2018-01-25,6.869999885559082,6.489999771118164,6.489999771118164,6.650000095367432,39200,6.650000095367432
2018-01-26,6.940000057220459,6.650000095367432,6.670000076293945,6.730000019073486,46900,6.730000019073486
2018-01-29,6.915999889373779,6.590000152587891,6.698999881744385,6.789999961853027,37600,6.789999961853027
2018-01-30,7.210000038146973,5.820000171661377,6.579999923706055,6.869999885559082,62300,6.869999885559082
2018-01-31,7.199999809265137,6.400000095367432,7.0,6.480000019073486,92900,6.480000019073486
2018-02-01,7.039999961853027,6.429999828338623,6.630000114440918,7.0,124000,7.0
2018-02-02,6.96999979019165,6.559999942779541,6.96999979019165,6.590000152587891,52200,6.590000152587891
2018-02-05,6.949999809265137,6.150000095367432,6.460000038146973,6.269999980926514,149800,6.269999980926514
2018-02-06,6.300000190734863,5.849999904632568,6.150000095367432,6.269999980926514,53200,6.269999980926514
2018-02-07,6.440000057220459,6.03000020980835,6.21999979019165,6.03000020980835,88500,6.03000020980835
2018-02-08,6.300000190734863,5.960000038146973,6.110000133514404,6.190000057220459,35600,6.190000057220459
2018-02-09,6.239999771118164,5.119999885559082,5.989999771118164,5.449999809265137,110800,5.449999809265137
2018-02-12,6.03000020980835,5.599999904632568,5.599999904632568,5.889999866485596,38300,5.889999866485596
2018-02-13,6.099999904632568,5.840000152587891,5.840000152587891,5.96999979019165,104500,5.96999979019165
2018-02-14,6.199999809265137,5.96999979019165,5.96999979019165,6.130000114440918,67700,6.130000114440918
2018-02-15,6.590000152587891,5.793000221252441,6.199999809265137,6.019999980926514,124700,6.019999980926514
2018-02-16,6.15500020980835,6.050000190734863,6.050000190734863,6.079999923706055,57500,6.079999923706055
2018-02-20,6.388000011444092,6.039999961853027,6.349999904632568,6.309999942779541,57300,6.309999942779541
2018-02-21,6.489999771118164,6.181000232696533,6.389999866485596,6.349999904632568,46100,6.349999904632568
2018-02-22,6.429999828338623,6.300000190734863,6.389999866485596,6.360000133514404,19300,6.360000133514404
2018-02-23,6.400000095367432,5.869999885559082,6.400000095367432,6.289999961853027,27700,6.289999961853027
2018-02-26,6.409999847412109,6.28000020980835,6.389999866485596,6.380000114440918,22500,6.380000114440918
2018-02-27,6.46999979019165,6.360000133514404,6.360000133514404,6.440000057220459,63100,6.440000057220459
2018-02-28,7.455999851226807,6.46999979019165,6.53000020980835,7.25,224400,7.25
2018-03-01,7.25,6.820000171661377,7.239999771118164,6.860000133514404,73200,6.860000133514404
2018-03-02,7.25,6.909999847412109,6.935999870300293,7.239999771118164,93900,7.239999771118164
2018-03-05,7.900000095367432,7.144999980926514,7.239999771118164,7.690000057220459,160000,7.690000057220459
2018-03-06,7.715000152587891,6.801000118255615,7.679999828338623,7.5,50700,7.5
2018-03-07,7.880000114440918,7.289999961853027,7.767000198364258,7.599999904632568,100500,7.599999904632568
2018-03-08,8.979999542236328,7.679999828338623,7.690000057220459,8.850000381469727,232300,8.850000381469727
2018-03-09,9.289999961853027,8.0,8.930000305175781,8.829999923706055,172300,8.829999923706055
2018-03-12,8.906000137329102,8.270999908447266,8.770000457763672,8.600000381469727,70200,8.600000381469727
2018-03-13,8.710000038146973,8.001999855041504,8.5,8.619999885559082,71300,8.619999885559082
2018-03-14,9.149999618530273,8.366000175476074,8.960000038146973,8.479999542236328,172000,8.479999542236328
2018-03-15,9.329999923706055,7.980000019073486,8.539999961853027,9.050000190734863,127900,9.050000190734863
2018-03-16,10.970000267028809,9.08899974822998,9.109999656677246,10.640000343322754,177000,10.640000343322754
2018-03-19,11.350000381469727,10.060999870300293,10.609999656677246,10.899999618530273,207500,10.899999618530273
2018-03-20,11.350000381469727,10.220000267028809,10.800000190734863,10.569999694824219,105600,10.569999694824219
2018-03-21,10.899999618530273,10.569999694824219,10.630000114440918,10.850000381469727,55200,10.850000381469727
2018-03-22,11.0,10.241999626159668,10.930000305175781,10.5,73600,10.5
2018-03-23,10.84000015258789,10.210000038146973,10.550000190734863,10.369999885559082,58400,10.369999885559082
2018-03-26,10.829999923706055,9.449999809265137,10.829999923706055,10.100000381469727,109100,10.100000381469727
2018-03-27,10.140000343322754,9.001999855041504,10.140000343322754,9.210000038146973,89100,9.210000038146973
2018-03-28,9.46500015258789,8.628000259399414,9.270000457763672,8.800000190734863,88400,8.800000190734863
2018-03-29,10.25,8.729999542236328,8.800000190734863,9.920000076293945,65000,9.920000076293945
2018-04-02,10.300000190734863,9.279999732971191,10.050000190734863,9.619999885559082,55500,9.619999885559082
2018-04-03,9.710000038146973,9.109999656677246,9.619999885559082,9.579999923706055,79900,9.579999923706055
2018-04-04,10.489999771118164,9.470000267028809,9.470000267028809,10.1899995803833,78500,10.1899995803833
2018-04-05,10.727999687194824,9.600000381469727,10.239999771118164,9.789999961853027,102000,9.789999961853027
2018-04-06,9.880000114440918,8.75,9.6899995803833,8.920000076293945,71600,8.920000076293945
2018-04-09,9.0,7.829999923706055,9.0,8.119999885559082,82600,8.119999885559082
2018-04-10,9.069999694824219,8.22700023651123,8.520000457763672,8.899999618530273,48300,8.899999618530273
2018-04-11,9.899999618530273,8.310999870300293,8.779999732971191,9.680000305175781,109200,9.680000305175781
2018-04-12,10.420000076293945,9.800000190734863,9.949999809265137,10.359999656677246,108500,10.359999656677246
2018-04-13,10.529000282287598,9.34000015258789,10.5,9.619999885559082,80300,9.619999885559082
2018-04-16,9.75,8.6899995803833,9.630000114440918,9.010000228881836,56800,9.010000228881836
2018-04-17,9.890000343322754,9.069999694824219,9.109999656677246,9.420000076293945,81200,9.420000076293945
2018-04-18,8.930000305175781,8.210000038146973,8.210000038146973,8.489999771118164,415900,8.489999771118164
2018-04-19,8.029999732971191,7.5,7.940000057220459,7.880000114440918,1435600,7.880000114440918
2018-04-20,7.989999771118164,7.716000080108643,7.989999771118164,7.869999885559082,293100,7.869999885559082
2018-04-23,8.220000267028809,7.820000171661377,7.909999847412109,7.900000095367432,178100,7.900000095367432
2018-04-24,8.729999542236328,7.900000095367432,8.399999618530273,8.279999732971191,1371600,8.279999732971191
2018-04-25,8.350000381469727,7.73199987411499,8.319999694824219,7.940000057220459,427500,7.940000057220459
2018-04-26,8.350000381469727,7.849999904632568,7.900000095367432,8.0,196700,8.0
2018-04-27,9.170000076293945,7.940000057220459,7.940000057220459,8.84000015258789,610600,8.84000015258789
2018-04-30,9.430000305175781,8.800000190734863,8.800000190734863,9.34000015258789,371600,9.34000015258789
2018-05-01,9.494999885559082,8.880000114440918,9.260000228881836,9.319999694824219,175500,9.319999694824219
2018-05-02,10.069999694824219,9.329999923706055,9.329999923706055,9.760000228881836,289800,9.760000228881836
2018-05-03,10.029000282287598,9.460000038146973,9.859999656677246,9.760000228881836,137200,9.760000228881836
2018-05-04,10.25,9.520000457763672,9.65999984741211,9.75,175900,9.75
2018-05-07,10.489999771118164,9.770000457763672,9.779999732971191,9.880000114440918,234500,9.880000114440918
2018-05-08,10.137999534606934,9.64900016784668,9.859999656677246,9.979999542236328,223700,9.979999542236328
2018-05-09,10.5,9.819999694824219,10.039999961853027,10.229999542236328,264000,10.229999542236328
2018-05-10,10.335000038146973,9.819999694824219,10.300000190734863,10.079999923706055,201300,10.079999923706055
2018-05-11,10.25,9.869999885559082,10.0600004196167,9.9399995803833,107800,9.9399995803833
2018-05-14,10.779999732971191,9.58899974822998,9.920000076293945,10.270000457763672,425600,10.270000457763672
2018-05-15,10.880000114440918,10.048999786376953,10.25,10.640000343322754,304200,10.640000343322754
2018-05-16,11.1899995803833,10.491000175476074,10.680000305175781,10.770000457763672,294000,10.770000457763672
2018-05-17,10.982999801635742,10.479999542236328,10.880000114440918,10.680000305175781,143600,10.680000305175781
2018-05-18,10.989999771118164,10.529999732971191,10.65999984741211,10.569999694824219,116100,10.569999694824219
2018-05-21,10.72599983215332,10.190999984741211,10.529999732971191,10.270000457763672,123000,10.270000457763672
2018-05-22,10.430000305175781,9.819999694824219,10.3100004196167,9.989999771118164,107500,9.989999771118164
2018-05-23,10.560999870300293,9.833000183105469,9.9399995803833,9.890000343322754,146200,9.890000343322754
2018-05-24,10.119999885559082,9.329999923706055,9.949999809265137,9.720000267028809,229800,9.720000267028809
2018-05-25,10.9399995803833,9.6899995803833,9.739999771118164,10.619999885559082,211700,10.619999885559082
2018-05-29,11.0,10.3100004196167,10.600000381469727,10.390000343322754,143100,10.390000343322754
2018-05-30,10.819999694824219,10.100000381469727,10.449999809265137,10.220000267028809,104000,10.220000267028809
2018-05-31,11.0,10.25,10.25,10.680000305175781,235900,10.680000305175781
2018-06-01,12.0,9.84000015258789,10.890000343322754,9.989999771118164,1079500,9.989999771118164
2018-06-04,10.430000305175781,9.069999694824219,9.949999809265137,10.079999923706055,382700,10.079999923706055
2018-06-05,10.449999809265137,9.850000381469727,10.0600004196167,9.930000305175781,128600,9.930000305175781
2018-06-06,10.40999984741211,9.85099983215332,9.960000038146973,10.300000190734863,199500,10.300000190734863
2018-06-07,10.449999809265137,10.069999694824219,10.3100004196167,10.279999732971191,115700,10.279999732971191
2018-06-08,10.619999885559082,10.1899995803833,10.229999542236328,10.510000228881836,149600,10.510000228881836
2018-06-11,10.569999694824219,9.699999809265137,10.5,9.989999771118164,215100,9.989999771118164
2018-06-12,10.510000228881836,9.383000373840332,10.0,10.130000114440918,330600,10.130000114440918
2018-06-13,10.218000411987305,9.850000381469727,10.149999618530273,10.09000015258789,223100,10.09000015258789
2018-06-14,10.989999771118164,10.100000381469727,10.989999771118164,10.399999618530273,251500,10.399999618530273
2018-06-15,11.0,10.3100004196167,10.380000114440918,10.59000015258789,301900,10.59000015258789
2018-06-18,11.300000190734863,10.5,10.5,10.890000343322754,275000,10.890000343322754
2018-06-19,11.319999694824219,10.350000381469727,10.989999771118164,10.819999694824219,252500,10.819999694824219
2018-06-20,11.23900032043457,10.543000221252441,10.8100004196167,10.779999732971191,243600,10.779999732971191
2018-06-21,10.979999542236328,10.20199966430664,10.829999923706055,10.479999542236328,280300,10.479999542236328
2018-06-22,10.819999694824219,10.050000190734863,10.630000114440918,10.720000267028809,2038700,10.720000267028809
2018-06-25,11.069999694824219,10.460000038146973,10.729999542236328,10.619999885559082,359000,10.619999885559082
2018-06-26,10.932999610900879,10.210000038146973,10.760000228881836,10.529999732971191,290200,10.529999732971191
2018-06-27,10.989999771118164,10.479999542236328,10.569999694824219,10.609999656677246,381100,10.609999656677246
2018-06-28,10.609999656677246,10.300000190734863,10.579999923706055,10.470000267028809,224600,10.470000267028809
2018-06-29,10.899999618530273,10.40999984741211,10.539999961853027,10.579999923706055,198400,10.579999923706055
2018-07-02,11.369999885559082,10.539999961853027,10.579999923706055,11.0,337300,11.0
2018-07-03,11.1850004196167,10.279999732971191,11.020000457763672,10.390000343322754,265600,10.390000343322754
2018-07-05,10.770000457763672,9.899999618530273,10.399999618530273,10.220000267028809,237900,10.220000267028809
2018-07-06,10.460000038146973,10.060999870300293,10.25,10.170000076293945,140600,10.170000076293945
2018-07-09,10.640000343322754,9.949999809265137,10.1899995803833,10.239999771118164,212900,10.239999771118164
2018-07-10,10.319999694824219,10.069999694824219,10.239999771118164,10.220000267028809,143100,10.220000267028809
2018-07-11,10.180000305175781,9.520000457763672,10.109999656677246,9.539999961853027,289300,9.539999961853027
2018-07-12,9.6899995803833,8.930000305175781,9.65999984741211,9.0,272700,9.0
2018-07-13,9.0,8.699999809265137,9.0,8.779999732971191,264900,8.779999732971191
2018-07-16,9.270000457763672,8.795000076293945,8.850000381469727,9.140000343322754,214200,9.140000343322754
2018-07-17,9.510000228881836,9.020000457763672,9.130000114440918,9.039999961853027,200400,9.039999961853027
2018-07-18,9.5,8.960000038146973,9.020000457763672,9.359999656677246,246800,9.359999656677246
2018-07-19,9.449999809265137,9.029999732971191,9.319999694824219,9.3100004196167,132200,9.3100004196167
2018-07-20,9.399999618530273,9.0,9.289999961853027,9.199999809265137,152600,9.199999809265137
2018-07-23,9.420000076293945,9.119999885559082,9.140000343322754,9.380000114440918,97000,9.380000114440918
2018-07-24,9.470000267028809,8.970000267028809,9.4399995803833,9.170000076293945,250000,9.170000076293945
2018-07-25,9.649999618530273,8.859999656677246,8.859999656677246,9.520000457763672,195100,9.520000457763672
2018-07-26,9.609999656677246,9.270000457763672,9.479999542236328,9.3100004196167,102300,9.3100004196167
2018-07-27,9.380000114440918,8.369999885559082,9.329999923706055,8.550000190734863,241200,8.550000190734863
2018-07-30,8.699999809265137,8.239999771118164,8.609999656677246,8.244999885559082,155700,8.244999885559082
2018-07-31,8.817999839782715,8.260000228881836,8.430000305175781,8.40999984741211,169600,8.40999984741211
2018-08-01,9.390000343322754,8.399999618530273,8.399999618530273,9.1899995803833,204900,9.1899995803833
2018-08-02,9.270000457763672,8.65999984741211,9.0600004196167,9.220000267028809,78100,9.220000267028809
2018-08-03,9.220000267028809,8.739999771118164,9.220000267028809,8.930000305175781,99300,8.930000305175781
2018-08-06,9.09000015258789,8.739999771118164,8.890000343322754,8.789999961853027,55600,8.789999961853027
2018-08-07,9.09000015258789,8.637999534606934,8.789999961853027,8.979999542236328,54600,8.979999542236328
2018-08-08,9.180000305175781,8.789999961853027,8.789999961853027,9.050000190734863,48100,9.050000190734863
2018-08-09,9.75,8.90999984741211,8.90999984741211,9.579999923706055,137200,9.579999923706055
2018-08-10,9.600000381469727,9.369999885559082,9.5,9.479999542236328,96700,9.479999542236328
2018-08-13,9.744999885559082,9.399999618530273,9.449999809265137,9.600000381469727,243200,9.600000381469727
2018-08-14,9.819999694824219,9.10099983215332,9.630000114440918,9.15999984741211,161200,9.15999984741211
2018-08-15,9.1850004196167,8.788000106811523,9.100000381469727,9.130000114440918,65500,9.130000114440918
2018-08-16,9.3100004196167,8.979999542236328,9.109999656677246,9.220000267028809,106900,9.220000267028809
2018-08-17,9.329999923706055,9.109999656677246,9.180000305175781,9.199999809265137,61600,9.199999809265137
2018-08-20,9.369999885559082,8.949999809265137,9.369999885559082,9.15999984741211,168700,9.15999984741211
2018-08-21,9.609999656677246,9.199999809265137,9.260000228881836,9.470000267028809,128700,9.470000267028809
2018-08-22,9.90999984741211,9.399999618530273,9.579999923706055,9.75,226800,9.75
2018-08-23,10.270000457763672,9.763999938964844,9.770000457763672,10.220000267028809,227700,10.220000267028809
2018-08-24,10.449999809265137,10.055000305175781,10.369999885559082,10.279999732971191,107300,10.279999732971191
2018-08-27,10.550000190734863,10.190999984741211,10.350000381469727,10.539999961853027,196200,10.539999961853027
2018-08-28,10.984999656677246,10.449999809265137,10.630000114440918,10.829999923706055,212900,10.829999923706055
2018-08-29,10.989999771118164,10.479999542236328,10.8100004196167,10.789999961853027,183100,10.789999961853027
2018-08-30,10.979999542236328,10.70199966430664,10.819999694824219,10.899999618530273,110500,10.899999618530273
2018-08-31,11.15999984741211,10.718999862670898,10.920000076293945,10.930000305175781,217000,10.930000305175781
2018-09-04,11.109999656677246,8.119999885559082,11.109999656677246,9.239999771118164,1016000,9.239999771118164
2018-09-05,9.244999885559082,8.369999885559082,9.069999694824219,8.819999694824219,492700,8.819999694824219
2018-09-06,8.949999809265137,8.470000267028809,8.899999618530273,8.59000015258789,296600,8.59000015258789
2018-09-07,8.803999900817871,8.418000221252441,8.550000190734863,8.739999771118164,216800,8.739999771118164
2018-09-10,8.979999542236328,8.699999809265137,8.739999771118164,8.729999542236328,111300,8.729999542236328
2018-09-11,8.829999923706055,8.539999961853027,8.649999618530273,8.619999885559082,138300,8.619999885559082
2018-09-12,8.710000038146973,8.15999984741211,8.600000381469727,8.390000343322754,233800,8.390000343322754
2018-09-13,8.550000190734863,8.050000190734863,8.399999618530273,8.460000038146973,160100,8.460000038146973
2018-09-14,8.680000305175781,8.390000343322754,8.479999542236328,8.510000228881836,159500,8.510000228881836
2018-09-17,8.609999656677246,8.300000190734863,8.539999961853027,8.430000305175781,205700,8.430000305175781
2018-09-18,8.600000381469727,8.34000015258789,8.420000076293945,8.489999771118164,140900,8.489999771118164
2018-09-19,8.661999702453613,8.4350004196167,8.5,8.489999771118164,262400,8.489999771118164
2018-09-20,8.760000228881836,8.300000190734863,8.42199993133545,8.729999542236328,167700,8.729999542236328
2018-09-21,9.220000267028809,8.539999961853027,8.729999542236328,9.15999984741211,410900,9.15999984741211
2018-09-24,9.239999771118164,8.5,9.069999694824219,8.920000076293945,203600,8.920000076293945
2018-09-25,9.359999656677246,8.949999809265137,8.949999809265137,9.270000457763672,139600,9.270000457763672
2018-09-26,9.640000343322754,9.229999542236328,9.289999961853027,9.270000457763672,187700,9.270000457763672
2018-09-27,9.609999656677246,9.199999809265137,9.260000228881836,9.569999694824219,88800,9.569999694824219
2018-09-28,9.619999885559082,9.1850004196167,9.550000190734863,9.569999694824219,107500,9.569999694824219
2018-10-01,10.0,9.329999923706055,9.90999984741211,9.449999809265137,176600,9.449999809265137
2018-10-02,9.449999809265137,9.0,9.4399995803833,9.210000038146973,2068300,9.210000038146973
2018-10-03,10.489999771118164,9.210000038146973,9.210000038146973,10.1899995803833,334600,10.1899995803833
2018-10-04,10.25,9.550000190734863,10.100000381469727,9.739999771118164,374400,9.739999771118164
2018-10-05,9.859999656677246,9.329999923706055,9.770000457763672,9.789999961853027,274700,9.789999961853027
2018-10-08,9.920000076293945,9.399999618530273,9.789999961853027,9.640000343322754,170000,9.640000343322754
2018-10-09,9.930000305175781,9.38700008392334,9.630000114440918,9.510000228881836,124500,9.510000228881836
2018-10-10,9.550000190734863,8.829999923706055,9.5,8.84000015258789,175600,8.84000015258789
2018-10-11,9.470000267028809,8.59000015258789,8.8100004196167,9.069999694824219,176100,9.069999694824219
2018-10-12,9.390000343322754,8.770000457763672,9.3100004196167,9.079999923706055,211700,9.079999923706055
2018-10-15,9.630000114440918,8.9399995803833,9.0600004196167,9.40999984741211,207200,9.40999984741211
2018-10-16,10.109999656677246,9.479999542236328,9.479999542236328,10.020000457763672,229300,10.020000457763672
2018-10-17,10.100000381469727,9.050000190734863,9.75,9.569999694824219,281900,9.569999694824219
2018-10-18,9.989999771118164,9.3100004196167,9.520000457763672,9.899999618530273,188000,9.899999618530273
2018-10-19,10.279999732971191,9.15999984741211,9.880000114440918,9.300000190734863,253500,9.300000190734863
2018-10-22,9.494999885559082,8.90999984741211,9.4399995803833,8.989999771118164,126400,8.989999771118164
2018-10-23,9.069999694824219,8.600000381469727,8.9399995803833,8.859999656677246,113700,8.859999656677246
2018-10-24,8.9399995803833,8.489999771118164,8.869999885559082,8.649999618530273,139000,8.649999618530273
2018-10-25,8.942999839782715,8.520000457763672,8.710000038146973,8.770000457763672,169300,8.770000457763672
2018-10-26,8.772000312805176,8.399999618530273,8.59000015258789,8.600000381469727,69900,8.600000381469727
2018-10-29,8.729999542236328,8.210000038146973,8.720000267028809,8.319999694824219,101400,8.319999694824219
2018-10-30,8.550000190734863,8.119999885559082,8.300000190734863,8.5,95800,8.5
2018-10-31,8.850000381469727,8.472000122070312,8.619999885559082,8.630000114440918,161400,8.630000114440918
2018-11-01,9.180000305175781,8.670000076293945,8.680000305175781,8.949999809265137,113700,8.949999809265137
2018-11-02,9.350000381469727,8.979999542236328,9.0,9.270000457763672,94300,9.270000457763672
2018-11-05,9.529999732971191,8.868000030517578,9.3100004196167,9.239999771118164,99700,9.239999771118164
2018-11-06,9.397000312805176,8.711000442504883,9.239999771118164,9.069999694824219,108500,9.069999694824219
2018-11-07,9.40999984741211,9.039999961853027,9.180000305175781,9.079999923706055,64900,9.079999923706055
2018-11-08,9.600000381469727,8.770000457763672,8.770000457763672,9.520000457763672,184900,9.520000457763672
2018-11-09,9.640000343322754,8.890000343322754,9.420000076293945,9.100000381469727,133100,9.100000381469727
2018-11-12,9.029999732971191,8.65999984741211,8.960000038146973,8.75,102500,8.75
2018-11-13,8.960000038146973,7.639999866485596,8.699999809265137,7.900000095367432,264500,7.900000095367432
2018-11-14,8.170000076293945,7.739999771118164,7.880000114440918,7.840000152587891,89400,7.840000152587891
2018-11-15,8.25,7.730000019073486,7.789999961853027,8.069999694824219,195300,8.069999694824219
2018-11-16,8.359999656677246,7.801000118255615,8.020000457763672,8.3100004196167,120400,8.3100004196167
2018-11-19,8.510000228881836,7.760000228881836,8.319999694824219,7.889999866485596,116000,7.889999866485596
2018-11-20,8.0600004196167,7.449999809265137,7.800000190734863,7.53000020980835,91400,7.53000020980835
2018-11-21,7.730000019073486,7.47599983215332,7.510000228881836,7.619999885559082,169000,7.619999885559082
2018-11-23,8.170000076293945,7.489999771118164,7.510000228881836,7.989999771118164,86000,7.989999771118164
2018-11-26,8.25,7.849999904632568,8.100000381469727,8.210000038146973,55200,8.210000038146973
2018-11-27,8.3100004196167,7.860000133514404,8.069999694824219,8.079999923706055,53100,8.079999923706055
2018-11-28,8.6899995803833,8.0,8.079999923706055,8.600000381469727,63000,8.600000381469727
2018-11-29,8.729999542236328,8.350000381469727,8.529999732971191,8.550000190734863,42200,8.550000190734863
2018-11-30,8.75,8.390000343322754,8.579999923706055,8.420000076293945,96700,8.420000076293945
2018-12-03,8.539999961853027,8.300000190734863,8.539999961853027,8.470000267028809,63600,8.470000267028809
2018-12-04,8.819999694824219,8.069999694824219,8.369999885559082,8.109999656677246,126500,8.109999656677246
2018-12-06,8.5600004196167,7.559999942779541,7.900000095367432,7.679999828338623,121900,7.679999828338623
2018-12-07,8.100000381469727,7.539999961853027,7.539999961853027,7.869999885559082,87600,7.869999885559082
2018-12-10,8.199999809265137,7.800000190734863,7.960000038146973,7.840000152587891,82500,7.840000152587891
2018-12-11,8.470000267028809,8.050000190734863,8.149999618530273,8.119999885559082,104200,8.119999885559082
2018-12-12,8.491999626159668,7.619999885559082,8.289999961853027,7.730000019073486,159300,7.730000019073486
2018-12-13,8.149999618530273,7.4770002365112305,7.769999980926514,7.690000057220459,46900,7.690000057220459
2018-12-14,7.820000171661377,7.400000095367432,7.679999828338623,7.5,72300,7.5
2018-12-17,7.949999809265137,7.260000228881836,7.539999961853027,7.860000133514404,124800,7.860000133514404
2018-12-18,7.889999866485596,7.119999885559082,7.889999866485596,7.320000171661377,120300,7.320000171661377
2018-12-19,7.449999809265137,6.829999923706055,7.380000114440918,6.960000038146973,148200,6.960000038146973
2018-12-20,7.170000076293945,6.710999965667725,6.949999809265137,7.070000171661377,103500,7.070000171661377
2018-12-21,7.059999942779541,6.309999942779541,7.059999942779541,6.510000228881836,437900,6.510000228881836
2018-12-24,7.440000057220459,6.460000038146973,6.460000038146973,7.300000190734863,90500,7.300000190734863
2018-12-26,7.409999847412109,6.800000190734863,7.300000190734863,7.389999866485596,141400,7.389999866485596
2018-12-27,8.020000457763672,7.110000133514404,7.389999866485596,8.010000228881836,193000,8.010000228881836
2018-12-28,8.260000228881836,7.570000171661377,7.949999809265137,7.670000076293945,268000,7.670000076293945
2018-12-31,7.860000133514404,7.150000095367432,7.639999866485596,7.489999771118164,213400,7.489999771118164
2019-01-02,8.220000267028809,7.380000114440918,7.380000114440918,8.039999961853027,104500,8.039999961853027
2019-01-03,8.180000305175781,7.789999961853027,8.010000228881836,7.929999828338623,122400,7.929999828338623
2019-01-04,8.5,7.889999866485596,7.980000019073486,8.420000076293945,139300,8.420000076293945
2019-01-07,8.670000076293945,8.220000267028809,8.220000267028809,8.369999885559082,75400,8.369999885559082
2019-01-08,8.550000190734863,8.140000343322754,8.479999542236328,8.430000305175781,120400,8.430000305175781
2019-01-09,8.789999961853027,8.420999526977539,8.5,8.640000343322754,103800,8.640000343322754
2019-01-10,8.720000267028809,8.380000114440918,8.482999801635742,8.5600004196167,57800,8.5600004196167
2019-01-11,8.619999885559082,8.279999732971191,8.489999771118164,8.510000228881836,57500,8.510000228881836
2019-01-14,8.59000015258789,8.270000457763672,8.479999542236328,8.300000190734863,39600,8.300000190734863
2019-01-15,8.847999572753906,8.199999809265137,8.350000381469727,8.6899995803833,72000,8.6899995803833
2019-01-16,9.130000114440918,8.609999656677246,8.6899995803833,9.09000015258789,89800,9.09000015258789
2019-01-17,9.170000076293945,8.920000076293945,9.079999923706055,8.960000038146973,74100,8.960000038146973
2019-01-18,9.104999542236328,8.720000267028809,8.960000038146973,8.920000076293945,99100,8.920000076293945
2019-01-22,8.958000183105469,8.489999771118164,8.850000381469727,8.739999771118164,97100,8.739999771118164
2019-01-23,8.899999618530273,8.420000076293945,8.680000305175781,8.489999771118164,56000,8.489999771118164
2019-01-24,8.569999694824219,8.270000457763672,8.479999542236328,8.350000381469727,26500,8.350000381469727
2019-01-25,8.694999694824219,8.324999809265137,8.562000274658203,8.5600004196167,33000,8.5600004196167
2019-01-28,8.75,8.321000099182129,8.460000038146973,8.510000228881836,46400,8.510000228881836
2019-01-29,8.729999542236328,8.300000190734863,8.529999732971191,8.699999809265137,40600,8.699999809265137
2019-01-30,9.15999984741211,8.609999656677246,8.75,9.0,112800,9.0
2019-01-31,9.289999961853027,9.0,9.0,9.140000343322754,56700,9.140000343322754
2019-02-01,9.329999923706055,9.010000228881836,9.130000114440918,9.180000305175781,71000,9.180000305175781
2019-02-04,9.413000106811523,9.069999694824219,9.069999694824219,9.15999984741211,34900,9.15999984741211
2019-02-05,9.449999809265137,9.270000457763672,9.314000129699707,9.399999618530273,43200,9.399999618530273
2019-02-06,8.15999984741211,7.199999809265137,8.09000015258789,7.599999904632568,1867400,7.599999904632568
2019-02-07,7.960000038146973,7.5,7.510000228881836,7.829999923706055,308300,7.829999923706055
2019-02-08,8.0,7.739999771118164,7.849999904632568,7.829999923706055,209000,7.829999923706055
2019-02-11,8.010000228881836,7.769999980926514,7.920000076293945,7.800000190734863,164800,7.800000190734863
2019-02-12,7.849999904632568,7.520999908447266,7.809999942779541,7.659999847412109,100300,7.659999847412109
2019-02-13,7.929999828338623,7.5,7.71999979019165,7.900000095367432,552200,7.900000095367432
2019-02-14,8.300000190734863,7.789999961853027,7.789999961853027,8.15999984741211,295500,8.15999984741211
2019-02-15,8.449999809265137,8.029999732971191,8.1899995803833,8.350000381469727,309200,8.350000381469727
2019-02-19,8.420000076293945,8.0,8.300000190734863,8.170000076293945,144200,8.170000076293945
2019-02-20,8.210000038146973,7.909999847412109,8.199999809265137,8.1899995803833,220300,8.1899995803833
2019-02-21,8.15999984741211,7.940000057220459,8.149999618530273,8.0600004196167,138900,8.0600004196167
2019-02-22,8.319999694824219,7.900000095367432,8.09000015258789,8.25,130000,8.25
2019-02-25,8.670000076293945,8.210000038146973,8.300000190734863,8.529999732971191,213900,8.529999732971191
2019-02-26,8.520000457763672,8.164999961853027,8.520000457763672,8.34000015258789,76500,8.34000015258789
2019-02-27,8.5,8.039999961853027,8.34000015258789,8.350000381469727,74000,8.350000381469727
2019-02-28,8.489999771118164,8.100000381469727,8.359999656677246,8.359999656677246,76500,8.359999656677246
2019-03-01,8.645000457763672,8.329999923706055,8.329999923706055,8.59000015258789,52300,8.59000015258789
2019-03-04,8.713000297546387,8.430000305175781,8.65999984741211,8.5,233400,8.5
2019-03-05,8.569999694824219,8.260000228881836,8.5,8.449999809265137,136100,8.449999809265137
2019-03-06,8.399999618530273,7.960000038146973,8.399999618530273,8.0600004196167,147900,8.0600004196167
2019-03-07,8.239999771118164,8.020000457763672,8.050000190734863,8.199999809265137,89500,8.199999809265137
2019-03-08,8.289999961853027,7.860000133514404,8.15999984741211,8.0,186200,8.0
2019-03-11,8.300000190734863,7.670000076293945,8.039999961853027,8.229999542236328,124700,8.229999542236328
2019-03-12,8.40999984741211,8.050000190734863,8.220000267028809,8.3100004196167,325500,8.3100004196167
2019-03-13,8.479000091552734,8.1899995803833,8.390000343322754,8.369999885559082,142300,8.369999885559082
2019-03-14,8.4350004196167,8.279999732971191,8.390000343322754,8.3100004196167,191600,8.3100004196167
2019-03-15,8.414999961853027,8.0,8.3100004196167,8.0,305000,8.0
2019-03-18,8.430000305175781,7.991000175476074,8.0600004196167,8.199999809265137,179500,8.199999809265137
2019-03-19,8.300000190734863,8.050000190734863,8.199999809265137,8.25,103200,8.25
2019-03-20,8.270000457763672,8.0,8.25,8.09000015258789,172700,8.09000015258789
2019-03-21,8.260000228881836,8.100000381469727,8.149999618530273,8.180000305175781,292300,8.180000305175781
2019-03-22,8.14799976348877,7.730000019073486,8.109999656677246,7.75,460200,7.75
2019-03-25,7.980000019073486,7.53000020980835,7.539999961853027,7.900000095367432,370100,7.900000095367432
2019-03-26,8.010000228881836,7.820000171661377,7.900000095367432,7.869999885559082,84600,7.869999885559082
2019-03-27,7.985000133514404,7.585000038146973,7.869999885559082,7.880000114440918,430900,7.880000114440918
2019-03-28,8.020000457763672,7.829999923706055,7.840000152587891,7.949999809265137,186000,7.949999809265137
2019-03-29,8.079999923706055,7.889999866485596,8.0,8.050000190734863,499500,8.050000190734863
2019-04-01,8.180000305175781,7.650000095367432,8.0,8.0,259900,8.0
2019-04-02,8.270000457763672,7.929999828338623,8.039999961853027,8.199999809265137,1130400,8.199999809265137
2019-04-03,8.5600004196167,8.265000343322754,8.3100004196167,8.510000228881836,261500,8.510000228881836
2019-04-04,8.920000076293945,8.5,8.5,8.779999732971191,263700,8.779999732971191
2019-04-05,8.880000114440918,8.529999732971191,8.779999732971191,8.770000457763672,118600,8.770000457763672
2019-04-08,8.899999618530273,7.420000076293945,8.869999885559082,8.09000015258789,588400,8.09000015258789
2019-04-09,8.170999526977539,7.789999961853027,8.109999656677246,7.829999923706055,223900,7.829999923706055
2019-04-10,7.849999904632568,7.380000114440918,7.849999904632568,7.400000095367432,202500,7.400000095367432
2019-04-11,7.550000190734863,7.210000038146973,7.449999809265137,7.300000190734863,203300,7.300000190734863
2019-04-12,7.449999809265137,7.21999979019165,7.389999866485596,7.25,110100,7.25
2019-04-15,7.369999885559082,6.921000003814697,7.239999771118164,7.25,208600,7.25
2019-04-16,7.614999771118164,7.25,7.25,7.46999979019165,182000,7.46999979019165
2019-04-17,7.510000228881836,7.099999904632568,7.510000228881836,7.340000152587891,144000,7.340000152587891
2019-04-18,7.563000202178955,7.21999979019165,7.320000171661377,7.369999885559082,189900,7.369999885559082
2019-04-22,7.449999809265137,7.130000114440918,7.429999828338623,7.309999942779541,69400,7.309999942779541
2019-04-23,7.510000228881836,7.239999771118164,7.329999923706055,7.429999828338623,429300,7.429999828338623
2019-04-24,7.559999942779541,7.320000171661377,7.440000057220459,7.400000095367432,63000,7.400000095367432
2019-04-25,7.440000057220459,7.190000057220459,7.380000114440918,7.329999923706055,93500,7.329999923706055
2019-04-26,7.389999866485596,7.083000183105469,7.289999961853027,7.210000038146973,59400,7.210000038146973
2019-04-29,7.28000020980835,7.0,7.199999809265137,7.010000228881836,90600,7.010000228881836
2019-04-30,7.079999923706055,6.6539998054504395,7.0,6.849999904632568,142700,6.849999904632568
2019-05-01,7.0,6.639999866485596,6.840000152587891,6.659999847412109,95400,6.659999847412109
2019-05-02,6.78000020980835,6.449999809265137,6.619999885559082,6.71999979019165,94600,6.71999979019165
2019-05-03,7.039999961853027,6.760000228881836,6.760000228881836,6.960000038146973,76100,6.960000038146973
2019-05-06,7.070000171661377,6.808000087738037,6.820000171661377,7.0,39600,7.0
2019-05-07,7.0,6.679999828338623,6.929999828338623,6.78000020980835,91100,6.78000020980835
2019-05-08,6.889999866485596,6.710000038146973,6.800000190734863,6.869999885559082,55900,6.869999885559082
2019-05-09,6.829999923706055,6.650000095367432,6.809999942779541,6.800000190734863,54700,6.800000190734863
2019-05-10,6.949999809265137,6.626999855041504,6.710000038146973,6.849999904632568,77300,6.849999904632568
2019-05-13,6.75,6.480000019073486,6.75,6.559999942779541,65300,6.559999942779541
2019-05-14,6.840000152587891,6.420000076293945,6.650000095367432,6.809999942779541,73300,6.809999942779541
2019-05-15,6.920000076293945,6.519999980926514,6.75,6.829999923706055,71000,6.829999923706055
2019-05-16,6.949999809265137,6.730000019073486,6.909999847412109,6.869999885559082,56900,6.869999885559082
2019-05-17,6.875,6.420000076293945,6.820000171661377,6.480000019073486,91500,6.480000019073486
2019-05-20,6.760000228881836,6.36299991607666,6.639999866485596,6.5,135200,6.5
2019-05-21,7.0,6.5,6.75,6.920000076293945,168100,6.920000076293945
2019-05-22,7.079999923706055,6.659999847412109,6.880000114440918,6.849999904632568,66300,6.849999904632568
2019-05-23,6.900000095367432,6.650000095367432,6.900000095367432,6.769999980926514,87000,6.769999980926514
2019-05-24,6.869999885559082,6.610000133514404,6.789999961853027,6.820000171661377,79300,6.820000171661377
