Date,High,Low,Open,Close,Volume,Adj Close
2018-03-19,6.150000095367432,5.550000190734863,5.650000095367432,5.929999828338623,112100,5.929999828338623
2018-03-20,6.25,5.0,6.25,5.159999847412109,86600,5.159999847412109
2018-03-21,5.78000020980835,5.090000152587891,5.130000114440918,5.650000095367432,87300,5.650000095367432
2018-03-22,5.989999771118164,5.650000095367432,5.739999771118164,5.988999843597412,84100,5.988999843597412
2018-03-23,6.0,5.449999809265137,5.949999809265137,5.980000019073486,90000,5.980000019073486
2018-03-26,6.0,5.489999771118164,6.0,5.679999828338623,67900,5.679999828338623
2018-03-27,6.079999923706055,5.599999904632568,5.599999904632568,5.800000190734863,109400,5.800000190734863
2018-03-28,6.0,5.630000114440918,5.800000190734863,5.889999866485596,88200,5.889999866485596
2018-03-29,6.0,5.829999923706055,5.849999904632568,5.949999809265137,99700,5.949999809265137
2018-04-02,5.980000019073486,5.550000190734863,5.860000133514404,5.829999923706055,92700,5.829999923706055
2018-04-03,6.0,5.8520002365112305,5.869999885559082,6.0,102300,6.0
2018-04-04,5.96999979019165,5.699999809265137,5.699999809265137,5.949999809265137,96200,5.949999809265137
2018-04-05,5.989999771118164,5.860000133514404,5.880000114440918,5.980000019073486,86400,5.980000019073486
2018-04-06,5.96999979019165,5.659999847412109,5.659999847412109,5.880000114440918,84500,5.880000114440918
2018-04-09,6.0,5.75,5.940000057220459,5.949999809265137,81300,5.949999809265137
2018-04-10,6.0,5.699999809265137,6.0,6.0,85700,6.0
2018-04-11,6.599999904632568,5.769999980926514,5.769999980926514,6.5,105000,6.5
2018-04-12,6.599999904632568,6.301000118255615,6.360000133514404,6.550000190734863,78700,6.550000190734863
2018-04-13,6.889999866485596,6.35099983215332,6.449999809265137,6.550000190734863,89800,6.550000190734863
2018-04-16,6.889999866485596,6.460000038146973,6.619999885559082,6.5,84100,6.5
2018-04-17,7.199999809265137,6.170000076293945,6.170000076293945,6.909999847412109,82600,6.909999847412109
2018-04-18,7.800000190734863,6.5,6.789999961853027,7.619999885559082,88800,7.619999885559082
2018-04-19,8.34000015258789,7.414000034332275,7.861999988555908,7.800000190734863,64000,7.800000190734863
2018-04-20,8.90999984741211,7.510000228881836,7.869999885559082,7.650000095367432,78500,7.650000095367432
2018-04-23,7.599999904632568,6.929999828338623,7.599999904632568,7.25,83800,7.25
2018-04-24,7.820000171661377,6.886000156402588,6.886000156402588,7.440000057220459,87900,7.440000057220459
2018-04-25,7.630000114440918,7.050000190734863,7.400000095367432,7.380000114440918,84100,7.380000114440918
2018-04-26,7.960000038146973,7.0,7.409999847412109,7.360000133514404,94900,7.360000133514404
2018-04-27,7.840000152587891,7.190000057220459,7.190000057220459,7.650000095367432,84400,7.650000095367432
2018-04-30,8.4399995803833,7.050000190734863,7.579999923706055,7.760000228881836,73800,7.760000228881836
2018-05-01,8.029999732971191,7.401000022888184,7.46999979019165,7.889999866485596,78300,7.889999866485596
2018-05-02,7.949999809265137,7.400000095367432,7.400000095367432,7.809999942779541,58400,7.809999942779541
2018-05-03,8.0600004196167,7.5,7.599999904632568,7.849999904632568,76800,7.849999904632568
2018-05-04,8.0,7.679999828338623,7.75,7.960000038146973,78200,7.960000038146973
2018-05-07,8.5,7.570000171661377,8.5,7.71999979019165,80200,7.71999979019165
2018-05-08,8.0,7.699999809265137,7.710000038146973,7.829999923706055,78800,7.829999923706055
2018-05-09,8.0600004196167,7.75,7.829999923706055,8.0600004196167,68600,8.0600004196167
2018-05-10,8.0,7.75,8.0,7.75,75200,7.75
2018-05-11,7.849999904632568,7.639999866485596,7.849999904632568,7.710000038146973,79400,7.710000038146973
2018-05-14,7.829999923706055,7.420000076293945,7.75,7.614999771118164,94100,7.614999771118164
2018-05-15,7.760000228881836,7.400000095367432,7.570000171661377,7.409999847412109,94800,7.409999847412109
2018-05-16,7.679999828338623,7.349999904632568,7.400000095367432,7.389999866485596,50900,7.389999866485596
2018-05-17,7.539999961853027,7.179999828338623,7.5,7.21999979019165,74100,7.21999979019165
2018-05-18,7.349999904632568,7.070000171661377,7.349999904632568,7.199999809265137,72600,7.199999809265137
2018-05-21,7.300000190734863,7.0,7.1519999504089355,7.28000020980835,74300,7.28000020980835
2018-05-22,7.289999961853027,6.900000095367432,7.289999961853027,6.900000095367432,68500,6.900000095367432
2018-05-23,7.21999979019165,6.620999813079834,6.949999809265137,6.650000095367432,66100,6.650000095367432
2018-05-24,6.925000190734863,6.599999904632568,6.829999923706055,6.679999828338623,65000,6.679999828338623
2018-05-25,6.820000171661377,6.263000011444092,6.699999809265137,6.610000133514404,57100,6.610000133514404
2018-05-29,6.570000171661377,6.150000095367432,6.210000038146973,6.190000057220459,43000,6.190000057220459
2018-05-30,6.349999904632568,5.860000133514404,6.170000076293945,5.949999809265137,62700,5.949999809265137
2018-05-31,6.139999866485596,5.25,5.900000095367432,5.599999904632568,60800,5.599999904632568
2018-06-01,5.900000095367432,5.572999954223633,5.599999904632568,5.739999771118164,63300,5.739999771118164
2018-06-04,6.610000133514404,5.650000095367432,5.888000011444092,5.929999828338623,59700,5.929999828338623
2018-06-05,6.039999961853027,5.730000019073486,5.960000038146973,5.909999847412109,80700,5.909999847412109
2018-06-06,7.789999961853027,6.010000228881836,6.010000228881836,6.630000114440918,59600,6.630000114440918
2018-06-07,7.349999904632568,6.5,6.980000019073486,6.550000190734863,64700,6.550000190734863
2018-06-08,6.968999862670898,5.800000190734863,6.699999809265137,6.541999816894531,75700,6.541999816894531
2018-06-11,7.309999942779541,6.420000076293945,6.789999961853027,6.940000057220459,85600,6.940000057220459
2018-06-12,6.989999771118164,6.099999904632568,6.989999771118164,6.400000095367432,54600,6.400000095367432
2018-06-13,7.460000038146973,6.019999980926514,7.03000020980835,6.090000152587891,37200,6.090000152587891
2018-06-14,6.300000190734863,5.849999904632568,6.079999923706055,6.300000190734863,40300,6.300000190734863
2018-06-15,6.440000057220459,5.989999771118164,6.440000057220459,6.019999980926514,33700,6.019999980926514
2018-06-18,6.309999942779541,5.610000133514404,6.309999942779541,5.960000038146973,25400,5.960000038146973
2018-06-19,6.239999771118164,5.860000133514404,5.889999866485596,5.860000133514404,51100,5.860000133514404
2018-06-20,6.25,5.900000095367432,5.900000095367432,6.079999923706055,21000,6.079999923706055
2018-06-21,6.380000114440918,5.949999809265137,6.079999923706055,6.050000190734863,28300,6.050000190734863
2018-06-22,6.21999979019165,5.900000095367432,6.21999979019165,5.900000095367432,25700,5.900000095367432
2018-06-25,6.039999961853027,5.525000095367432,5.900000095367432,5.75,34000,5.75
2018-06-26,6.110000133514404,5.699999809265137,5.880000114440918,5.699999809265137,142100,5.699999809265137
2018-06-27,6.0,5.710000038146973,5.789999961853027,5.840000152587891,38100,5.840000152587891
2018-06-28,5.860000133514404,5.53000020980835,5.809999942779541,5.53000020980835,24600,5.53000020980835
2018-06-29,5.980000019073486,5.130000114440918,5.659999847412109,5.599999904632568,58200,5.599999904632568
2018-07-02,5.699999809265137,5.230000019073486,5.699999809265137,5.389999866485596,22700,5.389999866485596
2018-07-03,5.590000152587891,5.275000095367432,5.449999809265137,5.449999809265137,17300,5.449999809265137
2018-07-05,5.400000095367432,5.179999828338623,5.369999885559082,5.389999866485596,21300,5.389999866485596
2018-07-06,5.420000076293945,5.150000095367432,5.349999904632568,5.300000190734863,20200,5.300000190734863
2018-07-09,5.409999847412109,5.0,5.400000095367432,5.21999979019165,18000,5.21999979019165
2018-07-10,5.28000020980835,4.980000019073486,5.199999809265137,5.210000038146973,36200,5.210000038146973
2018-07-11,5.25,4.869999885559082,5.199999809265137,4.880000114440918,27900,4.880000114440918
2018-07-12,5.340000152587891,4.611000061035156,4.880000114440918,4.730000019073486,26700,4.730000019073486
2018-07-13,4.760000228881836,4.550000190734863,4.760000228881836,4.610000133514404,27400,4.610000133514404
2018-07-16,5.099999904632568,4.340000152587891,5.099999904632568,4.53000020980835,19400,4.53000020980835
2018-07-17,4.900000095367432,4.25,4.900000095367432,4.340000152587891,20800,4.340000152587891
2018-07-18,4.920000076293945,4.039999961853027,4.599999904632568,4.190000057220459,60900,4.190000057220459
2018-07-19,4.583000183105469,3.750999927520752,4.179999828338623,4.199999809265137,12600,4.199999809265137
2018-07-20,4.78000020980835,4.28000020980835,4.78000020980835,4.329999923706055,18200,4.329999923706055
2018-07-23,4.699999809265137,4.300000190734863,4.699999809265137,4.369999885559082,10700,4.369999885559082
2018-07-24,4.699999809265137,4.179999828338623,4.699999809265137,4.409999847412109,15500,4.409999847412109
2018-07-25,4.670000076293945,4.309999942779541,4.670000076293945,4.349999904632568,17500,4.349999904632568
2018-07-26,4.670000076293945,4.179999828338623,4.670000076293945,4.420000076293945,14400,4.420000076293945
2018-07-27,4.599999904632568,4.360000133514404,4.554999828338623,4.360000133514404,12600,4.360000133514404
2018-07-30,4.630000114440918,4.079999923706055,4.090000152587891,4.550000190734863,2600,4.550000190734863
2018-07-31,4.710000038146973,4.25,4.25,4.710000038146973,2000,4.710000038146973
2018-08-01,4.460000038146973,3.75,4.199999809265137,3.869999885559082,33900,3.869999885559082
2018-08-02,4.53000020980835,3.869999885559082,3.869999885559082,4.53000020980835,15300,4.53000020980835
2018-08-03,5.199999809265137,3.869999885559082,3.869999885559082,4.420000076293945,48200,4.420000076293945
2018-08-06,4.64900016784668,4.309999942779541,4.309999942779541,4.619999885559082,1100,4.619999885559082
2018-08-07,5.0,4.460000038146973,5.0,4.460000038146973,1300,4.460000038146973
2018-08-08,4.590000152587891,4.25,4.590000152587891,4.25,600,4.25
2018-08-09,4.322000026702881,4.099999904632568,4.130000114440918,4.110000133514404,4500,4.110000133514404
2018-08-10,4.900000095367432,4.130000114440918,4.28000020980835,4.150000095367432,41200,4.150000095367432
2018-08-13,4.460000038146973,4.099999904632568,4.099999904632568,4.369999885559082,3900,4.369999885559082
2018-08-14,4.420000076293945,4.159999847412109,4.389999866485596,4.420000076293945,1000,4.420000076293945
2018-08-15,4.449999809265137,4.380000114440918,4.380000114440918,4.448999881744385,500,4.448999881744385
2018-08-16,4.590000152587891,4.269999980926514,4.409999847412109,4.570000171661377,3100,4.570000171661377
2018-08-17,4.896999835968018,4.429999828338623,4.568999767303467,4.840000152587891,82600,4.840000152587891
2018-08-20,4.675000190734863,4.579999923706055,4.599999904632568,4.619999885559082,13600,4.619999885559082
2018-08-21,5.432000160217285,5.0,5.0,5.230000019073486,29900,5.230000019073486
2018-08-22,5.28000020980835,5.059999942779541,5.28000020980835,5.110000133514404,5800,5.110000133514404
2018-08-23,5.309999942779541,5.110000133514404,5.110000133514404,5.309999942779541,2100,5.309999942779541
2018-08-24,5.28000020980835,5.178999900817871,5.28000020980835,5.210000038146973,5300,5.210000038146973
2018-08-27,5.2829999923706055,5.150000095367432,5.239999771118164,5.230000019073486,5100,5.230000019073486
2018-08-28,5.414999961853027,5.199999809265137,5.25,5.199999809265137,2700,5.199999809265137
2018-08-29,5.289999961853027,5.25,5.25,5.25,1400,5.25
2018-08-30,5.28000020980835,5.199999809265137,5.25,5.28000020980835,1600,5.28000020980835
2018-08-31,5.28000020980835,5.150000095367432,5.28000020980835,5.210000038146973,1000,5.210000038146973
2018-09-04,5.269999980926514,5.150000095367432,5.179999828338623,5.269999980926514,900,5.269999980926514
2018-09-05,5.28000020980835,5.190000057220459,5.190000057220459,5.210000038146973,900,5.210000038146973
2018-09-06,5.730000019073486,5.010000228881836,5.329999923706055,5.170000076293945,23000,5.170000076293945
2018-09-07,5.4670000076293945,5.099999904632568,5.170000076293945,5.099999904632568,9100,5.099999904632568
2018-09-10,5.625999927520752,5.099999904632568,5.300000190734863,5.170000076293945,19700,5.170000076293945
2018-09-11,5.380000114440918,5.090000152587891,5.150000095367432,5.150000095367432,13600,5.150000095367432
2018-09-12,5.210000038146973,5.050000190734863,5.210000038146973,5.079999923706055,7300,5.079999923706055
2018-09-13,5.139999866485596,4.809999942779541,5.139999866485596,4.840000152587891,40700,4.840000152587891
2018-09-14,4.949999809265137,4.78000020980835,4.78000020980835,4.940000057220459,300,4.940000057220459
2018-09-17,5.21999979019165,4.929999828338623,4.96999979019165,5.190000057220459,9400,5.190000057220459
2018-09-18,5.199999809265137,4.980000019073486,4.991000175476074,5.199999809265137,11300,5.199999809265137
2018-09-19,5.21999979019165,5.090000152587891,5.21999979019165,5.199999809265137,6000,5.199999809265137
2018-09-20,5.216000080108643,5.010000228881836,5.039999961853027,5.059999942779541,30000,5.059999942779541
2018-09-21,5.599999904632568,5.110000133514404,5.150000095367432,5.230000019073486,53900,5.230000019073486
2018-09-24,5.289999961853027,5.010000228881836,5.239999771118164,5.289999961853027,4100,5.289999961853027
2018-09-25,5.119999885559082,5.0,5.119999885559082,5.0,7100,5.0
2018-09-26,5.099999904632568,4.800000190734863,5.050000190734863,4.800000190734863,8100,4.800000190734863
2018-09-27,5.110000133514404,4.480000019073486,4.820000171661377,4.480000019073486,10800,4.480000019073486
2018-09-28,4.960000038146973,4.559999942779541,4.960000038146973,4.639999866485596,8300,4.639999866485596
2018-10-01,4.736999988555908,4.510000228881836,4.510000228881836,4.64900016784668,11000,4.64900016784668
2018-10-02,4.730000019073486,4.5,4.5,4.639999866485596,7800,4.639999866485596
2018-10-03,4.989999771118164,4.409999847412109,4.550000190734863,4.550000190734863,13700,4.550000190734863
2018-10-04,4.949999809265137,4.340000152587891,4.559999942779541,4.380000114440918,8800,4.380000114440918
2018-10-05,4.420000076293945,4.21999979019165,4.360000133514404,4.260000228881836,17300,4.260000228881836
2018-10-08,4.309999942779541,4.199999809265137,4.300000190734863,4.309999942779541,5000,4.309999942779541
2018-10-09,4.269999980926514,4.170000076293945,4.21999979019165,4.170000076293945,15700,4.170000076293945
2018-10-10,4.260000228881836,4.099999904632568,4.210000038146973,4.130000114440918,2400,4.130000114440918
2018-10-11,4.360000133514404,4.150000095367432,4.150000095367432,4.300000190734863,19700,4.300000190734863
2018-10-12,4.539999961853027,4.150000095367432,4.409999847412109,4.289999961853027,14700,4.289999961853027
2018-10-15,4.300000190734863,4.130000114440918,4.300000190734863,4.150000095367432,4900,4.150000095367432
2018-10-16,4.460000038146973,4.090000152587891,4.099999904632568,4.099999904632568,11100,4.099999904632568
2018-10-17,4.297999858856201,4.0,4.03000020980835,4.297999858856201,13700,4.297999858856201
2018-10-18,4.550000190734863,4.0,4.250999927520752,4.130000114440918,14500,4.130000114440918
2018-10-19,4.46999979019165,4.099999904632568,4.159999847412109,4.159999847412109,26900,4.159999847412109
2018-10-22,4.25,4.159999847412109,4.159999847412109,4.199999809265137,7500,4.199999809265137
2018-10-23,4.199999809265137,4.079999923706055,4.119999885559082,4.090000152587891,10500,4.090000152587891
2018-10-24,4.244999885559082,4.079999923706055,4.119999885559082,4.090000152587891,10700,4.090000152587891
2018-10-25,4.300000190734863,4.0,4.099999904632568,4.25,9300,4.25
2018-10-26,4.230000019073486,4.119999885559082,4.139999866485596,4.179999828338623,9500,4.179999828338623
2018-10-29,4.199999809265137,4.110000133514404,4.150000095367432,4.159999847412109,11100,4.159999847412109
2018-10-30,4.199999809265137,4.099999904632568,4.099999904632568,4.170000076293945,8800,4.170000076293945
2018-10-31,4.300000190734863,4.099999904632568,4.099999904632568,4.179999828338623,8900,4.179999828338623
2018-11-01,4.360000133514404,4.21999979019165,4.21999979019165,4.269999980926514,14900,4.269999980926514
2018-11-02,4.420000076293945,3.9000000953674316,4.260000228881836,4.150000095367432,35100,4.150000095367432
2018-11-05,4.480000019073486,4.099999904632568,4.480000019073486,4.150000095367432,12700,4.150000095367432
2018-11-06,4.239999771118164,4.099999904632568,4.099999904632568,4.159999847412109,16000,4.159999847412109
2018-11-07,4.300000190734863,4.190000057220459,4.190000057220459,4.28000020980835,11600,4.28000020980835
2018-11-08,4.5,4.119999885559082,4.260000228881836,4.46999979019165,27000,4.46999979019165
2018-11-09,4.699999809265137,4.239999771118164,4.420000076293945,4.519999980926514,24400,4.519999980926514
2018-11-12,4.514999866485596,4.28000020980835,4.300000190734863,4.5,10500,4.5
2018-11-13,4.53000020980835,4.327000141143799,4.327000141143799,4.5,8800,4.5
2018-11-14,4.630000114440918,4.380000114440918,4.420000076293945,4.5,8200,4.5
2018-11-15,4.576000213623047,4.400000095367432,4.400000095367432,4.449999809265137,11200,4.449999809265137
2018-11-16,4.559999942779541,4.389999866485596,4.429999828338623,4.559999942779541,14200,4.559999942779541
2018-11-19,4.599999904632568,4.329999923706055,4.400000095367432,4.5,11500,4.5
2018-11-20,4.590000152587891,4.349999904632568,4.5,4.539999961853027,8900,4.539999961853027
2018-11-21,4.550000190734863,4.300000190734863,4.360000133514404,4.489999771118164,10600,4.489999771118164
2018-11-23,4.489999771118164,4.409999847412109,4.447000026702881,4.460000038146973,5300,4.460000038146973
2018-11-26,4.550000190734863,4.400000095367432,4.438000202178955,4.550000190734863,9600,4.550000190734863
2018-11-27,4.73799991607666,4.420000076293945,4.73799991607666,4.480000019073486,8800,4.480000019073486
2018-11-28,4.579999923706055,4.409999847412109,4.409999847412109,4.579999923706055,25300,4.579999923706055
2018-11-29,4.8379998207092285,4.599999904632568,4.599999904632568,4.739999771118164,38400,4.739999771118164
2018-11-30,4.769999980926514,4.619999885559082,4.670000076293945,4.75,27800,4.75
2018-12-03,5.0,4.869999885559082,4.869999885559082,4.920000076293945,2600,4.920000076293945
2018-12-04,4.989999771118164,4.849999904632568,4.949999809265137,4.849999904632568,3900,4.849999904632568
2018-12-06,4.860000133514404,4.413000106811523,4.71999979019165,4.860000133514404,3900,4.860000133514404
2018-12-07,4.860000133514404,4.659999847412109,4.789999961853027,4.739999771118164,3700,4.739999771118164
2018-12-10,4.835000038146973,4.659999847412109,4.659999847412109,4.820000171661377,9700,4.820000171661377
2018-12-11,4.880000114440918,4.619999885559082,4.690000057220459,4.670000076293945,10100,4.670000076293945
2018-12-12,4.989999771118164,4.701000213623047,4.701000213623047,4.71999979019165,7200,4.71999979019165
2018-12-13,4.730000019073486,4.599999904632568,4.610000133514404,4.630000114440918,30400,4.630000114440918
2018-12-14,4.710000038146973,4.460000038146973,4.620999813079834,4.550000190734863,14300,4.550000190734863
2018-12-17,4.699999809265137,4.380000114440918,4.5,4.389999866485596,34100,4.389999866485596
2018-12-18,4.800000190734863,4.139999866485596,4.400000095367432,4.139999866485596,28600,4.139999866485596
2018-12-19,4.389999866485596,3.869999885559082,4.179999828338623,3.990000009536743,39400,3.990000009536743
2018-12-20,4.099999904632568,4.050000190734863,4.099999904632568,4.090000152587891,11000,4.090000152587891
2018-12-21,4.269000053405762,3.859999895095825,3.930000066757202,3.859999895095825,68900,3.859999895095825
2018-12-24,4.199999809265137,3.75,3.869999885559082,3.75,15100,3.75
2018-12-26,3.990000009536743,3.750999927520752,3.750999927520752,3.9600000381469727,34100,3.9600000381469727
2018-12-27,4.070000171661377,3.799999952316284,3.880000114440918,3.799999952316284,21400,3.799999952316284
2018-12-28,3.880000114440918,3.75,3.7799999713897705,3.75,43900,3.75
2018-12-31,3.9200000762939453,3.700000047683716,3.700000047683716,3.809999942779541,25100,3.809999942779541
2019-01-02,3.9100000858306885,3.759999990463257,3.759999990463257,3.880000114440918,13000,3.880000114440918
2019-01-03,3.890000104904175,3.6500000953674316,3.890000104904175,3.700000047683716,17700,3.700000047683716
2019-01-04,3.809999942779541,3.6700000762939453,3.7200000286102295,3.7899999618530273,16900,3.7899999618530273
2019-01-07,3.8299999237060547,3.759999990463257,3.7699999809265137,3.809999942779541,12400,3.809999942779541
2019-01-08,3.950000047683716,3.7200000286102295,3.75,3.869999885559082,17300,3.869999885559082
2019-01-09,3.9690001010894775,3.8399999141693115,3.869999885559082,3.9600000381469727,19600,3.9600000381469727
2019-01-10,4.059999942779541,3.759999990463257,3.759999990463257,4.03000020980835,24000,4.03000020980835
2019-01-11,4.110000133514404,3.7200000286102295,3.7200000286102295,4.059999942779541,32800,4.059999942779541
2019-01-14,4.119999885559082,4.0,4.010000228881836,4.059999942779541,22300,4.059999942779541
2019-01-15,4.159999847412109,3.9100000858306885,3.9100000858306885,4.136000156402588,25500,4.136000156402588
2019-01-16,4.170000076293945,3.859999895095825,3.859999895095825,4.150000095367432,22300,4.150000095367432
2019-01-17,4.23199987411499,4.03000020980835,4.130000114440918,4.204999923706055,36500,4.204999923706055
2019-01-18,4.21999979019165,4.116000175476074,4.130000114440918,4.170000076293945,34800,4.170000076293945
2019-01-22,4.199999809265137,4.070000171661377,4.079999923706055,4.170000076293945,24800,4.170000076293945
2019-01-23,4.25,4.130000114440918,4.179999828338623,4.190000057220459,29500,4.190000057220459
2019-01-24,4.269999980926514,4.139999866485596,4.170000076293945,4.159999847412109,24800,4.159999847412109
2019-01-25,4.269999980926514,4.159999847412109,4.159999847412109,4.179999828338623,26100,4.179999828338623
2019-01-28,4.239999771118164,4.150000095367432,4.190000057220459,4.179999828338623,27500,4.179999828338623
2019-01-29,4.230000019073486,4.0,4.110000133514404,4.0,37200,4.0
2019-01-30,4.090000152587891,3.950000047683716,4.03000020980835,3.950000047683716,9500,3.950000047683716
2019-01-31,4.050000190734863,3.9100000858306885,3.9749999046325684,3.9100000858306885,11900,3.9100000858306885
2019-02-01,4.130000114440918,3.690000057220459,3.9690001010894775,3.9200000762939453,24800,3.9200000762939453
2019-02-04,4.019999980926514,3.950000047683716,3.950000047683716,3.950000047683716,15400,3.950000047683716
2019-02-05,4.059999942779541,3.930000066757202,4.059999942779541,3.940000057220459,16100,3.940000057220459
2019-02-06,4.199999809265137,3.890000104904175,3.890000104904175,3.950000047683716,9500,3.950000047683716
2019-02-07,4.139999866485596,3.950000047683716,4.10699987411499,3.9800000190734863,8300,3.9800000190734863
2019-02-08,4.199999809265137,3.950000047683716,4.150000095367432,3.9800000190734863,11600,3.9800000190734863
2019-02-11,4.050000190734863,3.75,3.819999933242798,3.7699999809265137,16200,3.7699999809265137
2019-02-12,4.170000076293945,3.759999990463257,3.9000000953674316,3.7899999618530273,11200,3.7899999618530273
2019-02-13,4.070000171661377,3.4000000953674316,3.8299999237060547,3.4000000953674316,52700,3.4000000953674316
2019-02-14,3.5999999046325684,3.299999952316284,3.5999999046325684,3.3299999237060547,41200,3.3299999237060547
2019-02-15,3.430000066757202,3.2899999618530273,3.430000066757202,3.359999895095825,41100,3.359999895095825
2019-02-19,3.6530001163482666,3.2899999618530273,3.2899999618530273,3.390000104904175,46800,3.390000104904175
2019-02-20,3.5999999046325684,3.0799999237060547,3.4000000953674316,3.180000066757202,56500,3.180000066757202
2019-02-21,3.3399999141693115,3.1500000953674316,3.1500000953674316,3.2200000286102295,39900,3.2200000286102295
2019-02-22,3.4000000953674316,3.180000066757202,3.190000057220459,3.25,34900,3.25
2019-02-25,3.640000104904175,3.3399999141693115,3.3399999141693115,3.4700000286102295,14100,3.4700000286102295
2019-02-26,3.640000104904175,3.390000104904175,3.430000066757202,3.4200000762939453,35600,3.4200000762939453
2019-02-27,3.609999895095825,3.2200000286102295,3.3499999046325684,3.2699999809265137,37000,3.2699999809265137
2019-02-28,3.5399999618530273,3.2899999618530273,3.2899999618530273,3.380000114440918,29200,3.380000114440918
2019-03-01,3.4600000381469727,3.319999933242798,3.3980000019073486,3.3399999141693115,36800,3.3399999141693115
2019-03-04,3.609999895095825,3.3499999046325684,3.5899999141693115,3.430000066757202,32100,3.430000066757202
2019-03-05,3.5299999713897705,3.2109999656677246,3.450000047683716,3.240000009536743,33900,3.240000009536743
2019-03-06,3.5889999866485596,3.250999927520752,3.259999990463257,3.430000066757202,28600,3.430000066757202
2019-03-07,3.440000057220459,3.319999933242798,3.3399999141693115,3.430000066757202,35200,3.430000066757202
2019-03-08,3.819999933242798,3.4100000858306885,3.430000066757202,3.700000047683716,24500,3.700000047683716
2019-03-11,3.75,3.5199999809265137,3.5199999809265137,3.75,14200,3.75
2019-03-12,4.289999961853027,3.7300000190734863,3.7300000190734863,4.289999961853027,21800,4.289999961853027
2019-03-13,4.989999771118164,4.099999904632568,4.269999980926514,4.789999961853027,48900,4.789999961853027
2019-03-14,6.199999809265137,4.489999771118164,4.769999980926514,6.150000095367432,188500,6.150000095367432
2019-03-15,7.380000114440918,5.059999942779541,7.380000114440918,5.320000171661377,49000,5.320000171661377
2019-03-18,5.300000190734863,4.980000019073486,5.300000190734863,4.980000019073486,64100,4.980000019073486
2019-03-19,5.114999771118164,4.670000076293945,5.070000171661377,4.730000019073486,38500,4.730000019073486
2019-03-20,4.985000133514404,4.46999979019165,4.789999961853027,4.46999979019165,41700,4.46999979019165
2019-03-21,4.699999809265137,4.429999828338623,4.699999809265137,4.519999980926514,25100,4.519999980926514
2019-03-22,4.690000057220459,4.449999809265137,4.5,4.690000057220459,22400,4.690000057220459
2019-03-25,4.679999828338623,4.429999828338623,4.639999866485596,4.440000057220459,32500,4.440000057220459
2019-03-26,4.599999904632568,4.389999866485596,4.460000038146973,4.440000057220459,28300,4.440000057220459
2019-03-27,4.539999961853027,4.260000228881836,4.519999980926514,4.260000228881836,34100,4.260000228881836
2019-03-28,4.650000095367432,4.28000020980835,4.28000020980835,4.400000095367432,27200,4.400000095367432
2019-03-29,4.51800012588501,4.329999923706055,4.510000228881836,4.380000114440918,25400,4.380000114440918
2019-04-01,4.550000190734863,4.349999904632568,4.400000095367432,4.375,25800,4.375
2019-04-02,4.869999885559082,4.409999847412109,4.53000020980835,4.869999885559082,51100,4.869999885559082
2019-04-03,5.175000190734863,4.690000057220459,4.800000190734863,4.78000020980835,39100,4.78000020980835
2019-04-04,5.156000137329102,4.679999828338623,4.760000228881836,4.760000228881836,45100,4.760000228881836
2019-04-05,5.159999847412109,4.730000019073486,4.760000228881836,5.050000190734863,56600,5.050000190734863
2019-04-08,5.179999828338623,4.730000019073486,5.0,4.849999904632568,68500,4.849999904632568
2019-04-09,5.050000190734863,4.650000095367432,5.0,4.739999771118164,60600,4.739999771118164
2019-04-10,5.085000038146973,4.551000118255615,4.869999885559082,4.630000114440918,68800,4.630000114440918
2019-04-11,4.880000114440918,4.510000228881836,4.543000221252441,4.639999866485596,83500,4.639999866485596
2019-04-12,4.800000190734863,4.199999809265137,4.539999961853027,4.539999961853027,118200,4.539999961853027
2019-04-15,4.769999980926514,4.429999828338623,4.5,4.744999885559082,108700,4.744999885559082
2019-04-16,4.980000019073486,4.460000038146973,4.75,4.699999809265137,139400,4.699999809265137
2019-04-17,4.96999979019165,4.539999961853027,4.690000057220459,4.539999961853027,135000,4.539999961853027
2019-04-18,4.989999771118164,4.301000118255615,4.539999961853027,4.78000020980835,191000,4.78000020980835
2019-04-22,4.960000038146973,4.360000133514404,4.710000038146973,4.880000114440918,166400,4.880000114440918
2019-04-23,5.039999961853027,4.382999897003174,4.769999980926514,4.849999904632568,163100,4.849999904632568
2019-04-24,5.199999809265137,4.5,4.550000190734863,5.119999885559082,210500,5.119999885559082
2019-04-25,5.110000133514404,4.695000171661377,4.869999885559082,4.889999866485596,142300,4.889999866485596
2019-04-26,5.285999774932861,4.699999809265137,4.860000133514404,5.010000228881836,145300,5.010000228881836
2019-04-29,5.440000057220459,4.916999816894531,4.989999771118164,5.170000076293945,170600,5.170000076293945
2019-04-30,5.420000076293945,5.031000137329102,5.170000076293945,5.099999904632568,190900,5.099999904632568
2019-05-01,5.389999866485596,4.869999885559082,5.150000095367432,4.96999979019165,230000,4.96999979019165
2019-05-02,5.28000020980835,4.849999904632568,4.980000019073486,4.920000076293945,183600,4.920000076293945
2019-05-03,5.340000152587891,4.5,4.929999828338623,4.829999923706055,215400,4.829999923706055
2019-05-06,5.119999885559082,4.389999866485596,4.670000076293945,4.400000095367432,195900,4.400000095367432
2019-05-07,4.880000114440918,4.349999904632568,4.460000038146973,4.730000019073486,160200,4.730000019073486
2019-05-08,4.900000095367432,4.360000133514404,4.630000114440918,4.710000038146973,139600,4.710000038146973
2019-05-09,4.869999885559082,4.329999923706055,4.52400016784668,4.650000095367432,179900,4.650000095367432
2019-05-10,4.829999923706055,4.380000114440918,4.380000114440918,4.71999979019165,145800,4.71999979019165
2019-05-13,4.829999923706055,4.460000038146973,4.829999923706055,4.570000171661377,132100,4.570000171661377
2019-05-14,4.75,4.480000019073486,4.619999885559082,4.53000020980835,200100,4.53000020980835
2019-05-15,4.630000114440918,4.03000020980835,4.480000019073486,4.159999847412109,197300,4.159999847412109
2019-05-16,4.380000114440918,4.010000228881836,4.199999809265137,4.210000038146973,109800,4.210000038146973
2019-05-17,4.320000171661377,3.6500000953674316,4.179999828338623,4.0,188400,4.0
2019-05-20,4.329999923706055,3.75,3.950000047683716,3.880000114440918,201400,3.880000114440918
2019-05-21,4.559999942779541,3.9700000286102295,3.990000009536743,4.090000152587891,203500,4.090000152587891
2019-05-22,4.389999866485596,3.9200000762939453,4.019999980926514,4.139999866485596,202900,4.139999866485596
2019-05-23,4.300000190734863,3.9200000762939453,4.119999885559082,4.110000133514404,227200,4.110000133514404
2019-05-24,4.369999885559082,4.019999980926514,4.070000171661377,4.159999847412109,240400,4.159999847412109
