Date,High,Low,Open,Close,Volume,Adj Close
2016-07-20,8.0,8.0,8.0,8.0,600,8.0
2016-07-21,8.0,8.0,8.0,8.0,0,8.0
2016-07-22,8.0,7.869999885559082,8.0,7.869999885559082,600,7.869999885559082
2016-07-25,6.75,6.050000190734863,6.050000190734863,6.75,31400,6.75
2016-07-26,7.0,6.809999942779541,7.0,6.900000095367432,24300,6.900000095367432
2016-07-27,8.289999961853027,4.909999847412109,8.289999961853027,5.510000228881836,74700,5.510000228881836
2016-07-28,5.989999771118164,4.909999847412109,5.989999771118164,5.010000228881836,23300,5.010000228881836
2016-07-29,6.019999980926514,3.5299999713897705,6.019999980926514,3.7100000381469727,161900,3.7100000381469727
2016-08-01,4.329999923706055,2.680000066757202,4.289999961853027,2.890000104904175,2899300,2.890000104904175
2016-08-02,3.700000047683716,2.8350000381469727,2.940000057220459,2.9600000381469727,1985800,2.9600000381469727
2016-08-03,3.049999952316284,2.819999933242798,3.049999952316284,2.940000057220459,991800,2.940000057220459
2016-08-04,3.1500000953674316,2.930000066757202,2.930000066757202,3.069999933242798,775000,3.069999933242798
2016-08-05,3.190000057220459,2.740000009536743,3.190000057220459,2.819999933242798,1449800,2.819999933242798
2016-08-08,3.0,2.630000114440918,2.75,2.740000009536743,1279800,2.740000009536743
2016-08-09,2.880000114440918,2.569999933242798,2.7899999618530273,2.640000104904175,870600,2.640000104904175
2016-08-10,2.7699999809265137,2.5999999046325684,2.6500000953674316,2.700000047683716,889700,2.700000047683716
2016-08-11,2.8499999046325684,2.680000066757202,2.819999933242798,2.7699999809265137,1187500,2.7699999809265137
2016-08-12,3.130000114440918,2.7699999809265137,2.8299999237060547,3.069999933242798,707900,3.069999933242798
2016-08-15,3.390000104904175,3.0899999141693115,3.1500000953674316,3.1600000858306885,516000,3.1600000858306885
2016-08-16,3.2899999618530273,2.930000066757202,3.25,3.0199999809265137,318300,3.0199999809265137
2016-08-17,3.2699999809265137,3.0369999408721924,3.049999952316284,3.2200000286102295,314200,3.2200000286102295
2016-08-18,3.640000104904175,3.180000066757202,3.25,3.190000057220459,378400,3.190000057220459
2016-08-19,3.380000114440918,3.1600000858306885,3.190000057220459,3.3299999237060547,356100,3.3299999237060547
2016-08-22,3.609999895095825,3.180000066757202,3.430000066757202,3.2100000381469727,734300,3.2100000381469727
2016-08-23,3.390000104904175,3.0999999046325684,3.259999990463257,3.2200000286102295,375300,3.2200000286102295
2016-08-24,3.380000114440918,3.009999990463257,3.25,3.0199999809265137,410700,3.0199999809265137
2016-08-25,3.049999952316284,2.940000057220459,2.990000009536743,2.9800000190734863,234700,2.9800000190734863
2016-08-26,3.109999895095825,2.940000057220459,3.0,3.0199999809265137,259900,3.0199999809265137
2016-08-29,3.0399999618530273,2.819999933242798,3.0399999618530273,2.869999885559082,144500,2.869999885559082
2016-08-30,2.9000000953674316,2.7699999809265137,2.880000114440918,2.859999895095825,169800,2.859999895095825
2016-08-31,2.8399999141693115,2.6500000953674316,2.8399999141693115,2.7200000286102295,417400,2.7200000286102295
2016-09-01,2.7799999713897705,2.619999885559082,2.700000047683716,2.6500000953674316,304000,2.6500000953674316
2016-09-02,2.6500000953674316,2.5199999809265137,2.630000114440918,2.6500000953674316,256700,2.6500000953674316
2016-09-06,2.640000104904175,2.3299999237060547,2.640000104904175,2.4000000953674316,405600,2.4000000953674316
2016-09-07,2.4200000762939453,2.2899999618530273,2.390000104904175,2.299999952316284,356600,2.299999952316284
2016-09-08,2.3399999141693115,2.1600000858306885,2.319999933242798,2.200000047683716,371400,2.200000047683716
2016-09-09,3.0899999141693115,2.319999933242798,2.319999933242798,2.509999990463257,4568700,2.509999990463257
2016-09-12,2.6700000762939453,2.319999933242798,2.5199999809265137,2.5299999713897705,855000,2.5299999713897705
2016-09-13,2.5399999618530273,2.359999895095825,2.5399999618530273,2.4000000953674316,372600,2.4000000953674316
2016-09-14,2.4700000286102295,2.4000000953674316,2.4200000762939453,2.450000047683716,182200,2.450000047683716
2016-09-15,2.4769999980926514,2.319999933242798,2.4700000286102295,2.3499999046325684,297900,2.3499999046325684
2016-09-16,2.390000104904175,2.25,2.3399999141693115,2.25,847000,2.25
2016-09-19,2.3499999046325684,2.240000009536743,2.2699999809265137,2.259999990463257,181400,2.259999990463257
2016-09-20,2.4700000286102295,2.2699999809265137,2.2799999713897705,2.359999895095825,445200,2.359999895095825
2016-09-21,2.559999942779541,2.3499999046325684,2.390000104904175,2.5399999618530273,453600,2.5399999618530273
2016-09-22,2.8299999237060547,2.5999999046325684,2.5999999046325684,2.75,423300,2.75
2016-09-23,2.9200000762939453,2.75,2.7799999713897705,2.7899999618530273,394200,2.7899999618530273
2016-09-26,2.890000104904175,2.700000047683716,2.8399999141693115,2.7200000286102295,287400,2.7200000286102295
2016-09-27,2.7990000247955322,2.7200000286102295,2.740000009536743,2.75,147300,2.75
2016-09-28,2.759999990463257,2.549999952316284,2.759999990463257,2.619999885559082,230200,2.619999885559082
2016-09-29,2.740000009536743,2.549999952316284,2.640000104904175,2.559999942779541,187900,2.559999942779541
2016-09-30,2.625,2.509999990463257,2.549999952316284,2.559999942779541,159200,2.559999942779541
2016-10-03,2.7260000705718994,2.450000047683716,2.559999942779541,2.5,99000,2.5
2016-10-04,2.690000057220459,2.509999990463257,2.509999990463257,2.5899999141693115,181700,2.5899999141693115
2016-10-05,2.940000057220459,2.609999895095825,2.609999895095825,2.7899999618530273,381600,2.7899999618530273
2016-10-06,2.890000104904175,2.680000066757202,2.809999942779541,2.759999990463257,191500,2.759999990463257
2016-10-07,2.859999895095825,2.75,2.7699999809265137,2.8299999237060547,118100,2.8299999237060547
2016-10-10,2.9000000953674316,2.7799999713897705,2.8399999141693115,2.8299999237060547,135500,2.8299999237060547
2016-10-11,2.9700000286102295,2.630000114440918,2.8399999141693115,2.6500000953674316,287200,2.6500000953674316
2016-10-12,2.809999942779541,2.5799999237060547,2.6700000762939453,2.6600000858306885,152600,2.6600000858306885
2016-10-13,2.640000104904175,2.5,2.640000104904175,2.559999942779541,221300,2.559999942779541
2016-10-14,2.6410000324249268,2.4000000953674316,2.549999952316284,2.4000000953674316,212200,2.4000000953674316
2016-10-17,2.5199999809265137,2.299999952316284,2.4000000953674316,2.359999895095825,202900,2.359999895095825
2016-10-18,2.450000047683716,2.3499999046325684,2.380000114440918,2.369999885559082,236700,2.369999885559082
2016-10-19,2.4030001163482666,2.2899999618530273,2.390000104904175,2.319999933242798,136800,2.319999933242798
2016-10-20,2.369999885559082,2.259999990463257,2.299999952316284,2.309999942779541,106700,2.309999942779541
2016-10-21,2.4100000858306885,2.259999990463257,2.299999952316284,2.2899999618530273,100900,2.2899999618530273
2016-10-24,2.430000066757202,2.259999990463257,2.309999942779541,2.309999942779541,153200,2.309999942779541
2016-10-25,2.390000104904175,2.2799999713897705,2.309999942779541,2.309999942779541,160600,2.309999942779541
2016-10-26,2.3499999046325684,2.260999917984009,2.2899999618530273,2.2899999618530273,94400,2.2899999618530273
2016-10-27,2.319999933242798,2.1500000953674316,2.319999933242798,2.180000066757202,206900,2.180000066757202
2016-10-28,2.2699999809265137,2.071000099182129,2.1700000762939453,2.200000047683716,183100,2.200000047683716
2016-10-31,2.2699999809265137,2.140000104904175,2.2200000286102295,2.2100000381469727,101600,2.2100000381469727
2016-11-01,2.259999990463257,1.9800000190734863,2.25,2.0999999046325684,208600,2.0999999046325684
2016-11-02,2.0869998931884766,1.850000023841858,2.069999933242798,1.9199999570846558,181300,1.9199999570846558
2016-11-03,1.9500000476837158,1.8700000047683716,1.9199999570846558,1.8799999952316284,221100,1.8799999952316284
2016-11-04,1.9500000476837158,1.7999999523162842,1.8600000143051147,1.8600000143051147,144500,1.8600000143051147
2016-11-07,2.0160000324249268,1.7999999523162842,2.0,1.909999966621399,207600,1.909999966621399
2016-11-08,1.9700000286102295,1.850000023841858,1.899999976158142,1.9600000381469727,104900,1.9600000381469727
2016-11-09,2.0460000038146973,1.9259999990463257,1.9700000286102295,1.9900000095367432,184900,1.9900000095367432
2016-11-10,2.109999895095825,1.9500000476837158,2.0,2.0899999141693115,198800,2.0899999141693115
2016-11-11,2.3499999046325684,2.0299999713897705,2.0399999618530273,2.240000009536743,176500,2.240000009536743
2016-11-14,2.390000104904175,2.240000009536743,2.25,2.309999942779541,129300,2.309999942779541
2016-11-15,2.1500000953674316,1.690000057220459,2.119999885559082,1.9600000381469727,998600,1.9600000381469727
2016-11-16,1.9800000190734863,1.899999976158142,1.9700000286102295,1.9600000381469727,362000,1.9600000381469727
2016-11-17,1.9900000095367432,1.9199999570846558,1.9800000190734863,1.940000057220459,173500,1.940000057220459
2016-11-18,2.049999952316284,1.899999976158142,1.899999976158142,2.0299999713897705,319600,2.0299999713897705
2016-11-21,2.119999885559082,2.009999990463257,2.0399999618530273,2.0299999713897705,100400,2.0299999713897705
2016-11-22,2.059999942779541,1.9800000190734863,2.0399999618530273,2.0399999618530273,189900,2.0399999618530273
2016-11-23,2.0299999713897705,1.9700000286102295,2.0299999713897705,2.0199999809265137,126900,2.0199999809265137
2016-11-25,2.010999917984009,1.9600000381469727,2.009999990463257,2.009999990463257,44700,2.009999990463257
2016-11-28,2.0299999713897705,1.809999942779541,2.009999990463257,1.850000023841858,170700,1.850000023841858
2016-11-29,1.940000057220459,1.8200000524520874,1.8700000047683716,1.899999976158142,171000,1.899999976158142
2016-11-30,1.9900000095367432,1.8799999952316284,1.9199999570846558,1.899999976158142,163200,1.899999976158142
2016-12-01,1.9199999570846558,1.75,1.899999976158142,1.8600000143051147,233300,1.8600000143051147
2016-12-02,1.9199999570846558,1.8200000524520874,1.850000023841858,1.899999976158142,184000,1.899999976158142
2016-12-05,1.940000057220459,1.8700000047683716,1.9199999570846558,1.9299999475479126,112800,1.9299999475479126
2016-12-06,1.9490000009536743,1.8700000047683716,1.9199999570846558,1.9199999570846558,90600,1.9199999570846558
2016-12-07,1.9199999570846558,1.850000023841858,1.899999976158142,1.8600000143051147,84900,1.8600000143051147
2016-12-08,1.9900000095367432,1.850000023841858,1.850000023841858,1.9800000190734863,98700,1.9800000190734863
2016-12-09,2.049999952316284,1.8899999856948853,1.9800000190734863,1.9900000095367432,241000,1.9900000095367432
2016-12-12,2.00600004196167,1.9199999570846558,1.9600000381469727,1.9800000190734863,112400,1.9800000190734863
2016-12-13,2.009999990463257,1.909999966621399,1.9500000476837158,2.009999990463257,111800,2.009999990463257
2016-12-14,1.9900000095367432,1.875,1.9900000095367432,1.9299999475479126,119800,1.9299999475479126
2016-12-15,1.9500000476837158,1.809999942779541,1.9199999570846558,1.8300000429153442,162200,1.8300000429153442
2016-12-16,2.9700000286102295,2.0,2.0199999809265137,2.1500000953674316,3958200,2.1500000953674316
2016-12-19,2.0899999141693115,1.899999976158142,2.0899999141693115,1.9700000286102295,315900,1.9700000286102295
2016-12-20,2.200000047683716,1.940000057220459,1.9900000095367432,2.1600000858306885,168600,2.1600000858306885
2016-12-21,2.240000009536743,2.0999999046325684,2.180000066757202,2.1500000953674316,100300,2.1500000953674316
2016-12-22,2.240000009536743,2.059999942779541,2.130000114440918,2.130000114440918,161400,2.130000114440918
2016-12-23,2.299999952316284,2.109999895095825,2.1500000953674316,2.200000047683716,185500,2.200000047683716
2016-12-27,2.2899999618530273,2.1700000762939453,2.180000066757202,2.2699999809265137,74200,2.2699999809265137
2016-12-28,2.325000047683716,2.1700000762939453,2.25,2.2200000286102295,100500,2.2200000286102295
2016-12-29,2.4000000953674316,2.180000066757202,2.2200000286102295,2.380000114440918,315600,2.380000114440918
2016-12-30,2.450000047683716,2.309999942779541,2.380000114440918,2.440000057220459,79800,2.440000057220459
2017-01-03,2.5799999237060547,2.4149999618530273,2.4700000286102295,2.5,125700,2.5
2017-01-04,2.940000057220459,2.509999990463257,2.549999952316284,2.859999895095825,386900,2.859999895095825
2017-01-05,2.990000009536743,2.7899999618530273,2.990000009536743,2.8499999046325684,330500,2.8499999046325684
2017-01-06,2.940000057220459,2.609999895095825,2.869999885559082,2.640000104904175,113700,2.640000104904175
2017-01-09,2.690000057220459,2.5399999618530273,2.640000104904175,2.549999952316284,72700,2.549999952316284
2017-01-10,2.6600000858306885,2.4200000762939453,2.609999895095825,2.6500000953674316,239700,2.6500000953674316
2017-01-11,2.7899999618530273,2.450000047683716,2.6500000953674316,2.5399999618530273,107800,2.5399999618530273
2017-01-12,2.558000087738037,2.4700000286102295,2.5299999713897705,2.490000009536743,37300,2.490000009536743
2017-01-13,3.0,2.509999990463257,2.9000000953674316,2.569999933242798,324300,2.569999933242798
2017-01-17,2.6589999198913574,2.549999952316284,2.549999952316284,2.5999999046325684,130000,2.5999999046325684
2017-01-18,2.7100000381469727,2.5799999237060547,2.619999885559082,2.680000066757202,88800,2.680000066757202
2017-01-19,2.690000057220459,2.549999952316284,2.690000057220459,2.5799999237060547,45100,2.5799999237060547
2017-01-20,2.6600000858306885,2.2799999713897705,2.559999942779541,2.3499999046325684,217700,2.3499999046325684
2017-01-23,2.430000066757202,2.200000047683716,2.319999933242798,2.299999952316284,146200,2.299999952316284
2017-01-24,2.299999952316284,2.1500000953674316,2.299999952316284,2.180000066757202,190900,2.180000066757202
2017-01-25,2.1700000762939453,2.0,2.140000104904175,2.0299999713897705,190100,2.0299999713897705
2017-01-26,2.0899999141693115,2.0299999713897705,2.0399999618530273,2.059999942779541,136000,2.059999942779541
2017-01-27,2.1700000762939453,2.0199999809265137,2.069999933242798,2.049999952316284,154500,2.049999952316284
2017-01-30,2.0399999618530273,1.9700000286102295,2.0299999713897705,2.0299999713897705,151900,2.0299999713897705
2017-01-31,2.0439999103546143,1.9500000476837158,2.009999990463257,1.9900000095367432,131500,1.9900000095367432
2017-02-01,2.009000062942505,1.9199999570846558,1.9800000190734863,1.9900000095367432,124200,1.9900000095367432
2017-02-02,2.0,1.9299999475479126,2.0,1.9700000286102295,173500,1.9700000286102295
2017-02-03,2.009999990463257,1.899999976158142,2.009999990463257,1.9199999570846558,125100,1.9199999570846558
2017-02-06,1.9900000095367432,1.899999976158142,1.899999976158142,1.9500000476837158,133300,1.9500000476837158
2017-02-07,1.9800000190734863,1.899999976158142,1.9800000190734863,1.9700000286102295,138100,1.9700000286102295
2017-02-08,1.940000057220459,1.850000023841858,1.9299999475479126,1.909999966621399,168300,1.909999966621399
2017-02-09,2.0,1.8600000143051147,1.899999976158142,1.9500000476837158,145100,1.9500000476837158
2017-02-10,2.0299999713897705,1.9199999570846558,2.0199999809265137,1.9500000476837158,234900,1.9500000476837158
2017-02-13,2.0899999141693115,1.8799999952316284,1.9500000476837158,1.9199999570846558,164500,1.9199999570846558
2017-02-14,1.9279999732971191,1.850000023841858,1.8899999856948853,1.8700000047683716,243800,1.8700000047683716
2017-02-15,1.9600000381469727,1.8700000047683716,1.8700000047683716,1.9500000476837158,77500,1.9500000476837158
2017-02-16,2.299999952316284,1.9500000476837158,1.9500000476837158,2.240000009536743,204200,2.240000009536743
2017-02-17,2.308000087738037,2.0899999141693115,2.2899999618530273,2.130000114440918,165000,2.130000114440918
2017-02-21,2.180000066757202,2.0899999141693115,2.119999885559082,2.109999895095825,72900,2.109999895095825
2017-02-22,2.109999895095825,1.850000023841858,2.109999895095825,1.899999976158142,224000,1.899999976158142
2017-02-23,1.9700000286102295,1.8609999418258667,1.9299999475479126,1.9700000286102295,108700,1.9700000286102295
2017-02-24,1.9800000190734863,1.8600000143051147,1.9700000286102295,1.9600000381469727,76400,1.9600000381469727
2017-02-27,2.0799999237060547,1.9500000476837158,1.9700000286102295,2.069999933242798,83300,2.069999933242798
2017-02-28,2.1500000953674316,1.9800000190734863,2.049999952316284,2.0,233900,2.0
2017-03-01,2.0769999027252197,1.9900000095367432,2.0299999713897705,2.0199999809265137,89300,2.0199999809265137
2017-03-02,2.0899999141693115,1.9299999475479126,2.0299999713897705,1.9500000476837158,126400,1.9500000476837158
2017-03-03,1.9600000381469727,1.8799999952316284,1.940000057220459,1.9199999570846558,120800,1.9199999570846558
2017-03-06,1.9500000476837158,1.8600000143051147,1.8899999856948853,1.8899999856948853,87500,1.8899999856948853
2017-03-07,1.909999966621399,1.850000023841858,1.8799999952316284,1.850000023841858,154800,1.850000023841858
2017-03-08,1.9199999570846558,1.7899999618530273,1.8700000047683716,1.8200000524520874,220500,1.8200000524520874
2017-03-09,1.8600000143051147,1.75,1.8300000429153442,1.7999999523162842,131200,1.7999999523162842
2017-03-10,1.9299999475479126,1.7699999809265137,1.9299999475479126,1.7799999713897705,248800,1.7799999713897705
2017-03-13,1.8600000143051147,1.75,1.7699999809265137,1.8200000524520874,173900,1.8200000524520874
2017-03-14,2.069999933242798,1.75,1.7999999523162842,1.9900000095367432,519900,1.9900000095367432
2017-03-15,2.130000114440918,1.809999942779541,2.049999952316284,1.8799999952316284,315500,1.8799999952316284
2017-03-16,1.9800000190734863,1.8200000524520874,1.899999976158142,1.899999976158142,93300,1.899999976158142
2017-03-17,2.0899999141693115,1.8300000429153442,1.8600000143051147,1.9500000476837158,167000,1.9500000476837158
2017-03-20,1.9800000190734863,1.8799999952316284,1.9299999475479126,1.9299999475479126,114400,1.9299999475479126
2017-03-21,1.9800000190734863,1.8300000429153442,1.940000057220459,1.8300000429153442,111500,1.8300000429153442
2017-03-22,1.9299999475479126,1.809999942779541,1.850000023841858,1.8700000047683716,142100,1.8700000047683716
2017-03-23,1.871999979019165,1.7999999523162842,1.8600000143051147,1.850000023841858,54200,1.850000023841858
2017-03-24,1.8700000047683716,1.809999942779541,1.8700000047683716,1.8200000524520874,53200,1.8200000524520874
2017-03-27,1.8799999952316284,1.7999999523162842,1.7999999523162842,1.8700000047683716,32000,1.8700000047683716
2017-03-28,1.930999994277954,1.8200000524520874,1.850000023841858,1.8799999952316284,84000,1.8799999952316284
2017-03-29,1.9900000095367432,1.8600000143051147,1.8600000143051147,1.9199999570846558,187600,1.9199999570846558
2017-03-30,2.0,1.8799999952316284,1.899999976158142,1.9600000381469727,78200,1.9600000381469727
2017-03-31,2.069999933242798,1.8899999856948853,1.9800000190734863,2.059999942779541,184400,2.059999942779541
2017-04-03,2.2200000286102295,2.0299999713897705,2.0999999046325684,2.0799999237060547,267300,2.0799999237060547
2017-04-04,2.1459999084472656,1.9500000476837158,2.1459999084472656,1.9900000095367432,172300,1.9900000095367432
2017-04-05,2.0,1.8799999952316284,2.0,1.8899999856948853,148300,1.8899999856948853
2017-04-06,2.4000000953674316,1.850000023841858,2.390000104904175,1.8700000047683716,335300,1.8700000047683716
2017-04-07,1.940000057220459,1.815000057220459,1.8700000047683716,1.8700000047683716,99000,1.8700000047683716
2017-04-10,2.049999952316284,1.8300000429153442,2.0199999809265137,1.8600000143051147,110000,1.8600000143051147
2017-04-11,1.9600000381469727,1.8200000524520874,1.8600000143051147,1.8600000143051147,113000,1.8600000143051147
2017-04-12,1.9299999475479126,1.8200000524520874,1.840000033378601,1.8700000047683716,77200,1.8700000047683716
2017-04-13,1.9299999475479126,1.8600000143051147,1.8600000143051147,1.909999966621399,98000,1.909999966621399
2017-04-17,1.9600000381469727,1.8700000047683716,1.940000057220459,1.9299999475479126,123900,1.9299999475479126
2017-04-18,1.9700000286102295,1.9119999408721924,1.940000057220459,1.9500000476837158,67300,1.9500000476837158
2017-04-19,2.0299999713897705,1.940000057220459,1.940000057220459,2.0,99500,2.0
2017-04-20,2.0399999618530273,1.9600000381469727,1.9900000095367432,2.0299999713897705,107400,2.0299999713897705
2017-04-21,2.0299999713897705,1.9199999570846558,2.0299999713897705,1.940000057220459,133800,1.940000057220459
2017-04-24,1.940000057220459,1.8899999856948853,1.940000057220459,1.940000057220459,65300,1.940000057220459
2017-04-25,2.0,1.9500000476837158,1.9600000381469727,1.9700000286102295,63800,1.9700000286102295
2017-04-26,1.975000023841858,1.940000057220459,1.9700000286102295,1.9700000286102295,84100,1.9700000286102295
2017-04-27,2.009999990463257,1.940000057220459,1.9600000381469727,2.0,94700,2.0
2017-04-28,2.009999990463257,1.9500000476837158,1.9800000190734863,2.0,67300,2.0
2017-05-01,2.059999942779541,1.9850000143051147,2.0,2.0199999809265137,95900,2.0199999809265137
2017-05-02,2.109999895095825,2.0199999809265137,2.0199999809265137,2.069999933242798,115900,2.069999933242798
2017-05-03,2.0999999046325684,2.0299999713897705,2.0999999046325684,2.059999942779541,241700,2.059999942779541
2017-05-04,2.109999895095825,2.0299999713897705,2.059999942779541,2.0999999046325684,144000,2.0999999046325684
2017-05-05,2.1500000953674316,2.0199999809265137,2.0999999046325684,2.0999999046325684,47100,2.0999999046325684
2017-05-08,2.140000104904175,1.9800000190734863,2.109999895095825,2.0799999237060547,160800,2.0799999237060547
2017-05-09,2.117000102996826,2.0299999713897705,2.0799999237060547,2.059999942779541,51400,2.059999942779541
2017-05-10,2.0959999561309814,2.0399999618530273,2.049999952316284,2.059999942779541,130100,2.059999942779541
2017-05-11,2.0799999237060547,2.0399999618530273,2.0399999618530273,2.069999933242798,48600,2.069999933242798
2017-05-12,2.0989999771118164,2.059999942779541,2.059999942779541,2.069999933242798,28200,2.069999933242798
2017-05-15,2.119999885559082,2.0299999713897705,2.069999933242798,2.069999933242798,81100,2.069999933242798
2017-05-16,2.0899999141693115,2.0299999713897705,2.0899999141693115,2.0799999237060547,42600,2.0799999237060547
2017-05-17,2.0999999046325684,2.0199999809265137,2.059999942779541,2.059999942779541,120100,2.059999942779541
2017-05-18,2.0859999656677246,2.0,2.049999952316284,2.069999933242798,101100,2.069999933242798
2017-05-19,2.0999999046325684,2.059999942779541,2.0999999046325684,2.0799999237060547,59700,2.0799999237060547
2017-05-22,2.0999999046325684,2.0399999618530273,2.069999933242798,2.0899999141693115,46400,2.0899999141693115
2017-05-23,2.0920000076293945,2.049999952316284,2.0799999237060547,2.069999933242798,46000,2.069999933242798
2017-05-24,2.0999999046325684,2.049999952316284,2.069999933242798,2.0999999046325684,70700,2.0999999046325684
2017-05-25,2.2209999561309814,2.0950000286102295,2.140000104904175,2.119999885559082,251100,2.119999885559082
2017-05-26,2.1700000762939453,2.0999999046325684,2.130000114440918,2.109999895095825,25400,2.109999895095825
2017-05-30,2.119999885559082,2.0899999141693115,2.109999895095825,2.0999999046325684,73200,2.0999999046325684
2017-05-31,2.1600000858306885,2.0899999141693115,2.109999895095825,2.109999895095825,81200,2.109999895095825
2017-06-01,2.200000047683716,2.0929999351501465,2.109999895095825,2.1500000953674316,26500,2.1500000953674316
2017-06-02,2.24399995803833,2.140000104904175,2.1700000762939453,2.1600000858306885,45100,2.1600000858306885
2017-06-05,2.200000047683716,1.9800000190734863,2.1700000762939453,1.9900000095367432,81500,1.9900000095367432
2017-06-06,2.0999999046325684,1.899999976158142,1.9700000286102295,2.059999942779541,153200,2.059999942779541
2017-06-07,2.109999895095825,2.0,2.0399999618530273,2.009999990463257,29300,2.009999990463257
2017-06-08,2.049999952316284,2.009999990463257,2.0199999809265137,2.0299999713897705,43500,2.0299999713897705
2017-06-09,2.0799999237060547,2.0,2.049999952316284,2.0299999713897705,64500,2.0299999713897705
2017-06-12,2.0799999237060547,1.9900000095367432,2.0399999618530273,2.0,70700,2.0
2017-06-13,2.0799999237060547,2.0,2.0,2.069999933242798,28100,2.069999933242798
2017-06-14,2.180000066757202,2.0399999618530273,2.0799999237060547,2.1600000858306885,87100,2.1600000858306885
2017-06-15,2.1700000762939453,2.0799999237060547,2.140000104904175,2.0999999046325684,26600,2.0999999046325684
2017-06-16,2.0999999046325684,2.0399999618530273,2.059999942779541,2.0399999618530273,76500,2.0399999618530273
2017-06-19,2.180000066757202,2.0399999618530273,2.0420000553131104,2.1500000953674316,43300,2.1500000953674316
2017-06-20,2.2200000286102295,2.0999999046325684,2.130000114440918,2.200000047683716,72700,2.200000047683716
2017-06-21,2.4600000381469727,2.2100000381469727,2.2100000381469727,2.4200000762939453,444700,2.4200000762939453
2017-06-22,2.5799999237060547,2.309999942779541,2.4000000953674316,2.5299999713897705,168100,2.5299999713897705
2017-06-23,2.5799999237060547,2.240000009536743,2.569999933242798,2.2899999618530273,2003300,2.2899999618530273
2017-06-26,2.2899999618530273,2.184999942779541,2.2899999618530273,2.2300000190734863,121800,2.2300000190734863
2017-06-27,2.25,2.1510000228881836,2.2300000190734863,2.1600000858306885,103900,2.1600000858306885
2017-06-28,2.2200000286102295,2.059999942779541,2.1600000858306885,2.180000066757202,175300,2.180000066757202
2017-06-29,2.2300000190734863,2.0199999809265137,2.1600000858306885,2.0199999809265137,174600,2.0199999809265137
2017-06-30,2.140000104904175,2.0,2.049999952316284,2.069999933242798,78500,2.069999933242798
2017-07-03,2.130000114440918,2.049999952316284,2.059999942779541,2.049999952316284,33400,2.049999952316284
2017-07-05,2.0360000133514404,2.009999990463257,2.0299999713897705,2.009999990463257,46700,2.009999990463257
2017-07-06,2.0299999713897705,1.899999976158142,2.009999990463257,1.9199999570846558,151100,1.9199999570846558
2017-07-07,1.9600000381469727,1.899999976158142,1.940000057220459,1.909999966621399,29600,1.909999966621399
2017-07-10,1.9199999570846558,1.75,1.899999976158142,1.7899999618530273,257800,1.7899999618530273
2017-07-11,1.8899999856948853,1.7799999713897705,1.7999999523162842,1.8200000524520874,162000,1.8200000524520874
2017-07-12,1.8799999952316284,1.809999942779541,1.850000023841858,1.809999942779541,53500,1.809999942779541
2017-07-13,1.850000023841858,1.7899999618530273,1.8200000524520874,1.809999942779541,136400,1.809999942779541
2017-07-14,1.8600000143051147,1.7699999809265137,1.7999999523162842,1.7799999713897705,75400,1.7799999713897705
2017-07-17,1.8600000143051147,1.7599999904632568,1.8600000143051147,1.7799999713897705,93500,1.7799999713897705
2017-07-18,1.7949999570846558,1.75,1.7799999713897705,1.7599999904632568,67000,1.7599999904632568
2017-07-19,1.7990000247955322,1.7200000286102295,1.7599999904632568,1.7200000286102295,101600,1.7200000286102295
2017-07-20,1.7599999904632568,1.6799999475479126,1.7200000286102295,1.690000057220459,183500,1.690000057220459
2017-07-21,2.180000066757202,1.7200000286102295,1.8200000524520874,1.8200000524520874,1058900,1.8200000524520874
2017-07-24,1.9500000476837158,1.7640000581741333,1.8600000143051147,1.8700000047683716,127900,1.8700000047683716
2017-07-25,1.9700000286102295,1.7899999618530273,1.8600000143051147,1.9500000476837158,106400,1.9500000476837158
2017-07-26,1.9700000286102295,1.8700000047683716,1.9700000286102295,1.8799999952316284,35700,1.8799999952316284
2017-07-27,1.9299999475479126,1.7999999523162842,1.899999976158142,1.899999976158142,90700,1.899999976158142
2017-07-28,2.009999990463257,1.809999942779541,1.8899999856948853,1.9199999570846558,42600,1.9199999570846558
2017-07-31,1.9500000476837158,1.840000033378601,1.9500000476837158,1.840000033378601,86700,1.840000033378601
2017-08-01,1.8600000143051147,1.809999942779541,1.850000023841858,1.8300000429153442,34900,1.8300000429153442
2017-08-02,1.8480000495910645,1.7699999809265137,1.8300000429153442,1.7699999809265137,37100,1.7699999809265137
2017-08-03,1.8140000104904175,1.7300000190734863,1.8140000104904175,1.7599999904632568,40400,1.7599999904632568
2017-08-04,1.8799999952316284,1.7000000476837158,1.75,1.8700000047683716,83700,1.8700000047683716
2017-08-07,1.850000023841858,1.7200000286102295,1.850000023841858,1.7699999809265137,62600,1.7699999809265137
2017-08-08,1.7899999618530273,1.7200000286102295,1.7699999809265137,1.7200000286102295,57300,1.7200000286102295
2017-08-09,1.7860000133514404,1.600000023841858,1.7000000476837158,1.6200000047683716,113200,1.6200000047683716
2017-08-10,1.75,1.6200000047683716,1.649999976158142,1.75,90200,1.75
2017-08-11,1.75,1.649999976158142,1.7000000476837158,1.6799999475479126,24400,1.6799999475479126
2017-08-14,1.75,1.6699999570846558,1.6699999570846558,1.7000000476837158,19200,1.7000000476837158
2017-08-15,1.7300000190734863,1.6699999570846558,1.690000057220459,1.7200000286102295,42800,1.7200000286102295
2017-08-16,1.7400000095367432,1.659999966621399,1.7100000381469727,1.7200000286102295,19100,1.7200000286102295
2017-08-17,1.74399995803833,1.6699999570846558,1.7300000190734863,1.6699999570846558,22100,1.6699999570846558
2017-08-18,1.6799999475479126,1.6299999952316284,1.649999976158142,1.6699999570846558,28700,1.6699999570846558
2017-08-21,1.7990000247955322,1.559999942779541,1.7100000381469727,1.590000033378601,79200,1.590000033378601
2017-08-22,1.6299999952316284,1.5199999809265137,1.6200000047683716,1.5399999618530273,53400,1.5399999618530273
2017-08-23,1.590000033378601,1.4600000381469727,1.5199999809265137,1.4600000381469727,73100,1.4600000381469727
2017-08-24,1.5,1.309999942779541,1.4500000476837158,1.340000033378601,275300,1.340000033378601
2017-08-25,1.399999976158142,1.2000000476837158,1.399999976158142,1.2699999809265137,213300,1.2699999809265137
2017-08-28,1.2899999618530273,1.190000057220459,1.2599999904632568,1.190000057220459,179200,1.190000057220459
2017-08-29,1.4800000190734863,1.1480000019073486,1.1799999475479126,1.340000033378601,141200,1.340000033378601
2017-08-30,1.4299999475479126,1.2599999904632568,1.309999942779541,1.2599999904632568,59600,1.2599999904632568
2017-08-31,1.4249999523162842,1.2699999809265137,1.2699999809265137,1.3300000429153442,174800,1.3300000429153442
2017-09-01,2.4700000286102295,2.049999952316284,2.4200000762939453,2.109999895095825,10691600,2.109999895095825
2017-09-05,2.4000000953674316,2.049999952316284,2.109999895095825,2.1700000762939453,3458500,2.1700000762939453
2017-09-06,2.190000057220459,1.850000023841858,2.130000114440918,1.940000057220459,1302900,1.940000057220459
2017-09-07,1.9830000400543213,1.815000057220459,1.9600000381469727,1.8899999856948853,760200,1.8899999856948853
2017-09-08,1.899999976158142,1.7999999523162842,1.899999976158142,1.850000023841858,462500,1.850000023841858
2017-09-11,1.9800000190734863,1.809999942779541,1.8600000143051147,1.8600000143051147,459100,1.8600000143051147
2017-09-12,1.871000051498413,1.7000000476837158,1.850000023841858,1.7699999809265137,522100,1.7699999809265137
2017-09-13,1.8300000429153442,1.7100000381469727,1.75,1.809999942779541,316900,1.809999942779541
2017-09-14,1.9500000476837158,1.777999997138977,1.7999999523162842,1.909999966621399,406800,1.909999966621399
2017-09-15,2.109999895095825,1.909999966621399,1.9199999570846558,2.109999895095825,708800,2.109999895095825
2017-09-18,2.119999885559082,2.009999990463257,2.109999895095825,2.0299999713897705,259600,2.0299999713897705
2017-09-19,2.0799999237060547,2.0,2.0199999809265137,2.0399999618530273,152300,2.0399999618530273
2017-09-20,2.0799999237060547,1.9800000190734863,2.049999952316284,1.9900000095367432,152500,1.9900000095367432
2017-09-21,2.0190000534057617,1.9149999618530273,2.009999990463257,1.9500000476837158,95900,1.9500000476837158
2017-09-22,2.0,1.909999966621399,1.940000057220459,1.9500000476837158,84500,1.9500000476837158
2017-09-25,2.13100004196167,1.9199999570846558,1.9199999570846558,2.0299999713897705,284500,2.0299999713897705
2017-09-26,2.1700000762939453,2.0460000038146973,2.069999933242798,2.130000114440918,249900,2.130000114440918
2017-09-27,2.240000009536743,2.119999885559082,2.130000114440918,2.2100000381469727,279400,2.2100000381469727
2017-09-28,2.250999927520752,2.134000062942505,2.190000057220459,2.1600000858306885,273000,2.1600000858306885
2017-09-29,2.430000066757202,2.2300000190734863,2.3499999046325684,2.2899999618530273,846500,2.2899999618530273
2017-10-02,2.369999885559082,2.1500000953674316,2.25,2.200000047683716,265000,2.200000047683716
2017-10-03,2.259999990463257,2.1600000858306885,2.190000057220459,2.240000009536743,153500,2.240000009536743
2017-10-04,2.444999933242798,2.2200000286102295,2.2200000286102295,2.319999933242798,417700,2.319999933242798
2017-10-05,3.8499999046325684,2.700000047683716,2.799999952316284,2.7300000190734863,19961900,2.7300000190734863
2017-10-06,2.9000000953674316,2.549999952316284,2.700000047683716,2.700000047683716,1072900,2.700000047683716
2017-10-09,2.759000062942505,2.5,2.7300000190734863,2.5199999809265137,532300,2.5199999809265137
2017-10-10,2.631999969482422,2.450000047683716,2.549999952316284,2.630000114440918,470400,2.630000114440918
2017-10-11,2.7699999809265137,2.5,2.630000114440918,2.5799999237060547,380800,2.5799999237060547
2017-10-12,2.559999942779541,2.450000047683716,2.549999952316284,2.4700000286102295,219000,2.4700000286102295
2017-10-13,2.549999952316284,2.3499999046325684,2.4600000381469727,2.430000066757202,233900,2.430000066757202
2017-10-16,2.509999990463257,2.25,2.4100000858306885,2.2799999713897705,378800,2.2799999713897705
2017-10-17,2.5,2.25,2.259999990463257,2.4100000858306885,333000,2.4100000858306885
2017-10-18,2.5,2.2899999618530273,2.4000000953674316,2.319999933242798,273600,2.319999933242798
2017-10-19,2.4200000762939453,2.2899999618530273,2.319999933242798,2.380000114440918,208700,2.380000114440918
2017-10-20,2.4700000286102295,2.3399999141693115,2.390000104904175,2.359999895095825,203500,2.359999895095825
2017-10-23,2.369999885559082,2.2899999618530273,2.3399999141693115,2.309999942779541,131700,2.309999942779541
2017-10-24,2.4700000286102295,2.2899999618530273,2.2899999618530273,2.430000066757202,222600,2.430000066757202
2017-10-25,2.5799999237060547,2.380000114440918,2.450000047683716,2.4200000762939453,266300,2.4200000762939453
2017-10-26,2.6700000762939453,2.4200000762939453,2.4200000762939453,2.6700000762939453,494900,2.6700000762939453
2017-10-27,2.9000000953674316,2.5399999618530273,2.5999999046325684,2.7799999713897705,498400,2.7799999713897705
2017-10-30,3.0999999046325684,2.5,2.8399999141693115,2.630000114440918,739900,2.630000114440918
2017-10-31,2.880000114440918,2.5299999713897705,2.609999895095825,2.8550000190734863,313100,2.8550000190734863
2017-11-01,2.938999891281128,2.759999990463257,2.8499999046325684,2.7699999809265137,149500,2.7699999809265137
2017-11-02,2.759999990463257,2.619999885559082,2.7100000381469727,2.6700000762939453,104500,2.6700000762939453
2017-11-03,2.819999933242798,2.5999999046325684,2.630000114440918,2.7799999713897705,155300,2.7799999713897705
2017-11-06,3.1500000953674316,2.802000045776367,2.8299999237060547,3.109999895095825,572400,3.109999895095825
2017-11-07,3.130000114440918,2.8499999046325684,3.119999885559082,2.880000114440918,289100,2.880000114440918
2017-11-08,2.9800000190734863,2.75,2.890000104904175,2.859999895095825,177800,2.859999895095825
2017-11-09,3.0929999351501465,2.819999933242798,2.869999885559082,3.0399999618530273,232100,3.0399999618530273
2017-11-10,3.130000114440918,2.819999933242798,3.130000114440918,3.0199999809265137,380200,3.0199999809265137
2017-11-13,3.0,2.5999999046325684,3.0,2.640000104904175,463300,2.640000104904175
2017-11-14,2.7200000286102295,2.5999999046325684,2.6500000953674316,2.630000114440918,170200,2.630000114440918
2017-11-15,2.950000047683716,2.5399999618530273,2.609999895095825,2.75,323500,2.75
2017-11-16,2.890000104904175,2.7100000381469727,2.7300000190734863,2.8499999046325684,155000,2.8499999046325684
2017-11-17,2.930000066757202,2.819999933242798,2.819999933242798,2.869999885559082,194300,2.869999885559082
2017-11-20,2.9700000286102295,2.7799999713897705,2.819999933242798,2.8499999046325684,120900,2.8499999046325684
2017-11-21,2.9600000381469727,2.799999952316284,2.880000114440918,2.890000104904175,98300,2.890000104904175
2017-11-22,3.0999999046325684,2.880000114440918,2.9000000953674316,3.059999942779541,217800,3.059999942779541
2017-11-24,3.0999999046325684,3.0,3.059999942779541,3.0999999046325684,35700,3.0999999046325684
2017-11-27,3.0899999141693115,2.940000057220459,3.0899999141693115,2.9700000286102295,113800,2.9700000286102295
2017-11-28,3.0199999809265137,2.950000047683716,3.0,2.9700000286102295,138200,2.9700000286102295
2017-11-29,3.0199999809265137,2.9010000228881836,2.9800000190734863,2.9800000190734863,117500,2.9800000190734863
2017-11-30,3.0799999237060547,2.9600000381469727,3.0399999618530273,3.009999990463257,219700,3.009999990463257
2017-12-01,3.0299999713897705,2.880000114440918,3.0199999809265137,2.990000009536743,135200,2.990000009536743
2017-12-04,3.703000068664551,2.9800000190734863,3.0,3.450000047683716,1965600,3.450000047683716
2017-12-05,3.6500000953674316,3.4000000953674316,3.4700000286102295,3.4800000190734863,384600,3.4800000190734863
2017-12-06,3.7799999713897705,3.450000047683716,3.5,3.75,410300,3.75
2017-12-07,3.880000114440918,3.571000099182129,3.7100000381469727,3.7699999809265137,331500,3.7699999809265137
2017-12-08,4.5,3.8299999237060547,3.8299999237060547,4.230000019073486,985600,4.230000019073486
2017-12-11,4.369999885559082,3.559999942779541,4.340000152587891,3.990000009536743,436800,3.990000009536743
2017-12-12,4.170000076293945,3.8399999141693115,4.059999942779541,3.9000000953674316,248800,3.9000000953674316
2017-12-13,4.260000228881836,3.9000000953674316,3.9000000953674316,4.190000057220459,304900,4.190000057220459
2017-12-14,4.360000133514404,3.9700000286102295,4.190000057220459,3.9800000190734863,224700,3.9800000190734863
2017-12-15,4.25,4.004000186920166,4.050000190734863,4.179999828338623,130300,4.179999828338623
2017-12-18,4.25,3.9200000762939453,4.239999771118164,4.070000171661377,203800,4.070000171661377
2017-12-19,4.179999828338623,3.940999984741211,4.03000020980835,4.010000228881836,177900,4.010000228881836
2017-12-20,4.170000076293945,3.9670000076293945,3.9800000190734863,4.130000114440918,76700,4.130000114440918
2017-12-21,4.329999923706055,4.099999904632568,4.170000076293945,4.239999771118164,172300,4.239999771118164
2017-12-22,4.300000190734863,4.120999813079834,4.300000190734863,4.179999828338623,109700,4.179999828338623
2017-12-26,4.300000190734863,4.179999828338623,4.179999828338623,4.260000228881836,62200,4.260000228881836
2017-12-27,4.340000152587891,4.170000076293945,4.25,4.190000057220459,127800,4.190000057220459
2017-12-28,4.320000171661377,4.119999885559082,4.179999828338623,4.230000019073486,154100,4.230000019073486
2017-12-29,4.320000171661377,4.195000171661377,4.230000019073486,4.239999771118164,118000,4.239999771118164
2018-01-02,4.820000171661377,4.190000057220459,4.230000019073486,4.75,586000,4.75
2018-01-03,4.849999904632568,4.35099983215332,4.840000152587891,4.650000095367432,352100,4.650000095367432
2018-01-04,4.789999961853027,4.414999961853027,4.639999866485596,4.659999847412109,143600,4.659999847412109
2018-01-05,4.809999942779541,4.5,4.650000095367432,4.679999828338623,171100,4.679999828338623
2018-01-08,4.610000133514404,4.116000175476074,4.449999809265137,4.28000020980835,247400,4.28000020980835
2018-01-09,4.449999809265137,4.28000020980835,4.289999961853027,4.400000095367432,129600,4.400000095367432
2018-01-10,4.579999923706055,4.320000171661377,4.46999979019165,4.519999980926514,105600,4.519999980926514
2018-01-11,4.659999847412109,4.420000076293945,4.579999923706055,4.46999979019165,114700,4.46999979019165
2018-01-12,4.679999828338623,4.389999866485596,4.5,4.400000095367432,131900,4.400000095367432
2018-01-16,4.389999866485596,3.059999942779541,4.329999923706055,3.1449999809265137,1403800,3.1449999809265137
2018-01-17,3.6600000858306885,3.2200000286102295,3.319999933242798,3.4600000381469727,677100,3.4600000381469727
2018-01-18,3.5,3.1500000953674316,3.5,3.3399999141693115,259600,3.3399999141693115
2018-01-19,3.430000066757202,3.299999952316284,3.309999942779541,3.3299999237060547,177600,3.3299999237060547
2018-01-22,3.5999999046325684,3.308000087738037,3.3299999237060547,3.569999933242798,188300,3.569999933242798
2018-01-23,3.6700000762939453,3.450000047683716,3.5999999046325684,3.5199999809265137,157200,3.5199999809265137
2018-01-24,3.5999999046325684,3.2200000286102295,3.5999999046325684,3.4000000953674316,276400,3.4000000953674316
2018-01-25,3.4700000286102295,3.299999952316284,3.440000057220459,3.3499999046325684,111400,3.3499999046325684
2018-01-26,3.4000000953674316,3.3299999237060547,3.3499999046325684,3.369999885559082,131300,3.369999885559082
2018-01-29,3.640000104904175,3.430000066757202,3.430000066757202,3.619999885559082,211900,3.619999885559082
2018-01-30,3.7300000190734863,3.369999885559082,3.640000104904175,3.4000000953674316,147500,3.4000000953674316
2018-01-31,3.5,3.319999933242798,3.450000047683716,3.390000104904175,104300,3.390000104904175
2018-02-01,3.440000057220459,3.2899999618530273,3.4100000858306885,3.369999885559082,86200,3.369999885559082
2018-02-02,3.369999885559082,3.109999895095825,3.3299999237060547,3.240000009536743,168700,3.240000009536743
2018-02-05,3.240000009536743,3.0,3.190000057220459,3.059999942779541,213500,3.059999942779541
2018-02-06,3.1700000762939453,2.9200000762939453,3.0,3.0,226600,3.0
2018-02-07,3.2300000190734863,2.9600000381469727,3.0299999713897705,3.180000066757202,203200,3.180000066757202
2018-02-08,3.2100000381469727,3.0,3.200000047683716,3.009999990463257,161600,3.009999990463257
2018-02-09,3.1700000762939453,2.9000000953674316,3.059999942779541,3.0799999237060547,140400,3.0799999237060547
2018-02-12,3.309999942779541,3.0209999084472656,3.0799999237060547,3.1500000953674316,75200,3.1500000953674316
2018-02-13,3.2799999713897705,3.0799999237060547,3.119999885559082,3.2699999809265137,47400,3.2699999809265137
2018-02-14,3.390000104904175,3.2149999141693115,3.240000009536743,3.359999895095825,50200,3.359999895095825
2018-02-15,3.390000104904175,3.2639999389648438,3.390000104904175,3.309999942779541,47900,3.309999942779541
2018-02-16,3.359999895095825,3.200000047683716,3.200000047683716,3.2899999618530273,64900,3.2899999618530273
2018-02-20,3.380000114440918,3.2279999256134033,3.259999990463257,3.259999990463257,62500,3.259999990463257
2018-02-21,3.359999895095825,3.119999885559082,3.2699999809265137,3.140000104904175,117400,3.140000104904175
2018-02-22,3.3299999237060547,3.1700000762939453,3.1700000762939453,3.2699999809265137,105400,3.2699999809265137
2018-02-23,3.299999952316284,3.1500000953674316,3.2899999618530273,3.2799999713897705,51500,3.2799999713897705
2018-02-26,3.369999885559082,3.2009999752044678,3.2799999713897705,3.299999952316284,100400,3.299999952316284
2018-02-27,3.380000114440918,3.180000066757202,3.309999942779541,3.3399999141693115,117100,3.3399999141693115
2018-02-28,3.3299999237060547,3.1500000953674316,3.3299999237060547,3.1700000762939453,106300,3.1700000762939453
2018-03-01,3.2300000190734863,2.9600000381469727,3.190000057220459,3.0399999618530273,132900,3.0399999618530273
2018-03-02,3.2300000190734863,2.9800000190734863,2.990000009536743,3.190000057220459,147300,3.190000057220459
2018-03-05,3.2699999809265137,3.059999942779541,3.180000066757202,3.140000104904175,57500,3.140000104904175
2018-03-06,3.1500000953674316,2.990000009536743,3.109999895095825,3.0399999618530273,101900,3.0399999618530273
2018-03-07,3.0999999046325684,2.9700000286102295,3.0,3.0799999237060547,100600,3.0799999237060547
2018-03-08,3.119999885559082,2.9700000286102295,3.069999933242798,3.009999990463257,89600,3.009999990463257
2018-03-09,3.1700000762939453,2.990000009536743,3.0299999713897705,3.130000114440918,194000,3.130000114440918
2018-03-12,3.299999952316284,3.0999999046325684,3.1500000953674316,3.2200000286102295,90600,3.2200000286102295
2018-03-13,3.450000047683716,3.240000009536743,3.240000009536743,3.380000114440918,140800,3.380000114440918
2018-03-14,3.4200000762939453,3.0199999809265137,3.4000000953674316,3.0299999713897705,175100,3.0299999713897705
2018-03-15,3.140000104904175,2.9000000953674316,3.049999952316284,3.0299999713897705,134400,3.0299999713897705
2018-03-16,3.049999952316284,2.9179999828338623,3.049999952316284,2.9600000381469727,140800,2.9600000381469727
2018-03-19,3.0299999713897705,2.7809998989105225,2.950000047683716,2.9200000762939453,261900,2.9200000762939453
2018-03-20,3.0299999713897705,2.8499999046325684,2.940000057220459,2.859999895095825,74800,2.859999895095825
2018-03-21,3.180000066757202,2.859999895095825,2.859999895095825,3.069999933242798,188000,3.069999933242798
2018-03-22,3.1600000858306885,2.9749999046325684,3.009999990463257,2.9800000190734863,119600,2.9800000190734863
2018-03-23,3.109999895095825,2.9100000858306885,2.990000009536743,3.049999952316284,104500,3.049999952316284
2018-03-26,3.2699999809265137,3.046999931335449,3.0999999046325684,3.200000047683716,105000,3.200000047683716
2018-03-27,3.2709999084472656,2.9200000762939453,3.134000062942505,3.2200000286102295,135200,3.2200000286102295
2018-03-28,3.4100000858306885,3.140000104904175,3.240000009536743,3.359999895095825,237200,3.359999895095825
2018-03-29,3.619999885559082,3.259999990463257,3.359999895095825,3.2699999809265137,137000,3.2699999809265137
2018-04-02,3.2300000190734863,3.119999885559082,3.2300000190734863,3.1600000858306885,113000,3.1600000858306885
2018-04-03,3.369999885559082,3.180000066757202,3.180000066757202,3.319999933242798,81400,3.319999933242798
2018-04-04,3.5,3.119999885559082,3.2699999809265137,3.4800000190734863,168600,3.4800000190734863
2018-04-05,3.5299999713897705,3.369999885559082,3.5299999713897705,3.430000066757202,35900,3.430000066757202
2018-04-06,3.4100000858306885,3.119999885559082,3.2699999809265137,3.1700000762939453,338700,3.1700000762939453
2018-04-09,3.359999895095825,3.109999895095825,3.190000057220459,3.299999952316284,66600,3.299999952316284
2018-04-10,3.4600000381469727,3.2799999713897705,3.3399999141693115,3.2799999713897705,91800,3.2799999713897705
2018-04-11,3.8320000171661377,3.4570000171661377,3.549999952316284,3.7899999618530273,533600,3.7899999618530273
2018-04-12,4.28000020980835,3.7799999713897705,3.799999952316284,4.099999904632568,401700,4.099999904632568
2018-04-13,4.190000057220459,3.684999942779541,4.150000095367432,3.7799999713897705,280300,3.7799999713897705
2018-04-16,4.650000095367432,3.9200000762939453,4.0,4.460000038146973,443500,4.460000038146973
2018-04-17,4.5,4.21999979019165,4.5,4.309999942779541,188200,4.309999942779541
2018-04-18,4.539999961853027,4.21999979019165,4.28000020980835,4.460000038146973,268600,4.460000038146973
2018-04-19,4.5,4.28000020980835,4.449999809265137,4.300000190734863,104400,4.300000190734863
2018-04-20,4.460000038146973,4.119999885559082,4.309999942779541,4.28000020980835,112900,4.28000020980835
2018-04-23,4.448999881744385,4.120999813079834,4.260000228881836,4.190000057220459,71600,4.190000057220459
2018-04-24,4.309999942779541,4.079999923706055,4.230000019073486,4.199999809265137,80700,4.199999809265137
2018-04-25,4.289999961853027,4.079999923706055,4.170000076293945,4.21999979019165,52600,4.21999979019165
2018-04-26,4.5,4.099999904632568,4.21999979019165,4.440000057220459,168100,4.440000057220459
2018-04-27,4.5,4.349999904632568,4.46999979019165,4.420000076293945,78900,4.420000076293945
2018-04-30,4.489999771118164,4.2129998207092285,4.449999809265137,4.429999828338623,141000,4.429999828338623
2018-05-01,4.460000038146973,4.300000190734863,4.449999809265137,4.349999904632568,142200,4.349999904632568
2018-05-02,4.480000019073486,4.320000171661377,4.320000171661377,4.380000114440918,79400,4.380000114440918
2018-05-03,4.449999809265137,4.039999961853027,4.340000152587891,4.119999885559082,116300,4.119999885559082
2018-05-04,4.349999904632568,4.039999961853027,4.159999847412109,4.28000020980835,76100,4.28000020980835
2018-05-07,4.449999809265137,4.25,4.28000020980835,4.340000152587891,96000,4.340000152587891
2018-05-08,4.449999809265137,4.127999782562256,4.389999866485596,4.210000038146973,133100,4.210000038146973
2018-05-09,4.431000232696533,4.228000164031982,4.230000019073486,4.360000133514404,55900,4.360000133514404
2018-05-10,5.25,4.360000133514404,4.400000095367432,4.980000019073486,713900,4.980000019073486
2018-05-11,5.099999904632568,4.869999885559082,5.019999980926514,4.989999771118164,232000,4.989999771118164
2018-05-14,5.110000133514404,4.940000057220459,5.0,4.96999979019165,198000,4.96999979019165
2018-05-15,5.869999885559082,5.0,5.099999904632568,5.820000171661377,666100,5.820000171661377
2018-05-16,6.059999942779541,5.570000171661377,5.800000190734863,5.670000076293945,498000,5.670000076293945
2018-05-17,6.349999904632568,5.622000217437744,5.650000095367432,5.940000057220459,490800,5.940000057220459
2018-05-18,6.090000152587891,5.599999904632568,5.949999809265137,5.670000076293945,306600,5.670000076293945
2018-05-21,5.670000076293945,5.050000190734863,5.670000076293945,5.610000133514404,232100,5.610000133514404
2018-05-22,5.900000095367432,5.489999771118164,5.639999866485596,5.639999866485596,102200,5.639999866485596
2018-05-23,5.8520002365112305,5.53000020980835,5.630000114440918,5.550000190734863,123300,5.550000190734863
2018-05-24,5.686999797821045,5.420000076293945,5.550000190734863,5.460000038146973,88100,5.460000038146973
2018-05-25,5.570000171661377,5.289999961853027,5.489999771118164,5.429999828338623,73500,5.429999828338623
2018-05-29,5.670000076293945,5.420000076293945,5.420000076293945,5.489999771118164,109200,5.489999771118164
2018-05-30,5.789999961853027,5.400000095367432,5.510000228881836,5.440000057220459,99300,5.440000057220459
2018-05-31,5.71999979019165,5.440000057220459,5.440000057220459,5.559999942779541,87800,5.559999942779541
2018-06-01,5.659999847412109,5.460000038146973,5.619999885559082,5.489999771118164,120600,5.489999771118164
2018-06-04,5.599999904632568,5.269999980926514,5.519999980926514,5.349999904632568,84400,5.349999904632568
2018-06-05,5.519999980926514,5.230000019073486,5.519999980926514,5.329999923706055,103400,5.329999923706055
2018-06-06,5.359000205993652,5.059999942779541,5.199999809265137,5.210000038146973,113700,5.210000038146973
2018-06-07,5.289999961853027,5.010000228881836,5.230000019073486,5.090000152587891,109200,5.090000152587891
2018-06-08,5.159999847412109,4.260000228881836,4.989999771118164,5.010000228881836,160600,5.010000228881836
2018-06-11,5.400000095367432,5.050000190734863,5.050000190734863,5.110000133514404,117200,5.110000133514404
2018-06-12,5.302999973297119,5.070000171661377,5.119999885559082,5.070000171661377,89700,5.070000171661377
2018-06-13,5.28000020980835,5.099999904632568,5.130000114440918,5.239999771118164,47400,5.239999771118164
2018-06-14,5.25,4.949999809265137,5.25,5.039999961853027,105600,5.039999961853027
2018-06-15,5.110000133514404,4.821000099182129,5.050000190734863,4.940000057220459,169200,4.940000057220459
2018-06-18,5.099999904632568,4.867000102996826,4.940000057220459,4.980000019073486,83200,4.980000019073486
2018-06-19,4.993000030517578,4.809999942779541,4.96999979019165,4.880000114440918,76300,4.880000114440918
2018-06-20,5.190000057220459,4.840000152587891,4.840000152587891,5.130000114440918,83900,5.130000114440918
2018-06-21,5.909999847412109,5.170000076293945,5.170000076293945,5.650000095367432,992500,5.650000095367432
2018-06-22,5.96999979019165,5.480000019073486,5.599999904632568,5.539999961853027,346900,5.539999961853027
2018-06-25,5.630000114440918,5.21999979019165,5.590000152587891,5.300000190734863,178800,5.300000190734863
2018-06-26,5.669000148773193,5.320000171661377,5.329999923706055,5.510000228881836,213200,5.510000228881836
2018-06-27,5.829999923706055,5.150000095367432,5.550000190734863,5.199999809265137,188600,5.199999809265137
2018-06-28,5.239999771118164,4.920000076293945,5.21999979019165,5.059999942779541,137200,5.059999942779541
2018-06-29,5.170000076293945,4.909999847412109,4.989999771118164,4.989999771118164,106400,4.989999771118164
2018-07-02,5.090000152587891,4.829999923706055,4.96999979019165,5.090000152587891,102700,5.090000152587891
2018-07-03,5.130000114440918,4.929999828338623,5.099999904632568,4.989999771118164,55000,4.989999771118164
2018-07-05,5.090000152587891,4.949999809265137,4.960000038146973,4.960000038146973,91000,4.960000038146973
2018-07-06,5.241000175476074,4.995999813079834,5.0,5.090000152587891,53000,5.090000152587891
2018-07-09,5.340000152587891,5.039999961853027,5.099999904632568,5.170000076293945,109000,5.170000076293945
2018-07-10,5.179999828338623,4.949999809265137,5.179999828338623,5.010000228881836,78000,5.010000228881836
2018-07-11,5.090000152587891,4.931000232696533,5.0,5.079999923706055,46700,5.079999923706055
2018-07-12,5.210000038146973,5.03000020980835,5.110000133514404,5.059999942779541,86500,5.059999942779541
2018-07-13,5.239999771118164,4.96999979019165,5.050000190734863,4.96999979019165,73600,4.96999979019165
2018-07-16,4.96999979019165,4.579999923706055,4.96999979019165,4.590000152587891,138100,4.590000152587891
2018-07-17,4.818999767303467,4.636000156402588,4.690000057220459,4.739999771118164,96300,4.739999771118164
2018-07-18,4.78000020980835,4.320000171661377,4.75,4.730000019073486,177400,4.730000019073486
2018-07-19,4.960000038146973,4.659999847412109,4.789999961853027,4.940000057220459,73600,4.940000057220459
2018-07-20,5.014999866485596,4.804999828338623,4.960000038146973,4.900000095367432,70100,4.900000095367432
2018-07-23,5.090000152587891,4.860000133514404,4.880000114440918,4.940000057220459,105200,4.940000057220459
2018-07-24,5.099999904632568,4.75,4.960000038146973,4.789999961853027,145600,4.789999961853027
2018-07-25,5.090000152587891,4.769999980926514,4.769999980926514,5.050000190734863,119900,5.050000190734863
2018-07-26,5.050000190734863,4.869999885559082,5.0,4.980000019073486,68700,4.980000019073486
2018-07-27,5.070000171661377,4.75,4.949999809265137,4.769999980926514,77000,4.769999980926514
2018-07-30,4.849999904632568,4.260000228881836,4.75,4.389999866485596,281600,4.389999866485596
2018-07-31,4.449999809265137,4.179999828338623,4.349999904632568,4.21999979019165,307000,4.21999979019165
2018-08-01,4.449999809265137,3.7300000190734863,4.010000228881836,4.309999942779541,170700,4.309999942779541
2018-08-02,4.429999828338623,4.130000114440918,4.260000228881836,4.380000114440918,67000,4.380000114440918
2018-08-03,4.480000019073486,4.289999961853027,4.309999942779541,4.449999809265137,91700,4.449999809265137
2018-08-06,4.589000225067139,4.369999885559082,4.429999828338623,4.5,59900,4.5
2018-08-07,4.639999866485596,4.260000228881836,4.409999847412109,4.510000228881836,132000,4.510000228881836
2018-08-08,4.579999923706055,4.263999938964844,4.5,4.5,58300,4.5
2018-08-09,4.699999809265137,4.409999847412109,4.5,4.5,84100,4.5
2018-08-10,5.099999904632568,4.610000133514404,4.610000133514404,4.829999923706055,165100,4.829999923706055
2018-08-13,5.21999979019165,4.78000020980835,4.78000020980835,5.03000020980835,167600,5.03000020980835
2018-08-14,5.539999961853027,4.679999828338623,5.0,5.269999980926514,256800,5.269999980926514
2018-08-15,5.71999979019165,5.199999809265137,5.289999961853027,5.429999828338623,235500,5.429999828338623
2018-08-16,5.769999980926514,5.289999961853027,5.489999771118164,5.630000114440918,189900,5.630000114440918
2018-08-17,5.679999828338623,5.309999942779541,5.659999847412109,5.400000095367432,66300,5.400000095367432
2018-08-20,5.800000190734863,5.210999965667725,5.800000190734863,5.300000190734863,123600,5.300000190734863
2018-08-21,5.369999885559082,5.159999847412109,5.349999904632568,5.190000057220459,50900,5.190000057220459
2018-08-22,5.453000068664551,5.199999809265137,5.210000038146973,5.400000095367432,73000,5.400000095367432
2018-08-23,5.550000190734863,5.349999904632568,5.46999979019165,5.510000228881836,48600,5.510000228881836
2018-08-24,5.579999923706055,5.289999961853027,5.579999923706055,5.340000152587891,63300,5.340000152587891
2018-08-27,5.428999900817871,5.230000019073486,5.329999923706055,5.329999923706055,60200,5.329999923706055
2018-08-28,5.392000198364258,5.210000038146973,5.340000152587891,5.25,31700,5.25
2018-08-29,5.420000076293945,5.21999979019165,5.239999771118164,5.289999961853027,86300,5.289999961853027
2018-08-30,5.690000057220459,5.300000190734863,5.300000190734863,5.489999771118164,160300,5.489999771118164
2018-08-31,5.590000152587891,5.309999942779541,5.550000190734863,5.519999980926514,113300,5.519999980926514
2018-09-04,5.730000019073486,5.400000095367432,5.519999980926514,5.519999980926514,133400,5.519999980926514
2018-09-05,5.670000076293945,5.21999979019165,5.489999771118164,5.440000057220459,109000,5.440000057220459
2018-09-06,5.429999828338623,5.2779998779296875,5.420000076293945,5.340000152587891,44000,5.340000152587891
2018-09-07,5.373000144958496,5.130000114440918,5.309999942779541,5.179999828338623,60400,5.179999828338623
2018-09-10,5.320000171661377,5.019999980926514,5.289999961853027,5.190000057220459,88400,5.190000057220459
2018-09-11,5.25,5.010000228881836,5.010000228881836,5.110000133514404,49900,5.110000133514404
2018-09-12,5.130000114440918,4.925000190734863,5.130000114440918,5.099999904632568,98100,5.099999904632568
2018-09-13,5.099999904632568,4.960000038146973,5.079999923706055,5.03000020980835,47400,5.03000020980835
2018-09-14,5.168000221252441,5.010000228881836,5.03000020980835,5.079999923706055,22200,5.079999923706055
2018-09-17,5.070000171661377,4.630000114440918,5.03000020980835,4.869999885559082,132800,4.869999885559082
2018-09-18,5.199999809265137,4.78000020980835,4.869999885559082,4.829999923706055,87700,4.829999923706055
2018-09-19,5.150000095367432,4.800000190734863,4.940000057220459,5.090000152587891,45800,5.090000152587891
2018-09-20,5.269999980926514,5.010000228881836,5.110000133514404,5.110000133514404,57000,5.110000133514404
2018-09-21,5.144999980926514,4.880000114440918,5.130000114440918,4.949999809265137,62500,4.949999809265137
2018-09-24,5.099999904632568,4.880000114440918,4.909999847412109,5.039999961853027,82100,5.039999961853027
2018-09-25,5.210000038146973,5.0,5.090000152587891,5.090000152587891,61300,5.090000152587891
2018-09-26,5.170000076293945,5.03000020980835,5.130000114440918,5.050000190734863,28300,5.050000190734863
2018-09-27,5.144999980926514,5.0,5.117000102996826,5.050000190734863,39100,5.050000190734863
2018-09-28,5.159999847412109,4.985000133514404,5.0,5.079999923706055,25800,5.079999923706055
2018-10-01,5.139999866485596,4.920000076293945,5.099999904632568,4.940000057220459,45500,4.940000057220459
2018-10-02,5.0,4.519999980926514,4.900000095367432,4.75,116500,4.75
2018-10-03,4.869999885559082,4.550000190734863,4.78000020980835,4.579999923706055,182500,4.579999923706055
2018-10-04,4.618000030517578,4.25,4.25,4.559999942779541,134000,4.559999942779541
2018-10-05,4.579999923706055,4.420000076293945,4.550000190734863,4.550000190734863,72700,4.550000190734863
2018-10-08,4.920000076293945,4.429999828338623,4.75600004196167,4.599999904632568,106900,4.599999904632568
2018-10-09,4.684999942779541,4.389999866485596,4.559999942779541,4.519999980926514,144200,4.519999980926514
2018-10-10,4.519999980926514,4.309999942779541,4.5,4.329999923706055,77400,4.329999923706055
2018-10-11,4.570000171661377,4.300000190734863,4.340000152587891,4.340000152587891,52800,4.340000152587891
2018-10-12,4.449999809265137,4.150000095367432,4.380000114440918,4.256999969482422,177300,4.256999969482422
2018-10-15,4.360000133514404,3.9000000953674316,4.179999828338623,4.309999942779541,270700,4.309999942779541
2018-10-16,4.449999809265137,4.300000190734863,4.309999942779541,4.389999866485596,58400,4.389999866485596
2018-10-17,4.409999847412109,4.289999961853027,4.400000095367432,4.349999904632568,37100,4.349999904632568
2018-10-18,4.349999904632568,4.199999809265137,4.349999904632568,4.269999980926514,47100,4.269999980926514
2018-10-19,4.271999835968018,3.930000066757202,4.269999980926514,4.019999980926514,82500,4.019999980926514
2018-10-22,4.0,3.7100000381469727,4.0,3.799999952316284,94300,3.799999952316284
2018-10-23,3.819000005722046,3.549999952316284,3.7300000190734863,3.6500000953674316,85100,3.6500000953674316
2018-10-24,3.880000114440918,3.130000114440918,3.7100000381469727,3.180000066757202,134100,3.180000066757202
2018-10-25,3.2699999809265137,3.0999999046325684,3.0999999046325684,3.200000047683716,122700,3.200000047683716
2018-10-26,3.240000009536743,3.0999999046325684,3.1700000762939453,3.0999999046325684,71900,3.0999999046325684
2018-10-29,3.1500000953674316,2.880000114440918,3.140000104904175,2.9100000858306885,109100,2.9100000858306885
2018-10-30,3.5899999141693115,2.9100000858306885,2.9100000858306885,3.5899999141693115,98300,3.5899999141693115
2018-10-31,3.9000000953674316,3.359999895095825,3.680000066757202,3.369999885559082,139800,3.369999885559082
2018-11-01,3.9000000953674316,3.4200000762939453,3.4609999656677246,3.759999990463257,119100,3.759999990463257
2018-11-02,3.799999952316284,3.5799999237060547,3.7899999618530273,3.630000114440918,35000,3.630000114440918
2018-11-05,3.7850000858306885,3.5999999046325684,3.700000047683716,3.6700000762939453,41800,3.6700000762939453
2018-11-06,3.7799999713897705,3.549999952316284,3.680000066757202,3.740000009536743,35900,3.740000009536743
2018-11-07,3.759999990463257,3.440000057220459,3.759999990463257,3.4700000286102295,46500,3.4700000286102295
2018-11-08,3.6500000953674316,3.4800000190734863,3.4800000190734863,3.569999933242798,59700,3.569999933242798
2018-11-09,3.6489999294281006,3.3499999046325684,3.609999895095825,3.359999895095825,33900,3.359999895095825
2018-11-12,3.450000047683716,3.2100000381469727,3.436000108718872,3.259999990463257,33100,3.259999990463257
2018-11-13,3.390000104904175,3.200000047683716,3.299999952316284,3.240000009536743,29900,3.240000009536743
2018-11-14,3.4739999771118164,3.0199999809265137,3.2799999713897705,3.0999999046325684,84000,3.0999999046325684
2018-11-15,2.815000057220459,2.4600000381469727,2.75,2.680000066757202,301800,2.680000066757202
2018-11-16,2.9200000762939453,2.609999895095825,2.7100000381469727,2.8499999046325684,100700,2.8499999046325684
2018-11-19,2.9800000190734863,2.5899999141693115,2.9539999961853027,2.630000114440918,48700,2.630000114440918
2018-11-20,2.811000108718872,2.5,2.569999933242798,2.5,137800,2.5
2018-11-21,2.6700000762939453,2.509999990463257,2.509999990463257,2.619999885559082,80500,2.619999885559082
2018-11-23,2.615000009536743,2.5,2.5829999446868896,2.5999999046325684,63900,2.5999999046325684
2018-11-26,2.7300000190734863,2.450000047683716,2.5999999046325684,2.4800000190734863,91100,2.4800000190734863
2018-11-27,2.5350000858306885,2.299999952316284,2.5,2.4000000953674316,48500,2.4000000953674316
2018-11-28,2.4100000858306885,2.25,2.390000104904175,2.2699999809265137,146600,2.2699999809265137
2018-11-29,2.4000000953674316,2.2699999809265137,2.2699999809265137,2.380000114440918,37700,2.380000114440918
2018-11-30,2.380000114440918,2.2799999713897705,2.369999885559082,2.299999952316284,43000,2.299999952316284
2018-12-03,2.509999990463257,2.322000026702881,2.3399999141693115,2.4800000190734863,79500,2.4800000190734863
2018-12-04,2.505000114440918,2.359999895095825,2.4800000190734863,2.4100000858306885,46300,2.4100000858306885
2018-12-06,2.4100000858306885,2.2200000286102295,2.359999895095825,2.259999990463257,95500,2.259999990463257
2018-12-07,2.3359999656677246,2.0999999046325684,2.2699999809265137,2.200000047683716,41500,2.200000047683716
2018-12-10,2.240000009536743,2.0399999618530273,2.240000009536743,2.049999952316284,102100,2.049999952316284
2018-12-11,2.140000104904175,2.0,2.069999933242798,2.0,69500,2.0
2018-12-12,2.1500000953674316,2.0,2.059999942779541,2.1500000953674316,53700,2.1500000953674316
2018-12-13,2.1500000953674316,1.9199999570846558,2.1500000953674316,2.0,93800,2.0
2018-12-14,2.0199999809265137,1.9299999475479126,1.9700000286102295,1.9500000476837158,87100,1.9500000476837158
2018-12-17,1.9800000190734863,1.7999999523162842,1.9800000190734863,1.8700000047683716,156600,1.8700000047683716
2018-12-18,1.975000023841858,1.6100000143051147,1.840000033378601,1.6399999856948853,128200,1.6399999856948853
2018-12-19,1.6790000200271606,1.590000033378601,1.600000023841858,1.590000033378601,154200,1.590000033378601
2018-12-20,1.590999960899353,1.399999976158142,1.590999960899353,1.399999976158142,183700,1.399999976158142
2018-12-21,1.4889999628067017,1.2400000095367432,1.3799999952316284,1.2699999809265137,213900,1.2699999809265137
2018-12-24,1.2799999713897705,1.2100000381469727,1.2799999713897705,1.2400000095367432,96000,1.2400000095367432
2018-12-26,1.3240000009536743,1.2200000286102295,1.2400000095367432,1.2999999523162842,130700,1.2999999523162842
2018-12-27,1.3450000286102295,1.25,1.3200000524520874,1.2999999523162842,99500,1.2999999523162842
2018-12-28,1.3899999856948853,1.2899999618530273,1.2999999523162842,1.309999942779541,107000,1.309999942779541
2018-12-31,1.3200000524520874,1.1100000143051147,1.2999999523162842,1.2699999809265137,694100,1.2699999809265137
2019-01-02,1.4500000476837158,1.2599999904632568,1.2599999904632568,1.4199999570846558,148800,1.4199999570846558
2019-01-03,1.4700000286102295,1.309999942779541,1.4500000476837158,1.4600000381469727,64000,1.4600000381469727
2019-01-04,1.6100000143051147,1.4500000476837158,1.5,1.5099999904632568,166500,1.5099999904632568
2019-01-07,1.6480000019073486,1.4869999885559082,1.600000023841858,1.5700000524520874,91700,1.5700000524520874
2019-01-08,1.600000023841858,1.5099999904632568,1.5800000429153442,1.5399999618530273,27600,1.5399999618530273
2019-01-09,1.6399999856948853,1.5499999523162842,1.559999942779541,1.6100000143051147,74800,1.6100000143051147
2019-01-10,1.6399999856948853,1.559999942779541,1.6200000047683716,1.600000023841858,50100,1.600000023841858
2019-01-11,1.6200000047683716,1.5700000524520874,1.600000023841858,1.590000033378601,49100,1.590000033378601
2019-01-14,1.7100000381469727,1.600000023841858,1.600000023841858,1.6200000047683716,127000,1.6200000047683716
2019-01-15,1.6699999570846558,1.5700000524520874,1.6399999856948853,1.649999976158142,33700,1.649999976158142
2019-01-16,1.649999976158142,1.5800000429153442,1.6399999856948853,1.5800000429153442,69100,1.5800000429153442
2019-01-17,1.6510000228881836,1.559999942779541,1.590000033378601,1.5700000524520874,207600,1.5700000524520874
2019-01-18,1.6200000047683716,1.559999942779541,1.590000033378601,1.6100000143051147,69900,1.6100000143051147
2019-01-22,1.600000023841858,1.4800000190734863,1.600000023841858,1.4800000190734863,97200,1.4800000190734863
2019-01-23,1.5,1.409999966621399,1.5,1.4500000476837158,47600,1.4500000476837158
2019-01-24,1.4800000190734863,1.3600000143051147,1.440000057220459,1.409999966621399,40800,1.409999966621399
2019-01-25,1.475000023841858,1.3799999952316284,1.4299999475479126,1.4299999475479126,71700,1.4299999475479126
2019-01-28,1.440000057220459,1.3600000143051147,1.4199999570846558,1.440000057220459,52800,1.440000057220459
2019-01-29,1.4600000381469727,1.3600000143051147,1.4600000381469727,1.4299999475479126,322600,1.4299999475479126
2019-01-30,1.4600000381469727,1.3600000143051147,1.4600000381469727,1.4199999570846558,90300,1.4199999570846558
2019-01-31,1.690000057220459,1.399999976158142,1.4299999475479126,1.600000023841858,376300,1.600000023841858
2019-02-01,1.7899999618530273,1.6200000047683716,1.649999976158142,1.7100000381469727,226100,1.7100000381469727
2019-02-04,1.847000002861023,1.7100000381469727,1.7100000381469727,1.8300000429153442,301400,1.8300000429153442
2019-02-05,2.0,1.7599999904632568,1.8899999856948853,1.809999942779541,344300,1.809999942779541
2019-02-06,1.9800000190734863,1.8200000524520874,1.8200000524520874,1.8700000047683716,133100,1.8700000047683716
2019-02-07,1.9210000038146973,1.7000000476837158,1.8700000047683716,1.7699999809265137,61600,1.7699999809265137
2019-02-08,1.7999999523162842,1.7300000190734863,1.7599999904632568,1.7599999904632568,24800,1.7599999904632568
2019-02-11,1.7899999618530273,1.75,1.7899999618530273,1.75,35100,1.75
2019-02-12,1.7899999618530273,1.7100000381469727,1.7599999904632568,1.7100000381469727,36900,1.7100000381469727
2019-02-13,1.7899999618530273,1.7000000476837158,1.7100000381469727,1.7699999809265137,97900,1.7699999809265137
2019-02-14,1.7699999809265137,1.6299999952316284,1.7100000381469727,1.659999966621399,53800,1.659999966621399
2019-02-15,1.6799999475479126,1.6100000143051147,1.659999966621399,1.6200000047683716,56700,1.6200000047683716
2019-02-19,1.715000033378601,1.6200000047683716,1.6200000047683716,1.690000057220459,63900,1.690000057220459
2019-02-20,1.7100000381469727,1.6399999856948853,1.6799999475479126,1.659999966621399,25900,1.659999966621399
2019-02-21,1.7300000190734863,1.6100000143051147,1.6699999570846558,1.6699999570846558,242000,1.6699999570846558
2019-02-22,1.6799999475479126,1.6399999856948853,1.659999966621399,1.6399999856948853,37000,1.6399999856948853
2019-02-25,1.7200000286102295,1.6399999856948853,1.659999966621399,1.6399999856948853,44500,1.6399999856948853
2019-02-26,1.6799999475479126,1.6100000143051147,1.649999976158142,1.6200000047683716,16000,1.6200000047683716
2019-02-27,1.6200000047683716,1.5,1.6009999513626099,1.559999942779541,173400,1.559999942779541
2019-02-28,1.6100000143051147,1.5099999904632568,1.6100000143051147,1.5199999809265137,45200,1.5199999809265137
2019-03-01,1.5839999914169312,1.5230000019073486,1.559999942779541,1.5700000524520874,35900,1.5700000524520874
2019-03-04,1.718999981880188,1.3799999952316284,1.559999942779541,1.4299999475479126,221400,1.4299999475479126
2019-03-05,1.4199999570846558,1.3600000143051147,1.4199999570846558,1.399999976158142,95900,1.399999976158142
2019-03-06,1.4800000190734863,1.2599999904632568,1.409999966621399,1.4800000190734863,388600,1.4800000190734863
2019-03-07,0.8899999856948853,0.7900000214576721,0.8500000238418579,0.8849999904632568,4180600,0.8849999904632568
2019-03-08,0.8849999904632568,0.8299999833106995,0.8500000238418579,0.8450000286102295,1996700,0.8450000286102295
2019-03-11,0.8650000095367432,0.8199999928474426,0.8500000238418579,0.8450000286102295,945900,0.8450000286102295
2019-03-12,0.8600000143051147,0.8299999833106995,0.8600000143051147,0.8450000286102295,1503800,0.8450000286102295
2019-03-13,0.8999999761581421,0.8500000238418579,0.8989999890327454,0.8659999966621399,1221000,0.8659999966621399
2019-03-14,0.8799999952316284,0.8399999737739563,0.8790000081062317,0.8500000238418579,504500,0.8500000238418579
2019-03-15,0.8700000047683716,0.8199999928474426,0.8600000143051147,0.8199999928474426,1212100,0.8199999928474426
2019-03-18,0.9100000262260437,0.8299999833106995,0.8700000047683716,0.8700000047683716,857600,0.8700000047683716
2019-03-19,0.8999999761581421,0.8450000286102295,0.8999999761581421,0.8450000286102295,1617100,0.8450000286102295
2019-03-20,0.9399999976158142,0.8309999704360962,0.8899999856948853,0.8349999785423279,3534000,0.8349999785423279
2019-03-21,0.8889999985694885,0.8149999976158142,0.8889999985694885,0.8410000205039978,1001600,0.8410000205039978
2019-03-22,0.949999988079071,0.8199999928474426,0.8500000238418579,0.9100000262260437,2177700,0.9100000262260437
2019-03-25,1.0299999713897705,0.8899999856948853,0.9300000071525574,0.9710000157356262,2813400,0.9710000157356262
2019-03-26,0.9900000095367432,0.9010000228881836,0.9900000095367432,0.9089999794960022,949200,0.9089999794960022
2019-03-27,0.9330000281333923,0.8600000143051147,0.9020000100135803,0.8669999837875366,812100,0.8669999837875366
2019-03-28,0.9049999713897705,0.8510000109672546,0.871999979019165,0.8930000066757202,316200,0.8930000066757202
2019-03-29,0.949999988079071,0.8899999856948853,0.8930000066757202,0.8999999761581421,396900,0.8999999761581421
2019-04-01,0.949999988079071,0.8899999856948853,0.9300000071525574,0.9300000071525574,760500,0.9300000071525574
2019-04-02,0.9789999723434448,0.8600000143051147,0.9789999723434448,0.9160000085830688,1767800,0.9160000085830688
2019-04-03,0.8999999761581421,0.8349999785423279,0.8999999761581421,0.8560000061988831,1425000,0.8560000061988831
2019-04-04,0.8650000095367432,0.8399999737739563,0.8650000095367432,0.8500000238418579,364900,0.8500000238418579
2019-04-05,0.8550000190734863,0.7799999713897705,0.8550000190734863,0.8330000042915344,765000,0.8330000042915344
2019-04-08,0.8500000238418579,0.7850000262260437,0.8500000238418579,0.824999988079071,550800,0.824999988079071
2019-04-09,0.8379999995231628,0.800000011920929,0.8299999833106995,0.8040000200271606,502300,0.8040000200271606
2019-04-10,0.8500000238418579,0.800000011920929,0.8180000185966492,0.8199999928474426,519400,0.8199999928474426
2019-04-11,0.8669999837875366,0.8149999976158142,0.8299999833106995,0.8600000143051147,864500,0.8600000143051147
2019-04-12,0.8600000143051147,0.8199999928474426,0.8410000205039978,0.8299999833106995,633500,0.8299999833106995
2019-04-15,0.859000027179718,0.8029999732971191,0.8500000238418579,0.824999988079071,778000,0.824999988079071
2019-04-16,0.8450000286102295,0.8100000023841858,0.8360000252723694,0.8180000185966492,414000,0.8180000185966492
2019-04-17,0.8299999833106995,0.7900000214576721,0.8169999718666077,0.7900000214576721,500400,0.7900000214576721
2019-04-18,0.8199999928474426,0.7889999747276306,0.7910000085830688,0.8100000023841858,489100,0.8100000023841858
2019-04-22,0.800000011920929,0.7699999809265137,0.800000011920929,0.7960000038146973,1084200,0.7960000038146973
2019-04-23,0.800000011920929,0.7749999761581421,0.800000011920929,0.7900000214576721,707100,0.7900000214576721
2019-04-24,0.7850000262260437,0.7310000061988831,0.7839999794960022,0.7509999871253967,1256300,0.7509999871253967
2019-04-25,0.7599999904632568,0.7310000061988831,0.7599999904632568,0.7329999804496765,356600,0.7329999804496765
2019-04-26,0.7689999938011169,0.7099999785423279,0.7490000128746033,0.7549999952316284,341200,0.7549999952316284
2019-04-29,0.7689999938011169,0.7400000095367432,0.7689999938011169,0.7670000195503235,330500,0.7670000195503235
2019-04-30,0.7699999809265137,0.7200000286102295,0.7699999809265137,0.7279999852180481,398500,0.7279999852180481
2019-05-01,0.7440000176429749,0.6899999976158142,0.7300000190734863,0.7049999833106995,613000,0.7049999833106995
2019-05-02,0.7099999785423279,0.6700000166893005,0.7099999785423279,0.699999988079071,430000,0.699999988079071
2019-05-03,0.75,0.6800000071525574,0.7059999704360962,0.7289999723434448,524900,0.7289999723434448
2019-05-06,0.7699999809265137,0.7099999785423279,0.7300000190734863,0.7630000114440918,455000,0.7630000114440918
2019-05-07,0.8199999928474426,0.7099999785423279,0.7549999952316284,0.8059999942779541,777500,0.8059999942779541
2019-05-08,0.8399999737739563,0.8009999990463257,0.8199999928474426,0.8299999833106995,559200,0.8299999833106995
2019-05-09,0.8299999833106995,0.7829999923706055,0.8299999833106995,0.8100000023841858,307500,0.8100000023841858
2019-05-10,0.8389999866485596,0.7889999747276306,0.8100000023841858,0.8149999976158142,282800,0.8149999976158142
2019-05-13,0.8149999976158142,0.7799999713897705,0.8149999976158142,0.781000018119812,206600,0.781000018119812
2019-05-14,0.8009999990463257,0.75,0.7799999713897705,0.781000018119812,322700,0.781000018119812
2019-05-15,0.8100000023841858,0.7599999904632568,0.7990000247955322,0.7900000214576721,201400,0.7900000214576721
2019-05-16,0.8100000023841858,0.7699999809265137,0.800000011920929,0.7900000214576721,407400,0.7900000214576721
2019-05-17,0.8100000023841858,0.7649999856948853,0.796999990940094,0.7889999747276306,417300,0.7889999747276306
2019-05-20,0.8100000023841858,0.7509999871253967,0.8100000023841858,0.765999972820282,412700,0.765999972820282
2019-05-21,0.7900000214576721,0.7260000109672546,0.7900000214576721,0.7599999904632568,610500,0.7599999904632568
2019-05-22,0.7799999713897705,0.7350000143051147,0.75,0.7409999966621399,300600,0.7409999966621399
2019-05-23,0.7599999904632568,0.7099999785423279,0.7409999966621399,0.7210000157356262,290100,0.7210000157356262
2019-05-24,0.7559999823570251,0.7099999785423279,0.7390000224113464,0.7099999785423279,311300,0.7099999785423279
