Date,High,Low,Open,Close,Volume,Adj Close
2017-03-15,23.139999389648438,21.899999618530273,21.950000762939453,22.90999984741211,9892800.0,21.236040115356445
2017-03-17,22.459999084472656,22.0,22.399999618530273,22.010000228881836,348600.0,20.40180015563965
2017-03-20,22.149999618530273,21.510000228881836,22.149999618530273,21.530000686645508,281400.0,19.95687484741211
2017-03-21,21.510000228881836,21.174999237060547,21.510000228881836,21.270000457763672,335600.0,19.715869903564453
2017-03-22,21.770000457763672,21.260000228881836,21.309999465942383,21.469999313354492,223600.0,19.90125846862793
2017-03-23,21.940000534057617,21.450000762939453,21.559999465942383,21.799999237060547,306100.0,20.207141876220703
2017-03-24,22.209999084472656,21.90999984741211,21.90999984741211,22.209999084472656,128500.0,20.587186813354492
2017-03-27,22.440000534057617,21.5,22.18000030517578,22.290000915527344,64400.0,20.661344528198242
2017-03-28,22.440000534057617,22.09000015258789,22.440000534057617,22.229999542236328,57700.0,20.605728149414062
2017-03-29,22.190000534057617,21.329999923706055,22.1200008392334,21.75,126500.0,20.160799026489258
2017-03-30,22.200000762939453,21.625,21.75,22.020000457763672,111800.0,20.411069869995117
2017-03-31,22.200000762939453,21.860000610351562,22.149999618530273,21.959999084472656,38400.0,20.35545539855957
2017-04-03,22.097999572753906,21.25,22.06999969482422,21.43000030517578,129400.0,19.864181518554688
2017-04-04,21.780000686645508,21.43000030517578,21.43000030517578,21.700000762939453,39700.0,20.114452362060547
2017-04-05,21.66699981689453,21.299999237060547,21.600000381469727,21.299999237060547,41500.0,19.743677139282227
2017-04-06,22.18000030517578,21.0,21.299999237060547,21.139999389648438,73400.0,19.595369338989258
2017-04-07,21.940000534057617,21.0,21.079999923706055,21.860000610351562,37600.0,20.26276206970215
2017-04-10,21.84000015258789,20.799999237060547,21.84000015258789,21.100000381469727,149600.0,19.558292388916016
2017-04-11,21.489999771118164,20.979999542236328,21.489999771118164,21.040000915527344,108100.0,19.50267791748047
2017-04-12,21.299999237060547,21.0,21.100000381469727,21.100000381469727,308300.0,19.558292388916016
2017-04-13,21.260000228881836,20.905000686645508,21.100000381469727,21.0,238600.0,19.465599060058594
2017-04-17,21.139999389648438,20.71500015258789,21.139999389648438,20.889999389648438,177500.0,19.363637924194336
2017-04-18,21.229999542236328,20.739999771118164,20.790000915527344,20.989999771118164,145600.0,19.456329345703125
2017-04-19,21.950000762939453,21.170000076293945,21.170000076293945,21.729999542236328,87600.0,20.142257690429688
2017-04-20,21.84000015258789,21.43000030517578,21.799999237060547,21.56999969482422,11600.0,19.99395179748535
2017-04-21,21.65999984741211,21.0,21.65999984741211,21.100000381469727,27500.0,19.558292388916016
2017-04-24,21.3700008392334,20.81999969482422,21.0,21.280000686645508,50700.0,19.725141525268555
2017-04-25,21.770000457763672,21.149999618530273,21.299999237060547,21.219999313354492,61200.0,19.669523239135742
2017-04-26,21.829999923706055,21.18000030517578,21.18000030517578,21.600000381469727,72700.0,20.021759033203125
2017-04-27,22.229999542236328,21.309999465942383,21.84000015258789,21.600000381469727,193600.0,20.021759033203125
2017-04-28,21.690000534057617,21.149999618530273,21.579999923706055,21.43000030517578,79900.0,19.864181518554688
2017-05-02,21.81999969482422,21.1200008392334,21.81999969482422,21.420000076293945,130000.0,19.85491180419922
2017-05-03,21.65999984741211,21.239999771118164,21.56999969482422,21.260000228881836,53400.0,19.706602096557617
2017-05-04,21.764999389648438,21.010000228881836,21.440000534057617,21.579999923706055,145200.0,20.003219604492188
2017-05-05,22.360000610351562,21.5,21.600000381469727,22.360000610351562,204100.0,20.726228713989258
2017-05-08,22.799999237060547,21.739999771118164,22.56999969482422,21.989999771118164,75200.0,20.383264541625977
2017-05-09,22.399999618530273,21.530000686645508,22.200000762939453,21.780000686645508,168200.0,20.1886043548584
2017-05-10,22.579999923706055,21.8799991607666,21.979999542236328,22.299999237060547,185800.0,20.670612335205078
2017-05-11,22.200000762939453,21.395000457763672,22.200000762939453,21.860000610351562,324300.0,20.26276206970215
2017-05-12,22.549999237060547,21.6299991607666,21.895000457763672,21.760000228881836,159000.0,20.170068740844727
2017-05-15,21.969999313354492,21.510000228881836,21.670000076293945,21.799999237060547,69100.0,20.337995529174805
2017-05-16,22.1200008392334,21.520000457763672,21.899999618530273,21.760000228881836,167800.0,20.30068016052246
2017-05-17,22.3799991607666,21.729999542236328,21.729999542236328,22.09000015258789,109400.0,20.608549118041992
2017-05-18,22.125,21.690000534057617,21.920000076293945,22.049999237060547,32600.0,20.571231842041016
2017-05-19,22.530000686645508,21.851999282836914,22.0,22.3700008392334,33500.0,20.869770050048828
2017-05-22,22.639999389648438,22.079999923706055,22.360000610351562,22.43000030517578,72500.0,20.92574691772461
2017-05-23,23.875,22.40999984741211,22.479999542236328,23.450000762939453,187100.0,21.877342224121094
2017-05-24,23.8700008392334,23.219999313354492,23.299999237060547,23.700000762939453,74300.0,22.11057472229004
2017-05-25,24.25,23.6200008392334,23.989999771118164,23.850000381469727,125200.0,22.25051498413086
2017-05-26,24.459999084472656,22.799999237060547,23.979999542236328,22.940000534057617,100400.0,21.40154266357422
2017-05-30,24.079999923706055,22.8700008392334,22.90999984741211,23.790000915527344,84300.0,22.19454002380371
2017-05-31,24.540000915527344,22.87299919128418,23.899999618530273,23.989999771118164,92500.0,22.381126403808594
2017-06-01,24.450000762939453,23.34000015258789,24.290000915527344,23.59000015258789,129800.0,22.007953643798828
2017-06-02,24.149999618530273,22.670000076293945,23.6299991607666,23.209999084472656,159000.0,21.65343475341797
2017-06-05,23.799999237060547,22.850000381469727,23.079999923706055,22.950000762939453,109300.0,21.410873413085938
2017-06-06,23.104999542236328,22.850000381469727,22.950000762939453,22.920000076293945,68700.0,21.38288688659668
2017-06-07,23.010000228881836,22.610000610351562,22.959999084472656,22.8799991607666,122600.0,21.345565795898438
2017-06-08,22.979999542236328,22.579999923706055,22.979999542236328,22.760000228881836,66800.0,21.233617782592773
2017-06-09,22.915000915527344,22.469999313354492,22.860000610351562,22.780000686645508,43200.0,21.252275466918945
2017-06-12,23.020000457763672,22.219999313354492,23.0,22.219999313354492,206500.0,20.729827880859375
2017-06-13,22.989999771118164,22.219999313354492,22.3700008392334,22.700000762939453,89700.0,21.177637100219727
2017-06-14,22.690000534057617,22.25,22.56999969482422,22.40999984741211,38400.0,20.907087326049805
2017-06-15,22.700000762939453,22.25,22.290000915527344,22.420000076293945,77900.0,20.916418075561523
2017-06-16,22.510000228881836,22.049999237060547,22.3700008392334,22.239999771118164,56400.0,20.748489379882812
2017-06-19,22.549999237060547,22.049999237060547,22.3799991607666,22.15999984741211,121900.0,20.673852920532227
2017-06-20,22.34000015258789,22.010000228881836,22.079999923706055,22.100000381469727,74400.0,20.617877960205078
2017-06-21,22.145000457763672,21.030000686645508,22.049999237060547,21.850000381469727,133600.0,20.384641647338867
2017-06-22,21.739999771118164,20.68000030517578,21.709999084472656,21.729999542236328,174300.0,20.272689819335938
2017-06-23,22.309999465942383,21.709999084472656,21.8799991607666,21.8799991607666,1158900.0,20.412630081176758
2017-06-26,22.940000534057617,21.850000381469727,21.850000381469727,22.1299991607666,231000.0,20.645864486694336
2017-06-27,22.424999237060547,21.910999298095703,22.34000015258789,22.049999237060547,93600.0,20.571231842041016
2017-06-28,22.3799991607666,21.84000015258789,21.959999084472656,22.309999465942383,218200.0,20.813793182373047
2017-06-29,22.690000534057617,22.059999465942383,22.299999237060547,22.639999389648438,91500.0,21.121662139892578
2017-06-30,23.149999618530273,22.350000381469727,22.6299991607666,22.610000610351562,52800.0,21.093673706054688
2017-07-03,22.75,21.84000015258789,22.600000381469727,22.299999237060547,71600.0,20.80446434020996
2017-07-05,22.459999084472656,21.99799919128418,22.25,22.010000228881836,49300.0,20.53391456604004
2017-07-06,22.110000610351562,21.770000457763672,22.0,21.8799991607666,77900.0,20.412630081176758
2017-07-07,22.059999465942383,21.5310001373291,21.809999465942383,21.959999084472656,65100.0,20.487266540527344
2017-07-10,22.139999389648438,21.700000762939453,21.899999618530273,21.950000762939453,72800.0,20.477937698364258
2017-07-11,22.049999237060547,21.649999618530273,22.0,21.829999923706055,34300.0,20.365985870361328
2017-07-12,22.040000915527344,21.760000228881836,21.989999771118164,21.950000762939453,153100.0,20.477937698364258
2017-07-13,21.975000381469727,21.799999237060547,21.950000762939453,21.860000610351562,385200.0,20.393972396850586
2017-07-14,22.959999084472656,21.860000610351562,22.0,22.90999984741211,55600.0,21.37355613708496
2017-07-17,23.190000534057617,22.827999114990234,22.924999237060547,23.18000030517578,38800.0,21.625450134277344
2017-07-18,23.1200008392334,22.540000915527344,23.1200008392334,22.940000534057617,70400.0,21.40154266357422
2017-07-19,22.989999771118164,22.219999313354492,22.81999969482422,22.360000610351562,42300.0,20.860441207885742
2017-07-20,22.920000076293945,22.25,22.399999618530273,22.670000076293945,30100.0,21.1496524810791
2017-07-21,22.770000457763672,22.225000381469727,22.65999984741211,22.6299991607666,27400.0,21.112333297729492
2017-07-24,23.71500015258789,22.232999801635742,22.6200008392334,23.31999969482422,97300.0,21.756059646606445
2017-07-25,23.350000381469727,22.309999465942383,23.309999465942383,23.09000015258789,116600.0,21.541484832763672
2017-07-26,23.290000915527344,22.18000030517578,23.139999389648438,22.739999771118164,76800.0,21.214956283569336
2017-07-27,22.850000381469727,22.1299991607666,22.780000686645508,22.489999771118164,96800.0,20.981719970703125
2017-07-28,22.600000381469727,22.190000534057617,22.3799991607666,22.459999084472656,178800.0,20.9537353515625
2017-07-31,22.600000381469727,22.204999923706055,22.43000030517578,22.440000534057617,46600.0,20.935077667236328
2017-08-01,22.56999969482422,22.139999389648438,22.34000015258789,22.399999618530273,118100.0,20.89776039123535
2017-08-02,22.81999969482422,21.979999542236328,22.81999969482422,22.389999389648438,87900.0,20.888429641723633
2017-08-03,22.389999389648438,22.0,22.3799991607666,22.040000915527344,37400.0,20.56190299987793
2017-08-04,22.149999618530273,22.0,22.079999923706055,22.049999237060547,29900.0,20.571231842041016
2017-08-07,22.149999618530273,21.940000534057617,22.06599998474121,22.149999618530273,40200.0,20.664527893066406
2017-08-08,22.399999618530273,21.950000762939453,22.270000457763672,22.06999969482422,187000.0,20.589887619018555
2017-08-09,22.190000534057617,21.34000015258789,21.959999084472656,21.8700008392334,272900.0,20.403303146362305
2017-08-10,21.829999923706055,21.399999618530273,21.739999771118164,21.540000915527344,289300.0,20.095436096191406
2017-08-11,21.940000534057617,21.360000610351562,21.469999313354492,21.739999771118164,15700.0,20.282018661499023
2017-08-14,21.8799991607666,21.56999969482422,21.8799991607666,21.579999923706055,20100.0,20.132749557495117
2017-08-15,21.520000457763672,20.969999313354492,21.350000381469727,21.209999084472656,91300.0,19.91677474975586
2017-08-16,21.329999923706055,21.139999389648438,21.299999237060547,21.229999542236328,95500.0,19.935556411743164
2017-08-17,21.260000228881836,20.899999618530273,21.170000076293945,21.020000457763672,99500.0,19.738359451293945
2017-08-18,21.15999984741211,20.6200008392334,21.020000457763672,20.90999984741211,43100.0,19.63506507873535
2017-08-21,20.996000289916992,20.5,20.996000289916992,20.709999084472656,55700.0,19.4472599029541
2017-08-22,21.1299991607666,20.350000381469727,21.1299991607666,20.350000381469727,63700.0,19.109210968017578
2017-08-23,20.40999984741211,20.0,20.40999984741211,20.06999969482422,102900.0,18.846284866333008
2017-08-24,20.469999313354492,20.09000015258789,20.260000228881836,20.389999389648438,77800.0,19.146772384643555
2017-08-25,20.610000610351562,20.280000686645508,20.5,20.549999237060547,126400.0,19.297016143798828
2017-08-28,20.6200008392334,20.459999084472656,20.559999465942383,20.520000457763672,58100.0,19.26884651184082
2017-08-29,20.649999618530273,20.399999618530273,20.420000076293945,20.530000686645508,114500.0,19.278236389160156
2017-08-30,20.729999542236328,20.43000030517578,20.510000228881836,20.6200008392334,50400.0,19.362749099731445
2017-08-31,21.045000076293945,20.559999465942383,20.600000381469727,20.790000915527344,72600.0,19.522384643554688
2017-09-01,20.93000030517578,20.729999542236328,20.889999389648438,20.81999969482422,54100.0,19.550552368164062
2017-09-05,21.0,20.770000457763672,20.899999618530273,20.8700008392334,40500.0,19.597505569458008
2017-09-06,20.899999618530273,20.549999237060547,20.899999618530273,20.610000610351562,24500.0,19.353357315063477
2017-09-07,20.59000015258789,20.219999313354492,20.59000015258789,20.5,28600.0,19.25006866455078
2017-09-08,20.80500030517578,20.347999572753906,20.5,20.530000686645508,53600.0,19.278236389160156
2017-09-11,20.739999771118164,20.520000457763672,20.614999771118164,20.739999771118164,39900.0,19.475431442260742
2017-09-12,20.950000762939453,20.780000686645508,20.780000686645508,20.8700008392334,27300.0,19.597505569458008
2017-09-13,21.5,20.799999237060547,21.0,21.06999969482422,88400.0,19.785310745239258
2017-09-14,21.18000030517578,20.950000762939453,20.959999084472656,20.989999771118164,92400.0,19.710189819335938
2017-09-15,21.049999237060547,20.690000534057617,21.049999237060547,20.760000228881836,74400.0,19.494213104248047
2017-09-18,20.940000534057617,20.6200008392334,20.809999465942383,20.84000015258789,66100.0,19.569334030151367
2017-09-19,20.940000534057617,20.690000534057617,20.860000610351562,20.8700008392334,41000.0,19.597505569458008
2017-09-20,21.049999237060547,20.770000457763672,20.8799991607666,20.850000381469727,39000.0,19.578725814819336
2017-09-21,21.020000457763672,20.65999984741211,20.780000686645508,20.68000030517578,48300.0,19.419090270996094
2017-09-22,20.739999771118164,19.8799991607666,20.5,20.709999084472656,138500.0,19.4472599029541
2017-09-25,20.8700008392334,20.575000762939453,20.600000381469727,20.770000457763672,35900.0,19.503602981567383
2017-09-26,21.079999923706055,20.81999969482422,21.079999923706055,20.8700008392334,22700.0,19.597505569458008
2017-09-27,20.993000030517578,20.75,20.989999771118164,20.889999389648438,65900.0,19.616287231445312
2017-09-28,21.929000854492188,20.799999237060547,20.940000534057617,21.299999237060547,87500.0,20.001285552978516
2017-09-29,21.6299991607666,21.155000686645508,21.31999969482422,21.40999984741211,60500.0,20.10457992553711
2017-10-02,21.65999984741211,21.329999923706055,21.420000076293945,21.420000076293945,44500.0,20.113969802856445
2017-10-03,21.65999984741211,21.34000015258789,21.440000534057617,21.440000534057617,22900.0,20.132749557495117
2017-10-04,21.739999771118164,21.200000762939453,21.40999984741211,21.299999237060547,30000.0,20.001285552978516
2017-10-05,21.450000762939453,21.149999618530273,21.450000762939453,21.239999771118164,11000.0,19.944944381713867
2017-10-06,21.43000030517578,21.059999465942383,21.40999984741211,21.190000534057617,19300.0,19.89799690246582
2017-10-09,21.549999237060547,21.079999923706055,21.31999969482422,21.1299991607666,17500.0,19.841650009155273
2017-10-10,21.540000915527344,21.059999465942383,21.219999313354492,21.1299991607666,49500.0,19.841650009155273
2017-10-11,21.516000747680664,20.924999237060547,21.200000762939453,21.18000030517578,180900.0,19.88860321044922
2017-10-12,21.18000030517578,20.790000915527344,20.969999313354492,20.829999923706055,23900.0,19.55994415283203
2017-10-13,21.149999618530273,20.75,20.950000762939453,21.020000457763672,48800.0,19.738359451293945
2017-10-16,21.149999618530273,20.80500030517578,20.950000762939453,21.1200008392334,46200.0,19.832263946533203
2017-10-17,21.200000762939453,20.80500030517578,21.0,20.889999389648438,109000.0,19.616287231445312
2017-10-18,21.559999465942383,20.899999618530273,21.030000686645508,21.309999465942383,83300.0,20.010679244995117
2017-10-19,21.260000228881836,20.829999923706055,21.25,21.1200008392334,97800.0,19.832263946533203
2017-10-20,21.290000915527344,20.920000076293945,21.09000015258789,20.989999771118164,20900.0,19.710189819335938
2017-10-23,21.280000686645508,20.989999771118164,21.09000015258789,21.200000762939453,22400.0,19.90738296508789
2017-10-24,21.40999984741211,20.920000076293945,21.139999389648438,21.170000076293945,129100.0,19.87921142578125
2017-10-25,21.485000610351562,20.899999618530273,21.479999542236328,21.15999984741211,93300.0,19.869823455810547
2017-10-26,20.700000762939453,20.049999237060547,20.700000762939453,20.6299991607666,170600.0,19.37213897705078
2017-10-27,20.78499984741211,20.530000686645508,20.65999984741211,20.6200008392334,74100.0,19.362749099731445
2017-10-30,20.790000915527344,20.34000015258789,20.65999984741211,20.3700008392334,102700.0,19.12799072265625
2017-10-31,21.959999084472656,21.020000457763672,21.020000457763672,21.440000534057617,121800.0,20.132749557495117
2017-11-01,22.329999923706055,21.5,21.700000762939453,21.690000534057617,102200.0,20.367507934570312
2017-11-02,21.700000762939453,20.950000762939453,21.649999618530273,21.290000915527344,70300.0,19.991899490356445
2017-11-03,21.899999618530273,20.920000076293945,21.389999389648438,21.309999465942383,123800.0,20.010679244995117
2017-11-06,21.34000015258789,20.510000228881836,21.34000015258789,20.860000610351562,40600.0,19.58811378479004
2017-11-07,20.950000762939453,20.43000030517578,20.950000762939453,20.549999237060547,46600.0,19.297016143798828
2017-11-08,20.65999984741211,20.1299991607666,20.65999984741211,20.200000762939453,65100.0,18.96835708618164
2017-11-09,20.184999465942383,19.834999084472656,20.100000381469727,20.020000457763672,92700.0,18.799333572387695
2017-11-10,20.329999923706055,20.020000457763672,20.020000457763672,20.059999465942383,64700.0,18.836891174316406
2017-11-13,20.1200008392334,19.790000915527344,20.049999237060547,19.93000030517578,33900.0,18.714820861816406
2017-11-14,19.950000762939453,19.6200008392334,19.8700008392334,19.760000228881836,74400.0,18.555185317993164
2017-11-15,19.84000015258789,19.549999237060547,19.56999969482422,19.6299991607666,57700.0,18.564640045166016
2017-11-16,19.920000076293945,19.639999389648438,19.719999313354492,19.649999618530273,45600.0,18.583555221557617
2017-11-17,19.895000457763672,19.610000610351562,19.700000762939453,19.729999542236328,79000.0,18.65921401977539
2017-11-20,19.799999237060547,19.559999465942383,19.75,19.739999771118164,46900.0,18.668672561645508
2017-11-21,19.8700008392334,19.690000534057617,19.799999237060547,19.809999465942383,47600.0,18.734874725341797
2017-11-22,19.989999771118164,19.549999237060547,19.829999923706055,19.75,86600.0,18.678129196166992
2017-11-24,19.899999618530273,19.68000030517578,19.790000915527344,19.780000686645508,24700.0,18.70650291442871
2017-11-27,19.989999771118164,19.719999313354492,19.799999237060547,19.770000457763672,49500.0,18.69704246520996
2017-11-28,19.8799991607666,19.71500015258789,19.8700008392334,19.860000610351562,73700.0,18.782161712646484
2017-11-29,19.941999435424805,19.73900032043457,19.850000381469727,19.809999465942383,46700.0,18.734874725341797
2017-11-30,19.90999984741211,19.56999969482422,19.649999618530273,19.860000610351562,74100.0,18.782161712646484
2017-12-01,20.100000381469727,19.600000381469727,19.860000610351562,19.920000076293945,104400.0,18.838903427124023
2017-12-04,20.829999923706055,20.06999969482422,20.06999969482422,20.309999465942383,168100.0,19.20773696899414
2017-12-05,20.4950008392334,20.149999618530273,20.3700008392334,20.200000762939453,58300.0,19.10370635986328
2017-12-06,20.219999313354492,19.975000381469727,20.209999084472656,20.06999969482422,47700.0,18.98076057434082
2017-12-07,20.200000762939453,20.0,20.200000762939453,20.100000381469727,64700.0,19.009136199951172
2017-12-08,20.190000534057617,19.940000534057617,20.18000030517578,20.09000015258789,82200.0,18.999677658081055
2017-12-11,20.450000762939453,20.09000015258789,20.09000015258789,20.270000457763672,53500.0,19.169910430908203
2017-12-12,20.299999237060547,20.09000015258789,20.270000457763672,20.170000076293945,32100.0,19.075336456298828
2017-12-13,21.81999969482422,20.06999969482422,21.81999969482422,20.239999771118164,58900.0,19.141536712646484
2017-12-14,20.290000915527344,19.899999618530273,20.200000762939453,20.239999771118164,48700.0,19.141536712646484
2017-12-15,20.420000076293945,20.139999389648438,20.190000534057617,20.329999923706055,37200.0,19.226652145385742
2017-12-18,20.68000030517578,20.31999969482422,20.440000534057617,20.600000381469727,21800.0,19.481996536254883
2017-12-19,20.777999877929688,20.350000381469727,20.6299991607666,20.5,30600.0,19.387426376342773
2017-12-20,20.670000076293945,20.334999084472656,20.600000381469727,20.440000534057617,44400.0,19.33068084716797
2017-12-21,20.84000015258789,20.450000762939453,20.520000457763672,20.690000534057617,31300.0,19.567113876342773
2017-12-22,20.790000915527344,20.520000457763672,20.610000610351562,20.559999465942383,22200.0,19.444168090820312
2017-12-26,20.610000610351562,20.3799991607666,20.479999542236328,20.420000076293945,21300.0,19.311765670776367
2017-12-27,20.770000457763672,20.25,20.549999237060547,20.469999313354492,141200.0,19.359050750732422
2017-12-28,21.360000610351562,20.600000381469727,20.600000381469727,21.100000381469727,103600.0,19.954862594604492
2017-12-29,21.709999084472656,20.93000030517578,21.079999923706055,21.100000381469727,156700.0,19.954862594604492
2018-01-02,21.489999771118164,20.889999389648438,21.25,21.040000915527344,156300.0,19.898117065429688
2018-01-03,21.299999237060547,20.799999237060547,21.239999771118164,21.139999389648438,69200.0,19.992692947387695
2018-01-04,21.40999984741211,20.579999923706055,21.270000457763672,20.940000534057617,139900.0,19.803546905517578
2018-01-05,21.100000381469727,20.920000076293945,20.920000076293945,21.0,78000.0,19.860288619995117
2018-01-08,21.100000381469727,20.8799991607666,21.09000015258789,21.010000228881836,44500.0,19.869747161865234
2018-01-09,21.010000228881836,20.860000610351562,20.959999084472656,20.8700008392334,50000.0,19.737346649169922
2018-01-10,20.799999237060547,20.440000534057617,20.799999237060547,20.600000381469727,41100.0,19.481996536254883
2018-01-11,20.770000457763672,20.299999237060547,20.600000381469727,20.520000457763672,42300.0,19.406339645385742
2018-01-12,20.450000762939453,20.299999237060547,20.43000030517578,20.329999923706055,274400.0,19.226652145385742
2018-01-16,20.40999984741211,20.059999465942383,20.34000015258789,20.229999542236328,68200.0,19.132078170776367
2018-01-17,20.389999389648438,20.219999313354492,20.290000915527344,20.239999771118164,26800.0,19.141536712646484
2018-01-18,20.219999313354492,20.079999923706055,20.200000762939453,20.079999923706055,28500.0,18.99022102355957
2018-01-19,20.15999984741211,19.93600082397461,20.06999969482422,20.020000457763672,23300.0,18.93347930908203
2018-01-22,20.110000610351562,19.959999084472656,20.079999923706055,19.989999771118164,34900.0,18.905105590820312
2018-01-23,20.3700008392334,19.950000762939453,19.950000762939453,20.239999771118164,65800.0,19.141536712646484
2018-01-24,20.3700008392334,19.84000015258789,20.200000762939453,19.899999618530273,120100.0,18.81998634338379
2018-01-25,20.219999313354492,19.860000610351562,19.889999389648438,20.100000381469727,49100.0,19.009136199951172
2018-01-26,20.360000610351562,20.070999145507812,20.200000762939453,20.18000030517578,15900.0,19.084793090820312
2018-01-29,20.219999313354492,19.81999969482422,20.200000762939453,19.899999618530273,24800.0,18.81998634338379
2018-01-30,20.1200008392334,19.579999923706055,19.950000762939453,20.0,139300.0,18.914562225341797
2018-01-31,20.030000686645508,19.729999542236328,20.0,20.0,55700.0,18.914562225341797
2018-02-01,20.309999465942383,19.84000015258789,20.06999969482422,20.0,519000.0,18.914562225341797
2018-02-02,19.958999633789062,19.725000381469727,19.950000762939453,19.8700008392334,48300.0,18.791616439819336
2018-02-05,19.81999969482422,18.639999389648438,19.770000457763672,18.700000762939453,111000.0,17.685115814208984
2018-02-06,18.959999084472656,18.344999313354492,18.579999923706055,18.889999389648438,90400.0,17.864803314208984
2018-02-07,19.1200008392334,18.739999771118164,18.8799991607666,18.899999618530273,202900.0,17.8742618560791
2018-02-08,19.049999237060547,18.56999969482422,18.902999877929688,18.700000762939453,250700.0,17.685115814208984
2018-02-09,18.834999084472656,17.68000030517578,18.799999237060547,17.979999542236328,232500.0,17.00419044494629
2018-02-12,18.0,17.510000228881836,18.0,17.549999237060547,67700.0,16.5975284576416
2018-02-13,18.209999084472656,17.43000030517578,17.549999237060547,18.010000228881836,82900.0,17.032564163208008
2018-02-14,18.15999984741211,17.709999084472656,17.8799991607666,18.0,75900.0,17.023103713989258
2018-02-15,18.59000015258789,17.8700008392334,18.030000686645508,18.450000762939453,60500.0,17.448684692382812
2018-02-16,18.68000030517578,18.31999969482422,18.399999618530273,18.399999618530273,45800.0,17.401395797729492
2018-02-20,18.75,18.219999313354492,18.5,18.280000686645508,55600.0,17.28790855407715
2018-02-21,18.540000915527344,18.200000762939453,18.270000457763672,18.209999084472656,302500.0,17.221704483032227
2018-02-22,19.329999923706055,18.700000762939453,19.100000381469727,19.010000228881836,141500.0,17.978290557861328
2018-02-23,19.06999969482422,18.219999313354492,18.780000686645508,18.389999389648438,121800.0,17.391939163208008
2018-02-26,18.610000610351562,18.200000762939453,18.25,18.280000686645508,110200.0,17.420528411865234
2018-02-27,18.850000381469727,18.0,18.329999923706055,18.530000686645508,346000.0,17.65877342224121
2018-02-28,18.84000015258789,18.559999465942383,18.56999969482422,18.579999923706055,146500.0,17.706422805786133
2018-03-01,18.5,18.229999542236328,18.459999084472656,18.350000381469727,98700.0,17.48723602294922
2018-03-02,18.700000762939453,18.1299991607666,18.239999771118164,18.450000762939453,99700.0,17.582536697387695
2018-03-05,18.459999084472656,18.209999084472656,18.3700008392334,18.350000381469727,155800.0,17.48723602294922
2018-03-06,19.020000457763672,18.440000534057617,18.440000534057617,18.989999771118164,94400.0,18.097145080566406
2018-03-07,19.5,18.885000228881836,18.920000076293945,19.309999465942383,112700.0,18.402099609375
2018-03-08,19.389999389648438,19.09000015258789,19.280000686645508,19.299999237060547,52500.0,18.3925724029541
2018-03-09,19.850000381469727,19.100000381469727,19.290000915527344,19.770000457763672,197700.0,18.840471267700195
2018-03-12,20.09000015258789,19.530000686645508,19.68000030517578,19.6200008392334,75900.0,18.697528839111328
2018-03-13,19.850000381469727,19.450000762939453,19.56999969482422,19.489999771118164,50300.0,18.573638916015625
2018-03-14,19.709999084472656,19.260000228881836,19.56999969482422,19.3799991607666,76700.0,18.468809127807617
2018-03-15,19.43000030517578,18.96500015258789,19.34000015258789,19.239999771118164,87200.0,18.335391998291016
2018-03-16,19.440000534057617,18.790000915527344,19.280000686645508,19.139999389648438,165200.0,18.240093231201172
2018-03-19,19.010000228881836,18.59000015258789,19.010000228881836,18.850000381469727,38700.0,17.963727951049805
2018-03-20,18.950000762939453,18.25,18.899999618530273,18.65999984741211,39900.0,17.78266143798828
2018-03-21,18.889999389648438,18.420000076293945,18.790000915527344,18.540000915527344,43000.0,17.668306350708008
2018-03-22,19.049999237060547,18.139999389648438,18.360000610351562,18.31999969482422,68500.0,17.458646774291992
2018-03-23,18.90999984741211,18.309999465942383,18.309999465942383,18.469999313354492,53900.0,17.601594924926758
2018-03-26,19.040000915527344,18.3799991607666,18.469999313354492,18.979999542236328,74900.0,18.087617874145508
2018-03-27,19.09000015258789,18.209999084472656,18.860000610351562,18.270000457763672,70900.0,17.41099739074707
2018-03-28,18.399999618530273,18.100000381469727,18.110000610351562,18.229999542236328,100600.0,17.372879028320312
2018-03-29,18.770000457763672,18.149999618530273,18.149999618530273,18.68000030517578,61900.0,17.801721572875977
2018-04-02,18.739999771118164,18.139999389648438,18.530000686645508,18.520000457763672,166100.0,17.649246215820312
2018-04-03,18.81999969482422,18.25,18.399999618530273,18.790000915527344,90000.0,17.906551361083984
2018-04-04,18.915000915527344,18.450000762939453,18.469999313354492,18.850000381469727,32900.0,17.963727951049805
2018-04-05,19.0,18.594999313354492,18.709999084472656,18.979999542236328,69600.0,18.087617874145508
2018-04-06,18.860000610351562,18.290000915527344,18.709999084472656,18.40999984741211,36200.0,17.544416427612305
2018-04-09,18.950000762939453,18.270000457763672,18.360000610351562,18.739999771118164,65900.0,17.858901977539062
2018-04-10,19.045000076293945,18.719999313354492,18.739999771118164,18.90999984741211,44700.0,18.020906448364258
2018-04-11,19.200000762939453,18.68000030517578,18.68000030517578,18.90999984741211,58000.0,18.020906448364258
2018-04-12,19.1200008392334,18.81999969482422,18.8700008392334,19.059999465942383,55000.0,18.163854598999023
2018-04-13,19.270000457763672,18.985000610351562,19.200000762939453,19.15999984741211,34700.0,18.259151458740234
2018-04-16,19.229999542236328,18.94499969482422,19.09000015258789,19.0,45200.0,18.10667610168457
2018-04-17,19.059999465942383,18.93000030517578,18.959999084472656,18.989999771118164,83600.0,18.097145080566406
2018-04-18,19.094999313354492,18.889999389648438,18.93000030517578,19.020000457763672,58600.0,18.125736236572266
2018-04-19,19.149999618530273,18.860000610351562,19.049999237060547,18.950000762939453,41700.0,18.05902671813965
2018-04-20,19.049999237060547,18.700000762939453,18.989999771118164,18.760000228881836,49200.0,17.877958297729492
2018-04-23,18.784000396728516,18.385000228881836,18.709999084472656,18.579999923706055,43200.0,17.706422805786133
2018-04-24,18.729999542236328,18.364999771118164,18.610000610351562,18.579999923706055,224900.0,17.706422805786133
2018-04-25,18.579999923706055,18.280000686645508,18.469999313354492,18.520000457763672,44300.0,17.649246215820312
2018-04-26,19.979999542236328,19.190000534057617,19.43000030517578,19.68000030517578,102800.0,18.75470542907715
2018-04-27,20.34000015258789,19.65999984741211,19.65999984741211,20.309999465942383,49300.0,19.355083465576172
2018-04-30,20.530000686645508,20.165000915527344,20.329999923706055,20.31999969482422,41100.0,19.364614486694336
2018-05-01,20.260000228881836,19.53499984741211,20.260000228881836,19.809999465942383,55900.0,18.87859344482422
2018-05-02,19.950000762939453,19.360000610351562,19.709999084472656,19.40999984741211,78800.0,18.497398376464844
2018-05-03,19.40999984741211,18.729999542236328,19.40999984741211,18.93000030517578,31400.0,18.039968490600586
2018-05-04,18.979999542236328,18.489999771118164,18.979999542236328,18.559999465942383,505000.0,17.68736457824707
2018-05-07,19.0,18.610000610351562,18.690000534057617,18.829999923706055,32800.0,17.94466781616211
2018-05-08,18.989999771118164,18.469999313354492,18.90999984741211,18.59000015258789,37000.0,17.715951919555664
2018-05-09,18.739999771118164,18.209999084472656,18.709999084472656,18.68000030517578,46000.0,17.801721572875977
2018-05-10,18.804000854492188,18.209999084472656,18.649999618530273,18.280000686645508,69400.0,17.420528411865234
2018-05-11,18.459999084472656,18.25,18.25,18.309999465942383,22600.0,17.449119567871094
2018-05-14,18.440000534057617,18.209999084472656,18.299999237060547,18.229999542236328,29000.0,17.372879028320312
2018-05-15,18.25,18.059999465942383,18.15999984741211,18.209999084472656,41200.0,17.353816986083984
2018-05-16,18.149999618530273,17.81999969482422,18.06999969482422,18.040000915527344,63300.0,17.325010299682617
2018-05-17,18.239999771118164,17.969999313354492,18.0,17.979999542236328,67600.0,17.26738739013672
2018-05-18,18.100000381469727,17.700000762939453,17.940000534057617,17.729999542236328,87800.0,17.02729606628418
2018-05-21,17.940000534057617,17.700000762939453,17.75,17.760000228881836,65500.0,17.056106567382812
2018-05-22,18.18000030517578,17.81999969482422,17.84000015258789,17.889999389648438,48500.0,17.180953979492188
2018-05-23,18.260000228881836,17.739999771118164,17.739999771118164,18.200000762939453,37700.0,17.478670120239258
2018-05-24,18.360000610351562,17.979999542236328,18.149999618530273,18.110000610351562,62400.0,17.39223289489746
2018-05-25,18.25,17.93000030517578,18.229999542236328,18.149999618530273,72500.0,17.43065071105957
2018-05-29,18.174999237060547,17.770000457763672,18.020000457763672,17.889999389648438,51100.0,17.180953979492188
2018-05-30,17.950000762939453,17.170000076293945,17.93000030517578,17.229999542236328,174900.0,16.5471134185791
2018-05-31,18.040000915527344,17.25,17.5,17.3700008392334,201100.0,16.681564331054688
2018-06-01,17.6200008392334,17.09000015258789,17.520000457763672,17.219999313354492,76600.0,16.537508010864258
2018-06-04,17.510000228881836,17.1299991607666,17.219999313354492,17.239999771118164,84700.0,16.556716918945312
2018-06-05,17.385000228881836,17.0,17.270000457763672,17.079999923706055,72200.0,16.403057098388672
2018-06-06,17.18000030517578,16.780000686645508,17.079999923706055,16.93000030517578,56900.0,16.259004592895508
2018-06-07,17.024999618530273,16.81999969482422,16.950000762939453,16.899999618530273,57200.0,16.23019027709961
2018-06-08,16.90999984741211,16.575000762939453,16.889999389648438,16.8799991607666,42000.0,16.21098518371582
2018-06-11,17.018999099731445,16.719999313354492,16.899999618530273,16.889999389648438,44600.0,16.220584869384766
2018-06-12,17.059999465942383,16.81999969482422,16.940000534057617,16.950000762939453,107200.0,16.27821159362793
2018-06-13,16.959999084472656,16.440000534057617,16.8799991607666,16.549999237060547,116900.0,15.894062995910645
2018-06-14,16.8799991607666,16.559999465942383,16.559999465942383,16.68000030517578,78000.0,16.018911361694336
2018-06-15,16.959999084472656,16.5,16.860000610351562,16.700000762939453,230500.0,16.03812026977539
2018-06-18,16.902000427246094,16.530000686645508,16.700000762939453,16.829999923706055,78500.0,16.162965774536133
2018-06-19,16.905000686645508,16.530000686645508,16.84000015258789,16.579999923706055,84900.0,15.922873497009277
2018-06-20,16.860000610351562,16.600000381469727,16.690000534057617,16.719999313354492,44900.0,16.057327270507812
2018-06-21,16.700000762939453,16.450000762939453,16.690000534057617,16.530000686645508,92400.0,15.874855995178223
2018-06-22,16.760000228881836,16.47800064086914,16.68000030517578,16.6200008392334,205500.0,15.96129035949707
2018-06-25,16.8700008392334,16.399999618530273,16.530000686645508,16.600000381469727,142400.0,15.942081451416016
2018-06-26,16.81999969482422,15.979999542236328,16.690000534057617,16.1200008392334,346900.0,15.481106758117676
2018-06-27,16.809999465942383,16.049999237060547,16.239999771118164,16.549999237060547,143400.0,15.894062995910645
2018-06-28,16.790000915527344,16.53499984741211,16.700000762939453,16.719999313354492,82100.0,16.057327270507812
2018-06-29,16.920000076293945,16.59000015258789,16.790000915527344,16.6200008392334,102200.0,15.96129035949707
2018-07-02,16.780000686645508,16.479999542236328,16.639999389648438,16.780000686645508,101600.0,16.114948272705078
2018-07-03,17.030000686645508,16.540000915527344,16.84000015258789,16.59000015258789,38900.0,15.932476043701172
2018-07-05,16.704999923706055,16.485000610351562,16.700000762939453,16.649999618530273,59500.0,15.99009895324707
2018-07-06,16.799999237060547,16.3799991607666,16.59000015258789,16.700000762939453,53900.0,16.03812026977539
2018-07-09,16.75,16.450000762939453,16.75,16.639999389648438,75600.0,15.98049545288086
2018-07-10,17.040000915527344,16.459999084472656,16.719999313354492,17.010000228881836,115100.0,16.335832595825195
2018-07-11,17.375,16.760000228881836,16.899999618530273,17.1200008392334,69600.0,16.44147300720215
2018-07-12,17.22599983215332,16.809999465942383,17.209999084472656,16.93000030517578,74700.0,16.259004592895508
2018-07-13,16.950000762939453,16.639999389648438,16.8799991607666,16.68000030517578,42800.0,16.018911361694336
2018-07-16,16.777999877929688,16.34000015258789,16.739999771118164,16.540000915527344,71500.0,15.884461402893066
2018-07-17,16.950000762939453,16.549999237060547,16.549999237060547,16.81999969482422,37300.0,16.15336036682129
2018-07-18,16.829999923706055,16.510000228881836,16.780000686645508,16.75,119000.0,16.086135864257812
2018-07-19,17.040000915527344,16.479999542236328,16.68000030517578,16.950000762939453,43100.0,16.27821159362793
2018-07-20,16.920000076293945,16.329999923706055,16.920000076293945,16.459999084472656,46500.0,15.80763053894043
2018-07-23,16.68000030517578,16.440000534057617,16.59000015258789,16.559999465942383,28700.0,15.903668403625488
2018-07-24,16.969999313354492,16.530000686645508,16.65999984741211,16.75,105800.0,16.086135864257812
2018-07-25,16.809999465942383,16.43000030517578,16.799999237060547,16.700000762939453,31600.0,16.03812026977539
2018-07-26,16.280000686645508,14.770000457763672,15.75,16.010000228881836,928000.0,15.375465393066406
2018-07-27,17.1200008392334,15.920000076293945,16.239999771118164,16.540000915527344,137800.0,15.884461402893066
2018-07-30,16.549999237060547,15.680000305175781,16.549999237060547,15.890000343322754,152200.0,15.260222434997559
2018-07-31,16.0,15.609999656677246,15.890000343322754,15.869999885559082,252200.0,15.241013526916504
2018-08-01,16.139999389648438,15.619999885559082,15.960000038146973,15.9399995803833,117100.0,15.308238983154297
2018-08-02,16.0,15.279999732971191,15.979999542236328,15.350000381469727,153100.0,14.741623878479004
2018-08-03,15.979999542236328,15.350000381469727,15.979999542236328,15.640000343322754,91700.0,15.020130157470703
2018-08-06,16.239999771118164,15.59000015258789,15.59000015258789,16.020000457763672,141000.0,15.385068893432617
2018-08-07,16.31999969482422,15.859999656677246,16.030000686645508,16.010000228881836,40200.0,15.375465393066406
2018-08-08,16.200000762939453,15.885000228881836,16.149999618530273,16.149999618530273,36900.0,15.509916305541992
2018-08-09,16.260000228881836,16.010000228881836,16.110000610351562,16.219999313354492,61900.0,15.577141761779785
2018-08-10,16.15999984741211,15.8149995803833,16.09000015258789,15.899999618530273,55600.0,15.269824028015137
2018-08-13,15.970000267028809,15.529999732971191,15.84000015258789,15.779999732971191,68800.0,15.154580116271973
2018-08-14,15.880000114440918,15.619999885559082,15.770000457763672,15.729999542236328,55300.0,15.106562614440918
2018-08-15,15.779999732971191,15.319999694824219,15.779999732971191,15.5600004196167,79300.0,14.9433012008667
2018-08-16,15.70199966430664,15.399999618530273,15.399999618530273,15.640000343322754,47700.0,15.156499862670898
2018-08-17,16.09000015258789,15.5649995803833,15.670000076293945,15.920000076293945,29800.0,15.427844047546387
2018-08-20,16.13599967956543,15.6899995803833,16.040000915527344,15.699999809265137,68800.0,15.214644432067871
2018-08-21,16.260000228881836,15.65999984741211,15.65999984741211,16.040000915527344,26300.0,15.544135093688965
2018-08-22,16.190000534057617,15.859999656677246,16.139999389648438,15.949999809265137,30100.0,15.456915855407715
2018-08-23,16.040000915527344,15.84000015258789,15.989999771118164,15.880000114440918,36900.0,15.389080047607422
2018-08-24,16.239999771118164,15.850000381469727,15.989999771118164,16.139999389648438,29900.0,15.641042709350586
2018-08-27,16.479999542236328,16.093000411987305,16.260000228881836,16.229999542236328,55000.0,15.728259086608887
2018-08-28,16.389999389648438,16.100000381469727,16.231000900268555,16.149999618530273,26000.0,15.65073299407959
2018-08-29,16.389999389648438,16.10300064086914,16.155000686645508,16.149999618530273,32800.0,15.65073299407959
2018-08-30,16.399999618530273,16.100000381469727,16.18000030517578,16.100000381469727,43900.0,15.602279663085938
2018-08-31,16.299999237060547,15.880000114440918,16.09000015258789,16.020000457763672,70900.0,15.524751663208008
2018-09-04,16.200000762939453,15.949999809265137,15.949999809265137,16.1200008392334,17500.0,15.621662139892578
2018-09-05,16.3700008392334,15.949999809265137,15.949999809265137,16.209999084472656,17200.0,15.708877563476562
2018-09-06,16.3700008392334,16.010000228881836,16.270000457763672,16.100000381469727,13200.0,15.602279663085938
2018-09-07,16.229999542236328,16.010000228881836,16.08099937438965,16.190000534057617,21500.0,15.689496994018555
2018-09-10,16.270000457763672,16.079999923706055,16.139999389648438,16.200000762939453,35700.0,15.699187278747559
2018-09-11,16.280000686645508,15.994999885559082,16.139999389648438,16.209999084472656,45200.0,15.708877563476562
2018-09-12,16.34000015258789,15.979999542236328,16.209999084472656,16.010000228881836,43500.0,15.515061378479004
2018-09-13,16.34000015258789,16.110000610351562,16.149999618530273,16.200000762939453,17800.0,15.699187278747559
2018-09-14,16.829999923706055,15.930000305175781,16.274999618530273,16.190000534057617,50800.0,15.689496994018555
2018-09-17,16.360000610351562,16.100000381469727,16.100000381469727,16.229999542236328,55300.0,15.728259086608887
2018-09-18,16.799999237060547,16.25,16.25,16.65999984741211,77500.0,16.14496612548828
2018-09-19,16.898000717163086,16.34000015258789,16.360000610351562,16.600000381469727,32400.0,16.086822509765625
2018-09-20,16.809999465942383,16.360000610351562,16.360000610351562,16.639999389648438,65100.0,16.125585556030273
2018-09-21,16.829999923706055,16.510000228881836,16.65999984741211,16.68000030517578,67500.0,16.164350509643555
2018-09-24,16.90999984741211,16.510000228881836,16.589000701904297,16.829999923706055,79000.0,16.309711456298828
2018-09-25,16.950000762939453,16.549999237060547,16.860000610351562,16.639999389648438,32800.0,16.125585556030273
2018-09-26,16.700000762939453,16.208999633789062,16.700000762939453,16.600000381469727,57400.0,16.086822509765625
2018-09-27,16.809999465942383,16.510000228881836,16.559999465942383,16.739999771118164,17300.0,16.222492218017578
2018-09-28,16.850000381469727,16.510000228881836,16.65999984741211,16.690000534057617,31000.0,16.174039840698242
2018-10-01,16.822999954223633,15.968999862670898,16.649999618530273,16.1299991607666,138700.0,15.631351470947266
2018-10-02,16.329999923706055,16.040000915527344,16.1299991607666,16.280000686645508,56500.0,15.776715278625488
2018-10-03,16.729999542236328,16.190000534057617,16.190000534057617,16.549999237060547,100000.0,16.038366317749023
2018-10-04,16.920000076293945,16.43000030517578,16.59000015258789,16.719999313354492,186700.0,16.203113555908203
2018-10-05,17.05299949645996,16.639999389648438,16.809999465942383,16.93000030517578,107300.0,16.4066219329834
2018-10-08,17.18000030517578,16.889999389648438,17.09000015258789,16.969999313354492,33600.0,16.44538116455078
2018-10-09,17.079999923706055,16.55500030517578,16.989999771118164,16.940000534057617,66300.0,16.416311264038086
2018-10-10,17.06999969482422,16.0,17.0,16.049999237060547,77400.0,15.553824424743652
2018-10-11,16.149999618530273,15.539999961853027,16.020000457763672,15.9399995803833,110400.0,15.447224617004395
2018-10-12,16.31999969482422,15.890000343322754,16.059999465942383,16.149999618530273,51300.0,15.65073299407959
2018-10-15,16.25,16.0,16.149999618530273,16.030000686645508,144300.0,15.534442901611328
2018-10-16,16.1299991607666,15.859999656677246,16.051000595092773,16.030000686645508,199300.0,15.534442901611328
2018-10-17,16.020000457763672,15.710000038146973,15.949999809265137,16.0,38000.0,15.505370140075684
2018-10-18,15.989999771118164,15.510000228881836,15.829999923706055,15.75,44200.0,15.26309871673584
2018-10-19,15.789999961853027,15.399999618530273,15.789999961853027,15.470000267028809,31900.0,14.991755485534668
2018-10-22,15.489999771118164,14.800000190734863,15.460000038146973,15.170000076293945,124700.0,14.701029777526855
2018-10-23,15.199999809265137,14.760000228881836,15.079999923706055,14.880000114440918,85400.0,14.419994354248047
2018-10-24,14.930000305175781,13.869999885559082,14.8100004196167,14.020000457763672,141500.0,13.586581230163574
2018-10-25,14.170000076293945,13.199999809265137,14.109999656677246,13.220000267028809,175400.0,12.811312675476074
2018-10-26,13.729999542236328,13.079999923706055,13.149999618530273,13.130000114440918,90000.0,12.72409439086914
2018-10-29,13.359999656677246,13.0,13.25,13.289999961853027,159600.0,12.87914752960205
2018-10-30,13.470000267028809,13.0,13.229999542236328,13.420000076293945,82200.0,13.00512981414795
2018-10-31,13.5,13.100000381469727,13.399999618530273,13.180000305175781,83700.0,12.772549629211426
2018-11-01,13.970000267028809,13.210000038146973,13.210000038146973,13.779999732971191,110100.0,13.354000091552734
2018-11-02,13.84000015258789,13.630000114440918,13.75,13.75,66200.0,13.32492733001709
2018-11-05,13.84000015258789,13.460000038146973,13.84000015258789,13.489999771118164,84200.0,13.072965621948242
2018-11-06,13.6899995803833,13.350000381469727,13.479999542236328,13.65999984741211,30700.0,13.237709999084473
2018-11-07,14.09000015258789,13.600000381469727,13.789999961853027,14.050000190734863,38600.0,13.615653038024902
2018-11-08,14.180000305175781,13.960000038146973,14.100000381469727,14.029999732971191,40000.0,13.596271514892578
2018-11-09,14.039999961853027,13.460000038146973,14.039999961853027,13.6899995803833,75600.0,13.2667818069458
2018-11-12,13.329999923706055,12.720000267028809,13.319999694824219,12.789999961853027,99200.0,12.39460563659668
2018-11-13,13.149999618530273,12.800000190734863,12.800000190734863,13.029999732971191,41500.0,12.62718677520752
2018-11-14,13.40999984741211,12.710000038146973,13.039999961853027,12.779999732971191,107900.0,12.38491439819336
2018-11-15,12.78499984741211,12.470000267028809,12.609999656677246,12.699999809265137,138100.0,12.443703651428223
2018-11-16,13.300000190734863,12.640000343322754,12.640000343322754,13.25,241300.0,12.98260498046875
2018-11-19,13.25100040435791,12.899999618530273,13.1899995803833,13.050000190734863,75000.0,12.786640167236328
2018-11-20,12.979999542236328,12.399999618530273,12.979999542236328,12.489999771118164,92100.0,12.23794174194336
2018-11-21,12.8100004196167,12.430000305175781,12.529999732971191,12.760000228881836,183900.0,12.502492904663086
2018-11-23,12.819999694824219,12.640000343322754,12.8100004196167,12.710000038146973,18200.0,12.45350170135498
2018-11-26,12.880000114440918,12.479999542236328,12.859999656677246,12.5600004196167,323000.0,12.306529998779297
2018-11-27,12.619999885559082,12.359999656677246,12.5600004196167,12.59000015258789,149200.0,12.33592414855957
2018-11-28,12.84000015258789,12.569999694824219,12.569999694824219,12.819999694824219,65800.0,12.56128215789795
2018-11-29,12.930000305175781,12.699999809265137,12.84000015258789,12.890000343322754,139100.0,12.62986946105957
2018-11-30,13.119999885559082,12.789999961853027,12.789999961853027,13.010000228881836,101800.0,12.747447967529297
2018-12-03,13.359999656677246,12.979999542236328,13.170000076293945,13.180000305175781,102800.0,12.914016723632812
2018-12-04,13.210000038146973,12.760000228881836,13.1899995803833,12.770000457763672,72000.0,12.51229190826416
2018-12-06,12.59000015258789,12.300000190734863,12.329999923706055,12.5600004196167,97300.0,12.306529998779297
2018-12-07,12.670000076293945,12.420000076293945,12.5600004196167,12.510000228881836,217100.0,12.257538795471191
2018-12-10,12.680000305175781,12.1899995803833,12.552000045776367,12.229999542236328,106000.0,11.98318862915039
2018-12-11,12.579999923706055,11.600000381469727,12.390000343322754,11.619999885559082,561100.0,11.385499000549316
2018-12-12,11.789999961853027,11.329999923706055,11.720000267028809,11.380000114440918,185300.0,11.15034294128418
2018-12-13,11.510000228881836,11.180000305175781,11.4399995803833,11.34000015258789,278000.0,11.111149787902832
2018-12-14,12.109999656677246,11.36400032043457,11.36400032043457,11.729999542236328,77500.0,11.493279457092285
2018-12-17,11.819999694824219,11.039999961853027,11.819999694824219,11.239999771118164,77700.0,11.013167381286621
2018-12-18,11.350000381469727,10.619999885559082,11.350000381469727,10.829999923706055,103200.0,10.611441612243652
2018-12-19,11.255000114440918,10.800000190734863,10.880000114440918,10.989999771118164,155400.0,10.768213272094727
2018-12-20,11.050000190734863,10.59000015258789,10.9399995803833,10.699999809265137,143400.0,10.484065055847168
2018-12-21,10.789999961853027,10.470000267028809,10.729999542236328,10.539999961853027,272700.0,10.32729434967041
2018-12-24,10.645000457763672,10.359999656677246,10.550000190734863,10.460000038146973,86500.0,10.248908996582031
2018-12-26,10.539999961853027,10.1899995803833,10.399999618530273,10.539999961853027,189800.0,10.32729434967041
2018-12-27,10.520000457763672,10.09000015258789,10.470000267028809,10.5,214300.0,10.288101196289062
2018-12-28,10.65999984741211,10.350000381469727,10.460000038146973,10.470000267028809,134800.0,10.258707046508789
2018-12-31,11.15999984741211,10.279999732971191,10.550000190734863,11.079999923706055,450500.0,10.856396675109863
2019-01-02,11.020000457763672,10.489999771118164,10.979999542236328,10.609999656677246,125000.0,10.395881652832031
2019-01-03,10.760000228881836,10.199999809265137,10.630000114440918,10.239999771118164,100500.0,10.033348083496094
2019-01-04,10.84000015258789,10.34000015258789,10.34000015258789,10.739999771118164,103000.0,10.523258209228516
2019-01-07,10.979999542236328,10.520000457763672,10.6899995803833,10.9399995803833,296000.0,10.719222068786621
2019-01-08,11.420000076293945,10.994999885559082,11.050000190734863,11.260000228881836,254300.0,11.032764434814453
2019-01-09,11.510000228881836,11.100000381469727,11.239999771118164,11.449999809265137,276300.0,11.218929290771484
2019-01-10,11.539999961853027,11.010000228881836,11.420000076293945,11.15999984741211,315900.0,10.934782028198242
2019-01-11,11.449999809265137,11.0,11.130000114440918,11.300000190734863,243900.0,11.0719575881958
2019-01-14,11.40999984741211,11.130000114440918,11.199999809265137,11.15999984741211,147700.0,10.934782028198242
2019-01-15,11.300000190734863,11.109999656677246,11.130000114440918,11.149999618530273,141100.0,10.924983978271484
2019-01-16,11.520000457763672,11.229999542236328,11.270000457763672,11.3100004196167,79200.0,11.081755638122559
2019-01-17,11.630000114440918,11.329999923706055,11.359999656677246,11.449999809265137,65200.0,11.218929290771484
2019-01-18,11.75,11.489999771118164,11.510000228881836,11.670000076293945,86000.0,11.434490203857422
2019-01-22,11.819999694824219,11.430000305175781,11.65999984741211,11.609999656677246,61100.0,11.375699996948242
2019-01-23,11.850000381469727,11.510000228881836,11.649999618530273,11.609999656677246,93200.0,11.375699996948242
2019-01-24,11.989999771118164,11.649999618530273,11.649999618530273,11.710000038146973,50000.0,11.473682403564453
2019-01-25,12.109999656677246,11.760000228881836,11.760000228881836,11.930000305175781,40600.0,11.68924331665039
2019-01-28,11.880000114440918,11.550000190734863,11.880000114440918,11.619999885559082,115400.0,11.385499000549316
2019-01-29,11.84000015258789,11.59000015258789,11.699999809265137,11.670000076293945,78800.0,11.434490203857422
2019-01-30,11.899999618530273,11.65999984741211,11.800000190734863,11.770000457763672,189300.0,11.532472610473633
2019-01-31,12.260000228881836,11.630000114440918,11.829999923706055,12.119999885559082,281000.0,11.875409126281738
2019-02-01,12.53499984741211,11.90999984741211,12.239999771118164,11.970000267028809,143400.0,11.728435516357422
2019-02-04,12.359999656677246,11.989999771118164,12.029999732971191,12.300000190734863,152700.0,12.051776885986328
2019-02-05,12.420000076293945,12.130000114440918,12.380000114440918,12.1899995803833,130900.0,11.943995475769043
2019-02-06,12.289999961853027,12.029999732971191,12.25,12.109999656677246,171000.0,11.865610122680664
2019-02-07,12.279999732971191,11.789999961853027,12.140000343322754,11.850000381469727,145500.0,11.610857963562012
2019-02-08,12.170000076293945,11.770000457763672,11.949999809265137,12.170000076293945,112400.0,11.924400329589844
2019-02-11,12.239999771118164,11.949999809265137,12.239999771118164,12.130000114440918,91900.0,11.88520622253418
2019-02-12,12.460000038146973,12.199999809265137,12.199999809265137,12.319999694824219,31400.0,12.071372032165527
2019-02-13,12.65999984741211,12.350000381469727,12.350000381469727,12.640000343322754,51500.0,12.384915351867676
2019-02-14,12.770000457763672,12.539999961853027,12.539999961853027,12.649999618530273,58000.0,12.394712448120117
2019-02-15,12.899999618530273,12.710000038146973,12.710000038146973,12.770000457763672,46400.0,12.51229190826416
2019-02-19,12.829999923706055,12.640000343322754,12.829999923706055,12.699999809265137,54000.0,12.443703651428223
2019-02-20,13.0600004196167,12.670000076293945,12.670000076293945,13.0,46900.0,12.737648963928223
2019-02-21,14.539999961853027,12.609999656677246,14.239999771118164,12.800000190734863,201100.0,12.541686058044434
2019-02-22,13.079999923706055,12.449999809265137,12.779999732971191,12.5,159200.0,12.247739791870117
2019-02-25,13.510000228881836,12.579999923706055,12.579999923706055,13.430000305175781,172000.0,13.15897274017334
2019-02-26,13.359999656677246,12.949999809265137,13.239999771118164,13.0,73700.0,12.871830940246582
2019-02-27,13.069999694824219,12.720000267028809,13.010000228881836,13.020000457763672,46300.0,12.891633987426758
2019-02-28,13.109999656677246,12.8100004196167,12.880000114440918,13.020000457763672,109600.0,12.891633987426758
2019-03-01,13.279999732971191,13.020000457763672,13.130000114440918,13.239999771118164,150400.0,13.109464645385742
2019-03-04,13.420000076293945,13.164999961853027,13.319999694824219,13.319999694824219,94000.0,13.188675880432129
2019-03-05,13.380000114440918,13.09000015258789,13.300000190734863,13.180000305175781,44100.0,13.050056457519531
2019-03-06,13.390000343322754,13.149999618530273,13.25,13.359999656677246,81900.0,13.228281021118164
2019-03-07,13.5600004196167,12.90999984741211,13.399999618530273,13.010000228881836,93400.0,12.881732940673828
2019-03-08,13.350000381469727,12.75,13.029999732971191,13.34000015258789,76600.0,13.208478927612305
2019-03-11,13.670000076293945,13.020000457763672,13.460000038146973,13.300000190734863,75000.0,13.16887378692627
2019-03-12,13.600000381469727,13.229999542236328,13.399999618530273,13.550000190734863,68900.0,13.41640853881836
2019-03-13,13.680000305175781,13.109999656677246,13.680000305175781,13.180000305175781,61900.0,13.050056457519531
2019-03-14,13.300000190734863,12.979999542236328,13.300000190734863,13.100000381469727,33500.0,12.970845222473145
2019-03-15,13.239999771118164,13.010000228881836,13.100000381469727,13.020000457763672,95200.0,12.891633987426758
2019-03-18,13.1899995803833,12.970000267028809,13.020000457763672,13.0,190000.0,12.871830940246582
2019-03-19,13.420000076293945,13.0,13.029999732971191,13.319999694824219,87000.0,13.188675880432129
2019-03-20,13.369999885559082,13.09000015258789,13.239999771118164,13.119999885559082,47200.0,12.99064826965332
2019-03-21,13.199999809265137,12.960000038146973,13.170000076293945,13.010000228881836,67300.0,12.881732940673828
2019-03-22,13.020000457763672,12.710000038146973,13.020000457763672,12.880000114440918,41100.0,12.75301456451416
2019-03-25,13.039999961853027,12.6850004196167,12.850000381469727,13.010000228881836,45200.0,12.881732940673828
2019-03-26,13.204999923706055,12.895000457763672,13.0600004196167,12.970000267028809,320300.0,12.842126846313477
2019-03-27,13.109999656677246,12.9399995803833,12.970000267028809,13.0,37900.0,12.871830940246582
2019-03-28,13.079999923706055,12.800000190734863,12.90999984741211,13.029999732971191,34300.0,12.901535034179688
2019-03-29,13.199999809265137,12.869999885559082,13.020000457763672,13.0,62300.0,12.871830940246582
2019-04-01,13.9399995803833,13.039999961853027,13.039999961853027,13.850000381469727,106600.0,13.713451385498047
2019-04-02,13.920000076293945,13.529999732971191,13.800000190734863,13.619999885559082,70800.0,13.485718727111816
2019-04-03,13.8100004196167,13.380000114440918,13.699999809265137,13.739999771118164,141200.0,13.604535102844238
2019-04-04,14.050000190734863,13.694999694824219,13.739999771118164,13.829999923706055,62700.0,13.693648338317871
2019-04-05,13.949999809265137,13.710000038146973,13.890000343322754,13.770000457763672,77900.0,13.63424015045166
2019-04-08,13.960000038146973,13.75,13.770000457763672,13.829999923706055,75700.0,13.693648338317871
2019-04-09,13.890000343322754,13.579999923706055,13.880000114440918,13.75,25900.0,13.614437103271484
2019-04-10,13.890000343322754,13.609999656677246,13.770000457763672,13.8100004196167,34400.0,13.673845291137695
2019-04-11,13.970000267028809,13.65999984741211,13.770000457763672,13.800000190734863,73600.0,13.663944244384766
2019-04-12,13.960000038146973,13.779999732971191,13.779999732971191,13.949999809265137,56500.0,13.812464714050293
2019-04-15,14.00100040435791,13.739999771118164,13.989999771118164,13.890000343322754,41000.0,13.753056526184082
2019-04-16,13.975000381469727,13.8100004196167,13.8100004196167,13.9399995803833,137800.0,13.802562713623047
2019-04-17,14.010000228881836,13.720000267028809,14.010000228881836,13.84000015258789,50200.0,13.7035493850708
2019-04-18,14.015000343322754,13.729999542236328,13.789999961853027,13.890000343322754,56200.0,13.753056526184082
2019-04-22,14.017999649047852,13.829999923706055,13.942000389099121,13.899999618530273,59200.0,13.762957572937012
2019-04-23,14.229999542236328,13.819999694824219,13.949999809265137,14.199999809265137,93200.0,14.0600004196167
2019-04-24,14.300000190734863,14.029999732971191,14.119999885559082,14.0600004196167,74100.0,13.921380996704102
2019-04-25,14.050000190734863,13.520000457763672,14.050000190734863,13.5600004196167,88100.0,13.426310539245605
2019-04-26,14.109999656677246,13.399999618530273,14.109999656677246,13.899999618530273,426400.0,13.762957572937012
2019-04-29,13.970000267028809,13.67300033569336,13.819999694824219,13.869999885559082,73500.0,13.733253479003906
2019-04-30,13.979999542236328,13.774999618530273,13.84000015258789,13.880000114440918,108800.0,13.743155479431152
2019-05-01,13.970000267028809,13.685999870300293,13.869999885559082,13.720000267028809,88200.0,13.584733009338379
2019-05-02,13.779999732971191,13.460000038146973,13.779999732971191,13.729999542236328,28700.0,13.594633102416992
2019-05-03,14.020000457763672,13.760000228881836,14.020000457763672,13.869999885559082,59300.0,13.733253479003906
2019-05-06,14.050000190734863,13.720000267028809,13.720000267028809,13.9399995803833,343000.0,13.802562713623047
2019-05-07,14.319999694824219,13.930000305175781,13.949999809265137,14.1899995803833,72400.0,14.050098419189453
2019-05-08,14.239999771118164,14.010000228881836,14.199999809265137,14.140000343322754,37100.0,14.000592231750488
2019-05-09,14.170000076293945,13.8100004196167,14.050000190734863,14.119999885559082,48300.0,13.980789184570312
2019-05-10,14.279999732971191,14.013999938964844,14.013999938964844,14.25,32600.0,14.10950756072998
2019-05-13,14.149999618530273,13.930000305175781,14.149999618530273,14.020000457763672,38200.0,13.88177490234375
2019-05-14,14.229999542236328,14.050000190734863,14.229999542236328,14.119999885559082,45100.0,13.980789184570312
2019-05-15,14.3100004196167,14.079999923706055,14.109999656677246,14.199999809265137,65100.0,14.0600004196167
2019-05-16,14.399999618530273,14.1899995803833,14.329999923706055,14.359999656677246,67800.0,14.359999656677246
2019-05-17,14.725000381469727,14.3100004196167,14.3100004196167,14.649999618530273,69500.0,14.649999618530273
2019-05-20,15.029999732971191,14.529999732971191,14.619999885559082,14.829999923706055,87200.0,14.829999923706055
2019-05-21,15.09000015258789,14.670000076293945,14.829999923706055,14.75,97400.0,14.75
2019-05-22,15.0,14.710000038146973,14.859999656677246,14.84000015258789,77100.0,14.84000015258789
2019-05-23,14.890000343322754,14.529999732971191,14.800000190734863,14.699999809265137,54200.0,14.699999809265137
2019-05-24,14.835000038146973,14.670000076293945,14.800000190734863,14.779999732971191,52700.0,14.779999732971191
