Date,High,Low,Open,Close,Volume,Adj Close
2017-06-22,32.7400016784668,31.520000457763672,31.600000381469727,32.709999084472656,31458300.0,29.3983154296875
2017-06-23,35.290000915527344,32.599998474121094,32.68000030517578,34.29999923706055,5375500.0,30.82733726501465
2017-06-26,35.189998626708984,33.529998779296875,35.08000183105469,33.900001525878906,1792800.0,30.467836380004883
2017-06-27,34.05500030517578,32.65999984741211,33.88999938964844,32.86000061035156,2619500.0,29.53312873840332
2017-06-28,33.189998626708984,32.630001068115234,32.970001220703125,32.90999984741211,4455100.0,29.578065872192383
2017-06-29,32.86000061035156,32.40999984741211,32.83000183105469,32.68000030517578,2115400.0,29.371353149414062
2017-06-30,32.790000915527344,32.0099983215332,32.619998931884766,32.29999923706055,2491100.0,29.02982521057129
2017-07-03,32.439998626708984,31.899999618530273,32.34000015258789,31.899999618530273,917000.0,28.67032241821289
2017-07-05,32.08000183105469,31.110000610351562,31.790000915527344,31.200000762939453,1762900.0,28.041194915771484
2017-07-06,32.5099983215332,30.65999984741211,31.1200008392334,31.8799991607666,1430700.0,28.652347564697266
2017-07-07,32.689998626708984,31.579999923706055,31.959999084472656,32.45000076293945,1409400.0,29.164640426635742
2017-07-10,32.72999954223633,31.510000228881836,32.47999954223633,32.27000045776367,972900.0,29.00286293029785
2017-07-11,32.2400016784668,31.274999618530273,32.2400016784668,31.75,709100.0,28.53550910949707
2017-07-12,32.369998931884766,31.479999542236328,32.220001220703125,31.899999618530273,747600.0,28.67032241821289
2017-07-13,32.060001373291016,31.5,31.920000076293945,31.549999237060547,916100.0,28.355756759643555
2017-07-14,32.0,31.399999618530273,31.399999618530273,31.790000915527344,193100.0,28.571460723876953
2017-07-17,32.21500015258789,31.530000686645508,31.530000686645508,31.90999984741211,1521100.0,28.679309844970703
2017-07-18,32.189998626708984,31.670000076293945,32.150001525878906,32.0099983215332,1033900.0,28.769184112548828
2017-07-19,32.099998474121094,31.329999923706055,32.0099983215332,31.639999389648438,677600.0,28.4366455078125
2017-07-20,31.73699951171875,30.780000686645508,31.59000015258789,31.440000534057617,660600.0,28.256895065307617
2017-07-21,31.440000534057617,31.030000686645508,31.309999465942383,31.100000381469727,583000.0,27.951318740844727
2017-07-24,31.299999237060547,30.8799991607666,31.149999618530273,30.959999084472656,503900.0,27.825490951538086
2017-07-25,31.200000762939453,30.729999542236328,30.8700008392334,31.079999923706055,397200.0,27.93334197998047
2017-07-26,31.899999618530273,30.969999313354492,31.0,31.600000381469727,408000.0,28.40069580078125
2017-07-27,34.060001373291016,31.68400001525879,31.75,33.880001068115234,1944000.0,30.449861526489258
2017-07-28,33.939998626708984,32.16999816894531,33.7599983215332,32.56999969482422,780400.0,29.272489547729492
2017-07-31,34.86000061035156,32.81999969482422,32.81999969482422,33.439998626708984,1901100.0,30.054407119750977
2017-08-01,34.400001525878906,32.849998474121094,33.290000915527344,33.810001373291016,1030600.0,30.386947631835938
2017-08-02,34.0,32.47999954223633,33.459999084472656,32.619998931884766,2013300.0,29.317426681518555
2017-08-03,32.779998779296875,32.06999969482422,32.5,32.349998474121094,310700.0,29.07476234436035
2017-08-04,32.93000030517578,32.150001525878906,32.45000076293945,32.47999954223633,167100.0,29.191600799560547
2017-08-07,32.75,31.0,32.75,31.079999923706055,613200.0,27.93334197998047
2017-08-08,31.469999313354492,30.899999618530273,30.90999984741211,31.049999237060547,522100.0,27.90637969970703
2017-08-09,32.0,30.299999237060547,31.0,31.09000015258789,2489600.0,27.942331314086914
2017-08-10,32.0,30.75,30.90999984741211,31.040000915527344,704600.0,27.89739418029785
2017-08-11,31.549999237060547,30.8799991607666,31.09000015258789,31.489999771118164,371800.0,28.30183219909668
2017-08-14,31.899999618530273,31.149999618530273,31.700000762939453,31.34000015258789,574500.0,28.16701889038086
2017-08-15,31.7549991607666,30.940000534057617,31.670000076293945,31.020000457763672,411200.0,27.879417419433594
2017-08-16,31.15999984741211,30.469999313354492,31.059999465942383,30.549999237060547,2357700.0,27.457000732421875
2017-08-17,30.65999984741211,29.989999771118164,30.5,30.34000015258789,1434200.0,27.26826286315918
2017-08-18,30.600000381469727,30.079999923706055,30.459999084472656,30.40999984741211,230400.0,27.3311767578125
2017-08-21,30.75,30.31999969482422,30.420000076293945,30.719999313354492,754300.0,27.609790802001953
2017-08-22,30.8700008392334,30.60099983215332,30.729999542236328,30.860000610351562,580300.0,27.73561668395996
2017-08-23,31.1200008392334,30.75,30.75,30.889999389648438,636600.0,27.7625789642334
2017-08-24,31.139999389648438,30.68000030517578,30.809999465942383,30.690000534057617,269800.0,27.582828521728516
2017-08-25,31.079999923706055,30.5,30.719999313354492,30.68000030517578,393000.0,27.573841094970703
2017-08-28,31.170000076293945,30.729999542236328,30.729999542236328,31.049999237060547,385600.0,27.90637969970703
2017-08-29,31.139999389648438,30.790000915527344,31.020000457763672,30.850000381469727,360800.0,27.72662925720215
2017-08-30,31.139999389648438,30.729999542236328,30.729999542236328,31.0,379700.0,27.86144256591797
2017-08-31,31.309999465942383,30.420000076293945,30.950000762939453,30.510000228881836,525400.0,27.421052932739258
2017-09-01,30.889999389648438,30.4950008392334,30.520000457763672,30.5,366400.0,27.412063598632812
2017-09-05,30.959999084472656,29.829999923706055,30.600000381469727,30.010000228881836,1369500.0,26.9716739654541
2017-09-06,30.68000030517578,29.81999969482422,30.06999969482422,30.290000915527344,2503800.0,27.223325729370117
2017-09-07,30.780000686645508,27.81999969482422,30.3799991607666,29.25,6258200.0,26.288618087768555
2017-09-08,29.389999389648438,27.610000610351562,29.350000381469727,28.190000534057617,1992700.0,25.3359375
2017-09-11,29.149999618530273,28.235000610351562,28.450000762939453,28.65999984741211,1002900.0,25.758352279663086
2017-09-12,30.059999465942383,29.25,29.729999542236328,29.5,1770700.0,26.513307571411133
2017-09-13,29.829999923706055,29.209999084472656,29.469999313354492,29.690000534057617,2170300.0,26.684072494506836
2017-09-14,29.844999313354492,29.1200008392334,29.6299991607666,29.479999542236328,1433000.0,26.495332717895508
2017-09-15,29.270000457763672,27.270000457763672,29.25,27.299999237060547,5102200.0,24.536043167114258
2017-09-18,27.729999542236328,26.489999771118164,27.239999771118164,26.719999313354492,2573200.0,24.0147647857666
2017-09-19,27.299999237060547,26.110000610351562,26.75,26.989999771118164,1874300.0,24.257429122924805
2017-09-20,27.809999465942383,26.899999618530273,26.899999618530273,27.350000381469727,817500.0,24.580982208251953
2017-09-21,27.6200008392334,26.920000076293945,27.299999237060547,26.940000534057617,837600.0,24.212491989135742
2017-09-22,27.360000610351562,26.871999740600586,26.889999389648438,27.299999237060547,430100.0,24.536043167114258
2017-09-25,28.3799991607666,27.31999969482422,27.31999969482422,27.670000076293945,1182700.0,24.86858367919922
2017-09-26,28.139999389648438,27.639999389648438,27.799999237060547,27.690000534057617,1117200.0,24.886560440063477
2017-09-27,28.229999542236328,27.639999389648438,27.84000015258789,27.850000381469727,727200.0,25.03036117553711
2017-09-28,27.950000762939453,26.700000762939453,27.81999969482422,27.0,1282200.0,24.26641845703125
2017-09-29,27.549999237060547,26.719999313354492,26.780000686645508,27.309999465942383,1734600.0,24.54503059387207
2017-10-02,28.06999969482422,27.309999465942383,27.610000610351562,27.530000686645508,902100.0,24.742759704589844
2017-10-03,27.65999984741211,27.200000762939453,27.59000015258789,27.25,1117800.0,24.491106033325195
2017-10-04,27.600000381469727,26.8799991607666,27.34000015258789,27.020000457763672,663300.0,24.284393310546875
2017-10-05,28.450000762939453,26.81999969482422,26.989999771118164,28.239999771118164,1239100.0,25.380874633789062
2017-10-06,28.40999984741211,27.59000015258789,28.200000762939453,27.93000030517578,614300.0,25.10226058959961
2017-10-09,28.079999923706055,27.149999618530273,27.959999084472656,27.219999313354492,566700.0,24.464143753051758
2017-10-10,27.174999237060547,26.360000610351562,27.09000015258789,26.75,1398600.0,24.041728973388672
2017-10-11,26.729999542236328,25.69499969482422,26.729999542236328,25.860000610351562,1098900.0,23.241836547851562
2017-10-12,25.8799991607666,24.559999465942383,25.6299991607666,25.149999618530273,1769100.0,22.603717803955078
2017-10-13,25.1200008392334,24.43000030517578,25.100000381469727,24.579999923706055,1313600.0,22.091426849365234
2017-10-16,25.0,24.299999237060547,24.709999084472656,24.600000381469727,1009300.0,22.109403610229492
2017-10-17,24.65999984741211,24.329999923706055,24.469999313354492,24.489999771118164,603900.0,22.010540008544922
2017-10-18,24.75,24.489999771118164,24.579999923706055,24.649999618530273,734800.0,22.154340744018555
2017-10-19,25.600000381469727,24.420000076293945,24.540000915527344,25.520000457763672,1012200.0,22.93625831604004
2017-10-20,26.290000915527344,25.610000610351562,25.610000610351562,26.020000457763672,626400.0,23.385637283325195
2017-10-23,26.334999084472656,25.239999771118164,26.059999465942383,25.600000381469727,783900.0,23.008159637451172
2017-10-24,25.65999984741211,24.889999389648438,25.65999984741211,25.110000610351562,523100.0,22.567768096923828
2017-10-25,25.469999313354492,24.65999984741211,25.06999969482422,25.399999618530273,953000.0,22.828407287597656
2017-10-26,25.010000228881836,23.684999465942383,25.0,23.8799991607666,2410200.0,21.462297439575195
2017-10-27,24.209999084472656,22.739999771118164,24.209999084472656,23.690000534057617,1977100.0,21.291534423828125
2017-10-30,23.93000030517578,23.459999084472656,23.700000762939453,23.520000457763672,594000.0,21.13874626159668
2017-10-31,23.889999389648438,23.149999618530273,23.889999389648438,23.68000030517578,1234800.0,21.282546997070312
2017-11-01,24.959999084472656,23.690000534057617,23.829999923706055,24.940000534057617,3809800.0,22.414979934692383
2017-11-02,25.350000381469727,24.360000610351562,24.760000228881836,24.5,2339400.0,22.019527435302734
2017-11-03,23.520000457763672,20.65999984741211,22.90999984741211,22.59000015258789,6994900.0,20.302902221679688
2017-11-06,24.1200008392334,21.649999618530273,21.649999618530273,23.90999984741211,3272900.0,21.489261627197266
2017-11-07,25.149999618530273,22.6200008392334,25.049999237060547,23.059999465942383,5692500.0,20.725317001342773
2017-11-08,23.260000228881836,22.049999237060547,22.850000381469727,22.799999237060547,2208900.0,20.491640090942383
2017-11-09,22.559999465942383,21.0,22.559999465942383,21.799999237060547,3901000.0,19.592884063720703
2017-11-10,23.600000381469727,21.75,22.65999984741211,21.899999618530273,2010100.0,19.68276023864746
2017-11-13,21.920000076293945,21.049999237060547,21.899999618530273,21.100000381469727,1309300.0,18.963756561279297
2017-11-14,20.790000915527344,18.729999542236328,20.75,19.399999618530273,4668500.0,17.435869216918945
2017-11-15,20.81999969482422,19.450000762939453,19.5,20.260000228881836,3434700.0,18.20880126953125
2017-11-16,20.93000030517578,20.030000686645508,20.280000686645508,20.239999771118164,2048000.0,18.190824508666992
2017-11-17,20.229999542236328,19.389999389648438,20.059999465942383,19.860000610351562,1907500.0,17.84929847717285
2017-11-20,20.75,19.920000076293945,20.25,20.479999542236328,1175000.0,18.406526565551758
2017-11-21,21.0,19.809999465942383,20.5,20.100000381469727,1800300.0,18.065000534057617
2017-11-22,19.860000610351562,19.100000381469727,19.75,19.329999923706055,3303700.0,17.372957229614258
2017-11-24,19.3700008392334,19.049999237060547,19.239999771118164,19.200000762939453,957100.0,17.256120681762695
2017-11-27,19.489999771118164,18.652999877929688,19.200000762939453,18.790000915527344,1232200.0,16.887630462646484
2017-11-28,19.1200008392334,18.06999969482422,18.760000228881836,18.360000610351562,2201100.0,16.50116539001465
2017-11-29,18.920000076293945,18.280000686645508,18.34000015258789,18.700000762939453,2049400.0,16.80674171447754
2017-11-30,19.0,17.809999465942383,18.860000610351562,17.850000381469727,1537100.0,16.04279899597168
2017-12-01,18.520000457763672,17.799999237060547,17.799999237060547,18.440000534057617,2575800.0,16.57306480407715
2017-12-04,18.729999542236328,17.989999771118164,18.540000915527344,18.360000610351562,2163500.0,16.50116539001465
2017-12-05,19.329999923706055,18.389999389648438,18.68000030517578,18.520000457763672,2880500.0,16.64496612548828
2017-12-06,18.670000076293945,17.829999923706055,18.670000076293945,18.1299991607666,1843000.0,16.294448852539062
2017-12-07,18.5,17.850000381469727,18.020000457763672,18.40999984741211,1050900.0,16.54610252380371
2017-12-08,19.40999984741211,18.190000534057617,18.40999984741211,19.079999923706055,2377800.0,17.14826774597168
2017-12-11,19.709999084472656,18.959999084472656,19.239999771118164,19.209999084472656,3064400.0,17.265106201171875
2017-12-12,19.360000610351562,18.799999237060547,19.34000015258789,19.049999237060547,3342400.0,17.121305465698242
2017-12-13,19.579999923706055,18.850000381469727,19.15999984741211,19.350000381469727,2281000.0,17.390932083129883
2017-12-14,19.709999084472656,19.165000915527344,19.3700008392334,19.469999313354492,3863500.0,17.498783111572266
2017-12-15,19.569000244140625,18.68000030517578,19.450000762939453,19.030000686645508,6614400.0,17.103330612182617
2017-12-18,19.670000076293945,19.059999465942383,19.299999237060547,19.260000228881836,1526400.0,17.31004524230957
2017-12-19,20.06999969482422,19.06999969482422,19.299999237060547,19.959999084472656,1760300.0,17.939172744750977
2017-12-20,20.850000381469727,19.850000381469727,19.959999084472656,20.34000015258789,2784900.0,18.28070068359375
2017-12-21,21.40999984741211,20.040000915527344,20.059999465942383,20.969999313354492,5882900.0,18.84691619873047
2017-12-22,21.420000076293945,20.649999618530273,20.950000762939453,21.010000228881836,1844000.0,18.88286781311035
2017-12-26,21.149999618530273,20.700000762939453,20.969999313354492,20.899999618530273,761900.0,18.78400421142578
2017-12-27,20.950000762939453,20.459999084472656,20.899999618530273,20.670000076293945,850500.0,18.57729148864746
2017-12-28,21.030000686645508,20.459999084472656,20.579999923706055,20.90999984741211,1012700.0,18.792991638183594
2017-12-29,21.360000610351562,20.84000015258789,20.8799991607666,21.229999542236328,1428400.0,19.08059310913086
2018-01-02,21.530000686645508,20.510000228881836,21.260000228881836,21.440000534057617,2495700.0,19.269332885742188
2018-01-03,22.219999313354492,21.520000457763672,21.600000381469727,21.670000076293945,2090200.0,19.47604751586914
2018-01-04,21.889999389648438,21.040000915527344,21.59000015258789,21.530000686645508,1841100.0,19.350221633911133
2018-01-05,21.719999313354492,21.170000076293945,21.520000457763672,21.239999771118164,1045400.0,19.089582443237305
2018-01-08,21.459999084472656,21.06999969482422,21.299999237060547,21.09000015258789,822900.0,18.954769134521484
2018-01-09,25.149999618530273,23.010000228881836,23.770000457763672,23.110000610351562,11591900.0,20.77025604248047
2018-01-10,23.030000686645508,22.100000381469727,22.739999771118164,22.75,3023600.0,20.44670295715332
2018-01-11,23.200000762939453,21.809999465942383,22.600000381469727,23.1299991607666,4018900.0,20.788230895996094
2018-01-12,23.690000534057617,23.0,23.1299991607666,23.270000457763672,2681800.0,20.9140567779541
2018-01-16,23.450000762939453,22.15999984741211,23.209999084472656,22.420000076293945,2206300.0,20.150114059448242
2018-01-17,22.315000534057617,21.5,22.280000686645508,21.860000610351562,3476600.0,19.64681053161621
2018-01-18,22.139999389648438,21.575000762939453,21.84000015258789,21.850000381469727,2985800.0,19.6378231048584
2018-01-19,22.0,21.149999618530273,21.729999542236328,21.299999237060547,2751600.0,19.14350700378418
2018-01-22,21.93000030517578,21.1200008392334,21.1200008392334,21.899999618530273,2603100.0,19.68276023864746
2018-01-23,23.28499984741211,22.489999771118164,22.770000457763672,22.829999923706055,3637200.0,20.518604278564453
2018-01-24,22.850000381469727,22.299999237060547,22.850000381469727,22.760000228881836,1783900.0,20.455692291259766
2018-01-25,22.860000610351562,22.110000610351562,22.81999969482422,22.3799991607666,1282200.0,20.11416244506836
2018-01-26,22.649999618530273,22.25,22.56999969482422,22.510000228881836,1297600.0,20.231002807617188
2018-01-29,22.600000381469727,22.040000915527344,22.3799991607666,22.440000534057617,1594100.0,20.168088912963867
2018-01-30,22.399999618530273,21.530000686645508,22.399999618530273,21.809999465942383,1580000.0,19.601871490478516
2018-01-31,22.200000762939453,21.309999465942383,21.889999389648438,21.469999313354492,2057000.0,19.296295166015625
2018-02-01,21.739999771118164,21.420000076293945,21.549999237060547,21.549999237060547,1470700.0,19.368196487426758
2018-02-02,21.59000015258789,21.09000015258789,21.360000610351562,21.350000381469727,1650800.0,19.188446044921875
2018-02-05,21.139999389648438,20.450000762939453,21.139999389648438,20.68000030517578,2265800.0,18.586278915405273
2018-02-06,20.850000381469727,20.040000915527344,20.1299991607666,20.59000015258789,2580800.0,18.505390167236328
2018-02-07,21.104999542236328,20.40999984741211,20.610000610351562,20.40999984741211,1967000.0,18.34361457824707
2018-02-08,20.56999969482422,19.540000915527344,20.56999969482422,19.770000457763672,1775400.0,17.768409729003906
2018-02-09,19.979999542236328,18.65999984741211,19.8700008392334,19.209999084472656,2099300.0,17.265106201171875
2018-02-12,19.809999465942383,19.209999084472656,19.40999984741211,19.6299991607666,1047800.0,17.6425838470459
2018-02-13,19.540000915527344,18.709999084472656,19.440000534057617,19.540000915527344,1724300.0,17.561697006225586
2018-02-14,20.059999465942383,19.440000534057617,19.450000762939453,19.969999313354492,1306500.0,17.94816017150879
2018-02-15,20.3799991607666,19.729999542236328,20.110000610351562,20.260000228881836,994500.0,18.20880126953125
2018-02-16,20.270000457763672,19.670000076293945,20.239999771118164,19.809999465942383,1359300.0,17.804359436035156
2018-02-20,19.950000762939453,18.950000762939453,19.8799991607666,19.149999618530273,1541600.0,17.211181640625
2018-02-21,19.290000915527344,18.729999542236328,19.040000915527344,18.790000915527344,1437900.0,16.887630462646484
2018-02-22,19.049999237060547,18.25,18.899999618530273,18.559999465942383,1245700.0,16.6809139251709
2018-02-23,19.270000457763672,18.559999465942383,18.559999465942383,19.260000228881836,1124200.0,17.31004524230957
2018-02-26,19.43000030517578,18.989999771118164,19.43000030517578,19.190000534057617,1111400.0,17.24713134765625
2018-02-27,19.440000534057617,18.440000534057617,19.239999771118164,18.479999542236328,1737200.0,16.6090145111084
2018-02-28,19.68000030517578,18.05900001525879,18.5,18.200000762939453,2853600.0,16.357362747192383
2018-03-01,18.829999923706055,18.114999771118164,18.200000762939453,18.709999084472656,1789600.0,16.81572723388672
2018-03-02,19.739999771118164,18.229999542236328,18.399999618530273,19.290000915527344,2088000.0,17.337007522583008
2018-03-05,20.459999084472656,19.079999923706055,19.219999313354492,20.190000534057617,2492900.0,18.14588737487793
2018-03-06,20.959999084472656,20.139999389648438,20.389999389648438,20.25,1430500.0,18.199813842773438
2018-03-07,20.6299991607666,20.010000228881836,20.239999771118164,20.56999969482422,2207000.0,18.487415313720703
2018-03-08,20.84000015258789,20.329999923706055,20.450000762939453,20.420000076293945,883100.0,18.352602005004883
2018-03-09,20.84000015258789,19.854999542236328,20.649999618530273,20.209999084472656,1497500.0,18.163862228393555
2018-03-12,20.549999237060547,19.889999389648438,20.09000015258789,19.90999984741211,1619800.0,17.894235610961914
2018-03-13,21.489999771118164,20.15999984741211,21.350000381469727,20.25,2970500.0,18.199813842773438
2018-03-14,20.459999084472656,19.739999771118164,20.040000915527344,19.860000610351562,2198900.0,17.84929847717285
2018-03-15,20.100000381469727,19.56999969482422,19.93000030517578,19.760000228881836,1316800.0,17.759422302246094
2018-03-16,20.600000381469727,19.829999923706055,19.829999923706055,20.5,2689100.0,18.424501419067383
2018-03-19,20.420000076293945,19.760000228881836,20.31999969482422,20.049999237060547,1356400.0,18.020061492919922
2018-03-20,20.270000457763672,19.5,20.200000762939453,19.700000762939453,2039300.0,17.70549774169922
2018-03-21,20.027999877929688,19.559999465942383,19.700000762939453,19.93000030517578,1127900.0,17.912212371826172
2018-03-22,19.889999389648438,19.280000686645508,19.799999237060547,19.280000686645508,1297600.0,17.328020095825195
2018-03-23,19.329999923706055,18.540000915527344,19.329999923706055,18.59000015258789,1309300.0,16.70787811279297
2018-03-26,18.8700008392334,17.920000076293945,18.65999984741211,18.0,3951000.0,16.1776123046875
2018-03-27,18.31999969482422,17.579999923706055,18.280000686645508,17.920000076293945,2711700.0,16.105710983276367
2018-03-28,18.639999389648438,17.93000030517578,17.93000030517578,18.190000534057617,1519700.0,16.34837532043457
2018-03-29,18.600000381469727,18.040000915527344,18.299999237060547,18.479999542236328,1961500.0,16.6090145111084
2018-04-02,18.690000534057617,18.239999771118164,18.420000076293945,18.290000915527344,650100.0,16.438251495361328
2018-04-03,18.979999542236328,18.020000457763672,18.950000762939453,18.5,2531300.0,16.626989364624023
2018-04-04,18.639999389648438,18.165000915527344,18.219999313354492,18.600000381469727,1088200.0,16.71686553955078
2018-04-05,19.010000228881836,18.399999618530273,18.540000915527344,18.709999084472656,1489200.0,16.81572723388672
2018-04-06,18.959999084472656,18.3799991607666,18.690000534057617,18.5,942400.0,16.626989364624023
2018-04-09,18.950000762939453,18.43000030517578,18.950000762939453,18.6299991607666,864100.0,16.74382781982422
2018-04-10,19.0,18.559999465942383,18.75,18.670000076293945,1434300.0,16.77977752685547
2018-04-11,19.350000381469727,18.610000610351562,18.780000686645508,19.030000686645508,1778800.0,17.103330612182617
2018-04-12,19.350000381469727,18.954999923706055,19.020000457763672,19.15999984741211,1766300.0,17.220169067382812
2018-04-13,19.670000076293945,19.18000030517578,19.299999237060547,19.25,1547700.0,17.301057815551758
2018-04-16,20.079999923706055,18.959999084472656,19.299999237060547,19.81999969482422,2827800.0,17.81334686279297
2018-04-17,20.479999542236328,19.65999984741211,19.770000457763672,19.940000534057617,2096100.0,17.921199798583984
2018-04-18,20.18000030517578,19.56999969482422,19.989999771118164,19.899999618530273,1271600.0,17.8852481842041
2018-04-19,19.940000534057617,19.260000228881836,19.899999618530273,19.549999237060547,1456300.0,17.570682525634766
2018-04-20,19.780000686645508,19.577999114990234,19.600000381469727,19.739999771118164,573100.0,17.74144744873047
2018-04-23,20.209999084472656,19.75,19.75,19.860000610351562,973600.0,17.84929847717285
2018-04-24,20.030000686645508,19.25,19.799999237060547,19.31999969482422,815400.0,17.363969802856445
2018-04-25,19.65999984741211,19.1299991607666,19.31999969482422,19.459999084472656,859400.0,17.489795684814453
2018-04-26,19.729999542236328,19.299999237060547,19.43000030517578,19.399999618530273,789500.0,17.435869216918945
2018-04-27,19.420000076293945,17.360000610351562,19.40999984741211,17.59000015258789,7522100.0,15.809122085571289
2018-04-30,18.100000381469727,17.469999313354492,17.540000915527344,17.899999618530273,2234000.0,16.087736129760742
2018-05-01,17.91900062561035,17.25,17.68000030517578,17.489999771118164,1632000.0,15.719245910644531
2018-05-02,17.540000915527344,17.020000457763672,17.510000228881836,17.139999389648438,2484200.0,15.404681205749512
2018-05-03,17.170000076293945,16.610000610351562,17.09000015258789,16.829999923706055,1937500.0,15.126067161560059
2018-05-04,17.075000762939453,16.600000381469727,16.770000457763672,16.799999237060547,2068400.0,15.099103927612305
2018-05-07,17.09000015258789,16.719999313354492,16.799999237060547,16.889999389648438,2924900.0,15.179991722106934
2018-05-08,17.040000915527344,16.290000915527344,16.93000030517578,16.43000030517578,2829900.0,14.76656436920166
2018-05-09,17.09000015258789,16.25,16.579999923706055,16.790000915527344,2823800.0,15.090117454528809
2018-05-10,18.770000457763672,17.059999465942383,17.110000610351562,18.110000610351562,5494500.0,16.27647590637207
2018-05-11,18.3799991607666,17.920000076293945,18.030000686645508,18.229999542236328,2014700.0,16.38432502746582
2018-05-14,19.020000457763672,18.15999984741211,18.209999084472656,18.84000015258789,2684200.0,16.932567596435547
2018-05-15,19.639999389648438,18.850000381469727,18.889999389648438,19.5,3581400.0,17.525745391845703
2018-05-16,20.325000762939453,19.610000610351562,19.860000610351562,20.229999542236328,3929400.0,18.18183708190918
2018-05-17,21.489999771118164,20.68000030517578,20.940000534057617,21.0,5805500.0,18.87388038635254
2018-05-18,21.100000381469727,20.0,21.100000381469727,20.690000534057617,6316100.0,18.595266342163086
2018-05-21,20.5,19.5,20.1200008392334,19.700000762939453,7784500.0,17.70549774169922
2018-05-22,19.899999618530273,18.81999969482422,19.149999618530273,19.010000228881836,6105100.0,17.085355758666992
2018-05-23,19.56999969482422,18.360000610351562,18.829999923706055,18.780000686645508,3883200.0,16.878643035888672
2018-05-24,18.950000762939453,18.200000762939453,18.639999389648438,18.530000686645508,4748700.0,16.653953552246094
2018-05-25,18.60300064086914,18.100000381469727,18.3700008392334,18.479999542236328,3274200.0,16.6090145111084
2018-05-29,19.489999771118164,18.75,19.049999237060547,18.969999313354492,4209500.0,17.04940414428711
2018-05-30,19.610000610351562,18.954999923706055,19.170000076293945,19.350000381469727,3433800.0,17.390932083129883
2018-05-31,19.899999618530273,18.829999923706055,19.440000534057617,19.559999465942383,4729100.0,17.57967185974121
2018-06-01,20.209999084472656,19.149999618530273,19.59000015258789,20.079999923706055,4458200.0,18.04702377319336
2018-06-04,20.520000457763672,19.864999771118164,20.239999771118164,19.940000534057617,2687000.0,17.921199798583984
2018-06-05,20.270000457763672,19.290000915527344,20.079999923706055,19.329999923706055,3320600.0,17.372957229614258
2018-06-06,20.2549991607666,18.8799991607666,19.459999084472656,20.100000381469727,10320300.0,18.065000534057617
2018-06-07,18.43000030517578,17.5,18.399999618530273,17.639999389648438,4559800.0,17.639999389648438
2018-06-08,18.15999984741211,17.049999237060547,17.520000457763672,17.739999771118164,17870500.0,17.739999771118164
2018-06-11,18.489999771118164,17.5,17.540000915527344,17.899999618530273,12899600.0,17.899999618530273
2018-06-12,18.1200008392334,17.34000015258789,17.719999313354492,17.700000762939453,11790300.0,17.700000762939453
2018-06-13,17.795000076293945,17.309999465942383,17.600000381469727,17.65999984741211,13811200.0,17.65999984741211
2018-06-14,18.0,17.520000457763672,17.65999984741211,17.979999542236328,13556800.0,17.979999542236328
2018-06-15,18.18000030517578,17.719999313354492,17.809999465942383,17.790000915527344,12305400.0,17.790000915527344
2018-06-18,17.67799949645996,17.219999313354492,17.6200008392334,17.31999969482422,5605400.0,17.31999969482422
2018-06-19,17.329999923706055,16.899999618530273,17.059999465942383,17.100000381469727,6399500.0,17.100000381469727
2018-06-20,17.59000015258789,17.100000381469727,17.110000610351562,17.510000228881836,8915300.0,17.510000228881836
2018-06-21,17.385000228881836,16.829999923706055,17.059999465942383,16.950000762939453,9220200.0,16.950000762939453
2018-06-22,17.260000228881836,16.610000610351562,16.979999542236328,17.139999389648438,8684200.0,17.139999389648438
2018-06-25,17.100000381469727,16.610000610351562,16.90999984741211,16.780000686645508,3964800.0,16.780000686645508
2018-06-26,17.030000686645508,16.690000534057617,16.799999237060547,16.889999389648438,5764500.0,16.889999389648438
2018-06-27,17.280000686645508,16.770000457763672,16.920000076293945,17.059999465942383,9310600.0,17.059999465942383
2018-06-28,16.989999771118164,16.31999969482422,16.84000015258789,16.56999969482422,7107600.0,16.56999969482422
2018-06-29,17.15999984741211,16.479999542236328,16.579999923706055,17.059999465942383,6332300.0,17.059999465942383
2018-07-02,17.100000381469727,16.829999923706055,17.0,16.979999542236328,4783900.0,16.979999542236328
2018-07-03,17.139999389648438,16.8799991607666,17.0,16.950000762939453,1485300.0,16.950000762939453
2018-07-05,17.969999313354492,16.940000534057617,16.950000762939453,17.600000381469727,6406900.0,17.600000381469727
2018-07-06,18.510000228881836,17.5,17.59000015258789,18.420000076293945,9025000.0,18.420000076293945
2018-07-09,18.989999771118164,18.579999923706055,18.860000610351562,18.899999618530273,10354900.0,18.899999618530273
2018-07-10,19.040000915527344,18.799999237060547,18.899999618530273,18.860000610351562,6394400.0,18.860000610351562
2018-07-11,18.979999542236328,18.399999618530273,18.799999237060547,18.40999984741211,5363700.0,18.40999984741211
2018-07-12,19.059999465942383,18.450000762939453,18.450000762939453,18.959999084472656,5335500.0,18.959999084472656
2018-07-13,18.950000762939453,18.670000076293945,18.700000762939453,18.8700008392334,3657600.0,18.8700008392334
2018-07-16,18.959999084472656,18.09000015258789,18.860000610351562,18.329999923706055,4838600.0,18.329999923706055
2018-07-17,18.399999618530273,17.844999313354492,18.190000534057617,17.889999389648438,3486600.0,17.889999389648438
2018-07-18,18.15999984741211,17.709999084472656,17.889999389648438,17.860000610351562,7099000.0,17.860000610351562
2018-07-19,17.889999389648438,17.559999465942383,17.729999542236328,17.639999389648438,2704400.0,17.639999389648438
2018-07-20,17.639999389648438,17.260000228881836,17.639999389648438,17.270000457763672,1649100.0,17.270000457763672
2018-07-23,17.290000915527344,16.84000015258789,17.280000686645508,16.989999771118164,2657700.0,16.989999771118164
2018-07-24,17.200000762939453,16.649999618530273,17.020000457763672,16.760000228881836,5613000.0,16.760000228881836
2018-07-25,16.864999771118164,16.329999923706055,16.690000534057617,16.5,6581100.0,16.5
2018-07-26,16.920000076293945,16.469999313354492,16.5,16.700000762939453,6227800.0,16.700000762939453
2018-07-27,17.020000457763672,16.583999633789062,16.75,16.68000030517578,4132300.0,16.68000030517578
2018-07-30,16.729999542236328,16.25,16.649999618530273,16.350000381469727,5431200.0,16.350000381469727
2018-07-31,17.239999771118164,16.350000381469727,16.3799991607666,17.1299991607666,8095300.0,17.1299991607666
2018-08-01,17.200000762939453,16.90999984741211,17.1299991607666,17.030000686645508,4148100.0,17.030000686645508
2018-08-02,16.950000762939453,16.34000015258789,16.950000762939453,16.559999465942383,5288400.0,16.559999465942383
2018-08-03,17.899999618530273,16.399999618530273,16.579999923706055,17.25,7472500.0,17.25
2018-08-06,18.559999465942383,17.139999389648438,17.149999618530273,17.729999542236328,8653400.0,17.729999542236328
2018-08-07,17.889999389648438,17.34000015258789,17.790000915527344,17.3700008392334,3749700.0,17.3700008392334
2018-08-08,17.440000534057617,16.950000762939453,17.290000915527344,17.030000686645508,2989200.0,17.030000686645508
2018-08-09,17.739999771118164,16.959999084472656,16.959999084472656,17.579999923706055,4642200.0,17.579999923706055
2018-08-10,17.489999771118164,17.059999465942383,17.450000762939453,17.329999923706055,2636800.0,17.329999923706055
2018-08-13,17.360000610351562,17.059999465942383,17.25,17.290000915527344,2534400.0,17.290000915527344
2018-08-14,17.809999465942383,17.190000534057617,17.290000915527344,17.739999771118164,3975200.0,17.739999771118164
2018-08-15,17.62299919128418,17.239999771118164,17.59000015258789,17.350000381469727,3871500.0,17.350000381469727
2018-08-16,17.739999771118164,17.360000610351562,17.399999618530273,17.670000076293945,2629800.0,17.670000076293945
2018-08-17,17.549999237060547,17.25,17.459999084472656,17.5,2707300.0,17.5
2018-08-20,18.145000457763672,17.405000686645508,17.510000228881836,18.1200008392334,3149900.0,18.1200008392334
2018-08-21,18.799999237060547,18.0,18.079999923706055,18.649999618530273,7812800.0,18.649999618530273
2018-08-22,18.719999313354492,18.110000610351562,18.56999969482422,18.149999618530273,3122800.0,18.149999618530273
2018-08-23,18.229999542236328,17.899999618530273,18.09000015258789,17.989999771118164,1652600.0,17.989999771118164
2018-08-24,18.290000915527344,17.940000534057617,17.969999313354492,18.049999237060547,5462000.0,18.049999237060547
2018-08-27,18.18000030517578,17.899999618530273,18.18000030517578,18.040000915527344,2974100.0,18.040000915527344
2018-08-28,18.25,17.979999542236328,18.149999618530273,18.040000915527344,2593400.0,18.040000915527344
2018-08-29,18.2549991607666,17.84000015258789,18.030000686645508,18.09000015258789,4033200.0,18.09000015258789
2018-08-30,18.075000762939453,17.850000381469727,18.0,17.850000381469727,2988400.0,17.850000381469727
2018-08-31,18.170000076293945,17.799999237060547,17.889999389648438,17.920000076293945,3074400.0,17.920000076293945
2018-09-04,18.049999237060547,17.594999313354492,17.84000015258789,17.93000030517578,4741800.0,17.93000030517578
2018-09-05,17.940000534057617,17.469999313354492,17.84000015258789,17.889999389648438,3658300.0,17.889999389648438
2018-09-06,17.920000076293945,17.350000381469727,17.81999969482422,17.389999389648438,3497900.0,17.389999389648438
2018-09-07,18.239999771118164,17.020000457763672,17.209999084472656,17.969999313354492,6150000.0,17.969999313354492
2018-09-10,18.639999389648438,18.010000228881836,18.030000686645508,18.399999618530273,9022000.0,18.399999618530273
2018-09-11,18.700000762939453,18.260000228881836,18.31999969482422,18.469999313354492,5754700.0,18.469999313354492
2018-09-12,18.78499984741211,18.350000381469727,18.440000534057617,18.75,6508000.0,18.75
2018-09-13,19.190000534057617,18.739999771118164,18.780000686645508,19.100000381469727,9162000.0,19.100000381469727
2018-09-14,19.277999877929688,19.0,19.100000381469727,19.0,4660600.0,19.0
2018-09-17,19.270000457763672,19.0,19.059999465942383,19.1200008392334,4704500.0,19.1200008392334
2018-09-18,19.190000534057617,18.969999313354492,19.09000015258789,18.989999771118164,7224600.0,18.989999771118164
2018-09-19,19.170000076293945,18.809999465942383,19.149999618530273,18.959999084472656,12109100.0,18.959999084472656
2018-09-20,19.59000015258789,18.959999084472656,19.1200008392334,19.209999084472656,10490100.0,19.209999084472656
2018-09-21,19.450000762939453,19.09000015258789,19.25,19.15999984741211,8636800.0,19.15999984741211
2018-09-24,19.079999923706055,18.6200008392334,19.079999923706055,18.649999618530273,7129700.0,18.649999618530273
2018-09-25,18.915000915527344,18.559999465942383,18.65999984741211,18.600000381469727,5535200.0,18.600000381469727
2018-09-26,18.760000228881836,18.280000686645508,18.510000228881836,18.31999969482422,3289500.0,18.31999969482422
2018-09-27,18.469999313354492,17.979999542236328,18.280000686645508,18.0,7629700.0,18.0
2018-09-28,18.399999618530273,17.899999618530273,17.93000030517578,18.139999389648438,8669400.0,18.139999389648438
2018-10-01,18.350000381469727,17.889999389648438,18.209999084472656,17.979999542236328,3904400.0,17.979999542236328
2018-10-02,18.360000610351562,17.799999237060547,17.940000534057617,18.25,5102300.0,18.25
2018-10-03,18.510000228881836,18.2450008392334,18.360000610351562,18.329999923706055,3605900.0,18.329999923706055
2018-10-04,18.5,18.1200008392334,18.290000915527344,18.43000030517578,4763500.0,18.43000030517578
2018-10-05,18.584999084472656,17.670000076293945,18.479999542236328,17.760000228881836,4985000.0,17.760000228881836
2018-10-08,18.200000762939453,17.59000015258789,17.6200008392334,18.110000610351562,4594600.0,18.110000610351562
2018-10-09,18.579999923706055,17.989999771118164,18.110000610351562,18.510000228881836,2331800.0,18.510000228881836
2018-10-10,18.71500015258789,17.829999923706055,18.469999313354492,17.899999618530273,3439300.0,17.899999618530273
2018-10-11,18.100000381469727,17.350000381469727,17.850000381469727,17.540000915527344,5337000.0,17.540000915527344
2018-10-12,17.94499969482422,17.40999984741211,17.8799991607666,17.93000030517578,5447800.0,17.93000030517578
2018-10-15,18.399999618530273,17.90999984741211,17.90999984741211,18.350000381469727,4120800.0,18.350000381469727
2018-10-16,18.760000228881836,18.25,18.389999389648438,18.739999771118164,4606900.0,18.739999771118164
2018-10-17,18.8700008392334,18.399999618530273,18.739999771118164,18.6200008392334,2665600.0,18.6200008392334
2018-10-18,18.649999618530273,18.079999923706055,18.530000686645508,18.219999313354492,2202200.0,18.219999313354492
2018-10-19,18.510000228881836,17.989999771118164,18.209999084472656,18.079999923706055,3783700.0,18.079999923706055
2018-10-22,18.299999237060547,17.559999465942383,18.149999618530273,17.790000915527344,2836900.0,17.790000915527344
2018-10-23,17.600000381469727,17.2549991607666,17.520000457763672,17.459999084472656,3606600.0,17.459999084472656
2018-10-24,17.68000030517578,15.890000343322754,17.469999313354492,15.920000076293945,7390100.0,15.920000076293945
2018-10-25,16.829999923706055,16.06999969482422,16.25,16.3799991607666,5426600.0,16.3799991607666
2018-10-26,16.030000686645508,15.199999809265137,15.930000305175781,15.199999809265137,8889300.0,15.199999809265137
2018-10-29,15.8100004196167,14.494999885559082,15.4399995803833,14.609999656677246,7152400.0,14.609999656677246
2018-10-30,15.4399995803833,14.59000015258789,14.609999656677246,15.369999885559082,5400700.0,15.369999885559082
2018-10-31,16.360000610351562,15.604999542236328,15.630000114440918,16.309999465942383,5358300.0,16.309999465942383
2018-11-01,16.81999969482422,16.260000228881836,16.329999923706055,16.75,3315600.0,16.75
2018-11-02,16.979999542236328,16.290000915527344,16.84000015258789,16.3700008392334,3605400.0,16.3700008392334
2018-11-05,16.700000762939453,16.190000534057617,16.389999389648438,16.700000762939453,5502500.0,16.700000762939453
2018-11-06,18.350000381469727,17.360000610351562,17.959999084472656,17.899999618530273,14181100.0,17.899999618530273
2018-11-07,18.860000610351562,18.030000686645508,18.229999542236328,18.850000381469727,7582300.0,18.850000381469727
2018-11-08,19.09000015258789,18.5,18.559999465942383,19.030000686645508,5638900.0,19.030000686645508
2018-11-09,19.149999618530273,17.969999313354492,18.809999465942383,18.469999313354492,10398800.0,18.469999313354492
2018-11-12,18.649999618530273,18.200000762939453,18.56999969482422,18.450000762939453,4460500.0,18.450000762939453
2018-11-13,18.639999389648438,17.795000076293945,18.510000228881836,17.809999465942383,5393400.0,17.809999465942383
2018-11-14,17.959999084472656,17.235000610351562,17.959999084472656,17.709999084472656,5743800.0,17.709999084472656
2018-11-15,18.079999923706055,17.309999465942383,17.600000381469727,17.81999969482422,5663400.0,17.81999969482422
2018-11-16,17.920000076293945,17.559999465942383,17.780000686645508,17.68000030517578,2572100.0,17.68000030517578
2018-11-19,17.860000610351562,17.190000534057617,17.700000762939453,17.219999313354492,3984400.0,17.219999313354492
2018-11-20,16.860000610351562,15.670000076293945,16.860000610351562,16.43000030517578,9815000.0,16.43000030517578
2018-11-21,17.18000030517578,16.565000534057617,16.59000015258789,16.950000762939453,2799800.0,16.950000762939453
2018-11-23,16.809999465942383,16.3799991607666,16.649999618530273,16.43000030517578,2725200.0,16.43000030517578
2018-11-26,17.110000610351562,16.649999618530273,16.709999084472656,16.8799991607666,4452200.0,16.8799991607666
2018-11-27,17.059999465942383,16.645000457763672,16.739999771118164,16.739999771118164,2640600.0,16.739999771118164
2018-11-28,17.399999618530273,16.68000030517578,16.81999969482422,17.309999465942383,3236800.0,17.309999465942383
2018-11-29,17.760000228881836,17.059999465942383,17.270000457763672,17.200000762939453,4107400.0,17.200000762939453
2018-11-30,17.690000534057617,17.0,17.1200008392334,17.690000534057617,11766200.0,17.690000534057617
2018-12-03,18.665000915527344,17.899999618530273,18.0,17.940000534057617,3647800.0,17.940000534057617
2018-12-04,18.549999237060547,17.635000228881836,18.030000686645508,17.700000762939453,5977900.0,17.700000762939453
2018-12-06,18.3799991607666,17.1299991607666,17.3700008392334,18.3700008392334,5763800.0,18.3700008392334
2018-12-07,18.600000381469727,18.0,18.31999969482422,18.239999771118164,6582500.0,18.239999771118164
2018-12-10,18.239999771118164,17.795000076293945,18.239999771118164,18.059999465942383,3701600.0,18.059999465942383
2018-12-11,18.649999618530273,17.829999923706055,18.43000030517578,18.040000915527344,4007100.0,18.040000915527344
2018-12-12,18.520000457763672,18.200000762939453,18.260000228881836,18.239999771118164,3155900.0,18.239999771118164
2018-12-13,18.290000915527344,17.729999542236328,18.239999771118164,17.770000457763672,2381000.0,17.770000457763672
2018-12-14,17.979999542236328,17.450000762939453,17.510000228881836,17.670000076293945,1836200.0,17.670000076293945
2018-12-17,17.989999771118164,17.395000457763672,17.65999984741211,17.610000610351562,4732600.0,17.610000610351562
2018-12-18,17.889999389648438,17.135000228881836,17.780000686645508,17.399999618530273,5942100.0,17.399999618530273
2018-12-19,18.045000076293945,16.56999969482422,17.469999313354492,16.979999542236328,8331500.0,16.979999542236328
2018-12-20,16.920000076293945,15.720000267028809,16.90999984741211,16.3799991607666,9850100.0,16.3799991607666
2018-12-21,16.549999237060547,15.399999618530273,16.549999237060547,15.649999618530273,6233500.0,15.649999618530273
2018-12-24,15.75,15.239999771118164,15.399999618530273,15.289999961853027,5316700.0,15.289999961853027
2018-12-26,16.420000076293945,15.149999618530273,15.489999771118164,16.40999984741211,6885000.0,16.40999984741211
2018-12-27,16.200000762939453,15.34000015258789,16.049999237060547,16.200000762939453,6262900.0,16.200000762939453
2018-12-28,16.459999084472656,16.059999465942383,16.200000762939453,16.200000762939453,3490100.0,16.200000762939453
2018-12-31,16.549999237060547,16.059999465942383,16.290000915527344,16.520000457763672,3009000.0,16.520000457763672
2019-01-02,17.350000381469727,16.209999084472656,16.209999084472656,17.1200008392334,3672800.0,17.1200008392334
2019-01-03,17.5049991607666,16.71500015258789,16.950000762939453,17.1200008392334,4104100.0,17.1200008392334
2019-01-04,17.850000381469727,17.19499969482422,17.440000534057617,17.40999984741211,6608500.0,17.40999984741211
2019-01-07,18.100000381469727,17.309999465942383,17.530000686645508,17.90999984741211,3768200.0,17.90999984741211
2019-01-08,18.385000228881836,17.920000076293945,18.200000762939453,18.040000915527344,4775400.0,18.040000915527344
2019-01-09,18.475000381469727,18.049999237060547,18.059999465942383,18.31999969482422,2292200.0,18.31999969482422
2019-01-10,18.170000076293945,17.719999313354492,18.139999389648438,17.75,4515600.0,17.75
2019-01-11,17.889999389648438,17.530000686645508,17.56999969482422,17.670000076293945,2811400.0,17.670000076293945
2019-01-14,17.780000686645508,17.100000381469727,17.760000228881836,17.239999771118164,2606300.0,17.239999771118164
2019-01-15,17.559999465942383,17.1299991607666,17.15999984741211,17.40999984741211,2861100.0,17.40999984741211
2019-01-16,18.059999465942383,17.469999313354492,17.65999984741211,18.049999237060547,8211500.0,18.049999237060547
2019-01-17,18.639999389648438,17.950000762939453,17.950000762939453,18.549999237060547,7708000.0,18.549999237060547
2019-01-18,19.06999969482422,18.479999542236328,18.65999984741211,19.06999969482422,9803100.0,19.06999969482422
2019-01-22,19.100000381469727,18.65999984741211,18.950000762939453,18.729999542236328,7142000.0,18.729999542236328
2019-01-23,19.18000030517578,18.520000457763672,18.93000030517578,18.670000076293945,3927800.0,18.670000076293945
2019-01-24,18.979999542236328,18.479999542236328,18.690000534057617,18.90999984741211,6465300.0,18.90999984741211
2019-01-25,19.25,18.829999923706055,19.0,19.100000381469727,6583400.0,19.100000381469727
2019-01-28,19.299999237060547,18.81999969482422,18.969999313354492,19.139999389648438,6593900.0,19.139999389648438
2019-01-29,19.229999542236328,18.600000381469727,19.139999389648438,18.610000610351562,5466500.0,18.610000610351562
2019-01-30,18.81999969482422,18.479999542236328,18.719999313354492,18.700000762939453,6063100.0,18.700000762939453
2019-01-31,19.639999389648438,18.969999313354492,18.969999313354492,19.639999389648438,10038700.0,19.639999389648438
2019-02-01,19.78499984741211,19.469999313354492,19.579999923706055,19.690000534057617,4573200.0,19.690000534057617
2019-02-04,19.93000030517578,19.479999542236328,19.56999969482422,19.81999969482422,5952700.0,19.81999969482422
2019-02-05,20.5,19.84000015258789,19.940000534057617,20.440000534057617,7987700.0,20.440000534057617
2019-02-06,20.799999237060547,20.450000762939453,20.5,20.700000762939453,4201500.0,20.700000762939453
2019-02-07,21.0,20.55299949645996,20.559999465942383,20.920000076293945,5491400.0,20.920000076293945
2019-02-08,21.094999313354492,20.625,20.8799991607666,20.850000381469727,3909900.0,20.850000381469727
2019-02-11,20.9950008392334,20.565000534057617,20.860000610351562,20.6299991607666,4934300.0,20.6299991607666
2019-02-12,21.100000381469727,20.725000381469727,20.770000457763672,20.81999969482422,4901800.0,20.81999969482422
2019-02-13,21.209999084472656,20.850000381469727,21.0,21.200000762939453,4073900.0,21.200000762939453
2019-02-14,21.540000915527344,21.065000534057617,21.100000381469727,21.43000030517578,3839900.0,21.43000030517578
2019-02-15,21.809999465942383,21.459999084472656,21.540000915527344,21.59000015258789,3653400.0,21.59000015258789
2019-02-19,21.81999969482422,21.329999923706055,21.5,21.459999084472656,6942600.0,21.459999084472656
2019-02-20,21.676000595092773,21.18000030517578,21.459999084472656,21.209999084472656,4770300.0,21.209999084472656
2019-02-21,21.360000610351562,20.854999542236328,21.1200008392334,21.030000686645508,7610700.0,21.030000686645508
2019-02-22,22.540000915527344,20.989999771118164,21.940000534057617,21.600000381469727,12014800.0,21.600000381469727
2019-02-25,22.0,21.145000457763672,21.920000076293945,21.170000076293945,4133500.0,21.170000076293945
2019-02-26,21.5,21.020000457763672,21.139999389648438,21.34000015258789,4199900.0,21.34000015258789
2019-02-27,21.889999389648438,21.260000228881836,21.3799991607666,21.780000686645508,4656400.0,21.780000686645508
2019-02-28,22.170000076293945,21.65999984741211,21.75,21.809999465942383,16360000.0,21.809999465942383
2019-03-01,21.6299991607666,21.270000457763672,21.479999542236328,21.510000228881836,7537500.0,21.510000228881836
2019-03-04,21.989999771118164,21.450000762939453,21.65999984741211,21.90999984741211,5593400.0,21.90999984741211
2019-03-05,21.8700008392334,21.454999923706055,21.850000381469727,21.600000381469727,2945100.0,21.600000381469727
2019-03-06,21.6299991607666,21.149999618530273,21.56999969482422,21.200000762939453,2788900.0,21.200000762939453
2019-03-07,21.889999389648438,21.139999389648438,21.149999618530273,21.6299991607666,4842800.0,21.6299991607666
2019-03-08,21.610000610351562,21.219999313354492,21.450000762939453,21.5,2755400.0,21.5
2019-03-11,21.8799991607666,21.459999084472656,21.530000686645508,21.799999237060547,4049700.0,21.799999237060547
2019-03-12,21.420000076293945,20.889999389648438,21.299999237060547,20.889999389648438,10599100.0,20.889999389648438
2019-03-13,21.299999237060547,20.90999984741211,20.979999542236328,21.200000762939453,6901000.0,21.200000762939453
2019-03-14,21.65999984741211,21.139999389648438,21.25,21.6200008392334,5519300.0,21.6200008392334
2019-03-15,21.764999389648438,21.399999618530273,21.59000015258789,21.700000762939453,5445500.0,21.700000762939453
2019-03-18,21.739999771118164,21.510000228881836,21.690000534057617,21.639999389648438,2183500.0,21.639999389648438
2019-03-19,21.90999984741211,21.469999313354492,21.65999984741211,21.479999542236328,3382900.0,21.479999542236328
2019-03-20,21.770000457763672,21.09000015258789,21.440000534057617,21.729999542236328,4795000.0,21.729999542236328
2019-03-21,22.25,21.3799991607666,21.670000076293945,22.239999771118164,3304800.0,22.239999771118164
2019-03-22,22.229999542236328,21.354999542236328,22.229999542236328,21.3700008392334,3776600.0,21.3700008392334
2019-03-25,21.479999542236328,20.84000015258789,21.3799991607666,20.969999313354492,5022400.0,20.969999313354492
2019-03-26,21.290000915527344,21.030000686645508,21.09000015258789,21.200000762939453,2628400.0,21.200000762939453
2019-03-27,21.520000457763672,21.1299991607666,21.239999771118164,21.3700008392334,4871600.0,21.3700008392334
2019-03-28,21.475000381469727,21.0,21.40999984741211,21.260000228881836,3023300.0,21.260000228881836
2019-03-29,21.5,21.149999618530273,21.40999984741211,21.479999542236328,4876400.0,21.479999542236328
2019-04-01,22.139999389648438,21.56999969482422,21.649999618530273,22.030000686645508,5054700.0,22.030000686645508
2019-04-02,22.790000915527344,21.950000762939453,22.020000457763672,22.549999237060547,6612500.0,22.549999237060547
2019-04-03,23.1299991607666,22.6200008392334,22.719999313354492,23.1299991607666,8397900.0,23.1299991607666
2019-04-04,23.360000610351562,22.645000457763672,23.18000030517578,22.65999984741211,6123100.0,22.65999984741211
2019-04-05,22.850000381469727,22.489999771118164,22.790000915527344,22.75,6886600.0,22.75
2019-04-08,22.799999237060547,22.549999237060547,22.6299991607666,22.610000610351562,2471200.0,22.610000610351562
2019-04-09,22.610000610351562,22.389999389648438,22.540000915527344,22.43000030517578,2532800.0,22.43000030517578
2019-04-10,22.860000610351562,22.3799991607666,22.450000762939453,22.850000381469727,2587600.0,22.850000381469727
2019-04-11,23.010000228881836,22.80500030517578,22.90999984741211,22.93000030517578,2100600.0,22.93000030517578
2019-04-12,23.31999969482422,22.71500015258789,23.0,23.239999771118164,4524000.0,23.239999771118164
2019-04-15,23.790000915527344,23.25,23.309999465942383,23.329999923706055,4819900.0,23.329999923706055
2019-04-16,23.735000610351562,23.299999237060547,23.420000076293945,23.530000686645508,4521700.0,23.530000686645508
2019-04-17,23.540000915527344,23.149999618530273,23.530000686645508,23.260000228881836,1770300.0,23.260000228881836
2019-04-18,23.3700008392334,23.010000228881836,23.25,23.15999984741211,2632100.0,23.15999984741211
2019-04-22,23.280000686645508,23.030000686645508,23.049999237060547,23.209999084472656,1859900.0,23.209999084472656
2019-04-23,23.40999984741211,22.889999389648438,23.209999084472656,23.200000762939453,3193000.0,23.200000762939453
2019-04-24,23.450000762939453,23.170000076293945,23.209999084472656,23.25,2519000.0,23.25
2019-04-25,23.68000030517578,23.280000686645508,23.479999542236328,23.290000915527344,3122400.0,23.290000915527344
2019-04-26,23.5,23.170000076293945,23.399999618530273,23.31999969482422,3084200.0,23.31999969482422
2019-04-29,23.770000457763672,23.1299991607666,23.329999923706055,23.65999984741211,3780000.0,23.65999984741211
2019-04-30,24.049999237060547,23.200000762939453,23.6299991607666,23.559999465942383,4735600.0,23.559999465942383
2019-05-01,23.700000762939453,23.15999984741211,23.649999618530273,23.190000534057617,2624700.0,23.190000534057617
2019-05-02,23.309999465942383,22.790000915527344,23.209999084472656,22.950000762939453,4105100.0,22.950000762939453
2019-05-03,24.65999984741211,23.200000762939453,23.200000762939453,24.5,8014400.0,24.5
2019-05-06,24.579999923706055,23.729999542236328,23.729999542236328,24.469999313354492,4395100.0,24.469999313354492
2019-05-07,24.420000076293945,23.670000076293945,24.229999542236328,23.950000762939453,4034600.0,23.950000762939453
2019-05-08,24.895000457763672,23.889999389648438,23.989999771118164,24.389999389648438,4489300.0,24.389999389648438
2019-05-09,24.56999969482422,23.68000030517578,24.1299991607666,24.549999237060547,3600600.0,24.549999237060547
2019-05-10,24.729999542236328,24.110000610351562,24.329999923706055,24.530000686645508,3159700.0,24.530000686645508
2019-05-13,24.18000030517578,23.399999618530273,24.030000686645508,23.399999618530273,5610400.0,23.399999618530273
2019-05-14,23.920000076293945,23.399999618530273,23.59000015258789,23.579999923706055,4947500.0,23.579999923706055
2019-05-15,24.114999771118164,23.219999313354492,23.3799991607666,24.020000457763672,3608900.0,24.020000457763672
2019-05-16,24.645000457763672,23.93000030517578,24.100000381469727,24.309999465942383,3788900.0,24.309999465942383
2019-05-17,24.690000534057617,24.15999984741211,24.190000534057617,24.600000381469727,3096900.0,24.600000381469727
2019-05-20,24.59000015258789,23.790000915527344,24.530000686645508,24.260000228881836,4443100.0,24.260000228881836
2019-05-21,25.075000762939453,24.43000030517578,24.440000534057617,25.010000228881836,3148900.0,25.010000228881836
2019-05-22,25.139999389648438,24.729999542236328,25.0,24.780000686645508,2668400.0,24.780000686645508
2019-05-23,24.6299991607666,24.190000534057617,24.5,24.489999771118164,2444800.0,24.489999771118164
2019-05-24,24.889999389648438,24.3799991607666,24.700000762939453,24.399999618530273,2518800.0,24.399999618530273
