Date,High,Low,Open,Close,Volume,Adj Close
2017-11-20,10.029999732971191,10.010000228881836,10.020000457763672,10.010000228881836,726600,10.010000228881836
2017-11-21,10.029999732971191,10.010000228881836,10.029999732971191,10.020000457763672,225300,10.020000457763672
2017-11-22,10.029999732971191,10.015000343322754,10.015000343322754,10.024999618530273,43200,10.024999618530273
2017-11-24,10.050000190734863,10.010000228881836,10.010000228881836,10.031000137329102,14400,10.031000137329102
2017-11-27,10.010000228881836,10.010000228881836,10.010000228881836,10.010000228881836,54500,10.010000228881836
2017-11-28,10.010000228881836,10.0,10.010000228881836,10.008000373840332,165900,10.008000373840332
2017-11-29,10.0,10.0,10.0,10.0,42800,10.0
2017-11-30,10.020000457763672,9.989999771118164,10.0,10.010000228881836,51600,10.010000228881836
2017-12-01,10.0,9.989999771118164,10.0,10.0,34900,10.0
2017-12-04,10.010000228881836,9.99899959564209,10.0,10.0,76400,10.0
2017-12-05,10.010000228881836,10.005999565124512,10.005999565124512,10.010000228881836,27400,10.010000228881836
2017-12-06,10.010000228881836,10.010000228881836,10.010000228881836,10.010000228881836,100,10.010000228881836
2017-12-07,10.168000221252441,10.010000228881836,10.01099967956543,10.168000221252441,72100,10.168000221252441
2017-12-08,10.170000076293945,10.140000343322754,10.140000343322754,10.170000076293945,500,10.170000076293945
2017-12-11,10.5,10.149999618530273,10.149999618530273,10.149999618530273,123400,10.149999618530273
2017-12-12,10.239999771118164,10.1899995803833,10.199999809265137,10.239999771118164,29000,10.239999771118164
2017-12-13,10.289999961853027,10.229999542236328,10.289999961853027,10.229999542236328,73400,10.229999542236328
2017-12-14,10.300000190734863,10.229999542236328,10.25,10.25,101300,10.25
2017-12-15,10.350000381469727,10.24899959564209,10.350000381469727,10.24899959564209,1400,10.24899959564209
2017-12-18,10.25,10.25,10.25,10.25,100,10.25
2017-12-19,10.199999809265137,10.199999809265137,10.199999809265137,10.199999809265137,500,10.199999809265137
2017-12-20,10.350000381469727,10.34000015258789,10.350000381469727,10.34000015258789,300,10.34000015258789
2017-12-21,10.310999870300293,10.279999732971191,10.279999732971191,10.310999870300293,300,10.310999870300293
2017-12-22,10.3100004196167,10.3100004196167,10.3100004196167,10.3100004196167,100,10.3100004196167
2017-12-26,10.3100004196167,10.3100004196167,10.3100004196167,10.3100004196167,0,10.3100004196167
2017-12-27,10.3100004196167,10.3100004196167,10.3100004196167,10.3100004196167,0,10.3100004196167
2017-12-28,10.3100004196167,10.3100004196167,10.3100004196167,10.3100004196167,0,10.3100004196167
2017-12-29,10.234999656677246,10.234999656677246,10.234999656677246,10.234999656677246,100,10.234999656677246
2018-01-02,10.210000038146973,10.210000038146973,10.210000038146973,10.210000038146973,100,10.210000038146973
2018-01-03,10.25,10.239999771118164,10.239999771118164,10.25,23700,10.25
2018-01-04,10.239999771118164,10.239999771118164,10.239999771118164,10.239999771118164,300,10.239999771118164
2018-01-05,10.239999771118164,10.220000267028809,10.220000267028809,10.239999771118164,7300,10.239999771118164
2018-01-08,10.239999771118164,10.236000061035156,10.239999771118164,10.239999771118164,101200,10.239999771118164
2018-01-09,10.239999771118164,10.239999771118164,10.239999771118164,10.239999771118164,0,10.239999771118164
2018-01-10,10.302000045776367,10.295000076293945,10.295000076293945,10.302000045776367,200,10.302000045776367
2018-01-11,10.300000190734863,10.300000190734863,10.300000190734863,10.300000190734863,48400,10.300000190734863
2018-01-12,10.300000190734863,10.300000190734863,10.300000190734863,10.300000190734863,0,10.300000190734863
2018-01-16,10.25100040435791,10.239999771118164,10.25100040435791,10.25,700,10.25
2018-01-17,10.25,10.25,10.25,10.25,0,10.25
2018-01-18,10.25,10.25,10.25,10.25,0,10.25
2018-01-19,11.0,10.220000267028809,10.220000267028809,10.479999542236328,41900,10.479999542236328
2018-01-22,10.75,10.25,10.25,10.350000381469727,25400,10.350000381469727
2018-01-23,10.350000381469727,10.350000381469727,10.350000381469727,10.350000381469727,0,10.350000381469727
2018-01-24,10.579999923706055,10.449999809265137,10.579999923706055,10.5,4200,10.5
2018-01-25,10.4399995803833,10.4399995803833,10.4399995803833,10.4399995803833,1300,10.4399995803833
2018-01-26,10.4399995803833,10.4399995803833,10.4399995803833,10.4399995803833,0,10.4399995803833
2018-01-29,10.4399995803833,10.4399995803833,10.4399995803833,10.4399995803833,0,10.4399995803833
2018-01-30,10.59000015258789,10.5,10.5,10.59000015258789,1100,10.59000015258789
2018-01-31,10.59000015258789,10.59000015258789,10.59000015258789,10.59000015258789,0,10.59000015258789
2018-02-01,10.600000381469727,10.600000381469727,10.600000381469727,10.600000381469727,100,10.600000381469727
2018-02-02,10.600000381469727,10.600000381469727,10.600000381469727,10.600000381469727,0,10.600000381469727
2018-02-05,10.550000190734863,10.550000190734863,10.550000190734863,10.550000190734863,100,10.550000190734863
2018-02-06,10.550000190734863,10.550000190734863,10.550000190734863,10.550000190734863,0,10.550000190734863
2018-02-07,10.550000190734863,10.550000190734863,10.550000190734863,10.550000190734863,0,10.550000190734863
2018-02-08,10.5,10.5,10.5,10.5,200,10.5
2018-02-09,10.630000114440918,10.630000114440918,10.630000114440918,10.630000114440918,100,10.630000114440918
2018-02-12,10.520000457763672,10.520000457763672,10.520000457763672,10.520000457763672,300,10.520000457763672
2018-02-13,10.520000457763672,10.520000457763672,10.520000457763672,10.520000457763672,0,10.520000457763672
2018-02-14,10.520000457763672,10.520000457763672,10.520000457763672,10.520000457763672,0,10.520000457763672
2018-02-15,10.520000457763672,10.520000457763672,10.520000457763672,10.520000457763672,0,10.520000457763672
2018-02-16,10.520000457763672,10.520000457763672,10.520000457763672,10.520000457763672,0,10.520000457763672
2018-02-20,10.520000457763672,10.520000457763672,10.520000457763672,10.520000457763672,0,10.520000457763672
2018-02-21,10.539999961853027,10.539999961853027,10.539999961853027,10.539999961853027,100,10.539999961853027
2018-02-22,10.539999961853027,10.539999961853027,10.539999961853027,10.539999961853027,0,10.539999961853027
2018-02-23,10.539999961853027,10.539999961853027,10.539999961853027,10.539999961853027,0,10.539999961853027
2018-02-26,10.350000381469727,10.350000381469727,10.350000381469727,10.350000381469727,300,10.350000381469727
2018-02-27,10.350000381469727,10.350000381469727,10.350000381469727,10.350000381469727,0,10.350000381469727
2018-02-28,10.350000381469727,10.350000381469727,10.350000381469727,10.350000381469727,0,10.350000381469727
2018-03-01,10.350000381469727,10.350000381469727,10.350000381469727,10.350000381469727,0,10.350000381469727
2018-03-02,10.350000381469727,10.350000381469727,10.350000381469727,10.350000381469727,0,10.350000381469727
2018-03-05,10.350000381469727,10.300000190734863,10.350000381469727,10.300000190734863,400,10.300000190734863
2018-03-06,10.300000190734863,10.300000190734863,10.300000190734863,10.300000190734863,0,10.300000190734863
2018-03-07,10.350000381469727,10.331999778747559,10.350000381469727,10.34000015258789,5200,10.34000015258789
2018-03-08,10.34000015258789,10.34000015258789,10.34000015258789,10.34000015258789,0,10.34000015258789
2018-03-09,10.399999618530273,10.300000190734863,10.300000190734863,10.399999618530273,200,10.399999618530273
2018-03-12,10.380000114440918,10.380000114440918,10.380000114440918,10.380000114440918,100,10.380000114440918
2018-03-13,10.380000114440918,10.380000114440918,10.380000114440918,10.380000114440918,0,10.380000114440918
2018-03-14,10.380000114440918,10.380000114440918,10.380000114440918,10.380000114440918,0,10.380000114440918
2018-03-15,10.34000015258789,10.34000015258789,10.34000015258789,10.34000015258789,200,10.34000015258789
2018-03-16,10.399999618530273,10.0,10.34000015258789,10.399999618530273,32300,10.399999618530273
2018-03-19,10.399999618530273,10.399999618530273,10.399999618530273,10.399999618530273,0,10.399999618530273
2018-03-20,10.369999885559082,10.0,10.220000267028809,10.239999771118164,26400,10.239999771118164
2018-03-21,10.338000297546387,10.239999771118164,10.239999771118164,10.279999732971191,29900,10.279999732971191
2018-03-22,10.335000038146973,10.270000457763672,10.270000457763672,10.335000038146973,300,10.335000038146973
2018-03-23,10.319999694824219,10.319999694824219,10.319999694824219,10.319999694824219,200,10.319999694824219
2018-03-26,10.319999694824219,10.319999694824219,10.319999694824219,10.319999694824219,0,10.319999694824219
2018-03-27,10.319999694824219,10.319999694824219,10.319999694824219,10.319999694824219,0,10.319999694824219
2018-03-28,10.319999694824219,10.319999694824219,10.319999694824219,10.319999694824219,0,10.319999694824219
2018-03-29,10.350000381469727,10.319999694824219,10.319999694824219,10.350000381469727,29400,10.350000381469727
2018-04-02,10.34000015258789,10.34000015258789,10.34000015258789,10.34000015258789,10000,10.34000015258789
2018-04-03,10.40999984741211,10.329999923706055,10.329999923706055,10.40999984741211,2300,10.40999984741211
2018-04-04,10.40999984741211,10.40999984741211,10.40999984741211,10.40999984741211,0,10.40999984741211
2018-04-05,10.40999984741211,10.40999984741211,10.40999984741211,10.40999984741211,0,10.40999984741211
2018-04-06,10.329999923706055,10.329999923706055,10.329999923706055,10.329999923706055,500,10.329999923706055
2018-04-09,10.329999923706055,10.329999923706055,10.329999923706055,10.329999923706055,0,10.329999923706055
2018-04-10,10.329999923706055,10.329999923706055,10.329999923706055,10.329999923706055,0,10.329999923706055
2018-04-11,10.4399995803833,10.420000076293945,10.420000076293945,10.4399995803833,3200,10.4399995803833
2018-04-12,10.449999809265137,10.4399995803833,10.449999809265137,10.449999809265137,30200,10.449999809265137
2018-04-13,10.449999809265137,10.399999618530273,10.399999618530273,10.449999809265137,6000,10.449999809265137
2018-04-16,10.449999809265137,10.449999809265137,10.449999809265137,10.449999809265137,0,10.449999809265137
2018-04-17,10.449999809265137,10.449999809265137,10.449999809265137,10.449999809265137,0,10.449999809265137
2018-04-18,10.460000038146973,10.449999809265137,10.460000038146973,10.449999809265137,200,10.449999809265137
2018-04-19,10.449999809265137,10.449999809265137,10.449999809265137,10.449999809265137,100,10.449999809265137
2018-04-20,10.449999809265137,10.449999809265137,10.449999809265137,10.449999809265137,0,10.449999809265137
2018-04-23,10.5,10.489999771118164,10.489999771118164,10.5,300,10.5
2018-04-24,10.5,10.5,10.5,10.5,0,10.5
2018-04-25,10.5,10.5,10.5,10.5,0,10.5
2018-04-26,10.5,10.5,10.5,10.5,0,10.5
2018-04-27,10.5,10.5,10.5,10.5,0,10.5
2018-04-30,10.5,10.5,10.5,10.5,0,10.5
2018-05-01,10.5,10.5,10.5,10.5,0,10.5
2018-05-02,10.5,10.5,10.5,10.5,0,10.5
2018-05-03,10.949999809265137,10.949999809265137,10.949999809265137,10.949999809265137,100,10.949999809265137
2018-05-04,10.949999809265137,10.949999809265137,10.949999809265137,10.949999809265137,0,10.949999809265137
2018-05-07,10.930000305175781,10.40999984741211,10.41100025177002,10.930000305175781,1900,10.930000305175781
2018-05-08,10.930000305175781,10.930000305175781,10.930000305175781,10.930000305175781,0,10.930000305175781
2018-05-09,10.850000381469727,10.449999809265137,10.579999923706055,10.649999618530273,33300,10.649999618530273
2018-05-10,10.75,10.470000267028809,10.5,10.670000076293945,15400,10.670000076293945
2018-05-11,10.800000190734863,10.234999656677246,10.75,10.649999618530273,21200,10.649999618530273
2018-05-14,10.680000305175781,10.449999809265137,10.460000038146973,10.630000114440918,14700,10.630000114440918
2018-05-15,10.8100004196167,10.479999542236328,10.5,10.699999809265137,76400,10.699999809265137
2018-05-16,10.821000099182129,10.539999961853027,10.800000190734863,10.5600004196167,72300,10.5600004196167
2018-05-17,10.670000076293945,10.489999771118164,10.5,10.630000114440918,12000,10.630000114440918
2018-05-18,10.630000114440918,10.630000114440918,10.630000114440918,10.630000114440918,0,10.630000114440918
2018-05-21,10.619999885559082,10.350000381469727,10.5,10.619999885559082,5200,10.619999885559082
2018-05-22,10.755000114440918,10.5,10.75,10.5,6100,10.5
2018-05-23,10.5,10.5,10.5,10.5,0,10.5
2018-05-24,10.460000038146973,10.4399995803833,10.449999809265137,10.460000038146973,3200,10.460000038146973
2018-05-25,10.460000038146973,10.460000038146973,10.460000038146973,10.460000038146973,0,10.460000038146973
2018-05-29,10.460000038146973,10.460000038146973,10.460000038146973,10.460000038146973,0,10.460000038146973
2018-05-30,10.460000038146973,10.460000038146973,10.460000038146973,10.460000038146973,0,10.460000038146973
2018-05-31,10.649999618530273,10.539999961853027,10.649999618530273,10.649999618530273,2700,10.649999618530273
2018-06-01,10.600000381469727,10.600000381469727,10.600000381469727,10.600000381469727,200,10.600000381469727
2018-06-04,10.600000381469727,10.600000381469727,10.600000381469727,10.600000381469727,0,10.600000381469727
2018-06-05,10.600000381469727,10.600000381469727,10.600000381469727,10.600000381469727,0,10.600000381469727
2018-06-06,10.640000343322754,10.640000343322754,10.640000343322754,10.640000343322754,200,10.640000343322754
2018-06-07,10.649999618530273,10.572999954223633,10.630000114440918,10.572999954223633,1300,10.572999954223633
2018-06-08,10.572999954223633,10.572999954223633,10.572999954223633,10.572999954223633,0,10.572999954223633
2018-06-11,10.572999954223633,10.572999954223633,10.572999954223633,10.572999954223633,0,10.572999954223633
2018-06-12,10.572999954223633,10.572999954223633,10.572999954223633,10.572999954223633,0,10.572999954223633
2018-06-13,10.572999954223633,10.572999954223633,10.572999954223633,10.572999954223633,0,10.572999954223633
2018-06-14,10.475000381469727,10.475000381469727,10.475000381469727,10.475000381469727,8000,10.475000381469727
2018-06-15,10.475000381469727,10.475000381469727,10.475000381469727,10.475000381469727,0,10.475000381469727
2018-06-18,10.475000381469727,10.475000381469727,10.475000381469727,10.475000381469727,0,10.475000381469727
2018-06-19,10.475000381469727,10.475000381469727,10.475000381469727,10.475000381469727,0,10.475000381469727
2018-06-20,10.475000381469727,10.475000381469727,10.475000381469727,10.475000381469727,0,10.475000381469727
2018-06-21,10.475000381469727,10.475000381469727,10.475000381469727,10.475000381469727,0,10.475000381469727
2018-06-22,10.475000381469727,10.475000381469727,10.475000381469727,10.475000381469727,0,10.475000381469727
2018-06-25,10.475000381469727,10.475000381469727,10.475000381469727,10.475000381469727,0,10.475000381469727
2018-06-26,10.475000381469727,10.475000381469727,10.475000381469727,10.475000381469727,0,10.475000381469727
2018-06-27,10.475000381469727,10.475000381469727,10.475000381469727,10.475000381469727,0,10.475000381469727
2018-06-28,10.475000381469727,10.475000381469727,10.475000381469727,10.475000381469727,0,10.475000381469727
2018-06-29,10.475000381469727,10.475000381469727,10.475000381469727,10.475000381469727,5000,10.475000381469727
2018-07-02,10.475000381469727,10.475000381469727,10.475000381469727,10.475000381469727,0,10.475000381469727
2018-07-03,10.600000381469727,10.600000381469727,10.600000381469727,10.600000381469727,5000,10.600000381469727
2018-07-05,10.600000381469727,10.600000381469727,10.600000381469727,10.600000381469727,0,10.600000381469727
2018-07-06,10.600000381469727,10.600000381469727,10.600000381469727,10.600000381469727,0,10.600000381469727
2018-07-09,10.600000381469727,10.600000381469727,10.600000381469727,10.600000381469727,0,10.600000381469727
2018-07-10,10.600000381469727,10.600000381469727,10.600000381469727,10.600000381469727,0,10.600000381469727
2018-07-11,10.600000381469727,10.600000381469727,10.600000381469727,10.600000381469727,0,10.600000381469727
2018-07-12,10.600000381469727,10.600000381469727,10.600000381469727,10.600000381469727,0,10.600000381469727
2018-07-13,10.600000381469727,10.600000381469727,10.600000381469727,10.600000381469727,0,10.600000381469727
2018-07-16,10.600000381469727,10.600000381469727,10.600000381469727,10.600000381469727,0,10.600000381469727
2018-07-17,10.600000381469727,10.600000381469727,10.600000381469727,10.600000381469727,0,10.600000381469727
2018-07-18,10.600000381469727,10.600000381469727,10.600000381469727,10.600000381469727,0,10.600000381469727
2018-07-19,10.600000381469727,10.600000381469727,10.600000381469727,10.600000381469727,0,10.600000381469727
2018-07-20,10.600000381469727,10.600000381469727,10.600000381469727,10.600000381469727,0,10.600000381469727
2018-07-23,10.600000381469727,10.600000381469727,10.600000381469727,10.600000381469727,0,10.600000381469727
2018-07-24,10.600000381469727,10.600000381469727,10.600000381469727,10.600000381469727,0,10.600000381469727
2018-07-25,10.600000381469727,10.600000381469727,10.600000381469727,10.600000381469727,0,10.600000381469727
2018-07-26,10.600000381469727,10.600000381469727,10.600000381469727,10.600000381469727,0,10.600000381469727
2018-07-27,10.524999618530273,10.524999618530273,10.524999618530273,10.524999618530273,200,10.524999618530273
2018-07-30,10.524999618530273,10.524999618530273,10.524999618530273,10.524999618530273,0,10.524999618530273
2018-07-31,10.524999618530273,10.524999618530273,10.524999618530273,10.524999618530273,0,10.524999618530273
2018-08-01,10.524999618530273,10.524999618530273,10.524999618530273,10.524999618530273,0,10.524999618530273
2018-08-02,10.524999618530273,10.524999618530273,10.524999618530273,10.524999618530273,0,10.524999618530273
2018-08-03,10.524999618530273,10.524999618530273,10.524999618530273,10.524999618530273,0,10.524999618530273
2018-08-06,10.524999618530273,10.524999618530273,10.524999618530273,10.524999618530273,0,10.524999618530273
2018-08-07,10.524999618530273,10.524999618530273,10.524999618530273,10.524999618530273,0,10.524999618530273
2018-08-08,10.524999618530273,10.524999618530273,10.524999618530273,10.524999618530273,0,10.524999618530273
2018-08-09,10.524999618530273,10.524999618530273,10.524999618530273,10.524999618530273,0,10.524999618530273
2018-08-10,10.524999618530273,10.524999618530273,10.524999618530273,10.524999618530273,0,10.524999618530273
2018-08-13,10.524999618530273,10.524999618530273,10.524999618530273,10.524999618530273,0,10.524999618530273
2018-08-14,10.524999618530273,10.524999618530273,10.524999618530273,10.524999618530273,0,10.524999618530273
2018-08-15,10.524999618530273,10.524999618530273,10.524999618530273,10.524999618530273,0,10.524999618530273
2018-08-16,10.699999809265137,10.699999809265137,10.699999809265137,10.699999809265137,300,10.699999809265137
2018-08-17,10.699999809265137,10.699999809265137,10.699999809265137,10.699999809265137,0,10.699999809265137
2018-08-20,10.699999809265137,10.699999809265137,10.699999809265137,10.699999809265137,1000,10.699999809265137
2018-08-21,10.699999809265137,10.699999809265137,10.699999809265137,10.699999809265137,0,10.699999809265137
2018-08-22,10.699999809265137,10.699999809265137,10.699999809265137,10.699999809265137,0,10.699999809265137
2018-08-23,10.699999809265137,10.699999809265137,10.699999809265137,10.699999809265137,0,10.699999809265137
2018-08-24,10.699999809265137,10.699999809265137,10.699999809265137,10.699999809265137,0,10.699999809265137
2018-08-27,10.699999809265137,10.699999809265137,10.699999809265137,10.699999809265137,0,10.699999809265137
2018-08-28,10.699999809265137,10.699999809265137,10.699999809265137,10.699999809265137,0,10.699999809265137
2018-08-29,10.699999809265137,10.699999809265137,10.699999809265137,10.699999809265137,0,10.699999809265137
2018-08-30,10.699999809265137,10.699999809265137,10.699999809265137,10.699999809265137,0,10.699999809265137
2018-08-31,10.699999809265137,10.699999809265137,10.699999809265137,10.699999809265137,0,10.699999809265137
2018-09-04,10.699999809265137,10.699999809265137,10.699999809265137,10.699999809265137,0,10.699999809265137
2018-09-05,10.699999809265137,10.699999809265137,10.699999809265137,10.699999809265137,0,10.699999809265137
2018-09-06,10.699999809265137,10.699999809265137,10.699999809265137,10.699999809265137,0,10.699999809265137
2018-09-07,10.699999809265137,10.699999809265137,10.699999809265137,10.699999809265137,0,10.699999809265137
2018-09-10,10.699999809265137,10.699999809265137,10.699999809265137,10.699999809265137,0,10.699999809265137
2018-09-11,10.699999809265137,10.699999809265137,10.699999809265137,10.699999809265137,0,10.699999809265137
2018-09-12,10.699999809265137,10.699999809265137,10.699999809265137,10.699999809265137,0,10.699999809265137
2018-09-13,10.699999809265137,10.699999809265137,10.699999809265137,10.699999809265137,0,10.699999809265137
2018-09-14,10.699999809265137,10.699999809265137,10.699999809265137,10.699999809265137,0,10.699999809265137
2018-09-17,10.699999809265137,10.699999809265137,10.699999809265137,10.699999809265137,0,10.699999809265137
2018-09-18,10.699999809265137,10.699999809265137,10.699999809265137,10.699999809265137,0,10.699999809265137
2018-09-19,10.699999809265137,10.699999809265137,10.699999809265137,10.699999809265137,0,10.699999809265137
2018-09-20,10.699999809265137,10.699999809265137,10.699999809265137,10.699999809265137,0,10.699999809265137
2018-09-21,10.699999809265137,10.699999809265137,10.699999809265137,10.699999809265137,0,10.699999809265137
2018-09-24,10.699999809265137,10.699999809265137,10.699999809265137,10.699999809265137,0,10.699999809265137
2018-09-25,10.699999809265137,10.699999809265137,10.699999809265137,10.699999809265137,0,10.699999809265137
2018-09-26,10.699999809265137,10.699999809265137,10.699999809265137,10.699999809265137,0,10.699999809265137
2018-09-27,10.699999809265137,10.699999809265137,10.699999809265137,10.699999809265137,100,10.699999809265137
2018-09-28,10.699999809265137,10.699999809265137,10.699999809265137,10.699999809265137,0,10.699999809265137
2018-10-01,10.699999809265137,10.699999809265137,10.699999809265137,10.699999809265137,0,10.699999809265137
2018-10-02,10.699999809265137,10.699999809265137,10.699999809265137,10.699999809265137,0,10.699999809265137
2018-10-03,10.699999809265137,10.699999809265137,10.699999809265137,10.699999809265137,0,10.699999809265137
2018-10-04,10.699999809265137,10.699999809265137,10.699999809265137,10.699999809265137,0,10.699999809265137
2018-10-05,10.699999809265137,10.699999809265137,10.699999809265137,10.699999809265137,0,10.699999809265137
2018-10-08,10.699999809265137,10.699999809265137,10.699999809265137,10.699999809265137,0,10.699999809265137
2018-10-09,10.699999809265137,10.699999809265137,10.699999809265137,10.699999809265137,0,10.699999809265137
2018-10-10,10.699999809265137,10.699999809265137,10.699999809265137,10.699999809265137,0,10.699999809265137
2018-10-11,10.699999809265137,10.699999809265137,10.699999809265137,10.699999809265137,0,10.699999809265137
2018-10-12,10.699999809265137,10.699999809265137,10.699999809265137,10.699999809265137,0,10.699999809265137
2018-10-15,10.699999809265137,10.699999809265137,10.699999809265137,10.699999809265137,0,10.699999809265137
2018-10-16,10.699999809265137,10.699999809265137,10.699999809265137,10.699999809265137,0,10.699999809265137
2018-10-17,10.699999809265137,10.699999809265137,10.699999809265137,10.699999809265137,6500,10.699999809265137
2018-10-18,10.699999809265137,10.699999809265137,10.699999809265137,10.699999809265137,0,10.699999809265137
2018-10-19,10.699999809265137,10.699999809265137,10.699999809265137,10.699999809265137,0,10.699999809265137
2018-10-22,10.699999809265137,10.699999809265137,10.699999809265137,10.699999809265137,0,10.699999809265137
2018-10-23,10.699999809265137,10.699999809265137,10.699999809265137,10.699999809265137,0,10.699999809265137
2018-10-24,10.399999618530273,10.399999618530273,10.399999618530273,10.399999618530273,1000,10.399999618530273
2018-10-25,10.399999618530273,10.399999618530273,10.399999618530273,10.399999618530273,0,10.399999618530273
2018-10-26,10.399999618530273,10.399999618530273,10.399999618530273,10.399999618530273,0,10.399999618530273
2018-10-29,10.399999618530273,10.399999618530273,10.399999618530273,10.399999618530273,0,10.399999618530273
2018-10-30,10.399999618530273,10.399999618530273,10.399999618530273,10.399999618530273,0,10.399999618530273
2018-10-31,10.399999618530273,10.399999618530273,10.399999618530273,10.399999618530273,0,10.399999618530273
2018-11-01,10.399999618530273,10.399999618530273,10.399999618530273,10.399999618530273,100,10.399999618530273
2018-11-02,10.399999618530273,10.399999618530273,10.399999618530273,10.399999618530273,0,10.399999618530273
2018-11-05,10.399999618530273,10.399999618530273,10.399999618530273,10.399999618530273,0,10.399999618530273
2018-11-06,10.399999618530273,10.399999618530273,10.399999618530273,10.399999618530273,0,10.399999618530273
2018-11-07,10.399999618530273,10.399999618530273,10.399999618530273,10.399999618530273,0,10.399999618530273
2018-11-08,10.399999618530273,10.399999618530273,10.399999618530273,10.399999618530273,0,10.399999618530273
2018-11-09,10.399999618530273,10.399999618530273,10.399999618530273,10.399999618530273,0,10.399999618530273
2018-11-12,10.399999618530273,10.399999618530273,10.399999618530273,10.399999618530273,0,10.399999618530273
2018-11-13,10.399999618530273,10.399999618530273,10.399999618530273,10.399999618530273,0,10.399999618530273
2018-11-14,10.399999618530273,10.399999618530273,10.399999618530273,10.399999618530273,0,10.399999618530273
2018-11-15,10.399999618530273,10.399999618530273,10.399999618530273,10.399999618530273,0,10.399999618530273
2018-11-16,10.399999618530273,10.399999618530273,10.399999618530273,10.399999618530273,0,10.399999618530273
2018-11-19,10.399999618530273,10.399999618530273,10.399999618530273,10.399999618530273,0,10.399999618530273
2018-11-20,10.399999618530273,10.399999618530273,10.399999618530273,10.399999618530273,0,10.399999618530273
2018-11-21,10.399999618530273,10.399999618530273,10.399999618530273,10.399999618530273,0,10.399999618530273
2018-11-23,10.399999618530273,10.399999618530273,10.399999618530273,10.399999618530273,0,10.399999618530273
2018-11-26,10.550000190734863,10.5,10.550000190734863,10.550000190734863,10700,10.550000190734863
2018-11-27,10.550000190734863,10.550000190734863,10.550000190734863,10.550000190734863,0,10.550000190734863
2018-11-28,10.550000190734863,10.550000190734863,10.550000190734863,10.550000190734863,0,10.550000190734863
2018-11-29,10.550000190734863,10.550000190734863,10.550000190734863,10.550000190734863,0,10.550000190734863
2018-11-30,10.550000190734863,10.550000190734863,10.550000190734863,10.550000190734863,0,10.550000190734863
2018-12-03,10.550000190734863,10.550000190734863,10.550000190734863,10.550000190734863,0,10.550000190734863
2018-12-04,10.550000190734863,10.550000190734863,10.550000190734863,10.550000190734863,0,10.550000190734863
2018-12-06,10.550000190734863,10.550000190734863,10.550000190734863,10.550000190734863,0,10.550000190734863
2018-12-07,10.550000190734863,10.550000190734863,10.550000190734863,10.550000190734863,0,10.550000190734863
2018-12-10,10.550000190734863,10.550000190734863,10.550000190734863,10.550000190734863,0,10.550000190734863
2018-12-11,10.550000190734863,10.550000190734863,10.550000190734863,10.550000190734863,100,10.550000190734863
2018-12-12,10.550000190734863,10.550000190734863,10.550000190734863,10.550000190734863,0,10.550000190734863
2018-12-13,10.550000190734863,10.550000190734863,10.550000190734863,10.550000190734863,0,10.550000190734863
2018-12-14,10.550000190734863,10.550000190734863,10.550000190734863,10.550000190734863,0,10.550000190734863
2018-12-17,10.550000190734863,10.550000190734863,10.550000190734863,10.550000190734863,0,10.550000190734863
2018-12-18,10.550000190734863,10.550000190734863,10.550000190734863,10.550000190734863,0,10.550000190734863
2018-12-19,10.550000190734863,10.550000190734863,10.550000190734863,10.550000190734863,0,10.550000190734863
2018-12-20,10.550000190734863,10.550000190734863,10.550000190734863,10.550000190734863,0,10.550000190734863
2018-12-21,10.550000190734863,10.550000190734863,10.550000190734863,10.550000190734863,0,10.550000190734863
2018-12-24,10.550000190734863,10.550000190734863,10.550000190734863,10.550000190734863,100,10.550000190734863
2018-12-26,10.550000190734863,10.550000190734863,10.550000190734863,10.550000190734863,0,10.550000190734863
2018-12-27,10.550000190734863,10.550000190734863,10.550000190734863,10.550000190734863,0,10.550000190734863
2018-12-28,10.550000190734863,10.550000190734863,10.550000190734863,10.550000190734863,0,10.550000190734863
2018-12-31,10.550000190734863,10.550000190734863,10.550000190734863,10.550000190734863,0,10.550000190734863
2019-01-02,10.550000190734863,10.550000190734863,10.550000190734863,10.550000190734863,0,10.550000190734863
2019-01-03,10.550000190734863,10.550000190734863,10.550000190734863,10.550000190734863,100,10.550000190734863
2019-01-04,10.550000190734863,10.550000190734863,10.550000190734863,10.550000190734863,0,10.550000190734863
2019-01-07,10.550000190734863,10.550000190734863,10.550000190734863,10.550000190734863,0,10.550000190734863
2019-01-08,10.59000015258789,10.59000015258789,10.59000015258789,10.59000015258789,150000,10.59000015258789
2019-01-09,10.59000015258789,10.59000015258789,10.59000015258789,10.59000015258789,0,10.59000015258789
2019-01-10,10.59000015258789,10.59000015258789,10.59000015258789,10.59000015258789,0,10.59000015258789
2019-01-11,10.59000015258789,10.59000015258789,10.59000015258789,10.59000015258789,0,10.59000015258789
2019-01-14,10.59000015258789,10.59000015258789,10.59000015258789,10.59000015258789,0,10.59000015258789
2019-01-15,10.59000015258789,10.59000015258789,10.59000015258789,10.59000015258789,0,10.59000015258789
2019-01-16,10.59000015258789,10.59000015258789,10.59000015258789,10.59000015258789,0,10.59000015258789
2019-01-17,10.59000015258789,10.59000015258789,10.59000015258789,10.59000015258789,0,10.59000015258789
2019-01-18,10.59000015258789,10.59000015258789,10.59000015258789,10.59000015258789,0,10.59000015258789
2019-01-22,10.59000015258789,10.59000015258789,10.59000015258789,10.59000015258789,0,10.59000015258789
2019-01-23,10.59000015258789,10.59000015258789,10.59000015258789,10.59000015258789,0,10.59000015258789
2019-01-24,10.59000015258789,10.59000015258789,10.59000015258789,10.59000015258789,0,10.59000015258789
2019-01-25,10.59000015258789,10.59000015258789,10.59000015258789,10.59000015258789,0,10.59000015258789
2019-01-28,10.59000015258789,10.59000015258789,10.59000015258789,10.59000015258789,0,10.59000015258789
2019-01-29,10.59000015258789,10.59000015258789,10.59000015258789,10.59000015258789,0,10.59000015258789
2019-01-30,10.59000015258789,10.59000015258789,10.59000015258789,10.59000015258789,0,10.59000015258789
2019-01-31,10.59000015258789,10.59000015258789,10.59000015258789,10.59000015258789,0,10.59000015258789
2019-02-01,10.59000015258789,10.59000015258789,10.59000015258789,10.59000015258789,0,10.59000015258789
2019-02-04,10.59000015258789,10.59000015258789,10.59000015258789,10.59000015258789,0,10.59000015258789
2019-02-05,10.59000015258789,10.59000015258789,10.59000015258789,10.59000015258789,0,10.59000015258789
2019-02-06,10.59000015258789,10.59000015258789,10.59000015258789,10.59000015258789,0,10.59000015258789
2019-02-07,10.59000015258789,10.59000015258789,10.59000015258789,10.59000015258789,0,10.59000015258789
2019-02-08,10.59000015258789,10.59000015258789,10.59000015258789,10.59000015258789,0,10.59000015258789
2019-02-11,10.59000015258789,10.59000015258789,10.59000015258789,10.59000015258789,0,10.59000015258789
2019-02-12,10.59000015258789,10.59000015258789,10.59000015258789,10.59000015258789,0,10.59000015258789
2019-02-13,10.59000015258789,10.59000015258789,10.59000015258789,10.59000015258789,0,10.59000015258789
2019-02-14,10.5,10.5,10.5,10.5,100,10.5
2019-02-15,10.5,10.5,10.5,10.5,0,10.5
2019-02-19,10.5,10.5,10.5,10.5,0,10.5
2019-02-20,10.550000190734863,10.550000190734863,10.550000190734863,10.550000190734863,500,10.550000190734863
2019-02-21,10.550000190734863,10.550000190734863,10.550000190734863,10.550000190734863,0,10.550000190734863
2019-02-22,10.550000190734863,10.550000190734863,10.550000190734863,10.550000190734863,0,10.550000190734863
2019-02-25,10.550000190734863,10.550000190734863,10.550000190734863,10.550000190734863,0,10.550000190734863
2019-02-26,10.550000190734863,10.550000190734863,10.550000190734863,10.550000190734863,0,10.550000190734863
2019-02-27,10.550000190734863,10.550000190734863,10.550000190734863,10.550000190734863,0,10.550000190734863
2019-02-28,10.699999809265137,10.640000343322754,10.699999809265137,10.640000343322754,200,10.640000343322754
2019-03-01,10.640000343322754,10.640000343322754,10.640000343322754,10.640000343322754,0,10.640000343322754
2019-03-04,10.640000343322754,10.640000343322754,10.640000343322754,10.640000343322754,0,10.640000343322754
2019-03-05,10.640000343322754,10.640000343322754,10.640000343322754,10.640000343322754,0,10.640000343322754
2019-03-06,10.640000343322754,10.640000343322754,10.640000343322754,10.640000343322754,0,10.640000343322754
2019-03-07,10.640000343322754,10.640000343322754,10.640000343322754,10.640000343322754,0,10.640000343322754
2019-03-08,10.640000343322754,10.640000343322754,10.640000343322754,10.640000343322754,0,10.640000343322754
2019-03-11,10.640000343322754,10.640000343322754,10.640000343322754,10.640000343322754,0,10.640000343322754
2019-03-12,10.640000343322754,10.640000343322754,10.640000343322754,10.640000343322754,0,10.640000343322754
2019-03-13,10.640000343322754,10.640000343322754,10.640000343322754,10.640000343322754,0,10.640000343322754
2019-03-14,10.640000343322754,10.640000343322754,10.640000343322754,10.640000343322754,0,10.640000343322754
2019-03-15,10.640000343322754,10.640000343322754,10.640000343322754,10.640000343322754,0,10.640000343322754
2019-03-18,10.640000343322754,10.640000343322754,10.640000343322754,10.640000343322754,0,10.640000343322754
2019-03-19,10.640000343322754,10.640000343322754,10.640000343322754,10.640000343322754,0,10.640000343322754
2019-03-20,10.640000343322754,10.640000343322754,10.640000343322754,10.640000343322754,100,10.640000343322754
2019-03-21,10.649999618530273,10.649999618530273,10.649999618530273,10.649999618530273,1000,10.649999618530273
2019-03-22,10.649999618530273,10.649999618530273,10.649999618530273,10.649999618530273,0,10.649999618530273
2019-03-25,10.649999618530273,10.649999618530273,10.649999618530273,10.649999618530273,0,10.649999618530273
2019-03-26,10.649999618530273,10.649999618530273,10.649999618530273,10.649999618530273,0,10.649999618530273
2019-03-27,10.649999618530273,10.649999618530273,10.649999618530273,10.649999618530273,0,10.649999618530273
2019-03-28,10.649999618530273,10.649999618530273,10.649999618530273,10.649999618530273,0,10.649999618530273
2019-03-29,10.649999618530273,10.649999618530273,10.649999618530273,10.649999618530273,0,10.649999618530273
2019-04-01,10.649999618530273,10.649999618530273,10.649999618530273,10.649999618530273,0,10.649999618530273
2019-04-02,10.649999618530273,10.649999618530273,10.649999618530273,10.649999618530273,0,10.649999618530273
2019-04-03,10.649999618530273,10.649999618530273,10.649999618530273,10.649999618530273,0,10.649999618530273
2019-04-04,10.699999809265137,10.640000343322754,10.699999809265137,10.640000343322754,1100,10.640000343322754
2019-04-05,10.699999809265137,10.699999809265137,10.699999809265137,10.699999809265137,600,10.699999809265137
2019-04-08,10.699999809265137,10.699999809265137,10.699999809265137,10.699999809265137,800,10.699999809265137
2019-04-09,10.503999710083008,10.503999710083008,10.503999710083008,10.503999710083008,100,10.503999710083008
2019-04-10,10.503999710083008,10.503999710083008,10.503999710083008,10.503999710083008,0,10.503999710083008
2019-04-11,10.503999710083008,10.503999710083008,10.503999710083008,10.503999710083008,0,10.503999710083008
2019-04-12,10.503999710083008,10.503999710083008,10.503999710083008,10.503999710083008,0,10.503999710083008
2019-04-15,10.503999710083008,10.503999710083008,10.503999710083008,10.503999710083008,0,10.503999710083008
2019-04-16,10.503999710083008,10.503999710083008,10.503999710083008,10.503999710083008,0,10.503999710083008
2019-04-17,10.503999710083008,10.503999710083008,10.503999710083008,10.503999710083008,0,10.503999710083008
2019-04-18,10.503999710083008,10.503999710083008,10.503999710083008,10.503999710083008,0,10.503999710083008
2019-04-22,10.699999809265137,10.699999809265137,10.699999809265137,10.699999809265137,1100,10.699999809265137
2019-04-23,10.699999809265137,10.699999809265137,10.699999809265137,10.699999809265137,0,10.699999809265137
2019-04-24,10.699999809265137,10.699999809265137,10.699999809265137,10.699999809265137,0,10.699999809265137
2019-04-25,10.699999809265137,10.699999809265137,10.699999809265137,10.699999809265137,0,10.699999809265137
2019-04-26,10.699999809265137,10.699999809265137,10.699999809265137,10.699999809265137,0,10.699999809265137
2019-04-29,10.699999809265137,10.699999809265137,10.699999809265137,10.699999809265137,0,10.699999809265137
2019-04-30,10.699999809265137,10.699999809265137,10.699999809265137,10.699999809265137,0,10.699999809265137
2019-05-01,10.699999809265137,10.699999809265137,10.699999809265137,10.699999809265137,0,10.699999809265137
2019-05-02,10.699999809265137,10.699999809265137,10.699999809265137,10.699999809265137,0,10.699999809265137
2019-05-03,10.699999809265137,10.699999809265137,10.699999809265137,10.699999809265137,0,10.699999809265137
2019-05-06,10.699999809265137,10.699999809265137,10.699999809265137,10.699999809265137,0,10.699999809265137
2019-05-07,10.699999809265137,10.699999809265137,10.699999809265137,10.699999809265137,0,10.699999809265137
2019-05-08,10.699999809265137,10.699999809265137,10.699999809265137,10.699999809265137,0,10.699999809265137
2019-05-09,10.699999809265137,10.699999809265137,10.699999809265137,10.699999809265137,0,10.699999809265137
2019-05-10,10.699999809265137,10.699999809265137,10.699999809265137,10.699999809265137,0,10.699999809265137
2019-05-13,10.699999809265137,10.699999809265137,10.699999809265137,10.699999809265137,0,10.699999809265137
2019-05-14,10.699999809265137,10.699999809265137,10.699999809265137,10.699999809265137,0,10.699999809265137
2019-05-15,10.699999809265137,10.699999809265137,10.699999809265137,10.699999809265137,0,10.699999809265137
2019-05-16,10.699999809265137,10.699999809265137,10.699999809265137,10.699999809265137,0,10.699999809265137
2019-05-17,10.699999809265137,10.699999809265137,10.699999809265137,10.699999809265137,0,10.699999809265137
2019-05-20,10.699999809265137,10.699999809265137,10.699999809265137,10.699999809265137,0,10.699999809265137
2019-05-21,10.699999809265137,10.699999809265137,10.699999809265137,10.699999809265137,0,10.699999809265137
2019-05-22,10.699999809265137,10.699999809265137,10.699999809265137,10.699999809265137,0,10.699999809265137
2019-05-23,10.699999809265137,10.699999809265137,10.699999809265137,10.699999809265137,0,10.699999809265137
2019-05-24,10.699999809265137,10.699999809265137,10.699999809265137,10.699999809265137,0,10.699999809265137
