Date,High,Low,Open,Close,Volume,Adj Close
2015-01-02,62.11000061035156,62.11000061035156,62.11000061035156,62.11000061035156,0,62.11000061035156
2015-01-05,62.0,62.0,62.0,62.0,0,62.0
2015-01-06,61.650001525878906,60.77000045776367,60.97999954223633,61.650001525878906,400,61.650001525878906
2015-01-07,62.5,61.540000915527344,62.5,61.540000915527344,500,61.540000915527344
2015-01-08,61.540000915527344,61.540000915527344,61.540000915527344,61.540000915527344,0,61.540000915527344
2015-01-09,62.869998931884766,62.18000030517578,62.43000030517578,62.81999969482422,1600,62.81999969482422
2015-01-12,61.900001525878906,61.900001525878906,61.900001525878906,61.900001525878906,200,61.900001525878906
2015-01-13,62.400001525878906,61.75,62.400001525878906,61.91999816894531,2500,61.91999816894531
2015-01-14,61.91999816894531,61.91999816894531,61.91999816894531,61.91999816894531,0,61.91999816894531
2015-01-15,61.11000061035156,61.11000061035156,61.11000061035156,61.11000061035156,0,61.11000061035156
2015-01-16,60.77000045776367,60.77000045776367,60.77000045776367,60.77000045776367,0,60.77000045776367
2015-01-20,60.4900016784668,60.4900016784668,60.4900016784668,60.4900016784668,0,60.4900016784668
2015-01-21,61.959999084472656,61.47999954223633,61.959999084472656,61.47999954223633,2000,61.47999954223633
2015-01-22,62.400001525878906,61.97999954223633,61.97999954223633,62.400001525878906,600,62.400001525878906
2015-01-23,62.400001525878906,62.400001525878906,62.400001525878906,62.400001525878906,0,62.400001525878906
2015-01-26,61.93000030517578,61.93000030517578,61.93000030517578,61.93000030517578,0,61.93000030517578
2015-01-27,61.689998626708984,61.689998626708984,61.689998626708984,61.689998626708984,600,61.689998626708984
2015-01-28,61.689998626708984,61.689998626708984,61.689998626708984,61.689998626708984,0,61.689998626708984
2015-01-29,61.310001373291016,61.310001373291016,61.310001373291016,61.310001373291016,0,61.310001373291016
2015-01-30,61.560001373291016,61.560001373291016,61.560001373291016,61.560001373291016,0,61.560001373291016
2015-02-02,61.52000045776367,61.34000015258789,61.52000045776367,61.34000015258789,200,61.34000015258789
2015-02-03,61.34000015258789,61.34000015258789,61.34000015258789,61.34000015258789,0,61.34000015258789
2015-02-04,62.279998779296875,62.11000061035156,62.11000061035156,62.279998779296875,1200,62.279998779296875
2015-02-05,62.349998474121094,62.349998474121094,62.349998474121094,62.349998474121094,400,62.349998474121094
2015-02-06,62.400001525878906,62.279998779296875,62.400001525878906,62.279998779296875,300,62.279998779296875
2015-02-09,62.279998779296875,62.279998779296875,62.279998779296875,62.279998779296875,0,62.279998779296875
2015-02-10,62.13999938964844,62.13999938964844,62.13999938964844,62.13999938964844,0,62.13999938964844
2015-02-11,62.59000015258789,62.5,62.5,62.58000183105469,500,62.58000183105469
2015-02-12,62.58000183105469,62.58000183105469,62.58000183105469,62.58000183105469,0,62.58000183105469
2015-02-13,62.41999816894531,62.41999816894531,62.41999816894531,62.41999816894531,0,62.41999816894531
2015-02-17,62.459999084472656,62.459999084472656,62.459999084472656,62.459999084472656,0,62.459999084472656
2015-02-18,62.459999084472656,62.459999084472656,62.459999084472656,62.459999084472656,0,62.459999084472656
2015-02-19,62.540000915527344,62.540000915527344,62.540000915527344,62.540000915527344,0,62.540000915527344
2015-02-20,62.66999816894531,62.66999816894531,62.66999816894531,62.66999816894531,100,62.66999816894531
2015-02-23,62.66999816894531,62.66999816894531,62.66999816894531,62.66999816894531,0,62.66999816894531
2015-02-24,62.77000045776367,62.77000045776367,62.77000045776367,62.77000045776367,0,62.77000045776367
2015-02-25,62.59000015258789,62.59000015258789,62.59000015258789,62.59000015258789,0,62.59000015258789
2015-02-26,62.59000015258789,62.59000015258789,62.59000015258789,62.59000015258789,0,62.59000015258789
2015-02-27,62.59000015258789,62.59000015258789,62.59000015258789,62.59000015258789,0,62.59000015258789
2015-03-02,62.880001068115234,62.880001068115234,62.880001068115234,62.880001068115234,0,62.880001068115234
2015-03-03,62.59000015258789,62.59000015258789,62.59000015258789,62.59000015258789,0,62.59000015258789
2015-03-04,62.880001068115234,62.880001068115234,62.880001068115234,62.880001068115234,0,62.880001068115234
2015-03-05,63.099998474121094,62.970001220703125,62.970001220703125,63.099998474121094,300,63.099998474121094
2015-03-06,63.099998474121094,63.099998474121094,63.099998474121094,63.099998474121094,0,63.099998474121094
2015-03-09,62.369998931884766,62.369998931884766,62.369998931884766,62.369998931884766,0,62.369998931884766
2015-03-10,62.560001373291016,62.560001373291016,62.560001373291016,62.560001373291016,0,62.560001373291016
2015-03-11,61.68000030517578,61.68000030517578,61.68000030517578,61.68000030517578,0,61.68000030517578
2015-03-12,61.650001525878906,61.650001525878906,61.650001525878906,61.650001525878906,0,61.650001525878906
2015-03-13,62.209999084472656,62.209999084472656,62.209999084472656,62.209999084472656,0,62.209999084472656
2015-03-16,61.95000076293945,61.95000076293945,61.95000076293945,61.95000076293945,0,61.95000076293945
2015-03-17,62.7400016784668,62.7400016784668,62.7400016784668,62.7400016784668,0,62.7400016784668
2015-03-18,62.619998931884766,62.619998931884766,62.619998931884766,62.619998931884766,0,62.619998931884766
2015-03-19,63.11000061035156,63.11000061035156,63.11000061035156,63.11000061035156,0,63.11000061035156
2015-03-20,63.20000076293945,63.20000076293945,63.20000076293945,63.20000076293945,0,63.20000076293945
2015-03-23,62.849998474121094,62.849998474121094,62.849998474121094,62.849998474121094,0,62.849998474121094
2015-03-24,63.529998779296875,63.529998779296875,63.529998779296875,63.529998779296875,0,63.529998779296875
2015-03-25,63.58000183105469,63.58000183105469,63.58000183105469,63.58000183105469,0,63.58000183105469
2015-03-26,62.79999923706055,62.79999923706055,62.79999923706055,62.79999923706055,300,62.79999923706055
2015-03-27,62.79999923706055,62.79999923706055,62.79999923706055,62.79999923706055,0,62.79999923706055
2015-03-30,62.79999923706055,62.79999923706055,62.79999923706055,62.79999923706055,0,62.79999923706055
2015-03-31,62.79999923706055,62.79999923706055,62.79999923706055,62.79999923706055,0,62.79999923706055
2015-04-01,62.79999923706055,62.79999923706055,62.79999923706055,62.79999923706055,0,62.79999923706055
2015-04-02,62.79999923706055,62.79999923706055,62.79999923706055,62.79999923706055,0,62.79999923706055
2015-04-06,62.79999923706055,62.79999923706055,62.79999923706055,62.79999923706055,0,62.79999923706055
2015-04-07,62.79999923706055,62.79999923706055,62.79999923706055,62.79999923706055,0,62.79999923706055
2015-04-08,62.79999923706055,62.79999923706055,62.79999923706055,62.79999923706055,0,62.79999923706055
2015-04-09,62.79999923706055,62.79999923706055,62.79999923706055,62.79999923706055,0,62.79999923706055
2015-04-10,62.79999923706055,62.79999923706055,62.79999923706055,62.79999923706055,0,62.79999923706055
2015-04-13,64.66999816894531,64.19000244140625,64.66999816894531,64.19000244140625,1900,64.19000244140625
2015-04-14,64.19000244140625,64.19000244140625,64.19000244140625,64.19000244140625,0,64.19000244140625
2015-04-15,64.8499984741211,64.8499984741211,64.8499984741211,64.8499984741211,500,64.8499984741211
2015-04-16,65.0,64.41000366210938,65.0,64.51000213623047,500,64.51000213623047
2015-04-17,64.37000274658203,64.37000274658203,64.37000274658203,64.37000274658203,800,64.37000274658203
2015-04-20,64.37000274658203,64.37000274658203,64.37000274658203,64.37000274658203,0,64.37000274658203
2015-04-21,64.37000274658203,64.37000274658203,64.37000274658203,64.37000274658203,0,64.37000274658203
2015-04-22,64.72000122070312,64.72000122070312,64.72000122070312,64.72000122070312,700,64.72000122070312
2015-04-23,64.72000122070312,64.72000122070312,64.72000122070312,64.72000122070312,0,64.72000122070312
2015-04-24,64.72000122070312,64.72000122070312,64.72000122070312,64.72000122070312,0,64.72000122070312
2015-04-27,64.72000122070312,64.72000122070312,64.72000122070312,64.72000122070312,0,64.72000122070312
2015-04-28,64.80999755859375,64.80999755859375,64.80999755859375,64.80999755859375,200,64.80999755859375
2015-04-29,64.80999755859375,64.80999755859375,64.80999755859375,64.80999755859375,0,64.80999755859375
2015-04-30,64.80999755859375,64.80999755859375,64.80999755859375,64.80999755859375,0,64.80999755859375
2015-05-01,64.80999755859375,64.80999755859375,64.80999755859375,64.80999755859375,0,64.80999755859375
2015-05-04,64.4800033569336,64.3499984741211,64.3499984741211,64.41999816894531,1300,64.41999816894531
2015-05-05,64.38999938964844,64.38999938964844,64.38999938964844,64.38999938964844,400,64.38999938964844
2015-05-06,64.38999938964844,64.38999938964844,64.38999938964844,64.38999938964844,0,64.38999938964844
2015-05-07,64.69999694824219,64.69999694824219,64.69999694824219,64.69999694824219,300,64.69999694824219
2015-05-08,64.0,64.0,64.0,64.0,300,64.0
2015-05-11,64.58000183105469,64.52999877929688,64.52999877929688,64.58000183105469,700,64.58000183105469
2015-05-12,64.55000305175781,64.48999786376953,64.48999786376953,64.55000305175781,500,64.55000305175781
2015-05-13,64.54000091552734,64.54000091552734,64.54000091552734,64.54000091552734,200,64.54000091552734
2015-05-14,64.54000091552734,64.54000091552734,64.54000091552734,64.54000091552734,0,64.54000091552734
2015-05-15,64.54000091552734,64.54000091552734,64.54000091552734,64.54000091552734,0,64.54000091552734
2015-05-18,64.54000091552734,64.54000091552734,64.54000091552734,64.54000091552734,0,64.54000091552734
2015-05-19,64.54000091552734,64.54000091552734,64.54000091552734,64.54000091552734,0,64.54000091552734
2015-05-20,64.54000091552734,64.54000091552734,64.54000091552734,64.54000091552734,0,64.54000091552734
2015-05-21,64.54000091552734,64.54000091552734,64.54000091552734,64.54000091552734,0,64.54000091552734
2015-05-22,64.45999908447266,64.45999908447266,64.45999908447266,64.45999908447266,500,64.45999908447266
2015-05-26,64.45999908447266,64.45999908447266,64.45999908447266,64.45999908447266,0,64.45999908447266
2015-05-27,64.45999908447266,64.45999908447266,64.45999908447266,64.45999908447266,0,64.45999908447266
2015-05-28,64.45999908447266,64.45999908447266,64.45999908447266,64.45999908447266,0,64.45999908447266
2015-05-29,64.45999908447266,64.45999908447266,64.45999908447266,64.45999908447266,0,64.45999908447266
2015-06-01,65.25,65.08999633789062,65.08999633789062,65.23999786376953,600,65.23999786376953
2015-06-02,64.80000305175781,64.7300033569336,64.7300033569336,64.80000305175781,400,64.80000305175781
2015-06-03,65.29000091552734,65.12000274658203,65.29000091552734,65.29000091552734,700,65.29000091552734
2015-06-04,64.95999908447266,64.95999908447266,64.95999908447266,64.95999908447266,500,64.95999908447266
2015-06-05,64.95999908447266,64.95999908447266,64.95999908447266,64.95999908447266,0,64.95999908447266
2015-06-08,64.45999908447266,64.45999908447266,64.45999908447266,64.45999908447266,200,64.45999908447266
2015-06-09,64.62999725341797,63.95000076293945,63.95000076293945,64.62999725341797,1600,64.62999725341797
2015-06-10,65.31999969482422,65.29000091552734,65.29000091552734,65.31999969482422,500,65.31999969482422
2015-06-11,65.4000015258789,65.04000091552734,65.0999984741211,65.19999694824219,5600,65.19999694824219
2015-06-12,65.19999694824219,65.19999694824219,65.19999694824219,65.19999694824219,0,65.19999694824219
2015-06-15,64.55000305175781,64.19999694824219,64.25,64.4800033569336,1700,64.4800033569336
2015-06-16,64.4800033569336,64.4800033569336,64.4800033569336,64.4800033569336,0,64.4800033569336
2015-06-17,64.4800033569336,64.4800033569336,64.4800033569336,64.4800033569336,0,64.4800033569336
2015-06-18,65.4000015258789,65.19999694824219,65.33999633789062,65.4000015258789,700,65.4000015258789
2015-06-19,65.55000305175781,65.47000122070312,65.55000305175781,65.5199966430664,400,65.5199966430664
2015-06-22,66.22000122070312,65.80000305175781,65.80000305175781,66.22000122070312,500,66.22000122070312
2015-06-23,66.23999786376953,66.23999786376953,66.23999786376953,66.23999786376953,300,66.23999786376953
2015-06-24,66.23999786376953,66.23999786376953,66.23999786376953,66.23999786376953,0,66.23999786376953
2015-06-25,65.19000244140625,65.19000244140625,65.19000244140625,65.19000244140625,200,65.19000244140625
2015-06-26,65.0,65.0,65.0,65.0,100,65.0
2015-06-29,64.48999786376953,64.48999786376953,64.48999786376953,64.48999786376953,200,64.48999786376953
2015-06-30,64.48999786376953,64.48999786376953,64.48999786376953,64.48999786376953,0,64.48999786376953
2015-07-01,64.48999786376953,64.48999786376953,64.48999786376953,64.48999786376953,0,64.48999786376953
2015-07-02,64.68000030517578,64.5999984741211,64.5999984741211,64.5999984741211,500,64.5999984741211
2015-07-06,64.5999984741211,64.5999984741211,64.5999984741211,64.5999984741211,0,64.5999984741211
2015-07-07,64.5999984741211,64.5999984741211,64.5999984741211,64.5999984741211,0,64.5999984741211
2015-07-08,64.5999984741211,64.5999984741211,64.5999984741211,64.5999984741211,0,64.5999984741211
2015-07-09,64.5999984741211,64.5999984741211,64.5999984741211,64.5999984741211,0,64.5999984741211
2015-07-10,64.62000274658203,64.5,64.5,64.62000274658203,400,64.62000274658203
2015-07-13,66.05000305175781,65.25,65.25,65.45999908447266,14100,65.45999908447266
2015-07-14,65.62999725341797,65.62999725341797,65.62999725341797,65.62999725341797,300,65.62999725341797
2015-07-15,65.62999725341797,65.62999725341797,65.62999725341797,65.62999725341797,0,65.62999725341797
2015-07-16,66.05999755859375,66.05999755859375,66.05999755859375,66.05999755859375,200,66.05999755859375
2015-07-17,66.05999755859375,66.05999755859375,66.05999755859375,66.05999755859375,0,66.05999755859375
2015-07-20,66.05999755859375,66.05999755859375,66.05999755859375,66.05999755859375,0,66.05999755859375
2015-07-21,66.1500015258789,64.69999694824219,66.06999969482422,66.1500015258789,2300,66.1500015258789
2015-07-22,66.08000183105469,66.06999969482422,66.08000183105469,66.06999969482422,400,66.06999969482422
2015-07-23,66.06999969482422,66.06999969482422,66.06999969482422,66.06999969482422,0,66.06999969482422
2015-07-24,65.56999969482422,65.36000061035156,65.56999969482422,65.36000061035156,300,65.36000061035156
2015-07-27,65.36000061035156,65.36000061035156,65.36000061035156,65.36000061035156,0,65.36000061035156
2015-07-28,65.36000061035156,65.36000061035156,65.36000061035156,65.36000061035156,0,65.36000061035156
2015-07-29,65.36000061035156,65.36000061035156,65.36000061035156,65.36000061035156,0,65.36000061035156
2015-07-30,66.2300033569336,66.2300033569336,66.2300033569336,66.2300033569336,100,66.2300033569336
2015-07-31,66.2300033569336,66.2300033569336,66.2300033569336,66.2300033569336,0,66.2300033569336
2015-08-03,66.2300033569336,66.2300033569336,66.2300033569336,66.2300033569336,0,66.2300033569336
2015-08-04,66.04000091552734,65.94999694824219,66.04000091552734,65.94999694824219,500,65.94999694824219
2015-08-05,66.08999633789062,66.08999633789062,66.08999633789062,66.08999633789062,200,66.08999633789062
2015-08-06,66.08999633789062,66.08999633789062,66.08999633789062,66.08999633789062,0,66.08999633789062
2015-08-07,66.08999633789062,66.08999633789062,66.08999633789062,66.08999633789062,0,66.08999633789062
2015-08-10,66.30000305175781,66.0999984741211,66.30000305175781,66.0999984741211,500,66.0999984741211
2015-08-11,66.51000213623047,65.7699966430664,65.7699966430664,65.7699966430664,800,65.7699966430664
2015-08-12,65.7699966430664,65.7699966430664,65.7699966430664,65.7699966430664,0,65.7699966430664
2015-08-13,66.37000274658203,66.37000274658203,66.37000274658203,66.37000274658203,300,66.37000274658203
2015-08-14,66.37000274658203,66.37000274658203,66.37000274658203,66.37000274658203,0,66.37000274658203
2015-08-17,66.37000274658203,66.37000274658203,66.37000274658203,66.37000274658203,0,66.37000274658203
2015-08-18,66.37000274658203,66.37000274658203,66.37000274658203,66.37000274658203,0,66.37000274658203
2015-08-19,66.37000274658203,66.37000274658203,66.37000274658203,66.37000274658203,0,66.37000274658203
2015-08-20,66.37000274658203,66.37000274658203,66.37000274658203,66.37000274658203,0,66.37000274658203
2015-08-21,63.04999923706055,62.5,62.54999923706055,62.5,1100,62.5
2015-08-24,62.5,59.5,62.5,59.5,900,59.5
2015-08-25,61.68000030517578,60.75,61.68000030517578,60.75,600,60.75
2015-08-26,60.75,60.75,60.75,60.75,0,60.75
2015-08-27,63.630001068115234,61.65999984741211,63.630001068115234,63.22999954223633,4800,63.22999954223633
2015-08-28,63.22999954223633,63.22999954223633,63.22999954223633,63.22999954223633,0,63.22999954223633
2015-08-31,63.29999923706055,62.88999938964844,63.29999923706055,62.88999938964844,600,62.88999938964844
2015-09-01,62.88999938964844,62.88999938964844,62.88999938964844,62.88999938964844,0,62.88999938964844
2015-09-02,61.81999969482422,61.81999969482422,61.81999969482422,61.81999969482422,200,61.81999969482422
2015-09-03,61.81999969482422,61.81999969482422,61.81999969482422,61.81999969482422,0,61.81999969482422
2015-09-04,61.81999969482422,61.81999969482422,61.81999969482422,61.81999969482422,0,61.81999969482422
2015-09-08,63.150001525878906,63.150001525878906,63.150001525878906,63.150001525878906,100,63.150001525878906
2015-09-09,63.33000183105469,62.77000045776367,62.77000045776367,63.33000183105469,2300,63.33000183105469
2015-09-10,63.33000183105469,63.33000183105469,63.33000183105469,63.33000183105469,0,63.33000183105469
2015-09-11,63.33000183105469,63.33000183105469,63.33000183105469,63.33000183105469,0,63.33000183105469
2015-09-14,63.33000183105469,63.33000183105469,63.33000183105469,63.33000183105469,0,63.33000183105469
2015-09-15,63.33000183105469,63.33000183105469,63.33000183105469,63.33000183105469,0,63.33000183105469
2015-09-16,63.61000061035156,63.61000061035156,63.61000061035156,63.61000061035156,100,63.61000061035156
2015-09-17,63.61000061035156,63.61000061035156,63.61000061035156,63.61000061035156,0,63.61000061035156
2015-09-18,63.65999984741211,63.22999954223633,63.540000915527344,63.22999954223633,2000,63.22999954223633
2015-09-21,63.400001525878906,63.150001525878906,63.150001525878906,63.400001525878906,700,63.400001525878906
2015-09-22,62.599998474121094,62.599998474121094,62.599998474121094,62.599998474121094,400,62.599998474121094
2015-09-23,63.439998626708984,63.349998474121094,63.349998474121094,63.349998474121094,2600,63.349998474121094
2015-09-24,62.900001525878906,62.900001525878906,62.900001525878906,62.900001525878906,300,62.900001525878906
2015-09-25,62.900001525878906,62.900001525878906,62.900001525878906,62.900001525878906,0,62.900001525878906
2015-09-28,62.900001525878906,62.900001525878906,62.900001525878906,62.900001525878906,0,62.900001525878906
2015-09-29,61.09000015258789,61.0,61.0,61.09000015258789,600,61.09000015258789
2015-09-30,62.09000015258789,62.09000015258789,62.09000015258789,62.09000015258789,300,62.09000015258789
2015-10-01,62.09000015258789,62.09000015258789,62.09000015258789,62.09000015258789,0,62.09000015258789
2015-10-02,62.09000015258789,62.09000015258789,62.09000015258789,62.09000015258789,0,62.09000015258789
2015-10-05,63.5,63.5,63.5,63.5,500,63.5
2015-10-06,64.0,64.0,64.0,64.0,500,64.0
2015-10-07,64.0,64.0,64.0,64.0,0,64.0
2015-10-08,64.0,64.0,64.0,64.0,0,64.0
2015-10-09,64.55999755859375,64.44000244140625,64.5,64.51000213623047,1800,64.51000213623047
2015-10-12,64.51000213623047,64.51000213623047,64.51000213623047,64.51000213623047,0,64.51000213623047
2015-10-13,64.51000213623047,64.51000213623047,64.51000213623047,64.51000213623047,0,64.51000213623047
2015-10-14,64.51000213623047,64.51000213623047,64.51000213623047,64.51000213623047,0,64.51000213623047
2015-10-15,65.58000183105469,65.51000213623047,65.58000183105469,65.51000213623047,300,65.51000213623047
2015-10-16,64.16999816894531,62.83000183105469,64.16999816894531,62.83000183105469,500,62.83000183105469
2015-10-19,64.29000091552734,64.29000091552734,64.29000091552734,64.29000091552734,200,64.29000091552734
2015-10-20,64.29000091552734,64.29000091552734,64.29000091552734,64.29000091552734,0,64.29000091552734
2015-10-21,64.29000091552734,64.29000091552734,64.29000091552734,64.29000091552734,0,64.29000091552734
2015-10-22,65.04000091552734,65.04000091552734,65.04000091552734,65.04000091552734,300,65.04000091552734
2015-10-23,65.66000366210938,65.51000213623047,65.51000213623047,65.66000366210938,4000,65.66000366210938
2015-10-26,65.66000366210938,65.66000366210938,65.66000366210938,65.66000366210938,0,65.66000366210938
2015-10-27,65.62999725341797,65.52999877929688,65.62000274658203,65.62999725341797,3000,65.62999725341797
2015-10-28,65.62999725341797,65.62999725341797,65.62999725341797,65.62999725341797,0,65.62999725341797
2015-10-29,65.88999938964844,65.88999938964844,65.88999938964844,65.88999938964844,100,65.88999938964844
2015-10-30,65.88999938964844,65.88999938964844,65.88999938964844,65.88999938964844,0,65.88999938964844
2015-11-02,65.88999938964844,65.88999938964844,65.88999938964844,65.88999938964844,0,65.88999938964844
2015-11-03,65.88999938964844,65.88999938964844,65.88999938964844,65.88999938964844,0,65.88999938964844
2015-11-04,66.0,65.41999816894531,66.0,65.41999816894531,3400,65.41999816894531
2015-11-05,65.47000122070312,65.47000122070312,65.47000122070312,65.47000122070312,100,65.47000122070312
2015-11-06,65.47000122070312,65.47000122070312,65.47000122070312,65.47000122070312,0,65.47000122070312
2015-11-09,65.47000122070312,65.47000122070312,65.47000122070312,65.47000122070312,0,65.47000122070312
2015-11-10,65.47000122070312,65.47000122070312,65.47000122070312,65.47000122070312,0,65.47000122070312
2015-11-11,65.47000122070312,65.47000122070312,65.47000122070312,65.47000122070312,0,65.47000122070312
2015-11-12,65.47000122070312,65.47000122070312,65.47000122070312,65.47000122070312,0,65.47000122070312
2015-11-13,65.2300033569336,65.18000030517578,65.2300033569336,65.18000030517578,400,65.18000030517578
2015-11-16,65.18000030517578,65.18000030517578,65.18000030517578,65.18000030517578,0,65.18000030517578
2015-11-17,65.18000030517578,65.18000030517578,65.18000030517578,65.18000030517578,0,65.18000030517578
2015-11-18,65.18000030517578,65.18000030517578,65.18000030517578,65.18000030517578,0,65.18000030517578
2015-11-19,65.18000030517578,65.18000030517578,65.18000030517578,65.18000030517578,0,65.18000030517578
2015-11-20,65.75,65.75,65.75,65.75,1800,65.75
2015-11-23,66.48999786376953,66.04000091552734,66.48999786376953,66.08000183105469,1200,66.08000183105469
2015-11-24,66.08000183105469,66.08000183105469,66.08000183105469,66.08000183105469,0,66.08000183105469
2015-11-25,66.08000183105469,66.08000183105469,66.08000183105469,66.08000183105469,0,66.08000183105469
2015-11-27,65.77999877929688,65.77999877929688,65.77999877929688,65.77999877929688,0,65.77999877929688
2015-11-30,65.9000015258789,65.9000015258789,65.9000015258789,65.9000015258789,400,65.9000015258789
2015-12-01,65.9000015258789,65.9000015258789,65.9000015258789,65.9000015258789,0,65.9000015258789
2015-12-02,66.27999877929688,66.0199966430664,66.27999877929688,66.0199966430664,1200,66.0199966430664
2015-12-03,66.0199966430664,66.0199966430664,66.0199966430664,66.0199966430664,0,66.0199966430664
2015-12-04,65.91000366210938,65.91000366210938,65.91000366210938,65.91000366210938,100,65.91000366210938
2015-12-07,65.91000366210938,65.91000366210938,65.91000366210938,65.91000366210938,0,65.91000366210938
2015-12-08,65.58999633789062,65.58999633789062,65.58999633789062,65.58999633789062,200,65.58999633789062
2015-12-09,65.58999633789062,65.58999633789062,65.58999633789062,65.58999633789062,0,65.58999633789062
2015-12-10,65.58999633789062,65.58999633789062,65.58999633789062,65.58999633789062,0,65.58999633789062
2015-12-11,65.58999633789062,65.58999633789062,65.58999633789062,65.58999633789062,0,65.58999633789062
2015-12-14,64.26000213623047,64.04000091552734,64.05999755859375,64.26000213623047,500,64.26000213623047
2015-12-15,64.91999816894531,64.91999816894531,64.91999816894531,64.91999816894531,100,64.91999816894531
2015-12-16,65.94000244140625,65.94000244140625,65.94000244140625,65.94000244140625,100,65.94000244140625
2015-12-17,65.94000244140625,65.94000244140625,65.94000244140625,65.94000244140625,0,65.94000244140625
2015-12-18,65.94000244140625,65.94000244140625,65.94000244140625,65.94000244140625,0,65.94000244140625
2015-12-21,65.94000244140625,65.94000244140625,65.94000244140625,65.94000244140625,0,65.94000244140625
2015-12-22,65.94000244140625,65.94000244140625,65.94000244140625,65.94000244140625,0,65.94000244140625
2015-12-23,65.94000244140625,65.94000244140625,65.94000244140625,65.94000244140625,0,65.94000244140625
2015-12-24,65.37999725341797,65.37999725341797,65.37999725341797,65.37999725341797,300,65.37999725341797
2015-12-28,65.37999725341797,65.37999725341797,65.37999725341797,65.37999725341797,0,65.37999725341797
2015-12-29,65.37999725341797,65.37999725341797,65.37999725341797,65.37999725341797,0,65.37999725341797
2015-12-30,65.37999725341797,65.37999725341797,65.37999725341797,65.37999725341797,0,65.37999725341797
2015-12-31,65.37999725341797,65.37999725341797,65.37999725341797,65.37999725341797,0,65.37999725341797
2016-01-04,65.37999725341797,65.37999725341797,65.37999725341797,65.37999725341797,0,65.37999725341797
2016-01-05,65.37999725341797,65.37999725341797,65.37999725341797,65.37999725341797,0,65.37999725341797
2016-01-06,65.37999725341797,65.37999725341797,65.37999725341797,65.37999725341797,0,65.37999725341797
2016-01-07,65.37999725341797,65.37999725341797,65.37999725341797,65.37999725341797,0,65.37999725341797
2016-01-08,65.37999725341797,65.37999725341797,65.37999725341797,65.37999725341797,100,65.37999725341797
2016-01-11,65.37999725341797,65.37999725341797,65.37999725341797,65.37999725341797,0,65.37999725341797
2016-01-12,62.290000915527344,62.290000915527344,62.290000915527344,62.290000915527344,300,62.290000915527344
2016-01-13,62.7400016784668,62.7400016784668,62.7400016784668,62.7400016784668,400,62.7400016784668
2016-01-14,62.7400016784668,62.7400016784668,62.7400016784668,62.7400016784668,0,62.7400016784668
2016-01-15,62.7400016784668,62.7400016784668,62.7400016784668,62.7400016784668,0,62.7400016784668
2016-01-19,62.02000045776367,62.02000045776367,62.02000045776367,62.02000045776367,300,62.02000045776367
2016-01-20,60.66999816894531,60.66999816894531,60.66999816894531,60.66999816894531,200,60.66999816894531
2016-01-21,59.9900016784668,59.72999954223633,59.7400016784668,59.9900016784668,1700,59.9900016784668
2016-01-22,59.9900016784668,59.9900016784668,59.9900016784668,59.9900016784668,0,59.9900016784668
2016-01-25,59.9900016784668,59.9900016784668,59.9900016784668,59.9900016784668,0,59.9900016784668
2016-01-26,59.9900016784668,59.9900016784668,59.9900016784668,59.9900016784668,0,59.9900016784668
2016-01-27,59.9900016784668,59.9900016784668,59.9900016784668,59.9900016784668,0,59.9900016784668
2016-01-28,59.9900016784668,59.9900016784668,59.9900016784668,59.9900016784668,0,59.9900016784668
2016-01-29,61.470001220703125,60.95000076293945,60.95000076293945,61.470001220703125,300,61.470001220703125
2016-02-01,61.470001220703125,61.470001220703125,61.470001220703125,61.470001220703125,0,61.470001220703125
2016-02-02,61.439998626708984,61.439998626708984,61.439998626708984,61.439998626708984,100,61.439998626708984
2016-02-03,61.439998626708984,61.439998626708984,61.439998626708984,61.439998626708984,0,61.439998626708984
2016-02-04,60.849998474121094,60.849998474121094,60.849998474121094,60.849998474121094,100,60.849998474121094
2016-02-05,60.849998474121094,60.849998474121094,60.849998474121094,60.849998474121094,0,60.849998474121094
2016-02-08,60.849998474121094,60.849998474121094,60.849998474121094,60.849998474121094,0,60.849998474121094
2016-02-09,59.7400016784668,59.7400016784668,59.7400016784668,59.7400016784668,200,59.7400016784668
2016-02-10,59.7400016784668,59.7400016784668,59.7400016784668,59.7400016784668,0,59.7400016784668
2016-02-11,59.470001220703125,59.25,59.470001220703125,59.25,1300,59.25
2016-02-12,60.45000076293945,60.45000076293945,60.45000076293945,60.45000076293945,400,60.45000076293945
2016-02-16,60.45000076293945,60.45000076293945,60.45000076293945,60.45000076293945,0,60.45000076293945
2016-02-17,60.45000076293945,60.45000076293945,60.45000076293945,60.45000076293945,0,60.45000076293945
2016-02-18,60.45000076293945,60.45000076293945,60.45000076293945,60.45000076293945,0,60.45000076293945
2016-02-19,68.16000366210938,64.0,68.16000366210938,64.0,1100,64.0
2016-02-22,62.2400016784668,51.2400016784668,51.2400016784668,62.2400016784668,300,62.2400016784668
2016-02-23,62.2400016784668,62.2400016784668,62.2400016784668,62.2400016784668,0,62.2400016784668
2016-02-24,61.599998474121094,61.45000076293945,61.45000076293945,61.599998474121094,300,61.599998474121094
2016-02-25,61.599998474121094,61.599998474121094,61.599998474121094,61.599998474121094,0,61.599998474121094
2016-02-26,64.5999984741211,63.45000076293945,64.5999984741211,64.5999984741211,2500,64.5999984741211
2016-02-29,62.63999938964844,62.63999938964844,62.63999938964844,62.63999938964844,100,62.63999938964844
2016-03-01,62.63999938964844,62.63999938964844,62.63999938964844,62.63999938964844,0,62.63999938964844
2016-03-02,62.58000183105469,62.58000183105469,62.58000183105469,62.58000183105469,1400,62.58000183105469
2016-03-03,62.58000183105469,62.58000183105469,62.58000183105469,62.58000183105469,0,62.58000183105469
2016-03-04,62.58000183105469,62.58000183105469,62.58000183105469,62.58000183105469,0,62.58000183105469
2016-03-07,63.060001373291016,63.060001373291016,63.060001373291016,63.060001373291016,300,63.060001373291016
2016-03-08,63.060001373291016,63.060001373291016,63.060001373291016,63.060001373291016,0,63.060001373291016
2016-03-09,63.220001220703125,62.970001220703125,62.97999954223633,63.220001220703125,900,63.220001220703125
2016-03-10,64.22000122070312,63.06999969482422,63.06999969482422,63.22999954223633,400,63.22999954223633
2016-03-11,63.22999954223633,63.22999954223633,63.22999954223633,63.22999954223633,0,63.22999954223633
2016-03-14,63.22999954223633,63.22999954223633,63.22999954223633,63.22999954223633,0,63.22999954223633
2016-03-15,62.70000076293945,62.70000076293945,62.70000076293945,62.70000076293945,800,62.70000076293945
2016-03-16,62.70000076293945,62.70000076293945,62.70000076293945,62.70000076293945,0,62.70000076293945
2016-03-17,62.70000076293945,62.70000076293945,62.70000076293945,62.70000076293945,0,62.70000076293945
2016-03-18,62.70000076293945,62.70000076293945,62.70000076293945,62.70000076293945,0,62.70000076293945
2016-03-21,71.41000366210938,65.30999755859375,71.41000366210938,65.30999755859375,900,65.30999755859375
2016-03-22,65.30999755859375,65.30999755859375,65.30999755859375,65.30999755859375,0,65.30999755859375
2016-03-23,65.30999755859375,65.30999755859375,65.30999755859375,65.30999755859375,0,65.30999755859375
2016-03-24,65.30999755859375,65.30999755859375,65.30999755859375,65.30999755859375,0,65.30999755859375
2016-03-28,65.30999755859375,65.30999755859375,65.30999755859375,65.30999755859375,0,65.30999755859375
2016-03-29,65.30999755859375,65.30999755859375,65.30999755859375,65.30999755859375,0,65.30999755859375
2016-03-30,65.30999755859375,65.30999755859375,65.30999755859375,65.30999755859375,0,65.30999755859375
2016-03-31,63.54999923706055,63.54999923706055,63.54999923706055,63.54999923706055,1500,63.54999923706055
2016-04-01,63.54999923706055,63.54999923706055,63.54999923706055,63.54999923706055,0,63.54999923706055
2016-04-04,63.54999923706055,63.54999923706055,63.54999923706055,63.54999923706055,0,63.54999923706055
2016-04-05,63.54999923706055,63.54999923706055,63.54999923706055,63.54999923706055,0,63.54999923706055
2016-04-06,63.54999923706055,63.54999923706055,63.54999923706055,63.54999923706055,0,63.54999923706055
2016-04-07,63.54999923706055,63.54999923706055,63.54999923706055,63.54999923706055,0,63.54999923706055
2016-04-08,63.54999923706055,63.54999923706055,63.54999923706055,63.54999923706055,0,63.54999923706055
2016-04-11,63.54999923706055,63.54999923706055,63.54999923706055,63.54999923706055,0,63.54999923706055
2016-04-12,63.54999923706055,63.54999923706055,63.54999923706055,63.54999923706055,0,63.54999923706055
2016-04-13,63.54999923706055,63.54999923706055,63.54999923706055,63.54999923706055,0,63.54999923706055
2016-04-14,63.54999923706055,63.54999923706055,63.54999923706055,63.54999923706055,0,63.54999923706055
2016-04-15,63.54999923706055,63.54999923706055,63.54999923706055,63.54999923706055,0,63.54999923706055
2016-04-18,63.54999923706055,63.54999923706055,63.54999923706055,63.54999923706055,0,63.54999923706055
2016-04-19,63.54999923706055,63.54999923706055,63.54999923706055,63.54999923706055,0,63.54999923706055
2016-04-20,63.54999923706055,63.54999923706055,63.54999923706055,63.54999923706055,0,63.54999923706055
2016-04-21,63.54999923706055,63.54999923706055,63.54999923706055,63.54999923706055,100,63.54999923706055
2016-04-22,65.33000183105469,64.72000122070312,65.33000183105469,64.75,400,64.75
2016-04-25,64.91999816894531,64.66000366210938,64.91000366210938,64.79000091552734,700,64.79000091552734
2016-04-26,65.55999755859375,64.73999786376953,64.75,64.75,1400,64.75
2016-04-27,64.75,64.75,64.75,64.75,0,64.75
2016-04-28,65.05999755859375,64.95999908447266,64.95999908447266,65.05999755859375,600,65.05999755859375
2016-04-29,65.05999755859375,65.05999755859375,65.05999755859375,65.05999755859375,0,65.05999755859375
2016-05-02,65.05999755859375,65.05999755859375,65.05999755859375,65.05999755859375,0,65.05999755859375
2016-05-03,65.05999755859375,65.05999755859375,65.05999755859375,65.05999755859375,0,65.05999755859375
2016-05-04,63.939998626708984,63.939998626708984,63.939998626708984,63.939998626708984,200,63.939998626708984
2016-05-05,63.939998626708984,63.939998626708984,63.939998626708984,63.939998626708984,0,63.939998626708984
2016-05-06,63.939998626708984,63.939998626708984,63.939998626708984,63.939998626708984,0,63.939998626708984
2016-05-09,63.939998626708984,63.939998626708984,63.939998626708984,63.939998626708984,0,63.939998626708984
2016-05-10,63.939998626708984,63.939998626708984,63.939998626708984,63.939998626708984,0,63.939998626708984
2016-05-11,63.939998626708984,63.939998626708984,63.939998626708984,63.939998626708984,0,63.939998626708984
2016-05-12,63.939998626708984,63.939998626708984,63.939998626708984,63.939998626708984,0,63.939998626708984
2016-05-13,63.939998626708984,63.939998626708984,63.939998626708984,63.939998626708984,0,63.939998626708984
2016-05-16,63.939998626708984,63.939998626708984,63.939998626708984,63.939998626708984,100,63.939998626708984
2016-05-17,64.86000061035156,64.6500015258789,64.81999969482422,64.7699966430664,4600,64.7699966430664
2016-05-18,64.7699966430664,64.7699966430664,64.7699966430664,64.7699966430664,500,64.7699966430664
2016-05-19,64.7699966430664,64.7699966430664,64.7699966430664,64.7699966430664,0,64.7699966430664
2016-05-20,64.30000305175781,64.19000244140625,64.30000305175781,64.19000244140625,700,64.19000244140625
2016-05-23,64.19000244140625,64.19000244140625,64.19000244140625,64.19000244140625,0,64.19000244140625
2016-05-24,64.19000244140625,64.19000244140625,64.19000244140625,64.19000244140625,0,64.19000244140625
2016-05-25,64.19000244140625,64.19000244140625,64.19000244140625,64.19000244140625,0,64.19000244140625
2016-05-26,64.19000244140625,64.19000244140625,64.19000244140625,64.19000244140625,0,64.19000244140625
2016-05-27,64.19000244140625,64.19000244140625,64.19000244140625,64.19000244140625,0,64.19000244140625
2016-05-31,64.19000244140625,64.19000244140625,64.19000244140625,64.19000244140625,0,64.19000244140625
2016-06-01,64.19000244140625,64.19000244140625,64.19000244140625,64.19000244140625,0,64.19000244140625
2016-06-02,65.44000244140625,65.44000244140625,65.44000244140625,65.44000244140625,1000,65.44000244140625
2016-06-03,65.44000244140625,65.44000244140625,65.44000244140625,65.44000244140625,0,65.44000244140625
2016-06-06,65.44000244140625,65.44000244140625,65.44000244140625,65.44000244140625,0,65.44000244140625
2016-06-07,65.44000244140625,65.44000244140625,65.44000244140625,65.44000244140625,0,65.44000244140625
2016-06-08,65.44000244140625,65.44000244140625,65.44000244140625,65.44000244140625,0,65.44000244140625
2016-06-09,65.68000030517578,65.68000030517578,65.68000030517578,65.68000030517578,3400,65.68000030517578
2016-06-10,65.68000030517578,65.68000030517578,65.68000030517578,65.68000030517578,0,65.68000030517578
2016-06-13,65.68000030517578,65.68000030517578,65.68000030517578,65.68000030517578,0,65.68000030517578
2016-06-14,65.68000030517578,65.68000030517578,65.68000030517578,65.68000030517578,0,65.68000030517578
2016-06-15,65.68000030517578,65.68000030517578,65.68000030517578,65.68000030517578,0,65.68000030517578
2016-06-16,65.68000030517578,65.68000030517578,65.68000030517578,65.68000030517578,0,65.68000030517578
2016-06-17,65.79000091552734,65.79000091552734,65.79000091552734,65.79000091552734,100,65.79000091552734
2016-06-20,65.79000091552734,65.79000091552734,65.79000091552734,65.79000091552734,0,65.79000091552734
2016-06-21,65.79000091552734,65.79000091552734,65.79000091552734,65.79000091552734,0,65.79000091552734
2016-06-22,65.79000091552734,65.79000091552734,65.79000091552734,65.79000091552734,0,65.79000091552734
2016-06-23,65.79000091552734,65.79000091552734,65.79000091552734,65.79000091552734,0,65.79000091552734
2016-06-24,65.88999938964844,64.86000061035156,65.88999938964844,65.0,5800,65.0
2016-06-27,64.83000183105469,64.2300033569336,64.83000183105469,64.27999877929688,4600,64.27999877929688
2016-06-28,65.55000305175781,64.5999984741211,65.55000305175781,64.66999816894531,4500,64.66999816894531
2016-06-29,66.30000305175781,65.75,66.19999694824219,66.05000305175781,5000,66.05000305175781
2016-06-30,66.87999725341797,66.1500015258789,66.68000030517578,66.73999786376953,3500,66.73999786376953
2016-07-01,67.23999786376953,66.44999694824219,67.13999938964844,66.44999694824219,4800,66.44999694824219
2016-07-05,67.19999694824219,66.18000030517578,67.12000274658203,66.51000213623047,8700,66.51000213623047
2016-07-06,67.22000122070312,66.48999786376953,66.97000122070312,66.70999908447266,6600,66.70999908447266
2016-07-07,67.29000091552734,66.68000030517578,67.29000091552734,66.77999877929688,6600,66.77999877929688
2016-07-08,67.33999633789062,66.69999694824219,67.0,67.0,12000,67.0
2016-07-11,67.5,66.8499984741211,67.47000122070312,67.16000366210938,15100,67.16000366210938
2016-07-12,66.97000122070312,66.97000122070312,66.97000122070312,66.97000122070312,200,66.97000122070312
2016-07-13,67.44000244140625,66.7300033569336,67.44000244140625,67.0999984741211,8700,67.0999984741211
2016-07-14,67.0999984741211,67.0999984741211,67.0999984741211,67.0999984741211,100,67.0999984741211
2016-07-15,67.0999984741211,67.0999984741211,67.0999984741211,67.0999984741211,0,67.0999984741211
2016-07-18,67.0999984741211,67.0999984741211,67.0999984741211,67.0999984741211,0,67.0999984741211
2016-07-19,67.20999908447266,66.38999938964844,67.20999908447266,66.41000366210938,5700,66.41000366210938
2016-07-20,66.79000091552734,66.48999786376953,66.48999786376953,66.79000091552734,1000,66.79000091552734
2016-07-21,66.79000091552734,66.79000091552734,66.79000091552734,66.79000091552734,0,66.79000091552734
2016-07-22,67.4800033569336,66.66000366210938,67.3499984741211,66.9000015258789,3000,66.9000015258789
2016-07-25,67.05000305175781,66.87000274658203,67.05000305175781,66.87000274658203,600,66.87000274658203
2016-07-26,67.31999969482422,66.66000366210938,67.31999969482422,66.80000305175781,5400,66.80000305175781
2016-07-27,67.41000366210938,66.55000305175781,66.55000305175781,67.0,3600,67.0
2016-07-28,67.0,67.0,67.0,67.0,0,67.0
2016-07-29,67.0,67.0,67.0,67.0,0,67.0
2016-08-01,67.16999816894531,67.0,67.16999816894531,67.08000183105469,500,67.08000183105469
2016-08-02,67.08000183105469,67.08000183105469,67.08000183105469,67.08000183105469,0,67.08000183105469
2016-08-03,67.08000183105469,67.08000183105469,67.08000183105469,67.08000183105469,0,67.08000183105469
2016-08-04,66.72000122070312,66.72000122070312,66.72000122070312,66.72000122070312,200,66.72000122070312
2016-08-05,66.72000122070312,66.72000122070312,66.72000122070312,66.72000122070312,0,66.72000122070312
2016-08-08,66.72000122070312,66.72000122070312,66.72000122070312,66.72000122070312,0,66.72000122070312
2016-08-09,67.22000122070312,67.12999725341797,67.22000122070312,67.12999725341797,500,67.12999725341797
2016-08-10,67.3499984741211,67.3499984741211,67.3499984741211,67.3499984741211,100,67.3499984741211
2016-08-11,67.3499984741211,67.3499984741211,67.3499984741211,67.3499984741211,0,67.3499984741211
2016-08-12,67.3499984741211,67.3499984741211,67.3499984741211,67.3499984741211,0,67.3499984741211
2016-08-15,67.3499984741211,67.3499984741211,67.3499984741211,67.3499984741211,0,67.3499984741211
2016-08-16,67.25,67.25,67.25,67.25,100,67.25
2016-08-17,67.37999725341797,67.37999725341797,67.37999725341797,67.37999725341797,400,67.37999725341797
2016-08-18,67.37999725341797,67.37999725341797,67.37999725341797,67.37999725341797,0,67.37999725341797
2016-08-19,67.37999725341797,67.37999725341797,67.37999725341797,67.37999725341797,0,67.37999725341797
2016-08-22,67.37999725341797,67.37999725341797,67.37999725341797,67.37999725341797,0,67.37999725341797
2016-08-23,67.37999725341797,67.37999725341797,67.37999725341797,67.37999725341797,0,67.37999725341797
2016-08-24,66.95999908447266,66.95999908447266,66.95999908447266,66.95999908447266,800,66.95999908447266
2016-08-25,67.5199966430664,66.87999725341797,66.87999725341797,67.5199966430664,400,67.5199966430664
2016-08-26,67.5199966430664,67.5199966430664,67.5199966430664,67.5199966430664,0,67.5199966430664
2016-08-29,67.5199966430664,67.5199966430664,67.5199966430664,67.5199966430664,0,67.5199966430664
2016-08-30,67.5199966430664,67.5199966430664,67.5199966430664,67.5199966430664,0,67.5199966430664
2016-08-31,67.5199966430664,67.5199966430664,67.5199966430664,67.5199966430664,0,67.5199966430664
2016-09-01,67.94000244140625,67.26000213623047,67.26000213623047,67.83000183105469,2700,67.83000183105469
2016-09-02,67.83000183105469,67.83000183105469,67.83000183105469,67.83000183105469,0,67.83000183105469
2016-09-06,67.83000183105469,67.83000183105469,67.83000183105469,67.83000183105469,100,67.83000183105469
2016-09-07,67.83000183105469,67.83000183105469,67.83000183105469,67.83000183105469,0,67.83000183105469
2016-09-08,67.83000183105469,67.83000183105469,67.83000183105469,67.83000183105469,0,67.83000183105469
2016-09-09,67.83000183105469,67.83000183105469,67.83000183105469,67.83000183105469,0,67.83000183105469
2016-09-12,67.83000183105469,67.83000183105469,67.83000183105469,67.83000183105469,0,67.83000183105469
2016-09-13,67.83000183105469,67.83000183105469,67.83000183105469,67.83000183105469,0,67.83000183105469
2016-09-14,67.83000183105469,67.83000183105469,67.83000183105469,67.83000183105469,0,67.83000183105469
2016-09-15,67.83000183105469,67.83000183105469,67.83000183105469,67.83000183105469,0,67.83000183105469
2016-09-16,67.83000183105469,67.83000183105469,67.83000183105469,67.83000183105469,0,67.83000183105469
2016-09-19,67.08999633789062,66.93000030517578,67.08999633789062,66.93000030517578,1000,66.93000030517578
2016-09-20,66.93000030517578,66.93000030517578,66.93000030517578,66.93000030517578,0,66.93000030517578
2016-09-21,66.93000030517578,66.93000030517578,66.93000030517578,66.93000030517578,0,66.93000030517578
2016-09-22,68.13999938964844,68.13999938964844,68.13999938964844,68.13999938964844,200,68.13999938964844
2016-09-23,67.51000213623047,67.41999816894531,67.43000030517578,67.51000213623047,700,67.51000213623047
2016-09-26,67.51000213623047,67.51000213623047,67.51000213623047,67.51000213623047,0,67.51000213623047
2016-09-27,67.51000213623047,67.51000213623047,67.51000213623047,67.51000213623047,0,67.51000213623047
2016-09-28,67.51000213623047,67.51000213623047,67.51000213623047,67.51000213623047,0,67.51000213623047
2016-09-29,67.2699966430664,67.2699966430664,67.2699966430664,67.2699966430664,600,67.2699966430664
2016-09-30,67.2699966430664,67.2699966430664,67.2699966430664,67.2699966430664,0,67.2699966430664
2016-10-03,67.2699966430664,67.2699966430664,67.2699966430664,67.2699966430664,0,67.2699966430664
2016-10-04,67.2699966430664,67.2699966430664,67.2699966430664,67.2699966430664,0,67.2699966430664
2016-10-05,67.2699966430664,67.2699966430664,67.2699966430664,67.2699966430664,0,67.2699966430664
2016-10-06,67.2699966430664,67.2699966430664,67.2699966430664,67.2699966430664,0,67.2699966430664
2016-10-07,67.2699966430664,67.2699966430664,67.2699966430664,67.2699966430664,0,67.2699966430664
2016-10-10,67.2699966430664,67.2699966430664,67.2699966430664,67.2699966430664,0,67.2699966430664
2016-10-11,67.2699966430664,67.2699966430664,67.2699966430664,67.2699966430664,0,67.2699966430664
2016-10-12,67.2699966430664,67.2699966430664,67.2699966430664,67.2699966430664,0,67.2699966430664
2016-10-13,67.52999877929688,67.43000030517578,67.52999877929688,67.43000030517578,600,67.43000030517578
2016-10-14,67.43000030517578,67.43000030517578,67.43000030517578,67.43000030517578,0,67.43000030517578
2016-10-17,67.4800033569336,67.41000366210938,67.4800033569336,67.41000366210938,400,67.41000366210938
2016-10-18,67.41000366210938,67.41000366210938,67.41000366210938,67.41000366210938,0,67.41000366210938
2016-10-19,67.41000366210938,67.41000366210938,67.41000366210938,67.41000366210938,0,67.41000366210938
2016-10-20,67.41000366210938,67.41000366210938,67.41000366210938,67.41000366210938,0,67.41000366210938
2016-10-21,67.41000366210938,67.41000366210938,67.41000366210938,67.41000366210938,0,67.41000366210938
2016-10-24,67.41000366210938,67.41000366210938,67.41000366210938,67.41000366210938,0,67.41000366210938
2016-10-25,67.41000366210938,67.41000366210938,67.41000366210938,67.41000366210938,0,67.41000366210938
2016-10-26,67.41000366210938,67.41000366210938,67.41000366210938,67.41000366210938,0,67.41000366210938
2016-10-27,67.41000366210938,67.41000366210938,67.41000366210938,67.41000366210938,0,67.41000366210938
2016-10-28,67.41000366210938,67.41000366210938,67.41000366210938,67.41000366210938,0,67.41000366210938
2016-10-31,67.41000366210938,67.41000366210938,67.41000366210938,67.41000366210938,0,67.41000366210938
2016-11-01,67.41000366210938,67.41000366210938,67.41000366210938,67.41000366210938,0,67.41000366210938
2016-11-02,67.41000366210938,67.41000366210938,67.41000366210938,67.41000366210938,0,67.41000366210938
2016-11-03,67.41000366210938,67.41000366210938,67.41000366210938,67.41000366210938,0,67.41000366210938
2016-11-04,67.41000366210938,67.41000366210938,67.41000366210938,67.41000366210938,0,67.41000366210938
2016-11-07,67.41000366210938,67.41000366210938,67.41000366210938,67.41000366210938,0,67.41000366210938
2016-11-08,68.12999725341797,68.05999755859375,68.12999725341797,68.05999755859375,200,68.05999755859375
2016-11-09,68.05999755859375,68.05999755859375,68.05999755859375,68.05999755859375,0,68.05999755859375
2016-11-10,68.62000274658203,68.52999877929688,68.52999877929688,68.62000274658203,200,68.62000274658203
2016-11-11,68.62000274658203,68.62000274658203,68.62000274658203,68.62000274658203,0,68.62000274658203
2016-11-14,68.62000274658203,68.62000274658203,68.62000274658203,68.62000274658203,0,68.62000274658203
2016-11-15,68.62000274658203,68.62000274658203,68.62000274658203,68.62000274658203,0,68.62000274658203
2016-11-16,68.62000274658203,68.62000274658203,68.62000274658203,68.62000274658203,0,68.62000274658203
2016-11-17,68.62000274658203,68.62000274658203,68.62000274658203,68.62000274658203,0,68.62000274658203
2016-11-18,68.62000274658203,68.62000274658203,68.62000274658203,68.62000274658203,0,68.62000274658203
2016-11-21,68.62000274658203,68.62000274658203,68.62000274658203,68.62000274658203,0,68.62000274658203
2016-11-22,68.62000274658203,68.62000274658203,68.62000274658203,68.62000274658203,0,68.62000274658203
2016-11-23,68.62000274658203,68.62000274658203,68.62000274658203,68.62000274658203,0,68.62000274658203
2016-11-25,68.62000274658203,68.62000274658203,68.62000274658203,68.62000274658203,0,68.62000274658203
2016-11-28,68.62000274658203,68.62000274658203,68.62000274658203,68.62000274658203,0,68.62000274658203
2016-11-29,68.62000274658203,68.62000274658203,68.62000274658203,68.62000274658203,0,68.62000274658203
2016-11-30,69.70999908447266,69.70999908447266,69.70999908447266,69.70999908447266,500,69.70999908447266
2016-12-01,69.70999908447266,69.70999908447266,69.70999908447266,69.70999908447266,0,69.70999908447266
2016-12-02,69.70999908447266,69.70999908447266,69.70999908447266,69.70999908447266,0,69.70999908447266
2016-12-05,69.70999908447266,69.70999908447266,69.70999908447266,69.70999908447266,0,69.70999908447266
2016-12-06,69.37999725341797,69.37999725341797,69.37999725341797,69.37999725341797,100,69.37999725341797
2016-12-07,70.66000366210938,70.66000366210938,70.66000366210938,70.66000366210938,200,70.66000366210938
2016-12-08,70.66000366210938,70.66000366210938,70.66000366210938,70.66000366210938,0,70.66000366210938
2016-12-09,70.66000366210938,70.66000366210938,70.66000366210938,70.66000366210938,0,70.66000366210938
2016-12-12,69.83000183105469,69.83000183105469,69.83000183105469,69.83000183105469,100,69.83000183105469
2016-12-13,70.2699966430664,69.66999816894531,69.80999755859375,70.2699966430664,1500,70.2699966430664
2016-12-14,70.2699966430664,70.2699966430664,70.2699966430664,70.2699966430664,0,70.2699966430664
2016-12-15,70.41000366210938,70.18000030517578,70.18000030517578,70.25,1900,70.25
2016-12-16,70.47000122070312,70.25,70.47000122070312,70.33999633789062,1600,70.33999633789062
2016-12-19,70.33999633789062,70.33999633789062,70.33999633789062,70.33999633789062,0,70.33999633789062
2016-12-20,70.33999633789062,70.33999633789062,70.33999633789062,70.33999633789062,0,70.33999633789062
2016-12-21,70.33999633789062,70.33999633789062,70.33999633789062,70.33999633789062,0,70.33999633789062
2016-12-22,70.33000183105469,69.7300033569336,69.9800033569336,69.7300033569336,500,69.7300033569336
2016-12-23,69.7300033569336,69.7300033569336,69.7300033569336,69.7300033569336,0,69.7300033569336
2016-12-27,69.7300033569336,69.7300033569336,69.7300033569336,69.7300033569336,0,69.7300033569336
2016-12-28,69.7300033569336,69.7300033569336,69.7300033569336,69.7300033569336,0,69.7300033569336
2016-12-29,69.7300033569336,69.7300033569336,69.7300033569336,69.7300033569336,0,69.7300033569336
2016-12-30,69.7300033569336,69.44999694824219,69.44999694824219,69.7300033569336,600,69.7300033569336
2017-01-03,69.7300033569336,69.7300033569336,69.7300033569336,69.7300033569336,0,69.7300033569336
2017-01-04,70.20999908447266,70.11000061035156,70.20999908447266,70.11000061035156,500,70.11000061035156
2017-01-05,70.12999725341797,70.12999725341797,70.12999725341797,70.12999725341797,200,70.12999725341797
2017-01-06,70.41999816894531,70.30999755859375,70.30999755859375,70.30999755859375,900,70.30999755859375
2017-01-09,70.30999755859375,70.30999755859375,70.30999755859375,70.30999755859375,0,70.30999755859375
2017-01-10,70.30999755859375,70.30999755859375,70.30999755859375,70.30999755859375,0,70.30999755859375
2017-01-11,70.30999755859375,70.30999755859375,70.30999755859375,70.30999755859375,0,70.30999755859375
2017-01-12,70.30999755859375,70.30999755859375,70.30999755859375,70.30999755859375,0,70.30999755859375
2017-01-13,70.30999755859375,70.30999755859375,70.30999755859375,70.30999755859375,0,70.30999755859375
2017-01-17,70.41999816894531,70.41999816894531,70.41999816894531,70.41999816894531,100,70.41999816894531
2017-01-18,70.5199966430664,70.41000366210938,70.41000366210938,70.5199966430664,400,70.5199966430664
2017-01-19,70.45999908447266,70.41000366210938,70.44000244140625,70.45999908447266,800,70.45999908447266
2017-01-20,70.45999908447266,70.45999908447266,70.45999908447266,70.45999908447266,0,70.45999908447266
2017-01-23,70.44999694824219,70.33000183105469,70.33999633789062,70.33000183105469,1000,70.33000183105469
2017-01-24,71.5,70.61000061035156,71.5,70.72000122070312,800,70.72000122070312
2017-01-25,70.72000122070312,70.72000122070312,70.72000122070312,70.72000122070312,0,70.72000122070312
2017-01-26,70.81999969482422,70.73999786376953,70.73999786376953,70.81999969482422,300,70.81999969482422
2017-01-27,71.20999908447266,71.20999908447266,71.20999908447266,71.20999908447266,200,71.20999908447266
2017-01-30,71.20999908447266,71.20999908447266,71.20999908447266,71.20999908447266,0,71.20999908447266
2017-01-31,70.4800033569336,70.4800033569336,70.4800033569336,70.4800033569336,400,70.4800033569336
2017-02-01,70.4800033569336,70.4800033569336,70.4800033569336,70.4800033569336,0,70.4800033569336
2017-02-02,72.2300033569336,72.2300033569336,72.2300033569336,72.2300033569336,400,72.2300033569336
2017-02-03,72.2300033569336,72.2300033569336,72.2300033569336,72.2300033569336,0,72.2300033569336
2017-02-06,72.2300033569336,72.2300033569336,72.2300033569336,72.2300033569336,0,72.2300033569336
2017-02-07,72.2300033569336,72.2300033569336,72.2300033569336,72.2300033569336,0,72.2300033569336
2017-02-08,72.2300033569336,72.2300033569336,72.2300033569336,72.2300033569336,0,72.2300033569336
2017-02-09,72.2300033569336,72.2300033569336,72.2300033569336,72.2300033569336,0,72.2300033569336
2017-02-10,72.2300033569336,72.2300033569336,72.2300033569336,72.2300033569336,0,72.2300033569336
2017-02-13,71.19000244140625,71.16999816894531,71.16999816894531,71.19000244140625,400,71.19000244140625
2017-02-14,71.38999938964844,71.23999786376953,71.23999786376953,71.3499984741211,1100,71.3499984741211
2017-02-15,71.3499984741211,71.3499984741211,71.3499984741211,71.3499984741211,0,71.3499984741211
2017-02-16,71.3499984741211,71.3499984741211,71.3499984741211,71.3499984741211,0,71.3499984741211
2017-02-17,71.3499984741211,71.3499984741211,71.3499984741211,71.3499984741211,0,71.3499984741211
2017-02-21,71.66000366210938,71.58999633789062,71.58999633789062,71.66000366210938,200,71.66000366210938
2017-02-22,71.4000015258789,71.37000274658203,71.37000274658203,71.4000015258789,200,71.4000015258789
2017-02-23,72.62999725341797,72.51000213623047,72.62999725341797,72.52999877929688,300,72.52999877929688
2017-02-24,72.52999877929688,72.52999877929688,72.52999877929688,72.52999877929688,0,72.52999877929688
2017-02-27,72.52999877929688,72.52999877929688,72.52999877929688,72.52999877929688,0,72.52999877929688
2017-02-28,72.52999877929688,72.52999877929688,72.52999877929688,72.52999877929688,0,72.52999877929688
2017-03-01,72.52999877929688,72.52999877929688,72.52999877929688,72.52999877929688,0,72.52999877929688
2017-03-02,72.52999877929688,72.52999877929688,72.52999877929688,72.52999877929688,0,72.52999877929688
2017-03-03,72.52999877929688,72.52999877929688,72.52999877929688,72.52999877929688,0,72.52999877929688
2017-03-06,71.97000122070312,71.97000122070312,71.97000122070312,71.97000122070312,200,71.97000122070312
2017-03-07,71.97000122070312,71.97000122070312,71.97000122070312,71.97000122070312,0,71.97000122070312
2017-03-08,72.0999984741211,72.0999984741211,72.0999984741211,72.0999984741211,200,72.0999984741211
2017-03-09,72.0999984741211,72.0999984741211,72.0999984741211,72.0999984741211,0,72.0999984741211
2017-03-10,72.0999984741211,72.0999984741211,72.0999984741211,72.0999984741211,0,72.0999984741211
2017-03-13,72.0999984741211,72.0999984741211,72.0999984741211,72.0999984741211,0,72.0999984741211
2017-03-14,72.0999984741211,72.0999984741211,72.0999984741211,72.0999984741211,0,72.0999984741211
2017-03-15,72.0999984741211,72.0999984741211,72.0999984741211,72.0999984741211,0,72.0999984741211
2017-03-16,72.88999938964844,72.88999938964844,72.88999938964844,72.88999938964844,100,72.88999938964844
2017-03-17,72.88999938964844,72.88999938964844,72.88999938964844,72.88999938964844,0,72.88999938964844
2017-03-20,72.88999938964844,72.88999938964844,72.88999938964844,72.88999938964844,0,72.88999938964844
2017-03-21,72.88999938964844,72.88999938964844,72.88999938964844,72.88999938964844,0,72.88999938964844
2017-03-22,72.88999938964844,72.88999938964844,72.88999938964844,72.88999938964844,0,72.88999938964844
2017-03-23,71.87000274658203,71.87000274658203,71.87000274658203,71.87000274658203,300,71.87000274658203
2017-03-24,71.87000274658203,71.87000274658203,71.87000274658203,71.87000274658203,0,71.87000274658203
2017-03-27,71.5,71.5,71.5,71.5,100,71.5
2017-03-28,72.27999877929688,71.5,71.5,72.27999877929688,800,72.27999877929688
2017-03-29,72.27999877929688,72.27999877929688,72.27999877929688,72.27999877929688,0,72.27999877929688
2017-03-30,72.43000030517578,72.43000030517578,72.43000030517578,72.43000030517578,200,72.43000030517578
2017-03-31,72.43000030517578,72.43000030517578,72.43000030517578,72.43000030517578,0,72.43000030517578
2017-04-03,72.1500015258789,72.1500015258789,72.1500015258789,72.1500015258789,300,72.1500015258789
2017-04-04,72.1500015258789,72.1500015258789,72.1500015258789,72.1500015258789,0,72.1500015258789
2017-04-05,72.37000274658203,72.29000091552734,72.29000091552734,72.31999969482422,1000,72.31999969482422
2017-04-06,71.91000366210938,71.91000366210938,71.91000366210938,71.91000366210938,400,71.91000366210938
2017-04-07,71.91000366210938,71.91000366210938,71.91000366210938,71.91000366210938,0,71.91000366210938
2017-04-10,71.91000366210938,71.91000366210938,71.91000366210938,71.91000366210938,0,71.91000366210938
2017-04-11,71.91000366210938,71.91000366210938,71.91000366210938,71.91000366210938,0,71.91000366210938
2017-04-12,71.91000366210938,71.91000366210938,71.91000366210938,71.91000366210938,0,71.91000366210938
2017-04-13,71.91000366210938,71.91000366210938,71.91000366210938,71.91000366210938,0,71.91000366210938
2017-04-17,71.91999816894531,71.91999816894531,71.91999816894531,71.91999816894531,200,71.91999816894531
2017-04-18,71.91999816894531,71.91999816894531,71.91999816894531,71.91999816894531,0,71.91999816894531
2017-04-19,71.76000213623047,71.68000030517578,71.76000213623047,71.68000030517578,500,71.68000030517578
2017-04-20,71.68000030517578,71.68000030517578,71.68000030517578,71.68000030517578,0,71.68000030517578
2017-04-21,71.68000030517578,71.68000030517578,71.68000030517578,71.68000030517578,0,71.68000030517578
2017-04-24,71.68000030517578,71.68000030517578,71.68000030517578,71.68000030517578,0,71.68000030517578
2017-04-25,73.18000030517578,73.18000030517578,73.18000030517578,73.18000030517578,100,73.18000030517578
2017-04-26,73.31999969482422,73.06999969482422,73.06999969482422,73.31999969482422,600,73.31999969482422
2017-04-27,73.31999969482422,73.31999969482422,73.31999969482422,73.31999969482422,0,73.31999969482422
2017-04-28,73.31999969482422,73.31999969482422,73.31999969482422,73.31999969482422,0,73.31999969482422
2017-05-01,73.31999969482422,73.31999969482422,73.31999969482422,73.31999969482422,0,73.31999969482422
2017-05-02,73.31999969482422,73.31999969482422,73.31999969482422,73.31999969482422,0,73.31999969482422
2017-05-03,73.44000244140625,73.2699966430664,73.44000244140625,73.41999816894531,600,73.41999816894531
2017-05-04,73.41999816894531,73.41999816894531,73.41999816894531,73.41999816894531,0,73.41999816894531
2017-05-05,73.41999816894531,73.41999816894531,73.41999816894531,73.41999816894531,0,73.41999816894531
2017-05-08,73.41999816894531,73.41999816894531,73.41999816894531,73.41999816894531,0,73.41999816894531
2017-05-09,73.41999816894531,73.41999816894531,73.41999816894531,73.41999816894531,0,73.41999816894531
2017-05-10,73.41999816894531,73.41999816894531,73.41999816894531,73.41999816894531,0,73.41999816894531
2017-05-11,73.41999816894531,73.41999816894531,73.41999816894531,73.41999816894531,0,73.41999816894531
2017-05-12,73.41999816894531,73.41999816894531,73.41999816894531,73.41999816894531,0,73.41999816894531
2017-05-15,73.41999816894531,73.41999816894531,73.41999816894531,73.41999816894531,0,73.41999816894531
2017-05-16,73.41999816894531,73.41999816894531,73.41999816894531,73.41999816894531,0,73.41999816894531
2017-05-17,73.41999816894531,73.41999816894531,73.41999816894531,73.41999816894531,0,73.41999816894531
2017-05-18,73.41999816894531,73.41999816894531,73.41999816894531,73.41999816894531,0,73.41999816894531
2017-05-19,73.41999816894531,73.41999816894531,73.41999816894531,73.41999816894531,0,73.41999816894531
2017-05-22,73.5999984741211,73.5999984741211,73.5999984741211,73.5999984741211,200,73.5999984741211
2017-05-23,73.5999984741211,73.5999984741211,73.5999984741211,73.5999984741211,0,73.5999984741211
2017-05-24,73.5999984741211,73.5999984741211,73.5999984741211,73.5999984741211,0,73.5999984741211
2017-05-25,73.5999984741211,73.5999984741211,73.5999984741211,73.5999984741211,0,73.5999984741211
2017-05-26,73.5999984741211,73.5999984741211,73.5999984741211,73.5999984741211,0,73.5999984741211
2017-05-30,73.5999984741211,73.5999984741211,73.5999984741211,73.5999984741211,0,73.5999984741211
2017-05-31,73.5999984741211,73.5999984741211,73.5999984741211,73.5999984741211,0,73.5999984741211
2017-06-01,73.5999984741211,73.5999984741211,73.5999984741211,73.5999984741211,0,73.5999984741211
2017-06-02,73.5999984741211,73.5999984741211,73.5999984741211,73.5999984741211,0,73.5999984741211
2017-06-05,73.86000061035156,73.86000061035156,73.86000061035156,73.86000061035156,100,73.86000061035156
2017-06-06,74.25,74.23999786376953,74.23999786376953,74.25,200,74.25
2017-06-07,74.5199966430664,74.26000213623047,74.26000213623047,74.5199966430664,500,74.5199966430664
2017-06-08,74.44999694824219,74.44999694824219,74.44999694824219,74.44999694824219,100,74.44999694824219
2017-06-09,74.44999694824219,74.44999694824219,74.44999694824219,74.44999694824219,0,74.44999694824219
2017-06-12,74.44999694824219,74.44999694824219,74.44999694824219,74.44999694824219,0,74.44999694824219
2017-06-13,74.44999694824219,74.44999694824219,74.44999694824219,74.44999694824219,0,74.44999694824219
2017-06-14,74.44999694824219,74.44999694824219,74.44999694824219,74.44999694824219,0,74.44999694824219
2017-06-15,74.44999694824219,74.44999694824219,74.44999694824219,74.44999694824219,0,74.44999694824219
2017-06-16,74.44999694824219,74.44999694824219,74.44999694824219,74.44999694824219,0,74.44999694824219
2017-06-19,74.38999938964844,74.37999725341797,74.37999725341797,74.38999938964844,600,74.38999938964844
2017-06-20,74.38999938964844,74.38999938964844,74.38999938964844,74.38999938964844,0,74.38999938964844
2017-06-21,74.41000366210938,74.33999633789062,74.41000366210938,74.33999633789062,500,74.33999633789062
2017-06-22,74.91999816894531,74.37000274658203,74.91999816894531,74.37000274658203,1200,74.37000274658203
2017-06-23,74.3499984741211,74.3499984741211,74.3499984741211,74.3499984741211,200,74.3499984741211
2017-06-26,74.3499984741211,74.3499984741211,74.3499984741211,74.3499984741211,0,74.3499984741211
2017-06-27,74.3499984741211,74.3499984741211,74.3499984741211,74.3499984741211,0,74.3499984741211
2017-06-28,74.3499984741211,74.3499984741211,74.3499984741211,74.3499984741211,0,74.3499984741211
2017-06-29,74.37000274658203,74.37000274658203,74.37000274658203,74.37000274658203,400,74.37000274658203
2017-06-30,74.37000274658203,74.37000274658203,74.37000274658203,74.37000274658203,0,74.37000274658203
2017-07-03,74.37000274658203,74.37000274658203,74.37000274658203,74.37000274658203,0,74.37000274658203
2017-07-05,74.5,74.5,74.5,74.5,200,74.5
2017-07-06,74.5,74.5,74.5,74.5,0,74.5
2017-07-07,74.5,74.5,74.5,74.5,0,74.5
2017-07-10,74.5,74.5,74.5,74.5,0,74.5
2017-07-11,74.69999694824219,74.4000015258789,74.43000030517578,74.55999755859375,1200,74.55999755859375
2017-07-12,74.55999755859375,74.55999755859375,74.55999755859375,74.55999755859375,0,74.55999755859375
2017-07-13,74.55999755859375,74.55999755859375,74.55999755859375,74.55999755859375,0,74.55999755859375
2017-07-14,74.55999755859375,74.55999755859375,74.55999755859375,74.55999755859375,0,74.55999755859375
2017-07-17,74.55999755859375,74.55999755859375,74.55999755859375,74.55999755859375,0,74.55999755859375
2017-07-18,74.55999755859375,74.55999755859375,74.55999755859375,74.55999755859375,0,74.55999755859375
2017-07-19,74.55999755859375,74.55999755859375,74.55999755859375,74.55999755859375,0,74.55999755859375
2017-07-20,75.08999633789062,75.08999633789062,75.08999633789062,75.08999633789062,400,75.08999633789062
2017-07-21,75.05999755859375,75.05999755859375,75.05999755859375,75.05999755859375,100,75.05999755859375
2017-07-24,75.05999755859375,75.05999755859375,75.05999755859375,75.05999755859375,0,75.05999755859375
2017-07-25,75.05999755859375,75.05999755859375,75.05999755859375,75.05999755859375,0,75.05999755859375
2017-07-26,75.05999755859375,75.05999755859375,75.05999755859375,75.05999755859375,0,75.05999755859375
2017-07-27,75.05999755859375,75.05999755859375,75.05999755859375,75.05999755859375,0,75.05999755859375
2017-07-28,75.55999755859375,75.55999755859375,75.55999755859375,75.55999755859375,100,75.55999755859375
2017-07-31,75.41999816894531,75.41999816894531,75.41999816894531,75.41999816894531,100,75.41999816894531
2017-08-01,75.41999816894531,75.41999816894531,75.41999816894531,75.41999816894531,0,75.41999816894531
2017-08-02,75.41999816894531,75.41999816894531,75.41999816894531,75.41999816894531,100,75.41999816894531
2017-08-03,75.41999816894531,75.41999816894531,75.41999816894531,75.41999816894531,100,75.41999816894531
2017-08-04,75.41999816894531,75.41999816894531,75.41999816894531,75.41999816894531,0,75.41999816894531
2017-08-07,75.41999816894531,75.41999816894531,75.41999816894531,75.41999816894531,0,75.41999816894531
2017-08-08,75.56999969482422,75.56999969482422,75.56999969482422,75.56999969482422,200,75.56999969482422
2017-08-09,75.56999969482422,75.56999969482422,75.56999969482422,75.56999969482422,0,75.56999969482422
2017-08-10,75.56999969482422,75.56999969482422,75.56999969482422,75.56999969482422,0,75.56999969482422
2017-08-11,75.56999969482422,75.56999969482422,75.56999969482422,75.56999969482422,0,75.56999969482422
2017-08-14,75.5999984741211,74.9000015258789,74.9000015258789,75.51000213623047,2800,75.51000213623047
2017-08-15,75.51000213623047,75.51000213623047,75.51000213623047,75.51000213623047,0,75.51000213623047
2017-08-16,75.76000213623047,75.62000274658203,75.72000122070312,75.6500015258789,2900,75.6500015258789
2017-08-17,75.76000213623047,75.76000213623047,75.76000213623047,75.76000213623047,300,75.76000213623047
2017-08-18,74.91999816894531,74.75,74.80000305175781,74.91999816894531,1400,74.91999816894531
2017-08-21,74.91999816894531,74.91999816894531,74.91999816894531,74.91999816894531,0,74.91999816894531
2017-08-22,75.08999633789062,74.93000030517578,74.95999908447266,75.08999633789062,500,75.08999633789062
2017-08-23,75.08999633789062,75.08999633789062,75.08999633789062,75.08999633789062,0,75.08999633789062
2017-08-24,75.08000183105469,74.9000015258789,74.97000122070312,74.9000015258789,1300,74.9000015258789
2017-08-25,74.9000015258789,74.9000015258789,74.9000015258789,74.9000015258789,0,74.9000015258789
2017-08-28,75.16000366210938,75.16000366210938,75.16000366210938,75.16000366210938,100,75.16000366210938
2017-08-29,75.55000305175781,75.55000305175781,75.55000305175781,75.55000305175781,100,75.55000305175781
2017-08-30,75.55000305175781,75.55000305175781,75.55000305175781,75.55000305175781,0,75.55000305175781
2017-08-31,75.55000305175781,75.55000305175781,75.55000305175781,75.55000305175781,0,75.55000305175781
2017-09-01,75.55000305175781,75.55000305175781,75.55000305175781,75.55000305175781,0,75.55000305175781
2017-09-05,75.47000122070312,75.38999938964844,75.41999816894531,75.38999938964844,400,75.38999938964844
2017-09-06,75.63999938964844,75.5199966430664,75.55999755859375,75.63999938964844,500,75.63999938964844
2017-09-07,75.63999938964844,75.63999938964844,75.63999938964844,75.63999938964844,0,75.63999938964844
2017-09-08,75.63999938964844,75.63999938964844,75.63999938964844,75.63999938964844,0,75.63999938964844
2017-09-11,75.63999938964844,75.63999938964844,75.63999938964844,75.63999938964844,0,75.63999938964844
2017-09-12,75.63999938964844,75.63999938964844,75.63999938964844,75.63999938964844,0,75.63999938964844
2017-09-13,75.63999938964844,75.63999938964844,75.63999938964844,75.63999938964844,0,75.63999938964844
2017-09-14,75.63999938964844,75.63999938964844,75.63999938964844,75.63999938964844,0,75.63999938964844
2017-09-15,75.63999938964844,75.63999938964844,75.63999938964844,75.63999938964844,0,75.63999938964844
2017-09-18,75.63999938964844,75.63999938964844,75.63999938964844,75.63999938964844,0,75.63999938964844
2017-09-19,75.63999938964844,75.63999938964844,75.63999938964844,75.63999938964844,0,75.63999938964844
2017-09-20,75.63999938964844,75.63999938964844,75.63999938964844,75.63999938964844,0,75.63999938964844
2017-09-21,75.63999938964844,75.63999938964844,75.63999938964844,75.63999938964844,0,75.63999938964844
2017-09-22,75.63999938964844,75.63999938964844,75.63999938964844,75.63999938964844,0,75.63999938964844
2017-09-25,75.63999938964844,75.63999938964844,75.63999938964844,75.63999938964844,0,75.63999938964844
2017-09-26,75.63999938964844,75.63999938964844,75.63999938964844,75.63999938964844,0,75.63999938964844
2017-09-27,75.63999938964844,75.63999938964844,75.63999938964844,75.63999938964844,0,75.63999938964844
2017-09-28,75.63999938964844,75.63999938964844,75.63999938964844,75.63999938964844,0,75.63999938964844
2017-09-29,75.63999938964844,75.63999938964844,75.63999938964844,75.63999938964844,0,75.63999938964844
2017-10-02,75.63999938964844,75.63999938964844,75.63999938964844,75.63999938964844,0,75.63999938964844
2017-10-03,75.63999938964844,75.63999938964844,75.63999938964844,75.63999938964844,0,75.63999938964844
2017-10-04,75.63999938964844,75.63999938964844,75.63999938964844,75.63999938964844,0,75.63999938964844
2017-10-05,75.63999938964844,75.63999938964844,75.63999938964844,75.63999938964844,0,75.63999938964844
2017-10-06,75.63999938964844,75.63999938964844,75.63999938964844,75.63999938964844,0,75.63999938964844
2017-10-09,76.4000015258789,76.36000061035156,76.4000015258789,76.36000061035156,200,76.36000061035156
2017-10-10,76.36000061035156,76.36000061035156,76.36000061035156,76.36000061035156,0,76.36000061035156
2017-10-11,76.44999694824219,76.41000366210938,76.44999694824219,76.41000366210938,200,76.41000366210938
2017-10-12,76.41000366210938,76.41000366210938,76.41000366210938,76.41000366210938,0,76.41000366210938
2017-10-13,76.41000366210938,76.41000366210938,76.41000366210938,76.41000366210938,0,76.41000366210938
2017-10-16,76.88999938964844,76.88999938964844,76.88999938964844,76.88999938964844,400,76.88999938964844
2017-10-17,76.88999938964844,76.88999938964844,76.88999938964844,76.88999938964844,200,76.88999938964844
2017-10-18,76.88999938964844,76.88999938964844,76.88999938964844,76.88999938964844,0,76.88999938964844
2017-10-19,75.9800033569336,75.9800033569336,75.9800033569336,75.9800033569336,200,75.9800033569336
2017-10-20,75.9800033569336,75.9800033569336,75.9800033569336,75.9800033569336,0,75.9800033569336
2017-10-23,75.9800033569336,75.9800033569336,75.9800033569336,75.9800033569336,0,75.9800033569336
2017-10-24,75.9800033569336,75.9800033569336,75.9800033569336,75.9800033569336,0,75.9800033569336
2017-10-25,75.9800033569336,75.9800033569336,75.9800033569336,75.9800033569336,0,75.9800033569336
2017-10-26,75.9800033569336,75.9800033569336,75.9800033569336,75.9800033569336,0,75.9800033569336
2017-10-27,75.9800033569336,75.9800033569336,75.9800033569336,75.9800033569336,0,75.9800033569336
2017-10-30,75.9800033569336,75.9800033569336,75.9800033569336,75.9800033569336,0,75.9800033569336
2017-10-31,75.9800033569336,75.9800033569336,75.9800033569336,75.9800033569336,0,75.9800033569336
2017-11-01,75.9800033569336,75.9800033569336,75.9800033569336,75.9800033569336,0,75.9800033569336
2017-11-02,75.9800033569336,75.9800033569336,75.9800033569336,75.9800033569336,0,75.9800033569336
2017-11-03,75.9800033569336,75.9800033569336,75.9800033569336,75.9800033569336,0,75.9800033569336
2017-11-06,75.9800033569336,75.9800033569336,75.9800033569336,75.9800033569336,0,75.9800033569336
2017-11-07,75.9800033569336,75.9800033569336,75.9800033569336,75.9800033569336,0,75.9800033569336
2017-11-08,75.9800033569336,75.9800033569336,75.9800033569336,75.9800033569336,0,75.9800033569336
2017-11-09,76.81999969482422,76.76000213623047,76.81999969482422,76.76000213623047,200,76.76000213623047
2017-11-10,76.76000213623047,76.76000213623047,76.76000213623047,76.76000213623047,0,76.76000213623047
2017-11-13,76.76000213623047,76.76000213623047,76.76000213623047,76.76000213623047,0,76.76000213623047
2017-11-14,76.76000213623047,76.76000213623047,76.76000213623047,76.76000213623047,0,76.76000213623047
2017-11-15,76.76000213623047,76.76000213623047,76.76000213623047,76.76000213623047,0,76.76000213623047
2017-11-16,76.76000213623047,76.76000213623047,76.76000213623047,76.76000213623047,0,76.76000213623047
2017-11-17,76.76000213623047,76.76000213623047,76.76000213623047,76.76000213623047,0,76.76000213623047
2017-11-20,76.76000213623047,76.76000213623047,76.76000213623047,76.76000213623047,0,76.76000213623047
2017-11-21,76.76000213623047,76.76000213623047,76.76000213623047,76.76000213623047,0,76.76000213623047
2017-11-22,77.69999694824219,77.48999786376953,77.69999694824219,77.48999786376953,200,77.48999786376953
2017-11-24,77.48999786376953,77.48999786376953,77.48999786376953,77.48999786376953,0,77.48999786376953
2017-11-27,77.48999786376953,77.48999786376953,77.48999786376953,77.48999786376953,0,77.48999786376953
2017-11-28,77.48999786376953,77.48999786376953,77.48999786376953,77.48999786376953,0,77.48999786376953
2017-11-29,78.20999908447266,77.91000366210938,77.91000366210938,77.91999816894531,500,77.91999816894531
2017-11-30,77.69000244140625,77.69000244140625,77.69000244140625,77.69000244140625,400,77.69000244140625
2017-12-01,77.69000244140625,77.69000244140625,77.69000244140625,77.69000244140625,0,77.69000244140625
2017-12-04,78.06999969482422,77.8499984741211,77.88999938964844,77.8499984741211,600,77.8499984741211
2017-12-05,77.8499984741211,77.8499984741211,77.8499984741211,77.8499984741211,0,77.8499984741211
2017-12-06,77.8499984741211,77.8499984741211,77.8499984741211,77.8499984741211,0,77.8499984741211
2017-12-07,77.8499984741211,77.8499984741211,77.8499984741211,77.8499984741211,0,77.8499984741211
2017-12-08,77.8499984741211,77.8499984741211,77.8499984741211,77.8499984741211,0,77.8499984741211
2017-12-11,77.8499984741211,77.8499984741211,77.8499984741211,77.8499984741211,0,77.8499984741211
2017-12-12,77.8499984741211,77.8499984741211,77.8499984741211,77.8499984741211,0,77.8499984741211
2017-12-13,77.8499984741211,77.8499984741211,77.8499984741211,77.8499984741211,0,77.8499984741211
2017-12-14,77.8499984741211,77.8499984741211,77.8499984741211,77.8499984741211,0,77.8499984741211
2017-12-15,77.8499984741211,77.8499984741211,77.8499984741211,77.8499984741211,0,77.8499984741211
2017-12-18,77.8499984741211,77.8499984741211,77.8499984741211,77.8499984741211,0,77.8499984741211
2017-12-19,77.8499984741211,77.8499984741211,77.8499984741211,77.8499984741211,0,77.8499984741211
2017-12-20,77.8499984741211,77.8499984741211,77.8499984741211,77.8499984741211,100,77.8499984741211
2017-12-21,77.8499984741211,77.8499984741211,77.8499984741211,77.8499984741211,0,77.8499984741211
2017-12-22,77.8499984741211,77.8499984741211,77.8499984741211,77.8499984741211,0,77.8499984741211
2017-12-26,78.5,78.5,78.5,78.5,100,78.5
2017-12-27,78.5,78.5,78.5,78.5,0,78.5
2017-12-28,78.5,78.5,78.5,78.5,0,78.5
2017-12-29,78.5,78.5,78.5,78.5,0,78.5
2018-01-02,78.5,78.5,78.5,78.5,20000,78.5
2018-01-03,78.5,78.5,78.5,78.5,0,78.5
2018-01-04,78.5,78.5,78.5,78.5,0,78.5
2018-01-05,78.5,78.5,78.5,78.5,0,78.5
2018-01-08,78.5,78.5,78.5,78.5,0,78.5
2018-01-09,78.5,78.5,78.5,78.5,0,78.5
2018-01-10,78.5,78.5,78.5,78.5,0,78.5
2018-01-11,78.80000305175781,78.80000305175781,78.80000305175781,78.80000305175781,200,78.80000305175781
2018-01-12,78.80999755859375,78.80999755859375,78.80999755859375,78.80999755859375,200,78.80999755859375
2018-01-16,78.80999755859375,78.80999755859375,78.80999755859375,78.80999755859375,0,78.80999755859375
2018-01-17,78.69999694824219,78.6500015258789,78.6500015258789,78.69999694824219,300,78.69999694824219
2018-01-18,78.69999694824219,78.69999694824219,78.69999694824219,78.69999694824219,0,78.69999694824219
2018-01-19,78.70999908447266,78.70999908447266,78.70999908447266,78.70999908447266,200,78.70999908447266
2018-01-22,78.98999786376953,78.98999786376953,78.98999786376953,78.98999786376953,200,78.98999786376953
2018-01-23,78.98999786376953,78.98999786376953,78.98999786376953,78.98999786376953,0,78.98999786376953
2018-01-24,78.98999786376953,78.98999786376953,78.98999786376953,78.98999786376953,0,78.98999786376953
2018-01-25,78.95999908447266,78.95999908447266,78.95999908447266,78.95999908447266,500,78.95999908447266
2018-01-26,78.95999908447266,78.95999908447266,78.95999908447266,78.95999908447266,0,78.95999908447266
2018-01-29,78.95999908447266,78.95999908447266,78.95999908447266,78.95999908447266,0,78.95999908447266
2018-01-30,78.95999908447266,78.95999908447266,78.95999908447266,78.95999908447266,0,78.95999908447266
2018-01-31,78.95999908447266,78.95999908447266,78.95999908447266,78.95999908447266,0,78.95999908447266
2018-02-01,78.95999908447266,78.95999908447266,78.95999908447266,78.95999908447266,0,78.95999908447266
2018-02-02,78.95999908447266,78.95999908447266,78.95999908447266,78.95999908447266,0,78.95999908447266
2018-02-05,78.95999908447266,78.95999908447266,78.95999908447266,78.95999908447266,0,78.95999908447266
2018-02-06,78.95999908447266,78.95999908447266,78.95999908447266,78.95999908447266,0,78.95999908447266
2018-02-07,76.37999725341797,76.37999725341797,76.37999725341797,76.37999725341797,500,76.37999725341797
2018-02-08,76.37999725341797,76.37999725341797,76.37999725341797,76.37999725341797,0,76.37999725341797
2018-02-09,76.37999725341797,76.37999725341797,76.37999725341797,76.37999725341797,0,76.37999725341797
2018-02-12,76.37999725341797,76.37999725341797,76.37999725341797,76.37999725341797,0,76.37999725341797
2018-02-13,76.37999725341797,76.37999725341797,76.37999725341797,76.37999725341797,0,76.37999725341797
2018-02-14,76.37999725341797,76.37999725341797,76.37999725341797,76.37999725341797,0,76.37999725341797
2018-02-15,76.37999725341797,76.37999725341797,76.37999725341797,76.37999725341797,0,76.37999725341797
2018-02-16,76.37999725341797,76.37999725341797,76.37999725341797,76.37999725341797,0,76.37999725341797
2018-02-20,76.37999725341797,76.37999725341797,76.37999725341797,76.37999725341797,0,76.37999725341797
2018-02-21,76.37999725341797,76.37999725341797,76.37999725341797,76.37999725341797,0,76.37999725341797
2018-02-22,76.37999725341797,76.37999725341797,76.37999725341797,76.37999725341797,0,76.37999725341797
2018-02-23,77.73999786376953,77.73999786376953,77.73999786376953,77.73999786376953,100,77.73999786376953
2018-02-26,78.04000091552734,78.04000091552734,78.04000091552734,78.04000091552734,300,78.04000091552734
2018-02-27,77.76000213623047,77.76000213623047,77.76000213623047,77.76000213623047,400,77.76000213623047
2018-02-28,77.76000213623047,77.76000213623047,77.76000213623047,77.76000213623047,0,77.76000213623047
2018-03-01,77.76000213623047,77.76000213623047,77.76000213623047,77.76000213623047,0,77.76000213623047
2018-03-02,77.76000213623047,77.76000213623047,77.76000213623047,77.76000213623047,0,77.76000213623047
2018-03-05,77.76000213623047,77.76000213623047,77.76000213623047,77.76000213623047,0,77.76000213623047
2018-03-06,77.76000213623047,77.76000213623047,77.76000213623047,77.76000213623047,0,77.76000213623047
2018-03-07,77.76000213623047,77.76000213623047,77.76000213623047,77.76000213623047,0,77.76000213623047
2018-03-08,77.58000183105469,77.58000183105469,77.58000183105469,77.58000183105469,200,77.58000183105469
2018-03-09,78.5,78.5,78.5,78.5,100,78.5
2018-03-12,78.5,78.5,78.5,78.5,0,78.5
2018-03-13,78.5,78.5,78.5,78.5,0,78.5
2018-03-14,78.5,78.5,78.5,78.5,0,78.5
2018-03-15,78.5,78.5,78.5,78.5,0,78.5
2018-03-16,78.5,78.5,78.5,78.5,0,78.5
2018-03-19,78.5,78.5,78.5,78.5,0,78.5
2018-03-20,80.06999969482422,79.73999786376953,80.06999969482422,79.73999786376953,400,79.73999786376953
2018-03-21,79.73999786376953,79.73999786376953,79.73999786376953,79.73999786376953,0,79.73999786376953
2018-03-22,79.73999786376953,79.73999786376953,79.73999786376953,79.73999786376953,0,79.73999786376953
2018-03-23,79.73999786376953,79.73999786376953,79.73999786376953,79.73999786376953,0,79.73999786376953
2018-03-26,79.73999786376953,79.73999786376953,79.73999786376953,79.73999786376953,0,79.73999786376953
2018-03-27,76.51000213623047,75.87000274658203,75.87000274658203,76.51000213623047,600,76.51000213623047
2018-03-28,75.3499984741211,75.3499984741211,75.3499984741211,75.3499984741211,200,75.3499984741211
2018-03-29,77.19999694824219,75.52999877929688,75.52999877929688,77.19999694824219,300,77.19999694824219
2018-04-02,75.0,75.0,75.0,75.0,200,75.0
2018-04-03,74.6500015258789,74.6500015258789,74.6500015258789,74.6500015258789,100,74.6500015258789
2018-04-04,75.36000061035156,75.36000061035156,75.36000061035156,75.36000061035156,100,75.36000061035156
2018-04-05,77.5,75.58999633789062,75.58999633789062,77.5,7600,77.5
2018-04-06,77.0,76.5,77.0,76.5,500,76.5
2018-04-09,76.02999877929688,76.02999877929688,76.02999877929688,76.02999877929688,100,76.02999877929688
2018-04-10,77.25,77.25,77.25,77.25,200,77.25
2018-04-11,77.25,77.25,77.25,77.25,0,77.25
2018-04-12,77.5,76.88999938964844,77.11000061035156,77.5,2000,77.5
2018-04-12,77.0,76.88999938964844,77.11000061035156,76.99500274658203,1999,76.99500274658203
