Date,High,Low,Open,Close,Volume,Adj Close
2017-04-24,23.0,22.299999237060547,22.600000381469727,22.450000762939453,282300.0,21.780624389648438
2017-04-25,22.899999618530273,22.690000534057617,22.75,22.700000762939453,200100.0,22.023170471191406
2017-04-26,23.0,22.700000762939453,22.760000228881836,22.950000762939453,227200.0,22.265714645385742
2017-04-27,23.200000762939453,22.540000915527344,23.049999237060547,22.6299991607666,345700.0,21.95525550842285
2017-04-28,22.899999618530273,22.399999618530273,22.600000381469727,22.479999542236328,195900.0,21.809730529785156
2017-05-01,22.80500030517578,22.25,22.649999618530273,22.5,219500.0,21.829132080078125
2017-05-02,22.729999542236328,22.34000015258789,22.420000076293945,22.600000381469727,116800.0,21.926149368286133
2017-05-03,22.780000686645508,22.440000534057617,22.5,22.549999237060547,28800.0,21.877639770507812
2017-05-04,22.709999084472656,22.5,22.549999237060547,22.549999237060547,197600.0,21.877639770507812
2017-05-05,22.59000015258789,22.200000762939453,22.549999237060547,22.399999618530273,95600.0,21.732112884521484
2017-05-08,22.360000610351562,22.100000381469727,22.350000381469727,22.1200008392334,98900.0,21.460460662841797
2017-05-09,22.100000381469727,21.9060001373291,22.100000381469727,21.989999771118164,89400.0,21.33433723449707
2017-05-10,22.25,21.950000762939453,22.0,22.239999771118164,93700.0,21.576885223388672
2017-05-11,22.600000381469727,22.18000030517578,22.18000030517578,22.479999542236328,168800.0,21.809730529785156
2017-05-12,22.645999908447266,22.010000228881836,22.360000610351562,22.18000030517578,122900.0,21.518672943115234
2017-05-15,22.128999710083008,21.850000381469727,22.09000015258789,21.850000381469727,331400.0,21.198511123657227
2017-05-16,22.239999771118164,21.65999984741211,21.860000610351562,22.079999923706055,86000.0,21.421653747558594
2017-05-17,22.0,21.559999465942383,21.950000762939453,21.690000534057617,53700.0,21.04328155517578
2017-05-18,21.979999542236328,21.549999237060547,21.549999237060547,21.56999969482422,40200.0,20.926862716674805
2017-05-19,21.889999389648438,21.56999969482422,21.639999389648438,21.610000610351562,41700.0,20.965669631958008
2017-05-22,21.979999542236328,21.56999969482422,21.56999969482422,21.93000030517578,54600.0,21.2761287689209
2017-05-23,22.399999618530273,21.850000381469727,21.940000534057617,22.110000610351562,45600.0,21.450761795043945
2017-05-24,22.670000076293945,22.010000228881836,22.020000457763672,22.440000534057617,70900.0,21.770919799804688
2017-05-25,22.56999969482422,22.149999618530273,22.5,22.229999542236328,110300.0,21.567184448242188
2017-05-26,22.290000915527344,22.030000686645508,22.079999923706055,22.290000915527344,43700.0,21.625394821166992
2017-05-30,23.1200008392334,22.110000610351562,22.360000610351562,22.31999969482422,112100.0,21.654499053955078
2017-05-31,22.399999618530273,21.614999771118164,22.31999969482422,21.860000610351562,96200.0,21.208215713500977
2017-06-01,22.479999542236328,21.75,21.829999923706055,22.34000015258789,103500.0,21.673900604248047
2017-06-02,22.760000228881836,21.889999389648438,22.170000076293945,22.5,127300.0,21.829132080078125
2017-06-05,22.65999984741211,22.200000762939453,22.59000015258789,22.479999542236328,66000.0,21.809730529785156
2017-06-06,22.59000015258789,22.18400001525879,22.389999389648438,22.450000762939453,25600.0,21.780624389648438
2017-06-07,22.450000762939453,22.100000381469727,22.450000762939453,22.309999465942383,49300.0,21.64479637145996
2017-06-08,23.25,22.040000915527344,22.360000610351562,23.1200008392334,85600.0,22.430644989013672
2017-06-09,23.559999465942383,23.049999237060547,23.09000015258789,23.450000762939453,115800.0,22.750804901123047
2017-06-12,23.510000228881836,23.270000457763672,23.360000610351562,23.479999542236328,100600.0,22.779911041259766
2017-06-13,23.6299991607666,23.309999465942383,23.450000762939453,23.510000228881836,71600.0,22.809019088745117
2017-06-14,23.709999084472656,23.010000228881836,23.459999084472656,23.290000915527344,102500.0,22.5955753326416
2017-06-15,23.5,22.799999237060547,23.100000381469727,23.31999969482422,63500.0,22.62468147277832
2017-06-16,23.450000762939453,22.219999313354492,23.299999237060547,22.6200008392334,123700.0,21.945554733276367
2017-06-19,22.969999313354492,22.309999465942383,22.6200008392334,22.40999984741211,57700.0,21.7418155670166
2017-06-20,22.549999237060547,22.1299991607666,22.549999237060547,22.270000457763672,54600.0,21.605989456176758
2017-06-21,22.479999542236328,22.055999755859375,22.18000030517578,22.139999389648438,51600.0,21.47986602783203
2017-06-22,22.40999984741211,21.559999465942383,22.219999313354492,21.799999237060547,98600.0,21.15000343322754
2017-06-23,22.047000885009766,20.5,21.780000686645508,21.010000228881836,1435800.0,20.383560180664062
2017-06-26,21.469999313354492,20.950000762939453,21.040000915527344,21.34000015258789,74500.0,20.703718185424805
2017-06-27,21.670000076293945,21.270000457763672,21.290000915527344,21.59000015258789,54800.0,20.946264266967773
2017-06-28,22.475000381469727,21.68000030517578,21.68000030517578,22.270000457763672,95900.0,21.605989456176758
2017-06-29,22.57200050354004,21.559999465942383,22.5,21.8799991607666,110800.0,21.227617263793945
2017-06-30,22.299999237060547,21.700000762939453,21.979999542236328,21.8799991607666,88700.0,21.227617263793945
2017-07-03,22.510000228881836,22.0,22.0,22.3799991607666,15200.0,21.712709426879883
2017-07-05,22.549999237060547,22.079999923706055,22.549999237060547,22.329999923706055,65100.0,21.664203643798828
2017-07-06,22.790000915527344,22.170000076293945,22.360000610351562,22.25,52200.0,21.586584091186523
2017-07-07,22.670000076293945,22.28499984741211,22.31999969482422,22.639999389648438,51500.0,21.964956283569336
2017-07-10,22.6299991607666,22.229999542236328,22.6299991607666,22.329999923706055,83800.0,21.664203643798828
2017-07-11,22.5,22.100000381469727,22.350000381469727,22.399999618530273,54400.0,21.732112884521484
2017-07-12,22.530000686645508,22.270000457763672,22.3799991607666,22.3799991607666,67500.0,21.712709426879883
2017-07-13,22.399999618530273,22.139999389648438,22.3700008392334,22.280000686645508,64000.0,21.615692138671875
2017-07-14,22.420000076293945,22.049999237060547,22.18000030517578,22.25,65300.0,21.586584091186523
2017-07-17,22.219999313354492,21.81999969482422,22.139999389648438,22.100000381469727,72800.0,21.441059112548828
2017-07-18,22.219999313354492,21.93000030517578,22.0,21.959999084472656,51100.0,21.305234909057617
2017-07-19,22.172000885009766,21.760000228881836,22.059999465942383,21.979999542236328,29600.0,21.324636459350586
2017-07-20,22.549999237060547,21.75,21.969999313354492,22.270000457763672,194300.0,21.605989456176758
2017-07-21,22.3700008392334,21.860000610351562,22.3700008392334,22.149999618530273,53200.0,21.48956871032715
2017-07-24,22.739999771118164,22.03499984741211,22.100000381469727,22.6299991607666,32000.0,21.95525550842285
2017-07-25,22.829999923706055,22.389999389648438,22.719999313354492,22.790000915527344,44100.0,22.110485076904297
2017-07-26,22.809999465942383,22.209999084472656,22.809999465942383,22.3799991607666,29100.0,21.712709426879883
2017-07-27,22.889999389648438,21.950000762939453,22.5,22.770000457763672,46300.0,22.091079711914062
2017-07-28,22.790000915527344,22.1299991607666,22.790000915527344,22.610000610351562,36000.0,21.935855865478516
2017-07-31,22.860000610351562,22.299999237060547,22.6200008392334,22.84000015258789,31400.0,22.158994674682617
2017-08-01,22.979999542236328,22.760000228881836,22.889999389648438,22.969999313354492,15300.0,22.285118103027344
2017-08-02,23.1299991607666,22.829999923706055,22.8799991607666,22.8700008392334,26100.0,22.188100814819336
2017-08-03,22.959999084472656,22.760000228881836,22.8799991607666,22.850000381469727,19200.0,22.168697357177734
2017-08-04,23.1299991607666,22.75,23.1299991607666,22.93000030517578,21800.0,22.246309280395508
2017-08-07,23.010000228881836,22.299999237060547,22.969999313354492,22.40999984741211,28500.0,21.7418155670166
2017-08-08,22.920000076293945,22.219999313354492,22.350000381469727,22.389999389648438,38100.0,21.722412109375
2017-08-09,22.25,21.6200008392334,22.25,21.809999465942383,36400.0,21.15970802307129
2017-08-10,21.739999771118164,20.739999771118164,21.670000076293945,20.860000610351562,58000.0,20.2380313873291
2017-08-11,21.18000030517578,20.299999237060547,20.899999618530273,20.649999618530273,96400.0,20.034290313720703
2017-08-14,21.489999771118164,20.790000915527344,20.790000915527344,21.329999923706055,43500.0,20.694015502929688
2017-08-15,21.75,21.360000610351562,21.40999984741211,21.65999984741211,90900.0,21.014175415039062
2017-08-16,21.979999542236328,21.15999984741211,21.81999969482422,21.469999313354492,68400.0,20.82984161376953
2017-08-17,21.94499969482422,21.405000686645508,21.479999542236328,21.709999084472656,93700.0,21.062686920166016
2017-08-18,21.479999542236328,20.540000915527344,21.420000076293945,20.649999618530273,86200.0,20.034290313720703
2017-08-21,20.780000686645508,20.0,20.639999389648438,20.59000015258789,138200.0,19.9760799407959
2017-08-22,21.049999237060547,20.579999923706055,20.639999389648438,20.780000686645508,174100.0,20.160417556762695
2017-08-23,21.09000015258789,20.59000015258789,20.65999984741211,20.989999771118164,79400.0,20.364152908325195
2017-08-24,21.09000015258789,20.799999237060547,20.950000762939453,20.979999542236328,51800.0,20.354454040527344
2017-08-25,21.0,20.700000762939453,21.0,20.93000030517578,39300.0,20.305944442749023
2017-08-28,21.16200065612793,20.510000228881836,20.940000534057617,20.700000762939453,144300.0,20.08280372619629
2017-08-29,21.190000534057617,20.389999389648438,20.479999542236328,20.790000915527344,153000.0,20.170120239257812
2017-08-30,21.55500030517578,20.735000610351562,20.829999923706055,20.899999618530273,144000.0,20.276836395263672
2017-08-31,21.4689998626709,20.6299991607666,20.940000534057617,20.84000015258789,69800.0,20.218626022338867
2017-09-01,21.197999954223633,20.709999084472656,20.940000534057617,20.829999923706055,57500.0,20.208925247192383
2017-09-05,21.170000076293945,20.610000610351562,20.84000015258789,20.889999389648438,121200.0,20.267135620117188
2017-09-06,21.489999771118164,20.579999923706055,21.489999771118164,21.149999618530273,147600.0,20.519386291503906
2017-09-07,21.25,20.399999618530273,21.149999618530273,20.75,82200.0,20.131309509277344
2017-09-08,21.329999923706055,20.399999618530273,20.770000457763672,20.530000686645508,130000.0,19.917871475219727
2017-09-11,21.040000915527344,20.59000015258789,20.649999618530273,20.979999542236328,56300.0,20.354454040527344
2017-09-12,21.989999771118164,20.969999313354492,20.969999313354492,21.8799991607666,74100.0,21.227617263793945
2017-09-13,22.309999465942383,21.739999771118164,21.809999465942383,22.309999465942383,111400.0,21.64479637145996
2017-09-14,22.290000915527344,21.440000534057617,22.229999542236328,21.920000076293945,75600.0,21.26642417907715
2017-09-15,22.219999313354492,21.3700008392334,21.940000534057617,21.3700008392334,302100.0,20.732824325561523
2017-09-18,22.049999237060547,21.170000076293945,21.399999618530273,22.010000228881836,130200.0,21.353742599487305
2017-09-19,22.329999923706055,21.860000610351562,22.0,22.149999618530273,28900.0,21.48956871032715
2017-09-20,22.399999618530273,22.030000686645508,22.200000762939453,22.260000228881836,62100.0,21.596288681030273
2017-09-21,22.420000076293945,22.18000030517578,22.290000915527344,22.209999084472656,69500.0,21.547779083251953
2017-09-22,22.290000915527344,21.940000534057617,22.09000015258789,22.190000534057617,42900.0,21.52837562561035
2017-09-25,22.239999771118164,21.81999969482422,22.110000610351562,21.889999389648438,38400.0,21.23731803894043
2017-09-26,22.1200008392334,21.700000762939453,21.950000762939453,22.079999923706055,33000.0,21.421653747558594
2017-09-27,22.90999984741211,22.152000427246094,22.280000686645508,22.610000610351562,142100.0,21.935855865478516
2017-09-28,22.860000610351562,22.389999389648438,22.59000015258789,22.809999465942383,84500.0,22.12989044189453
2017-09-29,23.0,22.540000915527344,22.790000915527344,22.920000076293945,108900.0,22.236608505249023
2017-10-02,23.200000762939453,22.424999237060547,22.8700008392334,22.8700008392334,224900.0,22.188100814819336
2017-10-03,22.959999084472656,22.520000457763672,22.81999969482422,22.940000534057617,80900.0,22.256013870239258
2017-10-04,22.93000030517578,22.31999969482422,22.84000015258789,22.3799991607666,67600.0,21.712709426879883
2017-10-05,22.65999984741211,22.219999313354492,22.399999618530273,22.520000457763672,85600.0,21.848535537719727
2017-10-06,22.989999771118164,22.450000762939453,22.469999313354492,22.649999618530273,53600.0,21.974658966064453
2017-10-09,22.8700008392334,22.010000228881836,22.579999923706055,22.489999771118164,61000.0,21.819429397583008
2017-10-10,22.850000381469727,22.489999771118164,22.510000228881836,22.829999923706055,42300.0,22.1492919921875
2017-10-11,22.959999084472656,22.520000457763672,22.850000381469727,22.850000381469727,77700.0,22.168697357177734
2017-10-12,22.8799991607666,22.59000015258789,22.860000610351562,22.700000762939453,42800.0,22.023170471191406
2017-10-13,22.829999923706055,22.389999389648438,22.729999542236328,22.59000015258789,31900.0,21.916446685791016
2017-10-16,22.822999954223633,22.489999771118164,22.600000381469727,22.729999542236328,52200.0,22.052274703979492
2017-10-17,22.899999618530273,22.437000274658203,22.729999542236328,22.6200008392334,56100.0,21.945554733276367
2017-10-18,22.864999771118164,22.40999984741211,22.579999923706055,22.6200008392334,18500.0,21.945554733276367
2017-10-19,22.8700008392334,22.469999313354492,22.520000457763672,22.81999969482422,37700.0,22.139591217041016
2017-10-20,22.950000762939453,22.59000015258789,22.950000762939453,22.75,116400.0,22.071680068969727
2017-10-23,22.719999313354492,22.5,22.719999313354492,22.56999969482422,14200.0,21.897045135498047
2017-10-24,22.770000457763672,22.299999237060547,22.690000534057617,22.610000610351562,46600.0,21.935855865478516
2017-10-25,23.18000030517578,22.639999389648438,22.639999389648438,23.010000228881836,372400.0,22.32392692565918
2017-10-26,23.799999237060547,23.190000534057617,23.190000534057617,23.489999771118164,234700.0,22.789613723754883
2017-10-27,24.25,23.59000015258789,23.59000015258789,24.229999542236328,188900.0,23.507549285888672
2017-10-30,24.687999725341797,23.989999771118164,24.200000762939453,24.110000610351562,84500.0,23.391130447387695
2017-10-31,24.600000381469727,24.139999389648438,24.219999313354492,24.360000610351562,147400.0,23.63367462158203
2017-11-01,24.940000534057617,24.350000381469727,24.510000228881836,24.520000457763672,43200.0,23.788902282714844
2017-11-02,25.139999389648438,24.34000015258789,24.520000457763672,25.09000015258789,24100.0,24.341907501220703
2017-11-03,25.420000076293945,24.809999465942383,25.1200008392334,25.239999771118164,64400.0,24.48743438720703
2017-11-06,25.489999771118164,25.149999618530273,25.229999542236328,25.459999084472656,30100.0,24.70087432861328
2017-11-07,25.209999084472656,23.65999984741211,25.209999084472656,24.170000076293945,170000.0,23.4493408203125
2017-11-08,23.90999984741211,22.700000762939453,23.90999984741211,23.0,294600.0,22.314226150512695
2017-11-09,22.31999969482422,21.809999465942383,21.979999542236328,22.139999389648438,3949000.0,21.47986602783203
2017-11-10,22.299999237060547,22.045000076293945,22.25,22.049999237060547,629800.0,21.392549514770508
2017-11-13,22.459999084472656,21.81100082397461,21.899999618530273,22.399999618530273,726100.0,21.732112884521484
2017-11-14,22.780000686645508,22.094999313354492,22.280000686645508,22.459999084472656,775400.0,21.79032325744629
2017-11-15,22.75,22.121000289916992,22.1299991607666,22.450000762939453,768600.0,21.780624389648438
2017-11-16,22.889999389648438,22.420000076293945,22.540000915527344,22.469999313354492,455200.0,21.800025939941406
2017-11-17,22.989999771118164,22.399999618530273,22.399999618530273,22.700000762939453,913800.0,22.023170471191406
2017-11-20,23.5,22.809999465942383,22.81999969482422,23.459999084472656,531100.0,22.760509490966797
2017-11-21,23.864999771118164,23.469999313354492,23.610000610351562,23.790000915527344,348700.0,23.080669403076172
2017-11-22,24.0,23.719999313354492,23.829999923706055,23.940000534057617,254500.0,23.226194381713867
2017-11-24,24.06999969482422,23.610000610351562,24.049999237060547,24.030000686645508,96800.0,23.313512802124023
2017-11-27,24.049999237060547,23.709999084472656,23.889999389648438,23.809999465942383,609900.0,23.100072860717773
2017-11-28,24.450000762939453,23.899999618530273,23.940000534057617,24.40999984741211,627700.0,23.68218421936035
2017-11-29,25.25,24.229999542236328,24.479999542236328,24.8700008392334,692600.0,24.128467559814453
2017-11-30,25.219999313354492,24.139999389648438,25.0,24.399999618530273,368800.0,23.672481536865234
2017-12-01,25.020000457763672,23.729999542236328,24.489999771118164,25.0,353600.0,24.25459098815918
2017-12-04,25.709999084472656,25.209999084472656,25.31999969482422,25.270000457763672,726500.0,24.51654052734375
2017-12-05,25.5,24.719999313354492,25.329999923706055,24.81999969482422,366200.0,24.079959869384766
2017-12-06,25.239999771118164,24.690000534057617,24.690000534057617,24.729999542236328,297200.0,23.992643356323242
2017-12-07,25.520000457763672,24.68000030517578,24.68000030517578,25.309999465942383,568300.0,24.555349349975586
2017-12-08,25.510000228881836,25.079999923706055,25.510000228881836,25.280000686645508,360800.0,24.5262451171875
2017-12-11,25.690000534057617,24.829999923706055,25.25,24.84000015258789,390100.0,24.099361419677734
2017-12-12,25.100000381469727,24.65999984741211,24.81999969482422,24.809999465942383,532000.0,24.070255279541016
2017-12-13,25.260000228881836,24.649999618530273,24.799999237060547,24.790000915527344,605000.0,24.050853729248047
2017-12-14,25.450000762939453,24.809999465942383,24.90999984741211,24.989999771118164,772300.0,24.244888305664062
2017-12-15,25.850000381469727,24.850000381469727,25.049999237060547,25.649999618530273,2085100.0,24.885210037231445
2017-12-18,26.666000366210938,25.8799991607666,25.899999618530273,26.510000228881836,1063600.0,25.719572067260742
2017-12-19,26.950000762939453,26.510000228881836,26.510000228881836,26.59000015258789,939800.0,25.797182083129883
2017-12-20,27.010000228881836,26.40999984741211,26.68000030517578,26.860000610351562,503300.0,26.059133529663086
2017-12-21,26.979999542236328,26.600000381469727,26.950000762939453,26.709999084472656,364200.0,25.913606643676758
2017-12-22,26.989999771118164,26.5,26.790000915527344,26.959999084472656,327500.0,26.156150817871094
2017-12-26,27.06999969482422,26.59000015258789,26.989999771118164,26.760000228881836,401000.0,25.962116241455078
2017-12-27,26.809999465942383,26.545000076293945,26.770000457763672,26.68000030517578,289100.0,25.88450050354004
2017-12-28,27.15999984741211,26.719999313354492,26.940000534057617,27.139999389648438,178100.0,26.33078384399414
2017-12-29,27.239999771118164,26.920000076293945,27.239999771118164,27.1200008392334,379600.0,26.31138038635254
2018-01-02,27.360000610351562,26.739999771118164,27.360000610351562,27.010000228881836,422000.0,26.204660415649414
2018-01-03,27.34000015258789,26.600000381469727,26.959999084472656,27.270000457763672,334600.0,26.4569091796875
2018-01-04,27.7450008392334,27.239999771118164,27.440000534057617,27.510000228881836,351600.0,26.68975257873535
2018-01-05,27.700000762939453,27.260000228881836,27.700000762939453,27.450000762939453,538200.0,26.631542205810547
2018-01-08,27.459999084472656,27.014999389648438,27.459999084472656,27.190000534057617,218500.0,26.37929344177246
2018-01-09,27.719999313354492,27.219999313354492,27.219999313354492,27.639999389648438,258000.0,26.815876007080078
2018-01-10,28.079999923706055,27.53499984741211,27.65999984741211,27.709999084472656,378900.0,26.8837890625
2018-01-11,28.260000228881836,27.829999923706055,27.829999923706055,28.25,151900.0,27.40768814086914
2018-01-12,28.450000762939453,28.079999923706055,28.3799991607666,28.170000076293945,200500.0,27.330074310302734
2018-01-16,28.610000610351562,27.690000534057617,28.350000381469727,27.8799991607666,311000.0,27.048721313476562
2018-01-17,28.3799991607666,27.520000457763672,27.989999771118164,28.299999237060547,167500.0,27.45619773864746
2018-01-18,28.229999542236328,28.020000457763672,28.1299991607666,28.06999969482422,183100.0,27.233057022094727
2018-01-19,28.770000457763672,28.100000381469727,28.100000381469727,28.729999542236328,207400.0,27.873376846313477
2018-01-22,28.59600067138672,28.15999984741211,28.559999465942383,28.399999618530273,119100.0,27.5532169342041
2018-01-23,28.549999237060547,28.139999389648438,28.309999465942383,28.290000915527344,206400.0,27.446495056152344
2018-01-24,28.649999618530273,28.190000534057617,28.450000762939453,28.280000686645508,215200.0,27.43679428100586
2018-01-25,28.55500030517578,28.100000381469727,28.5,28.469999313354492,298200.0,27.62112808227539
2018-01-26,28.670000076293945,28.1299991607666,28.670000076293945,28.309999465942383,482100.0,27.465900421142578
2018-01-29,28.479999542236328,28.15999984741211,28.229999542236328,28.31999969482422,245800.0,27.475601196289062
2018-01-30,28.440000534057617,28.06999969482422,28.06999969482422,28.170000076293945,186300.0,27.330074310302734
2018-01-31,28.670000076293945,27.75,28.270000457763672,27.979999542236328,170200.0,27.145740509033203
2018-02-01,28.200000762939453,27.639999389648438,27.90999984741211,28.1299991607666,143000.0,27.2912654876709
2018-02-02,28.299999237060547,26.450000762939453,28.020000457763672,26.540000915527344,501900.0,25.748674392700195
2018-02-05,26.979999542236328,26.030000686645508,26.059999465942383,26.579999923706055,511000.0,25.7874813079834
2018-02-06,27.0,26.059999465942383,26.059999465942383,26.75,270400.0,25.95241355895996
2018-02-07,27.299999237060547,26.459999084472656,26.6200008392334,26.959999084472656,146100.0,26.156150817871094
2018-02-08,26.920000076293945,25.200000762939453,26.700000762939453,25.290000915527344,783800.0,24.53594398498535
2018-02-09,26.440000534057617,25.260000228881836,25.825000762939453,26.34000015258789,4288100.0,25.554636001586914
2018-02-12,27.290000915527344,26.209999084472656,26.579999923706055,27.100000381469727,605500.0,26.291976928710938
2018-02-13,27.510000228881836,26.764999389648438,27.049999237060547,27.350000381469727,325500.0,26.534521102905273
2018-02-14,28.190000534057617,26.940000534057617,27.200000762939453,27.989999771118164,329700.0,27.155441284179688
2018-02-15,28.149999618530273,27.75,28.149999618530273,28.0,271100.0,27.16514015197754
2018-02-16,28.31999969482422,27.040000915527344,27.899999618530273,28.09000015258789,606200.0,27.252456665039062
2018-02-20,28.510000228881836,27.610000610351562,28.030000686645508,27.6299991607666,392500.0,26.80617332458496
2018-02-21,29.049999237060547,27.690000534057617,27.690000534057617,28.690000534057617,543700.0,27.834569931030273
2018-02-22,29.035999298095703,27.889999389648438,28.809999465942383,28.15999984741211,548800.0,27.320371627807617
2018-02-23,28.354999542236328,27.799999237060547,28.309999465942383,28.190000534057617,619500.0,27.349475860595703
2018-02-26,28.25,27.90999984741211,28.25,28.219999313354492,286300.0,27.378582000732422
2018-02-27,28.540000915527344,27.75,28.059999465942383,27.8700008392334,351800.0,27.039016723632812
2018-02-28,28.3700008392334,27.399999618530273,28.020000457763672,27.420000076293945,347700.0,26.7222900390625
2018-03-01,27.739999771118164,27.1200008392334,27.350000381469727,27.399999618530273,362100.0,26.70279884338379
2018-03-02,28.010000228881836,27.0,27.309999465942383,27.84000015258789,444200.0,27.13159942626953
2018-03-05,28.40999984741211,27.43000030517578,27.639999389648438,28.3700008392334,535400.0,27.648117065429688
2018-03-06,29.059999465942383,28.209999084472656,28.399999618530273,29.049999237060547,237500.0,28.31081199645996
2018-03-07,29.280000686645508,28.6299991607666,28.81999969482422,28.979999542236328,207800.0,28.24259376525879
2018-03-08,29.110000610351562,28.459999084472656,28.979999542236328,28.860000610351562,383300.0,28.125648498535156
2018-03-09,29.219999313354492,28.84000015258789,29.110000610351562,29.200000762939453,347100.0,28.45699691772461
2018-03-12,29.299999237060547,28.649999618530273,29.239999771118164,28.760000228881836,692900.0,28.0281925201416
2018-03-13,29.1200008392334,28.690000534057617,28.940000534057617,28.8700008392334,571100.0,28.135393142700195
2018-03-14,29.170000076293945,28.540000915527344,29.059999465942383,28.6200008392334,284900.0,27.891754150390625
2018-03-15,28.739999771118164,28.239999771118164,28.729999542236328,28.3799991607666,403100.0,27.657861709594727
2018-03-16,28.84000015258789,28.270000457763672,28.40999984741211,28.549999237060547,2654300.0,27.82353401184082
2018-03-19,28.670000076293945,28.040000915527344,28.520000457763672,28.329999923706055,445300.0,27.609134674072266
2018-03-20,28.399999618530273,27.790000915527344,28.290000915527344,27.84000015258789,192200.0,27.13159942626953
2018-03-21,28.209999084472656,27.68000030517578,27.8700008392334,28.040000915527344,202100.0,27.326513290405273
2018-03-22,27.8700008392334,27.200000762939453,27.770000457763672,27.350000381469727,320000.0,26.654069900512695
2018-03-23,27.610000610351562,26.799999237060547,27.450000762939453,26.809999465942383,462500.0,26.127811431884766
2018-03-26,27.649999618530273,27.020000457763672,27.190000534057617,27.6299991607666,222600.0,26.926944732666016
2018-03-27,27.809999465942383,26.579999923706055,27.75,26.700000762939453,310900.0,26.020610809326172
2018-03-28,27.389999389648438,26.649999618530273,26.90999984741211,27.079999923706055,349400.0,26.390939712524414
2018-03-29,27.540000915527344,26.899999618530273,27.229999542236328,27.229999542236328,190600.0,26.53712272644043
2018-04-02,27.360000610351562,26.40999984741211,27.059999465942383,26.5,294200.0,25.825698852539062
2018-04-03,27.1299991607666,26.489999771118164,26.59000015258789,27.1299991607666,228500.0,26.439668655395508
2018-04-04,27.280000686645508,26.670000076293945,26.670000076293945,27.100000381469727,148800.0,26.410430908203125
2018-04-05,27.614999771118164,26.979999542236328,27.3799991607666,27.229999542236328,178200.0,26.53712272644043
2018-04-06,27.6200008392334,26.459999084472656,27.149999618530273,26.729999542236328,354900.0,26.049846649169922
2018-04-09,27.459999084472656,26.71299934387207,26.969999313354492,26.899999618530273,208500.0,26.21552085876465
2018-04-10,27.530000686645508,27.0,27.299999237060547,27.450000762939453,467000.0,26.75152587890625
2018-04-11,27.600000381469727,27.010000228881836,27.170000076293945,27.549999237060547,248600.0,26.848981857299805
2018-04-12,28.229999542236328,27.639999389648438,27.639999389648438,28.049999237060547,506600.0,27.336257934570312
2018-04-13,28.350000381469727,27.6299991607666,28.350000381469727,27.729999542236328,468200.0,27.02440071105957
2018-04-16,28.229999542236328,27.59000015258789,28.020000457763672,28.18000030517578,290700.0,27.462949752807617
2018-04-17,28.334999084472656,27.760000228881836,28.309999465942383,27.979999542236328,211000.0,27.26803970336914
2018-04-18,28.270000457763672,27.3700008392334,28.1200008392334,27.3799991607666,196800.0,26.683305740356445
2018-04-19,28.149999618530273,27.459999084472656,27.459999084472656,27.8799991607666,140100.0,27.170583724975586
2018-04-20,28.259000778198242,27.780000686645508,27.860000610351562,28.239999771118164,144400.0,27.521421432495117
2018-04-23,28.639999389648438,28.059999465942383,28.260000228881836,28.610000610351562,129600.0,27.882009506225586
2018-04-24,29.399999618530273,28.559999465942383,28.770000457763672,28.950000762939453,265000.0,28.21335792541504
2018-04-25,29.06999969482422,28.530000686645508,28.84000015258789,28.799999237060547,283800.0,28.06717300415039
2018-04-26,29.56999969482422,28.489999771118164,29.059999465942383,29.350000381469727,510500.0,28.603179931640625
2018-04-27,30.5,29.5,30.229999542236328,29.850000381469727,809500.0,29.090456008911133
2018-04-30,30.170000076293945,29.1299991607666,30.0,29.229999542236328,345300.0,28.48623275756836
2018-05-01,29.950000762939453,28.860000610351562,29.260000228881836,29.8799991607666,369400.0,29.119691848754883
2018-05-02,30.3700008392334,29.65999984741211,29.899999618530273,29.739999771118164,525900.0,28.98325538635254
2018-05-03,29.940000534057617,28.850000381469727,29.600000381469727,28.959999084472656,889900.0,28.223102569580078
2018-05-04,29.725000381469727,28.540000915527344,28.75,29.579999923706055,228800.0,28.827327728271484
2018-05-07,29.81999969482422,29.3799991607666,29.729999542236328,29.610000610351562,225100.0,28.856565475463867
2018-05-08,29.959999084472656,29.450000762939453,29.59000015258789,29.889999389648438,372600.0,29.129438400268555
2018-05-09,30.399999618530273,29.559999465942383,29.950000762939453,30.1200008392334,306200.0,29.353586196899414
2018-05-10,30.309999465942383,29.8700008392334,30.110000610351562,30.059999465942383,244700.0,29.29511260986328
2018-05-11,30.3799991607666,30.049999237060547,30.100000381469727,30.229999542236328,155800.0,29.46078872680664
2018-05-14,29.899999618530273,29.15999984741211,29.899999618530273,29.299999237060547,2239000.0,28.55445098876953
2018-05-15,29.940000534057617,29.229999542236328,29.31999969482422,29.3700008392334,1218600.0,28.62267303466797
2018-05-16,29.579999923706055,29.010000228881836,29.3799991607666,29.3799991607666,1419600.0,28.632415771484375
2018-05-17,29.520000457763672,29.200000762939453,29.43000030517578,29.31999969482422,645100.0,28.573942184448242
2018-05-18,29.530000686645508,29.020000457763672,29.43000030517578,29.059999465942383,600000.0,28.320558547973633
2018-05-21,29.219999313354492,28.809999465942383,29.100000381469727,29.049999237060547,745900.0,28.31081199645996
2018-05-22,29.3700008392334,27.799999237060547,27.799999237060547,29.139999389648438,1887200.0,28.39851951599121
2018-05-23,30.049999237060547,28.90999984741211,29.030000686645508,29.450000762939453,12353100.0,28.70063591003418
2018-05-24,30.104999542236328,29.280000686645508,29.350000381469727,29.700000762939453,3987500.0,28.94427490234375
2018-05-25,30.260000228881836,29.459999084472656,29.530000686645508,30.040000915527344,4367600.0,29.27562141418457
2018-05-29,29.969999313354492,29.110000610351562,29.8700008392334,29.200000762939453,1927800.0,28.45699691772461
2018-05-30,29.649999618530273,29.0,29.399999618530273,29.139999389648438,1698800.0,28.39851951599121
2018-05-31,29.549999237060547,29.020000457763672,29.110000610351562,29.209999084472656,1641700.0,28.589378356933594
2018-06-01,29.690000534057617,29.165000915527344,29.389999389648438,29.350000381469727,2021000.0,28.72640609741211
2018-06-04,29.850000381469727,29.149999618530273,29.559999465942383,29.850000381469727,1357100.0,29.215782165527344
2018-06-05,30.0,29.3799991607666,29.899999618530273,29.829999923706055,1297500.0,29.19620704650879
2018-06-06,30.200000762939453,29.80500030517578,29.850000381469727,30.06999969482422,1224600.0,29.431106567382812
2018-06-07,30.469999313354492,30.059999465942383,30.059999465942383,30.350000381469727,1182700.0,29.70516014099121
2018-06-08,31.441999435424805,30.270000457763672,30.31999969482422,31.239999771118164,2096800.0,30.57624626159668
2018-06-11,31.3799991607666,30.34000015258789,31.25,30.350000381469727,1161300.0,29.70516014099121
2018-06-12,30.709999084472656,29.975000381469727,30.530000686645508,30.139999389648438,1121100.0,29.499618530273438
2018-06-13,30.500999450683594,30.010000228881836,30.170000076293945,30.139999389648438,1136600.0,29.499618530273438
2018-06-14,30.139999389648438,29.5049991607666,30.139999389648438,29.8700008392334,794600.0,29.2353572845459
2018-06-15,30.299999237060547,29.799999237060547,30.299999237060547,30.0,1787100.0,29.362594604492188
2018-06-18,30.1200008392334,29.530000686645508,29.75,30.049999237060547,637100.0,29.411531448364258
2018-06-19,30.309999465942383,29.709999084472656,29.90999984741211,30.209999084472656,679500.0,29.568132400512695
2018-06-20,30.469999313354492,30.110000610351562,30.360000610351562,30.280000686645508,660800.0,29.636646270751953
2018-06-21,30.709999084472656,29.950000762939453,30.229999542236328,30.100000381469727,1041800.0,29.46047019958496
2018-06-22,30.239999771118164,29.709999084472656,30.229999542236328,30.049999237060547,1460000.0,29.411531448364258
2018-06-25,30.100000381469727,29.2450008392334,29.989999771118164,29.5,1115900.0,28.873218536376953
2018-06-26,29.670000076293945,28.989999771118164,29.469999313354492,29.559999465942383,962500.0,28.931943893432617
2018-06-27,29.690000534057617,28.610000610351562,29.639999389648438,28.65999984741211,1087700.0,28.05106544494629
2018-06-28,28.84000015258789,28.46500015258789,28.690000534057617,28.68000030517578,812800.0,28.070640563964844
2018-06-29,29.170000076293945,28.6299991607666,29.020000457763672,28.8700008392334,1070500.0,28.25660514831543
2018-07-02,28.989999771118164,28.56999969482422,28.709999084472656,28.75,767100.0,28.13915252685547
2018-07-03,29.049999237060547,28.610000610351562,28.75,28.670000076293945,377900.0,28.06085205078125
2018-07-05,29.010000228881836,28.56999969482422,28.809999465942383,28.729999542236328,559000.0,28.119577407836914
2018-07-06,29.020000457763672,28.489999771118164,28.670000076293945,28.81999969482422,423300.0,28.207666397094727
2018-07-09,29.6299991607666,28.959999084472656,28.959999084472656,29.59000015258789,704700.0,28.9613037109375
2018-07-10,29.969999313354492,29.040000915527344,29.760000228881836,29.440000534057617,679100.0,28.814491271972656
2018-07-11,29.489999771118164,29.1200008392334,29.200000762939453,29.170000076293945,797800.0,28.550228118896484
2018-07-12,29.40999984741211,28.485000610351562,29.40999984741211,28.93000030517578,841700.0,28.31532859802246
2018-07-13,29.010000228881836,28.499000549316406,28.729999542236328,28.670000076293945,724300.0,28.06085205078125
2018-07-16,29.18000030517578,28.770000457763672,28.84000015258789,29.06999969482422,573600.0,28.45235252380371
2018-07-17,29.44499969482422,28.959999084472656,28.959999084472656,29.219999313354492,813500.0,28.599164962768555
2018-07-18,29.649999618530273,29.139999389648438,29.139999389648438,29.6200008392334,864600.0,28.99066925048828
2018-07-19,29.790000915527344,29.06999969482422,29.479999542236328,29.540000915527344,845800.0,28.91236686706543
2018-07-20,29.889999389648438,29.360000610351562,29.6299991607666,29.559999465942383,790300.0,28.931943893432617
2018-07-23,29.700000762939453,28.520000457763672,29.31999969482422,28.719999313354492,2413200.0,28.10978889465332
2018-07-24,29.100000381469727,28.325000762939453,28.649999618530273,28.420000076293945,2091700.0,27.816164016723633
2018-07-25,28.700000762939453,28.209999084472656,28.260000228881836,28.31999969482422,6393500.0,27.71828842163086
2018-07-26,28.600000381469727,28.125,28.329999923706055,28.190000534057617,1850200.0,27.59105110168457
2018-07-27,28.235000610351562,27.600000381469727,28.209999084472656,27.889999389648438,2839800.0,27.29742431640625
2018-07-30,28.1200008392334,27.729999542236328,27.8700008392334,27.770000457763672,1372800.0,27.179975509643555
2018-07-31,27.950000762939453,27.170000076293945,27.84000015258789,27.229999542236328,2577700.0,26.65144920349121
2018-08-01,27.610000610351562,27.239999771118164,27.280000686645508,27.479999542236328,1392400.0,26.896137237548828
2018-08-02,28.049999237060547,27.350000381469727,27.350000381469727,27.959999084472656,1331900.0,27.365938186645508
2018-08-03,28.200000762939453,27.59000015258789,28.06999969482422,27.649999618530273,1841200.0,27.062524795532227
2018-08-06,27.674999237060547,27.270000457763672,27.600000381469727,27.350000381469727,847200.0,26.768898010253906
2018-08-07,27.981000900268555,27.420000076293945,27.469999313354492,27.65999984741211,1339300.0,27.07231330871582
2018-08-08,28.110000610351562,27.524999618530273,27.65999984741211,28.09000015258789,862300.0,27.493175506591797
2018-08-09,28.280000686645508,27.969999313354492,28.020000457763672,28.229999542236328,1152100.0,27.63020133972168
2018-08-10,28.200000762939453,27.81999969482422,27.950000762939453,28.010000228881836,517500.0,27.41487693786621
2018-08-13,28.1200008392334,27.75,28.010000228881836,27.8799991607666,694200.0,27.28763771057129
2018-08-14,28.40999984741211,27.899999618530273,27.899999618530273,28.06999969482422,729400.0,27.473600387573242
2018-08-15,28.170000076293945,27.350000381469727,27.90999984741211,27.43000030517578,1097400.0,26.847200393676758
2018-08-16,28.110000610351562,27.520000457763672,27.540000915527344,28.049999237060547,781900.0,27.454025268554688
2018-08-17,28.950000762939453,27.829999923706055,28.040000915527344,28.459999084472656,667500.0,27.855314254760742
2018-08-20,28.59000015258789,28.020000457763672,28.459999084472656,28.25,571200.0,27.649776458740234
2018-08-21,28.889999389648438,28.110000610351562,28.43000030517578,28.709999084472656,1144100.0,28.100004196166992
2018-08-22,28.940000534057617,28.709999084472656,28.709999084472656,28.850000381469727,670600.0,28.237028121948242
2018-08-23,28.899999618530273,28.40999984741211,28.799999237060547,28.75,580500.0,28.13915252685547
2018-08-24,28.899999618530273,28.139999389648438,28.790000915527344,28.43000030517578,1001400.0,27.825952529907227
2018-08-27,28.760000228881836,28.3700008392334,28.5,28.399999618530273,976600.0,27.796588897705078
2018-08-28,28.469999313354492,28.059999465942383,28.459999084472656,28.229999542236328,480400.0,27.63020133972168
2018-08-29,28.299999237060547,27.850000381469727,28.299999237060547,27.93000030517578,651600.0,27.336576461791992
2018-08-30,28.270000457763672,27.59000015258789,27.899999618530273,28.06999969482422,816200.0,27.473600387573242
2018-08-31,28.25,27.940000534057617,28.059999465942383,28.25,1030700.0,27.798324584960938
2018-09-04,28.520000457763672,28.0,28.170000076293945,28.459999084472656,820900.0,28.004966735839844
2018-09-05,28.625,27.989999771118164,28.420000076293945,28.079999923706055,880100.0,27.63104248046875
2018-09-06,28.329999923706055,27.770000457763672,28.1299991607666,28.1299991607666,972900.0,27.68024253845215
2018-09-07,28.399999618530273,27.84000015258789,28.079999923706055,28.149999618530273,1566300.0,27.699922561645508
2018-09-10,28.270000457763672,27.75,28.1200008392334,27.8700008392334,821800.0,27.424400329589844
2018-09-11,27.920000076293945,27.56999969482422,27.81999969482422,27.690000534057617,751200.0,27.247278213500977
2018-09-12,27.639999389648438,27.0,27.530000686645508,27.020000457763672,4479500.0,26.58799171447754
2018-09-13,27.299999237060547,26.8700008392334,27.190000534057617,27.059999465942383,1970600.0,26.627351760864258
2018-09-14,27.469999313354492,27.030000686645508,27.059999465942383,27.309999465942383,1143800.0,26.873353958129883
2018-09-17,27.420000076293945,27.020000457763672,27.239999771118164,27.049999237060547,948100.0,26.617509841918945
2018-09-18,27.0,26.559999465942383,26.940000534057617,26.760000228881836,1369200.0,26.332149505615234
2018-09-19,27.25,26.690000534057617,26.799999237060547,26.829999923706055,1438800.0,26.401029586791992
2018-09-20,27.68000030517578,27.0,27.030000686645508,27.670000076293945,1466700.0,27.227598190307617
2018-09-21,27.75,27.1299991607666,27.6200008392334,27.229999542236328,5939100.0,26.794633865356445
2018-09-24,27.334999084472656,26.309999465942383,27.25,26.540000915527344,1613700.0,26.115665435791016
2018-09-25,26.690000534057617,26.360000610351562,26.59000015258789,26.520000457763672,753100.0,26.095985412597656
2018-09-26,26.639999389648438,26.065000534057617,26.549999237060547,26.100000381469727,977800.0,25.682701110839844
2018-09-27,26.299999237060547,25.860000610351562,26.09000015258789,26.149999618530273,1249500.0,25.731901168823242
2018-09-28,26.450000762939453,25.979999542236328,26.079999923706055,26.1200008392334,1830600.0,25.702381134033203
2018-10-01,26.479999542236328,25.90999984741211,26.260000228881836,26.0,1051300.0,25.584299087524414
2018-10-02,26.149999618530273,25.450000762939453,26.010000228881836,25.6200008392334,831600.0,25.21037483215332
2018-10-03,26.34000015258789,25.479999542236328,25.68000030517578,26.270000457763672,1002900.0,25.8499813079834
2018-10-04,26.549999237060547,25.920000076293945,26.239999771118164,26.239999771118164,1565600.0,25.82046127319336
2018-10-05,26.360000610351562,25.56999969482422,26.309999465942383,25.75,716700.0,25.33829689025879
2018-10-08,26.030000686645508,25.5,25.670000076293945,25.90999984741211,950100.0,25.495738983154297
2018-10-09,26.010000228881836,25.434999465942383,25.829999923706055,25.489999771118164,689200.0,25.08245277404785
2018-10-10,25.709999084472656,24.84000015258789,25.489999771118164,24.860000610351562,931000.0,24.462528228759766
2018-10-11,25.100000381469727,24.389999389648438,24.760000228881836,24.40999984741211,1291400.0,24.01972198486328
2018-10-12,24.729999542236328,23.06999969482422,24.729999542236328,23.709999084472656,1334700.0,23.33091163635254
2018-10-15,24.399999618530273,23.6200008392334,23.670000076293945,24.1299991607666,1392000.0,23.744197845458984
2018-10-16,24.420000076293945,23.65999984741211,24.290000915527344,24.020000457763672,988700.0,23.635955810546875
2018-10-17,24.190000534057617,23.540000915527344,23.920000076293945,23.989999771118164,1161000.0,23.606435775756836
2018-10-18,23.959999084472656,22.8700008392334,23.6200008392334,22.8799991607666,1716500.0,22.514183044433594
2018-10-19,22.780000686645508,21.90999984741211,22.780000686645508,21.959999084472656,3267600.0,21.6088924407959
2018-10-22,21.75,21.059999465942383,21.600000381469727,21.600000381469727,4186500.0,21.254648208618164
2018-10-23,22.270000457763672,21.09000015258789,21.31999969482422,21.770000457763672,2370600.0,21.42193031311035
2018-10-24,21.8799991607666,20.34000015258789,21.8700008392334,20.399999618530273,2378000.0,20.073833465576172
2018-10-25,21.260000228881836,20.459999084472656,20.610000610351562,21.049999237060547,1771400.0,20.713441848754883
2018-10-26,21.459999084472656,20.670000076293945,20.799999237060547,21.270000457763672,1961700.0,20.92992401123047
2018-10-29,21.920000076293945,21.30500030517578,21.780000686645508,21.559999465942383,1305600.0,21.215288162231445
2018-10-30,21.81999969482422,21.290000915527344,21.6299991607666,21.780000686645508,1403000.0,21.431772232055664
2018-10-31,22.34000015258789,21.84000015258789,21.93000030517578,22.059999465942383,1454400.0,21.707294464111328
2018-11-01,22.389999389648438,21.950000762939453,22.110000610351562,22.059999465942383,1372000.0,21.707294464111328
2018-11-02,22.420000076293945,21.420000076293945,22.280000686645508,21.459999084472656,1107800.0,21.116886138916016
2018-11-05,21.6299991607666,21.270000457763672,21.520000457763672,21.489999771118164,1938900.0,21.146406173706055
2018-11-06,22.139999389648438,21.290000915527344,21.549999237060547,22.100000381469727,1211500.0,21.746654510498047
2018-11-07,22.209999084472656,21.350000381469727,22.100000381469727,21.690000534057617,1253600.0,21.34320831298828
2018-11-08,22.170000076293945,21.510000228881836,21.639999389648438,21.950000762939453,1194900.0,21.59905242919922
2018-11-09,22.31999969482422,21.81999969482422,22.110000610351562,22.049999237060547,1119000.0,21.697452545166016
2018-11-12,22.149999618530273,21.709999084472656,21.989999771118164,21.719999313354492,1146700.0,21.37272834777832
2018-11-13,22.010000228881836,21.200000762939453,21.68000030517578,21.219999313354492,1361000.0,20.88072395324707
2018-11-14,21.440000534057617,20.59000015258789,21.290000915527344,20.889999389648438,1404200.0,20.555999755859375
2018-11-15,21.450000762939453,20.6200008392334,20.75,21.260000228881836,817500.0,20.920085906982422
2018-11-16,21.329999923706055,20.969999313354492,21.079999923706055,21.170000076293945,800100.0,20.831523895263672
2018-11-19,21.325000762939453,20.479999542236328,21.219999313354492,20.770000457763672,1350300.0,20.43791961669922
2018-11-20,21.110000610351562,20.25,20.559999465942383,20.649999618530273,1683300.0,20.31983757019043
2018-11-21,21.0,20.290000915527344,20.690000534057617,20.399999618530273,812000.0,20.073833465576172
2018-11-23,20.549999237060547,20.231000900268555,20.309999465942383,20.329999923706055,230100.0,20.004953384399414
2018-11-26,20.940000534057617,20.389999389648438,20.600000381469727,20.84000015258789,1251000.0,20.506799697875977
2018-11-27,20.8700008392334,20.260000228881836,20.700000762939453,20.450000762939453,795100.0,20.123035430908203
2018-11-28,20.93000030517578,20.110000610351562,20.489999771118164,20.770000457763672,1074200.0,20.43791961669922
2018-11-29,20.760000228881836,20.09000015258789,20.6200008392334,20.479999542236328,1144900.0,20.152555465698242
2018-11-30,20.6200008392334,20.239999771118164,20.309999465942383,20.510000228881836,1352900.0,20.330984115600586
2018-12-03,20.809999465942383,20.229999542236328,20.610000610351562,20.790000915527344,1161200.0,20.60854148864746
2018-12-04,20.760000228881836,19.43000030517578,20.719999313354492,19.690000534057617,2375100.0,19.518142700195312
2018-12-06,19.639999389648438,18.829999923706055,19.31999969482422,19.59000015258789,2886300.0,19.41901397705078
2018-12-07,20.09000015258789,19.270000457763672,19.559999465942383,19.649999618530273,1435000.0,19.478490829467773
2018-12-10,19.940000534057617,19.270000457763672,19.739999771118164,19.43000030517578,1453000.0,19.26041030883789
2018-12-11,19.950000762939453,19.209999084472656,19.530000686645508,19.34000015258789,1392100.0,19.17119598388672
2018-12-12,20.149999618530273,19.43000030517578,19.6299991607666,19.760000228881836,2155900.0,19.5875301361084
2018-12-13,19.850000381469727,19.100000381469727,19.639999389648438,19.170000076293945,1357800.0,19.0026798248291
2018-12-14,19.520000457763672,18.81999969482422,19.0,18.84000015258789,1859700.0,18.675559997558594
2018-12-17,18.90999984741211,18.125,18.729999542236328,18.200000762939453,1665200.0,18.041147232055664
2018-12-18,18.450000762939453,17.704999923706055,18.209999084472656,17.979999542236328,1413400.0,17.82306671142578
2018-12-19,18.329999923706055,17.360000610351562,17.979999542236328,17.510000228881836,1652900.0,17.35717010498047
2018-12-20,18.09000015258789,17.360000610351562,17.420000076293945,17.799999237060547,2818200.0,17.644638061523438
2018-12-21,17.8799991607666,17.110000610351562,17.579999923706055,17.200000762939453,2956300.0,17.049875259399414
2018-12-24,17.0,16.219999313354492,16.889999389648438,16.290000915527344,1285800.0,16.147817611694336
2018-12-26,17.31999969482422,16.1299991607666,16.290000915527344,17.239999771118164,3694700.0,17.08952522277832
2018-12-27,17.170000076293945,16.440000534057617,16.979999542236328,17.0,1624500.0,16.851619720458984
2018-12-28,17.239999771118164,16.81999969482422,16.979999542236328,16.8700008392334,1085400.0,16.722755432128906
2018-12-31,17.1200008392334,16.399999618530273,16.989999771118164,16.780000686645508,3251300.0,16.633541107177734
2019-01-02,17.010000228881836,16.5,16.75,16.850000381469727,1728700.0,16.702930450439453
2019-01-03,17.014999389648438,16.190000534057617,16.709999084472656,16.40999984741211,1728200.0,16.266769409179688
2019-01-04,17.06999969482422,16.6299991607666,16.6299991607666,16.850000381469727,1971300.0,16.702930450439453
2019-01-07,17.114999771118164,16.540000915527344,16.780000686645508,16.860000610351562,2765200.0,16.71284294128418
2019-01-08,17.18000030517578,16.270000457763672,16.899999618530273,17.15999984741211,1430400.0,17.010223388671875
2019-01-09,17.389999389648438,17.049999237060547,17.170000076293945,17.299999237060547,1582300.0,17.149002075195312
2019-01-10,17.43000030517578,17.059999465942383,17.209999084472656,17.3700008392334,1283200.0,17.21839141845703
2019-01-11,17.56999969482422,17.110000610351562,17.190000534057617,17.420000076293945,1567600.0,17.267953872680664
2019-01-14,17.860000610351562,17.184999465942383,17.219999313354492,17.56999969482422,1649000.0,17.416645050048828
2019-01-15,17.670000076293945,17.350000381469727,17.59000015258789,17.59000015258789,1278600.0,17.436471939086914
2019-01-16,18.5,17.670000076293945,17.670000076293945,18.43000030517578,1930100.0,18.269140243530273
2019-01-17,18.450000762939453,18.09000015258789,18.399999618530273,18.229999542236328,1421000.0,18.070884704589844
2019-01-18,19.010000228881836,18.1299991607666,18.34000015258789,18.940000534057617,3447300.0,18.774688720703125
2019-01-22,18.947999954223633,18.399999618530273,18.729999542236328,18.65999984741211,1224900.0,18.49713134765625
2019-01-23,18.860000610351562,18.459999084472656,18.690000534057617,18.690000534057617,1487300.0,18.526870727539062
2019-01-24,18.799999237060547,18.139999389648438,18.549999237060547,18.420000076293945,2062600.0,18.259225845336914
2019-01-25,18.950000762939453,18.530000686645508,18.59000015258789,18.850000381469727,2026100.0,18.685474395751953
2019-01-28,19.170000076293945,17.950000762939453,18.219999313354492,19.1299991607666,2564600.0,18.963027954101562
2019-01-29,19.18000030517578,18.8700008392334,19.18000030517578,18.899999618530273,1534000.0,18.735036849975586
2019-01-30,19.350000381469727,18.81999969482422,19.030000686645508,19.149999618530273,1423600.0,18.98285484313965
2019-01-31,19.139999389648438,18.3700008392334,19.049999237060547,18.75,1966300.0,18.586345672607422
2019-02-01,19.094999313354492,18.729999542236328,18.770000457763672,18.959999084472656,1151300.0,18.794511795043945
2019-02-04,19.3700008392334,18.889999389648438,18.959999084472656,19.260000228881836,1611800.0,19.091894149780273
2019-02-05,19.389999389648438,19.059999465942383,19.329999923706055,19.229999542236328,1319600.0,19.062156677246094
2019-02-06,19.5,19.1200008392334,19.170000076293945,19.420000076293945,1608300.0,19.250497817993164
2019-02-07,19.860000610351562,19.329999923706055,19.5,19.760000228881836,1849200.0,19.5875301361084
2019-02-08,19.65999984741211,19.079999923706055,19.6200008392334,19.270000457763672,1057200.0,19.101808547973633
2019-02-11,19.469999313354492,19.200000762939453,19.31999969482422,19.43000030517578,1418400.0,19.26041030883789
2019-02-12,19.8799991607666,19.540000915527344,19.600000381469727,19.780000686645508,913700.0,19.607357025146484
2019-02-13,20.059999465942383,19.729999542236328,19.799999237060547,20.010000228881836,823300.0,19.83534812927246
2019-02-14,19.895000457763672,19.579999923706055,19.809999465942383,19.75,971100.0,19.577617645263672
2019-02-15,20.354999542236328,19.979999542236328,19.979999542236328,20.260000228881836,864900.0,20.083166122436523
2019-02-19,20.34000015258789,20.010000228881836,20.139999389648438,20.170000076293945,914900.0,19.99395179748535
2019-02-20,20.389999389648438,20.045000076293945,20.18000030517578,20.1299991607666,1812100.0,19.954299926757812
2019-02-21,20.19099998474121,19.90999984741211,20.149999618530273,20.0,908900.0,19.825435638427734
2019-02-22,20.200000762939453,19.940000534057617,20.010000228881836,20.06999969482422,997600.0,19.894824981689453
2019-02-25,20.5,20.110000610351562,20.290000915527344,20.170000076293945,976600.0,19.99395179748535
2019-02-26,20.260000228881836,19.815000534057617,20.06999969482422,19.829999923706055,684500.0,19.656919479370117
2019-02-27,20.15999984741211,19.81999969482422,19.81999969482422,20.049999237060547,877300.0,19.874998092651367
2019-02-28,20.100000381469727,19.760000228881836,19.850000381469727,19.989999771118164,1174700.0,19.989999771118164
2019-03-01,20.309999465942383,19.850000381469727,20.049999237060547,20.15999984741211,1014200.0,20.15999984741211
2019-03-04,20.405000686645508,19.979999542236328,20.139999389648438,20.030000686645508,1312000.0,20.030000686645508
2019-03-05,20.15999984741211,19.700000762939453,19.969999313354492,20.100000381469727,1625400.0,20.100000381469727
2019-03-06,20.200000762939453,19.6200008392334,20.06999969482422,19.639999389648438,973600.0,19.639999389648438
2019-03-07,19.584999084472656,19.045000076293945,19.549999237060547,19.25,1770100.0,19.25
2019-03-08,19.389999389648438,19.079999923706055,19.139999389648438,19.350000381469727,1918400.0,19.350000381469727
2019-03-11,19.700000762939453,19.280000686645508,19.3799991607666,19.6299991607666,3325500.0,19.6299991607666
2019-03-12,19.84000015258789,19.5,19.709999084472656,19.700000762939453,1299400.0,19.700000762939453
2019-03-13,20.010000228881836,19.690000534057617,19.829999923706055,19.93000030517578,1445500.0,19.93000030517578
2019-03-14,20.020000457763672,19.639999389648438,19.90999984741211,19.719999313354492,898700.0,19.719999313354492
2019-03-15,19.989999771118164,19.579999923706055,19.700000762939453,19.729999542236328,5398200.0,19.729999542236328
2019-03-18,20.25,19.729999542236328,19.760000228881836,20.239999771118164,1180200.0,20.239999771118164
2019-03-19,20.729999542236328,20.170000076293945,20.700000762939453,20.260000228881836,1791900.0,20.260000228881836
2019-03-20,20.31999969482422,19.3799991607666,20.229999542236328,19.399999618530273,2634400.0,19.399999618530273
2019-03-21,19.309999465942383,18.68000030517578,19.270000457763672,19.06999969482422,2315100.0,19.06999969482422
2019-03-22,19.0,17.549999237060547,18.93000030517578,17.770000457763672,2981700.0,17.770000457763672
2019-03-25,18.239999771118164,17.579999923706055,17.780000686645508,17.8799991607666,1127600.0,17.8799991607666
2019-03-26,18.399999618530273,17.8799991607666,17.8799991607666,18.3700008392334,1358200.0,18.3700008392334
2019-03-27,18.520000457763672,18.18000030517578,18.329999923706055,18.290000915527344,1362300.0,18.290000915527344
2019-03-28,18.6299991607666,18.18000030517578,18.309999465942383,18.6200008392334,1062100.0,18.6200008392334
2019-03-29,18.8799991607666,18.489999771118164,18.81999969482422,18.549999237060547,1081700.0,18.549999237060547
2019-04-01,19.350000381469727,18.75,18.780000686645508,19.299999237060547,1223200.0,19.299999237060547
2019-04-02,19.3799991607666,19.030000686645508,19.239999771118164,19.139999389648438,613300.0,19.139999389648438
2019-04-03,19.540000915527344,19.18000030517578,19.389999389648438,19.5,1351000.0,19.5
2019-04-04,20.229999542236328,19.440000534057617,19.489999771118164,20.200000762939453,1986800.0,20.200000762939453
2019-04-05,20.459999084472656,20.0049991607666,20.190000534057617,20.40999984741211,1213600.0,20.40999984741211
2019-04-08,20.389999389648438,20.010000228881836,20.299999237060547,20.170000076293945,1745100.0,20.170000076293945
2019-04-09,20.149999618530273,19.700000762939453,20.149999618530273,19.84000015258789,1395600.0,19.84000015258789
2019-04-10,19.920000076293945,19.427000045776367,19.860000610351562,19.81999969482422,1136600.0,19.81999969482422
2019-04-11,20.149999618530273,19.81999969482422,19.899999618530273,20.079999923706055,854600.0,20.079999923706055
2019-04-12,20.770000457763672,20.06999969482422,20.389999389648438,20.65999984741211,1268300.0,20.65999984741211
2019-04-15,20.799999237060547,20.139999389648438,20.6200008392334,20.239999771118164,548100.0,20.239999771118164
2019-04-16,20.729999542236328,20.106000900268555,20.290000915527344,20.719999313354492,694900.0,20.719999313354492
2019-04-17,21.0,20.59000015258789,20.770000457763672,20.979999542236328,788400.0,20.979999542236328
2019-04-18,21.040000915527344,20.459999084472656,20.850000381469727,20.479999542236328,986100.0,20.479999542236328
2019-04-22,20.479999542236328,20.1299991607666,20.450000762939453,20.239999771118164,552800.0,20.239999771118164
2019-04-23,21.049999237060547,20.219999313354492,20.219999313354492,20.989999771118164,926500.0,20.989999771118164
2019-04-24,21.139999389648438,20.700000762939453,20.8799991607666,21.049999237060547,748200.0,21.049999237060547
2019-04-25,21.165000915527344,20.56999969482422,20.93000030517578,20.959999084472656,1062300.0,20.959999084472656
2019-04-26,21.450000762939453,20.854999542236328,20.950000762939453,21.399999618530273,1171300.0,21.399999618530273
2019-04-29,22.700000762939453,21.81999969482422,22.010000228881836,22.450000762939453,2244700.0,22.450000762939453
2019-04-30,23.219999313354492,22.530000686645508,22.649999618530273,22.75,1894800.0,22.75
2019-05-01,23.040000915527344,22.290000915527344,22.84000015258789,22.389999389648438,1930500.0,22.389999389648438
2019-05-02,22.950000762939453,22.360000610351562,22.3799991607666,22.530000686645508,1489000.0,22.530000686645508
2019-05-03,23.075000762939453,22.5,22.670000076293945,23.059999465942383,2391500.0,23.059999465942383
2019-05-06,23.209999084472656,22.549999237060547,22.59000015258789,22.920000076293945,1493600.0,22.920000076293945
2019-05-07,22.780000686645508,22.2450008392334,22.59000015258789,22.469999313354492,1062300.0,22.469999313354492
2019-05-08,22.610000610351562,22.020000457763672,22.469999313354492,22.1200008392334,1208200.0,22.1200008392334
2019-05-09,22.18000030517578,21.579999923706055,21.969999313354492,21.979999542236328,941000.0,21.979999542236328
2019-05-10,22.049999237060547,21.600000381469727,21.780000686645508,22.010000228881836,866900.0,22.010000228881836
2019-05-13,21.597000122070312,20.68000030517578,21.510000228881836,20.739999771118164,1688000.0,20.739999771118164
2019-05-14,21.5,20.690000534057617,20.8700008392334,21.280000686645508,1076500.0,21.280000686645508
2019-05-15,21.190000534057617,20.440000534057617,20.969999313354492,21.110000610351562,1233800.0,21.110000610351562
2019-05-16,21.56999969482422,21.190000534057617,21.229999542236328,21.299999237060547,856500.0,21.299999237060547
2019-05-17,21.40999984741211,20.780000686645508,21.010000228881836,20.799999237060547,966400.0,20.799999237060547
2019-05-20,21.1299991607666,20.700000762939453,20.700000762939453,20.889999389648438,892600.0,20.889999389648438
2019-05-21,21.25,20.950000762939453,20.959999084472656,21.049999237060547,553700.0,21.049999237060547
2019-05-22,20.993999481201172,20.420000076293945,20.940000534057617,20.56999969482422,975800.0,20.56999969482422
2019-05-23,20.299999237060547,19.875,20.290000915527344,20.1299991607666,1202800.0,20.1299991607666
2019-05-24,20.329999923706055,20.1200008392334,20.280000686645508,20.329999923706055,822000.0,20.329999923706055
