Date,High,Low,Open,Close,Volume,Adj Close
2017-06-01,25.59000015258789,25.59000015258789,25.59000015258789,25.59000015258789,0,25.59000015258789
2017-06-02,27.864999771118164,26.690000534057617,26.809999465942383,27.049999237060547,5203000,27.049999237060547
2017-06-05,27.989999771118164,26.84000015258789,27.0,27.889999389648438,2241500,27.889999389648438
2017-06-06,29.469999313354492,27.520000457763672,27.889999389648438,29.139999389648438,3271400,29.139999389648438
2017-06-07,29.325000762939453,27.079999923706055,29.139999389648438,27.149999618530273,4820300,27.149999618530273
2017-06-08,27.200000762939453,25.350000381469727,26.8700008392334,25.809999465942383,6762200,25.809999465942383
2017-06-09,26.200000762939453,25.3700008392334,25.739999771118164,25.809999465942383,3119100,25.809999465942383
2017-06-12,26.450000762939453,25.440000534057617,25.579999923706055,25.940000534057617,2198600,25.940000534057617
2017-06-13,26.219999313354492,25.530000686645508,25.75,25.8700008392334,1954500,25.8700008392334
2017-06-14,26.020000457763672,25.510000228881836,25.799999237060547,25.59000015258789,1361300,25.59000015258789
2017-06-15,25.610000610351562,25.18000030517578,25.440000534057617,25.34000015258789,1328400,25.34000015258789
2017-06-16,26.200000762939453,25.290000915527344,25.34000015258789,26.15999984741211,2498300,26.15999984741211
2017-06-19,27.290000915527344,26.329999923706055,26.3700008392334,27.0,2568000,27.0
2017-06-20,27.239999771118164,26.739999771118164,26.75,26.899999618530273,1221200,26.899999618530273
2017-06-21,27.190000534057617,26.790000915527344,26.84000015258789,27.049999237060547,1481000,27.049999237060547
2017-06-22,27.700000762939453,27.1200008392334,27.200000762939453,27.579999923706055,1386700,27.579999923706055
2017-06-23,28.309999465942383,27.68000030517578,27.68000030517578,28.200000762939453,8111100,28.200000762939453
2017-06-26,28.350000381469727,27.954999923706055,28.219999313354492,28.209999084472656,1228600,28.209999084472656
2017-06-27,28.239999771118164,27.270000457763672,28.200000762939453,27.549999237060547,1844000,27.549999237060547
2017-06-28,27.850000381469727,27.469999313354492,27.639999389648438,27.559999465942383,1445500,27.559999465942383
2017-06-29,27.600000381469727,26.709999084472656,27.600000381469727,26.8700008392334,958800,26.8700008392334
2017-06-30,26.924999237060547,26.450000762939453,26.860000610351562,26.6299991607666,1143200,26.6299991607666
2017-07-03,27.170000076293945,26.549999237060547,26.6299991607666,27.079999923706055,336900,27.079999923706055
2017-07-05,27.209999084472656,26.860000610351562,26.959999084472656,27.040000915527344,1046900,27.040000915527344
2017-07-06,26.81999969482422,26.280000686645508,26.81999969482422,26.3799991607666,699300,26.3799991607666
2017-07-07,26.5,25.780000686645508,26.5,25.829999923706055,1514300,25.829999923706055
2017-07-10,26.1200008392334,25.5049991607666,25.6200008392334,25.950000762939453,1081300,25.950000762939453
2017-07-11,26.030000686645508,25.165000915527344,26.010000228881836,25.25,1172300,25.25
2017-07-12,25.8799991607666,24.844999313354492,25.440000534057617,25.40999984741211,1671400,25.40999984741211
2017-07-13,25.3799991607666,24.979999542236328,25.31999969482422,25.049999237060547,2319900,25.049999237060547
2017-07-14,25.350000381469727,24.010000228881836,25.100000381469727,24.1299991607666,2079300,24.1299991607666
2017-07-17,24.770000457763672,24.0,24.15999984741211,24.329999923706055,1124400,24.329999923706055
2017-07-18,24.579999923706055,23.934999465942383,24.290000915527344,23.959999084472656,1116100,23.959999084472656
2017-07-19,24.059999465942383,23.209999084472656,24.059999465942383,23.25,1882700,23.25
2017-07-20,23.510000228881836,23.100000381469727,23.43000030517578,23.1200008392334,3528300,23.1200008392334
2017-07-21,24.149999618530273,22.950000762939453,23.25,24.020000457763672,2545300,24.020000457763672
2017-07-24,24.170000076293945,23.420000076293945,24.170000076293945,23.760000228881836,1252600,23.760000228881836
2017-07-25,24.315000534057617,23.56999969482422,23.780000686645508,24.139999389648438,2062400,24.139999389648438
2017-07-26,24.940000534057617,24.030000686645508,24.219999313354492,24.760000228881836,1090600,24.760000228881836
2017-07-27,24.84000015258789,23.799999237060547,24.790000915527344,24.1299991607666,1200400,24.1299991607666
2017-07-28,24.489999771118164,23.979999542236328,23.979999542236328,24.290000915527344,720700,24.290000915527344
2017-07-31,24.584999084472656,24.079999923706055,24.31999969482422,24.299999237060547,1071000,24.299999237060547
2017-08-01,24.700000762939453,24.030000686645508,24.420000076293945,24.559999465942383,1126100,24.559999465942383
2017-08-02,24.639999389648438,24.139999389648438,24.43000030517578,24.219999313354492,3248600,24.219999313354492
2017-08-03,24.799999237060547,24.09000015258789,24.200000762939453,24.709999084472656,1606200,24.709999084472656
2017-08-04,24.65999984741211,23.920000076293945,24.65999984741211,24.6299991607666,867600,24.6299991607666
2017-08-07,24.700000762939453,24.40999984741211,24.670000076293945,24.600000381469727,1803500,24.600000381469727
2017-08-08,24.68000030517578,24.100000381469727,24.450000762939453,24.200000762939453,2449700,24.200000762939453
2017-08-09,25.219999313354492,24.079999923706055,24.100000381469727,24.649999618530273,2135500,24.649999618530273
2017-08-10,24.84000015258789,24.34000015258789,24.700000762939453,24.690000534057617,1813200,24.690000534057617
2017-08-11,24.850000381469727,24.43000030517578,24.690000534057617,24.719999313354492,2036000,24.719999313354492
2017-08-14,24.959999084472656,24.530000686645508,24.920000076293945,24.739999771118164,1862800,24.739999771118164
2017-08-15,25.399999618530273,24.649999618530273,25.149999618530273,25.239999771118164,2406400,25.239999771118164
2017-08-16,25.59000015258789,25.239999771118164,25.360000610351562,25.25,1382500,25.25
2017-08-17,25.459999084472656,24.729999542236328,25.110000610351562,24.770000457763672,1193400,24.770000457763672
2017-08-18,24.68000030517578,24.299999237060547,24.6299991607666,24.459999084472656,1024800,24.459999084472656
2017-08-21,24.479999542236328,24.06999969482422,24.479999542236328,24.170000076293945,759500,24.170000076293945
2017-08-22,24.399999618530273,24.1200008392334,24.229999542236328,24.190000534057617,904200,24.190000534057617
2017-08-23,24.290000915527344,24.100000381469727,24.190000534057617,24.190000534057617,997300,24.190000534057617
2017-08-24,24.315000534057617,24.09000015258789,24.309999465942383,24.200000762939453,1776900,24.200000762939453
2017-08-25,25.360000610351562,24.25,24.350000381469727,25.34000015258789,1158800,25.34000015258789
2017-08-28,26.299999237060547,25.280000686645508,25.280000686645508,26.190000534057617,1895900,26.190000534057617
2017-08-29,26.510000228881836,25.690000534057617,26.049999237060547,26.270000457763672,1554500,26.270000457763672
2017-08-30,26.260000228881836,25.440000534057617,26.200000762939453,25.920000076293945,1424400,25.920000076293945
2017-08-31,26.170000076293945,25.68000030517578,25.90999984741211,25.860000610351562,907300,25.860000610351562
2017-09-01,26.719999313354492,25.860000610351562,25.899999618530273,26.309999465942383,646500,26.309999465942383
2017-09-05,26.649999618530273,26.309999465942383,26.309999465942383,26.59000015258789,1062600,26.59000015258789
2017-09-06,27.399999618530273,26.59000015258789,26.59000015258789,27.200000762939453,1522800,27.200000762939453
2017-09-07,27.6299991607666,26.920000076293945,27.1299991607666,27.420000076293945,790700,27.420000076293945
2017-09-08,27.399999618530273,26.770000457763672,27.3799991607666,26.850000381469727,927500,26.850000381469727
2017-09-11,27.239999771118164,26.81999969482422,27.010000228881836,27.0,572300,27.0
2017-09-12,27.18000030517578,26.75,27.079999923706055,26.799999237060547,824800,26.799999237060547
2017-09-13,27.18000030517578,26.770000457763672,26.799999237060547,27.020000457763672,888900,27.020000457763672
2017-09-14,27.06999969482422,26.56999969482422,26.90999984741211,26.700000762939453,656300,26.700000762939453
2017-09-15,26.729999542236328,26.110000610351562,26.549999237060547,26.1299991607666,1154500,26.1299991607666
2017-09-18,26.389999389648438,25.920000076293945,26.18000030517578,25.979999542236328,635000,25.979999542236328
2017-09-19,26.459999084472656,25.790000915527344,25.979999542236328,26.190000534057617,565900,26.190000534057617
2017-09-20,26.25,25.677000045776367,26.139999389648438,25.8700008392334,1053000,25.8700008392334
2017-09-21,25.809999465942383,25.290000915527344,25.770000457763672,25.549999237060547,1719900,25.549999237060547
2017-09-22,27.43000030517578,25.780000686645508,25.860000610351562,26.440000534057617,2532300,26.440000534057617
2017-09-25,26.510000228881836,25.809999465942383,26.360000610351562,25.989999771118164,690200,25.989999771118164
2017-09-26,26.790000915527344,25.8799991607666,26.0,26.65999984741211,1695500,26.65999984741211
2017-09-27,26.799999237060547,25.989999771118164,26.709999084472656,26.75,1153600,26.75
2017-09-28,26.719999313354492,26.329999923706055,26.68000030517578,26.600000381469727,997400,26.600000381469727
2017-09-29,27.299999237060547,26.489999771118164,26.670000076293945,26.610000610351562,1352800,26.610000610351562
2017-10-02,26.920000076293945,26.579999923706055,26.6299991607666,26.790000915527344,1315800,26.790000915527344
2017-10-03,27.59000015258789,26.65999984741211,26.700000762939453,27.440000534057617,1892200,27.440000534057617
2017-10-04,28.2450008392334,27.399999618530273,27.420000076293945,28.040000915527344,1545500,28.040000915527344
2017-10-05,28.739999771118164,28.007999420166016,28.170000076293945,28.649999618530273,1364100,28.649999618530273
2017-10-06,28.8799991607666,28.15999984741211,28.530000686645508,28.709999084472656,1534800,28.709999084472656
2017-10-09,28.760000228881836,27.770000457763672,28.68000030517578,27.829999923706055,959200,27.829999923706055
2017-10-10,28.479999542236328,27.450000762939453,27.93000030517578,27.520000457763672,968800,27.520000457763672
2017-10-11,27.860000610351562,27.43000030517578,27.510000228881836,27.739999771118164,481000,27.739999771118164
2017-10-12,28.219999313354492,27.350000381469727,27.8799991607666,27.420000076293945,787300,27.420000076293945
2017-10-13,27.780000686645508,27.229999542236328,27.549999237060547,27.229999542236328,840600,27.229999542236328
2017-10-16,27.514999389648438,26.84000015258789,27.239999771118164,27.09000015258789,689300,27.09000015258789
2017-10-17,26.979999542236328,26.110000610351562,26.84000015258789,26.59000015258789,1155500,26.59000015258789
2017-10-18,27.040000915527344,26.110000610351562,26.68000030517578,26.200000762939453,1188700,26.200000762939453
2017-10-19,26.299999237060547,25.690000534057617,26.06999969482422,25.709999084472656,1072100,25.709999084472656
2017-10-20,26.799999237060547,25.75,26.670000076293945,25.829999923706055,767200,25.829999923706055
2017-10-23,25.834999084472656,24.969999313354492,25.780000686645508,25.030000686645508,1126000,25.030000686645508
2017-10-24,25.149999618530273,24.56999969482422,25.020000457763672,24.600000381469727,1128500,24.600000381469727
2017-10-25,25.1299991607666,24.239999771118164,24.559999465942383,24.5,2335400,24.5
2017-10-26,25.049999237060547,24.299999237060547,24.299999237060547,24.549999237060547,848500,24.549999237060547
2017-10-27,24.655000686645508,24.030000686645508,24.479999542236328,24.049999237060547,880800,24.049999237060547
2017-10-30,24.190000534057617,23.850000381469727,24.0,23.920000076293945,866300,23.920000076293945
2017-10-31,24.065000534057617,23.469999313354492,23.850000381469727,23.81999969482422,1645000,23.81999969482422
2017-11-01,24.270000457763672,23.719999313354492,23.920000076293945,23.790000915527344,907600,23.790000915527344
2017-11-02,24.540000915527344,23.610000610351562,23.770000457763672,24.3700008392334,1252000,24.3700008392334
2017-11-03,24.559999465942383,23.959999084472656,24.489999771118164,24.219999313354492,797100,24.219999313354492
2017-11-06,24.709999084472656,24.18000030517578,24.260000228881836,24.700000762939453,626100,24.700000762939453
2017-11-07,24.4950008392334,22.979999542236328,24.450000762939453,22.989999771118164,4814200,22.989999771118164
2017-11-08,22.81999969482422,20.940000534057617,21.0,22.0,6649300,22.0
2017-11-09,23.530000686645508,21.860000610351562,21.950000762939453,22.469999313354492,2399000,22.469999313354492
2017-11-10,22.850000381469727,22.250999450683594,22.389999389648438,22.799999237060547,490300,22.799999237060547
2017-11-13,22.940000534057617,22.170000076293945,22.65999984741211,22.739999771118164,914000,22.739999771118164
2017-11-14,23.219999313354492,22.559999465942383,22.690000534057617,23.200000762939453,1982800,23.200000762939453
2017-11-15,23.690000534057617,22.81999969482422,23.239999771118164,23.290000915527344,1408600,23.290000915527344
2017-11-16,24.139999389648438,23.229999542236328,23.290000915527344,23.850000381469727,1331200,23.850000381469727
2017-11-17,24.18000030517578,23.68000030517578,23.75,24.0,778100,24.0
2017-11-20,24.329999923706055,23.709999084472656,23.940000534057617,24.299999237060547,854000,24.299999237060547
2017-11-21,24.329999923706055,23.959999084472656,24.329999923706055,24.06999969482422,1632700,24.06999969482422
2017-11-22,24.520000457763672,23.920000076293945,24.079999923706055,24.350000381469727,954800,24.350000381469727
2017-11-24,24.350000381469727,23.829999923706055,24.350000381469727,24.110000610351562,468100,24.110000610351562
2017-11-27,24.829999923706055,23.950000762939453,24.149999618530273,24.34000015258789,1090900,24.34000015258789
2017-11-28,24.31999969482422,23.725000381469727,24.299999237060547,24.06999969482422,2178700,24.06999969482422
2017-11-29,24.969999313354492,23.850000381469727,24.06999969482422,24.860000610351562,2857800,24.860000610351562
2017-11-30,24.889999389648438,23.84000015258789,24.889999389648438,24.239999771118164,1353100,24.239999771118164
2017-12-01,24.136999130249023,23.440000534057617,24.110000610351562,23.809999465942383,1279200,23.809999465942383
2017-12-04,24.799999237060547,23.799999237060547,23.920000076293945,24.559999465942383,2512200,24.559999465942383
2017-12-05,25.6200008392334,24.440000534057617,24.549999237060547,24.979999542236328,2231400,24.979999542236328
2017-12-06,26.229999542236328,24.899999618530273,24.899999618530273,26.15999984741211,2542200,26.15999984741211
2017-12-07,27.260000228881836,25.709999084472656,26.1299991607666,26.760000228881836,4271500,26.760000228881836
2017-12-08,27.0,26.15999984741211,26.770000457763672,26.760000228881836,1247000,26.760000228881836
2017-12-11,26.989999771118164,26.489999771118164,26.790000915527344,26.81999969482422,2089400,26.81999969482422
2017-12-12,27.190000534057617,26.579999923706055,26.739999771118164,27.059999465942383,2939300,27.059999465942383
2017-12-13,27.40999984741211,26.959999084472656,26.979999542236328,27.309999465942383,1911200,27.309999465942383
2017-12-14,27.559999465942383,27.1200008392334,27.309999465942383,27.40999984741211,1239600,27.40999984741211
2017-12-15,27.639999389648438,27.200000762939453,27.43000030517578,27.260000228881836,2748900,27.260000228881836
2017-12-18,28.229999542236328,27.299999237060547,27.399999618530273,27.889999389648438,2079000,27.889999389648438
2017-12-19,30.299999237060547,28.670000076293945,29.8799991607666,29.229999542236328,5115200,29.229999542236328
2017-12-20,30.030000686645508,29.280000686645508,29.31999969482422,29.75,1767800,29.75
2017-12-21,30.1200008392334,29.6200008392334,29.709999084472656,29.979999542236328,1620900,29.979999542236328
2017-12-22,30.020000457763672,29.5,30.0,29.559999465942383,1003500,29.559999465942383
2017-12-26,30.110000610351562,29.3700008392334,29.5,29.540000915527344,1270700,29.540000915527344
2017-12-27,29.520000457763672,28.8799991607666,29.520000457763672,29.149999618530273,1045800,29.149999618530273
2017-12-28,29.190000534057617,28.729999542236328,29.15999984741211,28.81999969482422,576400,28.81999969482422
2017-12-29,29.049999237060547,28.700000762939453,28.850000381469727,28.84000015258789,685700,28.84000015258789
2018-01-02,29.1200008392334,28.700000762939453,28.969999313354492,28.989999771118164,927000,28.989999771118164
2018-01-03,29.43000030517578,29.079999923706055,29.219999313354492,29.200000762939453,1013700,29.200000762939453
2018-01-04,30.049999237060547,29.200000762939453,29.260000228881836,29.979999542236328,850100,29.979999542236328
2018-01-05,31.200000762939453,30.1200008392334,30.25,31.18000030517578,1188800,31.18000030517578
2018-01-08,32.02000045776367,30.739999771118164,31.149999618530273,31.969999313354492,2070900,31.969999313354492
2018-01-09,32.279998779296875,31.229999542236328,31.959999084472656,31.239999771118164,3381600,31.239999771118164
2018-01-10,31.579999923706055,30.649999618530273,31.030000686645508,31.190000534057617,1013800,31.190000534057617
2018-01-11,31.510000228881836,30.940000534057617,31.219999313354492,31.239999771118164,1386200,31.239999771118164
2018-01-12,31.079999923706055,28.8799991607666,31.079999923706055,30.56999969482422,3325200,30.56999969482422
2018-01-16,31.030000686645508,30.450000762939453,30.59000015258789,30.959999084472656,1102800,30.959999084472656
2018-01-17,31.469999313354492,30.469999313354492,31.020000457763672,30.780000686645508,598200,30.780000686645508
2018-01-18,30.920000076293945,30.600000381469727,30.860000610351562,30.68000030517578,503400,30.68000030517578
2018-01-19,30.979999542236328,30.299999237060547,30.639999389648438,30.459999084472656,849100,30.459999084472656
2018-01-22,30.524999618530273,30.15999984741211,30.3799991607666,30.15999984741211,1821300,30.15999984741211
2018-01-23,30.924999237060547,30.18000030517578,30.18000030517578,30.3799991607666,2461900,30.3799991607666
2018-01-24,30.420000076293945,29.190000534057617,30.420000076293945,29.639999389648438,3287400,29.639999389648438
2018-01-25,30.0,29.301000595092773,29.899999618530273,29.739999771118164,1411400,29.739999771118164
2018-01-26,29.899999618530273,29.350000381469727,29.729999542236328,29.729999542236328,722900,29.729999542236328
2018-01-29,30.030000686645508,29.600000381469727,29.700000762939453,29.65999984741211,544100,29.65999984741211
2018-01-30,30.0,29.469999313354492,29.469999313354492,29.68000030517578,2334600,29.68000030517578
2018-01-31,29.860000610351562,29.6200008392334,29.690000534057617,29.690000534057617,1294400,29.690000534057617
2018-02-01,29.770000457763672,29.18000030517578,29.649999618530273,29.229999542236328,1321400,29.229999542236328
2018-02-02,29.059999465942383,27.989999771118164,29.040000915527344,28.059999465942383,1277300,28.059999465942383
2018-02-05,28.209999084472656,26.899999618530273,27.8799991607666,26.899999618530273,912500,26.899999618530273
2018-02-06,28.030000686645508,26.239999771118164,26.329999923706055,27.84000015258789,1704800,27.84000015258789
2018-02-07,28.020000457763672,27.56999969482422,27.690000534057617,27.6200008392334,665800,27.6200008392334
2018-02-08,27.899999618530273,27.43000030517578,27.729999542236328,27.459999084472656,1435300,27.459999084472656
2018-02-09,27.729999542236328,26.329999923706055,27.6200008392334,27.219999313354492,949700,27.219999313354492
2018-02-12,28.34000015258789,27.059999465942383,27.209999084472656,28.200000762939453,1115700,28.200000762939453
2018-02-13,28.56999969482422,27.850000381469727,28.18000030517578,28.479999542236328,761700,28.479999542236328
2018-02-14,28.881000518798828,27.770000457763672,28.40999984741211,28.5,2782500,28.5
2018-02-15,29.09000015258789,28.030000686645508,28.790000915527344,28.940000534057617,1491900,28.940000534057617
2018-02-16,29.469999313354492,28.079999923706055,28.75,29.270000457763672,2442200,29.270000457763672
2018-02-20,30.020000457763672,29.0,29.15999984741211,29.389999389648438,1131700,29.389999389648438
2018-02-21,29.920000076293945,29.31999969482422,29.420000076293945,29.40999984741211,635200,29.40999984741211
2018-02-22,29.68000030517578,28.959999084472656,29.450000762939453,29.190000534057617,2781900,29.190000534057617
2018-02-23,29.5,29.05500030517578,29.389999389648438,29.270000457763672,706200,29.270000457763672
2018-02-26,29.399999618530273,28.649999618530273,29.31999969482422,29.06999969482422,1031700,29.06999969482422
2018-02-27,29.079999923706055,27.739999771118164,29.079999923706055,27.809999465942383,869400,27.809999465942383
2018-02-28,28.1299991607666,27.3700008392334,27.889999389648438,27.389999389648438,809600,27.389999389648438
2018-03-01,27.600000381469727,26.579999923706055,27.31999969482422,26.889999389648438,1231000,26.889999389648438
2018-03-02,28.149999618530273,26.459999084472656,26.6299991607666,27.979999542236328,1303000,27.979999542236328
2018-03-05,28.5,27.5,27.8700008392334,28.290000915527344,885700,28.290000915527344
2018-03-06,30.31999969482422,28.65999984741211,29.700000762939453,29.450000762939453,1728000,29.450000762939453
2018-03-07,29.209999084472656,27.850000381469727,29.049999237060547,28.950000762939453,1052000,28.950000762939453
2018-03-08,29.489999771118164,28.940000534057617,29.110000610351562,29.489999771118164,849200,29.489999771118164
2018-03-09,30.030000686645508,29.3700008392334,29.65999984741211,29.780000686645508,2657500,29.780000686645508
2018-03-12,30.0,29.68000030517578,29.90999984741211,29.799999237060547,1386400,29.799999237060547
2018-03-13,30.18000030517578,29.719999313354492,29.940000534057617,29.959999084472656,1118900,29.959999084472656
2018-03-14,30.149999618530273,29.6200008392334,30.149999618530273,29.719999313354492,971000,29.719999313354492
2018-03-15,29.829999923706055,29.510000228881836,29.81999969482422,29.719999313354492,493200,29.719999313354492
2018-03-16,30.15999984741211,29.670000076293945,29.670000076293945,29.75,2456000,29.75
2018-03-19,29.940000534057617,29.450000762939453,29.709999084472656,29.780000686645508,858800,29.780000686645508
2018-03-20,29.895000457763672,29.40999984741211,29.739999771118164,29.719999313354492,651500,29.719999313354492
2018-03-21,29.920000076293945,29.489999771118164,29.760000228881836,29.729999542236328,321700,29.729999542236328
2018-03-22,30.049999237060547,29.6299991607666,30.049999237060547,29.81999969482422,2925200,29.81999969482422
2018-03-23,29.889999389648438,27.5,29.780000686645508,28.030000686645508,2920800,28.030000686645508
2018-03-26,28.600000381469727,27.780000686645508,28.309999465942383,28.3799991607666,2041900,28.3799991607666
2018-03-27,28.469999313354492,27.8700008392334,28.389999389648438,28.0,1438600,28.0
2018-03-28,28.209999084472656,27.5,27.920000076293945,27.719999313354492,730100,27.719999313354492
2018-03-29,28.440000534057617,27.764999389648438,27.8700008392334,28.329999923706055,719000,28.329999923706055
2018-04-02,28.3799991607666,27.43000030517578,28.290000915527344,27.520000457763672,464300,27.520000457763672
2018-04-03,28.049999237060547,27.5,27.760000228881836,27.950000762939453,547800,27.950000762939453
2018-04-04,28.229999542236328,27.719999313354492,27.93000030517578,28.190000534057617,935000,28.190000534057617
2018-04-05,28.56999969482422,28.030000686645508,28.469999313354492,28.540000915527344,510700,28.540000915527344
2018-04-06,28.770000457763672,28.309999465942383,28.309999465942383,28.6299991607666,707300,28.6299991607666
2018-04-09,29.19499969482422,28.530000686645508,28.84000015258789,28.75,1131200,28.75
2018-04-10,29.360000610351562,28.808000564575195,29.149999618530273,29.18000030517578,520700,29.18000030517578
2018-04-11,29.34000015258789,28.809999465942383,29.049999237060547,28.84000015258789,704600,28.84000015258789
2018-04-12,29.059999465942383,28.6200008392334,28.899999618530273,28.649999618530273,712500,28.649999618530273
2018-04-13,28.760000228881836,27.950000762939453,28.709999084472656,27.969999313354492,801500,27.969999313354492
2018-04-16,28.8700008392334,28.110000610351562,28.110000610351562,28.309999465942383,1031800,28.309999465942383
2018-04-17,28.940000534057617,28.459999084472656,28.5,28.81999969482422,923200,28.81999969482422
2018-04-18,29.31999969482422,28.520000457763672,28.81999969482422,28.93000030517578,714600,28.93000030517578
2018-04-19,29.0,28.09000015258789,28.940000534057617,28.15999984741211,749800,28.15999984741211
2018-04-20,28.235000610351562,27.440000534057617,28.09000015258789,27.5,1072100,27.5
2018-04-23,28.100000381469727,27.56999969482422,27.56999969482422,28.010000228881836,486600,28.010000228881836
2018-04-24,28.18000030517578,27.719999313354492,28.059999465942383,28.049999237060547,498600,28.049999237060547
2018-04-25,28.204999923706055,27.920000076293945,27.989999771118164,28.030000686645508,355600,28.030000686645508
2018-04-26,28.579999923706055,27.979999542236328,28.030000686645508,28.239999771118164,415800,28.239999771118164
2018-04-27,28.610000610351562,28.239999771118164,28.270000457763672,28.549999237060547,318900,28.549999237060547
2018-04-30,28.90999984741211,28.31999969482422,28.530000686645508,28.479999542236328,600000,28.479999542236328
2018-05-01,28.604999542236328,28.049999237060547,28.329999923706055,28.270000457763672,399300,28.270000457763672
2018-05-02,28.420000076293945,28.049999237060547,28.18000030517578,28.139999389648438,489900,28.139999389648438
2018-05-03,28.280000686645508,27.15999984741211,28.1200008392334,27.389999389648438,1127300,27.389999389648438
2018-05-04,27.889999389648438,27.25,27.25,27.59000015258789,1079000,27.59000015258789
2018-05-07,27.950000762939453,27.540000915527344,27.760000228881836,27.8799991607666,1057000,27.8799991607666
2018-05-08,27.940000534057617,27.469999313354492,27.90999984741211,27.739999771118164,1004000,27.739999771118164
2018-05-09,27.030000686645508,24.959999084472656,27.030000686645508,25.1299991607666,2675800,25.1299991607666
2018-05-10,26.489999771118164,25.09000015258789,25.1299991607666,26.209999084472656,1636200,26.209999084472656
2018-05-11,27.329999923706055,25.969999313354492,26.25,25.969999313354492,1303800,25.969999313354492
2018-05-14,26.420000076293945,25.610000610351562,26.09000015258789,25.809999465942383,967900,25.809999465942383
2018-05-15,25.81999969482422,24.75,25.760000228881836,25.059999465942383,1573600,25.059999465942383
2018-05-16,26.030000686645508,24.1299991607666,25.1299991607666,24.170000076293945,2485900,24.170000076293945
2018-05-17,24.81599998474121,23.770000457763672,24.31999969482422,24.010000228881836,2354400,24.010000228881836
2018-05-18,25.020000457763672,23.950000762939453,23.950000762939453,24.420000076293945,1320600,24.420000076293945
2018-05-21,24.770000457763672,24.190000534057617,24.610000610351562,24.489999771118164,1016400,24.489999771118164
2018-05-22,24.8799991607666,24.100000381469727,24.549999237060547,24.290000915527344,1505100,24.290000915527344
2018-05-23,24.799999237060547,24.260000228881836,24.260000228881836,24.68000030517578,1325600,24.68000030517578
2018-05-24,25.079999923706055,24.665000915527344,24.719999313354492,24.709999084472656,619600,24.709999084472656
2018-05-25,24.670000076293945,24.059999465942383,24.670000076293945,24.079999923706055,487400,24.079999923706055
2018-05-29,24.520000457763672,23.889999389648438,23.940000534057617,24.440000534057617,562500,24.440000534057617
2018-05-30,27.040000915527344,24.43000030517578,24.6299991607666,26.59000015258789,2708000,26.59000015258789
2018-05-31,27.700000762939453,25.200000762939453,26.649999618530273,25.68000030517578,4296300,25.68000030517578
2018-06-01,26.600000381469727,25.40999984741211,25.760000228881836,26.309999465942383,1289700,26.309999465942383
2018-06-04,26.729999542236328,26.110000610351562,26.399999618530273,26.290000915527344,548000,26.290000915527344
2018-06-05,26.559999465942383,26.18000030517578,26.25,26.5,612800,26.5
2018-06-06,26.719999313354492,26.25,26.479999542236328,26.700000762939453,786100,26.700000762939453
2018-06-07,27.649999618530273,26.270000457763672,26.780000686645508,27.549999237060547,2000100,27.549999237060547
2018-06-08,28.030000686645508,27.020000457763672,27.6299991607666,27.600000381469727,1665400,27.600000381469727
2018-06-11,28.594999313354492,27.459999084472656,27.579999923706055,28.450000762939453,1083100,28.450000762939453
2018-06-12,29.690000534057617,28.450000762939453,28.5,29.610000610351562,1647500,29.610000610351562
2018-06-13,30.219999313354492,29.549999237060547,29.68000030517578,29.770000457763672,1194700,29.770000457763672
2018-06-14,30.128999710083008,29.31999969482422,29.860000610351562,29.65999984741211,928500,29.65999984741211
2018-06-15,29.889999389648438,28.979999542236328,29.469999313354492,29.6200008392334,1614100,29.6200008392334
2018-06-18,30.030000686645508,29.229999542236328,29.3799991607666,29.90999984741211,741500,29.90999984741211
2018-06-19,30.059999465942383,29.5,29.739999771118164,29.989999771118164,864300,29.989999771118164
2018-06-20,30.459999084472656,29.649999618530273,30.100000381469727,29.940000534057617,719000,29.940000534057617
2018-06-21,30.01099967956543,28.84000015258789,30.0,28.8700008392334,809600,28.8700008392334
2018-06-22,29.530000686645508,28.75,29.030000686645508,28.760000228881836,959200,28.760000228881836
2018-06-25,28.889999389648438,28.075000762939453,28.530000686645508,28.25,1185200,28.25
2018-06-26,28.549999237060547,27.709999084472656,28.3700008392334,28.450000762939453,1260300,28.450000762939453
2018-06-27,29.049999237060547,28.43000030517578,28.469999313354492,28.56999969482422,1198200,28.56999969482422
2018-06-28,28.799999237060547,27.649999618530273,28.450000762939453,28.350000381469727,1300900,28.350000381469727
2018-06-29,29.049999237060547,28.040000915527344,28.479999542236328,28.389999389648438,567800,28.389999389648438
2018-07-02,29.309999465942383,27.799999237060547,28.209999084472656,29.25,568000,29.25
2018-07-03,29.639999389648438,29.149999618530273,29.270000457763672,29.469999313354492,369600,29.469999313354492
2018-07-05,29.770000457763672,29.18000030517578,29.6299991607666,29.649999618530273,767400,29.649999618530273
2018-07-06,30.0,29.399999618530273,29.540000915527344,29.899999618530273,796800,29.899999618530273
2018-07-09,30.450000762939453,29.700000762939453,30.0,30.420000076293945,892300,30.420000076293945
2018-07-10,30.510000228881836,29.350000381469727,30.5,29.6200008392334,880600,29.6200008392334
2018-07-11,32.2400016784668,29.000999450683594,29.5,32.0,3752400,32.0
2018-07-12,32.56999969482422,31.510000228881836,32.279998779296875,32.470001220703125,972700,32.470001220703125
2018-07-13,32.939998626708984,32.150001525878906,32.59000015258789,32.209999084472656,933200,32.209999084472656
2018-07-16,32.279998779296875,31.360000610351562,32.279998779296875,31.399999618530273,427800,31.399999618530273
2018-07-17,31.770000457763672,31.31999969482422,31.329999923706055,31.360000610351562,426300,31.360000610351562
2018-07-18,31.34000015258789,30.489999771118164,31.34000015258789,30.639999389648438,697900,30.639999389648438
2018-07-19,31.209999084472656,30.420000076293945,30.639999389648438,30.8799991607666,596900,30.8799991607666
2018-07-20,30.989999771118164,30.46500015258789,30.989999771118164,30.479999542236328,1002700,30.479999542236328
2018-07-23,30.40999984741211,29.510000228881836,30.40999984741211,29.530000686645508,1322200,29.530000686645508
2018-07-24,29.829999923706055,28.34000015258789,29.709999084472656,28.559999465942383,1002000,28.559999465942383
2018-07-25,28.969999313354492,28.469999313354492,28.700000762939453,28.959999084472656,917500,28.959999084472656
2018-07-26,29.09000015258789,28.5,28.90999984741211,28.799999237060547,1287500,28.799999237060547
2018-07-27,29.010000228881836,28.079999923706055,28.809999465942383,28.329999923706055,485800,28.329999923706055
2018-07-30,28.709999084472656,28.139999389648438,28.260000228881836,28.329999923706055,586800,28.329999923706055
2018-07-31,28.69499969482422,28.190000534057617,28.239999771118164,28.3700008392334,733300,28.3700008392334
2018-08-01,28.549999237060547,27.809999465942383,28.25,28.170000076293945,418400,28.170000076293945
2018-08-02,28.260000228881836,27.639999389648438,27.950000762939453,27.799999237060547,740500,27.799999237060547
2018-08-03,28.459999084472656,27.790000915527344,27.790000915527344,28.1299991607666,505900,28.1299991607666
2018-08-06,28.579999923706055,27.8799991607666,28.079999923706055,28.43000030517578,405300,28.43000030517578
2018-08-07,28.739999771118164,27.940000534057617,28.440000534057617,28.020000457763672,893800,28.020000457763672
2018-08-08,29.540000915527344,25.010000228881836,25.030000686645508,27.290000915527344,3982200,27.290000915527344
2018-08-09,27.959999084472656,26.5,27.270000457763672,27.920000076293945,1021700,27.920000076293945
2018-08-10,28.229999542236328,27.579999923706055,27.700000762939453,28.0,1075100,28.0
2018-08-13,28.260000228881836,27.190000534057617,27.979999542236328,27.239999771118164,632400,27.239999771118164
2018-08-14,27.700000762939453,27.25,27.260000228881836,27.399999618530273,546200,27.399999618530273
2018-08-15,27.325000762939453,26.3700008392334,27.290000915527344,26.649999618530273,1157000,26.649999618530273
2018-08-16,27.219999313354492,26.584999084472656,26.729999542236328,26.940000534057617,727300,26.940000534057617
2018-08-17,27.270000457763672,26.829999923706055,26.90999984741211,27.15999984741211,340200,27.15999984741211
2018-08-20,27.299999237060547,26.8700008392334,27.219999313354492,27.139999389648438,360200,27.139999389648438
2018-08-21,27.31999969482422,26.809999465942383,27.1200008392334,26.809999465942383,355200,26.809999465942383
2018-08-22,26.920000076293945,26.510000228881836,26.65999984741211,26.719999313354492,435200,26.719999313354492
2018-08-23,26.799999237060547,26.440000534057617,26.68000030517578,26.510000228881836,354500,26.510000228881836
2018-08-24,26.959999084472656,26.43000030517578,26.559999465942383,26.59000015258789,580700,26.59000015258789
2018-08-27,27.170000076293945,26.690000534057617,26.760000228881836,27.06999969482422,771300,27.06999969482422
2018-08-28,27.18000030517578,26.40999984741211,27.18000030517578,26.709999084472656,628200,26.709999084472656
2018-08-29,26.84000015258789,26.349000930786133,26.760000228881836,26.469999313354492,380300,26.469999313354492
2018-08-30,26.829999923706055,26.225000381469727,26.420000076293945,26.719999313354492,413000,26.719999313354492
2018-08-31,26.90999984741211,26.549999237060547,26.6200008392334,26.90999984741211,604800,26.90999984741211
2018-09-04,27.43000030517578,26.5,26.8700008392334,27.010000228881836,830300,27.010000228881836
2018-09-05,27.25,25.950000762939453,26.850000381469727,26.09000015258789,1051600,26.09000015258789
2018-09-06,26.06999969482422,25.68000030517578,26.059999465942383,25.950000762939453,582400,25.950000762939453
2018-09-07,26.270000457763672,25.670000076293945,25.780000686645508,26.149999618530273,566200,26.149999618530273
2018-09-10,26.84000015258789,26.149999618530273,26.18000030517578,26.799999237060547,879000,26.799999237060547
2018-09-11,26.829999923706055,25.979999542236328,26.729999542236328,26.34000015258789,537800,26.34000015258789
2018-09-12,26.655000686645508,26.010000228881836,26.25,26.6200008392334,766300,26.6200008392334
2018-09-13,26.8799991607666,26.239999771118164,26.700000762939453,26.56999969482422,663900,26.56999969482422
2018-09-14,26.559999465942383,25.959999084472656,26.559999465942383,26.010000228881836,520100,26.010000228881836
2018-09-17,26.25200080871582,25.690000534057617,26.0,25.809999465942383,721000,25.809999465942383
2018-09-18,26.34000015258789,25.68000030517578,25.889999389648438,25.93000030517578,626200,25.93000030517578
2018-09-19,25.959999084472656,25.299999237060547,25.90999984741211,25.450000762939453,596800,25.450000762939453
2018-09-20,25.690000534057617,25.15999984741211,25.540000915527344,25.690000534057617,624200,25.690000534057617
2018-09-21,26.93000030517578,25.559999465942383,25.899999618530273,26.459999084472656,3070400,26.459999084472656
2018-09-24,26.780000686645508,26.09000015258789,26.260000228881836,26.75,778900,26.75
2018-09-25,27.420000076293945,26.329999923706055,26.760000228881836,27.209999084472656,851800,27.209999084472656
2018-09-26,27.809999465942383,27.049999237060547,27.25,27.06999969482422,725900,27.06999969482422
2018-09-27,27.790000915527344,26.860000610351562,27.100000381469727,27.59000015258789,592800,27.59000015258789
2018-09-28,27.899999618530273,27.360000610351562,27.469999313354492,27.610000610351562,891000,27.610000610351562
2018-10-01,27.75,26.920000076293945,27.649999618530273,27.06999969482422,814900,27.06999969482422
2018-10-02,27.329999923706055,26.530000686645508,27.049999237060547,26.899999618530273,788400,26.899999618530273
2018-10-03,27.56999969482422,26.790000915527344,27.0,27.3799991607666,541100,27.3799991607666
2018-10-04,27.25,26.8700008392334,27.239999771118164,26.989999771118164,534700,26.989999771118164
2018-10-05,27.5,26.780000686645508,27.200000762939453,27.360000610351562,596100,27.360000610351562
2018-10-08,27.399999618530273,26.809999465942383,27.200000762939453,26.940000534057617,921400,26.940000534057617
2018-10-09,26.940000534057617,25.649999618530273,26.799999237060547,25.799999237060547,834200,25.799999237060547
2018-10-10,25.795000076293945,24.690000534057617,25.639999389648438,25.229999542236328,1103300,25.229999542236328
2018-10-11,25.399999618530273,24.860000610351562,25.09000015258789,24.899999618530273,596100,24.899999618530273
2018-10-12,25.6200008392334,25.020000457763672,25.399999618530273,25.5,694100,25.5
2018-10-15,25.959999084472656,25.315000534057617,25.459999084472656,25.700000762939453,461700,25.700000762939453
2018-10-16,26.2450008392334,25.610000610351562,25.889999389648438,26.139999389648438,703800,26.139999389648438
2018-10-17,26.18000030517578,25.559999465942383,26.010000228881836,25.799999237060547,449900,25.799999237060547
2018-10-18,25.8799991607666,25.079999923706055,25.780000686645508,25.149999618530273,405400,25.149999618530273
2018-10-19,25.790000915527344,24.219999313354492,25.170000076293945,24.469999313354492,1116400,24.469999313354492
2018-10-22,25.389999389648438,24.469999313354492,24.649999618530273,25.020000457763672,989300,25.020000457763672
2018-10-23,26.1299991607666,24.489999771118164,24.649999618530273,26.040000915527344,683900,26.040000915527344
2018-10-24,26.8799991607666,25.979999542236328,25.979999542236328,26.1200008392334,1206700,26.1200008392334
2018-10-25,26.799999237060547,25.90999984741211,26.389999389648438,26.3799991607666,1421100,26.3799991607666
2018-10-26,26.579999923706055,25.11199951171875,26.1200008392334,25.5,673700,25.5
2018-10-29,26.09000015258789,24.8799991607666,25.809999465942383,25.010000228881836,1091300,25.010000228881836
2018-10-30,25.559999465942383,24.729999542236328,25.010000228881836,25.469999313354492,709700,25.469999313354492
2018-10-31,26.209999084472656,25.479999542236328,25.81999969482422,26.110000610351562,588200,26.110000610351562
2018-11-01,26.760000228881836,26.110000610351562,26.280000686645508,26.549999237060547,560500,26.549999237060547
2018-11-02,26.850000381469727,26.200000762939453,26.559999465942383,26.360000610351562,512900,26.360000610351562
2018-11-05,26.469999313354492,26.0,26.299999237060547,26.190000534057617,1213500,26.190000534057617
2018-11-06,26.93000030517578,26.059999465942383,26.15999984741211,26.299999237060547,1238200,26.299999237060547
2018-11-07,26.34000015258789,24.860000610351562,26.299999237060547,25.8700008392334,2295500,25.8700008392334
2018-11-08,26.299999237060547,25.46500015258789,25.540000915527344,25.700000762939453,635800,25.700000762939453
2018-11-09,26.100000381469727,25.31999969482422,25.3700008392334,25.670000076293945,560700,25.670000076293945
2018-11-12,26.219999313354492,25.600000381469727,25.690000534057617,25.6299991607666,668500,25.6299991607666
2018-11-13,26.389999389648438,25.639999389648438,25.790000915527344,25.649999618530273,841300,25.649999618530273
2018-11-14,26.200000762939453,25.1200008392334,25.850000381469727,25.600000381469727,783300,25.600000381469727
2018-11-15,25.7450008392334,24.954999923706055,25.489999771118164,25.459999084472656,732400,25.459999084472656
2018-11-16,26.225000381469727,25.06999969482422,25.25,26.139999389648438,770000,26.139999389648438
2018-11-19,26.31999969482422,25.040000915527344,26.049999237060547,25.100000381469727,404800,25.100000381469727
2018-11-20,25.610000610351562,24.649999618530273,24.649999618530273,25.209999084472656,753600,25.209999084472656
2018-11-21,25.610000610351562,25.15999984741211,25.3700008392334,25.329999923706055,455400,25.329999923706055
2018-11-23,25.459999084472656,25.170000076293945,25.190000534057617,25.309999465942383,195900,25.309999465942383
2018-11-26,25.760000228881836,25.350000381469727,25.59000015258789,25.649999618530273,793500,25.649999618530273
2018-11-27,25.729999542236328,24.969999313354492,25.520000457763672,25.0,576300,25.0
2018-11-28,25.780000686645508,25.0,25.09000015258789,25.690000534057617,910200,25.690000534057617
2018-11-29,26.270000457763672,25.559999465942383,25.639999389648438,26.270000457763672,804400,26.270000457763672
2018-11-30,26.399999618530273,25.760000228881836,26.25,25.8700008392334,1099700,25.8700008392334
2018-12-03,26.06999969482422,25.0,26.06999969482422,25.31999969482422,711500,25.31999969482422
2018-12-04,25.3700008392334,24.540000915527344,25.350000381469727,24.59000015258789,1031600,24.59000015258789
2018-12-06,25.100000381469727,23.989999771118164,24.270000457763672,25.079999923706055,1397600,25.079999923706055
2018-12-07,25.100000381469727,23.690000534057617,24.969999313354492,24.270000457763672,1323100,24.270000457763672
2018-12-10,24.43000030517578,23.799999237060547,24.309999465942383,23.93000030517578,1033000,23.93000030517578
2018-12-11,24.690000534057617,23.829999923706055,24.280000686645508,23.850000381469727,849500,23.850000381469727
2018-12-12,25.459999084472656,23.950000762939453,24.139999389648438,25.309999465942383,831700,25.309999465942383
2018-12-13,25.53499984741211,23.299999237060547,25.530000686645508,23.649999618530273,992300,23.649999618530273
2018-12-14,24.31999969482422,23.40999984741211,23.40999984741211,23.6299991607666,1099500,23.6299991607666
2018-12-17,23.760000228881836,22.959999084472656,23.489999771118164,23.149999618530273,1589000,23.149999618530273
2018-12-18,23.649999618530273,22.667999267578125,23.25,23.18000030517578,795100,23.18000030517578
2018-12-19,23.434999465942383,22.34000015258789,23.280000686645508,22.43000030517578,839800,22.43000030517578
2018-12-20,22.459999084472656,21.15999984741211,22.399999618530273,21.600000381469727,1143100,21.600000381469727
2018-12-21,21.610000610351562,20.219999313354492,21.559999465942383,20.899999618530273,1850100,20.899999618530273
2018-12-24,20.790000915527344,20.139999389648438,20.6200008392334,20.139999389648438,569100,20.139999389648438
2018-12-26,21.934999465942383,20.170000076293945,20.34000015258789,21.850000381469727,840100,21.850000381469727
2018-12-27,21.899999618530273,20.940000534057617,21.5,21.889999389648438,1375400,21.889999389648438
2018-12-28,22.219999313354492,21.280000686645508,21.780000686645508,21.329999923706055,766500,21.329999923706055
2018-12-31,21.700000762939453,21.020000457763672,21.530000686645508,21.5,478000,21.5
2019-01-02,22.15999984741211,21.059999465942383,21.079999923706055,22.040000915527344,588300,22.040000915527344
2019-01-03,22.059999465942383,21.3700008392334,21.860000610351562,21.420000076293945,545300,21.420000076293945
2019-01-04,22.459999084472656,21.719999313354492,21.719999313354492,22.25,389100,22.25
2019-01-07,22.670000076293945,22.079999923706055,22.170000076293945,22.329999923706055,704100,22.329999923706055
2019-01-08,22.989999771118164,22.31999969482422,22.549999237060547,22.81999969482422,551300,22.81999969482422
2019-01-09,23.309999465942383,22.729999542236328,23.0,23.260000228881836,532700,23.260000228881836
2019-01-10,23.239999771118164,22.799999237060547,23.09000015258789,23.020000457763672,302400,23.020000457763672
2019-01-11,23.149999618530273,22.80500030517578,23.040000915527344,23.06999969482422,651300,23.06999969482422
2019-01-14,22.899999618530273,22.489999771118164,22.84000015258789,22.549999237060547,519200,22.549999237060547
2019-01-15,23.469999313354492,22.649999618530273,22.860000610351562,23.399999618530273,490200,23.399999618530273
2019-01-16,23.65999984741211,22.850000381469727,23.459999084472656,23.15999984741211,722800,23.15999984741211
2019-01-17,26.030000686645508,24.09000015258789,25.899999618530273,24.709999084472656,2961100,24.709999084472656
2019-01-18,25.530000686645508,24.530000686645508,24.899999618530273,24.979999542236328,970900,24.979999542236328
2019-01-22,25.459999084472656,24.979999542236328,25.360000610351562,25.18000030517578,1149000,25.18000030517578
2019-01-23,25.700000762939453,24.81999969482422,25.299999237060547,25.229999542236328,1023900,25.229999542236328
2019-01-24,25.469999313354492,25.1200008392334,25.200000762939453,25.34000015258789,284500,25.34000015258789
2019-01-25,26.010000228881836,25.399999618530273,25.469999313354492,25.889999389648438,618300,25.889999389648438
2019-01-28,26.469999313354492,25.6299991607666,25.6299991607666,26.18000030517578,782900,26.18000030517578
2019-01-29,26.209999084472656,25.739999771118164,26.209999084472656,26.020000457763672,528500,26.020000457763672
2019-01-30,28.5,26.829999923706055,27.709999084472656,26.989999771118164,2044300,26.989999771118164
2019-01-31,27.440000534057617,26.725000381469727,26.969999313354492,27.309999465942383,853300,27.309999465942383
2019-02-01,27.670000076293945,27.06999969482422,27.280000686645508,27.3700008392334,1198900,27.3700008392334
2019-02-04,27.889999389648438,27.049999237060547,27.31999969482422,27.350000381469727,934400,27.350000381469727
2019-02-05,27.469999313354492,26.229999542236328,27.270000457763672,26.81999969482422,2479100,26.81999969482422
2019-02-06,27.299999237060547,26.559999465942383,26.809999465942383,26.579999923706055,699200,26.579999923706055
2019-02-07,26.565000534057617,26.15999984741211,26.559999465942383,26.34000015258789,701400,26.34000015258789
2019-02-08,26.469999313354492,25.709999084472656,26.25,26.0,843400,26.0
2019-02-11,26.399999618530273,25.510000228881836,26.149999618530273,25.860000610351562,695400,25.860000610351562
2019-02-12,26.469999313354492,25.940000534057617,26.1299991607666,26.450000762939453,669100,26.450000762939453
2019-02-13,26.709999084472656,25.65999984741211,26.479999542236328,25.75,810800,25.75
2019-02-14,26.190000534057617,25.702999114990234,25.729999542236328,25.760000228881836,658200,25.760000228881836
2019-02-15,25.940000534057617,25.100000381469727,25.940000534057617,25.34000015258789,1066100,25.34000015258789
2019-02-19,25.3700008392334,24.700000762939453,25.309999465942383,24.989999771118164,897400,24.989999771118164
2019-02-20,25.31999969482422,24.799999237060547,24.799999237060547,25.079999923706055,799300,25.079999923706055
2019-02-21,25.229999542236328,24.719999313354492,25.010000228881836,24.850000381469727,421900,24.850000381469727
2019-02-22,25.299999237060547,24.780000686645508,25.020000457763672,25.15999984741211,730400,25.15999984741211
2019-02-25,25.479999542236328,24.790000915527344,25.479999542236328,25.010000228881836,707800,25.010000228881836
2019-02-26,25.1200008392334,24.791000366210938,25.010000228881836,24.829999923706055,735300,24.829999923706055
2019-02-27,24.989999771118164,24.641000747680664,24.709999084472656,24.700000762939453,674000,24.700000762939453
2019-02-28,24.719999313354492,22.6299991607666,24.700000762939453,23.540000915527344,3792100,23.540000915527344
2019-03-01,25.020000457763672,23.350000381469727,23.469999313354492,24.020000457763672,2232300,24.020000457763672
2019-03-04,24.049999237060547,23.28499984741211,24.049999237060547,23.959999084472656,1496600,23.959999084472656
2019-03-05,24.010000228881836,22.979999542236328,23.8799991607666,23.09000015258789,2031800,23.09000015258789
2019-03-06,23.450000762939453,23.030000686645508,23.110000610351562,23.209999084472656,1004200,23.209999084472656
2019-03-07,23.440000534057617,22.40999984741211,23.200000762939453,22.459999084472656,900700,22.459999084472656
2019-03-08,23.0,22.139999389648438,22.399999618530273,22.75,1106100,22.75
2019-03-11,23.170000076293945,22.790000915527344,22.860000610351562,22.920000076293945,1192100,22.920000076293945
2019-03-12,23.59000015258789,22.90999984741211,22.90999984741211,23.149999618530273,1400900,23.149999618530273
2019-03-13,23.3799991607666,22.260000228881836,23.170000076293945,22.34000015258789,1084200,22.34000015258789
2019-03-14,22.950000762939453,22.155000686645508,22.34000015258789,22.8700008392334,932900,22.8700008392334
2019-03-15,23.190000534057617,22.59000015258789,23.0,22.719999313354492,1609100,22.719999313354492
2019-03-18,23.049999237060547,22.520000457763672,22.559999465942383,22.8700008392334,788800,22.8700008392334
2019-03-19,23.209999084472656,22.770000457763672,22.940000534057617,22.989999771118164,526400,22.989999771118164
2019-03-20,23.809999465942383,22.889999389648438,22.889999389648438,23.229999542236328,1230800,23.229999542236328
2019-03-21,24.43000030517578,23.0,23.059999465942383,23.299999237060547,2590300,23.299999237060547
2019-03-22,23.25,21.56999969482422,23.25,21.799999237060547,1732700,21.799999237060547
2019-03-25,22.600000381469727,21.530000686645508,21.770000457763672,22.030000686645508,751600,22.030000686645508
2019-03-26,22.559999465942383,21.885000228881836,22.200000762939453,22.530000686645508,564200,22.530000686645508
2019-03-27,23.18000030517578,22.420000076293945,22.479999542236328,22.770000457763672,1065800,22.770000457763672
2019-03-28,22.959999084472656,22.520000457763672,22.739999771118164,22.739999771118164,445100,22.739999771118164
2019-03-29,23.06999969482422,22.75,22.90999984741211,22.799999237060547,615100,22.799999237060547
2019-04-01,23.469999313354492,22.950000762939453,23.0,23.059999465942383,575200,23.059999465942383
2019-04-02,23.190000534057617,22.81999969482422,23.06999969482422,23.15999984741211,1207300,23.15999984741211
2019-04-03,23.604999542236328,22.959999084472656,23.399999618530273,22.979999542236328,577200,22.979999542236328
2019-04-04,23.299999237060547,22.719999313354492,22.989999771118164,22.8700008392334,845600,22.8700008392334
2019-04-05,23.28499984741211,22.600000381469727,22.979999542236328,23.0,1358600,23.0
2019-04-08,23.110000610351562,22.729999542236328,22.979999542236328,22.770000457763672,678300,22.770000457763672
2019-04-09,23.06999969482422,22.510000228881836,22.610000610351562,22.790000915527344,593900,22.790000915527344
2019-04-10,23.170000076293945,22.799999237060547,22.799999237060547,23.0,573100,23.0
2019-04-11,23.045000076293945,21.6200008392334,23.010000228881836,21.719999313354492,1168100,21.719999313354492
2019-04-12,21.844999313354492,21.46500015258789,21.829999923706055,21.530000686645508,1836800,21.530000686645508
2019-04-15,21.75,21.479999542236328,21.559999465942383,21.670000076293945,1164200,21.670000076293945
2019-04-16,22.25,19.739999771118164,21.75,20.270000457763672,1971600,20.270000457763672
2019-04-17,21.719999313354492,20.3700008392334,20.440000534057617,21.56999969482422,3637500,21.56999969482422
2019-04-18,21.739999771118164,20.56999969482422,21.489999771118164,20.700000762939453,1493200,20.700000762939453
2019-04-22,21.1200008392334,20.5,20.579999923706055,20.700000762939453,1206300,20.700000762939453
2019-04-23,20.950000762939453,20.420000076293945,20.850000381469727,20.43000030517578,851100,20.43000030517578
2019-04-24,20.989999771118164,20.139999389648438,20.389999389648438,20.799999237060547,1446500,20.799999237060547
2019-04-25,20.989999771118164,20.329999923706055,20.709999084472656,20.760000228881836,1099300,20.760000228881836
2019-04-26,21.009000778198242,20.549999237060547,20.770000457763672,20.899999618530273,798800,20.899999618530273
2019-04-29,21.059999465942383,20.670000076293945,20.90999984741211,20.90999984741211,1121800,20.90999984741211
2019-04-30,20.969999313354492,20.360000610351562,20.889999389648438,20.809999465942383,968900,20.809999465942383
2019-05-01,21.020000457763672,20.3700008392334,20.809999465942383,20.3799991607666,880300,20.3799991607666
2019-05-02,20.780000686645508,20.100000381469727,20.450000762939453,20.399999618530273,1232500,20.399999618530273
2019-05-03,21.489999771118164,20.510000228881836,20.610000610351562,21.399999618530273,1894000,21.399999618530273
2019-05-06,21.3799991607666,19.989999771118164,20.969999313354492,21.229999542236328,1319600,21.229999542236328
2019-05-07,21.309999465942383,20.969999313354492,21.059999465942383,21.270000457763672,682700,21.270000457763672
2019-05-08,21.540000915527344,21.049999237060547,21.290000915527344,21.18000030517578,498900,21.18000030517578
2019-05-09,21.09000015258789,20.770000457763672,20.940000534057617,20.81999969482422,940300,20.81999969482422
2019-05-10,22.260000228881836,21.059999465942383,21.5,22.079999923706055,2213500,22.079999923706055
2019-05-13,22.350000381469727,21.209999084472656,21.610000610351562,21.899999618530273,1108700,21.899999618530273
2019-05-14,22.81999969482422,21.90999984741211,22.030000686645508,22.639999389648438,923600,22.639999389648438
2019-05-15,23.059999465942383,22.149999618530273,22.610000610351562,22.75,998200,22.75
2019-05-16,23.079999923706055,22.510000228881836,22.850000381469727,23.0,852800,23.0
2019-05-17,23.030000686645508,22.530000686645508,22.670000076293945,22.739999771118164,1325700,22.739999771118164
2019-05-20,22.479999542236328,21.670000076293945,22.450000762939453,22.0,907000,22.0
2019-05-21,22.31999969482422,21.81999969482422,22.139999389648438,21.889999389648438,677900,21.889999389648438
2019-05-22,22.09000015258789,21.670000076293945,21.829999923706055,21.729999542236328,629500,21.729999542236328
2019-05-23,21.579999923706055,21.110000610351562,21.40999984741211,21.3799991607666,475500,21.3799991607666
2019-05-24,21.799999237060547,21.290000915527344,21.549999237060547,21.700000762939453,474800,21.700000762939453
