Date,High,Low,Open,Close,Volume,Adj Close
2015-01-02,36960.0,34860.0,36204.0,36036.0,0.0,36036.0
2015-01-05,38304.0,36120.0,36120.0,37632.0,0.0,37632.0
2015-01-06,38220.0,36372.0,36960.0,37128.0,0.0,37128.0
2015-01-07,38724.0,37212.0,37716.0,38304.0,0.0,38304.0
2015-01-08,40908.0,38976.0,38976.0,39060.0,0.0,39060.0
2015-01-09,40236.0,38808.0,39060.0,39732.0,0.0,39732.0
2015-01-12,47376.0,39144.0,39900.0,45192.0,0.0,45192.0
2015-01-13,47964.0,43848.0,45948.0,44772.0,0.0,44772.0
2015-01-14,46032.0,42000.0,46032.0,44100.0,0.0,44100.0
2015-01-15,45108.0,42588.0,44100.0,43428.0,0.0,43428.0
2015-01-16,44856.0,41076.0,42840.0,41580.0,0.0,41580.0
2015-01-20,42504.0,40824.0,41832.0,41916.0,0.0,41916.0
2015-01-21,42084.0,40236.0,42084.0,40320.0,0.0,40320.0
2015-01-22,41664.0,39816.0,40320.0,41076.0,0.0,41076.0
2015-01-23,41580.0,40488.0,40824.0,40992.0,0.0,40992.0
2015-01-26,44856.0,40824.0,41832.0,42420.0,0.0,42420.0
2015-01-27,43848.0,41412.0,42252.0,41748.0,0.0,41748.0
2015-01-28,43008.0,41160.0,42000.0,41496.0,0.0,41496.0
2015-01-29,42840.0,41328.0,41328.0,42000.0,0.0,42000.0
2015-01-30,42840.0,41580.0,41748.0,41832.0,0.0,41832.0
2015-02-02,42504.0,40320.0,41916.0,42000.0,0.0,42000.0
2015-02-03,42420.0,41244.0,42084.0,42168.0,0.0,42168.0
2015-02-04,42420.0,41580.0,41748.0,41832.0,0.0,41832.0
2015-02-05,45360.0,42252.0,42252.0,43260.0,0.0,43260.0
2015-02-06,44520.0,41580.0,43512.0,42924.0,0.0,42924.0
2015-02-09,46032.0,42588.0,43260.0,43932.0,0.0,43932.0
2015-02-10,46284.0,43344.0,44352.0,44772.0,0.0,44772.0
2015-02-11,45192.0,44352.0,44940.0,45024.0,0.0,45024.0
2015-02-12,45780.0,43764.0,45276.0,44352.0,0.0,44352.0
2015-02-13,45444.0,43008.0,44688.0,44184.0,0.0,44184.0
2015-02-17,45360.0,43260.0,44520.0,43764.0,0.0,43764.0
2015-02-18,44436.0,42840.0,43764.0,44352.0,0.0,44352.0
2015-02-19,44604.0,43260.0,44520.0,44100.0,0.0,44100.0
2015-02-20,44520.0,43344.0,44520.0,44100.0,0.0,44100.0
2015-02-23,45696.0,44100.0,44100.0,45024.0,0.0,45024.0
2015-02-24,45612.0,44772.0,45024.0,45444.0,0.0,45444.0
2015-02-25,57960.0,48300.0,56700.0,48468.0,300.0,48468.0
2015-02-26,49056.0,45612.0,48972.0,46956.0,0.0,46956.0
2015-02-27,50232.0,45528.0,47628.0,48300.0,100.0,48300.0
2015-03-02,52500.0,46368.0,50148.0,46872.0,100.0,46872.0
2015-03-03,46536.0,43428.0,45780.0,44856.0,100.0,44856.0
2015-03-04,46452.0,42336.0,44604.0,44352.0,100.0,44352.0
2015-03-05,46956.0,43428.0,44520.0,44940.0,0.0,44940.0
2015-03-06,34860.0,31920.0,32760.0,33852.0,300.0,33852.0
2015-03-09,33852.0,31920.0,33852.0,32760.0,0.0,32760.0
2015-03-10,34104.0,32676.0,33348.0,33852.0,0.0,33852.0
2015-03-11,36036.0,33600.0,34020.0,35532.0,0.0,35532.0
2015-03-12,35952.0,33684.0,35784.0,34356.0,0.0,34356.0
2015-03-13,35364.0,32592.0,34440.0,35028.0,0.0,35028.0
2015-03-16,35700.0,33768.0,35196.0,34608.0,0.0,34608.0
2015-03-17,36708.0,32760.0,36372.0,33348.0,100.0,33348.0
2015-03-18,35616.0,33264.0,33600.0,34524.0,0.0,34524.0
2015-03-19,35448.0,33600.0,34440.0,34272.0,0.0,34272.0
2015-03-20,34944.0,33600.0,34944.0,33600.0,0.0,33600.0
2015-03-23,34020.0,33180.0,33600.0,34020.0,0.0,34020.0
2015-03-24,34776.0,33600.0,33600.0,34692.0,0.0,34692.0
2015-03-25,34776.0,33180.0,34608.0,33516.0,0.0,33516.0
2015-03-26,34692.0,33264.0,33516.0,34692.0,0.0,34692.0
2015-03-27,35280.0,34188.0,34608.0,35112.0,0.0,35112.0
2015-03-30,35112.0,34524.0,35112.0,34944.0,0.0,34944.0
2015-03-31,36036.0,34860.0,34860.0,35616.0,0.0,35616.0
2015-04-01,35952.0,35196.0,35532.0,35784.0,0.0,35784.0
2015-04-02,35952.0,35112.0,35700.0,35532.0,0.0,35532.0
2015-04-06,37632.0,35448.0,35532.0,37296.0,0.0,37296.0
2015-04-07,39480.0,37044.0,37044.0,39228.0,0.0,39228.0
2015-04-08,40152.0,37884.0,39564.0,38388.0,0.0,38388.0
2015-04-09,40152.0,37884.0,38220.0,38808.0,0.0,38808.0
2015-04-10,40488.0,38556.0,38976.0,38808.0,0.0,38808.0
2015-04-13,39732.0,38556.0,39060.0,39312.0,0.0,39312.0
2015-04-14,41580.0,38976.0,39144.0,40656.0,0.0,40656.0
2015-04-15,41328.0,40068.0,40992.0,40152.0,0.0,40152.0
2015-04-16,41076.0,35196.0,39900.0,40320.0,0.0,40320.0
2015-04-17,41664.0,37464.0,41664.0,37800.0,0.0,37800.0
2015-04-20,38640.0,35448.0,37800.0,35784.0,0.0,35784.0
2015-04-21,35700.0,34440.0,35700.0,34776.0,0.0,34776.0
2015-04-22,35784.0,34440.0,34608.0,35112.0,0.0,35112.0
2015-04-23,37548.0,35364.0,35364.0,36624.0,0.0,36624.0
2015-04-24,37380.0,36372.0,36708.0,36372.0,0.0,36372.0
2015-04-27,37800.0,36204.0,36204.0,36960.0,0.0,36960.0
2015-04-28,37968.0,36372.0,36372.0,37884.0,0.0,37884.0
2015-04-29,37884.0,37128.0,37632.0,37632.0,0.0,37632.0
2015-04-30,37716.0,36288.0,37716.0,37044.0,0.0,37044.0
2015-05-01,38136.0,35700.0,37800.0,35952.0,0.0,35952.0
2015-05-04,36960.0,35532.0,36372.0,36120.0,0.0,36120.0
2015-05-05,36036.0,33600.0,34104.0,34692.0,0.0,34692.0
2015-05-06,35868.0,34524.0,35280.0,34860.0,0.0,34860.0
2015-05-07,35448.0,34356.0,35448.0,34944.0,0.0,34944.0
2015-05-08,35448.0,33516.0,34608.0,33516.0,0.0,33516.0
2015-05-11,35112.0,33432.0,34020.0,34524.0,0.0,34524.0
2015-05-12,34020.0,33180.0,34020.0,33180.0,0.0,33180.0
2015-05-13,34860.0,33180.0,33180.0,34356.0,0.0,34356.0
2015-05-14,36120.0,34020.0,34356.0,35448.0,0.0,35448.0
2015-05-15,36372.0,35616.0,35700.0,36036.0,0.0,36036.0
2015-05-18,36876.0,35532.0,36372.0,35952.0,0.0,35952.0
2015-05-19,36960.0,35700.0,36036.0,36288.0,0.0,36288.0
2015-05-20,36288.0,35028.0,36288.0,35196.0,0.0,35196.0
2015-05-21,36624.0,35028.0,35196.0,36036.0,0.0,36036.0
2015-05-22,37044.0,35532.0,36204.0,35952.0,0.0,35952.0
2015-05-26,37380.0,33936.0,37380.0,34608.0,0.0,34608.0
2015-05-27,35784.0,34440.0,35616.0,35112.0,0.0,35112.0
2015-05-28,36708.0,35112.0,35616.0,35784.0,0.0,35784.0
2015-05-29,37380.0,36204.0,36204.0,36708.0,0.0,36708.0
2015-06-01,37044.0,35448.0,36540.0,36792.0,0.0,36792.0
2015-06-02,36624.0,35952.0,36456.0,36372.0,0.0,36372.0
2015-06-03,37212.0,35364.0,36288.0,36288.0,0.0,36288.0
2015-06-04,36792.0,35448.0,36036.0,35952.0,0.0,35952.0
2015-06-05,36792.0,35364.0,35700.0,36120.0,0.0,36120.0
2015-06-08,36708.0,35280.0,35784.0,35364.0,0.0,35364.0
2015-06-09,35532.0,33768.0,35280.0,34440.0,0.0,34440.0
2015-06-10,35196.0,33852.0,33852.0,33936.0,0.0,33936.0
2015-06-11,35280.0,33684.0,34020.0,34104.0,0.0,34104.0
2015-06-12,34440.0,33600.0,33852.0,34020.0,0.0,34020.0
2015-06-15,34608.0,33432.0,34104.0,33600.0,0.0,33600.0
2015-06-16,34440.0,33432.0,33432.0,33852.0,0.0,33852.0
2015-06-17,35952.0,34020.0,34020.0,34356.0,0.0,34356.0
2015-06-18,35784.0,34440.0,34440.0,35532.0,0.0,35532.0
2015-06-19,36540.0,34776.0,35700.0,35700.0,0.0,35700.0
2015-06-22,36540.0,34188.0,35532.0,35700.0,0.0,35700.0
2015-06-23,36288.0,34692.0,35784.0,35364.0,0.0,35364.0
2015-06-24,36540.0,35112.0,35112.0,35532.0,0.0,35532.0
2015-06-25,36540.0,35784.0,36120.0,35784.0,0.0,35784.0
2015-06-26,34188.0,29904.0,34188.0,30912.0,0.0,30912.0
2015-06-29,30828.0,27888.0,30576.0,27888.0,0.0,27888.0
2015-06-30,29652.0,27048.0,28224.0,28980.0,0.0,28980.0
2015-07-01,29484.0,27552.0,28980.0,27636.0,0.0,27636.0
2015-07-02,29148.0,27720.0,27720.0,28476.0,0.0,28476.0
2015-07-06,29400.0,27720.0,28140.0,28308.0,0.0,28308.0
2015-07-07,29148.0,26208.0,28980.0,26628.0,0.0,26628.0
2015-07-08,27804.0,26124.0,26880.0,26880.0,0.0,26880.0
2015-07-09,27972.0,26880.0,27132.0,27300.0,0.0,27300.0
2015-07-10,29148.0,27132.0,27132.0,28560.0,0.0,28560.0
2015-07-13,29400.0,28392.0,28980.0,28392.0,0.0,28392.0
2015-07-14,29064.0,27468.0,28476.0,28140.0,0.0,28140.0
2015-07-15,28812.0,28140.0,28392.0,28224.0,0.0,28224.0
2015-07-16,29400.0,27636.0,28056.0,28644.0,0.0,28644.0
2015-07-17,29400.0,27972.0,28980.0,28560.0,0.0,28560.0
2015-07-20,29064.0,27468.0,28560.0,27636.0,0.0,27636.0
2015-07-21,28560.0,26460.0,28224.0,26460.0,0.0,26460.0
2015-07-22,27468.0,26460.0,26544.0,26796.0,0.0,26796.0
2015-07-23,27888.0,26208.0,27552.0,26208.0,0.0,26208.0
2015-07-24,27384.0,25620.0,26208.0,26124.0,0.0,26124.0
2015-07-27,26880.0,20244.0,26208.0,25368.0,0.0,25368.0
2015-07-28,26040.0,25200.0,25872.0,25368.0,0.0,25368.0
2015-07-29,26964.0,25620.0,25620.0,26040.0,0.0,26040.0
2015-07-30,26292.0,25200.0,26208.0,25200.0,0.0,25200.0
2015-07-31,26628.0,25704.0,25788.0,26124.0,0.0,26124.0
2015-08-03,29232.0,24948.0,26040.0,24948.0,0.0,24948.0
2015-08-04,26040.0,23772.0,25788.0,24444.0,0.0,24444.0
2015-08-05,26040.0,24612.0,25452.0,25116.0,0.0,25116.0
2015-08-06,24696.0,21420.0,24444.0,22428.0,0.0,22428.0
2015-08-07,23688.0,21000.0,22764.0,22932.0,0.0,22932.0
2015-08-10,22764.0,19908.0,22680.0,21924.0,0.0,21924.0
2015-08-11,24948.0,20832.0,21168.0,24612.0,0.0,24612.0
2015-08-12,26040.0,23100.0,24948.0,24612.0,0.0,24612.0
2015-08-13,24780.0,23184.0,24528.0,23772.0,0.0,23772.0
2015-08-14,24360.0,23016.0,23856.0,23016.0,0.0,23016.0
2015-08-17,24948.0,23016.0,23016.0,24444.0,0.0,24444.0
2015-08-18,24780.0,23940.0,24528.0,23940.0,0.0,23940.0
2015-08-19,24108.0,22932.0,23940.0,23268.0,0.0,23268.0
2015-08-20,23940.0,21672.0,23184.0,21840.0,0.0,21840.0
2015-08-21,22344.0,21168.0,21168.0,21672.0,0.0,21672.0
2015-08-24,23268.0,16716.0,18984.0,22008.0,0.0,22008.0
2015-08-25,23352.0,21420.0,22260.0,21504.0,0.0,21504.0
2015-08-26,22680.0,21504.0,21588.0,22008.0,0.0,22008.0
2015-08-27,23100.0,21504.0,22260.0,22344.0,0.0,22344.0
2015-08-28,24444.0,22680.0,22680.0,24024.0,0.0,24024.0
2015-08-31,29988.0,23520.0,23520.0,25200.0,0.0,25200.0
2015-09-01,27300.0,24276.0,24780.0,25956.0,0.0,25956.0
2015-09-02,25956.0,24696.0,25956.0,25116.0,0.0,25116.0
2015-09-03,25200.0,23688.0,25200.0,24192.0,0.0,24192.0
2015-09-04,24108.0,22680.0,23940.0,22848.0,0.0,22848.0
2015-09-08,24276.0,23100.0,23184.0,23772.0,0.0,23772.0
2015-09-09,24024.0,22428.0,23940.0,22428.0,0.0,22428.0
2015-09-10,23184.0,21252.0,22680.0,21756.0,0.0,21756.0
2015-09-11,22596.0,21168.0,21168.0,22428.0,0.0,22428.0
2015-09-14,23688.0,22008.0,22680.0,23688.0,0.0,23688.0
2015-09-15,25200.0,23016.0,23016.0,25032.0,0.0,25032.0
2015-09-16,25200.0,24612.0,24780.0,25200.0,0.0,25200.0
2015-09-17,26796.0,24780.0,25032.0,26208.0,0.0,26208.0
2015-09-18,26292.0,24360.0,25872.0,24360.0,0.0,24360.0
2015-09-21,24780.0,22932.0,24780.0,23100.0,0.0,23100.0
2015-09-22,23352.0,21840.0,22848.0,22260.0,0.0,22260.0
2015-09-23,22680.0,22008.0,22512.0,22428.0,0.0,22428.0
2015-09-24,22344.0,21084.0,22344.0,21336.0,0.0,21336.0
2015-09-25,23688.0,20916.0,21588.0,21168.0,0.0,21168.0
2015-09-28,21756.0,19320.0,21000.0,20160.0,0.0,20160.0
2015-09-29,20328.0,17640.0,20328.0,17808.0,0.0,17808.0
2015-09-30,18480.0,16800.0,18312.0,18480.0,0.0,18480.0
2015-10-01,19656.0,17220.0,18900.0,19236.0,0.0,19236.0
2015-10-02,20160.0,17892.0,19068.0,19740.0,0.0,19740.0
2015-10-05,21504.0,19572.0,20244.0,19908.0,0.0,19908.0
2015-10-06,20328.0,19236.0,19992.0,19320.0,0.0,19320.0
2015-10-07,20160.0,18900.0,19320.0,19992.0,0.0,19992.0
2015-10-08,22092.0,19656.0,20160.0,21756.0,0.0,21756.0
2015-10-09,22680.0,21252.0,21840.0,22428.0,0.0,22428.0
2015-10-12,22428.0,21084.0,22344.0,22176.0,0.0,22176.0
2015-10-13,22596.0,21252.0,21252.0,21756.0,0.0,21756.0
2015-10-14,22932.0,21252.0,21588.0,21504.0,0.0,21504.0
2015-10-15,22260.0,21168.0,21840.0,21840.0,0.0,21840.0
2015-10-16,22008.0,20916.0,21504.0,21588.0,0.0,21588.0
2015-10-19,22176.0,21252.0,21672.0,21336.0,0.0,21336.0
2015-10-20,22512.0,21672.0,21756.0,21924.0,0.0,21924.0
2015-10-21,22344.0,21252.0,22260.0,21672.0,0.0,21672.0
2015-10-22,22260.0,21420.0,22176.0,21756.0,0.0,21756.0
2015-10-23,22512.0,21252.0,22512.0,21756.0,0.0,21756.0
2015-10-26,22176.0,21000.0,21840.0,21756.0,0.0,21756.0
2015-10-27,22260.0,21504.0,22008.0,22008.0,0.0,22008.0
2015-10-28,22260.0,21504.0,22092.0,21924.0,0.0,21924.0
2015-10-29,22932.0,20496.0,22008.0,21000.0,0.0,21000.0
2015-10-30,21336.0,20328.0,21084.0,21168.0,0.0,21168.0
2015-11-02,21420.0,19488.0,21420.0,20244.0,0.0,20244.0
2015-11-03,21084.0,19404.0,19404.0,20328.0,0.0,20328.0
2015-11-04,20664.0,19824.0,20580.0,19992.0,0.0,19992.0
2015-11-05,19992.0,18060.0,19740.0,18816.0,0.0,18816.0
2015-11-06,18648.0,17640.0,18564.0,18312.0,0.0,18312.0
2015-11-09,19068.0,17808.0,18480.0,18732.0,0.0,18732.0
2015-11-10,18564.0,17892.0,18480.0,18480.0,0.0,18480.0
2015-11-11,18564.0,17640.0,18480.0,17808.0,0.0,17808.0
2015-11-12,18312.0,17640.0,17724.0,17892.0,0.0,17892.0
2015-11-13,17640.0,16800.0,17556.0,17304.0,0.0,17304.0
2015-11-16,17472.0,16800.0,17052.0,17136.0,0.0,17136.0
2015-11-17,17472.0,15456.0,16968.0,16296.0,0.0,16296.0
2015-11-18,16800.0,15120.0,16800.0,15204.0,0.0,15204.0
2015-11-19,15372.0,14700.0,15120.0,15036.0,0.0,15036.0
2015-11-20,15456.0,14700.0,15372.0,15372.0,0.0,15372.0
2015-11-23,15372.0,13860.0,15120.0,14616.0,0.0,14616.0
2015-11-24,14784.0,14196.0,14700.0,14448.0,0.0,14448.0
2015-11-25,15624.0,14196.0,14196.0,15540.0,0.0,15540.0
2015-11-27,15960.0,14532.0,15540.0,15960.0,0.0,15960.0
2015-11-30,15960.0,15120.0,15792.0,15624.0,0.0,15624.0
2015-12-01,15708.0,13944.0,14700.0,15120.0,0.0,15120.0
2015-12-02,15708.0,13440.0,14784.0,14448.0,100.0,14448.0
2015-12-03,14700.0,13860.0,14280.0,14700.0,0.0,14700.0
2015-12-04,14784.0,13440.0,14448.0,13608.0,0.0,13608.0
2015-12-07,13272.0,11844.0,12684.0,12348.0,0.0,12348.0
2015-12-08,12936.0,10920.0,12012.0,12852.0,0.0,12852.0
2015-12-09,14952.0,12264.0,14700.0,12432.0,0.0,12432.0
2015-12-10,13272.0,12180.0,12348.0,13020.0,0.0,13020.0
2015-12-11,13272.0,12768.0,12852.0,12852.0,0.0,12852.0
2015-12-14,13020.0,11340.0,12684.0,12264.0,0.0,12264.0
2015-12-15,12768.0,11088.0,12180.0,11340.0,0.0,11340.0
2015-12-16,11760.0,11004.0,11172.0,11340.0,0.0,11340.0
2015-12-17,11256.0,8904.0,11256.0,10752.0,0.0,10752.0
2015-12-18,11172.0,10164.0,10584.0,10752.0,0.0,10752.0
2015-12-21,11172.0,10584.0,10668.0,10920.0,0.0,10920.0
2015-12-22,11172.0,10080.0,10920.0,10080.0,0.0,10080.0
2015-12-23,13272.0,10416.0,10500.0,12516.0,0.0,12516.0
2015-12-24,12768.0,11760.0,12264.0,11928.0,0.0,11928.0
2015-12-28,12348.0,10500.0,11928.0,10752.0,0.0,10752.0
2015-12-29,11676.0,10500.0,11004.0,10584.0,0.0,10584.0
2015-12-30,11592.0,10248.0,10752.0,11172.0,0.0,11172.0
2015-12-31,11508.0,10584.0,11004.0,11340.0,0.0,11340.0
2016-01-04,11592.0,10584.0,11424.0,11004.0,0.0,11004.0
2016-01-05,11172.0,10668.0,10752.0,10836.0,0.0,10836.0
2016-01-06,10920.0,10500.0,10920.0,10500.0,0.0,10500.0
2016-01-07,10500.0,9744.0,10416.0,10248.0,0.0,10248.0
2016-01-08,10920.0,10080.0,10500.0,10416.0,0.0,10416.0
2016-01-11,10416.0,8988.0,10416.0,8988.0,0.0,8988.0
2016-01-12,9324.0,8820.0,8988.0,9072.0,0.0,9072.0
2016-01-13,9744.0,8400.0,9156.0,8484.0,0.0,8484.0
2016-01-14,8988.0,7644.0,8568.0,8904.0,0.0,8904.0
2016-01-15,9156.0,8400.0,9156.0,8736.0,0.0,8736.0
2016-01-19,9408.0,8820.0,8904.0,9156.0,0.0,9156.0
2016-01-20,9324.0,8400.0,8904.0,8568.0,0.0,8568.0
2016-01-21,10920.0,8400.0,8652.0,9576.0,0.0,9576.0
2016-01-22,10416.0,9492.0,9744.0,9576.0,0.0,9576.0
2016-01-25,10164.0,9240.0,9996.0,9744.0,0.0,9744.0
2016-01-26,10080.0,9492.0,9660.0,9492.0,0.0,9492.0
2016-01-27,9828.0,9408.0,9828.0,9492.0,0.0,9492.0
2016-01-28,9660.0,8316.0,9660.0,8316.0,0.0,8316.0
2016-01-29,9996.0,8820.0,8820.0,9072.0,0.0,9072.0
2016-02-01,9156.0,8568.0,9156.0,8904.0,0.0,8904.0
2016-02-02,9660.0,8316.0,8484.0,8736.0,0.0,8736.0
2016-02-03,9156.0,7980.0,9156.0,8484.0,0.0,8484.0
2016-02-04,9156.0,8400.0,8820.0,9156.0,0.0,9156.0
2016-02-05,9828.0,8652.0,9240.0,9324.0,0.0,9324.0
2016-02-08,9828.0,8400.0,9660.0,8484.0,0.0,8484.0
2016-02-09,9408.0,8316.0,9240.0,8400.0,0.0,8400.0
2016-02-10,8400.0,8232.0,8400.0,8232.0,0.0,8232.0
2016-02-11,8400.0,7980.0,8064.0,8148.0,0.0,8148.0
2016-02-12,8148.0,7812.0,8064.0,8064.0,0.0,8064.0
2016-02-16,8400.0,7560.0,7980.0,7728.0,0.0,7728.0
2016-02-17,7812.0,7224.0,7728.0,7728.0,0.0,7728.0
2016-02-18,7644.0,7224.0,7224.0,7476.0,0.0,7476.0
2016-02-19,7560.0,6720.0,7560.0,6804.0,0.0,6804.0
2016-02-22,6804.0,5208.0,6720.0,5796.0,0.0,5796.0
2016-02-23,6804.0,5460.0,6048.0,5880.0,0.0,5880.0
2016-02-24,6552.0,5796.0,5796.0,5964.0,0.0,5964.0
2016-02-25,6804.0,6048.0,6048.0,6804.0,0.0,6804.0
2016-02-26,6720.0,6132.0,6552.0,6132.0,0.0,6132.0
2016-02-29,6888.0,6132.0,6552.0,6132.0,0.0,6132.0
2016-03-01,6468.0,6132.0,6132.0,6468.0,0.0,6468.0
2016-03-02,7224.0,6300.0,6468.0,6888.0,0.0,6888.0
2016-03-03,5880.0,4704.0,5880.0,5376.0,0.0,5376.0
2016-03-04,5880.0,4956.0,4956.0,5796.0,0.0,5796.0
2016-03-07,7224.0,5292.0,5880.0,5796.0,0.0,5796.0
2016-03-08,7728.0,6132.0,6132.0,6216.0,0.0,6216.0
2016-03-09,7140.0,6216.0,6468.0,6300.0,0.0,6300.0
2016-03-10,6972.0,6636.0,6636.0,6888.0,0.0,6888.0
2016-03-11,7644.0,6888.0,7056.0,7140.0,0.0,7140.0
2016-03-14,7728.0,6972.0,7308.0,7560.0,0.0,7560.0
2016-03-15,8316.0,6972.0,7980.0,6972.0,0.0,6972.0
2016-03-16,7980.0,7056.0,7644.0,7812.0,0.0,7812.0
2016-03-17,7980.0,7140.0,7980.0,7980.0,0.0,7980.0
2016-03-18,8064.0,7224.0,7980.0,8064.0,0.0,8064.0
2016-03-21,9492.0,7980.0,8064.0,8652.0,0.0,8652.0
2016-03-22,9240.0,8316.0,8652.0,8316.0,0.0,8316.0
2016-03-23,8988.0,8064.0,8064.0,8064.0,0.0,8064.0
2016-03-24,8568.0,8148.0,8316.0,8568.0,0.0,8568.0
2016-03-28,8568.0,7140.0,8316.0,7140.0,0.0,7140.0
2016-03-29,8904.0,6972.0,8904.0,7728.0,0.0,7728.0
2016-03-30,8400.0,7392.0,7560.0,7476.0,0.0,7476.0
2016-03-31,7560.0,6888.0,6972.0,7056.0,0.0,7056.0
2016-04-01,7140.0,6468.0,7140.0,6468.0,0.0,6468.0
2016-04-04,8148.0,6048.0,6048.0,7056.0,0.0,7056.0
2016-04-05,7308.0,6552.0,7308.0,6552.0,0.0,6552.0
2016-04-06,7560.0,5964.0,6720.0,5964.0,0.0,5964.0
2016-04-07,6720.0,6300.0,6300.0,6384.0,0.0,6384.0
2016-04-08,6552.0,6300.0,6384.0,6300.0,0.0,6300.0
2016-04-11,6552.0,6300.0,6468.0,6300.0,0.0,6300.0
2016-04-12,6552.0,6300.0,6552.0,6552.0,0.0,6552.0
2016-04-13,6552.0,6300.0,6552.0,6384.0,0.0,6384.0
2016-04-14,6552.0,6300.0,6468.0,6468.0,0.0,6468.0
2016-04-15,6552.0,6216.0,6552.0,6216.0,0.0,6216.0
2016-04-18,6384.0,5628.0,6048.0,5964.0,0.0,5964.0
2016-04-19,6300.0,5628.0,6216.0,5880.0,0.0,5880.0
2016-04-20,5880.0,5712.0,5880.0,5796.0,0.0,5796.0
2016-04-21,6384.0,5712.0,5880.0,6132.0,0.0,6132.0
2016-04-22,6552.0,5880.0,6300.0,5880.0,0.0,5880.0
2016-04-25,6552.0,5880.0,6468.0,6048.0,0.0,6048.0
2016-04-26,6384.0,5880.0,6048.0,6384.0,0.0,6384.0
2016-04-27,6552.0,5964.0,6384.0,6300.0,0.0,6300.0
2016-04-28,6552.0,5964.0,6552.0,6300.0,0.0,6300.0
2016-04-29,6552.0,5964.0,6300.0,5964.0,0.0,5964.0
2016-05-02,6552.0,5292.0,6300.0,5460.0,0.0,5460.0
2016-05-03,6300.0,5460.0,5460.0,5628.0,0.0,5628.0
2016-05-04,5712.0,5460.0,5712.0,5544.0,0.0,5544.0
2016-05-05,5712.0,5376.0,5628.0,5460.0,0.0,5460.0
2016-05-06,5712.0,5460.0,5544.0,5628.0,0.0,5628.0
2016-05-09,5712.0,5460.0,5628.0,5544.0,0.0,5544.0
2016-05-10,5628.0,5460.0,5628.0,5628.0,0.0,5628.0
2016-05-11,5712.0,5544.0,5628.0,5628.0,0.0,5628.0
2016-05-12,5712.0,5460.0,5628.0,5460.0,0.0,5460.0
2016-05-13,5712.0,5124.0,5292.0,5292.0,0.0,5292.0
2016-05-16,5712.0,5460.0,5460.0,5712.0,0.0,5712.0
2016-05-17,5712.0,5376.0,5712.0,5712.0,0.0,5712.0
2016-05-18,5712.0,5292.0,5544.0,5376.0,0.0,5376.0
2016-05-19,5712.0,5544.0,5544.0,5628.0,0.0,5628.0
2016-05-20,6720.0,5544.0,5544.0,6552.0,0.0,6552.0
2016-05-23,6720.0,5628.0,6720.0,6384.0,0.0,6384.0
2016-05-24,6888.0,6300.0,6720.0,6552.0,0.0,6552.0
2016-05-25,6468.0,5796.0,6300.0,5796.0,0.0,5796.0
2016-05-26,6132.0,5628.0,5964.0,5964.0,0.0,5964.0
2016-05-27,5964.0,5628.0,5628.0,5712.0,0.0,5712.0
2016-05-31,6300.0,5712.0,5712.0,6216.0,0.0,6216.0
2016-06-01,6384.0,6048.0,6048.0,6132.0,0.0,6132.0
2016-06-02,6384.0,5376.0,5964.0,5376.0,0.0,5376.0
2016-06-03,5964.0,4788.0,5712.0,5292.0,0.0,5292.0
2016-06-06,5124.0,4872.0,5124.0,4956.0,0.0,4956.0
2016-06-07,5712.0,4872.0,4956.0,5040.0,0.0,5040.0
2016-06-08,5964.0,5040.0,5040.0,5460.0,0.0,5460.0
2016-06-09,5040.0,4872.0,5040.0,4956.0,0.0,4956.0
2016-06-10,5376.0,4872.0,4872.0,5040.0,0.0,5040.0
2016-06-13,5460.0,5124.0,5124.0,5124.0,0.0,5124.0
2016-06-14,5460.0,4872.0,5376.0,5124.0,0.0,5124.0
2016-06-15,5376.0,4872.0,5376.0,5208.0,0.0,5208.0
2016-06-16,5376.0,4200.0,4956.0,4872.0,0.0,4872.0
2016-06-17,5040.0,4116.0,5040.0,4116.0,0.0,4116.0
2016-06-20,4452.0,4116.0,4200.0,4116.0,0.0,4116.0
2016-06-21,4620.0,4032.0,4368.0,4032.0,0.0,4032.0
2016-06-22,4788.0,4032.0,4032.0,4032.0,0.0,4032.0
2016-06-23,4620.0,4284.0,4452.0,4284.0,0.0,4284.0
2016-06-24,4452.0,4032.0,4368.0,4284.0,0.0,4284.0
2016-06-27,4368.0,3948.0,4284.0,4032.0,0.0,4032.0
2016-06-28,4368.0,3444.0,4032.0,3528.0,0.0,3528.0
2016-06-29,3948.0,3360.0,3360.0,3864.0,0.0,3864.0
2016-06-30,4200.0,3696.0,3948.0,3864.0,0.0,3864.0
2016-07-01,4116.0,3696.0,4116.0,4116.0,0.0,4116.0
2016-07-05,4536.0,3780.0,4116.0,4536.0,0.0,4536.0
2016-07-06,5208.0,3864.0,4620.0,5208.0,0.0,5208.0
2016-07-07,5628.0,4620.0,5124.0,4788.0,0.0,4788.0
2016-07-08,4788.0,4032.0,4620.0,4116.0,0.0,4116.0
2016-07-11,5964.0,4200.0,4200.0,4956.0,0.0,4956.0
2016-07-12,5292.0,5040.0,5208.0,5124.0,0.0,5124.0
2016-07-13,5712.0,4536.0,5292.0,5544.0,0.0,5544.0
2016-07-14,5712.0,5208.0,5628.0,5292.0,0.0,5292.0
2016-07-15,6636.0,5208.0,5208.0,6552.0,0.0,6552.0
2016-07-18,7056.0,6300.0,6468.0,6636.0,0.0,6636.0
2016-07-19,8316.0,6300.0,6804.0,7896.0,0.0,7896.0
2016-07-20,13608.0,7980.0,8316.0,11340.0,200.0,11340.0
2016-07-21,10416.0,7728.0,10416.0,8484.0,0.0,8484.0
2016-07-22,8568.0,7812.0,8568.0,8400.0,0.0,8400.0
2016-07-25,8400.0,7896.0,8064.0,7896.0,0.0,7896.0
2016-07-26,7560.0,6300.0,6804.0,7140.0,0.0,7140.0
2016-07-27,7476.0,7140.0,7140.0,7392.0,0.0,7392.0
2016-07-28,8148.0,7140.0,7308.0,7392.0,0.0,7392.0
2016-07-29,8148.0,6888.0,7392.0,7560.0,0.0,7560.0
2016-08-01,8400.0,7476.0,7812.0,8064.0,0.0,8064.0
2016-08-02,8232.0,7560.0,8232.0,7812.0,0.0,7812.0
2016-08-03,8064.0,6804.0,6804.0,7728.0,0.0,7728.0
2016-08-04,7980.0,7392.0,7560.0,7392.0,0.0,7392.0
2016-08-05,7980.0,7392.0,7812.0,7980.0,0.0,7980.0
2016-08-08,8232.0,7476.0,8064.0,7896.0,0.0,7896.0
2016-08-09,8316.0,6300.0,8316.0,6552.0,0.0,6552.0
2016-08-10,7056.0,6384.0,6720.0,6720.0,0.0,6720.0
2016-08-11,7056.0,6552.0,6888.0,6720.0,0.0,6720.0
2016-08-12,6804.0,6300.0,6804.0,6636.0,0.0,6636.0
2016-08-15,6804.0,6300.0,6804.0,6720.0,0.0,6720.0
2016-08-16,6720.0,6384.0,6384.0,6552.0,0.0,6552.0
2016-08-17,6636.0,6468.0,6552.0,6636.0,0.0,6636.0
2016-08-18,6888.0,6468.0,6552.0,6804.0,0.0,6804.0
2016-08-19,6888.0,6636.0,6636.0,6888.0,0.0,6888.0
2016-08-22,7140.0,6636.0,6720.0,7140.0,0.0,7140.0
2016-08-23,7308.0,6048.0,7056.0,6972.0,0.0,6972.0
2016-08-24,7476.0,6384.0,6636.0,6888.0,0.0,6888.0
2016-08-25,6972.0,6552.0,6972.0,6636.0,0.0,6636.0
2016-08-26,6888.0,6216.0,6636.0,6216.0,0.0,6216.0
2016-08-29,6720.0,5964.0,6216.0,6636.0,0.0,6636.0
2016-08-30,6804.0,6552.0,6636.0,6804.0,0.0,6804.0
2016-08-31,7476.0,6300.0,6636.0,7476.0,0.0,7476.0
2016-09-01,7728.0,6972.0,7476.0,6972.0,0.0,6972.0
2016-09-02,7308.0,6804.0,7056.0,6972.0,0.0,6972.0
2016-09-06,7308.0,6552.0,6720.0,6636.0,0.0,6636.0
2016-09-07,7140.0,6552.0,7140.0,6804.0,0.0,6804.0
2016-09-08,7056.0,6468.0,6636.0,6552.0,0.0,6552.0
2016-09-09,6804.0,6468.0,6468.0,6720.0,0.0,6720.0
2016-09-12,6804.0,6468.0,6720.0,6720.0,0.0,6720.0
2016-09-13,6804.0,6300.0,6384.0,6636.0,0.0,6636.0
2016-09-14,6888.0,6300.0,6888.0,6720.0,0.0,6720.0
2016-09-15,6720.0,6468.0,6636.0,6636.0,0.0,6636.0
2016-09-16,6720.0,6048.0,6468.0,6132.0,0.0,6132.0
2016-09-19,6468.0,5880.0,6300.0,6048.0,0.0,6048.0
2016-09-20,6132.0,5880.0,5880.0,6132.0,0.0,6132.0
2016-09-21,6300.0,5880.0,6300.0,6132.0,0.0,6132.0
2016-09-22,6300.0,6132.0,6132.0,6216.0,0.0,6216.0
2016-09-23,6300.0,5964.0,6216.0,6048.0,0.0,6048.0
2016-09-26,6300.0,5880.0,5880.0,6048.0,0.0,6048.0
2016-09-27,6300.0,5964.0,5964.0,6132.0,0.0,6132.0
2016-09-28,6132.0,5880.0,6048.0,5880.0,0.0,5880.0
2016-09-29,5712.0,4536.0,5712.0,5040.0,0.0,5040.0
2016-09-30,4788.0,4536.0,4788.0,4704.0,0.0,4704.0
2016-10-03,4620.0,4452.0,4536.0,4536.0,0.0,4536.0
2016-10-04,4620.0,4368.0,4620.0,4452.0,0.0,4452.0
2016-10-05,4620.0,4200.0,4536.0,4200.0,0.0,4200.0
2016-10-06,4452.0,4200.0,4284.0,4368.0,0.0,4368.0
2016-10-07,4452.0,4200.0,4200.0,4452.0,0.0,4452.0
2016-10-10,4452.0,4284.0,4284.0,4368.0,0.0,4368.0
2016-10-11,4452.0,4284.0,4368.0,4284.0,0.0,4284.0
2016-10-12,4452.0,3948.0,4284.0,3948.0,0.0,3948.0
2016-10-13,3780.0,3444.0,3612.0,3528.0,0.0,3528.0
2016-10-14,3612.0,2772.0,3528.0,3108.0,0.0,3108.0
2016-10-17,3276.0,2772.0,3192.0,3024.0,0.0,3024.0
2016-10-18,3108.0,2772.0,2940.0,2772.0,0.0,2772.0
2016-10-19,3108.0,2520.0,2856.0,2856.0,0.0,2856.0
2016-10-20,3108.0,2772.0,2940.0,3108.0,0.0,3108.0
2016-10-21,3108.0,2604.0,3108.0,3024.0,0.0,3024.0
2016-10-24,3108.0,2772.0,3024.0,3024.0,0.0,3024.0
2016-10-25,3024.0,2520.0,2772.0,2604.0,0.0,2604.0
2016-10-26,3024.0,2520.0,3024.0,2688.0,0.0,2688.0
2016-10-27,2856.0,2436.0,2856.0,2520.0,0.0,2520.0
2016-10-28,2688.0,2016.0,2520.0,2100.0,0.0,2100.0
2016-10-31,1932.0,1764.0,1932.0,1764.0,0.0,1764.0
2016-11-01,1932.0,1680.0,1680.0,1764.0,0.0,1764.0
2016-11-02,1848.0,1680.0,1848.0,1764.0,0.0,1764.0
2016-11-03,1764.0,1680.0,1764.0,1764.0,0.0,1764.0
2016-11-04,1764.0,1680.0,1680.0,1680.0,0.0,1680.0
2016-11-07,1764.0,1512.0,1680.0,1680.0,0.0,1680.0
2016-11-08,1680.0,1512.0,1596.0,1596.0,0.0,1596.0
2016-11-09,1764.0,1512.0,1512.0,1596.0,0.0,1596.0
2016-11-10,1764.0,1428.0,1512.0,1764.0,0.0,1764.0
2016-11-11,1764.0,1512.0,1680.0,1596.0,0.0,1596.0
2016-11-14,1596.0,1512.0,1512.0,1512.0,0.0,1512.0
2016-11-15,1596.0,1512.0,1512.0,1512.0,0.0,1512.0
2016-11-16,1596.0,1512.0,1512.0,1512.0,0.0,1512.0
2016-11-17,1512.0,1512.0,1512.0,1512.0,0.0,1512.0
2016-11-18,1512.0,1260.0,1512.0,1512.0,0.0,1512.0
2016-11-21,1680.0,1344.0,1512.0,1428.0,0.0,1428.0
2016-11-22,1512.0,1260.0,1428.0,1344.0,0.0,1344.0
2016-11-23,1596.0,1344.0,1344.0,1512.0,300.0,1512.0
2016-11-25,2184.0,1512.0,1596.0,2100.0,500.0,2100.0
2016-11-28,2352.0,1680.0,2352.0,1764.0,300.0,1764.0
2016-11-29,1932.0,1512.0,1932.0,1512.0,100.0,1512.0
2016-11-30,1932.0,1596.0,1596.0,1764.0,100.0,1764.0
2016-12-01,1680.0,1428.0,1680.0,1512.0,100.0,1512.0
2016-12-02,1596.0,1428.0,1596.0,1512.0,0.0,1512.0
2016-12-05,1596.0,1428.0,1512.0,1428.0,0.0,1428.0
2016-12-06,1680.0,1344.0,1512.0,1680.0,100.0,1680.0
2016-12-07,1848.0,1596.0,1680.0,1764.0,200.0,1764.0
2016-12-08,6636.0,1680.0,1932.0,4872.0,3200.0,4872.0
2016-12-09,8064.0,3864.0,5712.0,4200.0,2700.0,4200.0
2016-12-12,4032.0,3024.0,3360.0,3192.0,300.0,3192.0
2016-12-13,5964.0,3192.0,3192.0,4872.0,1600.0,4872.0
2016-12-14,4872.0,3864.0,4200.0,4452.0,300.0,4452.0
2016-12-15,5040.0,3696.0,4788.0,3948.0,300.0,3948.0
2016-12-16,3780.0,3192.0,3360.0,3612.0,200.0,3612.0
2016-12-19,3780.0,3108.0,3780.0,3612.0,100.0,3612.0
2016-12-20,4032.0,3192.0,3192.0,3864.0,100.0,3864.0
2016-12-21,4452.0,3444.0,3528.0,3444.0,200.0,3444.0
2016-12-22,4284.0,3444.0,3444.0,4116.0,200.0,4116.0
2016-12-23,3948.0,3528.0,3780.0,3612.0,100.0,3612.0
2016-12-27,3780.0,3276.0,3780.0,3360.0,100.0,3360.0
2016-12-28,3528.0,2772.0,3528.0,3024.0,100.0,3024.0
2016-12-29,3108.0,2940.0,3024.0,3024.0,0.0,3024.0
2016-12-30,3612.0,2772.0,3108.0,2940.0,100.0,2940.0
2017-01-03,3360.0,2772.0,3360.0,2940.0,100.0,2940.0
2017-01-04,3024.0,2772.0,2940.0,2772.0,100.0,2772.0
2017-01-05,2940.0,2688.0,2772.0,2688.0,0.0,2688.0
2017-01-06,2772.0,2352.0,2688.0,2688.0,100.0,2688.0
2017-01-09,2688.0,2436.0,2688.0,2436.0,0.0,2436.0
2017-01-10,2520.0,2100.0,2520.0,2184.0,100.0,2184.0
2017-01-11,2940.0,2184.0,2352.0,2268.0,400.0,2268.0
2017-01-12,2772.0,2184.0,2268.0,2520.0,600.0,2520.0
2017-01-13,3088.39990234375,2181.199951171875,2508.800048828125,2293.199951171875,1800.0,2293.199951171875
2017-01-17,2189.60009765625,1982.4000244140625,2189.60009765625,2010.4000244140625,500.0,2010.4000244140625
2017-01-18,2189.60009765625,1968.4000244140625,2038.4000244140625,2142.0,2500.0,2142.0
2017-01-19,2542.39990234375,1677.199951171875,2450.0,1719.199951171875,5700.0,1719.199951171875
2017-01-20,1887.199951171875,1582.0,1719.199951171875,1615.5999755859375,2400.0,1615.5999755859375
2017-01-23,1817.199951171875,1500.800048828125,1565.199951171875,1710.800048828125,2400.0,1710.800048828125
2017-01-24,1752.800048828125,1540.0,1716.4000244140625,1604.4000244140625,1200.0,1604.4000244140625
2017-01-25,1744.4000244140625,1568.0,1598.800048828125,1624.0,1400.0,1624.0
2017-01-26,1890.0,1570.800048828125,1596.0,1862.0,3100.0,1862.0
2017-01-27,1918.0,1568.0,1797.5999755859375,1652.0,2000.0,1652.0
2017-01-30,1668.800048828125,1388.800048828125,1632.4000244140625,1419.5999755859375,1200.0,1419.5999755859375
2017-01-31,1666.0,1388.800048828125,1402.800048828125,1481.199951171875,3500.0,1481.199951171875
2017-02-01,1534.4000244140625,1414.0,1450.4000244140625,1470.0,600.0,1470.0
2017-02-02,1607.199951171875,1416.800048828125,1416.800048828125,1514.800048828125,1700.0,1514.800048828125
2017-02-03,1724.800048828125,1484.0,1534.4000244140625,1554.0,2400.0,1554.0
2017-02-06,1537.199951171875,1436.4000244140625,1512.0,1512.0,600.0,1512.0
2017-02-07,1758.4000244140625,1484.0,1484.0,1604.4000244140625,4400.0,1604.4000244140625
2017-02-08,1691.199951171875,1542.800048828125,1542.800048828125,1601.5999755859375,1000.0,1601.5999755859375
2017-02-09,1601.5999755859375,1484.0,1554.0,1565.199951171875,700.0,1565.199951171875
2017-02-10,1559.5999755859375,1506.4000244140625,1526.0,1523.199951171875,400.0,1523.199951171875
2017-02-13,1537.199951171875,1456.0,1500.800048828125,1472.800048828125,400.0,1472.800048828125
2017-02-14,1470.0,1330.0,1436.4000244140625,1388.800048828125,1100.0,1388.800048828125
2017-02-15,1416.800048828125,1338.4000244140625,1355.199951171875,1397.199951171875,400.0,1397.199951171875
2017-02-16,1442.0,1358.0,1386.0,1380.4000244140625,200.0,1380.4000244140625
2017-02-17,1430.800048828125,1288.0,1372.0,1419.5999755859375,600.0,1419.5999755859375
2017-02-21,1425.199951171875,1360.800048828125,1416.800048828125,1374.800048828125,300.0,1374.800048828125
2017-02-22,1369.199951171875,1288.0,1366.4000244140625,1304.800048828125,300.0,1304.800048828125
2017-02-23,1324.4000244140625,1260.0,1304.800048828125,1265.5999755859375,400.0,1265.5999755859375
2017-02-24,1397.199951171875,1260.0,1260.0,1282.4000244140625,800.0,1282.4000244140625
2017-02-27,1369.199951171875,1260.0,1285.199951171875,1288.0,500.0,1288.0
2017-02-28,1313.199951171875,1223.5999755859375,1288.0,1248.800048828125,500.0,1248.800048828125
2017-03-01,1293.5999755859375,1190.0,1274.0,1212.4000244140625,400.0,1212.4000244140625
2017-03-02,1260.0,1010.7999877929688,1260.0,1120.0,1300.0,1120.0
2017-03-03,1159.199951171875,1086.4000244140625,1086.4000244140625,1148.0,400.0,1148.0
2017-03-06,1125.5999755859375,1072.4000244140625,1125.5999755859375,1117.199951171875,200.0,1117.199951171875
2017-03-07,1176.0,1019.2000122070312,1086.4000244140625,1066.800048828125,400.0,1066.800048828125
2017-03-08,1148.0,1036.0,1064.0,1061.199951171875,200.0,1061.199951171875
2017-03-09,1108.800048828125,980.0,1044.4000244140625,1078.0,200.0,1078.0
2017-03-10,1162.0,994.0,1078.0,1061.199951171875,400.0,1061.199951171875
2017-03-13,1086.4000244140625,991.2000122070312,1047.199951171875,1038.800048828125,200.0,1038.800048828125
2017-03-14,1083.5999755859375,988.4000244140625,1010.7999877929688,991.2000122070312,300.0,991.2000122070312
2017-03-15,1058.4000244140625,977.2000122070312,1002.4000244140625,994.0,200.0,994.0
2017-03-16,1038.800048828125,924.0,999.5999755859375,926.7999877929688,300.0,926.7999877929688
2017-03-17,957.5999755859375,876.4000244140625,935.2000122070312,890.4000244140625,400.0,890.4000244140625
2017-03-20,924.0,781.2000122070312,887.5999755859375,792.4000244140625,400.0,792.4000244140625
2017-03-21,784.0,565.5999755859375,784.0,574.0,2100.0,574.0
2017-03-22,658.0,576.7999877929688,579.5999755859375,624.4000244140625,1700.0,624.4000244140625
2017-03-23,898.7999877929688,590.7999877929688,848.4000244140625,610.4000244140625,35900.0,610.4000244140625
2017-03-24,602.0,543.2000122070312,590.7999877929688,548.7999877929688,2900.0,548.7999877929688
2017-03-27,548.7999877929688,462.0,546.0,487.20001220703125,2100.0,487.20001220703125
2017-03-28,666.4000244140625,467.6000061035156,518.0,646.7999877929688,7600.0,646.7999877929688
2017-03-29,568.4000244140625,504.0,551.5999755859375,512.4000244140625,5200.0,512.4000244140625
2017-03-30,520.7999877929688,490.0,515.2000122070312,501.20001220703125,1800.0,501.20001220703125
2017-03-31,515.2000122070312,492.79998779296875,492.79998779296875,509.6000061035156,1300.0,509.6000061035156
2017-04-03,504.0,470.3999938964844,504.0,484.3999938964844,1400.0,484.3999938964844
2017-04-04,512.4000244140625,467.6000061035156,476.0,481.6000061035156,1800.0,481.6000061035156
2017-04-05,596.4000244140625,470.3999938964844,490.0,506.79998779296875,3900.0,506.79998779296875
2017-04-06,630.0,526.4000244140625,532.0,571.2000122070312,8700.0,571.2000122070312
2017-04-07,588.0,492.79998779296875,546.0,501.20001220703125,2600.0,501.20001220703125
2017-04-10,543.2000122070312,484.3999938964844,515.2000122070312,504.0,800.0,504.0
2017-04-11,537.5999755859375,484.3999938964844,512.4000244140625,490.0,1100.0,490.0
2017-04-12,501.20001220703125,462.0,501.20001220703125,464.79998779296875,1300.0,464.79998779296875
2017-04-13,476.0,453.6000061035156,464.79998779296875,459.20001220703125,600.0,459.20001220703125
2017-04-17,484.3999938964844,456.3999938964844,459.20001220703125,459.20001220703125,700.0,459.20001220703125
2017-04-18,456.3999938964844,364.0,456.3999938964844,378.0,3500.0,378.0
2017-04-19,285.6000061035156,252.0,280.0,254.8000030517578,18100.0,254.8000030517578
2017-04-20,260.3999938964844,238.0,260.3999938964844,249.1999969482422,3700.0,249.1999969482422
2017-04-21,268.79998779296875,254.8000030517578,266.0,257.6000061035156,4300.0,257.6000061035156
2017-04-24,260.3999938964844,238.0,260.3999938964844,249.1999969482422,2300.0,249.1999969482422
2017-04-25,254.8000030517578,201.60000610351562,254.8000030517578,229.60000610351562,3000.0,229.60000610351562
2017-04-26,229.60000610351562,224.0,229.60000610351562,224.0,1100.0,224.0
2017-04-27,226.8000030517578,215.60000610351562,221.1999969482422,218.39999389648438,1300.0,218.39999389648438
2017-04-28,224.0,210.0,218.39999389648438,210.0,1300.0,210.0
2017-05-01,215.60000610351562,198.8000030517578,212.8000030517578,207.1999969482422,1100.0,207.1999969482422
2017-05-02,210.0,198.8000030517578,204.39999389648438,201.60000610351562,700.0,201.60000610351562
2017-05-03,204.39999389648438,187.60000610351562,201.60000610351562,193.1999969482422,1600.0,193.1999969482422
2017-05-04,246.39999389648438,193.1999969482422,196.0,221.1999969482422,7600.0,221.1999969482422
2017-05-05,243.60000610351562,201.60000610351562,226.8000030517578,207.1999969482422,4500.0,207.1999969482422
2017-05-08,212.8000030517578,196.0,212.8000030517578,207.1999969482422,1600.0,207.1999969482422
2017-05-09,218.39999389648438,190.39999389648438,218.39999389648438,196.0,2300.0,196.0
2017-05-10,201.60000610351562,176.39999389648438,196.0,187.60000610351562,1900.0,187.60000610351562
2017-05-11,229.60000610351562,179.1999969482422,184.8000030517578,212.8000030517578,4200.0,212.8000030517578
2017-05-12,224.0,198.8000030517578,218.39999389648438,204.39999389648438,1600.0,204.39999389648438
2017-05-15,210.0,193.1999969482422,204.39999389648438,201.60000610351562,1200.0,201.60000610351562
2017-05-16,207.1999969482422,176.39999389648438,201.60000610351562,193.1999969482422,1600.0,193.1999969482422
2017-05-17,193.1999969482422,176.39999389648438,187.60000610351562,182.0,1300.0,182.0
2017-05-18,184.8000030517578,168.0,179.1999969482422,173.60000610351562,800.0,173.60000610351562
2017-05-19,196.0,173.60000610351562,173.60000610351562,182.0,1100.0,182.0
2017-05-22,190.39999389648438,173.60000610351562,182.0,176.39999389648438,700.0,176.39999389648438
2017-05-23,179.1999969482422,170.8000030517578,179.1999969482422,170.8000030517578,600.0,170.8000030517578
2017-05-24,187.60000610351562,170.8000030517578,173.60000610351562,184.8000030517578,300.0,184.8000030517578
2017-05-25,187.60000610351562,168.0,187.60000610351562,170.8000030517578,300.0,170.8000030517578
2017-05-26,176.39999389648438,168.0,170.8000030517578,168.0,500.0,168.0
2017-05-30,170.8000030517578,148.39999389648438,168.0,156.8000030517578,1000.0,156.8000030517578
2017-05-31,173.60000610351562,142.8000030517578,156.8000030517578,162.39999389648438,1400.0,162.39999389648438
2017-06-01,165.1999969482422,148.39999389648438,159.60000610351562,159.60000610351562,200.0,159.60000610351562
2017-06-02,170.8000030517578,154.0,154.0,159.60000610351562,200.0,159.60000610351562
2017-06-05,168.0,159.60000610351562,165.1999969482422,165.1999969482422,300.0,165.1999969482422
2017-06-06,190.39999389648438,162.39999389648438,162.39999389648438,173.60000610351562,800.0,173.60000610351562
2017-06-07,182.0,170.8000030517578,179.1999969482422,176.39999389648438,100.0,176.39999389648438
2017-06-08,187.60000610351562,173.60000610351562,179.1999969482422,187.60000610351562,700.0,187.60000610351562
2017-06-09,196.0,182.0,190.39999389648438,190.39999389648438,600.0,190.39999389648438
2017-06-12,190.39999389648438,159.60000610351562,190.39999389648438,170.8000030517578,400.0,170.8000030517578
2017-06-13,179.1999969482422,168.0,170.8000030517578,170.8000030517578,100.0,170.8000030517578
2017-06-14,179.1999969482422,168.0,170.8000030517578,170.8000030517578,200.0,170.8000030517578
2017-06-15,170.8000030517578,159.60000610351562,170.8000030517578,162.39999389648438,800.0,162.39999389648438
2017-06-16,170.8000030517578,159.60000610351562,165.1999969482422,165.1999969482422,300.0,165.1999969482422
2017-06-19,170.8000030517578,159.60000610351562,165.1999969482422,159.60000610351562,300.0,159.60000610351562
2017-06-20,165.1999969482422,159.60000610351562,162.39999389648438,162.39999389648438,400.0,162.39999389648438
2017-06-21,168.0,159.60000610351562,165.1999969482422,159.60000610351562,200.0,159.60000610351562
2017-06-22,168.0,159.60000610351562,159.60000610351562,162.39999389648438,400.0,162.39999389648438
2017-06-23,182.0,159.60000610351562,168.0,170.8000030517578,900.0,170.8000030517578
2017-06-26,182.0,168.0,170.8000030517578,176.39999389648438,200.0,176.39999389648438
2017-06-27,190.39999389648438,170.8000030517578,176.39999389648438,176.39999389648438,400.0,176.39999389648438
2017-06-28,176.39999389648438,170.8000030517578,170.8000030517578,173.60000610351562,100.0,173.60000610351562
2017-06-29,302.3999938964844,198.8000030517578,224.0,302.3999938964844,47000.0,302.3999938964844
2017-06-30,456.3999938964844,282.79998779296875,361.20001220703125,288.3999938964844,164100.0,288.3999938964844
2017-07-03,308.0,221.1999969482422,305.20001220703125,260.3999938964844,15700.0,260.3999938964844
2017-07-05,288.3999938964844,229.60000610351562,266.0,235.1999969482422,8500.0,235.1999969482422
2017-07-06,235.1999969482422,201.60000610351562,232.39999389648438,212.8000030517578,5800.0,212.8000030517578
2017-07-07,271.6000061035156,207.1999969482422,224.0,243.60000610351562,20400.0,243.60000610351562
2017-07-10,252.0,215.60000610351562,252.0,224.0,5700.0,224.0
2017-07-11,235.1999969482422,212.8000030517578,224.0,218.39999389648438,2500.0,218.39999389648438
2017-07-12,226.8000030517578,207.1999969482422,226.8000030517578,215.60000610351562,1600.0,215.60000610351562
2017-07-13,235.1999969482422,207.1999969482422,210.0,229.60000610351562,2900.0,229.60000610351562
2017-07-14,260.3999938964844,212.8000030517578,243.60000610351562,221.1999969482422,7400.0,221.1999969482422
2017-07-17,221.1999969482422,210.0,210.0,221.1999969482422,1500.0,221.1999969482422
2017-07-18,221.1999969482422,210.0,221.1999969482422,212.8000030517578,1600.0,212.8000030517578
2017-07-19,212.8000030517578,204.39999389648438,210.0,210.0,1200.0,210.0
2017-07-20,229.60000610351562,204.39999389648438,210.0,215.60000610351562,1800.0,215.60000610351562
2017-07-21,218.39999389648438,204.39999389648438,218.39999389648438,210.0,1300.0,210.0
2017-07-24,212.8000030517578,196.0,212.8000030517578,198.8000030517578,1700.0,198.8000030517578
2017-07-25,210.0,190.39999389648438,198.8000030517578,196.0,2200.0,196.0
2017-07-26,210.0,190.39999389648438,190.39999389648438,193.1999969482422,1300.0,193.1999969482422
2017-07-27,201.60000610351562,190.39999389648438,198.8000030517578,193.1999969482422,1000.0,193.1999969482422
2017-07-28,201.60000610351562,187.60000610351562,198.8000030517578,187.60000610351562,700.0,187.60000610351562
2017-07-31,198.8000030517578,190.39999389648438,190.39999389648438,193.1999969482422,1400.0,193.1999969482422
2017-08-01,198.8000030517578,187.60000610351562,193.1999969482422,187.60000610351562,700.0,187.60000610351562
2017-08-02,193.1999969482422,187.60000610351562,187.60000610351562,187.60000610351562,400.0,187.60000610351562
2017-08-03,229.60000610351562,190.39999389648438,190.39999389648438,212.8000030517578,8500.0,212.8000030517578
2017-08-04,232.39999389648438,212.8000030517578,212.8000030517578,218.39999389648438,2900.0,218.39999389648438
2017-08-07,224.0,190.39999389648438,224.0,210.0,2200.0,210.0
2017-08-08,254.8000030517578,215.60000610351562,238.0,218.39999389648438,9700.0,218.39999389648438
2017-08-09,224.0,196.0,218.39999389648438,201.60000610351562,2700.0,201.60000610351562
2017-08-10,198.8000030517578,176.39999389648438,176.39999389648438,182.0,4000.0,182.0
2017-08-11,184.8000030517578,179.1999969482422,182.0,182.0,1600.0,182.0
2017-08-14,190.39999389648438,182.0,182.0,182.0,800.0,182.0
2017-08-15,204.39999389648438,182.0,187.60000610351562,196.0,1600.0,196.0
2017-08-16,201.60000610351562,187.60000610351562,196.0,190.39999389648438,1400.0,190.39999389648438
2017-08-17,210.0,187.60000610351562,193.1999969482422,196.0,2900.0,196.0
2017-08-18,207.1999969482422,193.1999969482422,196.0,201.60000610351562,1500.0,201.60000610351562
2017-08-21,204.39999389648438,193.1999969482422,198.8000030517578,198.8000030517578,1300.0,198.8000030517578
2017-08-22,201.60000610351562,190.39999389648438,198.8000030517578,190.39999389648438,900.0,190.39999389648438
2017-08-23,193.1999969482422,184.8000030517578,190.39999389648438,187.60000610351562,1200.0,187.60000610351562
2017-08-24,196.0,187.60000610351562,187.60000610351562,187.60000610351562,900.0,187.60000610351562
2017-08-25,193.1999969482422,182.0,187.60000610351562,187.60000610351562,700.0,187.60000610351562
2017-08-28,187.60000610351562,179.1999969482422,182.0,179.1999969482422,1100.0,179.1999969482422
2017-08-29,193.1999969482422,179.1999969482422,182.0,187.60000610351562,1400.0,187.60000610351562
2017-08-30,190.39999389648438,182.0,182.0,184.8000030517578,400.0,184.8000030517578
2017-08-31,198.8000030517578,182.0,182.0,190.39999389648438,1100.0,190.39999389648438
2017-09-01,201.60000610351562,187.60000610351562,190.39999389648438,190.39999389648438,900.0,190.39999389648438
2017-09-05,215.60000610351562,190.39999389648438,193.1999969482422,198.8000030517578,2000.0,198.8000030517578
2017-09-06,207.1999969482422,190.39999389648438,196.0,198.8000030517578,500.0,198.8000030517578
2017-09-07,198.8000030517578,190.39999389648438,190.39999389648438,196.0,600.0,196.0
2017-09-08,193.1999969482422,182.0,190.39999389648438,187.60000610351562,1200.0,187.60000610351562
2017-09-11,196.0,182.0,184.8000030517578,190.39999389648438,900.0,190.39999389648438
2017-09-12,190.39999389648438,179.1999969482422,182.0,184.8000030517578,1300.0,184.8000030517578
2017-09-13,190.39999389648438,179.1999969482422,179.1999969482422,187.60000610351562,1900.0,187.60000610351562
2017-09-14,187.60000610351562,182.0,187.60000610351562,184.8000030517578,500.0,184.8000030517578
2017-09-15,184.8000030517578,168.0,182.0,173.60000610351562,1600.0,173.60000610351562
2017-09-18,179.1999969482422,156.8000030517578,179.1999969482422,159.60000610351562,2400.0,159.60000610351562
2017-09-19,168.0,156.8000030517578,162.39999389648438,159.60000610351562,1600.0,159.60000610351562
2017-09-20,176.39999389648438,159.60000610351562,162.39999389648438,162.39999389648438,2400.0,162.39999389648438
2017-09-21,173.60000610351562,159.60000610351562,173.60000610351562,168.0,1700.0,168.0
2017-09-22,170.8000030517578,159.60000610351562,170.8000030517578,168.0,700.0,168.0
2017-09-25,173.60000610351562,162.39999389648438,168.0,165.1999969482422,900.0,165.1999969482422
2017-09-26,170.8000030517578,162.39999389648438,168.0,165.1999969482422,1000.0,165.1999969482422
2017-09-27,173.60000610351562,162.39999389648438,162.39999389648438,162.39999389648438,1800.0,162.39999389648438
2017-09-28,179.1999969482422,162.39999389648438,179.1999969482422,165.1999969482422,1800.0,165.1999969482422
2017-09-29,168.0,159.60000610351562,165.1999969482422,165.1999969482422,700.0,165.1999969482422
2017-10-02,184.8000030517578,165.1999969482422,165.1999969482422,170.8000030517578,2700.0,170.8000030517578
2017-10-03,179.1999969482422,168.0,170.8000030517578,170.8000030517578,800.0,170.8000030517578
2017-10-04,176.39999389648438,170.8000030517578,176.39999389648438,173.60000610351562,700.0,173.60000610351562
2017-10-05,176.39999389648438,159.60000610351562,173.60000610351562,170.8000030517578,2800.0,170.8000030517578
2017-10-06,173.60000610351562,162.39999389648438,170.8000030517578,168.0,1100.0,168.0
2017-10-09,165.1999969482422,156.8000030517578,165.1999969482422,156.8000030517578,700.0,156.8000030517578
2017-10-10,162.39999389648438,156.8000030517578,156.8000030517578,156.8000030517578,700.0,156.8000030517578
2017-10-11,173.60000610351562,151.1999969482422,154.0,156.8000030517578,4900.0,156.8000030517578
2017-10-12,156.8000030517578,134.39999389648438,156.8000030517578,134.39999389648438,5700.0,134.39999389648438
2017-10-13,131.60000610351562,115.63999938964844,123.9000015258789,115.63999938964844,5900.0,115.63999938964844
2017-10-16,132.02000427246094,117.04000091552734,117.04000091552734,126.9800033569336,2900.0,126.9800033569336
2017-10-17,129.77999877929688,117.5999984741211,127.4000015258789,125.86000061035156,2300.0,125.86000061035156
2017-10-18,125.58000183105469,116.19999694824219,125.58000183105469,116.19999694824219,2200.0,116.19999694824219
2017-10-19,111.86000061035156,93.23999786376953,109.19999694824219,108.36000061035156,10300.0,108.36000061035156
2017-10-20,107.94000244140625,98.13999938964844,107.37999725341797,98.83999633789062,1000.0,98.83999633789062
2017-10-23,102.62000274658203,91.41999816894531,98.13999938964844,98.13999938964844,4100.0,98.13999938964844
2017-10-24,99.4000015258789,98.0,98.9800033569336,98.0,800.0,98.0
2017-10-25,98.69999694824219,98.0,98.0,98.55999755859375,1100.0,98.55999755859375
2017-10-26,99.54000091552734,94.5,98.0,96.73999786376953,800.0,96.73999786376953
2017-10-27,99.54000091552734,94.63999938964844,96.31999969482422,98.27999877929688,3600.0,98.27999877929688
2017-10-30,120.95999908447266,98.69999694824219,98.69999694824219,108.36000061035156,2000.0,108.36000061035156
2017-10-31,108.22000122070312,92.54000091552734,108.22000122070312,97.86000061035156,2300.0,97.86000061035156
2017-11-01,94.77999877929688,92.54000091552734,94.77999877929688,94.5,600.0,94.5
2017-11-02,99.81996154785156,81.05996704101562,94.3599624633789,86.65996551513672,26500.0,86.65996551513672
2017-11-03,94.49996185302734,86.65996551513672,86.65996551513672,91.41996002197266,15200.0,91.41996002197266
2017-11-06,94.49996185302734,86.37996673583984,93.37995910644531,86.65996551513672,28700.0,86.65996551513672
2017-11-07,95.19999694824219,77.13999938964844,88.33999633789062,79.66000366210938,2200.0,79.66000366210938
2017-11-08,77.41999816894531,64.54000091552734,77.41999816894531,69.58000183105469,2900.0,69.58000183105469
2017-11-09,69.86000061035156,63.13999938964844,69.86000061035156,65.37999725341797,1300.0,65.37999725341797
2017-11-10,68.18000030517578,57.81999969482422,64.81999969482422,63.0,2200.0,63.0
2017-11-13,63.0,57.540000915527344,63.0,59.91999816894531,1800.0,59.91999816894531
2017-11-14,58.2400016784668,50.400001525878906,56.41999816894531,52.779998779296875,5800.0,52.779998779296875
2017-11-15,342.29998779296875,51.52000045776367,52.08000183105469,231.0,715800.0,231.0
2017-11-16,336.0,169.39999389648438,260.9599914550781,179.05999755859375,157000.0,179.05999755859375
2017-11-17,174.5800018310547,133.6999969482422,157.36000061035156,140.4199981689453,33400.0,140.4199981689453
2017-11-20,141.39999389648438,112.83999633789062,119.27999877929688,113.68000030517578,64000.0,113.68000030517578
2017-11-21,151.05999755859375,105.69999694824219,116.9000015258789,110.31999969482422,100800.0,110.31999969482422
2017-11-22,68.5999984741211,59.5,67.19999694824219,60.900001525878906,215600.0,60.900001525878906
2017-11-24,61.599998474121094,54.880001068115234,60.900001525878906,59.5,28900.0,59.5
2017-11-27,62.58000183105469,56.0,62.439998626708984,58.52000045776367,42500.0,58.52000045776367
2017-11-28,58.79999923706055,54.599998474121094,57.400001525878906,55.439998626708984,29900.0,55.439998626708984
2017-11-29,63.0,53.20000076293945,56.0,54.7400016784668,163400.0,54.7400016784668
2017-11-30,67.76000213623047,55.15999984741211,59.91999816894531,57.119998931884766,466900.0,57.119998931884766
2017-12-01,57.400001525878906,51.79999923706055,56.0,54.599998474121094,65600.0,54.599998474121094
2017-12-04,60.619998931884766,54.7400016784668,56.41999816894531,56.97999954223633,92700.0,56.97999954223633
2017-12-05,58.099998474121094,52.220001220703125,57.400001525878906,53.060001373291016,40500.0,53.060001373291016
2017-12-06,54.599998474121094,43.68000030517578,53.34000015258789,45.08000183105469,86200.0,45.08000183105469
2017-12-07,45.5,40.18000030517578,43.400001525878906,43.2599983215332,53600.0,43.2599983215332
2017-12-08,48.86000061035156,41.439998626708984,43.400001525878906,48.02000045776367,88500.0,48.02000045776367
2017-12-11,58.79999923706055,51.099998474121094,54.18000030517578,53.20000076293945,307500.0,53.20000076293945
2017-12-12,53.34000015258789,47.599998474121094,52.36000061035156,50.119998931884766,50700.0,50.119998931884766
2017-12-13,62.29999923706055,50.68000030517578,57.540000915527344,55.15999984741211,249400.0,55.15999984741211
2017-12-14,55.15999984741211,51.099998474121094,55.15999984741211,52.63999938964844,42200.0,52.63999938964844
2017-12-15,56.41999816894531,50.81999969482422,52.08000183105469,50.81999969482422,51800.0,50.81999969482422
2017-12-18,54.459999084472656,51.099998474121094,51.79999923706055,53.34000015258789,38800.0,53.34000015258789
2017-12-19,53.47999954223633,49.84000015258789,52.08000183105469,50.2599983215332,32000.0,50.2599983215332
2017-12-20,51.79999923706055,49.84000015258789,50.400001525878906,51.65999984741211,23900.0,51.65999984741211
2017-12-21,51.65999984741211,48.58000183105469,50.959999084472656,49.97999954223633,22200.0,49.97999954223633
2017-12-22,51.2400016784668,48.86000061035156,50.2599983215332,49.13999938964844,16500.0,49.13999938964844
2017-12-26,50.540000915527344,48.02000045776367,50.540000915527344,49.84000015258789,10000.0,49.84000015258789
2017-12-27,55.02000045776367,48.58000183105469,49.84000015258789,50.400001525878906,47200.0,50.400001525878906
2017-12-28,51.79999923706055,49.41999816894531,51.2400016784668,50.959999084472656,12800.0,50.959999084472656
2017-12-29,52.08000183105469,48.439998626708984,51.52000045776367,48.439998626708984,11900.0,48.439998626708984
2018-01-02,50.119998931884766,47.599998474121094,48.439998626708984,49.84000015258789,8500.0,49.84000015258789
2018-01-03,50.400001525878906,48.720001220703125,49.84000015258789,49.0,9400.0,49.0
2018-01-04,50.400001525878906,48.439998626708984,50.400001525878906,49.13999938964844,9600.0,49.13999938964844
2018-01-05,50.400001525878906,48.29999923706055,49.560001373291016,49.279998779296875,12400.0,49.279998779296875
2018-01-08,62.58000183105469,49.279998779296875,49.41999816894531,58.099998474121094,255000.0,58.099998474121094
2018-01-09,56.70000076293945,51.099998474121094,56.41999816894531,51.79999923706055,60900.0,51.79999923706055
2018-01-10,51.2400016784668,48.29999923706055,51.2400016784668,50.400001525878906,22300.0,50.400001525878906
2018-01-11,52.220001220703125,49.70000076293945,50.959999084472656,51.380001068115234,16900.0,51.380001068115234
2018-01-12,52.36000061035156,49.84000015258789,51.79999923706055,50.68000030517578,9200.0,50.68000030517578
2018-01-16,50.68000030517578,48.720001220703125,49.97999954223633,49.13999938964844,14500.0,49.13999938964844
2018-01-17,54.040000915527344,48.439998626708984,49.84000015258789,49.70000076293945,28200.0,49.70000076293945
2018-01-18,51.2400016784668,49.13999938964844,51.2400016784668,50.119998931884766,9400.0,50.119998931884766
2018-01-19,60.7599983215332,50.68000030517578,51.79999923706055,54.459999084472656,206100.0,54.459999084472656
2018-01-22,59.5,52.779998779296875,53.7599983215332,57.2599983215332,60800.0,57.2599983215332
2018-01-23,58.65999984741211,53.20000076293945,56.70000076293945,54.18000030517578,48700.0,54.18000030517578
2018-01-24,55.86000061035156,53.47999954223633,55.58000183105469,54.459999084472656,18200.0,54.459999084472656
2018-01-25,55.439998626708984,50.68000030517578,55.439998626708984,53.47999954223633,36100.0,53.47999954223633
2018-01-26,58.52000045776367,52.5,54.459999084472656,57.119998931884766,60300.0,57.119998931884766
2018-01-29,67.19999694824219,54.040000915527344,61.599998474121094,56.84000015258789,259400.0,56.84000015258789
2018-01-30,56.560001373291016,51.099998474121094,55.15999984741211,54.459999084472656,37300.0,54.459999084472656
2018-01-31,55.439998626708984,51.79999923706055,55.439998626708984,51.939998626708984,24800.0,51.939998626708984
2018-02-01,54.459999084472656,51.099998474121094,51.939998626708984,53.34000015258789,13500.0,53.34000015258789
2018-02-02,53.900001525878906,50.68000030517578,53.900001525878906,52.5,11300.0,52.5
2018-02-05,52.5,49.0,52.5,49.41999816894531,15900.0,49.41999816894531
2018-02-06,48.58000183105469,43.540000915527344,48.58000183105469,48.02000045776367,13700.0,48.02000045776367
2018-02-07,49.41999816894531,46.20000076293945,48.720001220703125,47.040000915527344,7600.0,47.040000915527344
2018-02-08,47.599998474121094,44.79999923706055,47.599998474121094,45.63999938964844,9300.0,45.63999938964844
2018-02-09,46.619998931884766,40.18000030517578,45.779998779296875,42.41999816894531,25300.0,42.41999816894531
2018-02-12,45.5,42.0,43.2599983215332,45.5,13100.0,45.5
2018-02-13,46.47999954223633,43.400001525878906,45.63999938964844,44.939998626708984,6100.0,44.939998626708984
2018-02-14,45.220001220703125,42.0,44.939998626708984,43.540000915527344,9300.0,43.540000915527344
2018-02-15,43.959999084472656,42.279998779296875,42.84000015258789,42.70000076293945,7600.0,42.70000076293945
2018-02-16,46.20000076293945,42.560001373291016,42.560001373291016,44.380001068115234,9900.0,44.380001068115234
2018-02-20,46.900001525878906,43.540000915527344,44.79999923706055,44.79999923706055,18900.0,44.79999923706055
2018-02-21,45.5,42.84000015258789,44.65999984741211,43.959999084472656,8000.0,43.959999084472656
2018-02-22,45.36000061035156,43.540000915527344,44.79999923706055,43.81999969482422,8300.0,43.81999969482422
2018-02-23,43.959999084472656,42.70000076293945,43.68000030517578,43.119998931884766,6200.0,43.119998931884766
2018-02-26,44.52000045776367,42.97999954223633,43.68000030517578,44.380001068115234,5600.0,44.380001068115234
2018-02-27,48.29999923706055,43.68000030517578,43.959999084472656,43.68000030517578,31800.0,43.68000030517578
2018-02-28,45.91999816894531,43.400001525878906,43.400001525878906,44.099998474121094,16500.0,44.099998474121094
2018-03-01,45.220001220703125,42.560001373291016,44.79999923706055,43.540000915527344,7100.0,43.540000915527344
2018-03-02,44.65999984741211,42.70000076293945,43.81999969482422,44.65999984741211,4100.0,44.65999984741211
2018-03-05,45.36000061035156,43.540000915527344,44.2400016784668,45.08000183105469,3000.0,45.08000183105469
2018-03-06,56.0,47.18000030517578,47.599998474121094,49.13999938964844,94800.0,49.13999938964844
2018-03-07,51.099998474121094,46.900001525878906,49.0,50.540000915527344,18300.0,50.540000915527344
2018-03-08,50.540000915527344,47.599998474121094,50.119998931884766,49.0,10800.0,49.0
2018-03-09,50.959999084472656,48.02000045776367,50.959999084472656,50.119998931884766,11100.0,50.119998931884766
2018-03-12,50.68000030517578,48.439998626708984,50.68000030517578,49.560001373291016,7900.0,49.560001373291016
2018-03-13,55.720001220703125,49.70000076293945,49.70000076293945,53.900001525878906,63800.0,53.900001525878906
2018-03-14,56.279998779296875,51.79999923706055,55.29999923706055,55.720001220703125,43100.0,55.720001220703125
2018-03-15,65.80000305175781,57.119998931884766,61.31999969482422,59.91999816894531,221700.0,59.91999816894531
2018-03-16,60.619998931884766,54.599998474121094,59.779998779296875,57.119998931884766,38200.0,57.119998931884766
2018-03-19,59.91999816894531,54.599998474121094,58.2400016784668,56.0,42800.0,56.0
2018-03-20,65.37999725341797,45.220001220703125,64.26000213623047,47.7400016784668,269100.0,47.7400016784668
2018-03-21,47.880001068115234,45.08000183105469,46.060001373291016,47.31999969482422,29100.0,47.31999969482422
2018-03-22,47.31999969482422,42.0,47.31999969482422,43.2599983215332,40800.0,43.2599983215332
2018-03-23,43.119998931884766,41.15999984741211,42.97999954223633,41.58000183105469,28100.0,41.58000183105469
2018-03-26,42.41999816894531,40.459999084472656,41.86000061035156,40.880001068115234,18800.0,40.880001068115234
2018-03-27,42.97999954223633,40.599998474121094,40.880001068115234,41.29999923706055,12900.0,41.29999923706055
2018-03-28,41.439998626708984,37.79999923706055,41.439998626708984,38.5,22200.0,38.5
2018-03-29,41.58000183105469,37.939998626708984,39.060001373291016,39.060001373291016,16000.0,39.060001373291016
2018-04-02,41.29999923706055,35.0,38.779998779296875,37.939998626708984,7900.0,37.939998626708984
2018-04-03,38.63999938964844,37.099998474121094,37.939998626708984,37.380001068115234,5600.0,37.380001068115234
2018-04-04,38.5,35.41999816894531,37.2400016784668,37.2400016784668,9900.0,37.2400016784668
2018-04-05,49.70000076293945,39.900001525878906,48.439998626708984,41.02000045776367,339900.0,41.02000045776367
2018-04-06,42.279998779296875,39.060001373291016,40.18000030517578,42.0,23000.0,42.0
2018-04-09,42.97999954223633,39.20000076293945,42.0,40.31999969482422,10300.0,40.31999969482422
2018-04-10,45.779998779296875,40.7400016784668,42.279998779296875,43.2599983215332,176000.0,43.2599983215332
2018-04-11,43.2599983215332,41.15999984741211,43.2599983215332,42.0,9200.0,42.0
2018-04-12,46.47999954223633,41.58000183105469,44.52000045776367,46.20000076293945,79300.0,46.20000076293945
2018-04-13,47.18000030517578,42.97999954223633,46.47999954223633,46.20000076293945,44200.0,46.20000076293945
2018-04-16,46.20000076293945,43.400001525878906,46.20000076293945,44.79999923706055,22000.0,44.79999923706055
2018-04-17,47.880001068115234,44.099998474121094,45.63999938964844,45.08000183105469,28600.0,45.08000183105469
2018-04-18,45.5,43.540000915527344,45.220001220703125,45.5,10100.0,45.5
2018-04-19,45.5,43.540000915527344,45.5,44.2400016784668,8500.0,44.2400016784668
2018-04-20,44.65999984741211,43.400001525878906,43.959999084472656,43.959999084472656,3600.0,43.959999084472656
2018-04-23,44.380001068115234,42.560001373291016,43.540000915527344,43.540000915527344,7700.0,43.540000915527344
2018-04-24,44.099998474121094,41.15999984741211,43.68000030517578,42.41999816894531,11200.0,42.41999816894531
2018-04-25,42.97999954223633,40.599998474121094,42.0,41.15999984741211,7600.0,41.15999984741211
2018-04-26,42.84000015258789,41.15999984741211,41.86000061035156,41.29999923706055,4600.0,41.29999923706055
2018-04-27,41.720001220703125,40.599998474121094,41.58000183105469,41.15999984741211,3400.0,41.15999984741211
2018-04-30,42.560001373291016,41.02000045776367,41.29999923706055,42.560001373291016,3700.0,42.560001373291016
2018-05-01,44.099998474121094,41.86000061035156,42.41999816894531,43.959999084472656,6300.0,43.959999084472656
2018-05-02,45.08000183105469,43.68000030517578,44.099998474121094,44.65999984741211,5600.0,44.65999984741211
2018-05-03,52.5,44.65999984741211,45.08000183105469,48.58000183105469,82400.0,48.58000183105469
2018-05-04,52.5,45.63999938964844,49.13999938964844,50.540000915527344,58500.0,50.540000915527344
2018-05-07,53.20000076293945,48.29999923706055,51.79999923706055,49.84000015258789,39200.0,49.84000015258789
2018-05-08,48.02000045776367,42.0,47.599998474121094,42.70000076293945,27600.0,42.70000076293945
2018-05-09,42.560001373291016,40.880001068115234,41.439998626708984,41.29999923706055,18500.0,41.29999923706055
2018-05-10,42.13999938964844,40.599998474121094,42.0,40.7400016784668,11800.0,40.7400016784668
2018-05-11,41.86000061035156,39.900001525878906,41.439998626708984,40.459999084472656,11400.0,40.459999084472656
2018-05-14,46.900001525878906,38.779998779296875,40.459999084472656,40.7400016784668,22900.0,40.7400016784668
2018-05-15,41.15999984741211,38.91999816894531,40.599998474121094,39.7599983215332,10800.0,39.7599983215332
2018-05-16,40.7400016784668,39.7599983215332,39.7599983215332,40.040000915527344,6900.0,40.040000915527344
2018-05-17,40.880001068115234,39.900001525878906,40.18000030517578,40.31999969482422,4000.0,40.31999969482422
2018-05-18,40.7400016784668,39.900001525878906,40.599998474121094,40.459999084472656,5500.0,40.459999084472656
2018-05-21,41.15999984741211,39.900001525878906,40.459999084472656,40.599998474121094,4800.0,40.599998474121094
2018-05-22,41.720001220703125,39.47999954223633,41.720001220703125,40.18000030517578,4300.0,40.18000030517578
2018-05-23,40.31999969482422,39.20000076293945,40.18000030517578,39.47999954223633,4600.0,39.47999954223633
2018-05-24,44.099998474121094,39.34000015258789,39.47999954223633,41.86000061035156,34400.0,41.86000061035156
2018-05-25,42.41999816894531,40.7400016784668,41.29999923706055,42.13999938964844,7100.0,42.13999938964844
2018-05-29,42.13999938964844,40.459999084472656,42.13999938964844,40.880001068115234,4800.0,40.880001068115234
2018-05-30,41.58000183105469,39.20000076293945,41.439998626708984,39.619998931884766,6500.0,39.619998931884766
2018-05-31,41.720001220703125,39.7599983215332,39.7599983215332,41.29999923706055,5400.0,41.29999923706055
2018-06-01,41.02000045776367,39.900001525878906,40.880001068115234,40.459999084472656,4300.0,40.459999084472656
2018-06-04,40.599998474121094,37.939998626708984,40.459999084472656,39.060001373291016,11000.0,39.060001373291016
2018-06-05,39.7599983215332,38.5,39.47999954223633,38.63999938964844,8400.0,38.63999938964844
2018-06-06,39.34000015258789,37.380001068115234,39.20000076293945,38.779998779296875,9900.0,38.779998779296875
2018-06-07,39.34000015258789,37.52000045776367,38.63999938964844,38.220001220703125,4700.0,38.220001220703125
2018-06-08,38.5,36.959999084472656,38.08000183105469,37.52000045776367,8400.0,37.52000045776367
2018-06-11,38.36000061035156,36.81999969482422,37.79999923706055,38.220001220703125,3900.0,38.220001220703125
2018-06-12,39.34000015258789,37.65999984741211,37.939998626708984,39.060001373291016,3900.0,39.060001373291016
2018-06-13,41.58000183105469,37.380001068115234,39.20000076293945,39.900001525878906,24400.0,39.900001525878906
2018-06-14,40.459999084472656,38.91999816894531,39.34000015258789,38.91999816894531,3600.0,38.91999816894531
2018-06-15,39.34000015258789,37.79999923706055,38.91999816894531,37.939998626708984,5900.0,37.939998626708984
2018-06-18,38.5,37.380001068115234,37.79999923706055,37.79999923706055,3500.0,37.79999923706055
2018-06-19,38.36000061035156,35.0,37.79999923706055,37.099998474121094,11500.0,37.099998474121094
2018-06-20,38.5,35.97999954223633,38.5,36.119998931884766,6100.0,36.119998931884766
2018-06-21,37.65999984741211,35.13999938964844,37.65999984741211,35.560001373291016,3900.0,35.560001373291016
2018-06-22,38.08000183105469,35.13999938964844,35.84000015258789,37.380001068115234,9500.0,37.380001068115234
2018-06-25,37.2400016784668,35.84000015258789,36.81999969482422,37.099998474121094,4600.0,37.099998474121094
2018-06-26,37.099998474121094,32.7599983215332,37.099998474121094,33.599998474121094,13300.0,33.599998474121094
2018-06-27,33.7400016784668,28.280000686645508,33.7400016784668,30.65999984741211,21700.0,30.65999984741211
2018-06-28,30.65999984741211,29.399999618530273,30.239999771118164,29.399999618530273,4300.0,29.399999618530273
2018-06-29,29.540000915527344,25.200000762939453,29.399999618530273,25.760000228881836,43800.0,25.760000228881836
2018-07-02,26.18000030517578,23.3799991607666,25.899999618530273,24.079999923706055,16300.0,24.079999923706055
2018-07-03,25.760000228881836,23.239999771118164,24.780000686645508,23.239999771118164,15900.0,23.239999771118164
2018-07-05,24.920000076293945,23.100000381469727,23.3799991607666,24.219999313354492,14800.0,24.219999313354492
2018-07-06,24.920000076293945,23.3799991607666,24.079999923706055,23.520000457763672,19800.0,23.520000457763672
2018-07-09,26.18000030517578,23.520000457763672,24.079999923706055,26.040000915527344,30000.0,26.040000915527344
2018-07-10,26.600000381469727,23.520000457763672,26.600000381469727,23.940000534057617,22700.0,23.940000534057617
2018-07-11,25.059999465942383,23.3799991607666,25.059999465942383,23.520000457763672,15300.0,23.520000457763672
2018-07-12,26.31999969482422,23.100000381469727,26.18000030517578,23.3799991607666,57500.0,23.3799991607666
2018-07-13,23.940000534057617,21.280000686645508,23.3799991607666,22.399999618530273,21700.0,22.399999618530273
2018-07-16,22.959999084472656,21.84000015258789,22.68000030517578,21.84000015258789,8900.0,21.84000015258789
2018-07-17,22.81999969482422,21.84000015258789,22.399999618530273,21.979999542236328,6700.0,21.979999542236328
2018-07-18,22.1200008392334,18.760000228881836,21.979999542236328,20.579999923706055,31200.0,20.579999923706055
2018-07-19,21.559999465942383,20.15999984741211,20.579999923706055,20.579999923706055,16000.0,20.579999923706055
2018-07-20,22.68000030517578,20.440000534057617,20.440000534057617,21.0,2800.0,21.0
2018-07-23,26.600000381469727,20.860000610351562,21.420000076293945,22.81999969482422,133700.0,22.81999969482422
2018-07-24,22.959999084472656,21.559999465942383,22.68000030517578,22.1200008392334,20600.0,22.1200008392334
2018-07-25,26.31999969482422,22.1200008392334,25.200000762939453,22.68000030517578,267100.0,22.68000030517578
2018-07-26,24.360000610351562,21.979999542236328,22.540000915527344,22.68000030517578,23900.0,22.68000030517578
2018-07-27,23.520000457763672,22.540000915527344,22.959999084472656,22.68000030517578,17400.0,22.68000030517578
2018-07-30,23.940000534057617,23.100000381469727,23.940000534057617,23.239999771118164,17300.0,23.239999771118164
2018-07-31,23.65999984741211,22.260000228881836,23.3799991607666,22.81999969482422,11800.0,22.81999969482422
2018-08-01,24.079999923706055,22.540000915527344,22.540000915527344,23.520000457763672,9800.0,23.520000457763672
2018-08-02,23.520000457763672,22.81999969482422,23.3799991607666,22.959999084472656,3200.0,22.959999084472656
2018-08-03,23.940000534057617,23.100000381469727,23.3799991607666,23.520000457763672,5200.0,23.520000457763672
2018-08-06,24.360000610351562,22.1200008392334,22.81999969482422,22.81999969482422,24900.0,22.81999969482422
2018-08-07,23.100000381469727,18.34000015258789,21.700000762939453,19.040000915527344,53000.0,19.040000915527344
2018-08-08,20.020000457763672,13.020000457763672,19.459999084472656,16.799999237060547,66800.0,16.799999237060547
2018-08-09,17.219999313354492,14.699999809265137,17.219999313354492,15.539999961853027,14300.0,15.539999961853027
2018-08-10,15.819999694824219,13.720000267028809,15.399999618530273,14.279999732971191,17500.0,14.279999732971191
2018-08-13,15.260000228881836,14.279999732971191,14.279999732971191,14.84000015258789,4800.0,14.84000015258789
2018-08-14,14.84000015258789,14.279999732971191,14.699999809265137,14.84000015258789,3200.0,14.84000015258789
2018-08-15,14.699999809265137,14.0,14.699999809265137,14.0,6800.0,14.0
2018-08-16,15.260000228881836,14.0,14.0,14.84000015258789,15400.0,14.84000015258789
2018-08-17,15.960000038146973,14.420000076293945,14.84000015258789,14.979999542236328,22300.0,14.979999542236328
2018-08-20,15.399999618530273,14.279999732971191,15.399999618530273,14.84000015258789,4300.0,14.84000015258789
2018-08-21,16.3799991607666,14.279999732971191,16.100000381469727,14.699999809265137,19800.0,14.699999809265137
2018-08-22,15.819999694824219,14.699999809265137,14.699999809265137,15.399999618530273,8100.0,15.399999618530273
2018-08-23,18.6200008392334,15.260000228881836,15.539999961853027,17.5,81000.0,17.5
2018-08-24,18.479999542236328,16.239999771118164,18.059999465942383,16.3799991607666,18900.0,16.3799991607666
2018-08-27,17.219999313354492,16.239999771118164,17.079999923706055,16.520000457763672,7900.0,16.520000457763672
2018-08-28,18.200000762939453,16.799999237060547,17.920000076293945,17.920000076293945,24800.0,17.920000076293945
2018-08-29,18.479999542236328,16.799999237060547,18.200000762939453,17.219999313354492,11100.0,17.219999313354492
2018-08-30,17.920000076293945,17.219999313354492,17.5,17.219999313354492,4900.0,17.219999313354492
2018-08-31,17.639999389648438,16.940000534057617,17.5,17.219999313354492,5100.0,17.219999313354492
2018-09-04,17.079999923706055,16.239999771118164,17.079999923706055,16.65999984741211,5200.0,16.65999984741211
2018-09-05,18.479999542236328,15.819999694824219,17.079999923706055,18.059999465942383,38800.0,18.059999465942383
2018-09-06,18.059999465942383,16.799999237060547,18.059999465942383,17.360000610351562,4300.0,17.360000610351562
2018-09-07,18.34000015258789,16.520000457763672,17.079999923706055,17.780000686645508,10100.0,17.780000686645508
2018-09-10,18.34000015258789,17.360000610351562,18.200000762939453,17.639999389648438,5000.0,17.639999389648438
2018-09-11,17.5,17.219999313354492,17.5,17.360000610351562,3300.0,17.360000610351562
2018-09-12,17.5,16.520000457763672,17.5,16.799999237060547,7000.0,16.799999237060547
2018-09-13,17.5,16.520000457763672,16.799999237060547,16.799999237060547,3600.0,16.799999237060547
2018-09-14,17.079999923706055,16.3799991607666,16.3799991607666,16.520000457763672,4200.0,16.520000457763672
2018-09-17,16.940000534057617,15.399999618530273,16.65999984741211,15.819999694824219,3100.0,15.819999694824219
2018-09-18,16.100000381469727,15.399999618530273,15.819999694824219,15.680000305175781,1900.0,15.680000305175781
2018-09-19,17.5,15.399999618530273,15.399999618530273,16.100000381469727,16100.0,16.100000381469727
2018-09-20,17.5,16.100000381469727,16.100000381469727,16.799999237060547,3000.0,16.799999237060547
2018-09-21,17.079999923706055,16.3799991607666,16.799999237060547,16.799999237060547,2700.0,16.799999237060547
2018-09-24,16.799999237060547,16.100000381469727,16.799999237060547,16.520000457763672,2300.0,16.520000457763672
2018-09-25,16.65999984741211,15.680000305175781,16.65999984741211,16.520000457763672,1800.0,16.520000457763672
2018-09-26,16.520000457763672,15.819999694824219,15.960000038146973,15.960000038146973,2500.0,15.960000038146973
2018-09-27,17.079999923706055,16.100000381469727,16.100000381469727,16.799999237060547,5400.0,16.799999237060547
2018-09-28,16.799999237060547,16.239999771118164,16.799999237060547,16.520000457763672,2800.0,16.520000457763672
2018-10-01,18.059999465942383,16.100000381469727,16.100000381469727,16.799999237060547,15000.0,16.799999237060547
2018-10-02,17.219999313354492,16.520000457763672,16.799999237060547,16.65999984741211,4600.0,16.65999984741211
2018-10-03,18.059999465942383,16.239999771118164,16.65999984741211,17.639999389648438,35400.0,17.639999389648438
2018-10-04,18.059999465942383,16.799999237060547,18.059999465942383,17.360000610351562,7800.0,17.360000610351562
2018-10-05,17.5,16.3799991607666,16.940000534057617,16.520000457763672,3700.0,16.520000457763672
2018-10-08,17.5,16.65999984741211,17.5,16.799999237060547,2800.0,16.799999237060547
2018-10-09,17.5,16.3799991607666,16.799999237060547,17.219999313354492,5400.0,17.219999313354492
2018-10-10,17.360000610351562,16.520000457763672,17.079999923706055,16.799999237060547,2700.0,16.799999237060547
2018-10-11,17.360000610351562,15.539999961853027,17.219999313354492,15.539999961853027,6500.0,15.539999961853027
2018-10-12,16.100000381469727,14.979999542236328,15.680000305175781,15.119999885559082,4400.0,15.119999885559082
2018-10-15,15.539999961853027,14.5600004196167,15.539999961853027,15.399999618530273,3400.0,15.399999618530273
2018-10-16,16.100000381469727,14.979999542236328,15.399999618530273,15.539999961853027,3600.0,15.539999961853027
2018-10-17,15.960000038146973,15.260000228881836,15.260000228881836,15.260000228881836,6500.0,15.260000228881836
2018-10-18,17.079999923706055,15.119999885559082,15.399999618530273,15.539999961853027,6900.0,15.539999961853027
2018-10-19,17.780000686645508,15.119999885559082,15.680000305175781,16.239999771118164,27300.0,16.239999771118164
2018-10-22,16.65999984741211,14.699999809265137,16.65999984741211,15.119999885559082,7800.0,15.119999885559082
2018-10-23,14.979999542236328,14.140000343322754,14.699999809265137,14.979999542236328,5000.0,14.979999542236328
2018-10-24,14.979999542236328,12.600000381469727,14.979999542236328,13.720000267028809,11600.0,13.720000267028809
2018-10-25,14.279999732971191,13.579999923706055,14.0,13.579999923706055,3000.0,13.579999923706055
2018-10-26,14.279999732971191,12.600000381469727,13.720000267028809,13.300000190734863,4400.0,13.300000190734863
2018-10-29,13.4399995803833,10.779999732971191,13.300000190734863,12.039999961853027,10300.0,12.039999961853027
2018-10-30,13.300000190734863,11.899999618530273,12.039999961853027,12.039999961853027,16300.0,12.039999961853027
2018-10-31,14.0,12.039999961853027,12.460000038146973,14.0,8700.0,14.0
2018-11-01,14.699999809265137,12.739999771118164,14.279999732971191,14.420000076293945,32000.0,14.420000076293945
2018-11-02,14.84000015258789,14.0,14.420000076293945,14.0,7100.0,14.0
2018-11-05,15.960000038146973,14.140000343322754,14.140000343322754,14.84000015258789,16200.0,14.84000015258789
2018-11-06,18.899999618530273,14.279999732971191,16.799999237060547,14.699999809265137,126900.0,14.699999809265137
2018-11-07,15.539999961853027,14.140000343322754,15.119999885559082,15.260000228881836,19100.0,15.260000228881836
2018-11-08,18.059999465942383,14.84000015258789,14.979999542236328,15.680000305175781,71300.0,15.680000305175781
2018-11-09,16.520000457763672,14.699999809265137,15.680000305175781,15.539999961853027,23400.0,15.539999961853027
2018-11-12,16.239999771118164,14.699999809265137,15.819999694824219,15.119999885559082,10500.0,15.119999885559082
2018-11-13,15.680000305175781,14.699999809265137,15.539999961853027,14.979999542236328,4400.0,14.979999542236328
2018-11-14,15.399999618530273,14.140000343322754,15.119999885559082,14.420000076293945,7900.0,14.420000076293945
2018-11-15,14.699999809265137,13.4399995803833,14.140000343322754,13.859999656677246,6900.0,13.859999656677246
2018-11-16,14.699999809265137,13.579999923706055,14.279999732971191,14.420000076293945,3600.0,14.420000076293945
2018-11-19,14.979999542236328,13.300000190734863,14.279999732971191,13.300000190734863,2200.0,13.300000190734863
2018-11-20,13.4399995803833,11.899999618530273,13.4399995803833,12.460000038146973,13000.0,12.460000038146973
2018-11-21,13.020000457763672,12.039999961853027,13.020000457763672,12.739999771118164,3700.0,12.739999771118164
2018-11-23,12.739999771118164,11.899999618530273,12.460000038146973,12.319999694824219,600.0,12.319999694824219
2018-11-26,12.600000381469727,11.899999618530273,12.600000381469727,12.180000305175781,3300.0,12.180000305175781
2018-11-27,12.460000038146973,12.039999961853027,12.460000038146973,12.039999961853027,2300.0,12.039999961853027
2018-11-28,12.460000038146973,11.619999885559082,12.180000305175781,11.619999885559082,2500.0,11.619999885559082
2018-11-29,12.319999694824219,10.920000076293945,11.899999618530273,12.319999694824219,2800.0,12.319999694824219
2018-11-30,12.600000381469727,11.899999618530273,12.039999961853027,12.460000038146973,3200.0,12.460000038146973
2018-12-03,12.880000114440918,11.619999885559082,12.039999961853027,12.600000381469727,19900.0,12.600000381469727
2018-12-04,12.739999771118164,11.199999809265137,12.460000038146973,11.760000228881836,2300.0,11.760000228881836
2018-12-06,12.180000305175781,11.619999885559082,11.760000228881836,11.619999885559082,3800.0,11.619999885559082
2018-12-07,11.899999618530273,11.0600004196167,11.619999885559082,11.0600004196167,5700.0,11.0600004196167
2018-12-10,11.0600004196167,9.380000114440918,11.0600004196167,9.800000190734863,8900.0,9.800000190734863
2018-12-11,10.779999732971191,9.800000190734863,10.5,10.359999656677246,23200.0,10.359999656677246
2018-12-12,11.199999809265137,9.9399995803833,10.640000343322754,11.0600004196167,6700.0,11.0600004196167
2018-12-13,11.199999809265137,9.800000190734863,11.199999809265137,9.9399995803833,4300.0,9.9399995803833
2018-12-14,10.5,9.9399995803833,10.359999656677246,10.079999923706055,2000.0,10.079999923706055
2018-12-17,9.9399995803833,8.680000305175781,9.9399995803833,8.819999694824219,4200.0,8.819999694824219
2018-12-18,9.100000381469727,8.119999885559082,8.819999694824219,9.100000381469727,11200.0,9.100000381469727
2018-12-19,9.520000457763672,7.139999866485596,9.520000457763672,8.539999961853027,4100.0,8.539999961853027
2018-12-20,9.100000381469727,7.139999866485596,8.539999961853027,8.119999885559082,4900.0,8.119999885559082
2018-12-21,8.399999618530273,6.579999923706055,8.119999885559082,6.579999923706055,7100.0,6.579999923706055
2018-12-24,7.28000020980835,6.579999923706055,7.139999866485596,6.860000133514404,4900.0,6.860000133514404
2018-12-26,7.420000076293945,6.019999980926514,7.420000076293945,6.579999923706055,14600.0,6.579999923706055
2018-12-27,6.860000133514404,5.599999904632568,6.579999923706055,6.159999847412109,26600.0,6.159999847412109
2018-12-28,7.699999809265137,6.159999847412109,6.300000190734863,7.420000076293945,26500.0,7.420000076293945
2018-12-31,7.420000076293945,6.440000057220459,7.0,6.860000133514404,13600.0,6.860000133514404
2019-01-02,7.979996681213379,6.159997463226318,6.43999719619751,7.279996871948242,387300.0,7.279996871948242
2019-01-03,7.28000020980835,7.28000020980835,7.28000020980835,7.28000020980835,0.0,7.28000020980835
2019-01-04,8.5,6.380000114440918,6.789999961853027,7.699999809265137,129400.0,7.699999809265137
2019-01-07,7.989999771118164,6.670000076293945,7.989999771118164,7.699999809265137,92800.0,7.699999809265137
2019-01-08,8.300000190734863,7.0,7.710000038146973,8.0,82800.0,8.0
2019-01-09,9.25,7.699999809265137,7.96999979019165,8.899999618530273,146400.0,8.899999618530273
2019-01-10,8.890000343322754,8.0,8.359999656677246,8.359999656677246,57500.0,8.359999656677246
2019-01-11,9.15999984741211,8.069999694824219,8.25,8.649999618530273,83800.0,8.649999618530273
2019-01-14,9.770000457763672,8.5,8.600000381469727,9.069999694824219,147000.0,9.069999694824219
2019-01-15,13.899999618530273,9.369999885559082,9.5,11.180000305175781,290100.0,11.180000305175781
2019-01-16,11.5,9.5600004196167,11.300000190734863,10.0,69000.0,10.0
2019-01-17,9.710000038146973,8.5,9.710000038146973,9.100000381469727,52100.0,9.100000381469727
2019-01-18,9.640000343322754,8.9399995803833,9.100000381469727,9.180000305175781,49300.0,9.180000305175781
2019-01-22,9.8100004196167,8.90999984741211,9.0,9.5,27000.0,9.5
2019-01-23,9.539999961853027,9.010000228881836,9.470000267028809,9.3100004196167,10400.0,9.3100004196167
2019-01-24,9.399999618530273,8.369999885559082,9.399999618530273,8.369999885559082,35900.0,8.369999885559082
2019-01-25,9.220000267028809,8.5,8.520000457763672,9.109999656677246,18900.0,9.109999656677246
2019-01-28,9.140000343322754,8.399999618530273,9.140000343322754,9.069999694824219,36100.0,9.069999694824219
2019-01-29,9.109999656677246,8.619999885559082,9.0600004196167,8.960000038146973,14300.0,8.960000038146973
2019-01-30,9.069999694824219,8.0,9.069999694824219,8.550000190734863,17900.0,8.550000190734863
2019-01-31,8.850000381469727,7.53000020980835,8.550000190734863,7.53000020980835,26800.0,7.53000020980835
2019-02-01,8.529999732971191,7.170000076293945,7.75,7.46999979019165,13000.0,7.46999979019165
2019-02-04,8.520000457763672,7.25,7.75,7.510000228881836,8200.0,7.510000228881836
2019-02-05,7.989999771118164,7.320000171661377,7.75,7.760000228881836,26300.0,7.760000228881836
2019-02-06,8.25,7.730000019073486,7.730000019073486,8.109999656677246,10100.0,8.109999656677246
2019-02-07,8.399999618530273,8.050000190734863,8.119999885559082,8.289999961853027,5200.0,8.289999961853027
2019-02-08,8.199999809265137,8.0,8.020000457763672,8.100000381469727,2700.0,8.100000381469727
2019-02-11,8.25,8.069999694824219,8.069999694824219,8.25,1800.0,8.25
2019-02-12,8.420000076293945,8.149999618530273,8.270000457763672,8.220000267028809,900.0,8.220000267028809
2019-02-13,9.399999618530273,8.449999809265137,8.5,8.449999809265137,18000.0,8.449999809265137
2019-02-14,9.760000228881836,8.630000114440918,8.630000114440918,9.449999809265137,13000.0,9.449999809265137
2019-02-15,11.529999732971191,9.020000457763672,9.020000457763672,10.050000190734863,41300.0,10.050000190734863
2019-02-19,13.5,10.050000190734863,10.979999542236328,12.0,95000.0,12.0
2019-02-20,12.0,10.100000381469727,12.0,10.869999885559082,53500.0,10.869999885559082
2019-02-21,11.579999923706055,10.010000228881836,11.579999923706055,10.489999771118164,30000.0,10.489999771118164
2019-02-22,10.4399995803833,8.600000381469727,10.4399995803833,8.899999618530273,38900.0,8.899999618530273
2019-02-25,9.5,8.649999618530273,9.5,8.930000305175781,14200.0,8.930000305175781
2019-02-26,8.930000305175781,8.100000381469727,8.930000305175781,8.119999885559082,25700.0,8.119999885559082
2019-02-27,8.960000038146973,8.199999809265137,8.199999809265137,8.739999771118164,20000.0,8.739999771118164
2019-02-28,9.210000038146973,8.819999694824219,8.989999771118164,9.0,6600.0,9.0
2019-03-01,9.770000457763672,9.0,9.100000381469727,9.0600004196167,36700.0,9.0600004196167
2019-03-04,9.229999542236328,8.5,9.0,8.800000190734863,16500.0,8.800000190734863
2019-03-05,9.220000267028809,7.699999809265137,8.680000305175781,8.760000228881836,21700.0,8.760000228881836
2019-03-06,8.920000076293945,7.710000038146973,8.920000076293945,7.860000133514404,42400.0,7.860000133514404
2019-03-07,10.729999542236328,7.800000190734863,7.860000133514404,7.900000095367432,144000.0,7.900000095367432
2019-03-08,4.550000190734863,4.230000019073486,4.5,4.300000190734863,671000.0,4.300000190734863
2019-03-11,4.579999923706055,4.25,4.579999923706055,4.349999904632568,590500.0,4.349999904632568
2019-03-12,4.590000152587891,4.269999980926514,4.449999809265137,4.340000152587891,457000.0,4.340000152587891
2019-03-13,4.579999923706055,4.25,4.5,4.449999809265137,1173200.0,4.449999809265137
2019-03-14,4.559999942779541,3.319999933242798,4.449999809265137,3.490000009536743,1381200.0,3.490000009536743
2019-03-15,3.8399999141693115,3.1500000953674316,3.4100000858306885,3.549999952316284,363800.0,3.549999952316284
2019-03-18,4.039999961853027,3.5999999046325684,3.5999999046325684,3.9200000762939453,431600.0,3.9200000762939453
2019-03-19,4.199999809265137,3.799999952316284,4.050000190734863,4.039999961853027,349800.0,4.039999961853027
2019-03-20,4.0,3.7100000381469727,4.0,3.859999895095825,126600.0,3.859999895095825
2019-03-21,3.890000104904175,3.680000066757202,3.819999933242798,3.8299999237060547,80400.0,3.8299999237060547
2019-03-22,3.8399999141693115,3.5999999046325684,3.8299999237060547,3.630000114440918,85800.0,3.630000114440918
2019-03-25,3.680000066757202,3.4100000858306885,3.5899999141693115,3.509999990463257,99100.0,3.509999990463257
2019-03-26,3.7899999618530273,3.5199999809265137,3.700000047683716,3.7200000286102295,103200.0,3.7200000286102295
2019-03-27,4.380000114440918,3.75,3.880000114440918,4.239999771118164,720300.0,4.239999771118164
2019-03-28,4.739999771118164,3.9100000858306885,4.380000114440918,4.539999961853027,1268700.0,4.539999961853027
2019-03-29,4.480000019073486,4.079999923706055,4.449999809265137,4.110000133514404,377900.0,4.110000133514404
2019-04-01,4.400000095367432,3.75,4.150000095367432,4.239999771118164,335400.0,4.239999771118164
2019-04-02,4.889999866485596,4.070000171661377,4.25,4.550000190734863,696500.0,4.550000190734863
2019-04-03,4.730000019073486,4.300000190734863,4.510000228881836,4.389999866485596,404400.0,4.389999866485596
2019-04-04,4.400000095367432,4.150000095367432,4.349999904632568,4.179999828338623,240600.0,4.179999828338623
2019-04-05,4.400000095367432,4.130000114440918,4.25,4.269999980926514,118700.0,4.269999980926514
2019-04-08,4.599999904632568,4.269999980926514,4.380000114440918,4.320000171661377,190400.0,4.320000171661377
2019-04-09,4.519999980926514,4.170000076293945,4.409999847412109,4.21999979019165,165200.0,4.21999979019165
2019-04-10,4.289999961853027,4.150000095367432,4.190000057220459,4.239999771118164,73900.0,4.239999771118164
2019-04-11,4.21999979019165,4.019999980926514,4.150000095367432,4.050000190734863,113400.0,4.050000190734863
2019-04-12,4.239999771118164,3.8399999141693115,4.099999904632568,4.139999866485596,177100.0,4.139999866485596
2019-04-15,4.190000057220459,4.010000228881836,4.090000152587891,4.070000171661377,77700.0,4.070000171661377
2019-04-16,4.179999828338623,4.010000228881836,4.139999866485596,4.130000114440918,117400.0,4.130000114440918
2019-04-17,4.119999885559082,3.7699999809265137,4.119999885559082,3.859999895095825,131100.0,3.859999895095825
2019-04-18,3.950000047683716,3.5999999046325684,3.8299999237060547,3.740000009536743,122800.0,3.740000009536743
2019-04-22,3.8499999046325684,3.440000057220459,3.700000047683716,3.4800000190734863,127100.0,3.4800000190734863
2019-04-23,3.5199999809265137,3.180000066757202,3.430000066757202,3.450000047683716,96300.0,3.450000047683716
2019-04-24,3.6600000858306885,3.4800000190734863,3.4800000190734863,3.5999999046325684,39300.0,3.5999999046325684
2019-04-25,3.7300000190734863,3.559999942779541,3.5799999237060547,3.6500000953674316,48400.0,3.6500000953674316
2019-04-26,3.7799999713897705,3.5799999237060547,3.640000104904175,3.680000066757202,56000.0,3.680000066757202
2019-04-29,3.7699999809265137,3.549999952316284,3.680000066757202,3.7100000381469727,30100.0,3.7100000381469727
2019-04-30,3.740000009536743,3.509999990463257,3.7100000381469727,3.619999885559082,39900.0,3.619999885559082
2019-05-01,4.070000171661377,3.5199999809265137,3.5999999046325684,3.809999942779541,220500.0,3.809999942779541
2019-05-02,4.199999809265137,3.4000000953674316,3.9000000953674316,3.9700000286102295,328900.0,3.9700000286102295
2019-05-03,4.090000152587891,3.799999952316284,3.9700000286102295,4.050000190734863,72000.0,4.050000190734863
2019-05-06,4.070000171661377,3.75,4.0,4.059999942779541,89900.0,4.059999942779541
2019-05-07,3.990000009536743,3.549999952316284,3.700000047683716,3.6500000953674316,213700.0,3.6500000953674316
2019-05-08,3.809999942779541,3.450000047683716,3.7300000190734863,3.5199999809265137,157700.0,3.5199999809265137
2019-05-09,3.700000047683716,3.2899999618530273,3.549999952316284,3.6600000858306885,82800.0,3.6600000858306885
2019-05-10,3.759999990463257,3.4100000858306885,3.5999999046325684,3.5199999809265137,48200.0,3.5199999809265137
2019-05-13,3.569999933242798,3.4000000953674316,3.430000066757202,3.5299999713897705,46200.0,3.5299999713897705
2019-05-14,3.569999933242798,3.4600000381469727,3.509999990463257,3.559999942779541,36500.0,3.559999942779541
2019-05-15,3.700000047683716,3.450000047683716,3.450000047683716,3.680000066757202,59300.0,3.680000066757202
2019-05-16,3.799999952316284,3.559999942779541,3.6500000953674316,3.799999952316284,58600.0,3.799999952316284
2019-05-17,3.809999942779541,3.559999942779541,3.75,3.680000066757202,41500.0,3.680000066757202
2019-05-20,3.7200000286102295,3.4200000762939453,3.7100000381469727,3.5199999809265137,71300.0,3.5199999809265137
2019-05-21,3.5399999618530273,3.4100000858306885,3.509999990463257,3.490000009536743,51000.0,3.490000009536743
2019-05-22,3.509999990463257,3.3299999237060547,3.5,3.4100000858306885,52700.0,3.4100000858306885
2019-05-23,3.490000009536743,3.2699999809265137,3.369999885559082,3.4200000762939453,52000.0,3.4200000762939453
2019-05-24,3.4800000190734863,3.369999885559082,3.4700000286102295,3.369999885559082,12200.0,3.369999885559082
