Date,High,Low,Open,Close,Volume,Adj Close
2017-08-08,13.0,11.5,13.0,12.300000190734863,154600,12.300000190734863
2017-08-09,12.362000465393066,11.899999618530273,12.34000015258789,11.979999542236328,99700,11.979999542236328
2017-08-10,11.779999732971191,10.8100004196167,11.4399995803833,11.130000114440918,54600,11.130000114440918
2017-08-11,12.149999618530273,11.100000381469727,11.100000381469727,12.09000015258789,66900,12.09000015258789
2017-08-14,13.104999542236328,12.100000381469727,12.149999618530273,12.258999824523926,79000,12.258999824523926
2017-08-15,13.270000457763672,12.020000457763672,12.300000190734863,13.184000015258789,153400,13.184000015258789
2017-08-16,13.225000381469727,12.800000190734863,12.850000381469727,12.86400032043457,98600,12.86400032043457
2017-08-17,12.979999542236328,12.760000228881836,12.979999542236328,12.890000343322754,54400,12.890000343322754
2017-08-18,12.970000267028809,12.788000106811523,12.970000267028809,12.899999618530273,61700,12.899999618530273
2017-08-21,12.90999984741211,12.713000297546387,12.899999618530273,12.8100004196167,45100,12.8100004196167
2017-08-22,12.859999656677246,12.064000129699707,12.859999656677246,12.5,56300,12.5
2017-08-23,12.699999809265137,12.229999542236328,12.600000381469727,12.539999961853027,28900,12.539999961853027
2017-08-24,12.569999694824219,12.119999885559082,12.5649995803833,12.520000457763672,91500,12.520000457763672
2017-08-25,12.75100040435791,12.199999809265137,12.550000190734863,12.5,117500,12.5
2017-08-28,12.520000457763672,12.300000190734863,12.319999694824219,12.369999885559082,72400,12.369999885559082
2017-08-29,12.479999542236328,12.199999809265137,12.34000015258789,12.34000015258789,70100,12.34000015258789
2017-08-30,12.489999771118164,12.270000457763672,12.399999618530273,12.390000343322754,83100,12.390000343322754
2017-08-31,12.470000267028809,12.390000343322754,12.460000038146973,12.399999618530273,64600,12.399999618530273
2017-09-01,12.460000038146973,12.300000190734863,12.460000038146973,12.350000381469727,60500,12.350000381469727
2017-09-05,12.380000114440918,12.25,12.300000190734863,12.319999694824219,74200,12.319999694824219
2017-09-06,13.480999946594238,12.3100004196167,12.359999656677246,12.6899995803833,132300,12.6899995803833
2017-09-07,12.779999732971191,12.359999656677246,12.779999732971191,12.699999809265137,75000,12.699999809265137
2017-09-08,12.729999542236328,12.359999656677246,12.729999542236328,12.729999542236328,59400,12.729999542236328
2017-09-11,12.779999732971191,12.5,12.600000381469727,12.770000457763672,59500,12.770000457763672
2017-09-12,12.920000076293945,12.699999809265137,12.800000190734863,12.8100004196167,70500,12.8100004196167
2017-09-13,13.64900016784668,12.786999702453613,12.829999923706055,13.619999885559082,184700,13.619999885559082
2017-09-14,13.800000190734863,13.5600004196167,13.720000267028809,13.699999809265137,111500,13.699999809265137
2017-09-15,14.260000228881836,13.770000457763672,13.789999961853027,14.260000228881836,172500,14.260000228881836
2017-09-18,14.720000267028809,14.149999618530273,14.199999809265137,14.720000267028809,178800,14.720000267028809
2017-09-19,15.0600004196167,14.699999809265137,14.729999542236328,15.020000457763672,172000,15.020000457763672
2017-09-20,15.15999984741211,14.550000190734863,15.15999984741211,15.0,167300,15.0
2017-09-21,15.109999656677246,14.850000381469727,15.09000015258789,15.039999961853027,134400,15.039999961853027
2017-09-22,15.149999618530273,14.739999771118164,15.0,14.960000038146973,183400,14.960000038146973
2017-09-25,16.6299991607666,14.989999771118164,15.0,15.979999542236328,216000,15.979999542236328
2017-09-26,18.94499969482422,16.229999542236328,16.229999542236328,18.1200008392334,247500,18.1200008392334
2017-09-27,20.040000915527344,17.510000228881836,17.510000228881836,20.040000915527344,237600,20.040000915527344
2017-09-28,20.049999237060547,19.469999313354492,19.850000381469727,20.040000915527344,244100,20.040000915527344
2017-09-29,19.979999542236328,19.479999542236328,19.889999389648438,19.959999084472656,150300,19.959999084472656
2017-10-02,21.309999465942383,19.709999084472656,19.90999984741211,21.049999237060547,174900,21.049999237060547
2017-10-03,21.399999618530273,18.457000732421875,20.940000534057617,20.850000381469727,173500,20.850000381469727
2017-10-04,23.270000457763672,19.450000762939453,21.0,23.200000762939453,314900,23.200000762939453
2017-10-05,23.25,19.979999542236328,23.020000457763672,23.110000610351562,292900,23.110000610351562
2017-10-06,24.75,22.030000686645508,22.760000228881836,22.899999618530273,169600,22.899999618530273
2017-10-09,23.979999542236328,22.540000915527344,23.010000228881836,23.670000076293945,223600,23.670000076293945
2017-10-10,23.84000015258789,22.5,23.549999237060547,23.510000228881836,243600,23.510000228881836
2017-10-11,23.632999420166016,22.549999237060547,23.450000762939453,23.479999542236328,182900,23.479999542236328
2017-10-12,23.600000381469727,22.100000381469727,23.469999313354492,22.799999237060547,154500,22.799999237060547
2017-10-13,23.010000228881836,22.399999618530273,22.709999084472656,22.549999237060547,83400,22.549999237060547
2017-10-16,22.950000762939453,22.200000762939453,22.729999542236328,22.899999618530273,148200,22.899999618530273
2017-10-17,22.979999542236328,22.360000610351562,22.979999542236328,22.459999084472656,130100,22.459999084472656
2017-10-18,30.0,21.016000747680664,22.6200008392334,28.899999618530273,335200,28.899999618530273
2017-10-19,30.6299991607666,25.520000457763672,29.0,29.204999923706055,291000,29.204999923706055
2017-10-20,30.100000381469727,27.700000762939453,29.100000381469727,29.510000228881836,295100,29.510000228881836
2017-10-23,33.0,28.860000610351562,29.510000228881836,31.469999313354492,394500,31.469999313354492
2017-10-24,33.400001525878906,30.489999771118164,31.010000228881836,32.11000061035156,376500,32.11000061035156
2017-10-25,33.66999816894531,31.5,31.719999313354492,33.0099983215332,473100,33.0099983215332
2017-10-26,38.40999984741211,33.20000076293945,33.20000076293945,37.349998474121094,450000,37.349998474121094
2017-10-27,41.87900161743164,35.540000915527344,37.849998474121094,40.13999938964844,538800,40.13999938964844
2017-10-30,42.5,38.0,40.150001525878906,41.29999923706055,640600,41.29999923706055
2017-10-31,43.29999923706055,39.130001068115234,41.29999923706055,41.400001525878906,594700,41.400001525878906
2017-11-01,41.36000061035156,30.0,41.349998474121094,30.200000762939453,664100,30.200000762939453
2017-11-02,37.88999938964844,33.0,33.0,37.88999938964844,221600,37.88999938964844
2017-11-03,39.7599983215332,36.54999923706055,37.56999969482422,38.95000076293945,302500,38.95000076293945
2017-11-06,40.779998779296875,38.20000076293945,38.47999954223633,40.380001068115234,511000,40.380001068115234
2017-11-07,48.0,40.349998474121094,40.52000045776367,47.70000076293945,439600,47.70000076293945
2017-11-08,48.5,46.380001068115234,47.310001373291016,48.439998626708984,412900,48.439998626708984
2017-11-09,48.29999923706055,42.06100082397461,47.869998931884766,48.22999954223633,378200,48.22999954223633
2017-11-10,49.4900016784668,47.47999954223633,47.47999954223633,49.29999923706055,311700,49.29999923706055
2017-11-13,49.29999923706055,48.099998474121094,48.099998474121094,48.40999984741211,343500,48.40999984741211
2017-11-14,50.66999816894531,46.97999954223633,47.93000030517578,49.790000915527344,347800,49.790000915527344
2017-11-15,55.849998474121094,49.59000015258789,50.52000045776367,55.20000076293945,398700,55.20000076293945
2017-11-16,58.40999984741211,54.68000030517578,55.36000061035156,57.540000915527344,344100,57.540000915527344
2017-11-17,59.18000030517578,57.20000076293945,57.540000915527344,59.099998474121094,359900,59.099998474121094
2017-11-20,62.150001525878906,58.560001373291016,59.0,60.619998931884766,465500,60.619998931884766
2017-11-21,61.72999954223633,55.79999923706055,58.9900016784668,59.58000183105469,603000,59.58000183105469
2017-11-22,59.95000076293945,58.349998474121094,59.599998474121094,58.65999984741211,283600,58.65999984741211
2017-11-24,61.0,57.810001373291016,58.20000076293945,59.29999923706055,214100,59.29999923706055
2017-11-27,60.369998931884766,57.70000076293945,59.779998779296875,58.47999954223633,314000,58.47999954223633
2017-11-28,66.0999984741211,59.25,59.25,61.0,505500,61.0
2017-11-29,62.900001525878906,55.04999923706055,62.5,58.130001068115234,271500,58.130001068115234
2017-11-30,59.45000076293945,51.93000030517578,58.779998779296875,58.13999938964844,476600,58.13999938964844
2017-12-01,58.900001525878906,54.5099983215332,56.75,58.790000915527344,205700,58.790000915527344
2017-12-04,59.189998626708984,57.040000915527344,59.0099983215332,58.349998474121094,160900,58.349998474121094
2017-12-05,59.220001220703125,57.400001525878906,57.470001220703125,59.0,184900,59.0
2017-12-06,61.0,58.220001220703125,58.9900016784668,58.529998779296875,247500,58.529998779296875
2017-12-07,61.41400146484375,57.599998474121094,58.630001068115234,57.93000030517578,168000,57.93000030517578
2017-12-08,59.5,56.68000030517578,58.099998474121094,57.5099983215332,249100,57.5099983215332
2017-12-11,58.5,55.02000045776367,57.34000015258789,55.7599983215332,201600,55.7599983215332
2017-12-12,56.68000030517578,50.58000183105469,55.349998474121094,51.08000183105469,212500,51.08000183105469
2017-12-13,51.70000076293945,48.02000045776367,51.70000076293945,50.20000076293945,310900,50.20000076293945
2017-12-14,50.099998474121094,47.119998931884766,50.099998474121094,47.81999969482422,81200,47.81999969482422
2017-12-15,46.88600158691406,40.709999084472656,46.810001373291016,42.95000076293945,282500,42.95000076293945
2017-12-18,45.06999969482422,41.2599983215332,44.5,41.90999984741211,183800,41.90999984741211
2017-12-19,40.27000045776367,37.779998779296875,40.27000045776367,38.31999969482422,327700,38.31999969482422
2017-12-20,43.439998626708984,32.11000061035156,38.0,41.869998931884766,981000,41.869998931884766
2017-12-21,44.279998779296875,40.0099983215332,40.0099983215332,42.5,226400,42.5
2017-12-22,43.40999984741211,40.810001373291016,42.06999969482422,42.7400016784668,184900,42.7400016784668
2017-12-26,44.0,42.005001068115234,42.38999938964844,42.790000915527344,83800,42.790000915527344
2017-12-27,43.08399963378906,42.0099983215332,42.959999084472656,42.400001525878906,128900,42.400001525878906
2017-12-28,43.22999954223633,41.470001220703125,42.20000076293945,42.400001525878906,137700,42.400001525878906
2017-12-29,43.08000183105469,41.310001373291016,43.08000183105469,41.95000076293945,70400,41.95000076293945
2018-01-02,45.869998931884766,41.20000076293945,41.41999816894531,42.84000015258789,244200,42.84000015258789
2018-01-03,43.90999984741211,41.20000076293945,42.95000076293945,43.5099983215332,188500,43.5099983215332
2018-01-04,43.79999923706055,41.70000076293945,43.650001525878906,42.06999969482422,121100,42.06999969482422
2018-01-05,43.22999954223633,40.2599983215332,41.59000015258789,42.150001525878906,198100,42.150001525878906
2018-01-08,43.9900016784668,41.22999954223633,42.18000030517578,42.599998474121094,237700,42.599998474121094
2018-01-09,43.790000915527344,41.0,42.099998474121094,42.779998779296875,318400,42.779998779296875
2018-01-10,43.5,41.720001220703125,41.720001220703125,43.20000076293945,311200,43.20000076293945
2018-01-11,43.22999954223633,42.25,42.95000076293945,42.93000030517578,190400,42.93000030517578
2018-01-12,43.2599983215332,41.72999954223633,42.83000183105469,41.849998474121094,107800,41.849998474121094
2018-01-16,43.22999954223633,37.42100143432617,41.470001220703125,37.9900016784668,361700,37.9900016784668
2018-01-17,39.439998626708984,35.88999938964844,37.81999969482422,37.16999816894531,335900,37.16999816894531
2018-01-18,37.5,34.79999923706055,37.20000076293945,35.7599983215332,252700,35.7599983215332
2018-01-19,35.869998931884766,34.334999084472656,35.869998931884766,35.290000915527344,47200,35.290000915527344
2018-01-22,35.59000015258789,34.619998931884766,34.619998931884766,35.45000076293945,64800,35.45000076293945
2018-01-23,37.54999923706055,35.13999938964844,35.70000076293945,37.25,188600,37.25
2018-01-24,37.470001220703125,36.44200134277344,36.58000183105469,36.95000076293945,145400,36.95000076293945
2018-01-25,38.5,36.29999923706055,36.305999755859375,37.959999084472656,146200,37.959999084472656
2018-01-26,38.540000915527344,37.61000061035156,37.61000061035156,38.11000061035156,133500,38.11000061035156
2018-01-29,40.9900016784668,37.099998474121094,37.91999816894531,40.13999938964844,257500,40.13999938964844
2018-01-30,41.0,38.599998474121094,38.810001373291016,40.27000045776367,173200,40.27000045776367
2018-01-31,40.79499816894531,38.459999084472656,39.790000915527344,38.790000915527344,167600,38.790000915527344
2018-02-01,44.20000076293945,38.900001525878906,39.0,43.65999984741211,336600,43.65999984741211
2018-02-02,47.0,43.400001525878906,43.880001068115234,46.59000015258789,285600,46.59000015258789
2018-02-05,47.43000030517578,44.79999923706055,46.18000030517578,46.599998474121094,166500,46.599998474121094
2018-02-06,47.0,44.75,46.25,46.060001373291016,124400,46.060001373291016
2018-02-07,47.97999954223633,45.900001525878906,46.04999923706055,46.38999938964844,207400,46.38999938964844
2018-02-08,47.099998474121094,42.790000915527344,46.72999954223633,44.209999084472656,167800,44.209999084472656
2018-02-09,45.20000076293945,43.2599983215332,44.290000915527344,44.22999954223633,225300,44.22999954223633
2018-02-12,46.09000015258789,44.5,44.529998779296875,45.34000015258789,138900,45.34000015258789
2018-02-13,45.619998931884766,44.0099983215332,45.25,44.459999084472656,68300,44.459999084472656
2018-02-14,45.198001861572266,43.78499984741211,44.77000045776367,44.11000061035156,39200,44.11000061035156
2018-02-15,44.9900016784668,44.189998626708984,44.9900016784668,44.77000045776367,56700,44.77000045776367
2018-02-16,45.20000076293945,44.0,44.599998474121094,45.060001373291016,41900,45.060001373291016
2018-02-20,47.0,43.0,45.310001373291016,43.43000030517578,114200,43.43000030517578
2018-02-21,44.959999084472656,43.20000076293945,43.58000183105469,44.79999923706055,96000,44.79999923706055
2018-02-22,44.91999816894531,42.79999923706055,44.83000183105469,42.9900016784668,59300,42.9900016784668
2018-02-23,44.16999816894531,43.099998474121094,43.45000076293945,43.5,52500,43.5
2018-02-26,43.68000030517578,39.5099983215332,43.68000030517578,39.72999954223633,86500,39.72999954223633
2018-02-27,39.939998626708984,37.650001525878906,39.25,37.959999084472656,75200,37.959999084472656
2018-02-28,38.61000061035156,37.58000183105469,38.61000061035156,37.58000183105469,103600,37.58000183105469
2018-03-01,39.5,35.9900016784668,38.09000015258789,36.540000915527344,117200,36.540000915527344
2018-03-02,37.0,35.349998474121094,36.970001220703125,36.5,53700,36.5
2018-03-05,36.71900177001953,35.2400016784668,36.630001068115234,35.650001525878906,51300,35.650001525878906
2018-03-06,36.439998626708984,35.31999969482422,35.56999969482422,35.59000015258789,59300,35.59000015258789
2018-03-07,35.999000549316406,35.0,35.29999923706055,35.779998779296875,56200,35.779998779296875
2018-03-08,35.999000549316406,35.279998779296875,35.93000030517578,35.279998779296875,49500,35.279998779296875
2018-03-09,36.69900131225586,34.0,35.630001068115234,34.400001525878906,52400,34.400001525878906
2018-03-12,34.9900016784668,34.099998474121094,34.59000015258789,34.52000045776367,62300,34.52000045776367
2018-03-13,34.70000076293945,34.119998931884766,34.61000061035156,34.38999938964844,50200,34.38999938964844
2018-03-14,34.68000030517578,32.27000045776367,34.22999954223633,32.34000015258789,43400,32.34000015258789
2018-03-15,33.5,32.29999923706055,32.34000015258789,32.790000915527344,87400,32.790000915527344
2018-03-16,33.060001373291016,32.38100051879883,32.900001525878906,32.900001525878906,104400,32.900001525878906
2018-03-19,32.81999969482422,31.899999618530273,32.81999969482422,32.43000030517578,67400,32.43000030517578
2018-03-20,32.880001068115234,32.20000076293945,32.36000061035156,32.33000183105469,46900,32.33000183105469
2018-03-21,32.849998474121094,32.43000030517578,32.439998626708984,32.43000030517578,41700,32.43000030517578
2018-03-22,32.92499923706055,31.799999237060547,32.72999954223633,32.00899887084961,55500,32.00899887084961
2018-03-23,32.7599983215332,31.969999313354492,32.0,32.7599983215332,56700,32.7599983215332
2018-03-26,33.494998931884766,32.73099899291992,32.7599983215332,33.060001373291016,49100,33.060001373291016
2018-03-27,33.060001373291016,31.56999969482422,33.060001373291016,32.130001068115234,86400,32.130001068115234
2018-03-28,32.86000061035156,32.0,32.0099983215332,32.400001525878906,53300,32.400001525878906
2018-03-29,32.5,31.6299991607666,32.400001525878906,32.11000061035156,54000,32.11000061035156
2018-04-02,32.540000915527344,32.0,32.0099983215332,32.40999984741211,51700,32.40999984741211
2018-04-03,32.459999084472656,31.834999084472656,32.40999984741211,32.13999938964844,40100,32.13999938964844
2018-04-04,32.40999984741211,32.0,32.119998931884766,32.099998474121094,45200,32.099998474121094
2018-04-05,32.540000915527344,30.0,32.099998474121094,31.950000762939453,119600,31.950000762939453
2018-04-06,31.948999404907227,26.260000228881836,31.948999404907227,29.200000762939453,207800,29.200000762939453
2018-04-09,28.969999313354492,21.059999465942383,28.829999923706055,21.059999465942383,239600,21.059999465942383
2018-04-10,21.200000762939453,18.260000228881836,21.1200008392334,19.889999389648438,153000,19.889999389648438
2018-04-11,19.989999771118164,18.829999923706055,19.6200008392334,19.139999389648438,87600,19.139999389648438
2018-04-12,19.5,17.18000030517578,19.309999465942383,18.780000686645508,170100,18.780000686645508
2018-04-13,18.749000549316406,17.0,18.729999542236328,17.329999923706055,97700,17.329999923706055
2018-04-16,18.040000915527344,17.079999923706055,17.079999923706055,17.790000915527344,136000,17.790000915527344
2018-04-17,23.5,17.790000915527344,17.850000381469727,21.81999969482422,462000,21.81999969482422
2018-04-18,23.18000030517578,19.850000381469727,21.610000610351562,21.114999771118164,195900,21.114999771118164
2018-04-19,23.549999237060547,20.76099967956543,21.020000457763672,22.809999465942383,154600,22.809999465942383
2018-04-20,24.5,22.649999618530273,22.829999923706055,22.68000030517578,149700,22.68000030517578
2018-04-23,26.0,22.520000457763672,22.520000457763672,25.579999923706055,171400,25.579999923706055
2018-04-24,26.969999313354492,24.350000381469727,25.579999923706055,24.68000030517578,251400,24.68000030517578
2018-04-25,27.270000457763672,24.6299991607666,24.6299991607666,26.579999923706055,142500,26.579999923706055
2018-04-26,28.479999542236328,26.920000076293945,26.920000076293945,27.739999771118164,127200,27.739999771118164
2018-04-27,29.200000762939453,27.0,27.799999237060547,28.959999084472656,127500,28.959999084472656
2018-04-30,33.31999969482422,29.965999603271484,30.0,31.989999771118164,184500,31.989999771118164
2018-05-01,33.25,31.030000686645508,32.29999923706055,31.6299991607666,159500,31.6299991607666
2018-05-02,33.290000915527344,31.941999435424805,31.941999435424805,32.720001220703125,124300,32.720001220703125
2018-05-03,34.500999450683594,32.9900016784668,32.9900016784668,33.70000076293945,96400,33.70000076293945
2018-05-04,34.849998474121094,33.7599983215332,33.810001373291016,34.34000015258789,82600,34.34000015258789
2018-05-07,34.380001068115234,31.451000213623047,34.11000061035156,33.869998931884766,199900,33.869998931884766
2018-05-08,33.779998779296875,32.709999084472656,33.665000915527344,33.400001525878906,46700,33.400001525878906
2018-05-09,34.29999923706055,32.696998596191406,33.36000061035156,33.02000045776367,112400,33.02000045776367
2018-05-10,33.13999938964844,31.8799991607666,32.83000183105469,32.150001525878906,74800,32.150001525878906
2018-05-11,32.25,30.299999237060547,32.25,30.6200008392334,108100,30.6200008392334
2018-05-14,31.219999313354492,30.170000076293945,30.739999771118164,30.399999618530273,95000,30.399999618530273
2018-05-15,31.989999771118164,29.600000381469727,30.5,30.190000534057617,121500,30.190000534057617
2018-05-16,33.2400016784668,28.510000228881836,30.649999618530273,28.81999969482422,363200,28.81999969482422
2018-05-17,28.940000534057617,24.215999603271484,28.670000076293945,24.81999969482422,258200,24.81999969482422
2018-05-18,25.760000228881836,24.010000228881836,24.68000030517578,24.530000686645508,74500,24.530000686645508
2018-05-21,24.649999618530273,21.280000686645508,24.489999771118164,21.8799991607666,150200,21.8799991607666
2018-05-22,21.940000534057617,21.106000900268555,21.600000381469727,21.579999923706055,87600,21.579999923706055
2018-05-23,22.229999542236328,21.280000686645508,21.280000686645508,22.149999618530273,57400,22.149999618530273
2018-05-24,23.790000915527344,22.020000457763672,22.020000457763672,23.25,144000,23.25
2018-05-25,25.100000381469727,23.559999465942383,23.559999465942383,24.899999618530273,116000,24.899999618530273
2018-05-29,25.799999237060547,24.229999542236328,24.989999771118164,25.690000534057617,130100,25.690000534057617
2018-05-30,26.209999084472656,24.059999465942383,25.520000457763672,24.329999923706055,201800,24.329999923706055
2018-05-31,24.700000762939453,23.15999984741211,24.31999969482422,23.84000015258789,182900,23.84000015258789
2018-06-01,23.84000015258789,23.08300018310547,23.84000015258789,23.399999618530273,46000,23.399999618530273
2018-06-04,23.5,21.160999298095703,23.5,21.950000762939453,211000,21.950000762939453
2018-06-05,22.31800079345703,21.51099967956543,21.989999771118164,21.969999313354492,89600,21.969999313354492
2018-06-06,22.020000457763672,20.530000686645508,22.0,20.950000762939453,160700,20.950000762939453
2018-06-07,20.950000762939453,19.049999237060547,20.950000762939453,19.520000457763672,106900,19.520000457763672
2018-06-08,19.690000534057617,18.899999618530273,19.350000381469727,19.170000076293945,128200,19.170000076293945
2018-06-11,20.450000762939453,19.23900032043457,19.479999542236328,20.149999618530273,86400,20.149999618530273
2018-06-12,20.389999389648438,19.200000762939453,20.3700008392334,19.420000076293945,123500,19.420000076293945
2018-06-13,19.48699951171875,17.6200008392334,19.360000610351562,18.389999389648438,175800,18.389999389648438
2018-06-14,18.64699935913086,17.3700008392334,18.399999618530273,17.559999465942383,95600,17.559999465942383
2018-06-15,17.615999221801758,16.06100082397461,17.5,16.899999618530273,137300,16.899999618530273
2018-06-18,17.100000381469727,16.719999313354492,16.90999984741211,16.93000030517578,36600,16.93000030517578
2018-06-19,17.0,16.010000228881836,17.0,16.309999465942383,62300,16.309999465942383
2018-06-20,16.989999771118164,16.040000915527344,16.219999313354492,16.34000015258789,79500,16.34000015258789
2018-06-21,17.635000228881836,16.440000534057617,16.489999771118164,16.739999771118164,140700,16.739999771118164
2018-06-22,17.860000610351562,16.809999465942383,16.989999771118164,17.139999389648438,162700,17.139999389648438
2018-06-25,17.579999923706055,15.91100025177002,17.579999923706055,16.31999969482422,161100,16.31999969482422
2018-06-26,16.639999389648438,16.152999877929688,16.329999923706055,16.440000534057617,56100,16.440000534057617
2018-06-27,16.530000686645508,14.949999809265137,16.530000686645508,15.09000015258789,125200,15.09000015258789
2018-06-28,16.479999542236328,15.319999694824219,15.319999694824219,16.200000762939453,65100,16.200000762939453
2018-06-29,16.81999969482422,16.15999984741211,16.170000076293945,16.6200008392334,60200,16.6200008392334
2018-07-02,16.649999618530273,16.229999542236328,16.59000015258789,16.309999465942383,32200,16.309999465942383
2018-07-03,16.600000381469727,16.049999237060547,16.219999313354492,16.239999771118164,49100,16.239999771118164
2018-07-05,16.600000381469727,15.920000076293945,16.25,16.25,42200,16.25
2018-07-06,16.25,15.01099967956543,16.25,16.06999969482422,60100,16.06999969482422
2018-07-09,16.329999923706055,15.960000038146973,15.970000267028809,16.280000686645508,54100,16.280000686645508
2018-07-10,16.280000686645508,15.199999809265137,16.09000015258789,15.25,59000,15.25
2018-07-11,15.208999633789062,13.852999687194824,15.02299976348877,14.619999885559082,66600,14.619999885559082
2018-07-12,14.8100004196167,13.029999732971191,14.8100004196167,14.75,78300,14.75
2018-07-13,14.949999809265137,14.1899995803833,14.670000076293945,14.819999694824219,31400,14.819999694824219
2018-07-16,15.0,14.529999732971191,14.710000038146973,15.0,30600,15.0
2018-07-17,15.970000267028809,14.75,14.75,15.529999732971191,63200,15.529999732971191
2018-07-18,15.729999542236328,15.36400032043457,15.729999542236328,15.489999771118164,31100,15.489999771118164
2018-07-19,16.25,14.65999984741211,15.517000198364258,14.859999656677246,46500,14.859999656677246
2018-07-20,15.199999809265137,14.25,14.630000114440918,14.430000305175781,42300,14.430000305175781
2018-07-23,14.869999885559082,14.350000381469727,14.399999618530273,14.529999732971191,33100,14.529999732971191
2018-07-24,14.84000015258789,14.289999961853027,14.53600025177002,14.5,51900,14.5
2018-07-25,14.899999618530273,13.729999542236328,14.470000267028809,14.59000015258789,45700,14.59000015258789
2018-07-26,14.680000305175781,14.34000015258789,14.600000381469727,14.510000228881836,29500,14.510000228881836
2018-07-27,14.807000160217285,14.0,14.569999694824219,14.079999923706055,39900,14.079999923706055
2018-07-30,14.510000228881836,14.130000114440918,14.208999633789062,14.289999961853027,21500,14.289999961853027
2018-07-31,14.640000343322754,14.3100004196167,14.3100004196167,14.420000076293945,41400,14.420000076293945
2018-08-01,14.699999809265137,14.050000190734863,14.11400032043457,14.220000267028809,62800,14.220000267028809
2018-08-02,14.5,13.800000190734863,14.204000473022461,14.210000038146973,47000,14.210000038146973
2018-08-03,14.520000457763672,14.02299976348877,14.359999656677246,14.390000343322754,25900,14.390000343322754
2018-08-06,14.600000381469727,14.380000114440918,14.4399995803833,14.479999542236328,54100,14.479999542236328
2018-08-07,14.819999694824219,14.170000076293945,14.489999771118164,14.430000305175781,51300,14.430000305175781
2018-08-08,14.75,14.300000190734863,14.333999633789062,14.739999771118164,47400,14.739999771118164
2018-08-09,15.020000457763672,14.5,14.609999656677246,14.829999923706055,34000,14.829999923706055
2018-08-10,15.140000343322754,14.699999809265137,14.946999549865723,15.140000343322754,41900,15.140000343322754
2018-08-13,15.470000267028809,14.699999809265137,15.149999618530273,14.9399995803833,42600,14.9399995803833
2018-08-14,15.170000076293945,14.680000305175781,15.098999977111816,14.75,40300,14.75
2018-08-15,14.899999618530273,14.199999809265137,14.850000381469727,14.449999809265137,36600,14.449999809265137
2018-08-16,14.960000038146973,14.100000381469727,14.390000343322754,14.5600004196167,38500,14.5600004196167
2018-08-17,14.850000381469727,14.399999618530273,14.539999961853027,14.59000015258789,49200,14.59000015258789
2018-08-20,14.550000190734863,13.668999671936035,14.550000190734863,14.086999893188477,32800,14.086999893188477
2018-08-21,14.29699993133545,13.859999656677246,14.09000015258789,14.130000114440918,36600,14.130000114440918
2018-08-22,14.300000190734863,14.020000457763672,14.020000457763672,14.0649995803833,23400,14.0649995803833
2018-08-23,13.956000328063965,12.90999984741211,13.729999542236328,13.279999732971191,93600,13.279999732971191
2018-08-24,13.666999816894531,12.00100040435791,13.079999923706055,13.5,108100,13.5
2018-08-27,13.496000289916992,12.600000381469727,13.470000267028809,12.800000190734863,78300,12.800000190734863
2018-08-28,12.920000076293945,11.859999656677246,12.899999618530273,12.079999923706055,39100,12.079999923706055
2018-08-29,12.397000312805176,11.819999694824219,12.199999809265137,12.08899974822998,32700,12.08899974822998
2018-08-30,12.1899995803833,11.00100040435791,11.899999618530273,11.100000381469727,52600,11.100000381469727
2018-08-31,11.289999961853027,9.920000076293945,11.010000228881836,10.010000228881836,113600,10.010000228881836
2018-09-04,10.859999656677246,9.85099983215332,10.0,10.210000038146973,84900,10.210000038146973
2018-09-05,10.279999732971191,9.392000198364258,10.119999885559082,9.5,106400,9.5
2018-09-06,9.779999732971191,8.5,9.699999809265137,9.239999771118164,97200,9.239999771118164
2018-09-07,9.390000343322754,8.9399995803833,9.100000381469727,9.288000106811523,54500,9.288000106811523
2018-09-10,9.48799991607666,8.800000190734863,9.130000114440918,8.850000381469727,75400,8.850000381469727
2018-09-11,9.09000015258789,7.989999771118164,8.899999618530273,8.180000305175781,92100,8.180000305175781
2018-09-12,10.847000122070312,8.069999694824219,8.069999694824219,9.800000190734863,372500,9.800000190734863
2018-09-13,11.300000190734863,9.770000457763672,9.770000457763672,11.039999961853027,341500,11.039999961853027
2018-09-14,12.920000076293945,11.039999961853027,11.09000015258789,12.789999961853027,392500,12.789999961853027
2018-09-17,14.75,10.369999885559082,12.989999771118164,11.199999809265137,646200,11.199999809265137
2018-09-18,11.939000129699707,8.869999885559082,11.829999923706055,9.0,380700,9.0
2018-09-19,9.619999885559082,8.09000015258789,9.0,9.5600004196167,307400,9.5600004196167
2018-09-20,9.906999588012695,9.326000213623047,9.430000305175781,9.640000343322754,92300,9.640000343322754
2018-09-21,9.710000038146973,8.649999618530273,9.630000114440918,8.960000038146973,170000,8.960000038146973
2018-09-24,8.954999923706055,8.515000343322754,8.9399995803833,8.770000457763672,51200,8.770000457763672
2018-09-25,8.819999694824219,8.270000457763672,8.770000457763672,8.510000228881836,71000,8.510000228881836
2018-09-26,9.11400032043457,8.517000198364258,8.520000457763672,8.970000267028809,70900,8.970000267028809
2018-09-27,9.300000190734863,8.899999618530273,8.899999618530273,9.050000190734863,58500,9.050000190734863
2018-09-28,9.25,8.420000076293945,9.039999961853027,8.579999923706055,67500,8.579999923706055
2018-10-01,8.550000190734863,7.570000171661377,8.550000190734863,7.730000019073486,163200,7.730000019073486
2018-10-02,7.550000190734863,6.909999847412109,7.510000228881836,7.010000228881836,148800,7.010000228881836
2018-10-03,7.789999961853027,6.909999847412109,7.03000020980835,7.099999904632568,108100,7.099999904632568
2018-10-04,7.349999904632568,6.070000171661377,7.079999923706055,6.309999942779541,112400,6.309999942779541
2018-10-05,6.364999771118164,5.7230000495910645,6.210000038146973,6.019999980926514,41500,6.019999980926514
2018-10-08,5.960000038146973,5.539999961853027,5.840000152587891,5.679999828338623,86900,5.679999828338623
2018-10-09,5.679999828338623,5.110000133514404,5.559999942779541,5.429999828338623,56500,5.429999828338623
2018-10-10,5.593999862670898,5.340000152587891,5.46999979019165,5.420000076293945,41700,5.420000076293945
2018-10-11,5.334000110626221,2.450000047683716,5.329999923706055,3.0199999809265137,1863700,3.0199999809265137
2018-10-12,3.8399999141693115,2.890000104904175,3.359999895095825,3.5799999237060547,2600800,3.5799999237060547
2018-10-15,3.140000104904175,2.5,3.140000104904175,2.7699999809265137,1744500,2.7699999809265137
2018-10-16,2.9609999656677246,2.559999942779541,2.869999885559082,2.740000009536743,570900,2.740000009536743
2018-10-17,3.6600000858306885,2.5799999237060547,2.7200000286102295,3.450000047683716,2603700,3.450000047683716
2018-10-18,3.799999952316284,3.059999942779541,3.3499999046325684,3.4700000286102295,2456900,3.4700000286102295
2018-10-19,3.690000057220459,3.0,3.559999942779541,3.240000009536743,1721000,3.240000009536743
2018-10-22,3.125999927520752,2.759999990463257,3.109999895095825,2.809999942779541,896100,2.809999942779541
2018-10-23,2.7799999713897705,2.619999885559082,2.759999990463257,2.7300000190734863,362100,2.7300000190734863
2018-10-24,2.740000009536743,2.309999942779541,2.700000047683716,2.325000047683716,520200,2.325000047683716
2018-10-25,2.450000047683716,2.0,2.200000047683716,2.380000114440918,909100,2.380000114440918
2018-10-26,2.299999952316284,2.0999999046325684,2.200000047683716,2.0999999046325684,476900,2.0999999046325684
2018-10-29,2.2100000381469727,2.0,2.1500000953674316,2.009999990463257,425100,2.009999990463257
2018-10-30,2.0299999713897705,1.7300000190734863,2.0199999809265137,2.0,212300,2.0
2018-10-31,2.049999952316284,1.6799999475479126,1.9800000190734863,1.75,480100,1.75
2018-11-01,1.75,1.4199999570846558,1.75,1.659999966621399,1119300,1.659999966621399
2018-11-02,2.5999999046325684,1.9600000381469727,1.9800000190734863,2.140000104904175,6481000,2.140000104904175
2018-11-05,2.1579999923706055,1.8200000524520874,2.140000104904175,1.9199999570846558,902000,1.9199999570846558
2018-11-06,2.0899999141693115,1.850000023841858,1.899999976158142,2.069999933242798,359000,2.069999933242798
2018-11-07,2.309999942779541,1.9600000381469727,2.140000104904175,2.1500000953674316,748700,2.1500000953674316
2018-11-08,2.2200000286102295,1.9299999475479126,2.1700000762939453,1.9600000381469727,323300,1.9600000381469727
2018-11-09,1.909999966621399,1.659999966621399,1.909999966621399,1.8300000429153442,559600,1.8300000429153442
2018-11-12,1.8700000047683716,1.7300000190734863,1.8200000524520874,1.8300000429153442,144700,1.8300000429153442
2018-11-13,1.8300000429153442,1.75,1.8300000429153442,1.7899999618530273,149500,1.7899999618530273
2018-11-14,1.784000039100647,1.5800000429153442,1.7400000095367432,1.649999976158142,215400,1.649999976158142
2018-11-15,1.809999942779541,1.6100000143051147,1.6100000143051147,1.7400000095367432,228700,1.7400000095367432
2018-11-16,1.7799999713897705,1.7000000476837158,1.7699999809265137,1.7699999809265137,125900,1.7699999809265137
2018-11-19,1.7699999809265137,1.6299999952316284,1.7200000286102295,1.659999966621399,174300,1.659999966621399
2018-11-20,1.6790000200271606,1.5099999904632568,1.6100000143051147,1.5099999904632568,224400,1.5099999904632568
2018-11-21,1.75,1.5700000524520874,1.5700000524520874,1.690000057220459,175400,1.690000057220459
2018-11-23,1.7400000095367432,1.6399999856948853,1.649999976158142,1.690000057220459,31300,1.690000057220459
2018-11-26,1.9500000476837158,1.6799999475479126,1.690000057220459,1.8300000429153442,436700,1.8300000429153442
2018-11-27,1.878000020980835,1.649999976158142,1.8200000524520874,1.7100000381469727,103800,1.7100000381469727
2018-11-28,1.8200000524520874,1.7100000381469727,1.7200000286102295,1.7899999618530273,150400,1.7899999618530273
2018-11-29,1.7999999523162842,1.649999976158142,1.75,1.7799999713897705,234300,1.7799999713897705
2018-11-30,1.7899999618530273,1.600000023841858,1.7599999904632568,1.6299999952316284,323500,1.6299999952316284
2018-12-03,1.9500000476837158,1.5820000171661377,1.9500000476837158,1.600000023841858,580600,1.600000023841858
2018-12-04,1.6759999990463257,1.4199999570846558,1.600000023841858,1.4600000381469727,459600,1.4600000381469727
2018-12-06,1.4500000476837158,1.309999942779541,1.4199999570846558,1.4199999570846558,215600,1.4199999570846558
2018-12-07,1.399999976158142,1.25,1.3799999952316284,1.25,239000,1.25
2018-12-10,1.4500000476837158,1.100000023841858,1.2100000381469727,1.409999966621399,511300,1.409999966621399
2018-12-11,1.440000057220459,1.2999999523162842,1.340000033378601,1.3600000143051147,127000,1.3600000143051147
2018-12-12,1.440000057220459,1.1100000143051147,1.440000057220459,1.2799999713897705,288900,1.2799999713897705
2018-12-13,1.2599999904632568,1.1699999570846558,1.1799999475479126,1.2130000591278076,123600,1.2130000591278076
2018-12-14,1.3799999952316284,1.2000000476837158,1.2000000476837158,1.2899999618530273,137100,1.2899999618530273
2018-12-17,1.2899999618530273,1.149999976158142,1.2599999904632568,1.1699999570846558,131100,1.1699999570846558
2018-12-18,1.215999960899353,1.059999942779541,1.2100000381469727,1.0700000524520874,211000,1.0700000524520874
2018-12-19,1.0800000429153442,1.0,1.0700000524520874,1.0199999809265137,167600,1.0199999809265137
2018-12-20,1.024999976158142,0.7519999742507935,1.0,0.8579999804496765,408900,0.8579999804496765
2018-12-21,0.8579999804496765,0.7120000123977661,0.8579999804496765,0.7250000238418579,337600,0.7250000238418579
2018-12-24,0.8899999856948853,0.6349999904632568,0.6349999904632568,0.843999981880188,165200,0.843999981880188
2018-12-26,0.9399999976158142,0.7620000243186951,0.8399999737739563,0.8999999761581421,98700,0.8999999761581421
2018-12-27,0.9200000166893005,0.8429999947547913,0.9100000262260437,0.9100000262260437,60500,0.9100000262260437
2018-12-28,0.9100000262260437,0.8199999928474426,0.9100000262260437,0.8299999833106995,106600,0.8299999833106995
2018-12-31,0.9800000190734863,0.8199999928474426,0.8199999928474426,0.9200000166893005,168800,0.9200000166893005
2019-01-02,0.9300000071525574,0.8199999928474426,0.9200000166893005,0.8999999761581421,166500,0.8999999761581421
2019-01-03,0.9490000009536743,0.8610000014305115,0.8849999904632568,0.8999999761581421,28500,0.8999999761581421
2019-01-04,1.1339999437332153,0.8999999761581421,0.8999999761581421,1.0099999904632568,371800,1.0099999904632568
2019-01-07,1.1200000047683716,1.0,1.059999942779541,1.100000023841858,158500,1.100000023841858
2019-01-08,1.1299999952316284,1.0420000553131104,1.100000023841858,1.1200000047683716,113600,1.1200000047683716
2019-01-09,1.1200000047683716,1.0180000066757202,1.1200000047683716,1.024999976158142,155100,1.024999976158142
2019-01-10,1.149999976158142,0.949999988079071,1.0499999523162842,1.0099999904632568,207300,1.0099999904632568
2019-01-11,1.0700000524520874,0.9700000286102295,1.0199999809265137,1.0199999809265137,73500,1.0199999809265137
2019-01-14,1.149999976158142,1.0,1.0399999618530273,1.0700000524520874,645400,1.0700000524520874
2019-01-15,1.149999976158142,1.0199999809265137,1.100000023841858,1.0700000524520874,532700,1.0700000524520874
2019-01-16,1.090000033378601,1.0099999904632568,1.090000033378601,1.0099999904632568,145600,1.0099999904632568
2019-01-17,1.090000033378601,0.8999999761581421,0.9800000190734863,1.0199999809265137,308200,1.0199999809265137
2019-01-18,1.0700000524520874,0.9620000123977661,1.0499999523162842,0.9700000286102295,100800,0.9700000286102295
2019-01-22,1.0299999713897705,0.8299999833106995,0.9879999756813049,0.9089999794960022,209100,0.9089999794960022
2019-01-23,0.9649999737739563,0.8999999761581421,0.8999999761581421,0.9190000295639038,85000,0.9190000295639038
2019-01-24,0.9700000286102295,0.8999999761581421,0.8999999761581421,0.9390000104904175,64200,0.9390000104904175
2019-01-25,1.034000039100647,0.9399999976158142,0.9599999785423279,1.0199999809265137,169500,1.0199999809265137
2019-01-28,1.0499999523162842,0.9700000286102295,1.0099999904632568,1.0,89000,1.0
2019-01-29,1.1399999856948853,0.9599999785423279,1.0,1.0390000343322754,308100,1.0390000343322754
2019-01-30,1.0800000429153442,0.9049999713897705,1.059999942779541,0.9390000104904175,397300,0.9390000104904175
2019-01-31,0.9800000190734863,0.9129999876022339,0.949999988079071,0.9350000023841858,157500,0.9350000023841858
2019-02-01,1.1200000047683716,0.9399999976158142,0.949999988079071,0.9829999804496765,229200,0.9829999804496765
2019-02-04,1.0199999809265137,0.9509999752044678,0.9800000190734863,1.0019999742507935,87800,1.0019999742507935
2019-02-05,1.0199999809265137,0.9629999995231628,1.0,0.9629999995231628,52500,0.9629999995231628
2019-02-06,1.0099999904632568,0.9620000123977661,0.9900000095367432,0.9950000047683716,28800,0.9950000047683716
2019-02-07,1.0,0.9039999842643738,0.9900000095367432,0.9279999732971191,116900,0.9279999732971191
2019-02-08,0.9440000057220459,0.9010000228881836,0.9200000166893005,0.9100000262260437,55000,0.9100000262260437
2019-02-11,0.9800000190734863,0.9150000214576721,0.9800000190734863,0.9490000009536743,32400,0.9490000009536743
2019-02-12,0.9800000190734863,0.9200000166893005,0.9200000166893005,0.921999990940094,93400,0.921999990940094
2019-02-13,0.949999988079071,0.9200000166893005,0.949999988079071,0.9229999780654907,49300,0.9229999780654907
2019-02-14,0.9200000166893005,0.8399999737739563,0.9200000166893005,0.8999999761581421,133000,0.8999999761581421
2019-02-15,0.8930000066757202,0.8399999737739563,0.8930000066757202,0.8529999852180481,127800,0.8529999852180481
2019-02-19,0.8899999856948853,0.8299999833106995,0.8500000238418579,0.8849999904632568,151000,0.8849999904632568
2019-02-20,0.925000011920929,0.8669999837875366,0.8669999837875366,0.9100000262260437,71800,0.9100000262260437
2019-02-21,0.9300000071525574,0.8669999837875366,0.9300000071525574,0.9190000295639038,31200,0.9190000295639038
2019-02-22,1.399999976158142,0.8849999904632568,0.9300000071525574,1.2799999713897705,2919000,1.2799999713897705
2019-02-25,3.5799999237060547,1.5700000524520874,1.7000000476837158,2.799999952316284,62029100,2.799999952316284
2019-02-26,2.490000009536743,1.899999976158142,2.299999952316284,2.109999895095825,7768500,2.109999895095825
2019-02-27,2.049999952316284,1.7699999809265137,1.9500000476837158,1.899999976158142,1426300,1.899999976158142
2019-02-28,2.380000114440918,1.9110000133514404,1.9199999570846558,2.240000009536743,4330000,2.240000009536743
2019-03-01,3.25,2.299999952316284,2.4100000858306885,3.25,9563900,3.25
2019-03-04,6.440000057220459,4.650000095367432,4.929999828338623,4.960000038146973,44949200,4.960000038146973
2019-03-05,5.440000057220459,4.21999979019165,4.559999942779541,4.78000020980835,6301100,4.78000020980835
2019-03-06,5.110000133514404,4.300000190734863,4.519999980926514,4.5,3036100,4.5
2019-03-07,5.079999923706055,4.349999904632568,4.730000019073486,4.449999809265137,3767200,4.449999809265137
2019-03-08,4.150000095367432,2.6600000858306885,4.0,3.180000066757202,3613300,3.180000066757202
2019-03-11,3.5999999046325684,3.200000047683716,3.2100000381469727,3.2799999713897705,1564100,3.2799999713897705
2019-03-12,3.3399999141693115,2.930000066757202,3.3399999141693115,3.059999942779541,811600,3.059999942779541
2019-03-13,3.1410000324249268,2.680000066757202,2.950000047683716,2.7100000381469727,982300,2.7100000381469727
2019-03-14,2.8499999046325684,2.5999999046325684,2.809999942779541,2.6500000953674316,651300,2.6500000953674316
2019-03-15,2.8489999771118164,2.3570001125335693,2.700000047683716,2.759999990463257,903800,2.759999990463257
2019-03-18,3.259999990463257,2.759999990463257,2.759999990463257,3.009999990463257,1494800,3.009999990463257
2019-03-19,3.200000047683716,2.6500000953674316,3.1500000953674316,2.7899999618530273,1005600,2.7899999618530273
2019-03-20,2.9839999675750732,2.690000057220459,2.859999895095825,2.7799999713897705,604600,2.7799999713897705
2019-03-21,2.930000066757202,2.578000068664551,2.6600000858306885,2.809999942779541,683400,2.809999942779541
2019-03-22,2.809999942779541,2.6600000858306885,2.7200000286102295,2.75,253600,2.75
2019-03-25,2.890000104904175,2.4000000953674316,2.6700000762939453,2.7799999713897705,737800,2.7799999713897705
2019-03-26,2.859999895095825,2.6600000858306885,2.859999895095825,2.680000066757202,210200,2.680000066757202
2019-03-27,2.8499999046325684,2.690000057220459,2.7300000190734863,2.7699999809265137,301800,2.7699999809265137
2019-03-28,4.25,2.7899999618530273,2.7899999618530273,4.070000171661377,10204100,4.070000171661377
2019-03-29,4.199999809265137,3.5,3.819999933242798,3.799999952316284,4360400,3.799999952316284
2019-04-01,4.070000171661377,3.359999895095825,3.880000114440918,3.430000066757202,1098700,3.430000066757202
2019-04-02,3.8499999046325684,3.430000066757202,3.450000047683716,3.5399999618530273,1057200,3.5399999618530273
2019-04-03,3.680000066757202,3.3499999046325684,3.5999999046325684,3.440000057220459,512800,3.440000057220459
2019-04-04,4.050000190734863,3.299999952316284,3.450000047683716,3.869999885559082,1740300,3.869999885559082
2019-04-05,3.890000104904175,3.5299999713897705,3.75,3.759999990463257,1117800,3.759999990463257
2019-04-08,3.8459999561309814,3.5799999237060547,3.8399999141693115,3.690000057220459,437100,3.690000057220459
2019-04-09,3.680000066757202,3.3499999046325684,3.640000104904175,3.359999895095825,698200,3.359999895095825
2019-04-10,3.4260001182556152,3.059999942779541,3.380000114440918,3.359999895095825,517300,3.359999895095825
2019-04-11,3.5899999141693115,3.299999952316284,3.380000114440918,3.299999952316284,385700,3.299999952316284
2019-04-12,3.440000057220459,3.200000047683716,3.359999895095825,3.4200000762939453,305500,3.4200000762939453
2019-04-15,3.509999990463257,3.109999895095825,3.4700000286102295,3.2899999618530273,342900,3.2899999618530273
2019-04-16,3.4000000953674316,3.1500000953674316,3.309999942779541,3.3399999141693115,240500,3.3399999141693115
2019-04-17,3.369999885559082,3.240000009536743,3.3499999046325684,3.309999942779541,168000,3.309999942779541
2019-04-18,3.3299999237060547,3.2200000286102295,3.319999933242798,3.2899999618530273,142900,3.2899999618530273
2019-04-22,3.2799999713897705,3.180000066757202,3.2200000286102295,3.25,91700,3.25
2019-04-23,3.2899999618530273,3.0,3.25,3.0199999809265137,289600,3.0199999809265137
2019-04-24,3.055000066757202,2.680000066757202,3.0,2.869999885559082,448300,2.869999885559082
2019-04-25,2.8320000171661377,2.75,2.7799999713897705,2.809999942779541,127300,2.809999942779541
2019-04-26,2.819999933242798,2.700000047683716,2.759999990463257,2.7799999713897705,158800,2.7799999713897705
2019-04-29,2.809999942779541,2.6600000858306885,2.7799999713897705,2.7200000286102295,189500,2.7200000286102295
2019-04-30,2.7899999618530273,2.5,2.6700000762939453,2.619999885559082,224300,2.619999885559082
2019-05-01,2.609999895095825,2.4100000858306885,2.5799999237060547,2.5,266700,2.5
2019-05-02,2.440000057220459,2.0199999809265137,2.049999952316284,2.2699999809265137,827900,2.2699999809265137
2019-05-03,2.7699999809265137,2.2699999809265137,2.3299999237060547,2.7100000381469727,556500,2.7100000381469727
2019-05-06,2.7899999618530273,2.2799999713897705,2.2799999713897705,2.75,521900,2.75
2019-05-07,2.746000051498413,2.509999990463257,2.690000057220459,2.640000104904175,170900,2.640000104904175
2019-05-08,2.6600000858306885,2.5399999618530273,2.6500000953674316,2.5999999046325684,122800,2.5999999046325684
2019-05-09,2.609999895095825,2.4000000953674316,2.5399999618530273,2.5999999046325684,232500,2.5999999046325684
2019-05-10,2.630000114440918,2.4700000286102295,2.5799999237060547,2.5999999046325684,57500,2.5999999046325684
2019-05-13,2.5199999809265137,2.3299999237060547,2.5199999809265137,2.3499999046325684,149100,2.3499999046325684
2019-05-14,2.4800000190734863,2.299999952316284,2.380000114440918,2.380000114440918,58800,2.380000114440918
2019-05-15,2.369999885559082,2.2990000247955322,2.359999895095825,2.3499999046325684,64800,2.3499999046325684
2019-05-16,2.440000057220459,2.299999952316284,2.309999942779541,2.309999942779541,90000,2.309999942779541
2019-05-17,2.3499999046325684,2.259999990463257,2.299999952316284,2.2799999713897705,83400,2.2799999713897705
2019-05-20,2.259999990463257,1.9900000095367432,2.259999990463257,2.049999952316284,247700,2.049999952316284
2019-05-21,2.140000104904175,1.909999966621399,2.0299999713897705,1.940000057220459,214000,1.940000057220459
2019-05-22,1.940000057220459,1.8389999866485596,1.940000057220459,1.840000033378601,165800,1.840000033378601
2019-05-23,1.8109999895095825,1.649999976158142,1.809999942779541,1.7300000190734863,184500,1.7300000190734863
2019-05-24,1.9500000476837158,1.7300000190734863,1.7300000190734863,1.8700000047683716,87900,1.8700000047683716
