Date,High,Low,Open,Close,Volume,Adj Close
2016-06-16,24.760000228881836,24.760000228881836,24.760000228881836,24.760000228881836,1000.0,23.317161560058594
2016-06-17,24.760000228881836,24.760000228881836,24.760000228881836,24.760000228881836,0.0,23.317161560058594
2016-06-20,26.049999237060547,26.049999237060547,26.049999237060547,26.049999237060547,200.0,24.5319881439209
2016-06-21,26.049999237060547,26.049999237060547,26.049999237060547,26.049999237060547,10000.0,24.5319881439209
2016-06-22,25.150999069213867,25.09000015258789,25.09000015258789,25.150999069213867,600.0,23.68537712097168
2016-06-23,25.049999237060547,24.989999771118164,24.989999771118164,25.049999237060547,600.0,23.590261459350586
2016-06-24,24.729999542236328,24.520000457763672,24.520000457763672,24.729999542236328,800.0,23.288908004760742
2016-06-27,24.68000030517578,24.600000381469727,24.68000030517578,24.610000610351562,400.0,23.175901412963867
2016-06-28,25.610000610351562,24.989999771118164,25.610000610351562,24.989999771118164,600.0,23.53375816345215
2016-06-29,25.639999389648438,25.239999771118164,25.639999389648438,25.288000106811523,2100.0,23.81439208984375
2016-06-30,25.610000610351562,25.0,25.610000610351562,25.139999389648438,1500.0,23.675018310546875
2016-07-01,25.1200008392334,25.108999252319336,25.108999252319336,25.1200008392334,1100.0,23.65618324279785
2016-07-05,25.1200008392334,25.1200008392334,25.1200008392334,25.1200008392334,0.0,23.65618324279785
2016-07-06,25.75,25.549999237060547,25.59000015258789,25.75,2100.0,24.249469757080078
2016-07-07,25.72800064086914,25.72800064086914,25.72800064086914,25.72800064086914,200.0,24.22875213623047
2016-07-08,25.809999465942383,25.729999542236328,25.729999542236328,25.809999465942383,2000.0,24.305973052978516
2016-07-11,25.75,25.75,25.75,25.75,100.0,24.249469757080078
2016-07-12,26.420000076293945,26.3700008392334,26.3700008392334,26.420000076293945,600.0,24.880428314208984
2016-07-13,26.440000534057617,26.399999618530273,26.399999618530273,26.440000534057617,1200.0,24.899263381958008
2016-07-14,26.360000610351562,26.31999969482422,26.360000610351562,26.31999969482422,600.0,24.7862548828125
2016-07-15,26.329999923706055,26.323999404907227,26.323999404907227,26.329999923706055,400.0,24.795671463012695
2016-07-18,26.329999923706055,26.329999923706055,26.329999923706055,26.329999923706055,0.0,24.795671463012695
2016-07-19,26.329999923706055,26.329999923706055,26.329999923706055,26.329999923706055,0.0,24.795671463012695
2016-07-20,26.110000610351562,26.09000015258789,26.100000381469727,26.100000381469727,1200.0,24.579076766967773
2016-07-21,26.100000381469727,26.100000381469727,26.100000381469727,26.100000381469727,0.0,24.579076766967773
2016-07-22,26.100000381469727,26.100000381469727,26.100000381469727,26.100000381469727,0.0,24.579076766967773
2016-07-25,26.0,26.0,26.0,26.0,500.0,24.484901428222656
2016-07-26,26.3799991607666,26.3799991607666,26.3799991607666,26.3799991607666,100.0,24.842758178710938
2016-07-27,25.799999237060547,25.799999237060547,25.799999237060547,25.799999237060547,500.0,24.29655647277832
2016-07-28,25.799999237060547,25.799999237060547,25.799999237060547,25.799999237060547,0.0,24.29655647277832
2016-07-29,25.979999542236328,25.979999542236328,25.979999542236328,25.979999542236328,400.0,24.466068267822266
2016-08-01,25.610000610351562,25.610000610351562,25.610000610351562,25.610000610351562,1000.0,24.11762809753418
2016-08-02,25.739999771118164,25.68000030517578,25.690000534057617,25.739999771118164,900.0,24.240053176879883
2016-08-03,25.739999771118164,25.739999771118164,25.739999771118164,25.739999771118164,0.0,24.240053176879883
2016-08-04,25.909000396728516,25.909000396728516,25.909000396728516,25.909000396728516,300.0,24.399206161499023
2016-08-05,25.940000534057617,25.899999618530273,25.899999618530273,25.940000534057617,1000.0,24.42840003967285
2016-08-08,25.940000534057617,25.940000534057617,25.940000534057617,25.940000534057617,0.0,24.42840003967285
2016-08-09,25.940000534057617,25.940000534057617,25.940000534057617,25.940000534057617,0.0,24.42840003967285
2016-08-10,26.259000778198242,26.259000778198242,26.259000778198242,26.259000778198242,100.0,24.728809356689453
2016-08-11,26.219999313354492,26.190000534057617,26.219999313354492,26.190000534057617,800.0,24.66383171081543
2016-08-12,26.579999923706055,26.579999923706055,26.579999923706055,26.579999923706055,400.0,25.031103134155273
2016-08-15,27.850000381469727,27.469999313354492,27.850000381469727,27.469999313354492,500.0,25.869237899780273
2016-08-16,27.920000076293945,27.31999969482422,27.920000076293945,27.31999969482422,1400.0,25.727981567382812
2016-08-17,27.31999969482422,27.31999969482422,27.31999969482422,27.31999969482422,0.0,25.727981567382812
2016-08-18,27.170000076293945,27.149999618530273,27.149999618530273,27.170000076293945,200.0,25.58672332763672
2016-08-19,27.059999465942383,27.059999465942383,27.059999465942383,27.059999465942383,200.0,25.48313331604004
2016-08-22,27.350000381469727,26.8799991607666,27.350000381469727,26.8799991607666,200.0,25.313623428344727
2016-08-23,26.8799991607666,26.8799991607666,26.8799991607666,26.8799991607666,0.0,25.313623428344727
2016-08-24,26.8799991607666,26.8799991607666,26.8799991607666,26.8799991607666,0.0,25.313623428344727
2016-08-25,26.8799991607666,26.8799991607666,26.8799991607666,26.8799991607666,0.0,25.313623428344727
2016-08-26,26.8799991607666,26.8799991607666,26.8799991607666,26.8799991607666,0.0,25.313623428344727
2016-08-29,26.719999313354492,26.540000915527344,26.719999313354492,26.540000915527344,2200.0,24.993436813354492
2016-08-30,26.540000915527344,26.540000915527344,26.540000915527344,26.540000915527344,100.0,24.993436813354492
2016-08-31,26.610000610351562,26.610000610351562,26.610000610351562,26.610000610351562,500.0,25.059356689453125
2016-09-01,26.399999618530273,26.389999389648438,26.389999389648438,26.399999618530273,1100.0,24.86159324645996
2016-09-02,26.399999618530273,26.399999618530273,26.399999618530273,26.399999618530273,0.0,24.86159324645996
2016-09-06,26.809999465942383,26.788999557495117,26.788999557495117,26.809999465942383,1600.0,25.247699737548828
2016-09-07,26.809999465942383,26.809999465942383,26.809999465942383,26.809999465942383,0.0,25.247699737548828
2016-09-08,26.809999465942383,26.809999465942383,26.809999465942383,26.809999465942383,0.0,25.247699737548828
2016-09-09,26.440000534057617,26.34000015258789,26.440000534057617,26.34000015258789,400.0,24.80508804321289
2016-09-12,25.889999389648438,25.889999389648438,25.889999389648438,25.889999389648438,1000.0,24.38131332397461
2016-09-13,26.010000228881836,25.950000762939453,26.010000228881836,25.950000762939453,600.0,24.437816619873047
2016-09-14,25.84000015258789,25.84000015258789,25.84000015258789,25.84000015258789,1000.0,24.334224700927734
2016-09-15,26.100000381469727,25.889999389648438,25.889999389648438,26.100000381469727,1500.0,24.579076766967773
2016-09-16,26.18000030517578,25.989999771118164,25.989999771118164,26.170000076293945,2000.0,24.644996643066406
2016-09-19,26.219999313354492,26.219999313354492,26.219999313354492,26.219999313354492,200.0,24.69208335876465
2016-09-20,26.18000030517578,26.1200008392334,26.170000076293945,26.15999984741211,2000.0,24.635578155517578
2016-09-21,26.360000610351562,25.93000030517578,25.93000030517578,26.360000610351562,1800.0,24.82392120361328
2016-09-22,26.530000686645508,26.440000534057617,26.530000686645508,26.450000762939453,3100.0,24.908679962158203
2016-09-23,26.200000762939453,26.200000762939453,26.200000762939453,26.200000762939453,300.0,24.673248291015625
2016-09-26,25.68000030517578,25.639999389648438,25.639999389648438,25.68000030517578,1100.0,24.183549880981445
2016-09-27,26.079999923706055,25.850000381469727,26.079999923706055,25.850000381469727,700.0,24.343645095825195
2016-09-28,26.34000015258789,26.34000015258789,26.34000015258789,26.34000015258789,100.0,24.80508804321289
2016-09-29,26.010000228881836,26.010000228881836,26.010000228881836,26.010000228881836,200.0,24.494319915771484
2016-09-30,26.260000228881836,26.1299991607666,26.149999618530273,26.219999313354492,2300.0,24.69208335876465
2016-10-03,26.030000686645508,26.030000686645508,26.030000686645508,26.030000686645508,1000.0,24.513153076171875
2016-10-04,26.100000381469727,26.100000381469727,26.100000381469727,26.100000381469727,1000.0,24.579076766967773
2016-10-05,26.143999099731445,26.110000610351562,26.110000610351562,26.143999099731445,1400.0,24.62051010131836
2016-10-06,26.280000686645508,26.229999542236328,26.229999542236328,26.280000686645508,700.0,24.74858856201172
2016-10-07,26.280000686645508,26.209999084472656,26.270000457763672,26.270000457763672,1300.0,24.739168167114258
2016-10-10,26.34000015258789,26.34000015258789,26.34000015258789,26.34000015258789,1000.0,24.80508804321289
2016-10-11,26.360000610351562,26.290000915527344,26.360000610351562,26.34000015258789,1000.0,24.80508804321289
2016-10-12,26.350000381469727,26.309999465942383,26.329999923706055,26.350000381469727,1000.0,24.81450653076172
2016-10-13,26.149999618530273,26.149999618530273,26.149999618530273,26.149999618530273,1000.0,24.62615966796875
2016-10-14,26.459999084472656,26.3799991607666,26.459999084472656,26.3799991607666,1000.0,24.842758178710938
2016-10-17,26.3799991607666,26.3799991607666,26.3799991607666,26.3799991607666,0.0,24.842758178710938
2016-10-18,26.440000534057617,26.440000534057617,26.440000534057617,26.440000534057617,1000.0,24.899263381958008
2016-10-19,26.489999771118164,26.459999084472656,26.459999084472656,26.479999542236328,1000.0,24.936931610107422
2016-10-20,26.479999542236328,26.479999542236328,26.479999542236328,26.479999542236328,0.0,24.936931610107422
2016-10-21,26.3700008392334,26.309999465942383,26.3700008392334,26.309999465942383,1500.0,24.776838302612305
2016-10-24,26.709999084472656,26.670000076293945,26.670000076293945,26.700000762939453,3000.0,25.14411163330078
2016-10-25,26.700000762939453,26.700000762939453,26.700000762939453,26.700000762939453,100.0,25.14411163330078
2016-10-26,26.700000762939453,26.700000762939453,26.700000762939453,26.700000762939453,0.0,25.14411163330078
2016-10-27,26.469999313354492,26.420000076293945,26.440000534057617,26.43000030517578,1500.0,24.88984489440918
2016-10-28,26.420000076293945,26.309999465942383,26.420000076293945,26.350000381469727,1200.0,24.81450653076172
2016-10-31,26.350000381469727,26.350000381469727,26.350000381469727,26.350000381469727,0.0,24.81450653076172
2016-11-01,26.350000381469727,26.350000381469727,26.350000381469727,26.350000381469727,0.0,24.81450653076172
2016-11-02,26.540000915527344,26.3799991607666,26.540000915527344,26.399999618530273,800.0,24.86159324645996
2016-11-03,26.899999618530273,26.559999465942383,26.899999618530273,26.559999465942383,200.0,25.01226806640625
2016-11-04,26.440000534057617,26.200000762939453,26.200000762939453,26.40999984741211,2300.0,24.871009826660156
2016-11-07,26.40999984741211,26.40999984741211,26.40999984741211,26.40999984741211,0.0,24.871009826660156
2016-11-08,26.700000762939453,26.549999237060547,26.690000534057617,26.700000762939453,1400.0,25.14411163330078
2016-11-09,26.700000762939453,26.510000228881836,26.700000762939453,26.59000015258789,1200.0,25.0405216217041
2016-11-10,26.479999542236328,26.420000076293945,26.420000076293945,26.469999313354492,1100.0,24.927513122558594
2016-11-11,26.790000915527344,26.790000915527344,26.790000915527344,26.790000915527344,100.0,25.22886848449707
2016-11-14,26.760000228881836,26.760000228881836,26.760000228881836,26.760000228881836,1000.0,25.20061492919922
2016-11-15,26.770000457763672,26.719999313354492,26.729999542236328,26.770000457763672,1100.0,25.210031509399414
2016-11-16,26.65999984741211,26.6200008392334,26.639999389648438,26.65999984741211,900.0,25.106441497802734
2016-11-17,26.760000228881836,26.75,26.760000228881836,26.75,400.0,25.191198348999023
2016-11-18,26.530000686645508,26.510000228881836,26.510000228881836,26.510000228881836,2000.0,24.96518325805664
2016-11-21,26.510000228881836,26.510000228881836,26.510000228881836,26.510000228881836,0.0,24.96518325805664
2016-11-22,26.510000228881836,26.510000228881836,26.510000228881836,26.510000228881836,0.0,24.96518325805664
2016-11-23,26.510000228881836,26.510000228881836,26.510000228881836,26.510000228881836,0.0,24.96518325805664
2016-11-25,27.09000015258789,27.059999465942383,27.059999465942383,27.09000015258789,1100.0,25.51138687133789
2016-11-28,27.170000076293945,27.15999984741211,27.15999984741211,27.170000076293945,400.0,25.58672332763672
2016-11-29,27.530000686645508,27.518999099731445,27.524999618530273,27.518999099731445,3100.0,25.91538429260254
2016-11-30,27.518999099731445,27.518999099731445,27.518999099731445,27.518999099731445,100.0,25.91538429260254
2016-12-01,27.43000030517578,27.43000030517578,27.43000030517578,27.43000030517578,1000.0,25.831571578979492
2016-12-02,27.43000030517578,27.43000030517578,27.43000030517578,27.43000030517578,100.0,25.831571578979492
2016-12-05,27.200000762939453,26.940000534057617,27.200000762939453,26.940000534057617,900.0,25.370128631591797
2016-12-06,26.649999618530273,26.56999969482422,26.649999618530273,26.610000610351562,11200.0,25.059356689453125
2016-12-07,26.780000686645508,26.6299991607666,26.6299991607666,26.780000686645508,1000.0,25.21944808959961
2016-12-08,26.549999237060547,26.549999237060547,26.549999237060547,26.549999237060547,500.0,25.002851486206055
2016-12-09,26.68000030517578,26.68000030517578,26.68000030517578,26.68000030517578,500.0,25.125276565551758
2016-12-12,25.902999877929688,25.902999877929688,25.902999877929688,25.902999877929688,400.0,24.3935546875
2016-12-13,26.0,26.0,26.0,26.0,100.0,24.484901428222656
2016-12-14,26.0,26.0,26.0,26.0,0.0,24.484901428222656
2016-12-15,26.0,26.0,26.0,26.0,0.0,24.484901428222656
2016-12-16,26.0,26.0,26.0,26.0,0.0,24.484901428222656
2016-12-19,26.0,26.0,26.0,26.0,0.0,24.484901428222656
2016-12-20,26.0,26.0,26.0,26.0,100.0,24.484901428222656
2016-12-21,26.0,26.0,26.0,26.0,0.0,24.810298919677734
2016-12-22,25.09000015258789,25.09000015258789,25.09000015258789,25.09000015258789,100.0,23.941938400268555
2016-12-23,25.09000015258789,25.09000015258789,25.09000015258789,25.09000015258789,0.0,23.941938400268555
2016-12-27,25.09000015258789,25.09000015258789,25.09000015258789,25.09000015258789,0.0,23.941938400268555
2016-12-28,24.770000457763672,24.725000381469727,24.770000457763672,24.75,600.0,23.617496490478516
2016-12-29,24.719999313354492,24.709999084472656,24.719999313354492,24.709999084472656,4800.0,23.57932472229004
2016-12-30,24.709999084472656,24.709999084472656,24.709999084472656,24.709999084472656,0.0,23.57932472229004
2017-01-03,25.100000381469727,25.049999237060547,25.100000381469727,25.079999923706055,500.0,23.932397842407227
2017-01-04,25.079999923706055,25.079999923706055,25.079999923706055,25.079999923706055,0.0,23.932397842407227
2017-01-05,25.899999618530273,25.81999969482422,25.81999969482422,25.899999618530273,1400.0,24.714874267578125
2017-01-06,25.635000228881836,25.600000381469727,25.600000381469727,25.635000228881836,1500.0,24.46200180053711
2017-01-09,25.6299991607666,25.6299991607666,25.6299991607666,25.6299991607666,200.0,24.457229614257812
2017-01-10,25.549999237060547,25.549999237060547,25.549999237060547,25.549999237060547,600.0,24.380887985229492
2017-01-11,25.40999984741211,25.309999465942383,25.31999969482422,25.399999618530273,1000.0,24.237751007080078
2017-01-12,25.399999618530273,25.360000610351562,25.3799991607666,25.389999389648438,1300.0,24.228212356567383
2017-01-13,25.399999618530273,25.399999618530273,25.399999618530273,25.399999618530273,200.0,24.237751007080078
2017-01-17,25.399999618530273,25.399999618530273,25.399999618530273,25.399999618530273,0.0,24.237751007080078
2017-01-18,25.399999618530273,25.399999618530273,25.399999618530273,25.399999618530273,0.0,24.237751007080078
2017-01-19,25.399999618530273,25.399999618530273,25.399999618530273,25.399999618530273,0.0,24.237751007080078
2017-01-20,25.6299991607666,25.6299991607666,25.6299991607666,25.6299991607666,200.0,24.457229614257812
2017-01-23,25.6299991607666,25.6299991607666,25.6299991607666,25.6299991607666,0.0,24.457229614257812
2017-01-24,25.6299991607666,25.6299991607666,25.6299991607666,25.6299991607666,0.0,24.457229614257812
2017-01-25,25.860000610351562,25.809999465942383,25.809999465942383,25.847000122070312,300.0,24.6643009185791
2017-01-26,25.849000930786133,25.849000930786133,25.849000930786133,25.849000930786133,500.0,24.666210174560547
2017-01-27,26.530000686645508,26.530000686645508,26.530000686645508,26.530000686645508,200.0,25.316049575805664
2017-01-30,25.84600067138672,25.829999923706055,25.829999923706055,25.84600067138672,500.0,24.663347244262695
2017-01-31,25.950000762939453,25.950000762939453,25.950000762939453,25.950000762939453,100.0,24.762588500976562
2017-02-01,25.950000762939453,25.950000762939453,25.950000762939453,25.950000762939453,0.0,24.762588500976562
2017-02-02,26.030000686645508,26.010000228881836,26.030000686645508,26.010000228881836,2100.0,24.819841384887695
2017-02-03,25.950000762939453,25.950000762939453,25.950000762939453,25.950000762939453,800.0,24.762588500976562
2017-02-06,25.950000762939453,25.950000762939453,25.950000762939453,25.950000762939453,0.0,24.762588500976562
2017-02-07,25.950000762939453,25.950000762939453,25.950000762939453,25.950000762939453,0.0,24.762588500976562
2017-02-08,25.600000381469727,25.600000381469727,25.600000381469727,25.600000381469727,400.0,24.428604125976562
2017-02-09,25.950000762939453,25.90999984741211,25.950000762939453,25.940000534057617,900.0,24.7530460357666
2017-02-10,26.059999465942383,25.549999237060547,25.549999237060547,26.059999465942383,1100.0,24.867551803588867
2017-02-13,26.149999618530273,26.149999618530273,26.149999618530273,26.149999618530273,200.0,24.953433990478516
2017-02-14,26.149999618530273,26.149999618530273,26.149999618530273,26.149999618530273,0.0,24.953433990478516
2017-02-15,26.139999389648438,26.1200008392334,26.1200008392334,26.139999389648438,3000.0,24.943893432617188
2017-02-16,26.139999389648438,26.139999389648438,26.139999389648438,26.139999389648438,0.0,24.943893432617188
2017-02-17,26.110000610351562,26.09000015258789,26.110000610351562,26.100000381469727,500.0,24.905723571777344
2017-02-21,26.100000381469727,26.100000381469727,26.100000381469727,26.100000381469727,0.0,24.905723571777344
2017-02-22,26.729999542236328,26.55900001525879,26.55900001525879,26.729999542236328,8500.0,25.506895065307617
2017-02-23,26.652999877929688,26.649999618530273,26.652999877929688,26.649999618530273,500.0,25.43055534362793
2017-02-24,26.649999618530273,26.649999618530273,26.649999618530273,26.649999618530273,0.0,25.43055534362793
2017-02-27,26.649999618530273,26.649999618530273,26.649999618530273,26.649999618530273,0.0,25.43055534362793
2017-02-28,26.969999313354492,26.530000686645508,26.969999313354492,26.540000915527344,800.0,25.325590133666992
2017-03-01,26.649999618530273,26.559999465942383,26.559999465942383,26.639999389648438,13500.0,25.42101287841797
2017-03-02,26.219999313354492,26.219999313354492,26.219999313354492,26.219999313354492,300.0,25.020233154296875
2017-03-03,26.219999313354492,26.219999313354492,26.219999313354492,26.219999313354492,0.0,25.020233154296875
2017-03-06,26.219999313354492,26.219999313354492,26.219999313354492,26.219999313354492,0.0,25.020233154296875
2017-03-07,26.389999389648438,26.360000610351562,26.3700008392334,26.3700008392334,1200.0,25.163368225097656
2017-03-08,26.20400047302246,26.20400047302246,26.20400047302246,26.20400047302246,400.0,25.00496482849121
2017-03-09,26.20400047302246,26.20400047302246,26.20400047302246,26.20400047302246,0.0,25.00496482849121
2017-03-10,26.159000396728516,26.159000396728516,26.159000396728516,26.159000396728516,200.0,24.962024688720703
2017-03-13,26.790000915527344,26.391000747680664,26.790000915527344,26.399999618530273,400.0,25.19199562072754
2017-03-14,26.399999618530273,26.399999618530273,26.399999618530273,26.399999618530273,100.0,25.19199562072754
2017-03-15,26.790000915527344,26.389999389648438,26.790000915527344,26.459999084472656,700.0,25.249248504638672
2017-03-16,27.139999389648438,26.729999542236328,27.139999389648438,26.780000686645508,700.0,25.554609298706055
2017-03-17,26.329999923706055,26.329999923706055,26.329999923706055,26.329999923706055,1000.0,25.125198364257812
2017-03-20,26.450000762939453,26.440000534057617,26.440000534057617,26.450000762939453,500.0,25.239707946777344
2017-03-21,26.549999237060547,26.5,26.549999237060547,26.5,600.0,25.28742027282715
2017-03-22,26.600000381469727,26.489999771118164,26.489999771118164,26.600000381469727,2300.0,25.382844924926758
2017-03-23,26.600000381469727,26.559999465942383,26.56999969482422,26.579999923706055,1000.0,25.363759994506836
2017-03-24,26.579999923706055,26.579999923706055,26.579999923706055,26.579999923706055,100.0,25.363759994506836
2017-03-27,26.81999969482422,26.709999084472656,26.709999084472656,26.81999969482422,1500.0,25.592777252197266
2017-03-28,26.68000030517578,26.670000076293945,26.68000030517578,26.670000076293945,700.0,25.449642181396484
2017-03-29,27.040000915527344,26.6299991607666,27.040000915527344,26.649999618530273,900.0,25.43055534362793
2017-03-30,26.649999618530273,26.649999618530273,26.649999618530273,26.649999618530273,100.0,25.43055534362793
2017-03-31,26.530000686645508,26.489999771118164,26.489999771118164,26.520000457763672,700.0,25.30650520324707
2017-04-03,26.520000457763672,26.520000457763672,26.520000457763672,26.520000457763672,0.0,25.30650520324707
2017-04-04,26.601999282836914,26.56999969482422,26.601999282836914,26.594999313354492,1000.0,25.37807273864746
2017-04-05,26.59000015258789,26.59000015258789,26.59000015258789,26.59000015258789,100.0,25.373302459716797
2017-04-06,27.0,26.979999542236328,26.979999542236328,27.0,1500.0,25.764541625976562
2017-04-07,27.440000534057617,27.440000534057617,27.440000534057617,27.440000534057617,200.0,26.18440818786621
2017-04-10,27.329999923706055,27.329999923706055,27.329999923706055,27.329999923706055,100.0,26.07944107055664
2017-04-11,27.09000015258789,27.06999969482422,27.09000015258789,27.09000015258789,800.0,25.850425720214844
2017-04-12,27.049999237060547,27.049999237060547,27.049999237060547,27.049999237060547,100.0,25.812252044677734
2017-04-13,27.56999969482422,27.56999969482422,27.56999969482422,27.56999969482422,100.0,26.30845832824707
2017-04-17,26.75,26.75,26.75,26.75,600.0,25.525981903076172
2017-04-18,26.65999984741211,26.6299991607666,26.65999984741211,26.6299991607666,1500.0,25.411470413208008
2017-04-19,26.475000381469727,26.450000762939453,26.459999084472656,26.475000381469727,700.0,25.263565063476562
2017-04-20,26.610000610351562,26.610000610351562,26.610000610351562,26.610000610351562,500.0,25.39238739013672
2017-04-21,26.65999984741211,26.6200008392334,26.6299991607666,26.65999984741211,500.0,25.440099716186523
2017-04-24,26.350000381469727,26.329999923706055,26.329999923706055,26.34000015258789,3000.0,25.134740829467773
2017-04-25,26.440000534057617,26.40999984741211,26.440000534057617,26.40999984741211,500.0,25.2015380859375
2017-04-26,26.56999969482422,26.40999984741211,26.56999969482422,26.420000076293945,1300.0,25.21108055114746
2017-04-27,26.420000076293945,26.420000076293945,26.420000076293945,26.420000076293945,100.0,25.21108055114746
2017-04-28,26.520000457763672,26.270000457763672,26.520000457763672,26.270000457763672,400.0,25.06794548034668
2017-05-01,26.59000015258789,26.360000610351562,26.59000015258789,26.360000610351562,400.0,25.153827667236328
2017-05-02,26.459999084472656,26.138999938964844,26.459999084472656,26.219999313354492,1000.0,25.020233154296875
2017-05-03,26.170000076293945,26.143999099731445,26.170000076293945,26.143999099731445,12700.0,24.947708129882812
2017-05-04,26.065000534057617,26.06100082397461,26.062000274658203,26.06100082397461,1000.0,24.86850929260254
2017-05-05,26.0,26.0,26.0,26.0,400.0,24.810298919677734
2017-05-08,26.020000457763672,25.549999237060547,26.0,25.56999969482422,6300.0,24.399974822998047
2017-05-09,25.670000076293945,25.6299991607666,25.649999618530273,25.6299991607666,2200.0,24.457229614257812
2017-05-10,25.510000228881836,25.447999954223633,25.510000228881836,25.469999313354492,3000.0,24.304550170898438
2017-05-11,25.59000015258789,25.510000228881836,25.530000686645508,25.59000015258789,1600.0,24.41905975341797
2017-05-12,25.84000015258789,25.790000915527344,25.790000915527344,25.790000915527344,400.0,24.609909057617188
2017-05-15,25.790000915527344,25.790000915527344,25.790000915527344,25.790000915527344,100.0,24.609909057617188
2017-05-16,25.790000915527344,25.790000915527344,25.790000915527344,25.790000915527344,0.0,24.609909057617188
2017-05-17,26.06999969482422,26.040000915527344,26.040000915527344,26.06999969482422,1100.0,24.87709617614746
2017-05-18,25.979999542236328,25.979999542236328,25.979999542236328,25.979999542236328,800.0,24.791213989257812
2017-05-19,26.059999465942383,26.059999465942383,26.059999465942383,26.059999465942383,300.0,24.867551803588867
2017-05-22,26.049999237060547,26.049999237060547,26.049999237060547,26.049999237060547,400.0,24.85801124572754
2017-05-23,26.066999435424805,26.049999237060547,26.049999237060547,26.049999237060547,2000.0,24.85801124572754
2017-05-24,25.68000030517578,25.68000030517578,25.68000030517578,25.68000030517578,100.0,24.504940032958984
2017-05-25,26.670000076293945,26.6299991607666,26.639999389648438,26.670000076293945,600.0,25.449642181396484
2017-05-26,26.670000076293945,26.670000076293945,26.670000076293945,26.670000076293945,100.0,25.449642181396484
2017-05-30,26.639999389648438,26.639999389648438,26.639999389648438,26.639999389648438,100.0,25.42101287841797
2017-05-31,27.030000686645508,26.961999893188477,27.030000686645508,26.989999771118164,2000.0,25.75499725341797
2017-06-01,26.989999771118164,26.989999771118164,26.989999771118164,26.989999771118164,200.0,25.75499725341797
2017-06-02,27.350000381469727,27.350000381469727,27.350000381469727,27.350000381469727,10000.0,26.098526000976562
2017-06-05,26.790000915527344,26.75,26.790000915527344,26.790000915527344,1800.0,25.564151763916016
2017-06-06,27.020000457763672,27.0,27.0,27.020000457763672,1200.0,25.783626556396484
2017-06-07,27.34000015258789,27.309999465942383,27.31999969482422,27.34000015258789,1500.0,26.0889835357666
2017-06-08,27.34000015258789,27.34000015258789,27.34000015258789,27.34000015258789,0.0,26.0889835357666
2017-06-09,27.59000015258789,27.549999237060547,27.59000015258789,27.549999237060547,900.0,26.28937339782715
2017-06-12,27.75,27.75,27.75,27.75,100.0,26.480222702026367
2017-06-13,27.610000610351562,27.570999145507812,27.59000015258789,27.610000610351562,1500.0,26.346628189086914
2017-06-14,27.3700008392334,27.356000900268555,27.3700008392334,27.356000900268555,500.0,26.104251861572266
2017-06-15,27.479999542236328,27.18000030517578,27.479999542236328,27.200000762939453,600.0,25.95539093017578
2017-06-16,27.149999618530273,27.1200008392334,27.139999389648438,27.149999618530273,900.0,25.907678604125977
2017-06-19,27.360000610351562,27.329999923706055,27.349000930786133,27.329999923706055,2600.0,26.07944107055664
2017-06-20,27.649999618530273,27.149999618530273,27.329999923706055,27.149999618530273,36300.0,26.015241622924805
2017-06-21,27.75,27.459999084472656,27.690000534057617,27.51099967956543,9200.0,26.36115264892578
2017-06-22,27.489999771118164,27.469999313354492,27.469999313354492,27.469999313354492,53600.0,26.321866989135742
2017-06-23,27.6299991607666,27.510000228881836,27.579999923706055,27.6200008392334,8500.0,26.465599060058594
2017-06-26,27.979999542236328,27.899999618530273,27.899999618530273,27.954999923706055,3400.0,26.78659439086914
2017-06-27,28.479999542236328,27.974000930786133,28.479999542236328,27.974000930786133,1500.0,26.80480194091797
2017-06-28,28.020000457763672,27.979999542236328,27.979999542236328,28.020000457763672,1600.0,26.848878860473633
2017-06-29,28.079999923706055,27.992000579833984,28.06999969482422,28.040000915527344,2700.0,26.868043899536133
2017-06-30,28.5,28.243999481201172,28.479999542236328,28.309999465942383,28700.0,27.126758575439453
2017-07-03,28.209999084472656,28.139999389648438,28.209999084472656,28.170000076293945,4900.0,26.99260902404785
2017-07-05,28.600000381469727,28.187999725341797,28.450000762939453,28.25,9300.0,27.069265365600586
2017-07-06,28.170000076293945,28.1200008392334,28.149999618530273,28.1200008392334,1100.0,26.944700241088867
2017-07-07,28.239999771118164,28.18000030517578,28.18000030517578,28.21500015258789,4100.0,27.035728454589844
2017-07-10,28.209999084472656,28.15999984741211,28.18000030517578,28.209999084472656,1600.0,27.03093719482422
2017-07-11,28.31999969482422,28.260000228881836,28.31999969482422,28.290000915527344,4400.0,27.107593536376953
2017-07-12,28.350000381469727,28.327999114990234,28.349000930786133,28.327999114990234,22500.0,27.144004821777344
2017-07-13,28.327999114990234,28.327999114990234,28.327999114990234,28.327999114990234,100.0,27.144004821777344
2017-07-14,28.760000228881836,28.760000228881836,28.760000228881836,28.760000228881836,400.0,27.557950973510742
2017-07-17,28.40999984741211,28.270000457763672,28.40999984741211,28.270000457763672,1300.0,27.088430404663086
2017-07-18,28.270000457763672,28.270000457763672,28.270000457763672,28.270000457763672,200.0,27.088430404663086
2017-07-19,28.969999313354492,28.929000854492188,28.929000854492188,28.969999313354492,900.0,27.759172439575195
2017-07-20,29.15999984741211,29.079999923706055,29.15999984741211,29.100000381469727,4800.0,27.883739471435547
2017-07-21,29.049999237060547,29.03700065612793,29.04800033569336,29.03700065612793,600.0,27.823373794555664
2017-07-24,29.218000411987305,29.142000198364258,29.211999893188477,29.142000198364258,2600.0,27.92398452758789
2017-07-25,29.059999465942383,29.017000198364258,29.04400062561035,29.017000198364258,400.0,27.804208755493164
2017-07-26,28.93000030517578,28.93000030517578,28.93000030517578,28.93000030517578,100.0,27.720844268798828
2017-07-27,29.06999969482422,28.969999313354492,29.06999969482422,28.969999313354492,1500.0,27.759172439575195
2017-07-28,29.170000076293945,29.110000610351562,29.149999618530273,29.170000076293945,2900.0,27.950815200805664
2017-07-31,29.280000686645508,29.280000686645508,29.280000686645508,29.280000686645508,100.0,28.056217193603516
2017-08-01,29.534000396728516,29.48699951171875,29.534000396728516,29.503000259399414,4500.0,28.269895553588867
2017-08-02,29.540000915527344,29.469999313354492,29.540000915527344,29.469999313354492,17900.0,28.23827362060547
2017-08-03,29.25,29.25,29.25,29.25,900.0,28.027469635009766
2017-08-04,29.25,29.25,29.25,29.25,0.0,28.027469635009766
2017-08-07,29.25,29.25,29.25,29.25,100.0,28.027469635009766
2017-08-08,29.465999603271484,29.34000015258789,29.34000015258789,29.399999618530273,3300.0,28.171201705932617
2017-08-09,29.420000076293945,29.371000289916992,29.371000289916992,29.405000686645508,27000.0,28.175992965698242
2017-08-10,29.40999984741211,29.256000518798828,29.40999984741211,29.256000518798828,2100.0,28.033220291137695
2017-08-11,28.920000076293945,28.75,28.8799991607666,28.799999237060547,2300.0,27.59627914428711
2017-08-14,29.260000228881836,29.17799949645996,29.260000228881836,29.17799949645996,600.0,27.958478927612305
2017-08-15,29.229999542236328,29.229999542236328,29.229999542236328,29.229999542236328,600.0,28.008304595947266
2017-08-16,29.229999542236328,29.229999542236328,29.229999542236328,29.229999542236328,0.0,28.008304595947266
2017-08-17,29.440000534057617,29.3700008392334,29.440000534057617,29.3700008392334,600.0,28.142454147338867
2017-08-18,29.3799991607666,29.3799991607666,29.3799991607666,29.3799991607666,200.0,28.152036666870117
2017-08-21,29.3799991607666,29.3799991607666,29.3799991607666,29.3799991607666,0.0,28.152036666870117
2017-08-22,29.790000915527344,29.746999740600586,29.760000228881836,29.790000915527344,1200.0,28.54490089416504
2017-08-23,29.70599937438965,29.70599937438965,29.70599937438965,29.70599937438965,600.0,28.46441078186035
2017-08-24,29.530000686645508,29.5,29.5,29.530000686645508,600.0,28.29576873779297
2017-08-25,30.15999984741211,29.989999771118164,29.989999771118164,30.134000778198242,1100.0,28.874523162841797
2017-08-28,30.541000366210938,30.535999298095703,30.541000366210938,30.535999298095703,400.0,29.259721755981445
2017-08-29,30.56999969482422,30.489999771118164,30.540000915527344,30.540000915527344,3000.0,29.2635555267334
2017-08-30,30.52199935913086,30.52199935913086,30.52199935913086,30.52199935913086,200.0,29.246307373046875
2017-08-31,30.520000457763672,30.520000457763672,30.520000457763672,30.520000457763672,100.0,29.2443904876709
2017-09-01,30.860000610351562,30.78700065612793,30.78700065612793,30.850000381469727,4100.0,29.560596466064453
2017-09-05,31.079999923706055,31.018999099731445,31.041000366210938,31.018999099731445,1300.0,29.722532272338867
2017-09-06,31.059999465942383,31.059999465942383,31.059999465942383,31.059999465942383,200.0,29.76181983947754
2017-09-07,31.09000015258789,31.09000015258789,31.09000015258789,31.09000015258789,100.0,29.790565490722656
2017-09-08,31.0,31.0,31.0,31.0,100.0,29.704326629638672
2017-09-11,31.079999923706055,31.06999969482422,31.06999969482422,31.079999923706055,21400.0,29.78098487854004
2017-09-12,31.100000381469727,31.069000244140625,31.069000244140625,31.100000381469727,400.0,29.800148010253906
2017-09-13,31.066999435424805,31.049999237060547,31.049999237060547,31.066999435424805,1200.0,29.76852798461914
2017-09-14,30.979999542236328,30.740999221801758,30.959999084472656,30.959999084472656,2600.0,29.665998458862305
2017-09-15,30.979999542236328,30.96500015258789,30.979999542236328,30.96500015258789,200.0,29.67078971862793
2017-09-18,30.96500015258789,30.96500015258789,30.96500015258789,30.96500015258789,100.0,29.67078971862793
2017-09-19,30.68600082397461,30.631000518798828,30.649999618530273,30.631000518798828,900.0,29.350749969482422
2017-09-20,30.9689998626709,30.9689998626709,30.9689998626709,30.9689998626709,400.0,29.674623489379883
2017-09-21,30.889999389648438,30.889999389648438,30.889999389648438,30.889999389648438,100.0,29.59892463684082
2017-09-22,30.75,30.708999633789062,30.75,30.708999633789062,1300.0,29.425487518310547
2017-09-25,30.469999313354492,30.329999923706055,30.459999084472656,30.360000610351562,9000.0,29.09107780456543
2017-09-26,30.423999786376953,30.399999618530273,30.40399932861328,30.423999786376953,1600.0,29.152402877807617
2017-09-27,30.499000549316406,30.329999923706055,30.459999084472656,30.40999984741211,2300.0,29.138986587524414
2017-09-28,30.32900047302246,30.270999908447266,30.30699920654297,30.309999465942383,4600.0,29.04316520690918
2017-09-29,30.51799964904785,30.440000534057617,30.48900032043457,30.51799964904785,13500.0,29.242473602294922
2017-10-02,30.610000610351562,30.584999084472656,30.610000610351562,30.584999084472656,300.0,29.306673049926758
2017-10-03,31.329999923706055,31.219999313354492,31.239999771118164,31.260000228881836,1300.0,29.953460693359375
2017-10-04,31.39900016784668,31.3700008392334,31.3700008392334,31.39900016784668,500.0,30.086650848388672
2017-10-05,31.489999771118164,31.464000701904297,31.489999771118164,31.48900032043457,600.0,30.17289161682129
2017-10-06,31.43000030517578,31.389999389648438,31.389999389648438,31.43000030517578,900.0,30.116357803344727
2017-10-09,31.100000381469727,30.93000030517578,31.059999465942383,31.030000686645508,2000.0,29.733074188232422
2017-10-10,31.309999465942383,31.239999771118164,31.263999938964844,31.309999465942383,1000.0,30.001371383666992
2017-10-11,31.360000610351562,31.260000228881836,31.360000610351562,31.268999099731445,2700.0,29.96208381652832
2017-10-12,31.3799991607666,31.319000244140625,31.319000244140625,31.3799991607666,3500.0,30.068445205688477
2017-10-13,31.538999557495117,31.496999740600586,31.510000228881836,31.514999389648438,2200.0,30.197803497314453
2017-10-16,31.520000457763672,31.260000228881836,31.520000457763672,31.270000457763672,4600.0,29.963043212890625
2017-10-17,31.209999084472656,30.90999984741211,31.18000030517578,31.09000015258789,4200.0,29.790565490722656
2017-10-18,31.3700008392334,31.204999923706055,31.350000381469727,31.290000915527344,5100.0,29.982208251953125
2017-10-19,31.100000381469727,31.0,31.03499984741211,31.100000381469727,7400.0,29.800148010253906
2017-10-20,31.260000228881836,31.200000762939453,31.260000228881836,31.200000762939453,1400.0,29.89596939086914
2017-10-23,31.229999542236328,31.09000015258789,31.229999542236328,31.09000015258789,1900.0,29.790565490722656
2017-10-24,31.389999389648438,31.299999237060547,31.389999389648438,31.360000610351562,3300.0,30.04928207397461
2017-10-25,31.450000762939453,31.31999969482422,31.31999969482422,31.415000915527344,900.0,30.10198402404785
2017-10-26,31.719999313354492,31.6200008392334,31.719999313354492,31.6299991607666,10100.0,30.307994842529297
2017-10-27,31.780000686645508,31.709999084472656,31.709999084472656,31.780000686645508,1500.0,30.45172691345215
2017-10-30,31.530000686645508,31.440000534057617,31.530000686645508,31.5,2400.0,30.183429718017578
2017-10-31,31.729999542236328,31.670000076293945,31.729999542236328,31.670000076293945,1200.0,30.346324920654297
2017-11-01,31.770000457763672,31.7189998626709,31.770000457763672,31.739999771118164,20400.0,30.41339683532715
2017-11-02,31.639999389648438,31.59000015258789,31.59000015258789,31.639999389648438,1600.0,30.317575454711914
2017-11-03,31.41900062561035,31.391000747680664,31.41900062561035,31.405000686645508,500.0,30.0924015045166
2017-11-06,31.750999450683594,31.750999450683594,31.750999450683594,31.750999450683594,500.0,30.423938751220703
2017-11-07,31.750999450683594,31.750999450683594,31.750999450683594,31.750999450683594,100.0,30.423938751220703
2017-11-08,31.899999618530273,31.867000579833984,31.8799991607666,31.899999618530273,1900.0,30.56671142578125
2017-11-09,31.969999313354492,31.969999313354492,31.969999313354492,31.969999313354492,700.0,30.633785247802734
2017-11-10,32.34000015258789,32.28499984741211,32.28499984741211,32.34000015258789,1500.0,30.988319396972656
2017-11-13,32.349998474121094,32.3489990234375,32.3489990234375,32.349998474121094,1500.0,30.997900009155273
2017-11-14,32.220001220703125,32.15599822998047,32.220001220703125,32.16899871826172,1100.0,30.824466705322266
2017-11-15,32.060001373291016,31.90999984741211,32.060001373291016,31.950000762939453,35800.0,30.614622116088867
2017-11-16,32.327999114990234,32.22999954223633,32.290000915527344,32.327999114990234,900.0,30.976821899414062
2017-11-17,32.20000076293945,32.084999084472656,32.20000076293945,32.084999084472656,2600.0,30.74397850036621
2017-11-20,32.349998474121094,32.29899978637695,32.33000183105469,32.303001403808594,64300.0,30.95286750793457
2017-11-21,33.09000015258789,32.849998474121094,33.06999969482422,33.09000015258789,3300.0,31.70697593688965
2017-11-22,33.18000030517578,32.97999954223633,33.18000030517578,32.97999954223633,2300.0,31.601572036743164
2017-11-24,32.400001525878906,32.08000183105469,32.08000183105469,32.279998779296875,1900.0,30.93082618713379
2017-11-27,31.860000610351562,31.709999084472656,31.860000610351562,31.732999801635742,5500.0,30.40669059753418
2017-11-28,31.989999771118164,31.91699981689453,31.979999542236328,31.989999771118164,4500.0,30.6529483795166
2017-11-29,31.889999389648438,31.639999389648438,31.850000381469727,31.680999755859375,2500.0,30.356863021850586
2017-11-30,31.549999237060547,31.360000610351562,31.360000610351562,31.5,1200.0,30.183429718017578
2017-12-01,31.649999618530273,31.308000564575195,31.649999618530273,31.389999389648438,1400.0,30.078025817871094
2017-12-04,31.760000228881836,31.5,31.760000228881836,31.5,4100.0,30.183429718017578
2017-12-05,31.549999237060547,31.549999237060547,31.549999237060547,31.549999237060547,400.0,30.231338500976562
2017-12-06,31.360000610351562,31.290000915527344,31.360000610351562,31.309999465942383,800.0,30.001371383666992
2017-12-07,31.136999130249023,31.059999465942383,31.100000381469727,31.059999465942383,3500.0,29.76181983947754
2017-12-08,31.459999084472656,31.34000015258789,31.459999084472656,31.40999984741211,2400.0,30.097192764282227
2017-12-11,31.889999389648438,31.860000610351562,31.889999389648438,31.860000610351562,600.0,30.528383255004883
2017-12-12,31.549999237060547,31.31800079345703,31.459999084472656,31.389999389648438,800.0,30.078025817871094
2017-12-13,31.76300048828125,31.600000381469727,31.600000381469727,31.76300048828125,900.0,30.435436248779297
2017-12-14,31.579999923706055,31.579999923706055,31.579999923706055,31.579999923706055,100.0,30.260086059570312
2017-12-15,31.43000030517578,31.31999969482422,31.3700008392334,31.43000030517578,19200.0,30.116357803344727
2017-12-18,31.399999618530273,31.360000610351562,31.389999389648438,31.399999618530273,4000.0,30.087608337402344
2017-12-19,31.530000686645508,31.420000076293945,31.530000686645508,31.43000030517578,4200.0,30.309410095214844
2017-12-20,31.59000015258789,31.573999404907227,31.59000015258789,31.573999404907227,400.0,30.448272705078125
2017-12-21,31.93000030517578,31.93000030517578,31.93000030517578,31.93000030517578,300.0,30.791582107543945
2017-12-22,31.829999923706055,31.829999923706055,31.829999923706055,31.829999923706055,300.0,30.695146560668945
2017-12-26,31.979999542236328,31.9689998626709,31.979999542236328,31.9689998626709,500.0,30.829191207885742
2017-12-27,31.549999237060547,31.399999618530273,31.489999771118164,31.399999618530273,1400.0,30.28047752380371
2017-12-28,31.829999923706055,31.829999923706055,31.829999923706055,31.829999923706055,200.0,30.695146560668945
2017-12-29,32.150001525878906,32.029998779296875,32.150001525878906,32.029998779296875,11700.0,30.888015747070312
2018-01-02,32.70000076293945,32.57500076293945,32.70000076293945,32.57500076293945,4300.0,31.413585662841797
2018-01-03,32.88999938964844,32.808998107910156,32.88999938964844,32.8489990234375,8300.0,31.677814483642578
2018-01-04,33.04899978637695,32.970001220703125,32.970001220703125,33.0,14800.0,31.82343292236328
2018-01-05,33.11399841308594,33.099998474121094,33.111000061035156,33.099998474121094,700.0,31.91986656188965
2018-01-08,33.220001220703125,33.1349983215332,33.1349983215332,33.220001220703125,5300.0,32.03559112548828
2018-01-09,33.27399826049805,33.1150016784668,33.27399826049805,33.1150016784668,2500.0,31.93433380126953
2018-01-10,33.27899932861328,33.16999816894531,33.16999816894531,33.20500183105469,1500.0,32.02112579345703
2018-01-11,33.58000183105469,33.380001068115234,33.58000183105469,33.529998779296875,18400.0,32.334537506103516
2018-01-12,33.79999923706055,33.720001220703125,33.72999954223633,33.79999923706055,2500.0,32.59490966796875
2018-01-16,34.119998931884766,33.948001861572266,34.119998931884766,33.948001861572266,9800.0,32.737632751464844
2018-01-17,34.06999969482422,33.900001525878906,33.959999084472656,34.060001373291016,3900.0,32.845638275146484
2018-01-18,34.150001525878906,34.090999603271484,34.150001525878906,34.090999603271484,1500.0,32.87553405761719
2018-01-19,34.400001525878906,34.38999938964844,34.39899826049805,34.39799880981445,16500.0,33.17158508300781
2018-01-22,34.849998474121094,34.78499984741211,34.810001373291016,34.82500076293945,1200.0,33.58336639404297
2018-01-23,35.138999938964844,34.93000030517578,34.93000030517578,35.119998931884766,4000.0,33.86784744262695
2018-01-24,35.5099983215332,35.35100173950195,35.41999816894531,35.47999954223633,10100.0,34.21501159667969
2018-01-25,35.5,35.349998474121094,35.369998931884766,35.36000061035156,4100.0,34.09929275512695
2018-01-26,35.68000030517578,35.5,35.540000915527344,35.65999984741211,71000.0,34.38859176635742
2018-01-29,34.779998779296875,34.59000015258789,34.779998779296875,34.70000076293945,5400.0,33.46282196044922
2018-01-30,34.65999984741211,34.45000076293945,34.65999984741211,34.47999954223633,1700.0,33.25066375732422
2018-01-31,34.91999816894531,34.75,34.779998779296875,34.75,4300.0,33.51103973388672
2018-02-01,34.41999816894531,34.25,34.36000061035156,34.32500076293945,5700.0,33.101192474365234
2018-02-02,34.52000045776367,34.15999984741211,34.52000045776367,34.15999984741211,2500.0,32.942073822021484
2018-02-05,34.6150016784668,34.310001373291016,34.6150016784668,34.310001373291016,4400.0,33.086727142333984
2018-02-06,34.15999984741211,33.349998474121094,33.349998474121094,34.15999984741211,3600.0,32.942073822021484
2018-02-07,33.099998474121094,32.79999923706055,32.93000030517578,32.79999923706055,8600.0,31.63056182861328
2018-02-08,32.470001220703125,31.649999618530273,32.400001525878906,31.649999618530273,5500.0,30.521564483642578
2018-02-09,30.959999084472656,29.84600067138672,30.940000534057617,30.899999618530273,10200.0,29.798303604125977
2018-02-12,31.743000030517578,31.329999923706055,31.329999923706055,31.704999923706055,1600.0,30.574604034423828
2018-02-13,31.950000762939453,31.709999084472656,31.709999084472656,31.950000762939453,500.0,30.810869216918945
2018-02-14,32.4900016784668,31.84000015258789,31.84000015258789,32.486000061035156,2600.0,31.327756881713867
2018-02-15,33.04999923706055,32.79999923706055,33.04999923706055,33.0,2500.0,31.82343292236328
2018-02-16,33.27899932861328,33.08000183105469,33.08000183105469,33.16999816894531,2600.0,31.987369537353516
2018-02-20,32.66999816894531,32.310001373291016,32.63999938964844,32.599998474121094,2500.0,31.437692642211914
2018-02-21,32.90999984741211,32.619998931884766,32.90999984741211,32.619998931884766,800.0,31.456979751586914
2018-02-22,32.939998626708984,32.930999755859375,32.939998626708984,32.930999755859375,1400.0,31.756893157958984
2018-02-23,33.880001068115234,32.93000030517578,33.880001068115234,33.13999938964844,3200.0,31.95844078063965
2018-02-26,33.779998779296875,33.43000030517578,33.43000030517578,33.779998779296875,6700.0,32.57562255859375
2018-02-27,33.03799819946289,32.58000183105469,32.81999969482422,32.60300064086914,17800.0,31.44058609008789
2018-02-28,32.70000076293945,32.439998626708984,32.65999984741211,32.439998626708984,1100.0,31.283395767211914
2018-03-01,32.599998474121094,32.45000076293945,32.58000183105469,32.45000076293945,800.0,31.293041229248047
2018-03-02,32.650001525878906,32.18000030517578,32.21699905395508,32.650001525878906,1800.0,31.485912322998047
2018-03-05,32.54999923706055,32.54999923706055,32.54999923706055,32.54999923706055,100.0,31.389474868774414
2018-03-06,33.29999923706055,33.15999984741211,33.29999923706055,33.15999984741211,1100.0,31.97772789001465
2018-03-07,32.91999816894531,32.7599983215332,32.7599983215332,32.91999816894531,400.0,31.74628257751465
2018-03-08,33.14899826049805,33.04499816894531,33.12900161743164,33.073001861572266,600.0,31.893831253051758
2018-03-09,33.71900177001953,33.470001220703125,33.470001220703125,33.68000030517578,2500.0,32.479190826416016
2018-03-12,33.619998931884766,33.558998107910156,33.59000015258789,33.560001373291016,1100.0,32.363468170166016
2018-03-13,33.58000183105469,33.31999969482422,33.58000183105469,33.31999969482422,3600.0,32.132022857666016
2018-03-14,33.22999954223633,33.099998474121094,33.18000030517578,33.099998474121094,2300.0,31.91986656188965
2018-03-15,33.400001525878906,33.400001525878906,33.400001525878906,33.400001525878906,900.0,32.20917510986328
2018-03-16,33.042999267578125,33.040000915527344,33.042999267578125,33.040000915527344,1300.0,31.86200714111328
2018-03-19,32.97999954223633,32.849998474121094,32.849998474121094,32.91999816894531,1400.0,31.74628257751465
2018-03-20,33.112998962402344,33.099998474121094,33.099998474121094,33.112998962402344,600.0,31.932403564453125
2018-03-21,32.88999938964844,32.79999923706055,32.88999938964844,32.86000061035156,1300.0,31.688425064086914
2018-03-22,32.310001373291016,32.04999923706055,32.04999923706055,32.0880012512207,1900.0,30.943950653076172
2018-03-23,32.310001373291016,31.415000915527344,32.04999923706055,31.415000915527344,1000.0,30.294944763183594
2018-03-26,31.861000061035156,31.690000534057617,31.729999542236328,31.861000061035156,1800.0,30.72504234313965
2018-03-27,32.18000030517578,32.150001525878906,32.1619987487793,32.18000030517578,400.0,31.03266716003418
2018-03-28,31.68000030517578,31.399999618530273,31.68000030517578,31.420000076293945,1900.0,30.299766540527344
2018-03-29,32.349998474121094,32.150001525878906,32.220001220703125,32.349998474121094,1400.0,31.196603775024414
2018-04-02,31.950000762939453,31.65999984741211,31.950000762939453,31.65999984741211,800.0,30.531208038330078
2018-04-03,32.02899932861328,31.83099937438965,31.83099937438965,32.02899932861328,1000.0,30.88705062866211
2018-04-04,31.84000015258789,31.459999084472656,31.489999771118164,31.84000015258789,2600.0,30.704790115356445
2018-04-05,32.25,32.10100173950195,32.16999816894531,32.10100173950195,1100.0,30.95648765563965
2018-04-06,31.770000457763672,31.40999984741211,31.770000457763672,31.40999984741211,700.0,30.290122985839844
2018-04-09,31.81999969482422,31.514999389648438,31.542999267578125,31.81999969482422,1600.0,30.685503005981445
2018-04-10,32.35200119018555,32.290000915527344,32.35200119018555,32.290000915527344,800.0,31.13874626159668
2018-04-11,32.5099983215332,32.38999938964844,32.41999816894531,32.5099983215332,900.0,31.350900650024414
2018-04-12,32.356998443603516,32.2599983215332,32.2599983215332,32.334999084472656,900.0,31.182140350341797
2018-04-13,32.130001068115234,31.704999923706055,32.130001068115234,31.799999237060547,1400.0,30.666215896606445
2018-04-16,31.56999969482422,31.5,31.56999969482422,31.5,200.0,30.37691307067871
2018-04-17,31.472999572753906,31.25,31.389999389648438,31.472999572753906,2200.0,30.350875854492188
2018-04-18,31.280000686645508,31.06999969482422,31.06999969482422,31.25,700.0,30.135826110839844
2018-04-19,31.43199920654297,31.341999053955078,31.388999938964844,31.341999053955078,1800.0,30.224546432495117
2018-04-20,30.700000762939453,30.700000762939453,30.700000762939453,30.700000762939453,400.0,29.605436325073242
2018-04-23,30.899999618530273,30.899999618530273,30.899999618530273,30.899999618530273,100.0,29.798303604125977
2018-04-24,31.420000076293945,31.290000915527344,31.420000076293945,31.320999145507812,1800.0,30.204294204711914
2018-04-25,31.093000411987305,31.086999893188477,31.093000411987305,31.086999893188477,1000.0,29.9786376953125
2018-04-26,31.010000228881836,30.809999465942383,30.93000030517578,31.0,4000.0,29.894739151000977
2018-04-27,30.735000610351562,30.68000030517578,30.72100067138672,30.735000610351562,1000.0,29.63918685913086
2018-04-30,31.209999084472656,30.979999542236328,31.209999084472656,31.0,1200.0,29.894739151000977
2018-05-01,30.81999969482422,30.680999755859375,30.680999755859375,30.81999969482422,600.0,29.72115707397461
2018-05-02,30.729999542236328,30.729999542236328,30.729999542236328,30.729999542236328,300.0,29.63436508178711
2018-05-03,30.729999542236328,30.729999542236328,30.729999542236328,30.729999542236328,0.0,29.63436508178711
2018-05-04,30.788000106811523,30.770000457763672,30.788000106811523,30.785999298095703,2800.0,29.68836784362793
2018-05-07,31.28499984741211,31.040000915527344,31.040000915527344,31.219999313354492,2000.0,30.106895446777344
2018-05-08,31.530000686645508,31.34000015258789,31.34000015258789,31.5,1600.0,30.37691307067871
2018-05-09,31.57900047302246,31.450000762939453,31.450000762939453,31.549999237060547,1500.0,30.425128936767578
2018-05-10,31.549999237060547,31.549999237060547,31.549999237060547,31.549999237060547,100.0,30.425128936767578
2018-05-11,31.8799991607666,31.799999237060547,31.860000610351562,31.799999237060547,700.0,30.666215896606445
2018-05-14,32.2140007019043,32.09000015258789,32.09000015258789,32.20000076293945,9600.0,31.05195426940918
2018-05-15,31.940000534057617,31.709999084472656,31.860000610351562,31.709999084472656,2600.0,30.579423904418945
2018-05-16,32.0099983215332,31.889999389648438,31.889999389648438,32.0099983215332,500.0,30.868728637695312
2018-05-17,31.709999084472656,31.583999633789062,31.68000030517578,31.600000381469727,3400.0,30.473346710205078
2018-05-18,31.670000076293945,31.65999984741211,31.670000076293945,31.65999984741211,900.0,30.531208038330078
2018-05-21,32.060001373291016,32.0,32.0099983215332,32.01499938964844,6400.0,30.873550415039062
2018-05-22,32.04999923706055,31.920000076293945,32.0,31.93400001525879,7300.0,30.795438766479492
2018-05-23,31.399999618530273,31.260000228881836,31.260000228881836,31.399999618530273,17000.0,30.28047752380371
2018-05-24,31.299999237060547,31.010000228881836,31.299999237060547,31.100000381469727,35600.0,29.991174697875977
2018-05-25,31.190000534057617,30.959999084472656,30.959999084472656,31.190000534057617,7800.0,30.077966690063477
2018-05-29,30.969999313354492,30.600000381469727,30.969999313354492,30.601999282836914,13800.0,29.510929107666016
2018-05-30,30.65999984741211,30.170000076293945,30.170000076293945,30.65999984741211,16900.0,29.56686019897461
2018-05-31,31.15999984741211,30.920000076293945,30.9689998626709,31.110000610351562,45000.0,30.000818252563477
2018-06-01,31.040000915527344,30.889999389648438,30.90999984741211,31.010000228881836,3800.0,29.904382705688477
2018-06-04,31.179000854492188,31.104999542236328,31.1299991607666,31.149999618530273,4100.0,30.039390563964844
2018-06-05,31.420000076293945,31.290000915527344,31.350000381469727,31.420000076293945,16500.0,30.299766540527344
2018-06-06,31.610000610351562,31.229999542236328,31.520000457763672,31.52899932861328,22400.0,30.404878616333008
2018-06-07,31.485000610351562,31.281999588012695,31.485000610351562,31.299999237060547,7300.0,30.184043884277344
2018-06-08,30.959999084472656,30.854999542236328,30.93000030517578,30.950000762939453,4600.0,29.84652328491211
2018-06-11,30.94499969482422,30.83099937438965,30.93899917602539,30.94499969482422,11200.0,29.841699600219727
2018-06-12,31.270000457763672,31.25,31.270000457763672,31.25,400.0,30.135826110839844
2018-06-13,31.100000381469727,30.889999389648438,31.100000381469727,30.93000030517578,3400.0,29.82723617553711
2018-06-14,31.079999923706055,30.90999984741211,31.079999923706055,30.90999984741211,3300.0,29.807947158813477
2018-06-15,30.709999084472656,30.43000030517578,30.709999084472656,30.551000595092773,6400.0,29.461750030517578
2018-06-18,30.179000854492188,30.1299991607666,30.1299991607666,30.1299991607666,3400.0,29.055757522583008
2018-06-19,29.40999984741211,29.09000015258789,29.40999984741211,29.299999237060547,8700.0,28.36360740661621
2018-06-20,29.458999633789062,29.270000457763672,29.389999389648438,29.270000457763672,1800.0,28.33456802368164
2018-06-21,29.020000457763672,28.799999237060547,29.020000457763672,28.844999313354492,35200.0,27.92314910888672
2018-06-22,29.065000534057617,28.975000381469727,29.040000915527344,28.989999771118164,1900.0,28.063514709472656
2018-06-25,28.6200008392334,28.299999237060547,28.6200008392334,28.489999771118164,16200.0,27.57949447631836
2018-06-26,28.270000457763672,28.010000228881836,28.270000457763672,28.110000610351562,11200.0,27.211639404296875
2018-06-27,27.700000762939453,27.18000030517578,27.649999618530273,27.18000030517578,11500.0,26.31136131286621
2018-06-28,27.270000457763672,27.1200008392334,27.173999786376953,27.270000457763672,10300.0,26.39848518371582
2018-06-29,27.790000915527344,27.711000442504883,27.780000686645508,27.739999771118164,4500.0,26.853464126586914
2018-07-02,26.790000915527344,26.360000610351562,26.389999389648438,26.790000915527344,2800.0,25.933826446533203
2018-07-03,26.860000610351562,26.579999923706055,26.860000610351562,26.579999923706055,13500.0,25.73053550720215
2018-07-05,26.6299991607666,26.415000915527344,26.6299991607666,26.44499969482422,11200.0,25.599849700927734
2018-07-06,26.6299991607666,26.34000015258789,26.34000015258789,26.540000915527344,4900.0,25.691816329956055
2018-07-09,27.52899932861328,27.329999923706055,27.329999923706055,27.510000228881836,7100.0,26.630815505981445
2018-07-10,27.420000076293945,27.360000610351562,27.389999389648438,27.360000610351562,11600.0,26.48560905456543
2018-07-11,26.969999313354492,26.579999923706055,26.649999618530273,26.579999923706055,14900.0,25.73053550720215
2018-07-12,27.429000854492188,27.388999938964844,27.388999938964844,27.429000854492188,800.0,26.552404403686523
2018-07-13,27.399999618530273,27.18000030517578,27.18000030517578,27.360000610351562,1600.0,26.48560905456543
2018-07-16,27.299999237060547,27.229999542236328,27.299999237060547,27.229999542236328,3400.0,26.35976219177246
2018-07-17,27.18000030517578,26.93000030517578,26.93000030517578,27.18000030517578,7100.0,26.31136131286621
2018-07-18,26.899999618530273,26.700000762939453,26.84000015258789,26.809999465942383,63100.0,25.95318603515625
2018-07-19,26.5,26.38800048828125,26.5,26.46500015258789,2200.0,25.619211196899414
2018-07-20,27.20800018310547,26.809999465942383,26.8700008392334,27.20800018310547,9000.0,26.33846664428711
2018-07-23,27.222000122070312,27.1200008392334,27.1200008392334,27.219999313354492,3500.0,26.350082397460938
2018-07-24,27.98900032043457,27.68000030517578,27.920000076293945,27.84000015258789,4700.0,26.950267791748047
2018-07-25,27.954999923706055,27.83300018310547,27.83300018310547,27.940000534057617,1000.0,27.047073364257812
2018-07-26,27.589000701904297,27.299999237060547,27.549999237060547,27.43000030517578,6200.0,26.55337142944336
2018-07-27,27.3700008392334,27.243999481201172,27.360000610351562,27.290000915527344,1900.0,26.4178466796875
2018-07-30,27.290000915527344,27.190000534057617,27.290000915527344,27.200000762939453,4200.0,26.33072280883789
2018-07-31,27.77899932861328,27.3700008392334,27.540000915527344,27.649999618530273,11000.0,26.766340255737305
2018-08-01,26.860000610351562,26.559999465942383,26.719999313354492,26.610000610351562,8400.0,25.759578704833984
2018-08-02,26.09000015258789,25.93000030517578,26.0,26.09000015258789,9400.0,25.256196975708008
2018-08-03,25.93000030517578,25.84000015258789,25.8700008392334,25.899999618530273,11500.0,25.072267532348633
2018-08-06,25.520000457763672,25.219999313354492,25.420000076293945,25.389999389648438,19300.0,24.57856559753418
2018-08-07,26.239999771118164,26.197999954223633,26.239999771118164,26.239999771118164,22100.0,25.40140151977539
2018-08-08,25.8700008392334,25.649999618530273,25.860000610351562,25.780000686645508,15600.0,24.956104278564453
2018-08-09,26.440000534057617,26.200000762939453,26.440000534057617,26.368999481201172,5400.0,25.52627944946289
2018-08-10,26.280000686645508,26.025999069213867,26.280000686645508,26.025999069213867,6800.0,25.19424057006836
2018-08-13,26.097999572753906,25.950000762939453,26.097999572753906,25.975000381469727,1100.0,25.14487075805664
2018-08-14,25.93899917602539,25.885000228881836,25.9060001373291,25.93899917602539,1800.0,25.110021591186523
2018-08-15,24.989999771118164,24.6200008392334,24.979999542236328,24.926000595092773,8700.0,24.129396438598633
2018-08-16,25.360000610351562,25.149999618530273,25.149999618530273,25.350000381469727,2100.0,24.539846420288086
2018-08-17,25.48900032043457,24.8700008392334,24.920000076293945,25.430999755859375,4500.0,24.618255615234375
2018-08-20,25.389999389648438,25.28499984741211,25.3700008392334,25.388999938964844,7300.0,24.577598571777344
2018-08-21,25.8799991607666,25.719999313354492,25.799999237060547,25.8799991607666,5000.0,25.052906036376953
2018-08-22,25.700000762939453,25.638999938964844,25.700000762939453,25.68000030517578,5300.0,24.859298706054688
2018-08-23,25.559999465942383,25.3700008392334,25.530000686645508,25.385000228881836,7600.0,24.573726654052734
2018-08-24,25.95599937438965,25.770000457763672,25.799999237060547,25.885000228881836,11000.0,25.05774688720703
2018-08-27,26.610000610351562,26.367000579833984,26.3799991607666,26.548999786376953,8200.0,25.70052719116211
2018-08-28,26.510000228881836,26.395000457763672,26.510000228881836,26.409000396728516,5200.0,25.56500244140625
2018-08-29,26.309999465942383,26.190000534057617,26.190000534057617,26.270000457763672,4900.0,25.430444717407227
2018-08-30,25.950000762939453,25.540000915527344,25.850000381469727,25.56999969482422,6500.0,24.7528133392334
2018-08-31,25.790000915527344,25.61400032043457,25.61400032043457,25.739999771118164,13100.0,24.917381286621094
2018-09-04,25.950000762939453,25.680999755859375,25.950000762939453,25.809999465942383,8000.0,24.985143661499023
2018-09-05,25.510000228881836,25.3799991607666,25.510000228881836,25.450000762939453,5400.0,24.63665008544922
2018-09-06,25.3799991607666,25.280000686645508,25.309999465942383,25.3799991607666,2100.0,24.568885803222656
2018-09-07,25.332000732421875,25.099000930786133,25.332000732421875,25.14900016784668,2900.0,24.34527015686035
2018-09-10,25.209999084472656,24.90999984741211,25.1299991607666,25.0,4000.0,24.201030731201172
2018-09-11,24.729999542236328,24.43000030517578,24.540000915527344,24.729999542236328,4100.0,23.939659118652344
2018-09-12,25.291000366210938,24.659000396728516,24.659000396728516,25.26099967956543,4400.0,24.453689575195312
2018-09-13,25.44700050354004,25.30500030517578,25.40999984741211,25.43000030517578,10700.0,24.61728858947754
2018-09-14,25.100000381469727,24.802000045776367,25.07900047302246,24.85300064086914,5200.0,24.05872917175293
2018-09-17,24.90999984741211,24.843000411987305,24.889999389648438,24.90999984741211,6500.0,24.113906860351562
2018-09-18,25.440000534057617,25.25,25.34000015258789,25.43199920654297,16300.0,24.619224548339844
2018-09-19,25.860000610351562,25.75,25.780000686645508,25.825000762939453,25100.0,24.999666213989258
2018-09-20,25.979999542236328,25.850000381469727,25.9060001373291,25.94499969482422,10500.0,25.115829467773438
2018-09-21,26.530000686645508,26.454999923706055,26.510000228881836,26.479999542236328,15500.0,25.633731842041016
2018-09-24,26.200000762939453,26.148000717163086,26.183000564575195,26.19499969482422,10800.0,25.357839584350586
2018-09-25,26.219999313354492,26.100000381469727,26.219999313354492,26.15999984741211,8800.0,25.323959350585938
2018-09-26,26.649999618530273,26.440000534057617,26.450000762939453,26.600000381469727,5600.0,25.749897003173828
2018-09-27,26.399999618530273,26.350000381469727,26.399999618530273,26.350000381469727,4400.0,25.50788688659668
2018-09-28,26.641000747680664,26.5,26.6299991607666,26.520999908447266,9600.0,25.67342185974121
2018-10-01,26.75,26.542999267578125,26.719999313354492,26.542999267578125,7200.0,25.694717407226562
2018-10-02,26.209999084472656,26.110000610351562,26.209999084472656,26.111000061035156,5900.0,25.276525497436523
2018-10-03,26.280000686645508,26.06999969482422,26.280000686645508,26.06999969482422,4600.0,25.236835479736328
2018-10-04,25.55900001525879,25.3700008392334,25.55900001525879,25.450000762939453,11600.0,24.63665008544922
2018-10-05,25.6200008392334,25.360000610351562,25.6200008392334,25.559999465942383,4200.0,24.743133544921875
2018-10-08,25.239999771118164,25.0,25.110000610351562,25.239999771118164,11100.0,24.433361053466797
2018-10-09,25.270999908447266,25.211000442504883,25.270999908447266,25.219999313354492,3900.0,24.413999557495117
2018-10-10,25.190000534057617,24.649999618530273,25.190000534057617,24.649999618530273,803300.0,23.86221694946289
2018-10-11,24.3799991607666,24.0,24.219999313354492,24.280000686645508,21600.0,23.50404167175293
2018-10-12,24.6200008392334,24.299999237060547,24.299999237060547,24.31999969482422,10700.0,23.542762756347656
2018-10-15,24.290000915527344,23.989999771118164,23.989999771118164,24.15999984741211,6500.0,23.387876510620117
2018-10-16,24.290000915527344,24.0,24.0,24.290000915527344,8600.0,23.513723373413086
2018-10-17,24.110000610351562,23.8799991607666,23.989999771118164,23.899999618530273,14000.0,23.136184692382812
2018-10-18,23.5,23.22599983215332,23.459999084472656,23.31599998474121,29100.0,22.570850372314453
2018-10-19,24.149999618530273,23.940000534057617,24.1200008392334,23.992000579833984,24700.0,23.22524642944336
2018-10-22,25.25,24.98200035095215,25.209999084472656,25.06800079345703,33500.0,24.26685905456543
2018-10-23,24.559999465942383,24.219999313354492,24.40999984741211,24.549999237060547,36500.0,23.765411376953125
2018-10-24,24.559999465942383,24.190000534057617,24.559999465942383,24.209999084472656,24200.0,23.436277389526367
2018-10-25,24.799999237060547,24.44700050354004,24.549999237060547,24.697999954223633,6100.0,23.908681869506836
2018-10-26,24.450000762939453,24.13599967956543,24.270000457763672,24.290000915527344,15600.0,23.513723373413086
2018-10-29,23.829999923706055,23.25,23.799999237060547,23.350000381469727,20500.0,22.603763580322266
2018-10-30,23.81999969482422,23.6200008392334,23.690000534057617,23.81999969482422,6200.0,23.05874252319336
2018-10-31,24.349000930786133,24.21500015258789,24.25,24.31999969482422,12600.0,23.542762756347656
2018-11-01,25.229000091552734,24.440000534057617,24.5,25.229000091552734,15800.0,24.422712326049805
2018-11-02,25.65999984741211,25.03700065612793,25.65999984741211,25.2450008392334,7200.0,24.438201904296875
2018-11-05,25.170000076293945,25.030000686645508,25.1299991607666,25.100000381469727,10100.0,24.297836303710938
2018-11-06,24.989999771118164,24.899999618530273,24.940000534057617,24.899999618530273,4700.0,24.10422706604004
2018-11-07,25.15999984741211,24.979999542236328,25.059999465942383,25.15999984741211,6400.0,24.35591697692871
2018-11-08,24.780000686645508,24.510000228881836,24.739999771118164,24.600000381469727,35300.0,23.813814163208008
2018-11-09,24.270000457763672,24.079999923706055,24.270000457763672,24.19700050354004,22300.0,23.423694610595703
2018-11-12,24.285999298095703,24.1200008392334,24.280000686645508,24.149999618530273,4100.0,23.37819480895996
2018-11-13,24.950000762939453,24.520000457763672,24.75,24.760000228881836,16400.0,23.968700408935547
2018-11-14,24.6299991607666,24.3700008392334,24.57200050354004,24.51799964904785,7600.0,23.734434127807617
2018-11-15,25.08799934387207,24.677000045776367,24.790000915527344,24.966999053955078,23000.0,24.169084548950195
2018-11-16,25.235000610351562,24.959999084472656,25.0,25.235000610351562,12900.0,24.42852210998535
2018-11-19,25.270000457763672,25.0,25.270000457763672,25.020000457763672,11900.0,24.22039222717285
2018-11-20,24.549999237060547,24.3799991607666,24.549999237060547,24.41900062561035,10500.0,23.638599395751953
2018-11-21,24.954999923706055,24.780000686645508,24.81999969482422,24.860000610351562,6400.0,24.065505981445312
2018-11-23,24.170000076293945,24.14900016784668,24.170000076293945,24.14900016784668,1600.0,23.377227783203125
2018-11-26,24.219999313354492,24.100000381469727,24.219999313354492,24.207000732421875,13300.0,23.433374404907227
2018-11-27,24.059999465942383,23.920000076293945,23.989999771118164,24.059999465942383,8900.0,23.29107093811035
2018-11-28,24.65999984741211,24.139999389648438,24.139999389648438,24.65999984741211,9000.0,23.871896743774414
2018-11-29,24.25,24.030000686645508,24.030000686645508,24.224000930786133,6200.0,23.449831008911133
2018-11-30,24.472000122070312,24.200000762939453,24.200000762939453,24.40999984741211,76800.0,23.629886627197266
2018-12-03,25.309999465942383,25.1299991607666,25.309999465942383,25.2450008392334,18800.0,24.438201904296875
2018-12-04,25.420000076293945,25.059999465942383,25.399999618530273,25.059999465942383,8200.0,24.259113311767578
2018-12-06,24.639999389648438,24.48699951171875,24.6200008392334,24.639999389648438,3900.0,23.852535247802734
2018-12-07,24.780000686645508,24.42799949645996,24.690000534057617,24.43899917602539,3000.0,23.657958984375
2018-12-10,24.420000076293945,24.16200065612793,24.327999114990234,24.34000015258789,6300.0,23.562124252319336
2018-12-11,24.649999618530273,24.489999771118164,24.649999618530273,24.513999938964844,2700.0,23.730562210083008
2018-12-12,24.84000015258789,24.711000442504883,24.790000915527344,24.711000442504883,2400.0,23.921268463134766
2018-12-13,25.079999923706055,24.950000762939453,25.079999923706055,24.969999313354492,4100.0,24.17198944091797
2018-12-14,24.639999389648438,24.5,24.639999389648438,24.5,10300.0,23.717010498046875
2018-12-17,24.459999084472656,24.25,24.459999084472656,24.25,1200.0,23.475000381469727
2018-12-18,23.68000030517578,23.459999084472656,23.68000030517578,23.476999282836914,25900.0,23.476999282836914
2018-12-19,23.3700008392334,22.929000854492188,23.3700008392334,23.010000228881836,23400.0,23.010000228881836
2018-12-20,23.06999969482422,22.889999389648438,22.950000762939453,22.96500015258789,6000.0,22.96500015258789
2018-12-21,22.858999252319336,22.520999908447266,22.829999923706055,22.520999908447266,14100.0,22.520999908447266
2018-12-24,22.719999313354492,22.579999923706055,22.579999923706055,22.62700080871582,2200.0,22.62700080871582
2018-12-26,22.8799991607666,22.577999114990234,22.579999923706055,22.8700008392334,12800.0,22.8700008392334
2018-12-27,22.62700080871582,22.42099952697754,22.459999084472656,22.62700080871582,18600.0,22.62700080871582
2018-12-28,22.839000701904297,22.735000610351562,22.809999465942383,22.76099967956543,9200.0,22.76099967956543
2018-12-31,22.920000076293945,22.6200008392334,22.920000076293945,22.68400001525879,30500.0,22.68400001525879
2019-01-02,22.55299949645996,22.472000122070312,22.489999771118164,22.538999557495117,3700.0,22.538999557495117
2019-01-03,22.450000762939453,22.309999465942383,22.450000762939453,22.3799991607666,4900.0,22.3799991607666
2019-01-04,23.274999618530273,22.959999084472656,23.110000610351562,23.260000228881836,7600.0,23.260000228881836
2019-01-07,23.25,23.170000076293945,23.170000076293945,23.224000930786133,1600.0,23.224000930786133
2019-01-08,23.239999771118164,22.899999618530273,22.899999618530273,23.190000534057617,5900.0,23.190000534057617
2019-01-09,23.600000381469727,23.5,23.5,23.59000015258789,16000.0,23.59000015258789
2019-01-10,23.582000732421875,23.479999542236328,23.479999542236328,23.56800079345703,4000.0,23.56800079345703
2019-01-11,23.989999771118164,23.649999618530273,23.649999618530273,23.989999771118164,38100.0,23.989999771118164
2019-01-14,23.670000076293945,23.520000457763672,23.670000076293945,23.520000457763672,2800.0,23.520000457763672
2019-01-15,24.170000076293945,23.850000381469727,23.850000381469727,24.06999969482422,1500.0,24.06999969482422
2019-01-16,24.268999099731445,24.149999618530273,24.149999618530273,24.197999954223633,800.0,24.197999954223633
2019-01-17,24.22599983215332,23.829999923706055,23.829999923706055,24.20199966430664,8300.0,24.20199966430664
2019-01-18,24.459999084472656,24.385000228881836,24.409000396728516,24.43000030517578,5000.0,24.43000030517578
2019-01-22,24.059999465942383,23.950000762939453,23.950000762939453,23.950000762939453,4900.0,23.950000762939453
2019-01-23,24.149999618530273,24.079999923706055,24.09000015258789,24.149999618530273,900.0,24.149999618530273
2019-01-24,24.290000915527344,24.149999618530273,24.149999618530273,24.290000915527344,3800.0,24.290000915527344
2019-01-25,24.73200035095215,24.551000595092773,24.670000076293945,24.729999542236328,7900.0,24.729999542236328
2019-01-28,24.56999969482422,24.509000778198242,24.559999465942383,24.56800079345703,3900.0,24.56800079345703
2019-01-29,24.698999404907227,24.530000686645508,24.649999618530273,24.549999237060547,34700.0,24.549999237060547
2019-01-30,24.780000686645508,24.489999771118164,24.489999771118164,24.75,6500.0,24.75
2019-01-31,25.0,24.81999969482422,24.81999969482422,24.969999313354492,11000.0,24.969999313354492
2019-02-01,25.040000915527344,24.974000930786133,25.0,25.030000686645508,4900.0,25.030000686645508
2019-02-04,25.007999420166016,24.915000915527344,25.0,24.972999572753906,8100.0,24.972999572753906
2019-02-05,25.25,25.040000915527344,25.15999984741211,25.209999084472656,8300.0,25.209999084472656
2019-02-06,25.209999084472656,25.010000228881836,25.040000915527344,25.020000457763672,6700.0,25.020000457763672
2019-02-07,25.010000228881836,24.780000686645508,25.010000228881836,24.81999969482422,5400.0,24.81999969482422
2019-02-08,24.799999237060547,24.75200080871582,24.799999237060547,24.756000518798828,3200.0,24.756000518798828
2019-02-11,25.420000076293945,25.170000076293945,25.399999618530273,25.420000076293945,7400.0,25.420000076293945
2019-02-12,25.549999237060547,25.479999542236328,25.530000686645508,25.549999237060547,7400.0,25.549999237060547
2019-02-13,26.059999465942383,25.799999237060547,25.799999237060547,26.010000228881836,15100.0,26.010000228881836
2019-02-14,26.049999237060547,25.90999984741211,25.959999084472656,26.049999237060547,18000.0,26.049999237060547
2019-02-15,25.809999465942383,25.5,25.614999771118164,25.809999465942383,9800.0,25.809999465942383
2019-02-19,26.489999771118164,25.969999313354492,26.059999465942383,26.489999771118164,200800.0,26.489999771118164
2019-02-20,26.700000762939453,26.530000686645508,26.56999969482422,26.610000610351562,11700.0,26.610000610351562
2019-02-21,26.56999969482422,26.389999389648438,26.56999969482422,26.420000076293945,16300.0,26.420000076293945
2019-02-22,27.149999618530273,26.989999771118164,27.030000686645508,27.1299991607666,16900.0,27.1299991607666
2019-02-25,29.1299991607666,28.729999542236328,29.079999923706055,29.0,120100.0,29.0
2019-02-26,28.6200008392334,28.389999389648438,28.5,28.56999969482422,56000.0,28.56999969482422
2019-02-27,28.509000778198242,28.290000915527344,28.450000762939453,28.399999618530273,100600.0,28.399999618530273
2019-02-28,28.34000015258789,28.010000228881836,28.010000228881836,28.256000518798828,10300.0,28.256000518798828
2019-03-01,28.989999771118164,28.84000015258789,28.84000015258789,28.989999771118164,71400.0,28.989999771118164
2019-03-04,29.450000762939453,29.110000610351562,29.40999984741211,29.299999237060547,60600.0,29.299999237060547
2019-03-05,29.389999389648438,29.219999313354492,29.34000015258789,29.309999465942383,17600.0,29.309999465942383
2019-03-06,29.610000610351562,29.399999618530273,29.399999618530273,29.450000762939453,581400.0,29.450000762939453
2019-03-07,29.18000030517578,28.709999084472656,29.18000030517578,28.7450008392334,23700.0,28.7450008392334
2019-03-08,27.940000534057617,27.538999557495117,27.940000534057617,27.709999084472656,40100.0,27.709999084472656
2019-03-11,28.729999542236328,28.530000686645508,28.530000686645508,28.729999542236328,20000.0,28.729999542236328
2019-03-12,28.881000518798828,28.790000915527344,28.860000610351562,28.864999771118164,26800.0,28.864999771118164
2019-03-13,28.649999618530273,28.520000457763672,28.6299991607666,28.579999923706055,19300.0,28.579999923706055
2019-03-14,28.34000015258789,28.190000534057617,28.309999465942383,28.28499984741211,12500.0,28.28499984741211
2019-03-15,28.729999542236328,28.649999618530273,28.709999084472656,28.719999313354492,15600.0,28.719999313354492
2019-03-18,29.559999465942383,29.299999237060547,29.530000686645508,29.479999542236328,39800.0,29.479999542236328
2019-03-19,29.3799991607666,29.239999771118164,29.3799991607666,29.270000457763672,13100.0,29.270000457763672
2019-03-20,29.549999237060547,29.139999389648438,29.309999465942383,29.437000274658203,21900.0,29.437000274658203
2019-03-21,29.47599983215332,29.260000228881836,29.440000534057617,29.290000915527344,429300.0,29.290000915527344
2019-03-22,29.18000030517578,28.87299919128418,29.049999237060547,28.882999420166016,16400.0,28.882999420166016
2019-03-25,28.700000762939453,28.43000030517578,28.670000076293945,28.625,19500.0,28.625
2019-03-26,28.459999084472656,28.299999237060547,28.299999237060547,28.368000030517578,8400.0,28.368000030517578
2019-03-27,28.458999633789062,28.325000762939453,28.350000381469727,28.375999450683594,6400.0,28.375999450683594
2019-03-28,28.489999771118164,28.350000381469727,28.420000076293945,28.458999633789062,5200.0,28.458999633789062
2019-03-29,29.545000076293945,29.450000762939453,29.450000762939453,29.5,8900.0,29.5
2019-04-01,30.454999923706055,30.229999542236328,30.229999542236328,30.3700008392334,59600.0,30.3700008392334
2019-04-02,30.299999237060547,30.170000076293945,30.299999237060547,30.197999954223633,49800.0,30.197999954223633
2019-04-03,30.70599937438965,30.5,30.5,30.584999084472656,24700.0,30.584999084472656
2019-04-04,31.059999465942383,30.933000564575195,30.959999084472656,31.0,29000.0,31.0
2019-04-05,31.329999923706055,31.209999084472656,31.299999237060547,31.315000534057617,46000.0,31.315000534057617
2019-04-08,31.09000015258789,30.850000381469727,31.010000228881836,31.069000244140625,39700.0,31.069000244140625
2019-04-09,31.024999618530273,30.959999084472656,30.959999084472656,30.959999084472656,28900.0,30.959999084472656
2019-04-10,31.149999618530273,31.049999237060547,31.049999237060547,31.104999542236328,18700.0,31.104999542236328
2019-04-11,30.6299991607666,30.43600082397461,30.549999237060547,30.450000762939453,19600.0,30.450000762939453
2019-04-12,31.1200008392334,30.96500015258789,30.992000579833984,30.982999801635742,74200.0,30.982999801635742
2019-04-15,30.559999465942383,30.219999313354492,30.540000915527344,30.25,21500.0,30.25
2019-04-16,31.25,30.989999771118164,31.110000610351562,31.09000015258789,41900.0,31.09000015258789
2019-04-17,31.450000762939453,31.229999542236328,31.450000762939453,31.32900047302246,16700.0,31.32900047302246
2019-04-18,31.299999237060547,31.149999618530273,31.299999237060547,31.25,32200.0,31.25
2019-04-22,30.739999771118164,30.5,30.700000762939453,30.700000762939453,35500.0,30.700000762939453
2019-04-23,30.700000762939453,30.399999618530273,30.6200008392334,30.545000076293945,353500.0,30.545000076293945
2019-04-24,30.6200008392334,30.354999542236328,30.6200008392334,30.361000061035156,28900.0,30.361000061035156
2019-04-25,29.90999984741211,29.329999923706055,29.600000381469727,29.520000457763672,42500.0,29.520000457763672
2019-04-26,29.641000747680664,29.389999389648438,29.389999389648438,29.641000747680664,12200.0,29.641000747680664
2019-04-29,29.68000030517578,29.55500030517578,29.68000030517578,29.55500030517578,10800.0,29.55500030517578
2019-04-30,29.70800018310547,29.549999237060547,29.639999389648438,29.690000534057617,7700.0,29.690000534057617
2019-05-01,29.780000686645508,29.562999725341797,29.780000686645508,29.562999725341797,48500.0,29.562999725341797
2019-05-02,29.600000381469727,29.399999618530273,29.600000381469727,29.448999404907227,9400.0,29.448999404907227
2019-05-03,29.860000610351562,29.770000457763672,29.780000686645508,29.850000381469727,21700.0,29.850000381469727
2019-05-06,28.479999542236328,27.799999237060547,28.0,28.40999984741211,87100.0,28.40999984741211
2019-05-07,27.899999618530273,27.25,27.899999618530273,27.280000686645508,53100.0,27.280000686645508
2019-05-08,27.5,27.290000915527344,27.290000915527344,27.415000915527344,31400.0,27.415000915527344
2019-05-09,27.280000686645508,26.559999465942383,26.84000015258789,27.059999465942383,38200.0,27.059999465942383
2019-05-10,27.829999923706055,27.15999984741211,27.450000762939453,27.739999771118164,35400.0,27.739999771118164
2019-05-13,26.709999084472656,26.059999465942383,26.709999084472656,26.3799991607666,360100.0,26.3799991607666
2019-05-14,27.389999389648438,27.09000015258789,27.239999771118164,27.125,34800.0,27.125
2019-05-15,27.66200065612793,27.389999389648438,27.389999389648438,27.472000122070312,4100.0,27.472000122070312
2019-05-16,28.0,27.68899917602539,28.0,27.780000686645508,16400.0,27.780000686645508
2019-05-17,27.1299991607666,26.829999923706055,26.940000534057617,26.889999389648438,54900.0,26.889999389648438
2019-05-20,26.690000534057617,26.3799991607666,26.6299991607666,26.549999237060547,28600.0,26.549999237060547
2019-05-21,27.072999954223633,26.90999984741211,27.0,26.989999771118164,40800.0,26.989999771118164
2019-05-22,26.954999923706055,26.780000686645508,26.850000381469727,26.8700008392334,7000.0,26.8700008392334
2019-05-23,26.6299991607666,26.420000076293945,26.514999389648438,26.6299991607666,42600.0,26.6299991607666
2019-05-24,26.709999084472656,26.469999313354492,26.530000686645508,26.5049991607666,291200.0,26.5049991607666
