Date,High,Low,Open,Close,Volume,Adj Close
2018-06-14,24.950000762939453,24.8799991607666,24.950000762939453,24.920000076293945,96400,24.920000076293945
2018-06-15,25.059999465942383,24.8799991607666,24.920000076293945,25.049999237060547,227000,25.049999237060547
2018-06-18,25.049999237060547,24.989999771118164,25.049999237060547,24.989999771118164,67100,24.989999771118164
2018-06-19,25.020000457763672,24.889999389648438,24.889999389648438,25.020000457763672,141800,25.020000457763672
2018-06-20,25.0,24.93000030517578,25.0,24.979999542236328,90600,24.979999542236328
2018-06-21,25.0,24.8700008392334,24.989999771118164,24.8700008392334,96000,24.8700008392334
2018-06-22,25.069000244140625,24.920000076293945,24.950000762939453,24.940000534057617,33600,24.940000534057617
2018-06-25,25.049999237060547,24.969999313354492,24.989999771118164,24.989999771118164,63100,24.989999771118164
2018-06-26,25.0,24.969999313354492,25.0,25.0,22500,25.0
2018-06-27,25.049999237060547,24.993000030517578,25.0,25.010000228881836,35100,25.010000228881836
2018-06-28,25.020000457763672,25.00200080871582,25.020000457763672,25.01799964904785,13800,25.01799964904785
2018-06-29,25.06999969482422,25.0,25.0,25.06999969482422,14100,25.06999969482422
2018-07-02,25.219999313354492,25.040000915527344,25.06999969482422,25.149999618530273,25800,25.149999618530273
2018-07-03,25.200000762939453,25.079999923706055,25.149999618530273,25.200000762939453,14400,25.200000762939453
2018-07-05,25.200000762939453,25.110000610351562,25.200000762939453,25.200000762939453,24500,25.200000762939453
2018-07-06,25.239999771118164,25.139999389648438,25.190000534057617,25.239999771118164,33200,25.239999771118164
2018-07-09,25.25,25.149999618530273,25.25,25.149999618530273,16600,25.149999618530273
2018-07-10,25.190000534057617,25.110000610351562,25.149999618530273,25.15999984741211,9000,25.15999984741211
2018-07-11,25.149999618530273,25.110000610351562,25.139999389648438,25.1299991607666,11900,25.1299991607666
2018-07-12,25.141000747680664,25.06999969482422,25.139999389648438,25.086000442504883,30700,25.086000442504883
2018-07-13,25.13599967956543,25.030000686645508,25.090999603271484,25.049999237060547,72300,25.049999237060547
2018-07-16,25.125,25.049999237060547,25.100000381469727,25.049999237060547,29900,25.049999237060547
2018-07-17,25.200000762939453,24.979999542236328,25.09000015258789,25.149999618530273,43800,25.149999618530273
2018-07-18,25.18000030517578,25.06999969482422,25.06999969482422,25.18000030517578,9100,25.18000030517578
2018-07-19,25.18000030517578,25.100000381469727,25.1299991607666,25.18000030517578,15900,25.18000030517578
2018-07-20,25.18000030517578,25.131999969482422,25.139999389648438,25.18000030517578,16600,25.18000030517578
2018-07-23,25.18000030517578,25.110000610351562,25.18000030517578,25.18000030517578,17600,25.18000030517578
2018-07-24,25.18000030517578,25.100000381469727,25.18000030517578,25.15999984741211,18900,25.15999984741211
2018-07-25,25.155000686645508,25.059999465942383,25.135000228881836,25.139999389648438,14900,25.139999389648438
2018-07-26,25.170000076293945,25.1299991607666,25.149999618530273,25.150999069213867,34100,25.150999069213867
2018-07-27,25.239999771118164,25.1299991607666,25.149999618530273,25.239999771118164,8900,25.239999771118164
2018-07-30,25.25,25.139999389648438,25.25,25.190000534057617,8200,25.190000534057617
2018-07-31,25.25,25.1299991607666,25.25,25.18000030517578,12500,25.18000030517578
2018-08-01,25.139999389648438,25.117000579833984,25.139999389648438,25.139999389648438,13100,25.139999389648438
2018-08-02,25.25,25.18000030517578,25.200000762939453,25.200000762939453,8700,25.200000762939453
2018-08-03,25.25,25.1200008392334,25.25,25.1200008392334,20100,25.1200008392334
2018-08-06,25.25,25.117000579833984,25.25,25.174999237060547,19700,25.174999237060547
2018-08-07,25.229999542236328,25.121000289916992,25.149999618530273,25.139999389648438,23000,25.139999389648438
2018-08-08,25.25,25.149999618530273,25.209999084472656,25.149999618530273,18400,25.149999618530273
2018-08-09,25.239999771118164,25.139999389648438,25.229999542236328,25.139999389648438,12300,25.139999389648438
2018-08-10,25.200000762939453,25.139999389648438,25.149999618530273,25.139999389648438,6400,25.139999389648438
2018-08-13,25.20400047302246,25.139999389648438,25.174999237060547,25.139999389648438,11000,25.139999389648438
2018-08-14,25.190000534057617,25.1299991607666,25.15999984741211,25.170000076293945,6300,25.170000076293945
2018-08-15,25.15999984741211,25.1200008392334,25.139999389648438,25.149999618530273,7500,25.149999618530273
2018-08-16,25.235000610351562,25.139999389648438,25.149999618530273,25.170000076293945,22600,25.170000076293945
2018-08-17,25.219999313354492,25.139999389648438,25.139999389648438,25.149999618530273,26900,25.149999618530273
2018-08-20,25.219999313354492,25.149999618530273,25.15999984741211,25.200000762939453,19300,25.200000762939453
2018-08-21,25.25,25.18000030517578,25.229999542236328,25.25,19500,25.25
2018-08-22,25.299999237060547,25.219999313354492,25.219999313354492,25.298999786376953,14600,25.298999786376953
2018-08-23,25.3700008392334,25.290000915527344,25.299999237060547,25.3700008392334,16900,25.3700008392334
2018-08-24,25.440000534057617,25.299999237060547,25.3700008392334,25.440000534057617,8700,25.440000534057617
2018-08-27,25.459999084472656,25.3700008392334,25.395000457763672,25.459999084472656,26700,25.459999084472656
2018-08-28,25.479999542236328,25.3700008392334,25.437999725341797,25.46500015258789,37400,25.46500015258789
2018-08-29,25.489999771118164,25.40999984741211,25.450000762939453,25.469999313354492,34000,25.469999313354492
2018-08-30,25.100000381469727,25.024999618530273,25.09000015258789,25.079999923706055,31100,25.079999923706055
2018-08-31,25.149999618530273,25.079999923706055,25.08300018310547,25.139999389648438,22000,25.139999389648438
2018-09-04,25.139999389648438,25.030000686645508,25.139999389648438,25.049999237060547,23700,25.049999237060547
2018-09-05,25.100000381469727,24.959999084472656,25.049999237060547,25.030000686645508,19800,25.030000686645508
2018-09-06,25.011999130249023,24.969999313354492,24.981000900268555,25.0,19800,25.0
2018-09-07,25.040000915527344,24.950000762939453,24.989999771118164,25.040000915527344,18500,25.040000915527344
2018-09-10,25.079999923706055,24.950000762939453,25.034000396728516,25.079999923706055,11900,25.079999923706055
2018-09-11,25.079999923706055,24.959999084472656,25.049999237060547,25.06999969482422,18700,25.06999969482422
2018-09-12,25.13800048828125,24.959999084472656,25.030000686645508,25.100000381469727,37100,25.100000381469727
2018-09-13,25.139999389648438,25.049999237060547,25.139999389648438,25.100000381469727,17800,25.100000381469727
2018-09-14,25.229999542236328,25.100000381469727,25.1299991607666,25.219999313354492,13600,25.219999313354492
2018-09-17,25.219999313354492,25.149999618530273,25.219999313354492,25.163000106811523,44500,25.163000106811523
2018-09-18,25.219999313354492,25.1200008392334,25.219999313354492,25.200000762939453,16200,25.200000762939453
2018-09-19,25.200000762939453,25.149999618530273,25.200000762939453,25.149999618530273,16700,25.149999618530273
2018-09-20,25.18000030517578,25.149999618530273,25.149999618530273,25.149999618530273,24500,25.149999618530273
2018-09-21,25.190000534057617,25.149999618530273,25.18899917602539,25.149999618530273,5100,25.149999618530273
2018-09-24,25.190000534057617,25.150999069213867,25.190000534057617,25.170000076293945,5000,25.170000076293945
2018-09-25,25.260000228881836,25.204999923706055,25.204999923706055,25.25,34100,25.25
2018-09-26,25.260000228881836,25.25,25.260000228881836,25.25,10400,25.25
2018-09-27,25.299999237060547,25.200000762939453,25.273000717163086,25.200000762939453,20100,25.200000762939453
2018-09-28,25.239999771118164,25.184999465942383,25.216999053955078,25.239999771118164,10900,25.239999771118164
2018-10-01,25.299999237060547,25.149999618530273,25.299999237060547,25.200000762939453,10700,25.200000762939453
2018-10-02,25.261999130249023,25.219999313354492,25.25,25.261999130249023,9400,25.261999130249023
2018-10-03,25.27400016784668,25.200000762939453,25.229999542236328,25.25,25700,25.25
2018-10-04,25.170000076293945,24.770000457763672,25.170000076293945,24.899999618530273,60900,24.899999618530273
2018-10-05,25.128000259399414,24.899999618530273,24.899999618530273,24.959999084472656,27100,24.959999084472656
2018-10-08,25.062999725341797,25.0,25.059999465942383,25.013999938964844,4300,25.013999938964844
2018-10-09,25.059999465942383,24.860000610351562,25.059999465942383,24.899999618530273,6400,24.899999618530273
2018-10-10,24.969999313354492,24.850000381469727,24.941999435424805,24.969999313354492,25100,24.969999313354492
2018-10-11,24.957000732421875,24.950000762939453,24.957000732421875,24.950000762939453,3600,24.950000762939453
2018-10-12,25.0939998626709,24.809999465942383,25.0,24.81999969482422,21300,24.81999969482422
2018-10-15,24.90999984741211,24.829999923706055,24.829999923706055,24.90999984741211,3100,24.90999984741211
2018-10-16,25.0,24.670000076293945,24.875999450683594,24.950000762939453,22500,24.950000762939453
2018-10-17,24.961000442504883,24.829999923706055,24.950000762939453,24.93000030517578,5000,24.93000030517578
2018-10-18,25.149999618530273,24.865999221801758,24.865999221801758,24.940000534057617,12100,24.940000534057617
2018-10-19,25.09000015258789,24.950000762939453,25.079999923706055,24.950000762939453,1800,24.950000762939453
2018-10-22,25.041000366210938,24.881000518798828,24.899999618530273,24.930999755859375,1300,24.930999755859375
2018-10-23,25.017000198364258,24.905000686645508,24.93000030517578,24.93000030517578,4000,24.93000030517578
2018-10-24,24.920000076293945,24.86199951171875,24.920000076293945,24.90999984741211,2500,24.90999984741211
2018-10-25,24.90999984741211,24.80299949645996,24.895999908447266,24.864999771118164,800,24.864999771118164
2018-10-26,24.90999984741211,24.878000259399414,24.90999984741211,24.8799991607666,1200,24.8799991607666
2018-10-29,25.059999465942383,24.850000381469727,24.8799991607666,25.059999465942383,3400,25.059999465942383
2018-10-30,25.059999465942383,24.860000610351562,25.059999465942383,25.0,5200,25.0
2018-10-31,25.079999923706055,24.959999084472656,25.079999923706055,25.030000686645508,13000,25.030000686645508
2018-11-01,25.079999923706055,24.992000579833984,25.0,25.079999923706055,14900,25.079999923706055
2018-11-02,25.049999237060547,24.959999084472656,25.010000228881836,24.959999084472656,15100,24.959999084472656
2018-11-05,25.079999923706055,24.974000930786133,25.0,25.049999237060547,4400,25.049999237060547
2018-11-06,25.059999465942383,25.0,25.000999450683594,25.040000915527344,17500,25.040000915527344
2018-11-07,25.040000915527344,25.01799964904785,25.040000915527344,25.030000686645508,9900,25.030000686645508
2018-11-08,25.040000915527344,25.0,25.040000915527344,25.020000457763672,8200,25.020000457763672
2018-11-09,25.023000717163086,25.010000228881836,25.023000717163086,25.010000228881836,2400,25.010000228881836
2018-11-12,25.079999923706055,25.010000228881836,25.01799964904785,25.079999923706055,9900,25.079999923706055
2018-11-13,25.100000381469727,25.030000686645508,25.086000442504883,25.030000686645508,6600,25.030000686645508
2018-11-14,25.020000457763672,24.969999313354492,25.020000457763672,24.99799919128418,16700,24.99799919128418
2018-11-15,25.059999465942383,24.780000686645508,25.059999465942383,24.81999969482422,42700,24.81999969482422
2018-11-16,24.950000762939453,24.799999237060547,24.799999237060547,24.950000762939453,6600,24.950000762939453
2018-11-19,25.0,24.850000381469727,24.893999099731445,24.860000610351562,23900,24.860000610351562
2018-11-20,24.829999923706055,24.708999633789062,24.829999923706055,24.75,6600,24.75
2018-11-21,24.902999877929688,24.788000106811523,24.844999313354492,24.788999557495117,20300,24.788999557495117
2018-11-23,24.940000534057617,24.799999237060547,24.799999237060547,24.84000015258789,3200,24.84000015258789
2018-11-26,25.0,24.850000381469727,24.860000610351562,24.950000762939453,16700,24.950000762939453
2018-11-27,24.99799919128418,24.85099983215332,24.99799919128418,24.950000762939453,6600,24.950000762939453
2018-11-28,25.049999237060547,24.986000061035156,24.989999771118164,25.049999237060547,6400,25.049999237060547
2018-11-29,24.690000534057617,24.551000595092773,24.615999221801758,24.65999984741211,11600,24.65999984741211
2018-11-30,24.639999389648438,24.4689998626709,24.590999603271484,24.63800048828125,5700,24.63800048828125
2018-12-03,24.729999542236328,24.549999237060547,24.649999618530273,24.729999542236328,20500,24.729999542236328
2018-12-04,24.739999771118164,24.54599952697754,24.709999084472656,24.690000534057617,18300,24.690000534057617
2018-12-06,24.790000915527344,24.530000686645508,24.75,24.600000381469727,7400,24.600000381469727
2018-12-07,24.59000015258789,24.399999618530273,24.479999542236328,24.44099998474121,13400,24.44099998474121
2018-12-10,24.650999069213867,24.260000228881836,24.461000442504883,24.360000610351562,16500,24.360000610351562
2018-12-11,24.549999237060547,24.15999984741211,24.3700008392334,24.15999984741211,33800,24.15999984741211
2018-12-12,24.6299991607666,24.260000228881836,24.416000366210938,24.260000228881836,32700,24.260000228881836
2018-12-13,24.358999252319336,24.1200008392334,24.309999465942383,24.149999618530273,12500,24.149999618530273
2018-12-14,24.45199966430664,24.049999237060547,24.110000610351562,24.200000762939453,8200,24.200000762939453
2018-12-17,24.200000762939453,23.649999618530273,24.100000381469727,23.649999618530273,19800,23.649999618530273
2018-12-18,23.83300018310547,23.25,23.65999984741211,23.549999237060547,12700,23.549999237060547
2018-12-19,23.889999389648438,23.030000686645508,23.309999465942383,23.200000762939453,11800,23.200000762939453
2018-12-20,23.01300048828125,22.25,22.6299991607666,22.899999618530273,21700,22.899999618530273
2018-12-21,23.350000381469727,22.75,22.75,22.979999542236328,14000,22.979999542236328
2018-12-24,22.66900062561035,22.450000762939453,22.66900062561035,22.530000686645508,4200,22.530000686645508
2018-12-26,22.649999618530273,21.933000564575195,22.38599967956543,22.399999618530273,25700,22.399999618530273
2018-12-27,22.5,22.010000228881836,22.450000762939453,22.25,27700,22.25
2018-12-28,23.450000762939453,22.219999313354492,22.350000381469727,23.25,31800,23.25
2018-12-31,23.628999710083008,23.100000381469727,23.469999313354492,23.5,11700,23.5
2019-01-02,23.719999313354492,23.149999618530273,23.290000915527344,23.350000381469727,37500,23.350000381469727
2019-01-03,23.690000534057617,23.200000762939453,23.59000015258789,23.690000534057617,23300,23.690000534057617
2019-01-04,24.149999618530273,23.690000534057617,23.700000762939453,23.989999771118164,30700,23.989999771118164
2019-01-07,23.989999771118164,23.740999221801758,23.979999542236328,23.950000762939453,23100,23.950000762939453
2019-01-08,23.989999771118164,23.81399917602539,23.989999771118164,23.950000762939453,13900,23.950000762939453
2019-01-09,24.170000076293945,23.797000885009766,23.797000885009766,24.059999465942383,20800,24.059999465942383
2019-01-10,24.18000030517578,23.790000915527344,23.8799991607666,24.18000030517578,7100,24.18000030517578
2019-01-11,24.299999237060547,24.01099967956543,24.229999542236328,24.299999237060547,10700,24.299999237060547
2019-01-14,24.389999389648438,24.114999771118164,24.299999237060547,24.389999389648438,5500,24.389999389648438
2019-01-15,24.889999389648438,24.389999389648438,24.389999389648438,24.559999465942383,17800,24.559999465942383
2019-01-16,24.739999771118164,24.219999313354492,24.309999465942383,24.25,24200,24.25
2019-01-17,24.489999771118164,24.170000076293945,24.389999389648438,24.420000076293945,21000,24.420000076293945
2019-01-18,24.450000762939453,24.219999313354492,24.450000762939453,24.219999313354492,12300,24.219999313354492
2019-01-22,24.450000762939453,24.180999755859375,24.375,24.299999237060547,16300,24.299999237060547
2019-01-23,24.729999542236328,24.299999237060547,24.450000762939453,24.450000762939453,35800,24.450000762939453
2019-01-24,24.920000076293945,24.424999237060547,24.510000228881836,24.75,28900,24.75
2019-01-25,24.969999313354492,24.68899917602539,24.7810001373291,24.799999237060547,29900,24.799999237060547
2019-01-28,25.0,24.799999237060547,24.799999237060547,24.899999618530273,36300,24.899999618530273
2019-01-29,24.959999084472656,24.81599998474121,24.81599998474121,24.899999618530273,15700,24.899999618530273
2019-01-30,25.0,24.8799991607666,25.0,25.0,16000,25.0
2019-01-31,25.049999237060547,24.75,25.0,24.920000076293945,76100,24.920000076293945
2019-02-01,25.049999237060547,24.809999465942383,25.049999237060547,24.959999084472656,17200,24.959999084472656
2019-02-04,24.969999313354492,24.834999084472656,24.969999313354492,24.940000534057617,18400,24.940000534057617
2019-02-05,25.040000915527344,24.920000076293945,24.950000762939453,24.961999893188477,19600,24.961999893188477
2019-02-06,24.959999084472656,24.520000457763672,24.950000762939453,24.639999389648438,38500,24.639999389648438
2019-02-07,24.875,24.636999130249023,24.709999084472656,24.75,13900,24.75
2019-02-08,24.940000534057617,24.579999923706055,24.677000045776367,24.809999465942383,16900,24.809999465942383
2019-02-11,24.926000595092773,24.780000686645508,24.799999237060547,24.8700008392334,5800,24.8700008392334
2019-02-12,24.989999771118164,24.84000015258789,24.875,24.84000015258789,14700,24.84000015258789
2019-02-13,24.989999771118164,24.799999237060547,24.84000015258789,24.799999237060547,16000,24.799999237060547
2019-02-14,24.989999771118164,24.770000457763672,24.799999237060547,24.850000381469727,53300,24.850000381469727
2019-02-15,24.950000762939453,24.850000381469727,24.850000381469727,24.940000534057617,21800,24.940000534057617
2019-02-19,25.020000457763672,24.9060001373291,24.950000762939453,24.969999313354492,18200,24.969999313354492
2019-02-20,25.007999420166016,24.915000915527344,24.952999114990234,25.007999420166016,21900,25.007999420166016
2019-02-21,25.0049991607666,24.950000762939453,25.0,24.950000762939453,16400,24.950000762939453
2019-02-22,25.100000381469727,24.985000610351562,24.985000610351562,25.018999099731445,19800,25.018999099731445
2019-02-25,25.200000762939453,25.000999450683594,25.100000381469727,25.200000762939453,28500,25.200000762939453
2019-02-26,25.209999084472656,25.149999618530273,25.167999267578125,25.200000762939453,7200,25.200000762939453
2019-02-27,25.299999237060547,25.170000076293945,25.200000762939453,25.299999237060547,23200,25.299999237060547
2019-02-28,25.1299991607666,24.909000396728516,24.90999984741211,25.1299991607666,55700,25.1299991607666
2019-03-01,25.09000015258789,24.920000076293945,25.09000015258789,25.0,4700,25.0
2019-03-04,25.020000457763672,24.920000076293945,25.00200080871582,24.979999542236328,22700,24.979999542236328
2019-03-05,25.1200008392334,24.959999084472656,25.0,25.100000381469727,32100,25.100000381469727
2019-03-06,25.260000228881836,25.010000228881836,25.040000915527344,25.260000228881836,23500,25.260000228881836
2019-03-07,25.229999542236328,25.200000762939453,25.21500015258789,25.200000762939453,5600,25.200000762939453
2019-03-08,25.270000457763672,25.030000686645508,25.145000457763672,25.270000457763672,34300,25.270000457763672
2019-03-11,25.290000915527344,25.079999923706055,25.290000915527344,25.25,18700,25.25
2019-03-12,25.25,25.200000762939453,25.249000549316406,25.25,9300,25.25
2019-03-13,25.389999389648438,25.143999099731445,25.25,25.389999389648438,11200,25.389999389648438
2019-03-14,25.399999618530273,25.284000396728516,25.284000396728516,25.399999618530273,2000,25.399999618530273
2019-03-15,25.389999389648438,25.309999465942383,25.389999389648438,25.3799991607666,4100,25.3799991607666
2019-03-18,25.399999618530273,25.31999969482422,25.347999572753906,25.399999618530273,5800,25.399999618530273
2019-03-19,25.389999389648438,25.260000228881836,25.260000228881836,25.309999465942383,8700,25.309999465942383
2019-03-20,25.34000015258789,25.277000427246094,25.290000915527344,25.34000015258789,7900,25.34000015258789
2019-03-21,25.299999237060547,25.250999450683594,25.290000915527344,25.250999450683594,7800,25.250999450683594
2019-03-22,25.350000381469727,25.25,25.25,25.329999923706055,5100,25.329999923706055
2019-03-25,25.399999618530273,25.291000366210938,25.329999923706055,25.399999618530273,5700,25.399999618530273
2019-03-26,25.399999618530273,25.30900001525879,25.399999618530273,25.399999618530273,4000,25.399999618530273
2019-03-27,25.5,25.360000610351562,25.450000762939453,25.5,5800,25.5
2019-03-28,25.5,25.32900047302246,25.32900047302246,25.450000762939453,8600,25.450000762939453
2019-03-29,25.450000762939453,25.270000457763672,25.299999237060547,25.450000762939453,32100,25.450000762939453
2019-04-01,25.489999771118164,25.450000762939453,25.450000762939453,25.489999771118164,1700,25.489999771118164
2019-04-02,25.600000381469727,25.489999771118164,25.489999771118164,25.600000381469727,1500,25.600000381469727
2019-04-03,25.56999969482422,25.34000015258789,25.56999969482422,25.450000762939453,8600,25.450000762939453
2019-04-04,25.549999237060547,25.391000747680664,25.549999237060547,25.450000762939453,10600,25.450000762939453
2019-04-05,25.391000747680664,25.260000228881836,25.360000610351562,25.260000228881836,9500,25.260000228881836
2019-04-08,25.399999618530273,25.309999465942383,25.31999969482422,25.399999618530273,11000,25.399999618530273
2019-04-09,25.42799949645996,25.400999069213867,25.42799949645996,25.400999069213867,5400,25.400999069213867
2019-04-10,25.329999923706055,25.172000885009766,25.329999923706055,25.200000762939453,69800,25.200000762939453
2019-04-11,25.329999923706055,25.219999313354492,25.26799964904785,25.299999237060547,20000,25.299999237060547
2019-04-12,25.309999465942383,25.25,25.30500030517578,25.25,10200,25.25
2019-04-15,25.309999465942383,25.200000762939453,25.200000762939453,25.309999465942383,2300,25.309999465942383
2019-04-16,25.34000015258789,25.200000762939453,25.301000595092773,25.200000762939453,24100,25.200000762939453
2019-04-17,25.2450008392334,25.020000457763672,25.209999084472656,25.128999710083008,61000,25.128999710083008
2019-04-18,25.165000915527344,25.04199981689453,25.139999389648438,25.1200008392334,10400,25.1200008392334
2019-04-22,25.18000030517578,25.079999923706055,25.100000381469727,25.18000030517578,14700,25.18000030517578
2019-04-23,25.239999771118164,25.149999618530273,25.149999618530273,25.239999771118164,11300,25.239999771118164
2019-04-24,25.280000686645508,25.15999984741211,25.20400047302246,25.280000686645508,6100,25.280000686645508
2019-04-25,25.290000915527344,25.200000762939453,25.270000457763672,25.290000915527344,10200,25.290000915527344
2019-04-26,25.2810001373291,25.25,25.280000686645508,25.280000686645508,6700,25.280000686645508
2019-04-29,25.31999969482422,25.273000717163086,25.299999237060547,25.31999969482422,3700,25.31999969482422
2019-04-30,25.399999618530273,25.299999237060547,25.31999969482422,25.399999618530273,34500,25.399999618530273
2019-05-01,25.420000076293945,25.31999969482422,25.329999923706055,25.402999877929688,9100,25.402999877929688
2019-05-02,25.43000030517578,25.41900062561035,25.41900062561035,25.43000030517578,1500,25.43000030517578
2019-05-03,25.43199920654297,25.413000106811523,25.43199920654297,25.420000076293945,3600,25.420000076293945
2019-05-06,25.5,25.399999618530273,25.40399932861328,25.479999542236328,12100,25.479999542236328
2019-05-07,25.523000717163086,25.5,25.5,25.5,6800,25.5
2019-05-08,25.5,25.475000381469727,25.5,25.5,5700,25.5
2019-05-09,25.527000427246094,25.5,25.5,25.527000427246094,700,25.527000427246094
2019-05-10,25.549999237060547,25.530000686645508,25.540000915527344,25.549999237060547,3700,25.549999237060547
2019-05-13,25.559999465942383,25.520000457763672,25.520000457763672,25.530000686645508,5400,25.530000686645508
2019-05-14,25.65999984741211,25.530000686645508,25.530000686645508,25.65999984741211,5100,25.65999984741211
2019-05-15,25.799999237060547,25.649999618530273,25.68000030517578,25.739999771118164,9400,25.739999771118164
2019-05-16,25.850000381469727,25.6299991607666,25.75,25.850000381469727,2500,25.850000381469727
2019-05-17,25.83799934387207,25.6299991607666,25.760000228881836,25.729999542236328,17700,25.729999542236328
2019-05-20,25.799999237060547,25.690000534057617,25.70199966430664,25.75,6400,25.75
2019-05-21,25.739999771118164,25.549999237060547,25.700000762939453,25.68000030517578,13900,25.68000030517578
2019-05-22,25.799999237060547,25.760000228881836,25.799999237060547,25.760000228881836,1200,25.760000228881836
2019-05-23,25.819000244140625,25.649999618530273,25.719999313354492,25.709999084472656,16700,25.709999084472656
2019-05-24,25.799999237060547,25.660999298095703,25.799999237060547,25.729999542236328,5000,25.729999542236328
