Date,High,Low,Open,Close,Volume,Adj Close
2015-12-29,25.43000030517578,25.299999237060547,25.329999923706055,25.43000030517578,900.0,23.160579681396484
2015-12-30,25.15999984741211,25.15999984741211,25.15999984741211,25.15999984741211,1100.0,22.914674758911133
2015-12-31,24.989999771118164,24.93000030517578,24.959999084472656,24.989999771118164,7100.0,22.759845733642578
2016-01-04,24.40999984741211,24.40999984741211,24.40999984741211,24.40999984741211,100.0,22.231605529785156
2016-01-05,24.399999618530273,24.399999618530273,24.399999618530273,24.399999618530273,100.0,22.222497940063477
2016-01-06,24.079999923706055,23.959999084472656,23.959999084472656,24.0,1900.0,21.858196258544922
2016-01-07,23.739999771118164,23.530000686645508,23.739999771118164,23.530000686645508,4400.0,21.430139541625977
2016-01-08,23.639999389648438,23.44499969482422,23.549999237060547,23.44499969482422,1700.0,21.352724075317383
2016-01-11,23.34000015258789,23.34000015258789,23.34000015258789,23.34000015258789,100.0,21.257095336914062
2016-01-12,23.440000534057617,23.440000534057617,23.440000534057617,23.440000534057617,200.0,21.348169326782227
2016-01-13,23.440000534057617,23.440000534057617,23.440000534057617,23.440000534057617,0.0,21.348169326782227
2016-01-14,23.049999237060547,23.049999237060547,23.049999237060547,23.049999237060547,300.0,20.99297523498535
2016-01-15,22.639999389648438,22.489999771118164,22.639999389648438,22.489999771118164,600.0,20.48295021057129
2016-01-19,22.8799991607666,22.777799606323242,22.790000915527344,22.777799606323242,3442.0,20.745065689086914
2016-01-20,22.0,22.0,22.0,22.0,200.0,20.036680221557617
2016-01-21,22.529199600219727,22.529199600219727,22.529199600219727,22.529199600219727,115.0,20.518651962280273
2016-01-22,22.52899932861328,22.52899932861328,22.52899932861328,22.52899932861328,0.0,20.518468856811523
2016-01-25,22.52899932861328,22.52899932861328,22.52899932861328,22.52899932861328,0.0,20.518468856811523
2016-01-26,23.25,23.249900817871094,23.249900817871094,23.25,736.0,21.175127029418945
2016-01-27,23.25,23.25,23.25,23.25,0.0,21.175127029418945
2016-01-28,23.25,23.25,23.25,23.25,0.0,21.175127029418945
2016-01-29,23.610000610351562,23.610000610351562,23.610000610351562,23.610000610351562,100.0,21.503000259399414
2016-02-01,23.633399963378906,23.60580062866211,23.610000610351562,23.633399963378906,4135.0,21.524311065673828
2016-02-02,23.260000228881836,23.170000076293945,23.260000228881836,23.170000076293945,200.0,21.102264404296875
2016-02-03,23.170000076293945,23.170000076293945,23.170000076293945,23.170000076293945,0.0,21.102264404296875
2016-02-04,23.170000076293945,23.170000076293945,23.170000076293945,23.170000076293945,0.0,21.102264404296875
2016-02-05,23.530000686645508,23.530000686645508,23.530000686645508,23.530000686645508,100.0,21.430139541625977
2016-02-08,22.649999618530273,22.639999389648438,22.639999389648438,22.649999618530273,735.0,20.628671646118164
2016-02-09,22.520000457763672,22.43000030517578,22.43000030517578,22.520000457763672,200.0,20.51027488708496
2016-02-10,22.520000457763672,22.520000457763672,22.520000457763672,22.520000457763672,0.0,20.51027488708496
2016-02-11,22.200000762939453,22.190000534057617,22.200000762939453,22.190000534057617,1000.0,20.20972442626953
2016-02-12,22.190000534057617,22.190000534057617,22.190000534057617,22.190000534057617,0.0,20.20972442626953
2016-02-16,22.190000534057617,22.190000534057617,22.190000534057617,22.190000534057617,100.0,20.20972442626953
2016-02-17,22.190000534057617,22.190000534057617,22.190000534057617,22.190000534057617,0.0,20.20972442626953
2016-02-18,22.190000534057617,22.190000534057617,22.190000534057617,22.190000534057617,0.0,20.20972442626953
2016-02-19,22.190000534057617,22.190000534057617,22.190000534057617,22.190000534057617,0.0,20.20972442626953
2016-02-22,22.190000534057617,22.190000534057617,22.190000534057617,22.190000534057617,0.0,20.20972442626953
2016-02-23,22.190000534057617,22.190000534057617,22.190000534057617,22.190000534057617,0.0,20.20972442626953
2016-02-24,23.110000610351562,22.860000610351562,22.860000610351562,23.110000610351562,645.0,21.04762077331543
2016-02-25,23.110000610351562,23.110000610351562,23.110000610351562,23.110000610351562,0.0,21.04762077331543
2016-02-26,23.110000610351562,23.110000610351562,23.110000610351562,23.110000610351562,0.0,21.04762077331543
2016-02-29,23.110000610351562,23.110000610351562,23.110000610351562,23.110000610351562,0.0,21.04762077331543
2016-03-01,23.559999465942383,23.559999465942383,23.559999465942383,23.559999465942383,100.0,21.457462310791016
2016-03-02,23.84000015258789,23.790000915527344,23.790000915527344,23.84000015258789,545.0,21.712472915649414
2016-03-03,23.84000015258789,23.84000015258789,23.84000015258789,23.84000015258789,0.0,21.712472915649414
2016-03-04,24.352500915527344,24.352500915527344,24.352500915527344,24.352500915527344,100.0,22.17923927307129
2016-03-07,24.35300064086914,24.35300064086914,24.35300064086914,24.35300064086914,0.0,22.17969512939453
2016-03-08,24.049999237060547,24.049999237060547,24.049999237060547,24.049999237060547,151.0,21.903732299804688
2016-03-09,24.049999237060547,24.049999237060547,24.049999237060547,24.049999237060547,0.0,21.903732299804688
2016-03-10,24.049999237060547,24.049999237060547,24.049999237060547,24.049999237060547,0.0,21.903732299804688
2016-03-11,24.639999389648438,24.6200008392334,24.639999389648438,24.6200008392334,200.0,22.422866821289062
2016-03-14,24.6200008392334,24.6200008392334,24.6200008392334,24.6200008392334,0.0,22.422866821289062
2016-03-15,24.5,24.5,24.5,24.5,550.0,22.313573837280273
2016-03-16,24.5,24.5,24.5,24.5,0.0,22.313573837280273
2016-03-17,24.5,24.5,24.5,24.5,0.0,22.313573837280273
2016-03-18,24.5,24.5,24.5,24.5,0.0,22.313573837280273
2016-03-21,24.5,24.5,24.5,24.5,0.0,22.313573837280273
2016-03-22,24.5,24.5,24.5,24.5,0.0,22.313573837280273
2016-03-23,24.5,24.5,24.5,24.5,0.0,22.313573837280273
2016-03-24,24.33799934387207,24.33799934387207,24.33799934387207,24.33799934387207,100.0,22.166030883789062
2016-03-28,24.33799934387207,24.33799934387207,24.33799934387207,24.33799934387207,0.0,22.166030883789062
2016-03-29,24.33799934387207,24.33799934387207,24.33799934387207,24.33799934387207,0.0,22.166030883789062
2016-03-30,25.09000015258789,25.052600860595703,25.09000015258789,25.052600860595703,1330.0,22.816862106323242
2016-03-31,25.030000686645508,25.030000686645508,25.030000686645508,25.030000686645508,100.0,22.79627799987793
2016-04-01,24.469999313354492,24.31999969482422,24.469999313354492,24.31999969482422,400.0,22.14963722229004
2016-04-04,24.31999969482422,24.31999969482422,24.31999969482422,24.31999969482422,0.0,22.14963722229004
2016-04-05,24.209999084472656,23.989999771118164,24.209999084472656,24.040000915527344,500.0,21.89462661743164
2016-04-06,24.3799991607666,24.149999618530273,24.149999618530273,24.3799991607666,220.0,22.204282760620117
2016-04-07,24.3799991607666,24.3799991607666,24.3799991607666,24.3799991607666,0.0,22.204282760620117
2016-04-08,24.3799991607666,24.3799991607666,24.3799991607666,24.3799991607666,0.0,22.204282760620117
2016-04-11,24.3799991607666,24.3799991607666,24.3799991607666,24.3799991607666,0.0,22.204282760620117
2016-04-12,24.849899291992188,24.849899291992188,24.849899291992188,24.849899291992188,300.0,22.63224983215332
2016-04-13,24.850000381469727,24.850000381469727,24.850000381469727,24.850000381469727,0.0,22.632339477539062
2016-04-14,24.850000381469727,24.850000381469727,24.850000381469727,24.850000381469727,0.0,22.632339477539062
2016-04-15,24.850000381469727,24.850000381469727,24.850000381469727,24.850000381469727,0.0,22.632339477539062
2016-04-18,24.850000381469727,24.850000381469727,24.850000381469727,24.850000381469727,0.0,22.632339477539062
2016-04-19,25.84000015258789,25.84000015258789,25.84000015258789,25.84000015258789,300.0,23.53399085998535
2016-04-20,25.84000015258789,25.84000015258789,25.84000015258789,25.84000015258789,0.0,23.53399085998535
2016-04-21,25.84000015258789,25.84000015258789,25.84000015258789,25.84000015258789,0.0,23.53399085998535
2016-04-22,25.84000015258789,25.84000015258789,25.84000015258789,25.84000015258789,0.0,23.53399085998535
2016-04-25,25.450000762939453,25.359600067138672,25.450000762939453,25.359600067138672,200.0,23.09646224975586
2016-04-26,25.489999771118164,25.489999771118164,25.489999771118164,25.489999771118164,125.0,23.215225219726562
2016-04-27,25.489999771118164,25.489999771118164,25.489999771118164,25.489999771118164,0.0,23.215225219726562
2016-04-28,25.489999771118164,25.489999771118164,25.489999771118164,25.489999771118164,0.0,23.215225219726562
2016-04-29,25.240999221801758,25.18000030517578,25.240999221801758,25.18000030517578,200.0,22.932889938354492
2016-05-02,25.610000610351562,25.34000015258789,25.610000610351562,25.399999618530273,700.0,23.133256912231445
2016-05-03,25.280000686645508,25.059999465942383,25.280000686645508,25.059999465942383,200.0,22.823596954345703
2016-05-04,24.8799991607666,24.8799991607666,24.8799991607666,24.8799991607666,100.0,22.65966033935547
2016-05-05,24.8799991607666,24.8799991607666,24.8799991607666,24.8799991607666,0.0,22.65966033935547
2016-05-06,24.780000686645508,24.780000686645508,24.780000686645508,24.780000686645508,100.0,22.568588256835938
2016-05-09,24.809999465942383,24.809999465942383,24.809999465942383,24.809999465942383,120.0,22.595909118652344
2016-05-10,24.770000457763672,24.770000457763672,24.770000457763672,24.770000457763672,206.0,22.559478759765625
2016-05-11,24.920000076293945,24.91990089416504,24.920000076293945,24.91990089416504,1000.0,22.696002960205078
2016-05-12,24.920000076293945,24.920000076293945,24.920000076293945,24.920000076293945,0.0,22.696094512939453
2016-05-13,24.700000762939453,24.700000762939453,24.700000762939453,24.700000762939453,100.0,22.4957275390625
2016-05-16,24.798999786376953,24.793500900268555,24.798999786376953,24.793500900268555,425.0,22.580883026123047
2016-05-17,24.833999633789062,24.833999633789062,24.833999633789062,24.833999633789062,100.0,22.617767333984375
2016-05-18,24.82990074157715,24.56999969482422,24.82990074157715,24.56999969482422,1282.0,22.37732696533203
2016-05-19,24.479999542236328,24.479999542236328,24.479999542236328,24.479999542236328,100.0,22.295358657836914
2016-05-20,24.58989906311035,24.520000457763672,24.520000457763672,24.58989906311035,600.0,22.395450592041016
2016-05-23,24.520000457763672,24.520000457763672,24.520000457763672,24.520000457763672,100.0,22.331789016723633
2016-05-24,24.760000228881836,24.760000228881836,24.760000228881836,24.760000228881836,300.0,22.550371170043945
2016-05-25,25.059999465942383,25.049999237060547,25.049999237060547,25.059999465942383,341.0,22.823596954345703
2016-05-26,25.059999465942383,25.059999465942383,25.059999465942383,25.059999465942383,0.0,22.823596954345703
2016-05-27,25.059999465942383,25.059900283813477,25.059999465942383,25.059900283813477,450.0,22.82350730895996
2016-05-31,25.00670051574707,25.00670051574707,25.00670051574707,25.00670051574707,300.0,22.775056838989258
2016-06-01,25.006999969482422,25.006999969482422,25.006999969482422,25.006999969482422,0.0,22.77532958984375
2016-06-02,25.006999969482422,25.006999969482422,25.006999969482422,25.006999969482422,0.0,22.77532958984375
2016-06-03,25.006999969482422,25.006999969482422,25.006999969482422,25.006999969482422,0.0,22.77532958984375
2016-06-06,25.469999313354492,25.382999420166016,25.469999313354492,25.382999420166016,525.0,23.117773056030273
2016-06-07,25.65999984741211,25.597999572753906,25.599000930786133,25.6299991607666,2250.0,23.342731475830078
2016-06-08,25.729900360107422,25.729900360107422,25.729900360107422,25.729900360107422,155.0,23.4337158203125
2016-06-09,25.729999542236328,25.729999542236328,25.729999542236328,25.729999542236328,0.0,23.433807373046875
2016-06-10,25.729999542236328,25.729999542236328,25.729999542236328,25.729999542236328,0.0,23.433807373046875
2016-06-13,24.579999923706055,24.3700008392334,24.579999923706055,24.3700008392334,400.0,22.19517707824707
2016-06-14,24.038999557495117,24.038999557495117,24.038999557495117,24.038999557495117,500.0,21.893712997436523
2016-06-15,24.350000381469727,24.200000762939453,24.239999771118164,24.200000762939453,1535.0,22.040348052978516
2016-06-16,23.87299919128418,23.87299919128418,23.87299919128418,23.87299919128418,100.0,21.74252700805664
2016-06-17,23.87299919128418,23.87299919128418,23.87299919128418,23.87299919128418,0.0,21.74252700805664
2016-06-20,25.200000762939453,25.0,25.200000762939453,25.069900512695312,6800.0,22.832616806030273
2016-06-21,25.06999969482422,25.06999969482422,25.06999969482422,25.06999969482422,0.0,22.832706451416016
2016-06-22,25.149999618530273,25.079999923706055,25.149999618530273,25.079999923706055,475.0,22.841814041137695
2016-06-23,25.079999923706055,25.079999923706055,25.079999923706055,25.079999923706055,0.0,22.841814041137695
2016-06-24,24.1200008392334,23.790000915527344,24.1200008392334,23.809999465942383,1500.0,21.685150146484375
2016-06-27,23.43000030517578,23.170000076293945,23.43000030517578,23.18899917602539,703.0,21.119569778442383
2016-06-28,23.739999771118164,23.729999542236328,23.739999771118164,23.739999771118164,874.0,21.621397018432617
2016-06-29,24.38920021057129,24.3700008392334,24.3700008392334,24.38920021057129,368.0,22.212661743164062
2016-06-30,24.388999938964844,24.388999938964844,24.388999938964844,24.388999938964844,0.0,22.212480545043945
2016-07-01,24.388999938964844,24.388999938964844,24.388999938964844,24.388999938964844,0.0,22.212480545043945
2016-07-05,24.388999938964844,24.388999938964844,24.388999938964844,24.388999938964844,0.0,22.212480545043945
2016-07-06,24.15999984741211,24.1200008392334,24.139999389648438,24.15999984741211,374.0,22.003915786743164
2016-07-07,24.15999984741211,24.15999984741211,24.15999984741211,24.15999984741211,0.0,22.003915786743164
2016-07-08,24.15999984741211,24.15999984741211,24.15999984741211,24.15999984741211,0.0,22.003915786743164
2016-07-11,24.15999984741211,24.15999984741211,24.15999984741211,24.15999984741211,0.0,22.003915786743164
2016-07-12,24.15999984741211,24.15999984741211,24.15999984741211,24.15999984741211,0.0,22.003915786743164
2016-07-13,25.270000457763672,25.270000457763672,25.270000457763672,25.270000457763672,344.0,23.014860153198242
2016-07-14,25.270000457763672,25.270000457763672,25.270000457763672,25.270000457763672,0.0,23.014860153198242
2016-07-15,25.270000457763672,25.270000457763672,25.270000457763672,25.270000457763672,0.0,23.014860153198242
2016-07-18,25.270000457763672,25.270000457763672,25.270000457763672,25.270000457763672,0.0,23.014860153198242
2016-07-19,25.270000457763672,25.270000457763672,25.270000457763672,25.270000457763672,0.0,23.014860153198242
2016-07-20,25.270000457763672,25.270000457763672,25.270000457763672,25.270000457763672,0.0,23.014860153198242
2016-07-21,25.479999542236328,25.440000534057617,25.440000534057617,25.479999542236328,353.0,23.20611572265625
2016-07-22,25.530000686645508,25.5,25.52989959716797,25.520000457763672,2314.0,23.2425479888916
2016-07-25,25.489999771118164,25.395599365234375,25.469999313354492,25.395599365234375,1221.0,23.129249572753906
2016-07-26,25.559999465942383,25.559999465942383,25.559999465942383,25.559999465942383,100.0,23.278976440429688
2016-07-27,25.6299991607666,25.59000015258789,25.6299991607666,25.59000015258789,58388.0,23.306299209594727
2016-07-28,25.68000030517578,25.649999618530273,25.649999618530273,25.65999984741211,3511.0,23.370054244995117
2016-07-29,25.860000610351562,25.739999771118164,25.780000686645508,25.860000610351562,1799.0,23.552204132080078
2016-08-01,25.77899932861328,25.690000534057617,25.760000228881836,25.709999084472656,7918.0,23.415592193603516
2016-08-02,25.729999542236328,25.500999450683594,25.65999984741211,25.540000915527344,1000.0,23.26076316833496
2016-08-03,25.48349952697754,25.440000534057617,25.459999084472656,25.469999313354492,1846.0,23.197010040283203
2016-08-04,25.559999465942383,25.489999771118164,25.540000915527344,25.559999465942383,600.0,23.278976440429688
2016-08-05,25.649999618530273,25.540000915527344,25.56999969482422,25.649999618530273,1699.0,23.360946655273438
2016-08-08,25.649999618530273,25.600000381469727,25.600000381469727,25.6200008392334,3266.0,23.33362579345703
2016-08-09,25.920000076293945,25.829999923706055,25.829999923706055,25.860000610351562,4100.0,23.552204132080078
2016-08-10,26.020000457763672,25.969999313354492,26.010000228881836,25.969999313354492,1296.0,23.652387619018555
2016-08-11,26.100400924682617,26.010000228881836,26.040000915527344,26.09000015258789,959.0,23.761680603027344
2016-08-12,26.1200008392334,26.1200008392334,26.1200008392334,26.1200008392334,100.0,23.789003372192383
2016-08-15,26.229900360107422,26.16990089416504,26.16990089416504,26.209999084472656,4341.0,23.870969772338867
2016-08-16,26.219900131225586,26.15999984741211,26.18000030517578,26.219900131225586,4875.0,23.879987716674805
2016-08-17,25.986000061035156,25.986000061035156,25.986000061035156,25.986000061035156,307.0,23.666961669921875
2016-08-18,26.209999084472656,26.149999618530273,26.155000686645508,26.209999084472656,910.0,23.870969772338867
2016-08-19,25.950000762939453,25.940000534057617,25.950000762939453,25.940000534057617,200.0,23.62506675720215
2016-08-22,26.1200008392334,25.969999313354492,25.979999542236328,26.110000610351562,2383.0,23.779895782470703
2016-08-23,26.329999923706055,26.280000686645508,26.31999969482422,26.290000915527344,1881.0,23.943832397460938
2016-08-24,26.25,26.25,26.25,26.25,200.0,23.907400131225586
2016-08-25,26.080299377441406,26.059999465942383,26.069900512695312,26.059999465942383,1154.0,23.734355926513672
2016-08-26,26.25,25.850000381469727,26.25,25.850000381469727,207.0,23.54309844970703
2016-08-29,25.899999618530273,25.829999923706055,25.829999923706055,25.899999618530273,200.0,23.588634490966797
2016-08-30,25.959999084472656,25.889999389648438,25.889999389648438,25.90999984741211,3315.0,23.59774398803711
2016-08-31,25.829999923706055,25.799999237060547,25.829999923706055,25.799999237060547,364.0,23.497560501098633
2016-09-01,25.8799991607666,25.81999969482422,25.81999969482422,25.875,2053.0,23.565868377685547
2016-09-02,26.04990005493164,26.04990005493164,26.04990005493164,26.04990005493164,461.0,23.72515869140625
2016-09-06,26.049999237060547,26.049999237060547,26.049999237060547,26.049999237060547,0.0,23.725248336791992
2016-09-07,26.459999084472656,26.389999389648438,26.450000762939453,26.40999984741211,4295.0,24.05312156677246
2016-09-08,26.319900512695312,26.290000915527344,26.290000915527344,26.319900512695312,1030.0,23.9710636138916
2016-09-09,26.139999389648438,25.860000610351562,26.139999389648438,25.860000610351562,248.0,23.552204132080078
2016-09-12,25.91990089416504,25.540000915527344,25.6200008392334,25.91990089416504,1098.0,23.606761932373047
2016-09-13,25.492300033569336,25.42959976196289,25.42959976196289,25.492300033569336,1380.0,23.21731948852539
2016-09-14,25.359899520874023,25.359899520874023,25.359899520874023,25.359899520874023,402.0,23.09673500061035
2016-09-15,25.510000228881836,25.46980094909668,25.509899139404297,25.510000228881836,1200.0,23.233440399169922
2016-09-16,25.459999084472656,25.459999084472656,25.459999084472656,25.459999084472656,234.0,23.18790054321289
2016-09-19,25.558000564575195,25.459999084472656,25.459999084472656,25.520000457763672,759.0,23.2425479888916
2016-09-20,25.524999618530273,25.440000534057617,25.524999618530273,25.459999084472656,2696.0,23.18790054321289
2016-09-21,25.65999984741211,25.659900665283203,25.65999984741211,25.65999984741211,763.0,23.370054244995117
2016-09-22,26.280000686645508,26.209999084472656,26.209999084472656,26.219999313354492,2608.0,23.880077362060547
2016-09-23,26.219999313354492,26.219999313354492,26.219999313354492,26.219999313354492,0.0,23.880077362060547
2016-09-26,26.219999313354492,26.219999313354492,26.219999313354492,26.219999313354492,0.0,23.880077362060547
2016-09-27,26.219999313354492,26.219999313354492,26.219999313354492,26.219999313354492,0.0,23.880077362060547
2016-09-28,25.825000762939453,25.825000762939453,25.825000762939453,25.825000762939453,197.0,23.52033042907715
2016-09-29,25.969900131225586,25.969900131225586,25.969900131225586,25.969900131225586,420.0,23.652297973632812
2016-09-30,25.81999969482422,25.81999969482422,25.81999969482422,25.81999969482422,104.0,23.515775680541992
2016-10-03,25.81999969482422,25.81999969482422,25.81999969482422,25.81999969482422,0.0,23.515775680541992
2016-10-04,25.81999969482422,25.81999969482422,25.81999969482422,25.81999969482422,0.0,23.515775680541992
2016-10-05,25.759899139404297,25.759899139404297,25.759899139404297,25.759899139404297,163.0,23.46103858947754
2016-10-06,25.780000686645508,25.739999771118164,25.739999771118164,25.75,416.0,23.4520206451416
2016-10-07,25.75,25.75,25.75,25.75,0.0,23.4520206451416
2016-10-10,25.719200134277344,25.719200134277344,25.719200134277344,25.719200134277344,236.0,23.423969268798828
2016-10-11,25.7189998626709,25.7189998626709,25.7189998626709,25.7189998626709,0.0,23.42378807067871
2016-10-12,25.7189998626709,25.7189998626709,25.7189998626709,25.7189998626709,0.0,23.42378807067871
2016-10-13,25.139999389648438,25.13170051574707,25.139999389648438,25.13170051574707,980.0,22.888900756835938
2016-10-14,25.131999969482422,25.131999969482422,25.131999969482422,25.131999969482422,0.0,22.88917350769043
2016-10-17,25.131999969482422,25.131999969482422,25.131999969482422,25.131999969482422,0.0,22.88917350769043
2016-10-18,25.32900047302246,25.319000244140625,25.32900047302246,25.319000244140625,300.0,23.059486389160156
2016-10-19,25.5,25.43000030517578,25.43000030517578,25.479999542236328,813.0,23.20611572265625
2016-10-20,25.479999542236328,25.399999618530273,25.469999313354492,25.459999084472656,1395.0,23.18790054321289
2016-10-21,25.32040023803711,25.32040023803711,25.32040023803711,25.32040023803711,171.0,23.060760498046875
2016-10-24,25.31999969482422,25.31999969482422,25.31999969482422,25.31999969482422,0.0,23.060396194458008
2016-10-25,25.31999969482422,25.31999969482422,25.31999969482422,25.31999969482422,0.0,23.060396194458008
2016-10-26,25.31999969482422,25.31999969482422,25.31999969482422,25.31999969482422,0.0,23.060396194458008
2016-10-27,25.149999618530273,25.139999389648438,25.139999389648438,25.149999618530273,963.0,22.90556526184082
2016-10-28,25.149999618530273,25.149999618530273,25.149999618530273,25.149999618530273,0.0,22.90556526184082
2016-10-31,24.83919906616211,24.83919906616211,24.83919906616211,24.83919906616211,522.0,22.62250328063965
2016-11-01,24.839000701904297,24.839000701904297,24.839000701904297,24.839000701904297,0.0,22.6223201751709
2016-11-02,24.84000015258789,24.700000762939453,24.760000228881836,24.700000762939453,2199.0,22.4957275390625
2016-11-03,24.700000762939453,24.700000762939453,24.700000762939453,24.700000762939453,0.0,22.4957275390625
2016-11-04,24.700000762939453,24.700000762939453,24.700000762939453,24.700000762939453,0.0,22.4957275390625
2016-11-07,24.680999755859375,24.649999618530273,24.649999618530273,24.680999755859375,400.0,22.47842025756836
2016-11-08,24.860599517822266,24.829999923706055,24.829999923706055,24.860599517822266,4619.0,22.64199447631836
2016-11-09,24.989999771118164,24.739999771118164,24.81999969482422,24.989900588989258,2065.0,22.759756088256836
2016-11-10,24.940000534057617,24.940000534057617,24.940000534057617,24.940000534057617,135.0,22.714309692382812
2016-11-11,24.52039909362793,24.440099716186523,24.52039909362793,24.440099716186523,584.0,22.25901985168457
2016-11-14,24.150299072265625,24.134000778198242,24.150299072265625,24.134000778198242,597.0,21.98023796081543
2016-11-15,24.239999771118164,24.200000762939453,24.200000762939453,24.239999771118164,4212.0,22.0767765045166
2016-11-16,24.131000518798828,24.131000518798828,24.131000518798828,24.131000518798828,264.0,21.97750473022461
2016-11-17,24.140300750732422,24.123699188232422,24.140300750732422,24.123699188232422,537.0,21.970855712890625
2016-11-18,24.124000549316406,24.124000549316406,24.124000549316406,24.124000549316406,100.0,21.97113037109375
2016-11-21,24.124000549316406,24.124000549316406,24.124000549316406,24.124000549316406,0.0,21.97113037109375
2016-11-22,24.459999084472656,24.459999084472656,24.459999084472656,24.459999084472656,675.0,22.277141571044922
2016-11-23,24.459999084472656,24.459999084472656,24.459999084472656,24.459999084472656,0.0,22.277141571044922
2016-11-25,24.350000381469727,24.34119987487793,24.350000381469727,24.34119987487793,2930.0,22.168947219848633
2016-11-28,24.340999603271484,24.340999603271484,24.340999603271484,24.340999603271484,0.0,22.168764114379883
2016-11-29,24.31999969482422,24.299999237060547,24.299999237060547,24.309999465942383,1432.0,22.140531539916992
2016-11-30,24.360000610351562,24.360000610351562,24.360000610351562,24.360000610351562,2004.0,22.18606948852539
2016-12-01,24.307199478149414,24.307199478149414,24.307199478149414,24.307199478149414,152.0,22.13797950744629
2016-12-02,24.399999618530273,24.290000915527344,24.290000915527344,24.329999923706055,3136.0,22.15874671936035
2016-12-05,24.58970069885254,24.58970069885254,24.58970069885254,24.58970069885254,168.0,22.3952693939209
2016-12-06,24.719999313354492,24.549999237060547,24.549999237060547,24.719999313354492,1410.0,22.513940811157227
2016-12-07,24.719999313354492,24.719999313354492,24.719999313354492,24.719999313354492,0.0,22.513940811157227
2016-12-08,24.959999084472656,24.95170021057129,24.959999084472656,24.95170021057129,1160.0,22.724964141845703
2016-12-09,24.95199966430664,24.95199966430664,24.95199966430664,24.95199966430664,0.0,22.725236892700195
2016-12-12,25.030000686645508,25.010000228881836,25.030000686645508,25.010000228881836,2000.0,22.778060913085938
2016-12-13,25.350000381469727,25.33919906616211,25.350000381469727,25.33919906616211,411.0,23.077880859375
2016-12-14,25.339000701904297,25.339000701904297,25.339000701904297,25.339000701904297,0.0,23.077701568603516
2016-12-15,24.850000381469727,24.770000457763672,24.770000457763672,24.799999237060547,2070.0,22.586801528930664
2016-12-16,24.78019905090332,24.649999618530273,24.780000686645508,24.78019905090332,967.0,22.568767547607422
2016-12-19,24.780000686645508,24.780000686645508,24.780000686645508,24.780000686645508,0.0,22.568588256835938
2016-12-20,24.780000686645508,24.780000686645508,24.780000686645508,24.780000686645508,0.0,22.568588256835938
2016-12-21,24.780000686645508,24.780000686645508,24.780000686645508,24.780000686645508,0.0,22.568588256835938
2016-12-22,24.8799991607666,24.82990074157715,24.8799991607666,24.82990074157715,491.0,22.61403465270996
2016-12-23,24.260000228881836,24.09000015258789,24.260000228881836,24.149999618530273,825.0,22.67986488342285
2016-12-27,24.18869972229004,23.99720001220703,24.139999389648438,24.159000396728516,3368.0,22.688318252563477
2016-12-28,24.1200008392334,24.075599670410156,24.117799758911133,24.075599670410156,1120.0,22.609994888305664
2016-12-29,24.076000213623047,24.076000213623047,24.076000213623047,24.076000213623047,0.0,22.610368728637695
2016-12-30,24.329999923706055,24.210599899291992,24.320600509643555,24.219999313354492,1003.0,22.745603561401367
2017-01-03,24.34000015258789,24.329200744628906,24.34000015258789,24.329200744628906,1109.0,22.84815788269043
2017-01-04,24.6210994720459,24.590200424194336,24.600000381469727,24.6210994720459,1494.0,23.122285842895508
2017-01-05,24.893699645996094,24.893699645996094,24.893699645996094,24.893699645996094,214.0,23.378292083740234
2017-01-06,25.0,24.819700241088867,25.0,24.819700241088867,278.0,23.30879783630371
2017-01-09,24.81999969482422,24.81999969482422,24.81999969482422,24.81999969482422,0.0,23.309078216552734
2017-01-10,24.809999465942383,24.74530029296875,24.760000228881836,24.74530029296875,3018.0,23.23892593383789
2017-01-11,24.889999389648438,24.729999542236328,24.729999542236328,24.889999389648438,960.0,23.37481689453125
2017-01-12,24.8700008392334,24.844999313354492,24.86079978942871,24.844999313354492,1040.0,23.332557678222656
2017-01-13,24.989999771118164,24.950000762939453,24.989999771118164,24.950000762939453,2169.0,23.43116569519043
2017-01-17,24.950000762939453,24.950000762939453,24.950000762939453,24.950000762939453,0.0,23.43116569519043
2017-01-18,24.80970001220703,24.80970001220703,24.80970001220703,24.80970001220703,361.0,23.299406051635742
2017-01-19,24.779800415039062,24.769699096679688,24.779800415039062,24.769699096679688,1148.0,23.2618408203125
2017-01-20,24.93000030517578,24.899999618530273,24.899999618530273,24.92959976196289,1033.0,23.41200828552246
2017-01-23,24.8799991607666,24.869699478149414,24.8799991607666,24.8700008392334,500.0,23.356035232543945
2017-01-24,24.920000076293945,24.920000076293945,24.920000076293945,24.920000076293945,155.0,23.402990341186523
2017-01-25,25.100000381469727,25.024599075317383,25.100000381469727,25.07539939880371,19061.0,23.548931121826172
2017-01-26,25.04990005493164,25.04990005493164,25.04990005493164,25.04990005493164,161.0,23.52498435974121
2017-01-27,25.049999237060547,25.049999237060547,25.049999237060547,25.049999237060547,0.0,23.525075912475586
2017-01-30,24.81999969482422,24.798099517822266,24.81999969482422,24.809999465942383,810.0,23.299686431884766
2017-01-31,24.853300094604492,24.853300094604492,24.853300094604492,24.853300094604492,244.0,23.34035301208496
2017-02-01,24.85300064086914,24.85300064086914,24.85300064086914,24.85300064086914,0.0,23.340070724487305
2017-02-02,25.079999923706055,25.00119972229004,25.059999465942383,25.00119972229004,3410.0,23.479248046875
2017-02-03,25.149999618530273,25.14900016784668,25.14929962158203,25.14929962158203,1700.0,23.618331909179688
2017-02-06,25.0,24.869400024414062,25.0,24.869400024414062,425.0,23.355470657348633
2017-02-07,24.868999481201172,24.868999481201172,24.868999481201172,24.868999481201172,0.0,23.35509490966797
2017-02-08,24.76740074157715,24.76740074157715,24.76740074157715,24.76740074157715,192.0,23.259681701660156
2017-02-09,25.030000686645508,25.005800247192383,25.030000686645508,25.005800247192383,678.0,23.48356819152832
2017-02-10,25.059999465942383,25.031400680541992,25.059999465942383,25.031400680541992,371.0,23.507610321044922
2017-02-13,25.1299991607666,25.1299991607666,25.1299991607666,25.1299991607666,240.0,23.60020637512207
2017-02-14,25.139999389648438,25.102399826049805,25.102399826049805,25.122699737548828,1654.0,23.593353271484375
2017-02-15,25.350000381469727,25.173900604248047,25.173900604248047,25.350000381469727,2376.0,23.80681610107422
2017-02-16,25.440000534057617,25.4148006439209,25.440000534057617,25.4148006439209,211.0,23.867671966552734
2017-02-17,25.275100708007812,25.275100708007812,25.275100708007812,25.275100708007812,103.0,23.736474990844727
2017-02-21,25.3700008392334,25.299999237060547,25.299999237060547,25.3700008392334,732.0,23.825599670410156
2017-02-22,25.3700008392334,25.3700008392334,25.3700008392334,25.3700008392334,0.0,23.825599670410156
2017-02-23,25.469999313354492,25.399999618530273,25.469999313354492,25.415000915527344,953.0,23.86785888671875
2017-02-24,25.270000457763672,25.239999771118164,25.239999771118164,25.270000457763672,3006.0,23.731685638427734
2017-02-27,25.260000228881836,25.237600326538086,25.239999771118164,25.237600326538086,304.0,23.701257705688477
2017-02-28,25.2189998626709,25.2189998626709,25.2189998626709,25.2189998626709,290.0,23.68379020690918
2017-03-01,25.450000762939453,25.447099685668945,25.450000762939453,25.447099685668945,287.0,23.89800453186035
2017-03-02,25.44700050354004,25.44700050354004,25.44700050354004,25.44700050354004,0.0,23.897911071777344
2017-03-03,25.389999389648438,25.270000457763672,25.270000457763672,25.389999389648438,965.0,23.84438133239746
2017-03-06,25.389999389648438,25.389999389648438,25.389999389648438,25.389999389648438,0.0,23.84438133239746
2017-03-07,25.1564998626709,25.1564998626709,25.1564998626709,25.1564998626709,565.0,23.62509536743164
2017-03-08,25.139999389648438,25.139999389648438,25.139999389648438,25.139999389648438,100.0,23.60959815979004
2017-03-09,25.139999389648438,25.139999389648438,25.139999389648438,25.139999389648438,0.0,23.60959815979004
2017-03-10,25.139999389648438,25.139999389648438,25.139999389648438,25.139999389648438,0.0,23.60959815979004
2017-03-13,25.139999389648438,25.139999389648438,25.139999389648438,25.139999389648438,0.0,23.60959815979004
2017-03-14,25.38599967956543,25.34000015258789,25.34000015258789,25.3700008392334,5809.0,23.825599670410156
2017-03-15,25.457399368286133,25.457399368286133,25.457399368286133,25.457399368286133,156.0,23.907676696777344
2017-03-16,25.850200653076172,25.850200653076172,25.850200653076172,25.850200653076172,246.0,24.276565551757812
2017-03-17,25.979999542236328,25.979999542236328,25.979999542236328,25.979999542236328,200.0,24.39846420288086
2017-03-20,25.889999389648438,25.862499237060547,25.881999969482422,25.889999389648438,3891.0,24.313941955566406
2017-03-21,25.81999969482422,25.79829978942871,25.81999969482422,25.79829978942871,2053.0,24.22782325744629
2017-03-22,25.64459991455078,25.62019920349121,25.64459991455078,25.62019920349121,399.0,24.060565948486328
2017-03-23,25.854799270629883,25.854799270629883,25.854799270629883,25.854799270629883,146.0,24.280885696411133
2017-03-24,25.8799991607666,25.8700008392334,25.8700008392334,25.8799991607666,600.0,24.30455207824707
2017-03-27,25.875999450683594,25.875999450683594,25.875999450683594,25.875999450683594,193.0,24.30079460144043
2017-03-28,26.059999465942383,26.059999465942383,26.059999465942383,26.059999465942383,1779.0,24.473594665527344
2017-03-29,26.110000610351562,26.083499908447266,26.100000381469727,26.083499908447266,1629.0,24.495662689208984
2017-03-30,26.083999633789062,26.083999633789062,26.083999633789062,26.083999633789062,0.0,24.496131896972656
2017-03-31,26.010000228881836,25.973899841308594,26.010000228881836,25.973899841308594,635.0,24.39273452758789
2017-04-03,25.974000930786133,25.974000930786133,25.974000930786133,25.974000930786133,0.0,24.39282989501953
2017-04-04,25.92620086669922,25.868600845336914,25.868600845336914,25.92620086669922,1578.0,24.347938537597656
2017-04-05,25.969999313354492,25.899999618530273,25.94409942626953,25.90999984741211,1107.0,24.332725524902344
2017-04-06,25.90999984741211,25.90999984741211,25.90999984741211,25.90999984741211,0.0,24.332725524902344
2017-04-07,25.86359977722168,25.86359977722168,25.86359977722168,25.86359977722168,550.0,24.28915023803711
2017-04-10,25.909900665283203,25.889999389648438,25.889999389648438,25.909900665283203,1402.0,24.332632064819336
2017-04-11,25.959999084472656,25.84000015258789,25.850000381469727,25.90239906311035,2309.0,24.325586318969727
2017-04-12,25.902000427246094,25.902000427246094,25.902000427246094,25.902000427246094,0.0,24.325214385986328
2017-04-13,25.839399337768555,25.784700393676758,25.839399337768555,25.784700393676758,780.0,24.21505355834961
2017-04-17,25.920000076293945,25.91990089416504,25.920000076293945,25.91990089416504,891.0,24.342023849487305
2017-04-18,25.879899978637695,25.770000457763672,25.799999237060547,25.879899978637695,5201.0,24.304458618164062
2017-04-19,25.78380012512207,25.78380012512207,25.78380012512207,25.78380012512207,359.0,24.214208602905273
2017-04-20,25.958999633789062,25.927900314331055,25.957000732421875,25.927900314331055,865.0,24.349536895751953
2017-04-21,25.857799530029297,25.857799530029297,25.857799530029297,25.857799530029297,144.0,24.283702850341797
2017-04-24,26.492300033569336,26.485000610351562,26.485000610351562,26.492300033569336,330.0,24.87957763671875
2017-04-25,26.645000457763672,26.510000228881836,26.510000228881836,26.645000457763672,618.0,25.022981643676758
2017-04-26,26.59000015258789,26.56800079345703,26.57990074157715,26.59000015258789,712.0,24.971330642700195
2017-04-27,26.590999603271484,26.567800521850586,26.567800521850586,26.590999603271484,566.0,24.97226905822754
2017-04-28,26.590999603271484,26.590999603271484,26.590999603271484,26.590999603271484,0.0,24.97226905822754
2017-05-01,26.70989990234375,26.650100708007812,26.682100296020508,26.70989990234375,2406.0,25.08393096923828
2017-05-02,26.799999237060547,26.787799835205078,26.799999237060547,26.787799835205078,289.0,25.157089233398438
2017-05-03,26.847700119018555,26.847700119018555,26.847700119018555,26.847700119018555,100.0,25.213342666625977
2017-05-04,27.020000457763672,26.8799991607666,26.8799991607666,27.020000457763672,1265.0,25.375154495239258
2017-05-05,27.33099937438965,27.33099937438965,27.33099937438965,27.33099937438965,100.0,25.667221069335938
2017-05-08,27.090700149536133,27.090099334716797,27.090099334716797,27.090700149536133,255.0,25.44154930114746
2017-05-09,27.139999389648438,27.09000015258789,27.139999389648438,27.09000015258789,3700.0,25.440893173217773
2017-05-10,27.2189998626709,27.18000030517578,27.198299407958984,27.2189998626709,1360.0,25.56203842163086
2017-05-11,27.142000198364258,27.142000198364258,27.142000198364258,27.142000198364258,259.0,25.489727020263672
2017-05-12,27.274999618530273,27.274999618530273,27.274999618530273,27.274999618530273,104.0,25.61463165283203
2017-05-15,27.477800369262695,27.477800369262695,27.477800369262695,27.477800369262695,212.0,25.805086135864258
2017-05-16,27.670000076293945,27.6299991607666,27.65999984741211,27.670000076293945,650.0,25.985584259033203
2017-05-17,27.40999984741211,27.299999237060547,27.40999984741211,27.299999237060547,2313.0,25.638107299804688
2017-05-18,27.239999771118164,27.239999771118164,27.239999771118164,27.239999771118164,291.0,25.58176040649414
2017-05-19,27.6299991607666,27.618900299072266,27.6299991607666,27.618900299072266,810.0,25.93759536743164
2017-05-22,27.6200008392334,27.6200008392334,27.6200008392334,27.6200008392334,308.0,25.938629150390625
2017-05-23,27.6200008392334,27.6200008392334,27.6200008392334,27.6200008392334,0.0,25.938629150390625
2017-05-24,27.75,27.649999618530273,27.649999618530273,27.75,903.0,26.060714721679688
2017-05-25,27.75,27.75,27.75,27.75,0.0,26.060714721679688
2017-05-26,27.63990020751953,27.63990020751953,27.63990020751953,27.63990020751953,629.0,25.957317352294922
2017-05-30,27.59000015258789,27.57990074157715,27.59000015258789,27.57990074157715,1529.0,25.900970458984375
2017-05-31,27.610000610351562,27.593399047851562,27.610000610351562,27.593399047851562,927.0,25.913646697998047
2017-06-01,27.593000411987305,27.593000411987305,27.593000411987305,27.593000411987305,0.0,25.913272857666016
2017-06-02,27.593000411987305,27.593000411987305,27.593000411987305,27.593000411987305,0.0,25.913272857666016
2017-06-05,27.979999542236328,27.940000534057617,27.969999313354492,27.979999542236328,651.0,26.27671241760254
2017-06-06,27.90999984741211,27.892900466918945,27.892900466918945,27.899999618530273,930.0,26.201581954956055
2017-06-07,27.959999084472656,27.81999969482422,27.959999084472656,27.860000610351562,1558.0,26.164018630981445
2017-06-08,27.860000610351562,27.860000610351562,27.860000610351562,27.860000610351562,0.0,26.164018630981445
2017-06-09,27.860000610351562,27.860000610351562,27.860000610351562,27.860000610351562,0.0,26.164018630981445
2017-06-12,27.860000610351562,27.860000610351562,27.860000610351562,27.860000610351562,0.0,26.164018630981445
2017-06-13,27.860000610351562,27.860000610351562,27.860000610351562,27.860000610351562,0.0,26.164018630981445
2017-06-14,27.9960994720459,27.977399826049805,27.9960994720459,27.977399826049805,302.0,26.274272918701172
2017-06-15,27.690000534057617,27.53260040283203,27.549999237060547,27.690000534057617,2443.0,26.00436782836914
2017-06-16,27.690000534057617,27.690000534057617,27.690000534057617,27.690000534057617,0.0,26.00436782836914
2017-06-19,27.690000534057617,27.690000534057617,27.690000534057617,27.690000534057617,0.0,26.00436782836914
2017-06-20,27.75,27.723400115966797,27.75,27.729000091552734,705.0,26.040992736816406
2017-06-21,27.709999084472656,27.68000030517578,27.709999084472656,27.690000534057617,1328.0,26.00436782836914
2017-06-22,27.770000457763672,27.770000457763672,27.770000457763672,27.770000457763672,100.0,26.079496383666992
2017-06-23,27.858800888061523,27.846900939941406,27.858800888061523,27.846900939941406,550.0,26.151718139648438
2017-06-26,27.847000122070312,27.847000122070312,27.847000122070312,27.847000122070312,0.0,26.151811599731445
2017-06-27,27.90999984741211,27.860000610351562,27.860000610351562,27.89310073852539,2368.0,26.195104598999023
2017-06-28,27.89299964904785,27.89299964904785,27.89299964904785,27.89299964904785,0.0,26.195009231567383
2017-06-29,27.89299964904785,27.89299964904785,27.89299964904785,27.89299964904785,0.0,26.195009231567383
2017-06-30,27.849899291992188,27.84000015258789,27.84000015258789,27.849899291992188,555.0,26.15453338623047
2017-07-03,27.850000381469727,27.850000381469727,27.850000381469727,27.850000381469727,0.0,26.154626846313477
2017-07-05,27.700300216674805,27.700300216674805,27.700300216674805,27.700300216674805,102.0,26.014039993286133
2017-07-06,27.6033992767334,27.6033992767334,27.6033992767334,27.6033992767334,233.0,25.923038482666016
2017-07-07,27.663400650024414,27.663400650024414,27.663400650024414,27.663400650024414,344.0,25.979387283325195
2017-07-10,27.663000106811523,27.663000106811523,27.663000106811523,27.663000106811523,0.0,25.97901153564453
2017-07-11,27.670000076293945,27.670000076293945,27.670000076293945,27.670000076293945,324.0,25.985584259033203
2017-07-12,28.059999465942383,28.049999237060547,28.059900283813477,28.059999465942383,1353.0,26.351844787597656
2017-07-13,28.059999465942383,28.059999465942383,28.059999465942383,28.059999465942383,0.0,26.351844787597656
2017-07-14,28.059999465942383,28.059999465942383,28.059999465942383,28.059999465942383,0.0,26.351844787597656
2017-07-17,28.15999984741211,28.15999984741211,28.15999984741211,28.15999984741211,254.0,26.445756912231445
2017-07-18,28.344499588012695,28.344499588012695,28.344499588012695,28.344499588012695,302.0,26.6190242767334
2017-07-19,28.540000915527344,28.489999771118164,28.489999771118164,28.52720069885254,584.0,26.790603637695312
2017-07-20,28.606199264526367,28.40999984741211,28.40999984741211,28.606199264526367,1213.0,26.86479377746582
2017-07-21,28.47949981689453,28.40999984741211,28.475000381469727,28.47949981689453,613.0,26.745807647705078
2017-07-24,28.44499969482422,28.44499969482422,28.44499969482422,28.44499969482422,136.0,26.71340560913086
2017-07-25,28.639999389648438,28.56999969482422,28.639999389648438,28.56999969482422,706.0,26.83079719543457
2017-07-26,28.75,28.577600479125977,28.610000610351562,28.749000549316406,1535.0,26.9989013671875
2017-07-27,28.670000076293945,28.65999984741211,28.670000076293945,28.65999984741211,1241.0,26.915319442749023
2017-07-28,28.719999313354492,28.656999588012695,28.700000762939453,28.719999313354492,1644.0,26.97166633605957
2017-07-31,28.790000915527344,28.68000030517578,28.692399978637695,28.790000915527344,1251.0,27.03740692138672
2017-08-01,28.790000915527344,28.790000915527344,28.790000915527344,28.790000915527344,200.0,27.03740692138672
2017-08-02,28.929000854492188,28.897199630737305,28.920000076293945,28.90999984741211,1236.0,27.150100708007812
2017-08-03,28.81329917907715,28.81329917907715,28.81329917907715,28.81329917907715,251.0,27.05928611755371
2017-08-04,28.729999542236328,28.68000030517578,28.68000030517578,28.729999542236328,6437.0,26.98105812072754
2017-08-07,28.670000076293945,28.670000076293945,28.670000076293945,28.670000076293945,292.0,26.924711227416992
2017-08-08,28.700000762939453,28.695199966430664,28.700000762939453,28.695199966430664,612.0,26.948375701904297
2017-08-09,28.695199966430664,28.695199966430664,28.695199966430664,28.695199966430664,0.0,26.948375701904297
2017-08-10,28.222299575805664,28.149999618530273,28.222299575805664,28.149999618530273,972.0,26.436365127563477
2017-08-11,28.149999618530273,28.149999618530273,28.149999618530273,28.149999618530273,100.0,26.436365127563477
2017-08-14,28.149999618530273,28.149999618530273,28.149999618530273,28.149999618530273,0.0,26.436365127563477
2017-08-15,28.149999618530273,28.149999618530273,28.149999618530273,28.149999618530273,0.0,26.436365127563477
2017-08-16,28.149999618530273,28.149999618530273,28.149999618530273,28.149999618530273,0.0,26.436365127563477
2017-08-17,28.149999618530273,28.149999618530273,28.149999618530273,28.149999618530273,0.0,26.436365127563477
2017-08-18,28.149999618530273,28.149999618530273,28.149999618530273,28.149999618530273,0.0,26.436365127563477
2017-08-21,28.389999389648438,28.310100555419922,28.389999389648438,28.310100555419922,2161.0,26.586719512939453
2017-08-22,28.310100555419922,28.310100555419922,28.310100555419922,28.310100555419922,0.0,26.586719512939453
2017-08-23,28.4596004486084,28.4596004486084,28.4596004486084,28.4596004486084,275.0,26.72711944580078
2017-08-24,28.4596004486084,28.4596004486084,28.4596004486084,28.4596004486084,0.0,26.72711944580078
2017-08-25,28.59269905090332,28.59269905090332,28.59269905090332,28.59269905090332,192.0,26.852115631103516
2017-08-28,28.6299991607666,28.6299991607666,28.6299991607666,28.6299991607666,311.0,26.887144088745117
2017-08-29,28.557199478149414,28.459999084472656,28.479999542236328,28.459999084472656,622.0,26.727493286132812
2017-08-30,28.469999313354492,28.469999313354492,28.469999313354492,28.469999313354492,143.0,26.73688507080078
2017-08-31,28.469999313354492,28.469999313354492,28.469999313354492,28.469999313354492,0.0,26.73688507080078
2017-09-01,28.469999313354492,28.469999313354492,28.469999313354492,28.469999313354492,0.0,26.73688507080078
2017-09-05,28.469499588012695,28.469499588012695,28.469499588012695,28.469499588012695,189.0,26.73641586303711
2017-09-06,28.469499588012695,28.469499588012695,28.469499588012695,28.469499588012695,0.0,26.73641586303711
2017-09-07,28.469499588012695,28.469499588012695,28.469499588012695,28.469499588012695,0.0,26.73641586303711
2017-09-08,28.985200881958008,28.985200881958008,28.985200881958008,28.985200881958008,141.0,27.22072410583496
2017-09-11,28.985200881958008,28.985200881958008,28.985200881958008,28.985200881958008,0.0,27.22072410583496
2017-09-12,28.985200881958008,28.985200881958008,28.985200881958008,28.985200881958008,0.0,27.22072410583496
2017-09-13,29.11669921875,28.957000732421875,29.11669921875,28.957000732421875,1336.0,27.194238662719727
2017-09-14,29.020000457763672,28.969999313354492,28.969999313354492,29.020000457763672,292.0,27.25340461730957
2017-09-15,29.048999786376953,29.034099578857422,29.034099578857422,29.048999786376953,392.0,27.280637741088867
2017-09-18,29.132099151611328,29.132099151611328,29.132099151611328,29.132099151611328,246.0,27.358678817749023
2017-09-19,29.208999633789062,29.208999633789062,29.208999633789062,29.208999633789062,157.0,27.430898666381836
2017-09-20,29.30500030517578,29.170000076293945,29.30500030517578,29.219999313354492,2676.0,27.44122886657715
2017-09-21,29.118999481201172,29.093399047851562,29.118999481201172,29.093399047851562,1140.0,27.32233428955078
2017-09-22,29.13629913330078,29.13629913330078,29.13629913330078,29.13629913330078,210.0,27.36262321472168
2017-09-25,29.0,28.989999771118164,29.0,28.989999771118164,699.0,27.225229263305664
2017-09-26,28.989999771118164,28.989999771118164,28.989999771118164,28.989999771118164,0.0,27.225229263305664
2017-09-27,28.8799991607666,28.860000610351562,28.860000610351562,28.87929916381836,576.0,27.12126922607422
2017-09-28,28.899999618530273,28.899999618530273,28.899999618530273,28.899999618530273,698.0,27.140708923339844
2017-09-29,29.026199340820312,28.9512996673584,28.999000549316406,29.026199340820312,601.0,27.259225845336914
2017-10-02,29.026199340820312,29.026199340820312,29.026199340820312,29.026199340820312,0.0,27.259225845336914
2017-10-03,29.15999984741211,29.139999389648438,29.139999389648438,29.15999984741211,264.0,27.3848819732666
2017-10-04,28.976900100708008,28.976900100708008,28.976900100708008,28.976900100708008,1149.0,27.212926864624023
2017-10-05,28.976900100708008,28.976900100708008,28.976900100708008,28.976900100708008,0.0,27.212926864624023
2017-10-06,28.976900100708008,28.976900100708008,28.976900100708008,28.976900100708008,0.0,27.212926864624023
2017-10-09,29.0,29.0,29.0,29.0,212.0,27.234621047973633
2017-10-10,29.0,29.0,29.0,29.0,0.0,27.234621047973633
2017-10-11,29.350000381469727,29.33880043029785,29.33880043029785,29.350000381469727,897.0,27.56331443786621
2017-10-12,29.350000381469727,29.350000381469727,29.350000381469727,29.350000381469727,0.0,27.56331443786621
2017-10-13,29.350000381469727,29.350000381469727,29.350000381469727,29.350000381469727,0.0,27.56331443786621
2017-10-16,29.520000457763672,29.459999084472656,29.520000457763672,29.459999084472656,519.0,27.66661834716797
2017-10-17,29.420000076293945,29.3799991607666,29.3799991607666,29.420000076293945,646.0,27.629053115844727
2017-10-18,29.56999969482422,29.459999084472656,29.459999084472656,29.54010009765625,6477.0,27.74184226989746
2017-10-19,29.420000076293945,29.420000076293945,29.420000076293945,29.420000076293945,205.0,27.629053115844727
2017-10-20,29.413400650024414,29.413400650024414,29.413400650024414,29.413400650024414,238.0,27.622854232788086
2017-10-23,29.43000030517578,29.366899490356445,29.43000030517578,29.366899490356445,1124.0,27.579185485839844
2017-10-24,29.366899490356445,29.366899490356445,29.366899490356445,29.366899490356445,0.0,27.579185485839844
2017-10-25,29.229999542236328,29.21310043334961,29.218799591064453,29.21310043334961,2490.0,27.434749603271484
2017-10-26,29.34000015258789,29.295799255371094,29.31999969482422,29.34000015258789,1441.0,27.553924560546875
2017-10-27,29.309999465942383,29.21339988708496,29.229999542236328,29.309999465942383,2008.0,27.52574920654297
2017-10-30,29.378999710083008,29.34600067138672,29.378999710083008,29.34600067138672,818.0,27.559558868408203
2017-10-31,29.479999542236328,29.458999633789062,29.479999542236328,29.458999633789062,4563.0,27.665678024291992
2017-11-01,29.610000610351562,29.56999969482422,29.610000610351562,29.575000762939453,1400.0,27.774620056152344
2017-11-02,29.524999618530273,29.497299194335938,29.524999618530273,29.497299194335938,397.0,27.70164680480957
2017-11-03,29.45800018310547,29.452600479125977,29.45800018310547,29.452600479125977,398.0,27.659669876098633
2017-11-06,29.59000015258789,29.442699432373047,29.442699432373047,29.59000015258789,1368.0,27.78870391845703
2017-11-07,29.59000015258789,29.59000015258789,29.59000015258789,29.59000015258789,0.0,27.78870391845703
2017-11-08,29.579999923706055,29.556900024414062,29.579999923706055,29.556900024414062,2228.0,27.757619857788086
2017-11-09,29.288999557495117,29.288999557495117,29.288999557495117,29.288999557495117,211.0,27.506027221679688
2017-11-10,29.288999557495117,29.288999557495117,29.288999557495117,29.288999557495117,0.0,27.506027221679688
2017-11-13,29.2322998046875,29.16659927368164,29.16659927368164,29.2322998046875,555.0,27.45277976989746
2017-11-14,29.219999313354492,29.179899215698242,29.179899215698242,29.219999313354492,4369.0,27.44122886657715
2017-11-15,29.219999313354492,29.219999313354492,29.219999313354492,29.219999313354492,0.0,27.44122886657715
2017-11-16,29.219999313354492,29.19610023498535,29.19610023498535,29.219999313354492,915.0,27.44122886657715
2017-11-17,29.219999313354492,29.219999313354492,29.219999313354492,29.219999313354492,0.0,27.44122886657715
2017-11-20,29.209999084472656,29.209999084472656,29.209999084472656,29.209999084472656,390.0,27.43183708190918
2017-11-21,29.440000534057617,29.440000534057617,29.440000534057617,29.440000534057617,306.0,27.647836685180664
2017-11-22,29.530000686645508,29.469999313354492,29.530000686645508,29.479999542236328,706.0,27.685400009155273
2017-11-24,29.479999542236328,29.479999542236328,29.479999542236328,29.479999542236328,0.0,27.685400009155273
2017-11-27,29.592300415039062,29.592300415039062,29.592300415039062,29.592300415039062,163.0,27.790864944458008
2017-11-28,29.670000076293945,29.459999084472656,29.459999084472656,29.670000076293945,877.0,27.863834381103516
2017-11-29,29.55299949645996,29.54669952392578,29.54669952392578,29.55299949645996,680.0,27.753957748413086
2017-11-30,29.55299949645996,29.55299949645996,29.55299949645996,29.55299949645996,0.0,27.753957748413086
2017-12-01,29.587600708007812,29.587600708007812,29.587600708007812,29.587600708007812,535.0,27.786453247070312
2017-12-04,29.587600708007812,29.587600708007812,29.587600708007812,29.587600708007812,0.0,27.786453247070312
2017-12-05,29.520000457763672,29.4773006439209,29.508800506591797,29.519899368286133,880.0,27.722871780395508
2017-12-06,29.310100555419922,29.310100555419922,29.310100555419922,29.310100555419922,208.0,27.52584457397461
2017-12-07,29.440000534057617,29.34000015258789,29.34000015258789,29.440000534057617,702.0,27.647836685180664
2017-12-08,29.440000534057617,29.440000534057617,29.440000534057617,29.440000534057617,0.0,27.647836685180664
2017-12-11,29.649999618530273,29.5,29.5,29.62339973449707,1338.0,27.820072174072266
2017-12-12,29.62339973449707,29.62339973449707,29.62339973449707,29.62339973449707,0.0,27.820072174072266
2017-12-13,29.73509979248047,29.73509979248047,29.73509979248047,29.73509979248047,300.0,27.924972534179688
2017-12-14,29.799999237060547,29.776899337768555,29.799999237060547,29.782400131225586,787.0,27.969392776489258
2017-12-15,29.670000076293945,29.590999603271484,29.590999603271484,29.670000076293945,909.0,27.863834381103516
2017-12-18,29.93910026550293,29.93910026550293,29.93910026550293,29.93910026550293,180.0,28.116554260253906
2017-12-19,29.802600860595703,29.802600860595703,29.802600860595703,29.802600860595703,400.0,27.98836326599121
2017-12-20,29.790000915527344,29.780000686645508,29.780000686645508,29.790000915527344,773.0,27.976530075073242
2017-12-21,29.969999313354492,29.969999313354492,29.969999313354492,29.969999313354492,129.0,28.145570755004883
2017-12-22,29.969999313354492,29.969999313354492,29.969999313354492,29.969999313354492,0.0,28.145570755004883
2017-12-26,29.450000762939453,29.450000762939453,29.450000762939453,29.450000762939453,565.0,28.091203689575195
2017-12-27,29.549999237060547,29.549999237060547,29.549999237060547,29.549999237060547,720.0,28.186588287353516
2017-12-28,29.63990020751953,29.613300323486328,29.613300323486328,29.63990020751953,765.0,28.272340774536133
2017-12-29,29.68000030517578,29.68000030517578,29.68000030517578,29.68000030517578,535.0,28.310590744018555
2018-01-02,29.68000030517578,29.68000030517578,29.68000030517578,29.68000030517578,0.0,28.310590744018555
2018-01-03,29.68000030517578,29.68000030517578,29.68000030517578,29.68000030517578,0.0,28.310590744018555
2018-01-04,30.32740020751953,30.260000228881836,30.309999465942383,30.32740020751953,1034.0,28.92812156677246
2018-01-05,30.32740020751953,30.32740020751953,30.32740020751953,30.32740020751953,0.0,28.92812156677246
2018-01-08,30.32740020751953,30.32740020751953,30.32740020751953,30.32740020751953,0.0,28.92812156677246
2018-01-09,30.44339942932129,30.401500701904297,30.41900062561035,30.44339942932129,1158.0,29.038766860961914
2018-01-10,30.44339942932129,30.44339942932129,30.44339942932129,30.44339942932129,0.0,29.038766860961914
2018-01-11,30.518999099731445,30.500499725341797,30.518999099731445,30.500499725341797,1226.0,29.093233108520508
2018-01-12,30.809999465942383,30.600000381469727,30.600000381469727,30.799999237060547,775.0,29.37891387939453
2018-01-16,30.889999389648438,30.84000015258789,30.889999389648438,30.84000015258789,878.0,29.417070388793945
2018-01-17,30.894899368286133,30.862199783325195,30.862199783325195,30.894899368286133,343.0,29.469436645507812
2018-01-18,30.850000381469727,30.798900604248047,30.850000381469727,30.798900604248047,377.0,29.377866744995117
2018-01-19,30.798900604248047,30.798900604248047,30.798900604248047,30.798900604248047,0.0,29.377866744995117
2018-01-22,31.065000534057617,31.049999237060547,31.065000534057617,31.049999237060547,367.0,29.617380142211914
2018-01-23,31.239999771118164,31.1427001953125,31.239999771118164,31.200000762939453,54399.0,29.760459899902344
2018-01-24,31.350000381469727,31.317100524902344,31.350000381469727,31.317100524902344,906.0,29.872156143188477
2018-01-25,31.424999237060547,31.35770034790039,31.377399444580078,31.399999618530273,783.0,29.951231002807617
2018-01-26,31.489900588989258,31.389999389648438,31.42799949645996,31.47010040283203,2527.0,30.018096923828125
2018-01-29,31.25,31.225500106811523,31.25,31.225500106811523,375.0,29.78478240966797
2018-01-30,30.924999237060547,30.924999237060547,30.924999237060547,30.924999237060547,401.0,29.498146057128906
2018-01-31,30.924999237060547,30.924999237060547,30.924999237060547,30.924999237060547,0.0,29.498146057128906
2018-02-01,31.059999465942383,31.059900283813477,31.059999465942383,31.059900283813477,233.0,29.62682342529297
2018-02-02,30.719999313354492,30.489999771118164,30.719999313354492,30.5,1921.0,29.092756271362305
2018-02-05,30.100000381469727,30.100000381469727,30.100000381469727,30.100000381469727,239.0,28.711212158203125
2018-02-06,29.010000228881836,29.010000228881836,29.010000228881836,29.010000228881836,650.0,27.671504974365234
2018-02-07,29.77739906311035,29.559999465942383,29.77739906311035,29.559999465942383,676.0,28.19612693786621
2018-02-08,29.360000610351562,28.700000762939453,29.350000381469727,28.700000762939453,1200.0,27.375808715820312
2018-02-09,28.367700576782227,28.367700576782227,28.367700576782227,28.367700576782227,186.0,27.058839797973633
2018-02-12,29.170000076293945,29.13559913635254,29.13559913635254,29.170000076293945,365.0,27.824121475219727
2018-02-13,29.170000076293945,29.170000076293945,29.170000076293945,29.170000076293945,0.0,27.824121475219727
2018-02-14,29.65690040588379,29.3572998046875,29.3572998046875,29.65690040588379,890.0,28.288557052612305
2018-02-15,29.878799438476562,29.745100021362305,29.850000381469727,29.878799438476562,2849.0,28.50021743774414
2018-02-16,29.977800369262695,29.977800369262695,29.977800369262695,29.977800369262695,227.0,28.594650268554688
2018-02-20,29.920000076293945,29.916500091552734,29.920000076293945,29.916500091552734,368.0,28.536178588867188
2018-02-21,29.849899291992188,29.700000762939453,29.849899291992188,29.729999542236328,1039.0,28.35828399658203
2018-02-22,29.759000778198242,29.729999542236328,29.759000778198242,29.729999542236328,438.0,28.35828399658203
2018-02-23,30.040000915527344,30.040000915527344,30.040000915527344,30.040000915527344,130.0,28.653982162475586
2018-02-26,30.23979949951172,30.23979949951172,30.23979949951172,30.23979949951172,177.0,28.844562530517578
2018-02-27,30.059999465942383,29.899999618530273,30.059999465942383,29.899999618530273,532.0,28.52043914794922
2018-02-28,29.683700561523438,29.683700561523438,29.683700561523438,29.683700561523438,261.0,28.31412124633789
2018-03-01,29.350000381469727,29.093399047851562,29.350000381469727,29.110000610351562,893.0,27.766891479492188
2018-03-02,29.1200008392334,29.1200008392334,29.1200008392334,29.1200008392334,156.0,27.776430130004883
2018-03-05,29.43000030517578,29.040000915527344,29.040000915527344,29.43000030517578,2047.0,28.072126388549805
2018-03-06,29.530000686645508,29.530000686645508,29.530000686645508,29.530000686645508,175.0,28.167512893676758
2018-03-07,29.6200008392334,29.46649932861328,29.46649932861328,29.6200008392334,956.0,28.253360748291016
2018-03-08,29.709999084472656,29.709999084472656,29.709999084472656,29.709999084472656,135.0,28.33920669555664
2018-03-09,29.93000030517578,29.76689910888672,29.76689910888672,29.93000030517578,1466.0,28.549057006835938
2018-03-12,29.96500015258789,29.94379997253418,29.96500015258789,29.94379997253418,312.0,28.562219619750977
2018-03-13,30.059999465942383,29.860000610351562,30.059999465942383,29.860000610351562,390.0,28.48228645324707
2018-03-14,29.90999984741211,29.759300231933594,29.90999984741211,29.759300231933594,1400.0,28.386232376098633
2018-03-15,29.82379913330078,29.81999969482422,29.81999969482422,29.82379913330078,398.0,28.447755813598633
2018-03-16,29.725000381469727,29.690000534057617,29.709999084472656,29.725000381469727,690.0,28.353515625
2018-03-19,29.563199996948242,29.426599502563477,29.563199996948242,29.426599502563477,437.0,28.06888198852539
2018-03-20,29.42009925842285,29.42009925842285,29.42009925842285,29.42009925842285,144.0,28.062681198120117
2018-03-21,29.43000030517578,29.405500411987305,29.40999984741211,29.405500411987305,867.0,28.048755645751953
2018-03-22,29.213699340820312,29.213699340820312,29.213699340820312,29.213699340820312,363.0,27.86580467224121
2018-03-23,29.040000915527344,28.940000534057617,29.040000915527344,28.940000534057617,446.0,27.604734420776367
2018-03-26,28.96030044555664,28.959999084472656,28.960100173950195,28.96030044555664,500.0,27.62409782409668
2018-03-27,28.96030044555664,28.96030044555664,28.96030044555664,28.96030044555664,0.0,27.62409782409668
2018-03-28,29.073400497436523,28.979999542236328,28.979999542236328,29.06730079650879,588.0,27.72616195678711
2018-03-29,29.25480079650879,29.149999618530273,29.15999984741211,29.25480079650879,1968.0,27.905010223388672
2018-04-02,29.209999084472656,28.86370086669922,29.209999084472656,28.86370086669922,682.0,27.53195571899414
2018-04-03,29.1299991607666,29.1299991607666,29.1299991607666,29.1299991607666,241.0,27.785966873168945
2018-04-04,29.1299991607666,29.1299991607666,29.1299991607666,29.1299991607666,0.0,27.785966873168945
2018-04-05,29.377199172973633,29.377199172973633,29.377199172973633,29.377199172973633,525.0,28.021760940551758
2018-04-06,29.39299964904785,29.15999984741211,29.31599998474121,29.15999984741211,2500.0,27.81458282470703
2018-04-09,29.420000076293945,29.393400192260742,29.420000076293945,29.393400192260742,238.0,28.037214279174805
2018-04-10,29.393400192260742,29.393400192260742,29.393400192260742,29.393400192260742,0.0,28.037214279174805
2018-04-11,29.393400192260742,29.393400192260742,29.393400192260742,29.393400192260742,0.0,28.037214279174805
2018-04-12,29.729999542236328,29.700000762939453,29.700000762939453,29.729999542236328,1091.0,28.35828399658203
2018-04-13,29.729999542236328,29.729999542236328,29.729999542236328,29.729999542236328,0.0,28.35828399658203
2018-04-16,29.722700119018555,29.722700119018555,29.722700119018555,29.722700119018555,286.0,28.351320266723633
2018-04-17,29.8700008392334,29.8700008392334,29.8700008392334,29.8700008392334,432.0,28.491825103759766
2018-04-18,29.8700008392334,29.8700008392334,29.8700008392334,29.8700008392334,0.0,28.491825103759766
2018-04-19,29.8700008392334,29.8700008392334,29.8700008392334,29.8700008392334,0.0,28.491825103759766
2018-04-20,29.845300674438477,29.845300674438477,29.845300674438477,29.845300674438477,411.0,28.468265533447266
2018-04-23,29.845300674438477,29.845300674438477,29.845300674438477,29.845300674438477,0.0,28.468265533447266
2018-04-24,29.920000076293945,29.649999618530273,29.920000076293945,29.649999618530273,2159.0,28.28197479248047
2018-04-25,29.6299991607666,29.6299991607666,29.6299991607666,29.6299991607666,338.0,28.262897491455078
2018-04-26,29.91900062561035,29.790000915527344,29.790000915527344,29.84000015258789,765.0,28.46320915222168
2018-04-27,29.8799991607666,29.8799991607666,29.8799991607666,29.8799991607666,100.0,28.501361846923828
2018-04-30,30.009000778198242,29.879899978637695,29.947200775146484,29.8799991607666,1457.0,28.501361846923828
2018-05-01,29.760000228881836,29.665300369262695,29.670799255371094,29.7549991607666,1916.0,28.382129669189453
2018-05-02,29.893400192260742,29.858800888061523,29.860000610351562,29.8700008392334,579.0,28.491825103759766
2018-05-03,29.8700008392334,29.8700008392334,29.8700008392334,29.8700008392334,0.0,28.491825103759766
2018-05-04,29.81760025024414,29.81760025024414,29.81760025024414,29.81760025024414,237.0,28.441843032836914
2018-05-07,30.059999465942383,30.025699615478516,30.059999465942383,30.025699615478516,740.0,28.64034080505371
2018-05-08,29.866899490356445,29.866899490356445,29.866899490356445,29.866899490356445,623.0,28.488866806030273
2018-05-09,29.866899490356445,29.866899490356445,29.866899490356445,29.866899490356445,0.0,28.488866806030273
2018-05-10,30.2450008392334,30.177900314331055,30.177900314331055,30.2450008392334,248.0,28.849523544311523
2018-05-11,30.2450008392334,30.2450008392334,30.2450008392334,30.2450008392334,0.0,28.849523544311523
2018-05-14,30.389999389648438,30.378799438476562,30.378799438476562,30.389999389648438,508.0,28.987831115722656
2018-05-15,30.0,29.940000534057617,30.0,30.0,537.0,28.615825653076172
2018-05-16,30.110000610351562,30.110000610351562,30.110000610351562,30.110000610351562,157.0,28.72075080871582
2018-05-17,30.110000610351562,30.110000610351562,30.110000610351562,30.110000610351562,0.0,28.72075080871582
2018-05-18,30.059999465942383,30.010000228881836,30.010000228881836,30.059999465942383,336.0,28.673057556152344
2018-05-21,30.100000381469727,30.100000381469727,30.100000381469727,30.100000381469727,234.0,28.711212158203125
2018-05-22,30.159900665283203,30.110000610351562,30.159900665283203,30.110000610351562,332.0,28.72075080871582
2018-05-23,29.829999923706055,29.7987003326416,29.829999923706055,29.7987003326416,571.0,28.42381477355957
2018-05-24,29.8700008392334,29.790000915527344,29.8700008392334,29.81399917602539,3878.0,28.43840789794922
2018-05-25,29.690000534057617,29.690000534057617,29.690000534057617,29.690000534057617,421.0,28.32012939453125
2018-05-29,29.266300201416016,29.266300201416016,29.266300201416016,29.266300201416016,220.0,27.915979385375977
2018-05-30,29.437400817871094,29.437400817871094,29.437400817871094,29.437400817871094,943.0,28.079185485839844
2018-05-31,29.437400817871094,29.437400817871094,29.437400817871094,29.437400817871094,0.0,28.079185485839844
2018-06-01,29.437400817871094,29.437400817871094,29.437400817871094,29.437400817871094,0.0,28.079185485839844
2018-06-04,29.437400817871094,29.437400817871094,29.437400817871094,29.437400817871094,0.0,28.079185485839844
2018-06-05,29.719999313354492,29.71269989013672,29.71269989013672,29.719999313354492,1554.0,28.348745346069336
2018-06-06,29.719999313354492,29.719999313354492,29.719999313354492,29.719999313354492,0.0,28.348745346069336
2018-06-07,29.719999313354492,29.719999313354492,29.719999313354492,29.719999313354492,0.0,28.348745346069336
2018-06-08,29.719999313354492,29.719999313354492,29.719999313354492,29.719999313354492,0.0,28.348745346069336
2018-06-11,30.139999389648438,30.00279998779297,30.00279998779297,30.139999389648438,2070.0,28.749366760253906
2018-06-12,30.109899520874023,30.109899520874023,30.109899520874023,30.109899520874023,184.0,28.72065544128418
2018-06-13,30.05270004272461,30.02989959716797,30.02989959716797,30.05270004272461,686.0,28.666095733642578
2018-06-14,29.96619987487793,29.96619987487793,29.96619987487793,29.96619987487793,1786.0,28.583585739135742
2018-06-15,29.780000686645508,29.760000228881836,29.780000686645508,29.780000686645508,1501.0,28.405977249145508
2018-06-18,29.540000915527344,29.440399169921875,29.440399169921875,29.540000915527344,537.0,28.177051544189453
2018-06-19,29.309999465942383,29.15999984741211,29.15999984741211,29.309999465942383,2340.0,27.95766258239746
2018-06-20,29.3799991607666,29.360000610351562,29.360000610351562,29.3799991607666,1700.0,28.024431228637695
2018-06-21,29.260000228881836,29.110000610351562,29.110000610351562,29.260000228881836,3466.0,27.909969329833984
2018-06-22,29.459999084472656,29.459999084472656,29.459999084472656,29.459999084472656,395.0,28.100740432739258
2018-06-25,28.969999313354492,28.969999313354492,28.969999313354492,28.969999313354492,189.0,27.63334846496582
2018-06-26,29.2544002532959,29.059999465942383,29.059999465942383,29.2544002532959,2449.0,27.90462875366211
2018-06-27,29.22879981994629,29.22879981994629,29.22879981994629,29.22879981994629,404.0,27.88020896911621
2018-06-28,29.22879981994629,29.22879981994629,29.22879981994629,29.22879981994629,0.0,27.88020896911621
2018-06-29,29.22879981994629,29.22879981994629,29.22879981994629,29.22879981994629,0.0,27.88020896911621
2018-07-02,28.8799991607666,28.8700008392334,28.8700008392334,28.8799991607666,724.0,27.547500610351562
2018-07-03,29.149999618530273,29.139999389648438,29.139999389648438,29.149999618530273,507.0,27.805044174194336
2018-07-05,29.287099838256836,29.260000228881836,29.260000228881836,29.287099838256836,302.0,27.935819625854492
2018-07-06,29.459999084472656,29.438199996948242,29.459999084472656,29.43829917907715,896.0,28.080041885375977
2018-07-09,29.43829917907715,29.43829917907715,29.43829917907715,29.43829917907715,0.0,28.080041885375977
2018-07-10,29.799999237060547,29.766199111938477,29.766199111938477,29.799999237060547,1606.0,28.425052642822266
2018-07-11,29.516199111938477,29.489999771118164,29.489999771118164,29.516199111938477,1429.0,28.154348373413086
2018-07-12,29.510000228881836,29.5,29.5,29.510000228881836,1397.0,28.148435592651367
2018-07-13,29.510000228881836,29.510000228881836,29.510000228881836,29.510000228881836,0.0,28.148435592651367
2018-07-16,29.530000686645508,29.510000228881836,29.516300201416016,29.530000686645508,1613.0,28.167512893676758
2018-07-17,29.540000915527344,29.540000915527344,29.540000915527344,29.540000915527344,469.0,28.177051544189453
2018-07-18,29.540000915527344,29.540000915527344,29.540000915527344,29.540000915527344,0.0,28.177051544189453
2018-07-19,29.469999313354492,29.36639976501465,29.3799991607666,29.469999313354492,2678.0,28.110279083251953
2018-07-20,29.6200008392334,29.6200008392334,29.6200008392334,29.6200008392334,600.0,28.253360748291016
2018-07-23,29.61989974975586,29.61989974975586,29.61989974975586,29.61989974975586,278.0,28.253263473510742
2018-07-24,29.690000534057617,29.659000396728516,29.659000396728516,29.690000534057617,639.0,28.32012939453125
2018-07-25,29.790000915527344,29.770000457763672,29.770000457763672,29.790000915527344,1255.0,28.415515899658203
2018-07-26,29.868000030517578,29.760000228881836,29.868000030517578,29.760000228881836,1778.0,28.386899948120117
2018-07-27,29.9862003326416,29.860000610351562,29.889999389648438,29.860000610351562,1322.0,28.48228645324707
2018-07-30,30.030000686645508,29.959999084472656,30.0,29.959999084472656,367.0,28.57767105102539
2018-07-31,29.979000091552734,29.95560073852539,29.979000091552734,29.95560073852539,691.0,28.573474884033203
2018-08-01,29.860000610351562,29.79010009765625,29.799999237060547,29.79010009765625,1285.0,28.415611267089844
2018-08-02,29.6299991607666,29.520000457763672,29.520000457763672,29.6299991607666,541.0,28.262897491455078
2018-08-03,29.6299991607666,29.6299991607666,29.6299991607666,29.6299991607666,0.0,28.262897491455078
2018-08-06,29.670000076293945,29.540000915527344,29.540000915527344,29.670000076293945,475.0,28.30105209350586
2018-08-07,29.84000015258789,29.81999969482422,29.81999969482422,29.84000015258789,861.0,28.46320915222168
2018-08-08,29.84000015258789,29.709999084472656,29.709999084472656,29.809999465942383,1422.0,28.434593200683594
2018-08-09,29.809999465942383,29.809999465942383,29.809999465942383,29.809999465942383,0.0,28.434593200683594
2018-08-10,29.110000610351562,29.110000610351562,29.110000610351562,29.110000610351562,296.0,27.766891479492188
2018-08-13,29.1200008392334,29.0,29.06999969482422,29.0,431.0,27.66196632385254
2018-08-14,29.079999923706055,29.058799743652344,29.059999465942383,29.079999923706055,772.0,27.73827362060547
2018-08-15,28.583799362182617,28.583799362182617,28.583799362182617,28.583799362182617,752.0,27.264968872070312
2018-08-16,28.583799362182617,28.583799362182617,28.583799362182617,28.583799362182617,0.0,27.264968872070312
2018-08-17,28.583799362182617,28.583799362182617,28.583799362182617,28.583799362182617,0.0,27.264968872070312
2018-08-20,29.270000457763672,29.209999084472656,29.209999084472656,29.270000457763672,1010.0,27.91950798034668
2018-08-21,29.270000457763672,29.270000457763672,29.270000457763672,29.270000457763672,0.0,27.91950798034668
2018-08-22,29.440000534057617,29.25,29.440000534057617,29.270000457763672,13714.0,27.91950798034668
2018-08-23,29.270000457763672,29.270000457763672,29.270000457763672,29.270000457763672,0.0,27.91950798034668
2018-08-24,29.347999572753906,29.347999572753906,29.347999572753906,29.347999572753906,510.0,27.993907928466797
2018-08-27,29.347999572753906,29.347999572753906,29.347999572753906,29.347999572753906,0.0,27.993907928466797
2018-08-28,29.65719985961914,29.65719985961914,29.65719985961914,29.65719985961914,458.0,28.288843154907227
2018-08-29,29.719999313354492,29.719999313354492,29.719999313354492,29.719999313354492,475.0,28.348745346069336
2018-08-30,29.558000564575195,29.465499877929688,29.540000915527344,29.465499877929688,1670.0,28.105987548828125
2018-08-31,29.465499877929688,29.465499877929688,29.465499877929688,29.465499877929688,0.0,28.105987548828125
2018-09-04,28.96500015258789,28.93000030517578,28.93000030517578,28.96500015258789,1291.0,27.62858009338379
2018-09-05,28.774999618530273,28.660900115966797,28.660900115966797,28.774999618530273,555.0,27.447345733642578
2018-09-06,28.920000076293945,28.610000610351562,28.760000228881836,28.610000610351562,985.0,27.289960861206055
2018-09-07,28.610000610351562,28.610000610351562,28.610000610351562,28.610000610351562,0.0,27.289960861206055
2018-09-10,28.610000610351562,28.610000610351562,28.610000610351562,28.610000610351562,0.0,27.289960861206055
2018-09-11,28.610000610351562,28.610000610351562,28.610000610351562,28.610000610351562,0.0,27.289960861206055
2018-09-12,28.885099411010742,28.81999969482422,28.81999969482422,28.885099411010742,421.0,27.552366256713867
2018-09-13,29.063400268554688,29.063400268554688,29.063400268554688,29.063400268554688,1038.0,27.722440719604492
2018-09-14,29.09819984436035,29.09819984436035,29.09819984436035,29.09819984436035,370.0,27.755634307861328
2018-09-17,29.25,29.25,29.25,29.25,357.0,27.90043067932129
2018-09-18,29.540000915527344,29.44409942626953,29.44409942626953,29.540000915527344,2014.0,28.177051544189453
2018-09-19,29.579999923706055,29.530000686645508,29.530000686645508,29.56999969482422,1854.0,28.205665588378906
2018-09-20,29.84000015258789,29.83989906311035,29.84000015258789,29.83989906311035,375.0,28.463111877441406
2018-09-21,29.850000381469727,29.809999465942383,29.809999465942383,29.850000381469727,458.0,28.472747802734375
2018-09-24,29.729999542236328,29.668699264526367,29.681699752807617,29.668699264526367,1791.0,28.29981231689453
2018-09-25,29.940000534057617,29.940000534057617,29.940000534057617,29.940000534057617,167.0,28.558595657348633
2018-09-26,29.940000534057617,29.940000534057617,29.940000534057617,29.940000534057617,0.0,28.558595657348633
2018-09-27,29.770000457763672,29.770000457763672,29.770000457763672,29.770000457763672,273.0,28.396438598632812
2018-09-28,29.611400604248047,29.611400604248047,29.611400604248047,29.611400604248047,533.0,28.24515724182129
2018-10-01,29.611400604248047,29.611400604248047,29.611400604248047,29.611400604248047,0.0,28.24515724182129
2018-10-02,29.360000610351562,29.360000610351562,29.360000610351562,29.360000610351562,915.0,28.005355834960938
2018-10-03,29.41200065612793,29.350000381469727,29.41200065612793,29.350000381469727,774.0,27.995817184448242
2018-10-04,29.040000915527344,29.040000915527344,29.040000915527344,29.040000915527344,488.0,27.70012092590332
2018-10-05,28.781299591064453,28.720699310302734,28.781299591064453,28.720699310302734,522.0,27.395551681518555
2018-10-08,28.600000381469727,28.600000381469727,28.600000381469727,28.600000381469727,224.0,27.28042221069336
2018-10-09,28.610000610351562,28.610000610351562,28.610000610351562,28.610000610351562,196.0,27.289960861206055
2018-10-10,28.610000610351562,28.610000610351562,28.610000610351562,28.610000610351562,0.0,27.289960861206055
2018-10-11,27.934999465942383,27.85300064086914,27.85300064086914,27.934999465942383,985.0,26.646102905273438
2018-10-12,28.0,27.940000534057617,28.0,27.940000534057617,1136.0,26.6508731842041
2018-10-15,27.9606990814209,27.940000534057617,27.940000534057617,27.9606990814209,484.0,26.670616149902344
2018-10-16,28.22450065612793,28.22450065612793,28.22450065612793,28.22450065612793,324.0,26.9222469329834
2018-10-17,28.22450065612793,28.22450065612793,28.22450065612793,28.22450065612793,0.0,26.9222469329834
2018-10-18,28.22450065612793,28.22450065612793,28.22450065612793,28.22450065612793,0.0,26.9222469329834
2018-10-19,28.22450065612793,28.22450065612793,28.22450065612793,28.22450065612793,0.0,26.9222469329834
2018-10-22,27.818700790405273,27.818300247192383,27.818700790405273,27.818300247192383,811.0,26.534788131713867
2018-10-23,27.40410041809082,27.40410041809082,27.40410041809082,27.40410041809082,686.0,26.139699935913086
2018-10-24,27.40410041809082,27.40410041809082,27.40410041809082,27.40410041809082,0.0,26.139699935913086
2018-10-25,27.200000762939453,27.14590072631836,27.14590072631836,27.200000762939453,1362.0,25.945016860961914
2018-10-26,27.020000457763672,26.690099716186523,26.690099716186523,27.020000457763672,1869.0,25.7733211517334
2018-10-29,27.1299991607666,26.84000015258789,27.1299991607666,26.84000015258789,1100.0,25.601625442504883
2018-10-30,26.972400665283203,26.972400665283203,26.972400665283203,26.972400665283203,807.0,25.72791862487793
2018-10-31,27.391000747680664,27.3700008392334,27.3700008392334,27.388900756835938,1209.0,26.125200271606445
2018-11-01,27.388900756835938,27.388900756835938,27.388900756835938,27.388900756835938,0.0,26.125200271606445
2018-11-02,27.388900756835938,27.388900756835938,27.388900756835938,27.388900756835938,0.0,26.125200271606445
2018-11-05,27.698400497436523,27.698400497436523,27.698400497436523,27.698400497436523,249.0,26.420419692993164
2018-11-06,27.698400497436523,27.698400497436523,27.698400497436523,27.698400497436523,0.0,26.420419692993164
2018-11-07,28.088699340820312,28.088699340820312,28.088699340820312,28.088699340820312,103.0,26.79271125793457
2018-11-08,28.088699340820312,28.088699340820312,28.088699340820312,28.088699340820312,0.0,26.79271125793457
2018-11-09,27.799999237060547,27.799999237060547,27.799999237060547,27.799999237060547,223.0,26.517332077026367
2018-11-12,27.729999542236328,27.510000228881836,27.729999542236328,27.510000228881836,1156.0,26.240713119506836
2018-11-13,27.510000228881836,27.510000228881836,27.510000228881836,27.510000228881836,0.0,26.240713119506836
2018-11-14,27.54840087890625,27.520000457763672,27.520000457763672,27.54840087890625,276.0,26.277341842651367
2018-11-15,27.54840087890625,27.54840087890625,27.54840087890625,27.54840087890625,0.0,26.277341842651367
2018-11-16,27.649999618530273,27.622499465942383,27.649999618530273,27.622499465942383,524.0,26.3480224609375
2018-11-19,27.622499465942383,27.622499465942383,27.622499465942383,27.622499465942383,0.0,26.3480224609375
2018-11-20,27.622499465942383,27.622499465942383,27.622499465942383,27.622499465942383,0.0,26.3480224609375
2018-11-21,27.430999755859375,27.43000030517578,27.43000030517578,27.430999755859375,431.0,26.16535758972168
2018-11-23,27.430999755859375,27.430999755859375,27.430999755859375,27.430999755859375,0.0,26.16535758972168
2018-11-26,27.430999755859375,27.430999755859375,27.430999755859375,27.430999755859375,0.0,26.16535758972168
2018-11-27,27.430999755859375,27.430999755859375,27.430999755859375,27.430999755859375,0.0,26.16535758972168
2018-11-28,27.430999755859375,27.430999755859375,27.430999755859375,27.430999755859375,0.0,26.16535758972168
2018-11-29,27.430999755859375,27.430999755859375,27.430999755859375,27.430999755859375,0.0,26.16535758972168
2018-11-30,27.565000534057617,27.565000534057617,27.565000534057617,27.565000534057617,177.0,26.293174743652344
2018-12-03,27.565000534057617,27.565000534057617,27.565000534057617,27.565000534057617,100.0,26.293174743652344
2018-12-04,27.565000534057617,27.565000534057617,27.565000534057617,27.565000534057617,0.0,26.293174743652344
2018-12-06,26.799999237060547,26.799999237060547,26.799999237060547,26.799999237060547,120.0,25.5634708404541
2018-12-07,27.31410026550293,27.31410026550293,27.31410026550293,27.31410026550293,1234.0,26.053852081298828
2018-12-10,27.31410026550293,27.31410026550293,27.31410026550293,27.31410026550293,0.0,26.053852081298828
2018-12-11,27.079999923706055,27.079999923706055,27.079999923706055,27.079999923706055,117.0,25.83055305480957
2018-12-12,27.280000686645508,27.280000686645508,27.280000686645508,27.280000686645508,415.0,26.021326065063477
2018-12-13,27.309999465942383,27.231700897216797,27.251800537109375,27.309999465942383,1253.0,26.04994010925293
2018-12-14,27.309999465942383,27.309999465942383,27.309999465942383,27.309999465942383,0.0,26.04994010925293
2018-12-17,27.309999465942383,27.309999465942383,27.309999465942383,27.309999465942383,0.0,26.04994010925293
2018-12-18,26.719999313354492,26.719999313354492,26.719999313354492,26.719999313354492,1325.0,25.48716163635254
2018-12-19,26.95009994506836,26.510000228881836,26.950000762939453,26.510000228881836,1327.0,25.28685188293457
2018-12-20,26.510000228881836,26.510000228881836,26.510000228881836,26.510000228881836,0.0,25.28685188293457
2018-12-21,26.15999984741211,26.15999984741211,26.15999984741211,26.15999984741211,236.0,24.953001022338867
2018-12-24,26.15999984741211,26.15999984741211,26.15999984741211,26.15999984741211,0.0,24.953001022338867
2018-12-26,24.401599884033203,24.360000610351562,24.360000610351562,24.401599884033203,1565.0,24.401599884033203
2018-12-27,24.559999465942383,24.559999465942383,24.559999465942383,24.559999465942383,102.0,24.559999465942383
2018-12-28,25.020000457763672,24.940000534057617,25.020000457763672,24.940000534057617,370.0,24.940000534057617
2018-12-31,25.110000610351562,25.040000915527344,25.110000610351562,25.040000915527344,400.0,25.040000915527344
2019-01-02,24.918699264526367,24.8799991607666,24.8799991607666,24.918699264526367,275.0,24.918699264526367
2019-01-03,24.8700008392334,24.8700008392334,24.8700008392334,24.8700008392334,161.0,24.8700008392334
2019-01-04,25.5,25.3700008392334,25.3700008392334,25.5,270.0,25.5
2019-01-07,25.799999237060547,25.799999237060547,25.799999237060547,25.799999237060547,104.0,25.799999237060547
2019-01-08,25.999000549316406,25.760000228881836,25.920000076293945,25.9596004486084,3580.0,25.9596004486084
2019-01-09,26.27869987487793,26.219999313354492,26.219999313354492,26.27869987487793,248.0,26.27869987487793
2019-01-10,26.27869987487793,26.27869987487793,26.27869987487793,26.27869987487793,0.0,26.27869987487793
2019-01-11,26.260000228881836,26.243099212646484,26.260000228881836,26.243099212646484,453.0,26.243099212646484
2019-01-14,26.139799118041992,26.139799118041992,26.139799118041992,26.139799118041992,183.0,26.139799118041992
2019-01-15,26.200000762939453,26.152700424194336,26.200000762939453,26.152700424194336,759.0,26.152700424194336
2019-01-16,26.34000015258789,26.34000015258789,26.34000015258789,26.34000015258789,844.0,26.34000015258789
2019-01-17,26.398099899291992,26.270000457763672,26.270000457763672,26.360000610351562,17487.0,26.360000610351562
2019-01-18,26.6299991607666,26.6299991607666,26.6299991607666,26.6299991607666,215.0,26.6299991607666
2019-01-22,26.35409927368164,26.299999237060547,26.35409927368164,26.299999237060547,1458.0,26.299999237060547
2019-01-23,26.303800582885742,26.280000686645508,26.280000686645508,26.303800582885742,312.0,26.303800582885742
2019-01-24,26.440000534057617,26.440000534057617,26.440000534057617,26.440000534057617,125.0,26.440000534057617
2019-01-25,26.440000534057617,26.440000534057617,26.440000534057617,26.440000534057617,0.0,26.440000534057617
2019-01-28,26.478599548339844,26.478599548339844,26.478599548339844,26.478599548339844,181.0,26.478599548339844
2019-01-29,26.478599548339844,26.478599548339844,26.478599548339844,26.478599548339844,0.0,26.478599548339844
2019-01-30,27.00510025024414,26.709999084472656,26.84000015258789,26.709999084472656,774.0,26.709999084472656
2019-01-31,26.94179916381836,26.84000015258789,26.84000015258789,26.94179916381836,676.0,26.94179916381836
2019-02-01,26.941999435424805,26.941999435424805,26.941999435424805,26.941999435424805,0.0,26.941999435424805
2019-02-04,26.979999542236328,26.83180046081543,26.83639907836914,26.979999542236328,1609.0,26.979999542236328
2019-02-05,27.209999084472656,27.1200008392334,27.15999984741211,27.209999084472656,3581.0,27.209999084472656
2019-02-06,27.09000015258789,26.998300552368164,27.09000015258789,26.998300552368164,1381.0,26.998300552368164
2019-02-07,26.799999237060547,26.51650047302246,26.760000228881836,26.520000457763672,5046.0,26.520000457763672
2019-02-08,26.520000457763672,26.3700008392334,26.3700008392334,26.520000457763672,5648.0,26.520000457763672
2019-02-11,26.440000534057617,26.350000381469727,26.440000534057617,26.350000381469727,282224.0,26.350000381469727
2019-02-12,26.549999237060547,26.540000915527344,26.540000915527344,26.549999237060547,1784.0,26.549999237060547
2019-02-13,26.549999237060547,26.549999237060547,26.549999237060547,26.549999237060547,0.0,26.549999237060547
2019-02-14,26.549999237060547,26.549999237060547,26.549999237060547,26.549999237060547,0.0,26.549999237060547
2019-02-15,26.799999237060547,26.790000915527344,26.790000915527344,26.790000915527344,2046.0,26.790000915527344
2019-02-19,26.790000915527344,26.790000915527344,26.790000915527344,26.790000915527344,0.0,26.790000915527344
2019-02-20,26.790000915527344,26.790000915527344,26.790000915527344,26.790000915527344,0.0,26.790000915527344
2019-02-21,26.790000915527344,26.790000915527344,26.790000915527344,26.790000915527344,0.0,26.790000915527344
2019-02-22,26.790000915527344,26.790000915527344,26.790000915527344,26.790000915527344,0.0,26.790000915527344
2019-02-25,27.25749969482422,27.180999755859375,27.25749969482422,27.1875,1522.0,27.1875
2019-02-26,27.1875,27.1875,27.1875,27.1875,0.0,27.1875
2019-02-27,27.1875,27.1875,27.1875,27.1875,0.0,27.1875
2019-02-28,27.280000686645508,27.100000381469727,27.280000686645508,27.145000457763672,420.0,27.145000457763672
2019-03-01,27.145000457763672,27.145000457763672,27.145000457763672,27.145000457763672,0.0,27.145000457763672
2019-03-04,27.145000457763672,27.145000457763672,27.145000457763672,27.145000457763672,0.0,27.145000457763672
2019-03-05,27.145000457763672,27.145000457763672,27.145000457763672,27.145000457763672,0.0,27.145000457763672
2019-03-06,27.145000457763672,27.145000457763672,27.145000457763672,27.145000457763672,0.0,27.145000457763672
2019-03-07,27.009899139404297,26.989900588989258,27.009899139404297,26.989900588989258,525.0,26.989900588989258
2019-03-08,26.719999313354492,26.719999313354492,26.719999313354492,26.719999313354492,200.0,26.719999313354492
2019-03-11,26.719999313354492,26.719999313354492,26.719999313354492,26.719999313354492,0.0,26.719999313354492
2019-03-12,26.719999313354492,26.719999313354492,26.719999313354492,26.719999313354492,0.0,26.719999313354492
2019-03-13,26.719999313354492,26.719999313354492,26.719999313354492,26.719999313354492,0.0,26.719999313354492
2019-03-14,26.719999313354492,26.719999313354492,26.719999313354492,26.719999313354492,0.0,26.719999313354492
2019-03-15,26.461700439453125,26.461700439453125,26.461700439453125,26.461700439453125,200.0,26.461700439453125
2019-03-18,26.461700439453125,26.461700439453125,26.461700439453125,26.461700439453125,0.0,26.461700439453125
2019-03-19,26.461700439453125,26.461700439453125,26.461700439453125,26.461700439453125,0.0,26.461700439453125
2019-03-20,26.461700439453125,26.461700439453125,26.461700439453125,26.461700439453125,0.0,26.461700439453125
2019-03-21,26.461700439453125,26.461700439453125,26.461700439453125,26.461700439453125,0.0,26.461700439453125
2019-03-22,26.461700439453125,26.461700439453125,26.461700439453125,26.461700439453125,0.0,26.461700439453125
