Date,High,Low,Open,Close,Volume,Adj Close
2016-02-04,23.459999084472656,23.100000381469727,23.459999084472656,23.100000381469727,200400.0,21.45111656188965
2016-02-05,23.239999771118164,23.200000762939453,23.200000762939453,23.239999771118164,700.0,21.581119537353516
2016-02-08,22.59000015258789,22.59000015258789,22.59000015258789,22.59000015258789,300.0,20.97751808166504
2016-02-09,22.59000015258789,22.59000015258789,22.59000015258789,22.59000015258789,0.0,20.97751808166504
2016-02-10,22.59000015258789,22.59000015258789,22.59000015258789,22.59000015258789,0.0,20.97751808166504
2016-02-11,21.299999237060547,21.15999984741211,21.229999542236328,21.15999984741211,2200.0,19.64959144592285
2016-02-12,21.40999984741211,21.1299991607666,21.1299991607666,21.40999984741211,200.0,19.88174819946289
2016-02-16,21.40999984741211,21.40999984741211,21.40999984741211,21.40999984741211,0.0,19.88174819946289
2016-02-17,21.31999969482422,21.31999969482422,21.31999969482422,21.31999969482422,200.0,19.79817008972168
2016-02-18,21.31999969482422,21.31999969482422,21.31999969482422,21.31999969482422,0.0,19.79817008972168
2016-02-19,21.40999984741211,21.40999984741211,21.40999984741211,21.40999984741211,0.0,19.88174819946289
2016-02-22,21.40999984741211,21.40999984741211,21.40999984741211,21.40999984741211,0.0,19.88174819946289
2016-02-23,21.40999984741211,21.40999984741211,21.40999984741211,21.40999984741211,0.0,19.88174819946289
2016-02-24,21.40999984741211,21.40999984741211,21.40999984741211,21.40999984741211,0.0,19.88174819946289
2016-02-25,21.40999984741211,21.40999984741211,21.40999984741211,21.40999984741211,0.0,19.88174819946289
2016-02-26,21.40999984741211,21.40999984741211,21.40999984741211,21.40999984741211,0.0,19.88174819946289
2016-02-29,21.40999984741211,21.40999984741211,21.40999984741211,21.40999984741211,0.0,19.88174819946289
2016-03-01,21.40999984741211,21.40999984741211,21.40999984741211,21.40999984741211,0.0,19.88174819946289
2016-03-02,23.2450008392334,23.229999542236328,23.229999542236328,23.2450008392334,1200.0,21.585765838623047
2016-03-03,23.2450008392334,23.2450008392334,23.2450008392334,23.2450008392334,0.0,21.585765838623047
2016-03-04,23.2450008392334,23.2450008392334,23.2450008392334,23.2450008392334,0.0,21.585765838623047
2016-03-07,23.2450008392334,23.2450008392334,23.2450008392334,23.2450008392334,0.0,21.585765838623047
2016-03-08,23.2450008392334,23.2450008392334,23.2450008392334,23.2450008392334,0.0,21.585765838623047
2016-03-09,23.2450008392334,23.2450008392334,23.2450008392334,23.2450008392334,200.0,21.585765838623047
2016-03-10,23.2450008392334,23.2450008392334,23.2450008392334,23.2450008392334,0.0,21.585765838623047
2016-03-11,23.2450008392334,23.2450008392334,23.2450008392334,23.2450008392334,0.0,21.585765838623047
2016-03-14,23.2450008392334,23.2450008392334,23.2450008392334,23.2450008392334,0.0,21.585765838623047
2016-03-15,23.2450008392334,23.2450008392334,23.2450008392334,23.2450008392334,0.0,21.585765838623047
2016-03-16,23.450000762939453,23.450000762939453,23.450000762939453,23.450000762939453,200.0,21.776132583618164
2016-03-17,23.450000762939453,23.450000762939453,23.450000762939453,23.450000762939453,0.0,21.776132583618164
2016-03-18,23.450000762939453,23.450000762939453,23.450000762939453,23.450000762939453,0.0,21.776132583618164
2016-03-21,23.530000686645508,23.530000686645508,23.530000686645508,23.530000686645508,1200.0,21.850419998168945
2016-03-22,23.530000686645508,23.530000686645508,23.530000686645508,23.530000686645508,0.0,21.850419998168945
2016-03-23,23.530000686645508,23.530000686645508,23.530000686645508,23.530000686645508,0.0,21.850419998168945
2016-03-24,23.530000686645508,23.530000686645508,23.530000686645508,23.530000686645508,0.0,21.850419998168945
2016-03-28,23.530000686645508,23.530000686645508,23.530000686645508,23.530000686645508,0.0,21.850419998168945
2016-03-29,23.530000686645508,23.530000686645508,23.530000686645508,23.530000686645508,0.0,21.850419998168945
2016-03-30,23.530000686645508,23.530000686645508,23.530000686645508,23.530000686645508,0.0,21.850419998168945
2016-03-31,23.559999465942383,23.549999237060547,23.549999237060547,23.559999465942383,2100.0,21.878280639648438
2016-04-01,23.559999465942383,23.559999465942383,23.559999465942383,23.559999465942383,100.0,21.878280639648438
2016-04-04,23.559999465942383,23.559999465942383,23.559999465942383,23.559999465942383,0.0,21.878280639648438
2016-04-05,23.559999465942383,23.559999465942383,23.559999465942383,23.559999465942383,0.0,21.878280639648438
2016-04-06,23.559999465942383,23.559999465942383,23.559999465942383,23.559999465942383,0.0,21.878280639648438
2016-04-07,22.479999542236328,22.459999084472656,22.459999084472656,22.469999313354492,1500.0,20.86608123779297
2016-04-08,22.469999313354492,22.469999313354492,22.469999313354492,22.469999313354492,0.0,20.86608123779297
2016-04-11,22.469999313354492,22.469999313354492,22.469999313354492,22.469999313354492,0.0,20.86608123779297
2016-04-12,22.469999313354492,22.469999313354492,22.469999313354492,22.469999313354492,0.0,20.86608123779297
2016-04-13,22.469999313354492,22.469999313354492,22.469999313354492,22.469999313354492,0.0,20.86608123779297
2016-04-14,22.469999313354492,22.469999313354492,22.469999313354492,22.469999313354492,0.0,20.86608123779297
2016-04-15,22.469999313354492,22.469999313354492,22.469999313354492,22.469999313354492,100.0,20.86608123779297
2016-04-18,22.469999313354492,22.469999313354492,22.469999313354492,22.469999313354492,0.0,20.86608123779297
2016-04-19,22.469999313354492,22.469999313354492,22.469999313354492,22.469999313354492,0.0,20.86608123779297
2016-04-20,22.469999313354492,22.469999313354492,22.469999313354492,22.469999313354492,0.0,20.86608123779297
2016-04-21,22.469999313354492,22.469999313354492,22.469999313354492,22.469999313354492,0.0,20.86608123779297
2016-04-22,22.469999313354492,22.469999313354492,22.469999313354492,22.469999313354492,0.0,20.86608123779297
2016-04-25,22.469999313354492,22.469999313354492,22.469999313354492,22.469999313354492,0.0,20.86608123779297
2016-04-26,22.469999313354492,22.469999313354492,22.469999313354492,22.469999313354492,0.0,20.86608123779297
2016-04-27,22.469999313354492,22.469999313354492,22.469999313354492,22.469999313354492,0.0,20.86608123779297
2016-04-28,22.469999313354492,22.469999313354492,22.469999313354492,22.469999313354492,0.0,20.86608123779297
2016-04-29,22.469999313354492,22.469999313354492,22.469999313354492,22.469999313354492,0.0,20.86608123779297
2016-05-02,22.469999313354492,22.469999313354492,22.469999313354492,22.469999313354492,0.0,20.86608123779297
2016-05-03,22.469999313354492,22.469999313354492,22.469999313354492,22.469999313354492,0.0,20.86608123779297
2016-05-04,22.469999313354492,22.469999313354492,22.469999313354492,22.469999313354492,0.0,20.86608123779297
2016-05-05,22.469999313354492,22.469999313354492,22.469999313354492,22.469999313354492,0.0,20.86608123779297
2016-05-06,22.469999313354492,22.469999313354492,22.469999313354492,22.469999313354492,0.0,20.86608123779297
2016-05-09,22.469999313354492,22.469999313354492,22.469999313354492,22.469999313354492,0.0,20.86608123779297
2016-05-10,22.469999313354492,22.469999313354492,22.469999313354492,22.469999313354492,0.0,20.86608123779297
2016-05-11,22.469999313354492,22.469999313354492,22.469999313354492,22.469999313354492,0.0,20.86608123779297
2016-05-12,22.469999313354492,22.469999313354492,22.469999313354492,22.469999313354492,0.0,20.86608123779297
2016-05-13,22.469999313354492,22.469999313354492,22.469999313354492,22.469999313354492,0.0,20.86608123779297
2016-05-16,22.469999313354492,22.469999313354492,22.469999313354492,22.469999313354492,0.0,20.86608123779297
2016-05-17,22.469999313354492,22.469999313354492,22.469999313354492,22.469999313354492,0.0,20.86608123779297
2016-05-18,22.469999313354492,22.469999313354492,22.469999313354492,22.469999313354492,0.0,20.86608123779297
2016-05-19,22.469999313354492,22.469999313354492,22.469999313354492,22.469999313354492,0.0,20.86608123779297
2016-05-20,22.469999313354492,22.469999313354492,22.469999313354492,22.469999313354492,0.0,20.86608123779297
2016-05-23,22.469999313354492,22.469999313354492,22.469999313354492,22.469999313354492,0.0,20.86608123779297
2016-05-24,22.469999313354492,22.469999313354492,22.469999313354492,22.469999313354492,0.0,20.86608123779297
2016-05-25,22.469999313354492,22.469999313354492,22.469999313354492,22.469999313354492,0.0,20.86608123779297
2016-05-26,22.469999313354492,22.469999313354492,22.469999313354492,22.469999313354492,0.0,20.86608123779297
2016-05-27,23.719999313354492,23.70599937438965,23.719999313354492,23.70599937438965,7700.0,22.013856887817383
2016-05-31,23.93600082397461,23.93600082397461,23.93600082397461,23.93600082397461,500.0,22.227441787719727
2016-06-01,23.93600082397461,23.93600082397461,23.93600082397461,23.93600082397461,0.0,22.227441787719727
2016-06-02,23.93600082397461,23.93600082397461,23.93600082397461,23.93600082397461,0.0,22.227441787719727
2016-06-03,23.93600082397461,23.93600082397461,23.93600082397461,23.93600082397461,0.0,22.227441787719727
2016-06-06,23.93600082397461,23.93600082397461,23.93600082397461,23.93600082397461,0.0,22.227441787719727
2016-06-07,23.93600082397461,23.93600082397461,23.93600082397461,23.93600082397461,0.0,22.227441787719727
2016-06-08,23.93600082397461,23.93600082397461,23.93600082397461,23.93600082397461,0.0,22.227441787719727
2016-06-09,23.93600082397461,23.93600082397461,23.93600082397461,23.93600082397461,0.0,22.227441787719727
2016-06-10,23.93600082397461,23.93600082397461,23.93600082397461,23.93600082397461,0.0,22.227441787719727
2016-06-13,23.93600082397461,23.93600082397461,23.93600082397461,23.93600082397461,0.0,22.227441787719727
2016-06-14,23.93600082397461,23.93600082397461,23.93600082397461,23.93600082397461,0.0,22.227441787719727
2016-06-15,23.06999969482422,23.06999969482422,23.06999969482422,23.06999969482422,400.0,21.423255920410156
2016-06-16,23.06999969482422,23.06999969482422,23.06999969482422,23.06999969482422,0.0,21.423255920410156
2016-06-17,23.06999969482422,23.06999969482422,23.06999969482422,23.06999969482422,0.0,21.423255920410156
2016-06-20,23.06999969482422,23.06999969482422,23.06999969482422,23.06999969482422,0.0,21.5964412689209
2016-06-21,23.06999969482422,23.06999969482422,23.06999969482422,23.06999969482422,0.0,21.5964412689209
2016-06-22,23.06999969482422,23.06999969482422,23.06999969482422,23.06999969482422,0.0,21.5964412689209
2016-06-23,23.06999969482422,23.06999969482422,23.06999969482422,23.06999969482422,0.0,21.5964412689209
2016-06-24,23.06999969482422,23.06999969482422,23.06999969482422,23.06999969482422,0.0,21.5964412689209
2016-06-27,22.885000228881836,22.885000228881836,22.885000228881836,22.885000228881836,100.0,21.423254013061523
2016-06-28,22.885000228881836,22.885000228881836,22.885000228881836,22.885000228881836,0.0,21.423254013061523
2016-06-29,22.885000228881836,22.885000228881836,22.885000228881836,22.885000228881836,0.0,21.423254013061523
2016-06-30,22.885000228881836,22.885000228881836,22.885000228881836,22.885000228881836,0.0,21.423254013061523
2016-07-01,22.885000228881836,22.885000228881836,22.885000228881836,22.885000228881836,0.0,21.423254013061523
2016-07-05,22.885000228881836,22.885000228881836,22.885000228881836,22.885000228881836,0.0,21.423254013061523
2016-07-06,22.885000228881836,22.885000228881836,22.885000228881836,22.885000228881836,0.0,21.423254013061523
2016-07-07,22.885000228881836,22.885000228881836,22.885000228881836,22.885000228881836,0.0,21.423254013061523
2016-07-08,22.885000228881836,22.885000228881836,22.885000228881836,22.885000228881836,0.0,21.423254013061523
2016-07-11,22.885000228881836,22.885000228881836,22.885000228881836,22.885000228881836,0.0,21.423254013061523
2016-07-12,22.885000228881836,22.885000228881836,22.885000228881836,22.885000228881836,0.0,21.423254013061523
2016-07-13,22.885000228881836,22.885000228881836,22.885000228881836,22.885000228881836,0.0,21.423254013061523
2016-07-14,22.885000228881836,22.885000228881836,22.885000228881836,22.885000228881836,0.0,21.423254013061523
2016-07-15,22.885000228881836,22.885000228881836,22.885000228881836,22.885000228881836,0.0,21.423254013061523
2016-07-18,22.885000228881836,22.885000228881836,22.885000228881836,22.885000228881836,0.0,21.423254013061523
2016-07-19,22.885000228881836,22.885000228881836,22.885000228881836,22.885000228881836,0.0,21.423254013061523
2016-07-20,22.885000228881836,22.885000228881836,22.885000228881836,22.885000228881836,0.0,21.423254013061523
2016-07-21,23.434999465942383,23.434999465942383,23.434999465942383,23.434999465942383,300.0,21.938125610351562
2016-07-22,23.434999465942383,23.434999465942383,23.434999465942383,23.434999465942383,0.0,21.938125610351562
2016-07-25,23.434999465942383,23.434999465942383,23.434999465942383,23.434999465942383,0.0,21.938125610351562
2016-07-26,23.434999465942383,23.434999465942383,23.434999465942383,23.434999465942383,0.0,21.938125610351562
2016-07-27,23.434999465942383,23.434999465942383,23.434999465942383,23.434999465942383,0.0,21.938125610351562
2016-07-28,23.43000030517578,23.43000030517578,23.43000030517578,23.43000030517578,200.0,21.933446884155273
2016-07-29,23.43000030517578,23.43000030517578,23.43000030517578,23.43000030517578,0.0,21.933446884155273
2016-08-01,23.43000030517578,23.43000030517578,23.43000030517578,23.43000030517578,0.0,21.933446884155273
2016-08-02,23.43000030517578,23.43000030517578,23.43000030517578,23.43000030517578,0.0,21.933446884155273
2016-08-03,23.43000030517578,23.43000030517578,23.43000030517578,23.43000030517578,0.0,21.933446884155273
2016-08-04,23.440000534057617,23.440000534057617,23.440000534057617,23.440000534057617,100.0,21.94281005859375
2016-08-05,23.440000534057617,23.440000534057617,23.440000534057617,23.440000534057617,0.0,21.94281005859375
2016-08-08,23.440000534057617,23.440000534057617,23.440000534057617,23.440000534057617,0.0,21.94281005859375
2016-08-09,23.440000534057617,23.440000534057617,23.440000534057617,23.440000534057617,0.0,21.94281005859375
2016-08-10,23.440000534057617,23.440000534057617,23.440000534057617,23.440000534057617,0.0,21.94281005859375
2016-08-11,24.020000457763672,24.020000457763672,24.020000457763672,24.020000457763672,4900.0,22.48575782775879
2016-08-12,23.84000015258789,23.84000015258789,23.84000015258789,23.84000015258789,300.0,22.3172607421875
2016-08-15,23.84000015258789,23.84000015258789,23.84000015258789,23.84000015258789,0.0,22.3172607421875
2016-08-16,23.639999389648438,23.610000610351562,23.610000610351562,23.639999389648438,3500.0,22.130033493041992
2016-08-17,23.639999389648438,23.639999389648438,23.639999389648438,23.639999389648438,0.0,22.130033493041992
2016-08-18,23.639999389648438,23.639999389648438,23.639999389648438,23.639999389648438,100.0,22.130033493041992
2016-08-19,23.639999389648438,23.639999389648438,23.639999389648438,23.639999389648438,0.0,22.130033493041992
2016-08-22,23.719999313354492,23.719999313354492,23.719999313354492,23.719999313354492,1000.0,22.20492172241211
2016-08-23,23.81999969482422,23.770000457763672,23.809999465942383,23.770000457763672,600.0,22.251728057861328
2016-08-24,23.81999969482422,23.770000457763672,23.809999465942383,23.770000457763672,700.0,22.251728057861328
2016-08-25,23.760000228881836,23.739999771118164,23.75,23.739999771118164,900.0,22.22364616394043
2016-08-26,23.739999771118164,23.729999542236328,23.729999542236328,23.739999771118164,200.0,22.22364616394043
2016-08-29,23.81999969482422,23.81999969482422,23.81999969482422,23.81999969482422,200.0,22.298534393310547
2016-08-30,23.81999969482422,23.81999969482422,23.81999969482422,23.81999969482422,0.0,22.298534393310547
2016-08-31,23.81999969482422,23.81999969482422,23.81999969482422,23.81999969482422,0.0,22.298534393310547
2016-09-01,23.81999969482422,23.81999969482422,23.81999969482422,23.81999969482422,0.0,22.298534393310547
2016-09-02,23.81999969482422,23.81999969482422,23.81999969482422,23.81999969482422,100.0,22.298534393310547
2016-09-06,23.81999969482422,23.81999969482422,23.81999969482422,23.81999969482422,0.0,22.298534393310547
2016-09-07,24.549999237060547,24.549999237060547,24.549999237060547,24.549999237060547,300.0,22.98190689086914
2016-09-08,24.549999237060547,24.549999237060547,24.549999237060547,24.549999237060547,0.0,22.98190689086914
2016-09-09,24.003999710083008,24.003999710083008,24.003999710083008,24.003999710083008,200.0,22.470781326293945
2016-09-12,24.003999710083008,24.003999710083008,24.003999710083008,24.003999710083008,0.0,22.470781326293945
2016-09-13,24.003999710083008,24.003999710083008,24.003999710083008,24.003999710083008,0.0,22.470781326293945
2016-09-14,24.003999710083008,24.003999710083008,24.003999710083008,24.003999710083008,0.0,22.470781326293945
2016-09-15,24.003999710083008,24.003999710083008,24.003999710083008,24.003999710083008,0.0,22.470781326293945
2016-09-16,24.003999710083008,24.003999710083008,24.003999710083008,24.003999710083008,0.0,22.470781326293945
2016-09-19,24.003999710083008,24.003999710083008,24.003999710083008,24.003999710083008,0.0,22.470781326293945
2016-09-20,24.003999710083008,24.003999710083008,24.003999710083008,24.003999710083008,0.0,22.470781326293945
2016-09-21,24.003999710083008,24.003999710083008,24.003999710083008,24.003999710083008,0.0,22.470781326293945
2016-09-22,24.84000015258789,24.84000015258789,24.84000015258789,24.84000015258789,600.0,23.253385543823242
2016-09-23,24.84000015258789,24.84000015258789,24.84000015258789,24.84000015258789,0.0,23.253385543823242
2016-09-26,24.84000015258789,24.84000015258789,24.84000015258789,24.84000015258789,0.0,23.2814998626709
2016-09-27,24.84000015258789,24.84000015258789,24.84000015258789,24.84000015258789,0.0,23.2814998626709
2016-09-28,24.84000015258789,24.84000015258789,24.84000015258789,24.84000015258789,0.0,23.2814998626709
2016-09-29,24.299999237060547,24.299999237060547,24.299999237060547,24.299999237060547,300.0,22.775379180908203
2016-09-30,24.299999237060547,24.299999237060547,24.299999237060547,24.299999237060547,0.0,22.775379180908203
2016-10-03,24.299999237060547,24.299999237060547,24.299999237060547,24.299999237060547,0.0,22.775379180908203
2016-10-04,24.299999237060547,24.299999237060547,24.299999237060547,24.299999237060547,0.0,22.775379180908203
2016-10-05,24.299999237060547,24.299999237060547,24.299999237060547,24.299999237060547,0.0,22.775379180908203
2016-10-06,24.43000030517578,24.40999984741211,24.43000030517578,24.40999984741211,300.0,22.878480911254883
2016-10-07,24.40999984741211,24.40999984741211,24.40999984741211,24.40999984741211,0.0,22.878480911254883
2016-10-10,24.40999984741211,24.40999984741211,24.40999984741211,24.40999984741211,0.0,22.878480911254883
2016-10-11,24.40999984741211,24.40999984741211,24.40999984741211,24.40999984741211,0.0,22.878480911254883
2016-10-12,24.40999984741211,24.40999984741211,24.40999984741211,24.40999984741211,0.0,22.878480911254883
2016-10-13,24.40999984741211,24.40999984741211,24.40999984741211,24.40999984741211,0.0,22.878480911254883
2016-10-14,24.40999984741211,24.40999984741211,24.40999984741211,24.40999984741211,0.0,22.878480911254883
2016-10-17,24.40999984741211,24.40999984741211,24.40999984741211,24.40999984741211,0.0,22.878480911254883
2016-10-18,24.40999984741211,24.40999984741211,24.40999984741211,24.40999984741211,0.0,22.878480911254883
2016-10-19,24.40999984741211,24.40999984741211,24.40999984741211,24.40999984741211,0.0,22.878480911254883
2016-10-20,24.40999984741211,24.40999984741211,24.40999984741211,24.40999984741211,0.0,22.878480911254883
2016-10-21,24.709999084472656,24.709999084472656,24.709999084472656,24.709999084472656,200.0,23.159656524658203
2016-10-24,24.709999084472656,24.709999084472656,24.709999084472656,24.709999084472656,0.0,23.159656524658203
2016-10-25,24.770000457763672,24.770000457763672,24.770000457763672,24.770000457763672,1100.0,23.215892791748047
2016-10-26,24.770000457763672,24.770000457763672,24.770000457763672,24.770000457763672,0.0,23.215892791748047
2016-10-27,24.770000457763672,24.770000457763672,24.770000457763672,24.770000457763672,0.0,23.215892791748047
2016-10-28,24.770000457763672,24.770000457763672,24.770000457763672,24.770000457763672,0.0,23.215892791748047
2016-10-31,24.8799991607666,24.8799991607666,24.8799991607666,24.8799991607666,100.0,23.31899070739746
2016-11-01,24.8799991607666,24.8799991607666,24.8799991607666,24.8799991607666,0.0,23.31899070739746
2016-11-02,24.8799991607666,24.8799991607666,24.8799991607666,24.8799991607666,0.0,23.31899070739746
2016-11-03,24.8799991607666,24.8799991607666,24.8799991607666,24.8799991607666,0.0,23.31899070739746
2016-11-04,24.8799991607666,24.8799991607666,24.8799991607666,24.8799991607666,0.0,23.31899070739746
2016-11-07,24.8799991607666,24.8799991607666,24.8799991607666,24.8799991607666,100.0,23.31899070739746
2016-11-08,24.8799991607666,24.8799991607666,24.8799991607666,24.8799991607666,100.0,23.31899070739746
2016-11-09,24.8799991607666,24.8799991607666,24.8799991607666,24.8799991607666,0.0,23.31899070739746
2016-11-10,24.8799991607666,24.8799991607666,24.8799991607666,24.8799991607666,0.0,23.31899070739746
2016-11-11,24.8799991607666,24.8799991607666,24.8799991607666,24.8799991607666,0.0,23.31899070739746
2016-11-14,24.84000015258789,24.84000015258789,24.84000015258789,24.84000015258789,1100.0,23.2814998626709
2016-11-15,24.84000015258789,24.84000015258789,24.84000015258789,24.84000015258789,0.0,23.2814998626709
2016-11-16,24.84000015258789,24.84000015258789,24.84000015258789,24.84000015258789,0.0,23.2814998626709
2016-11-17,25.290000915527344,25.290000915527344,25.290000915527344,25.290000915527344,200.0,23.703266143798828
2016-11-18,25.059999465942383,25.059999465942383,25.059999465942383,25.059999465942383,200.0,23.48769760131836
2016-11-21,25.059999465942383,25.059999465942383,25.059999465942383,25.059999465942383,0.0,23.48769760131836
2016-11-22,25.34000015258789,25.299999237060547,25.299999237060547,25.34000015258789,2100.0,23.75012969970703
2016-11-23,25.34000015258789,25.34000015258789,25.34000015258789,25.34000015258789,0.0,23.75012969970703
2016-11-25,25.34000015258789,25.34000015258789,25.34000015258789,25.34000015258789,0.0,23.75012969970703
2016-11-28,25.34000015258789,25.34000015258789,25.34000015258789,25.34000015258789,0.0,23.75012969970703
2016-11-29,25.34000015258789,25.34000015258789,25.34000015258789,25.34000015258789,0.0,23.75012969970703
2016-11-30,25.34000015258789,25.34000015258789,25.34000015258789,25.34000015258789,0.0,23.75012969970703
2016-12-01,25.34000015258789,25.34000015258789,25.34000015258789,25.34000015258789,0.0,23.75012969970703
2016-12-02,25.34000015258789,25.34000015258789,25.34000015258789,25.34000015258789,0.0,23.75012969970703
2016-12-05,25.34000015258789,25.34000015258789,25.34000015258789,25.34000015258789,0.0,23.75012969970703
2016-12-06,25.34000015258789,25.34000015258789,25.34000015258789,25.34000015258789,0.0,23.75012969970703
2016-12-07,26.24799919128418,26.24799919128418,26.24799919128418,26.24799919128418,700.0,24.601160049438477
2016-12-08,26.625,26.625,26.625,26.625,200.0,24.95450782775879
2016-12-09,26.924999237060547,26.6200008392334,26.6200008392334,26.924999237060547,1000.0,25.23568344116211
2016-12-12,26.924999237060547,26.924999237060547,26.924999237060547,26.924999237060547,0.0,25.23568344116211
2016-12-13,26.924999237060547,26.924999237060547,26.924999237060547,26.924999237060547,0.0,25.23568344116211
2016-12-14,26.924999237060547,26.924999237060547,26.924999237060547,26.924999237060547,0.0,25.23568344116211
2016-12-15,26.899999618530273,26.899999618530273,26.899999618530273,26.899999618530273,500.0,25.21225357055664
2016-12-16,26.899999618530273,26.899999618530273,26.899999618530273,26.899999618530273,0.0,25.21225357055664
2016-12-19,26.899999618530273,26.899999618530273,26.899999618530273,26.899999618530273,0.0,25.21225357055664
2016-12-20,26.916000366210938,26.889999389648438,26.916000366210938,26.889999389648438,400.0,25.202880859375
2016-12-21,26.770000457763672,26.770000457763672,26.770000457763672,26.770000457763672,300.0,25.090410232543945
2016-12-22,26.709999084472656,26.709999084472656,26.709999084472656,26.709999084472656,300.0,25.03417205810547
2016-12-23,26.709999084472656,26.709999084472656,26.709999084472656,26.709999084472656,0.0,25.324296951293945
2016-12-27,26.709999084472656,26.709999084472656,26.709999084472656,26.709999084472656,0.0,25.324296951293945
2016-12-28,26.40999984741211,26.40999984741211,26.40999984741211,26.40999984741211,400.0,25.03986358642578
2016-12-29,26.40999984741211,26.40999984741211,26.40999984741211,26.40999984741211,0.0,25.03986358642578
2016-12-30,26.40999984741211,26.40999984741211,26.40999984741211,26.40999984741211,0.0,25.03986358642578
2017-01-03,26.40999984741211,26.40999984741211,26.40999984741211,26.40999984741211,100.0,25.03986358642578
2017-01-04,26.40999984741211,26.40999984741211,26.40999984741211,26.40999984741211,100.0,25.03986358642578
2017-01-05,26.40999984741211,26.40999984741211,26.40999984741211,26.40999984741211,0.0,25.03986358642578
2017-01-06,26.65999984741211,26.65999984741211,26.65999984741211,26.65999984741211,300.0,25.276891708374023
2017-01-09,26.790000915527344,26.790000915527344,26.790000915527344,26.790000915527344,100.0,25.400150299072266
2017-01-10,26.510000228881836,26.440000534057617,26.440000534057617,26.510000228881836,400.0,25.134674072265625
2017-01-11,26.510000228881836,26.510000228881836,26.510000228881836,26.510000228881836,0.0,25.134674072265625
2017-01-12,26.510000228881836,26.510000228881836,26.510000228881836,26.510000228881836,0.0,25.134674072265625
2017-01-13,26.510000228881836,26.510000228881836,26.510000228881836,26.510000228881836,0.0,25.134674072265625
2017-01-17,25.8700008392334,25.8700008392334,25.8700008392334,25.8700008392334,400.0,24.527877807617188
2017-01-18,25.969999313354492,25.969999313354492,25.969999313354492,25.969999313354492,100.0,24.622690200805664
2017-01-19,26.356000900268555,26.200000762939453,26.356000900268555,26.200000762939453,1300.0,24.84075927734375
2017-01-20,26.200000762939453,26.200000762939453,26.200000762939453,26.200000762939453,0.0,24.84075927734375
2017-01-23,26.200000762939453,26.200000762939453,26.200000762939453,26.200000762939453,0.0,24.84075927734375
2017-01-24,26.200000762939453,26.200000762939453,26.200000762939453,26.200000762939453,0.0,24.84075927734375
2017-01-25,26.200000762939453,26.200000762939453,26.200000762939453,26.200000762939453,0.0,24.84075927734375
2017-01-26,26.200000762939453,26.200000762939453,26.200000762939453,26.200000762939453,0.0,24.84075927734375
2017-01-27,26.200000762939453,26.200000762939453,26.200000762939453,26.200000762939453,0.0,24.84075927734375
2017-01-30,26.200000762939453,26.200000762939453,26.200000762939453,26.200000762939453,0.0,24.84075927734375
2017-01-31,26.200000762939453,26.200000762939453,26.200000762939453,26.200000762939453,0.0,24.84075927734375
2017-02-01,25.445999145507812,25.445999145507812,25.445999145507812,25.445999145507812,400.0,24.125873565673828
2017-02-02,25.445999145507812,25.445999145507812,25.445999145507812,25.445999145507812,0.0,24.125873565673828
2017-02-03,26.440000534057617,26.440000534057617,26.440000534057617,26.440000534057617,600.0,25.068309783935547
2017-02-06,26.440000534057617,26.440000534057617,26.440000534057617,26.440000534057617,0.0,25.068309783935547
2017-02-07,26.440000534057617,26.440000534057617,26.440000534057617,26.440000534057617,0.0,25.068309783935547
2017-02-08,26.440000534057617,26.440000534057617,26.440000534057617,26.440000534057617,0.0,25.068309783935547
2017-02-09,26.440000534057617,26.440000534057617,26.440000534057617,26.440000534057617,0.0,25.068309783935547
2017-02-10,26.719999313354492,26.687000274658203,26.719999313354492,26.687000274658203,900.0,25.302494049072266
2017-02-13,26.687000274658203,26.687000274658203,26.687000274658203,26.687000274658203,0.0,25.302494049072266
2017-02-14,26.687000274658203,26.687000274658203,26.687000274658203,26.687000274658203,0.0,25.302494049072266
2017-02-15,26.854999542236328,26.850000381469727,26.854999542236328,26.850000381469727,300.0,25.4570369720459
2017-02-16,26.670000076293945,26.670000076293945,26.670000076293945,26.670000076293945,400.0,25.286375045776367
2017-02-17,26.59000015258789,26.479999542236328,26.479999542236328,26.59000015258789,1400.0,25.21052360534668
2017-02-21,26.969999313354492,26.969999313354492,26.969999313354492,26.969999313354492,300.0,25.570810317993164
2017-02-22,26.969999313354492,26.969999313354492,26.969999313354492,26.969999313354492,0.0,25.570810317993164
2017-02-23,26.969999313354492,26.969999313354492,26.969999313354492,26.969999313354492,0.0,25.570810317993164
2017-02-24,26.969999313354492,26.969999313354492,26.969999313354492,26.969999313354492,0.0,25.570810317993164
2017-02-27,26.5,26.5,26.5,26.5,100.0,25.125194549560547
2017-02-28,26.5,26.5,26.5,26.5,500.0,25.125194549560547
2017-03-01,26.5,26.5,26.5,26.5,0.0,25.125194549560547
2017-03-02,26.5,26.5,26.5,26.5,0.0,25.125194549560547
2017-03-03,26.5,26.5,26.5,26.5,0.0,25.125194549560547
2017-03-06,26.829999923706055,26.829999923706055,26.829999923706055,26.829999923706055,100.0,25.438074111938477
2017-03-07,26.829999923706055,26.829999923706055,26.829999923706055,26.829999923706055,100.0,25.438074111938477
2017-03-08,26.829999923706055,26.829999923706055,26.829999923706055,26.829999923706055,100.0,25.438074111938477
2017-03-09,26.829999923706055,26.829999923706055,26.829999923706055,26.829999923706055,0.0,25.438074111938477
2017-03-10,26.829999923706055,26.829999923706055,26.829999923706055,26.829999923706055,0.0,25.438074111938477
2017-03-13,26.829999923706055,26.829999923706055,26.829999923706055,26.829999923706055,0.0,25.438074111938477
2017-03-14,26.829999923706055,26.829999923706055,26.829999923706055,26.829999923706055,0.0,25.438074111938477
2017-03-15,26.829999923706055,26.829999923706055,26.829999923706055,26.829999923706055,100.0,25.438074111938477
2017-03-16,26.829999923706055,26.829999923706055,26.829999923706055,26.829999923706055,0.0,25.438074111938477
2017-03-17,26.829999923706055,26.829999923706055,26.829999923706055,26.829999923706055,0.0,25.438074111938477
2017-03-20,26.829999923706055,26.829999923706055,26.829999923706055,26.829999923706055,0.0,25.438074111938477
2017-03-21,26.829999923706055,26.829999923706055,26.829999923706055,26.829999923706055,0.0,25.438074111938477
2017-03-22,26.299999237060547,26.239999771118164,26.280000686645508,26.290000915527344,101800.0,24.926090240478516
2017-03-23,26.290000915527344,26.290000915527344,26.290000915527344,26.290000915527344,0.0,24.926090240478516
2017-03-24,26.290000915527344,26.290000915527344,26.290000915527344,26.290000915527344,0.0,24.926090240478516
2017-03-27,26.290000915527344,26.290000915527344,26.290000915527344,26.290000915527344,0.0,24.926090240478516
2017-03-28,26.649999618530273,26.649999618530273,26.649999618530273,26.649999618530273,300.0,25.267412185668945
2017-03-29,26.649999618530273,26.649999618530273,26.649999618530273,26.649999618530273,0.0,25.267412185668945
2017-03-30,26.649999618530273,26.649999618530273,26.649999618530273,26.649999618530273,0.0,25.267412185668945
2017-03-31,26.649999618530273,26.649999618530273,26.649999618530273,26.649999618530273,0.0,25.267412185668945
2017-04-03,26.649999618530273,26.649999618530273,26.649999618530273,26.649999618530273,0.0,25.267412185668945
2017-04-04,26.649999618530273,26.649999618530273,26.649999618530273,26.649999618530273,0.0,25.267412185668945
2017-04-05,26.649999618530273,26.649999618530273,26.649999618530273,26.649999618530273,0.0,25.267412185668945
2017-04-06,26.649999618530273,26.649999618530273,26.649999618530273,26.649999618530273,0.0,25.267412185668945
2017-04-07,26.649999618530273,26.649999618530273,26.649999618530273,26.649999618530273,0.0,25.267412185668945
2017-04-10,26.649999618530273,26.649999618530273,26.649999618530273,26.649999618530273,0.0,25.267412185668945
2017-04-11,25.850000381469727,25.850000381469727,25.850000381469727,25.850000381469727,100.0,24.508914947509766
2017-04-12,25.850000381469727,25.850000381469727,25.850000381469727,25.850000381469727,100.0,24.508914947509766
2017-04-13,25.559999465942383,25.34000015258789,25.559999465942383,25.34000015258789,1500.0,24.025373458862305
2017-04-17,25.34000015258789,25.34000015258789,25.34000015258789,25.34000015258789,0.0,24.025373458862305
2017-04-18,25.34000015258789,25.34000015258789,25.34000015258789,25.34000015258789,100.0,24.025373458862305
2017-04-19,25.46299934387207,25.46299934387207,25.46299934387207,25.46299934387207,600.0,24.141990661621094
2017-04-20,25.780000686645508,25.719999313354492,25.719999313354492,25.780000686645508,1200.0,24.442548751831055
2017-04-21,25.84000015258789,25.833999633789062,25.833999633789062,25.84000015258789,900.0,24.499433517456055
2017-04-24,25.84000015258789,25.84000015258789,25.84000015258789,25.84000015258789,0.0,24.499433517456055
2017-04-25,25.84000015258789,25.84000015258789,25.84000015258789,25.84000015258789,0.0,24.499433517456055
2017-04-26,26.660999298095703,26.660999298095703,26.660999298095703,26.660999298095703,200.0,25.277841567993164
2017-04-27,26.69099998474121,26.690000534057617,26.690000534057617,26.69099998474121,1200.0,25.30628204345703
2017-04-28,26.59000015258789,26.59000015258789,26.59000015258789,26.59000015258789,200.0,25.21052360534668
2017-05-01,26.59000015258789,26.59000015258789,26.59000015258789,26.59000015258789,100.0,25.21052360534668
2017-05-02,26.59000015258789,26.59000015258789,26.59000015258789,26.59000015258789,0.0,25.21052360534668
2017-05-03,26.59000015258789,26.59000015258789,26.59000015258789,26.59000015258789,100.0,25.21052360534668
2017-05-04,26.59000015258789,26.59000015258789,26.59000015258789,26.59000015258789,0.0,25.21052360534668
2017-05-05,26.59000015258789,26.59000015258789,26.59000015258789,26.59000015258789,0.0,25.21052360534668
2017-05-08,27.309999465942383,27.260000228881836,27.260000228881836,27.309999465942383,1200.0,25.893169403076172
2017-05-09,27.309999465942383,27.309999465942383,27.309999465942383,27.309999465942383,0.0,25.893169403076172
2017-05-10,27.38800048828125,27.239999771118164,27.3799991607666,27.38800048828125,3500.0,25.96712303161621
2017-05-11,27.38800048828125,27.38800048828125,27.38800048828125,27.38800048828125,100.0,25.96712303161621
2017-05-12,27.38800048828125,27.38800048828125,27.38800048828125,27.38800048828125,100.0,25.96712303161621
2017-05-15,27.38800048828125,27.38800048828125,27.38800048828125,27.38800048828125,100.0,25.96712303161621
2017-05-16,27.202999114990234,27.202999114990234,27.202999114990234,27.202999114990234,200.0,25.79172134399414
2017-05-17,27.049999237060547,27.0,27.049999237060547,27.0,2400.0,25.599252700805664
2017-05-18,26.860000610351562,26.860000610351562,26.860000610351562,26.860000610351562,100.0,25.466516494750977
2017-05-19,26.860000610351562,26.860000610351562,26.860000610351562,26.860000610351562,0.0,25.466516494750977
2017-05-22,26.860000610351562,26.860000610351562,26.860000610351562,26.860000610351562,100.0,25.466516494750977
2017-05-23,26.860000610351562,26.860000610351562,26.860000610351562,26.860000610351562,100.0,25.466516494750977
2017-05-24,26.860000610351562,26.860000610351562,26.860000610351562,26.860000610351562,0.0,25.466516494750977
2017-05-25,26.860000610351562,26.860000610351562,26.860000610351562,26.860000610351562,0.0,25.466516494750977
2017-05-26,27.030000686645508,27.030000686645508,27.030000686645508,27.030000686645508,700.0,25.62769889831543
2017-05-30,27.030000686645508,27.030000686645508,27.030000686645508,27.030000686645508,0.0,25.62769889831543
2017-05-31,27.030000686645508,27.030000686645508,27.030000686645508,27.030000686645508,0.0,25.62769889831543
2017-06-01,27.030000686645508,27.030000686645508,27.030000686645508,27.030000686645508,0.0,25.62769889831543
2017-06-02,27.030000686645508,27.030000686645508,27.030000686645508,27.030000686645508,0.0,25.62769889831543
2017-06-05,27.610000610351562,27.31999969482422,27.31999969482422,27.604000091552734,400.0,26.171920776367188
2017-06-06,27.604000091552734,27.604000091552734,27.604000091552734,27.604000091552734,0.0,26.171920776367188
2017-06-07,27.408000946044922,27.399999618530273,27.399999618530273,27.408000946044922,600.0,25.986087799072266
2017-06-08,27.408000946044922,27.408000946044922,27.408000946044922,27.408000946044922,0.0,25.986087799072266
2017-06-09,27.197999954223633,27.190000534057617,27.190000534057617,27.197999954223633,600.0,25.7869815826416
2017-06-12,27.31999969482422,27.31999969482422,27.31999969482422,27.31999969482422,100.0,25.902652740478516
2017-06-13,27.31999969482422,27.31999969482422,27.31999969482422,27.31999969482422,0.0,25.902652740478516
2017-06-14,27.31999969482422,27.31999969482422,27.31999969482422,27.31999969482422,0.0,25.902652740478516
2017-06-15,27.350000381469727,27.350000381469727,27.350000381469727,27.350000381469727,100.0,25.93109703063965
2017-06-16,27.350000381469727,27.350000381469727,27.350000381469727,27.350000381469727,0.0,25.93109703063965
2017-06-19,27.350000381469727,27.350000381469727,27.350000381469727,27.350000381469727,0.0,25.93109703063965
2017-06-20,27.350000381469727,27.350000381469727,27.350000381469727,27.350000381469727,0.0,25.93109703063965
2017-06-21,27.514999389648438,27.510000228881836,27.514999389648438,27.510000228881836,1800.0,26.082794189453125
2017-06-22,27.510000228881836,27.510000228881836,27.510000228881836,27.510000228881836,0.0,26.082794189453125
2017-06-23,27.510000228881836,27.510000228881836,27.510000228881836,27.510000228881836,0.0,26.082794189453125
2017-06-26,27.510000228881836,27.510000228881836,27.510000228881836,27.510000228881836,0.0,26.125530242919922
2017-06-27,27.510000228881836,27.510000228881836,27.510000228881836,27.510000228881836,0.0,26.125530242919922
2017-06-28,27.510000228881836,27.510000228881836,27.510000228881836,27.510000228881836,0.0,26.125530242919922
2017-06-29,27.510000228881836,27.510000228881836,27.510000228881836,27.510000228881836,0.0,26.125530242919922
2017-06-30,27.46500015258789,27.46500015258789,27.46500015258789,27.46500015258789,0.0,26.082794189453125
2017-07-03,27.46500015258789,27.46500015258789,27.46500015258789,27.46500015258789,0.0,26.082794189453125
2017-07-05,27.649999618530273,27.649999618530273,27.649999618530273,27.649999618530273,100.0,26.258485794067383
2017-07-06,27.649999618530273,27.649999618530273,27.649999618530273,27.649999618530273,0.0,26.258485794067383
2017-07-07,27.649999618530273,27.649999618530273,27.649999618530273,27.649999618530273,0.0,26.258485794067383
2017-07-10,27.649999618530273,27.649999618530273,27.649999618530273,27.649999618530273,0.0,26.258485794067383
2017-07-11,27.649999618530273,27.649999618530273,27.649999618530273,27.649999618530273,0.0,26.258485794067383
2017-07-12,27.649999618530273,27.649999618530273,27.649999618530273,27.649999618530273,0.0,26.258485794067383
2017-07-13,27.649999618530273,27.649999618530273,27.649999618530273,27.649999618530273,0.0,26.258485794067383
2017-07-14,27.649999618530273,27.649999618530273,27.649999618530273,27.649999618530273,0.0,26.258485794067383
2017-07-17,27.649999618530273,27.649999618530273,27.649999618530273,27.649999618530273,0.0,26.258485794067383
2017-07-18,27.746999740600586,27.746999740600586,27.746999740600586,27.746999740600586,1900.0,26.350605010986328
2017-07-19,27.746999740600586,27.746999740600586,27.746999740600586,27.746999740600586,0.0,26.350605010986328
2017-07-20,27.746999740600586,27.746999740600586,27.746999740600586,27.746999740600586,0.0,26.350605010986328
2017-07-21,27.746999740600586,27.746999740600586,27.746999740600586,27.746999740600586,0.0,26.350605010986328
2017-07-24,27.809999465942383,27.759000778198242,27.759000778198242,27.790000915527344,4200.0,26.39143943786621
2017-07-25,27.8700008392334,27.864999771118164,27.8700008392334,27.864999771118164,900.0,26.462665557861328
2017-07-26,27.864999771118164,27.864999771118164,27.864999771118164,27.864999771118164,100.0,26.462665557861328
2017-07-27,27.864999771118164,27.864999771118164,27.864999771118164,27.864999771118164,0.0,26.462665557861328
2017-07-28,27.864999771118164,27.864999771118164,27.864999771118164,27.864999771118164,0.0,26.462665557861328
2017-07-31,27.899999618530273,27.875,27.875,27.899999618530273,700.0,26.49590492248535
2017-08-01,28.1200008392334,28.049999237060547,28.110000610351562,28.049999237060547,700.0,26.638355255126953
2017-08-02,28.049999237060547,28.049999237060547,28.049999237060547,28.049999237060547,100.0,26.638355255126953
2017-08-03,28.139999389648438,28.139999389648438,28.139999389648438,28.139999389648438,100.0,26.723827362060547
2017-08-04,28.139999389648438,28.139999389648438,28.139999389648438,28.139999389648438,0.0,26.723827362060547
2017-08-07,28.219999313354492,28.17799949645996,28.17799949645996,28.219999313354492,1300.0,26.7997989654541
2017-08-08,28.219999313354492,28.219999313354492,28.219999313354492,28.219999313354492,0.0,26.7997989654541
2017-08-09,28.219999313354492,28.219999313354492,28.219999313354492,28.219999313354492,0.0,26.7997989654541
2017-08-10,27.649999618530273,27.649999618530273,27.649999618530273,27.649999618530273,300.0,26.258485794067383
2017-08-11,27.649999618530273,27.649999618530273,27.649999618530273,27.649999618530273,100.0,26.258485794067383
2017-08-14,27.649999618530273,27.649999618530273,27.649999618530273,27.649999618530273,500.0,26.258485794067383
2017-08-15,27.979999542236328,27.979999542236328,27.979999542236328,27.979999542236328,100.0,26.571874618530273
2017-08-16,27.979999542236328,27.979999542236328,27.979999542236328,27.979999542236328,100.0,26.571874618530273
2017-08-17,27.979999542236328,27.979999542236328,27.979999542236328,27.979999542236328,0.0,26.571874618530273
2017-08-18,27.56999969482422,27.40999984741211,27.56999969482422,27.40999984741211,200.0,26.03056526184082
2017-08-21,27.43000030517578,27.420000076293945,27.420000076293945,27.43000030517578,300.0,26.049560546875
2017-08-22,27.43000030517578,27.43000030517578,27.43000030517578,27.43000030517578,0.0,26.049560546875
2017-08-23,27.43000030517578,27.43000030517578,27.43000030517578,27.43000030517578,0.0,26.049560546875
2017-08-24,27.43000030517578,27.43000030517578,27.43000030517578,27.43000030517578,0.0,26.049560546875
2017-08-25,27.43000030517578,27.43000030517578,27.43000030517578,27.43000030517578,0.0,26.049560546875
2017-08-28,27.43000030517578,27.43000030517578,27.43000030517578,27.43000030517578,0.0,26.049560546875
2017-08-29,27.239999771118164,27.239999771118164,27.239999771118164,27.239999771118164,100.0,25.86911964416504
2017-08-30,27.239999771118164,27.239999771118164,27.239999771118164,27.239999771118164,0.0,25.86911964416504
2017-08-31,27.719999313354492,27.719999313354492,27.719999313354492,27.719999313354492,400.0,26.324960708618164
2017-09-01,27.719999313354492,27.719999313354492,27.719999313354492,27.719999313354492,0.0,26.324960708618164
2017-09-05,27.719999313354492,27.719999313354492,27.719999313354492,27.719999313354492,0.0,26.324960708618164
2017-09-06,27.719999313354492,27.719999313354492,27.719999313354492,27.719999313354492,0.0,26.324960708618164
2017-09-07,27.850000381469727,27.850000381469727,27.850000381469727,27.850000381469727,0.0,26.448421478271484
2017-09-08,27.850000381469727,27.850000381469727,27.850000381469727,27.850000381469727,0.0,26.448421478271484
2017-09-11,27.850000381469727,27.850000381469727,27.850000381469727,27.850000381469727,0.0,26.448421478271484
2017-09-12,27.850000381469727,27.850000381469727,27.850000381469727,27.850000381469727,0.0,26.448421478271484
2017-09-13,27.850000381469727,27.850000381469727,27.850000381469727,27.850000381469727,0.0,26.448421478271484
2017-09-14,27.850000381469727,27.850000381469727,27.850000381469727,27.850000381469727,0.0,26.448421478271484
2017-09-15,27.850000381469727,27.850000381469727,27.850000381469727,27.850000381469727,0.0,26.448421478271484
2017-09-18,27.850000381469727,27.850000381469727,27.850000381469727,27.850000381469727,100.0,26.448421478271484
2017-09-19,27.850000381469727,27.850000381469727,27.850000381469727,27.850000381469727,0.0,26.448421478271484
2017-09-20,27.850000381469727,27.850000381469727,27.850000381469727,27.850000381469727,0.0,26.448421478271484
2017-09-21,27.850000381469727,27.850000381469727,27.850000381469727,27.850000381469727,0.0,26.448421478271484
2017-09-22,27.850000381469727,27.850000381469727,27.850000381469727,27.850000381469727,0.0,26.448421478271484
2017-09-25,27.850000381469727,27.850000381469727,27.850000381469727,27.850000381469727,0.0,26.448421478271484
2017-09-26,27.850000381469727,27.850000381469727,27.850000381469727,27.850000381469727,0.0,27.016889572143555
2017-09-27,27.263999938964844,27.263999938964844,27.263999938964844,27.263999938964844,100.0,26.448421478271484
2017-09-28,27.263999938964844,27.263999938964844,27.263999938964844,27.263999938964844,100.0,26.448421478271484
2017-09-29,28.15999984741211,28.15999984741211,28.15999984741211,28.15999984741211,100.0,27.317615509033203
2017-10-02,28.15999984741211,28.15999984741211,28.15999984741211,28.15999984741211,100.0,27.317615509033203
2017-10-03,28.15999984741211,28.15999984741211,28.15999984741211,28.15999984741211,0.0,27.317615509033203
2017-10-04,28.15999984741211,28.15999984741211,28.15999984741211,28.15999984741211,100.0,27.317615509033203
2017-10-05,28.25,28.25,28.25,28.25,400.0,27.404924392700195
2017-10-06,28.350000381469727,28.350000381469727,28.350000381469727,28.350000381469727,1600.0,27.501935958862305
2017-10-09,28.350000381469727,28.350000381469727,28.350000381469727,28.350000381469727,0.0,27.501935958862305
2017-10-10,28.350000381469727,28.350000381469727,28.350000381469727,28.350000381469727,0.0,27.501935958862305
2017-10-11,28.350000381469727,28.350000381469727,28.350000381469727,28.350000381469727,0.0,27.501935958862305
2017-10-12,28.350000381469727,28.350000381469727,28.350000381469727,28.350000381469727,0.0,27.501935958862305
2017-10-13,28.350000381469727,28.350000381469727,28.350000381469727,28.350000381469727,0.0,27.501935958862305
2017-10-16,28.920000076293945,28.920000076293945,28.920000076293945,28.920000076293945,400.0,28.054882049560547
2017-10-17,28.920000076293945,28.920000076293945,28.920000076293945,28.920000076293945,0.0,28.054882049560547
2017-10-18,28.920000076293945,28.920000076293945,28.920000076293945,28.920000076293945,100.0,28.054882049560547
2017-10-19,28.719999313354492,28.719999313354492,28.719999313354492,28.719999313354492,100.0,27.860864639282227
2017-10-20,28.719999313354492,28.719999313354492,28.719999313354492,28.719999313354492,0.0,27.860864639282227
2017-10-23,29.1200008392334,29.1200008392334,29.1200008392334,29.1200008392334,100.0,28.248899459838867
2017-10-24,29.1200008392334,29.1200008392334,29.1200008392334,29.1200008392334,0.0,28.248899459838867
2017-10-25,29.12299919128418,29.110000610351562,29.110000610351562,29.12299919128418,500.0,28.251808166503906
2017-10-26,29.12299919128418,29.12299919128418,29.12299919128418,29.12299919128418,0.0,28.251808166503906
2017-10-27,29.12299919128418,29.12299919128418,29.12299919128418,29.12299919128418,0.0,28.251808166503906
2017-10-30,29.420000076293945,29.408000946044922,29.408000946044922,29.409000396728516,300.0,28.529253005981445
2017-10-31,29.559999465942383,29.559999465942383,29.559999465942383,29.559999465942383,100.0,28.675737380981445
2017-11-01,29.809999465942383,29.780000686645508,29.780000686645508,29.790000915527344,2400.0,28.89885902404785
2017-11-02,29.760000228881836,29.760000228881836,29.760000228881836,29.760000228881836,200.0,28.869754791259766
2017-11-03,29.760000228881836,29.760000228881836,29.760000228881836,29.760000228881836,100.0,28.869754791259766
2017-11-06,29.760000228881836,29.760000228881836,29.760000228881836,29.760000228881836,0.0,28.869754791259766
2017-11-07,30.040000915527344,30.040000915527344,30.040000915527344,30.040000915527344,500.0,29.141376495361328
2017-11-08,30.239999771118164,30.18000030517578,30.229999542236328,30.239999771118164,600.0,29.33539581298828
2017-11-09,29.8799991607666,29.8799991607666,29.8799991607666,29.8799991607666,100.0,28.986164093017578
2017-11-10,29.700000762939453,29.700000762939453,29.700000762939453,29.700000762939453,400.0,28.81155014038086
2017-11-13,29.610000610351562,29.608999252319336,29.608999252319336,29.610000610351562,400.0,28.724241256713867
2017-11-14,29.610000610351562,29.610000610351562,29.610000610351562,29.610000610351562,100.0,28.724241256713867
2017-11-15,29.02400016784668,28.97800064086914,28.97800064086914,29.02400016784668,700.0,28.155773162841797
2017-11-16,29.347999572753906,29.347999572753906,29.347999572753906,29.347999572753906,100.0,28.47007942199707
2017-11-17,29.347999572753906,29.347999572753906,29.347999572753906,29.347999572753906,100.0,28.47007942199707
2017-11-20,29.42799949645996,29.399999618530273,29.42799949645996,29.415000915527344,500.0,28.535076141357422
2017-11-21,29.6299991607666,29.6299991607666,29.6299991607666,29.6299991607666,300.0,28.743642807006836
2017-11-22,29.6299991607666,29.6299991607666,29.6299991607666,29.6299991607666,100.0,28.743642807006836
2017-11-24,29.69700050354004,29.69700050354004,29.69700050354004,29.69700050354004,200.0,28.808639526367188
2017-11-27,29.559999465942383,29.510000228881836,29.559999465942383,29.510000228881836,700.0,28.627233505249023
2017-11-28,29.649999618530273,29.649999618530273,29.649999618530273,29.649999618530273,200.0,28.763044357299805
2017-11-29,29.649999618530273,29.649999618530273,29.649999618530273,29.649999618530273,100.0,28.763044357299805
2017-11-30,29.649999618530273,29.649999618530273,29.649999618530273,29.649999618530273,100.0,28.763044357299805
2017-12-01,29.649999618530273,29.649999618530273,29.649999618530273,29.649999618530273,200.0,28.763044357299805
2017-12-04,29.649999618530273,29.649999618530273,29.649999618530273,29.649999618530273,0.0,28.763044357299805
2017-12-05,29.649999618530273,29.649999618530273,29.649999618530273,29.649999618530273,0.0,28.763044357299805
2017-12-06,29.649999618530273,29.649999618530273,29.649999618530273,29.649999618530273,100.0,28.763044357299805
2017-12-07,29.649999618530273,29.649999618530273,29.649999618530273,29.649999618530273,0.0,28.763044357299805
2017-12-08,29.649999618530273,29.649999618530273,29.649999618530273,29.649999618530273,100.0,28.763044357299805
2017-12-11,29.649999618530273,29.649999618530273,29.649999618530273,29.649999618530273,100.0,28.763044357299805
2017-12-12,29.649999618530273,29.649999618530273,29.649999618530273,29.649999618530273,0.0,28.763044357299805
2017-12-13,29.649999618530273,29.649999618530273,29.649999618530273,29.649999618530273,0.0,28.763044357299805
2017-12-14,29.649999618530273,29.649999618530273,29.649999618530273,29.649999618530273,0.0,28.763044357299805
2017-12-15,29.649999618530273,29.649999618530273,29.649999618530273,29.649999618530273,0.0,28.763044357299805
2017-12-18,29.649999618530273,29.649999618530273,29.649999618530273,29.649999618530273,0.0,28.763044357299805
2017-12-19,29.649999618530273,29.649999618530273,29.649999618530273,29.649999618530273,100.0,28.763044357299805
2017-12-20,30.198999404907227,30.179000854492188,30.198999404907227,30.179000854492188,1200.0,29.276220321655273
2017-12-21,30.299999237060547,30.299999237060547,30.299999237060547,30.299999237060547,100.0,29.393598556518555
2017-12-22,30.299999237060547,30.299999237060547,30.299999237060547,30.299999237060547,100.0,29.393598556518555
2017-12-26,30.040000915527344,29.90999984741211,30.040000915527344,29.90999984741211,1200.0,29.408348083496094
2017-12-27,29.90999984741211,29.90999984741211,29.90999984741211,29.90999984741211,0.0,29.408348083496094
2017-12-28,29.899999618530273,29.860000610351562,29.899999618530273,29.8700008392334,600.0,29.369020462036133
2017-12-29,29.959999084472656,29.959999084472656,29.959999084472656,29.959999084472656,100.0,29.45751190185547
2018-01-02,29.8799991607666,29.8799991607666,29.8799991607666,29.8799991607666,900.0,29.37885284423828
2018-01-03,30.32900047302246,30.1200008392334,30.1200008392334,30.31999969482422,900.0,29.811471939086914
2018-01-04,30.31999969482422,30.31999969482422,30.31999969482422,30.31999969482422,0.0,29.811471939086914
2018-01-05,30.81999969482422,30.809999465942383,30.81999969482422,30.809999465942383,300.0,30.29325294494629
2018-01-08,31.0,30.989999771118164,30.989999771118164,31.0,300.0,30.48006820678711
2018-01-09,31.0,31.0,31.0,31.0,100.0,30.48006820678711
2018-01-10,31.0,31.0,31.0,31.0,100.0,30.48006820678711
2018-01-11,31.0,30.979999542236328,30.979999542236328,31.0,200.0,30.48006820678711
2018-01-12,31.100000381469727,31.059999465942383,31.100000381469727,31.059999465942383,300.0,30.539060592651367
2018-01-16,31.190000534057617,31.084999084472656,31.190000534057617,31.084999084472656,300.0,30.563640594482422
2018-01-17,31.084999084472656,31.084999084472656,31.084999084472656,31.084999084472656,100.0,30.563640594482422
2018-01-18,31.059999465942383,30.889999389648438,31.059999465942383,30.899999618530273,800.0,30.381746292114258
2018-01-19,31.09000015258789,31.06999969482422,31.06999969482422,31.09000015258789,1200.0,30.568557739257812
2018-01-22,31.09000015258789,31.09000015258789,31.09000015258789,31.09000015258789,0.0,30.568557739257812
2018-01-23,31.290000915527344,31.283000946044922,31.283000946044922,31.290000915527344,1800.0,30.76520347595215
2018-01-24,31.290000915527344,31.290000915527344,31.290000915527344,31.290000915527344,0.0,30.76520347595215
2018-01-25,31.010000228881836,30.989999771118164,31.0,30.989999771118164,900.0,30.47023582458496
2018-01-26,30.989999771118164,30.989999771118164,30.989999771118164,30.989999771118164,0.0,30.47023582458496
2018-01-29,31.010000228881836,30.930999755859375,30.930999755859375,31.010000228881836,400.0,30.489900588989258
2018-01-30,31.010000228881836,31.010000228881836,31.010000228881836,31.010000228881836,100.0,30.489900588989258
2018-01-31,30.469999313354492,30.44499969482422,30.469999313354492,30.44499969482422,1200.0,29.934377670288086
2018-02-01,30.44499969482422,30.44499969482422,30.44499969482422,30.44499969482422,0.0,29.934377670288086
2018-02-02,30.420000076293945,30.3700008392334,30.3700008392334,30.420000076293945,700.0,29.9097957611084
2018-02-05,30.420000076293945,30.420000076293945,30.420000076293945,30.420000076293945,100.0,29.9097957611084
2018-02-06,28.850000381469727,28.850000381469727,28.850000381469727,28.850000381469727,1600.0,28.366127014160156
2018-02-07,29.459999084472656,29.31999969482422,29.31999969482422,29.459999084472656,4200.0,28.96589469909668
2018-02-08,28.600000381469727,28.600000381469727,28.600000381469727,28.600000381469727,100.0,28.120323181152344
2018-02-09,28.600000381469727,28.600000381469727,28.600000381469727,28.600000381469727,0.0,28.120323181152344
2018-02-12,28.600000381469727,28.600000381469727,28.600000381469727,28.600000381469727,0.0,28.120323181152344
2018-02-13,28.600000381469727,28.600000381469727,28.600000381469727,28.600000381469727,0.0,28.120323181152344
2018-02-14,28.600000381469727,28.600000381469727,28.600000381469727,28.600000381469727,0.0,28.120323181152344
2018-02-15,28.600000381469727,28.600000381469727,28.600000381469727,28.600000381469727,0.0,28.120323181152344
2018-02-16,28.600000381469727,28.600000381469727,28.600000381469727,28.600000381469727,0.0,28.120323181152344
2018-02-20,28.600000381469727,28.600000381469727,28.600000381469727,28.600000381469727,0.0,28.120323181152344
2018-02-21,28.600000381469727,28.600000381469727,28.600000381469727,28.600000381469727,0.0,28.120323181152344
2018-02-22,28.600000381469727,28.600000381469727,28.600000381469727,28.600000381469727,0.0,28.120323181152344
2018-02-23,28.600000381469727,28.600000381469727,28.600000381469727,28.600000381469727,0.0,28.120323181152344
2018-02-26,28.600000381469727,28.600000381469727,28.600000381469727,28.600000381469727,0.0,28.120323181152344
2018-02-27,29.65999984741211,29.65999984741211,29.65999984741211,29.65999984741211,200.0,29.16254234313965
2018-02-28,29.65999984741211,29.65999984741211,29.65999984741211,29.65999984741211,100.0,29.16254234313965
2018-03-01,29.010000228881836,29.010000228881836,29.010000228881836,29.010000228881836,100.0,28.5234432220459
2018-03-02,29.010000228881836,29.010000228881836,29.010000228881836,29.010000228881836,0.0,28.5234432220459
2018-03-05,29.010000228881836,29.010000228881836,29.010000228881836,29.010000228881836,0.0,28.5234432220459
2018-03-06,29.010000228881836,29.010000228881836,29.010000228881836,29.010000228881836,100.0,28.5234432220459
2018-03-07,29.010000228881836,29.010000228881836,29.010000228881836,29.010000228881836,0.0,28.5234432220459
2018-03-08,28.639999389648438,28.639999389648438,28.639999389648438,28.639999389648438,100.0,28.159648895263672
2018-03-09,28.639999389648438,28.639999389648438,28.639999389648438,28.639999389648438,0.0,28.159648895263672
2018-03-12,28.639999389648438,28.639999389648438,28.639999389648438,28.639999389648438,0.0,28.159648895263672
2018-03-13,28.8799991607666,28.8799991607666,28.8799991607666,28.8799991607666,100.0,28.3956241607666
2018-03-14,28.8799991607666,28.8799991607666,28.8799991607666,28.8799991607666,100.0,28.3956241607666
2018-03-15,28.8799991607666,28.8799991607666,28.8799991607666,28.8799991607666,0.0,28.3956241607666
2018-03-16,28.8799991607666,28.8799991607666,28.8799991607666,28.8799991607666,0.0,28.3956241607666
2018-03-19,28.8799991607666,28.8799991607666,28.8799991607666,28.8799991607666,0.0,28.3956241607666
2018-03-20,28.679000854492188,28.679000854492188,28.679000854492188,28.679000854492188,400.0,28.197996139526367
2018-03-21,28.520000457763672,28.520000457763672,28.520000457763672,28.520000457763672,100.0,28.041662216186523
2018-03-22,28.469999313354492,28.469999313354492,28.469999313354492,28.469999313354492,200.0,27.99250030517578
2018-03-23,28.010000228881836,28.010000228881836,28.010000228881836,28.010000228881836,100.0,27.54021453857422
2018-03-26,28.059999465942383,28.059999465942383,28.059999465942383,28.059999465942383,100.0,27.58937644958496
2018-03-27,28.059999465942383,28.059999465942383,28.059999465942383,28.059999465942383,0.0,27.58937644958496
2018-03-28,28.520000457763672,28.520000457763672,28.520000457763672,28.520000457763672,100.0,28.041662216186523
2018-03-29,29.0,29.0,29.0,29.0,200.0,28.51361083984375
2018-04-02,29.0,29.0,29.0,29.0,0.0,28.51361083984375
2018-04-03,29.0,29.0,29.0,29.0,0.0,28.51361083984375
2018-04-04,29.0,29.0,29.0,29.0,0.0,28.51361083984375
2018-04-05,29.0,29.0,29.0,29.0,0.0,28.51361083984375
2018-04-06,29.0,29.0,29.0,29.0,0.0,28.51361083984375
2018-04-09,29.0,29.0,29.0,29.0,0.0,28.51361083984375
2018-04-10,29.0,29.0,29.0,29.0,0.0,28.51361083984375
2018-04-11,29.0,29.0,29.0,29.0,0.0,28.51361083984375
2018-04-12,29.0,29.0,29.0,29.0,0.0,28.51361083984375
2018-04-13,29.0,29.0,29.0,29.0,0.0,28.51361083984375
2018-04-16,29.0,29.0,29.0,29.0,0.0,28.51361083984375
2018-04-17,29.0,29.0,29.0,29.0,0.0,28.51361083984375
2018-04-18,29.31999969482422,29.31999969482422,29.31999969482422,29.31999969482422,100.0,28.828245162963867
2018-04-19,29.31999969482422,29.31999969482422,29.31999969482422,29.31999969482422,0.0,28.828245162963867
2018-04-20,29.31999969482422,29.31999969482422,29.31999969482422,29.31999969482422,0.0,28.828245162963867
2018-04-23,29.350000381469727,29.350000381469727,29.350000381469727,29.350000381469727,100.0,28.85774040222168
2018-04-24,29.350000381469727,29.350000381469727,29.350000381469727,29.350000381469727,0.0,28.85774040222168
2018-04-25,29.350000381469727,29.350000381469727,29.350000381469727,29.350000381469727,0.0,28.85774040222168
2018-04-26,29.3700008392334,29.3700008392334,29.3700008392334,29.3700008392334,100.0,28.877405166625977
2018-04-27,29.56999969482422,29.56999969482422,29.56999969482422,29.56999969482422,100.0,29.074050903320312
2018-04-30,29.56999969482422,29.56999969482422,29.56999969482422,29.56999969482422,0.0,29.074050903320312
2018-05-01,29.56999969482422,29.56999969482422,29.56999969482422,29.56999969482422,0.0,29.074050903320312
2018-05-02,29.360000610351562,29.360000610351562,29.360000610351562,29.360000610351562,200.0,28.86757469177246
2018-05-03,29.360000610351562,29.360000610351562,29.360000610351562,29.360000610351562,100.0,28.86757469177246
2018-05-04,29.360000610351562,29.360000610351562,29.360000610351562,29.360000610351562,0.0,28.86757469177246
2018-05-07,29.360000610351562,29.360000610351562,29.360000610351562,29.360000610351562,0.0,28.86757469177246
2018-05-08,29.360000610351562,29.360000610351562,29.360000610351562,29.360000610351562,0.0,28.86757469177246
2018-05-09,29.299999237060547,29.299999237060547,29.299999237060547,29.299999237060547,200.0,28.808578491210938
2018-05-10,29.299999237060547,29.299999237060547,29.299999237060547,29.299999237060547,0.0,28.808578491210938
2018-05-11,29.700000762939453,29.700000762939453,29.700000762939453,29.700000762939453,100.0,29.201871871948242
2018-05-14,29.700000762939453,29.700000762939453,29.700000762939453,29.700000762939453,0.0,29.201871871948242
2018-05-15,29.649999618530273,29.649999618530273,29.649999618530273,29.649999618530273,100.0,29.152708053588867
2018-05-16,29.649999618530273,29.649999618530273,29.649999618530273,29.649999618530273,0.0,29.152708053588867
2018-05-17,29.649999618530273,29.649999618530273,29.649999618530273,29.649999618530273,0.0,29.152708053588867
2018-05-18,29.649999618530273,29.649999618530273,29.649999618530273,29.649999618530273,100.0,29.152708053588867
2018-05-21,29.649999618530273,29.649999618530273,29.649999618530273,29.649999618530273,0.0,29.152708053588867
2018-05-22,29.649999618530273,29.649999618530273,29.649999618530273,29.649999618530273,0.0,29.152708053588867
2018-05-23,29.469999313354492,29.3700008392334,29.389999389648438,29.395000457763672,3200.0,28.901988983154297
2018-05-24,29.270000457763672,29.270000457763672,29.270000457763672,29.270000457763672,200.0,28.779083251953125
2018-05-25,29.121000289916992,29.06999969482422,29.06999969482422,29.079999923706055,700.0,28.592269897460938
2018-05-29,28.73900032043457,28.73900032043457,28.73900032043457,28.73900032043457,300.0,28.256988525390625
2018-05-30,29.010000228881836,29.010000228881836,29.010000228881836,29.010000228881836,200.0,28.5234432220459
2018-05-31,29.010000228881836,29.010000228881836,29.010000228881836,29.010000228881836,0.0,28.5234432220459
2018-06-01,29.010000228881836,29.010000228881836,29.010000228881836,29.010000228881836,0.0,28.5234432220459
2018-06-04,29.010000228881836,29.010000228881836,29.010000228881836,29.010000228881836,100.0,28.5234432220459
2018-06-05,29.010000228881836,29.010000228881836,29.010000228881836,29.010000228881836,100.0,28.5234432220459
2018-06-06,29.010000228881836,29.010000228881836,29.010000228881836,29.010000228881836,100.0,28.5234432220459
2018-06-07,29.010000228881836,29.010000228881836,29.010000228881836,29.010000228881836,0.0,28.5234432220459
2018-06-08,29.010000228881836,29.010000228881836,29.010000228881836,29.010000228881836,0.0,28.5234432220459
2018-06-11,29.010000228881836,29.010000228881836,29.010000228881836,29.010000228881836,0.0,28.5234432220459
2018-06-12,29.010000228881836,29.010000228881836,29.010000228881836,29.010000228881836,0.0,28.5234432220459
2018-06-13,29.010000228881836,29.010000228881836,29.010000228881836,29.010000228881836,100.0,28.5234432220459
2018-06-14,29.309999465942383,29.309999465942383,29.309999465942383,29.309999465942383,100.0,28.818410873413086
2018-06-15,29.309999465942383,29.309999465942383,29.309999465942383,29.309999465942383,0.0,28.818410873413086
2018-06-18,29.309999465942383,29.309999465942383,29.309999465942383,29.309999465942383,0.0,28.818410873413086
2018-06-19,28.562000274658203,28.549999237060547,28.549999237060547,28.549999237060547,500.0,28.071157455444336
2018-06-20,28.549999237060547,28.549999237060547,28.549999237060547,28.549999237060547,0.0,28.071157455444336
2018-06-21,28.549999237060547,28.549999237060547,28.549999237060547,28.549999237060547,0.0,28.071157455444336
2018-06-22,28.670000076293945,28.65999984741211,28.65999984741211,28.670000076293945,500.0,28.189146041870117
2018-06-25,28.670000076293945,28.670000076293945,28.670000076293945,28.670000076293945,0.0,28.287813186645508
2018-06-26,28.56999969482422,28.56999969482422,28.56999969482422,28.56999969482422,0.0,28.189144134521484
2018-06-27,28.670000076293945,28.670000076293945,28.670000076293945,28.670000076293945,0.0,28.287813186645508
2018-06-28,28.56999969482422,28.56999969482422,28.56999969482422,28.56999969482422,0.0,28.189144134521484
2018-06-29,28.56999969482422,28.56999969482422,28.56999969482422,28.56999969482422,100.0,28.189144134521484
2018-07-02,27.540000915527344,27.540000915527344,27.540000915527344,27.540000915527344,0.0,27.172876358032227
2018-07-03,27.540000915527344,27.540000915527344,27.540000915527344,27.540000915527344,0.0,27.172876358032227
2018-07-05,27.540000915527344,27.540000915527344,27.540000915527344,27.540000915527344,0.0,27.172876358032227
2018-07-06,27.540000915527344,27.540000915527344,27.540000915527344,27.540000915527344,0.0,27.172876358032227
2018-07-09,27.540000915527344,27.540000915527344,27.540000915527344,27.540000915527344,0.0,27.172876358032227
2018-07-10,27.540000915527344,27.540000915527344,27.540000915527344,27.540000915527344,0.0,27.172876358032227
2018-07-11,27.540000915527344,27.540000915527344,27.540000915527344,27.540000915527344,0.0,27.172876358032227
2018-07-12,27.540000915527344,27.540000915527344,27.540000915527344,27.540000915527344,0.0,27.172876358032227
2018-07-13,27.540000915527344,27.540000915527344,27.540000915527344,27.540000915527344,0.0,27.172876358032227
2018-07-16,27.540000915527344,27.540000915527344,27.540000915527344,27.540000915527344,100.0,27.172876358032227
2018-07-17,27.540000915527344,27.540000915527344,27.540000915527344,27.540000915527344,0.0,27.172876358032227
2018-07-18,27.540000915527344,27.540000915527344,27.540000915527344,27.540000915527344,0.0,27.172876358032227
2018-07-19,28.347999572753906,28.329999923706055,28.329999923706055,28.347999572753906,500.0,27.970104217529297
2018-07-20,28.347999572753906,28.347999572753906,28.347999572753906,28.347999572753906,0.0,27.970104217529297
2018-07-23,28.347999572753906,28.347999572753906,28.347999572753906,28.347999572753906,0.0,27.970104217529297
2018-07-24,28.347999572753906,28.347999572753906,28.347999572753906,28.347999572753906,100.0,27.970104217529297
2018-07-25,28.347999572753906,28.347999572753906,28.347999572753906,28.347999572753906,100.0,27.970104217529297
2018-07-26,28.347999572753906,28.347999572753906,28.347999572753906,28.347999572753906,100.0,27.970104217529297
2018-07-27,28.347999572753906,28.347999572753906,28.347999572753906,28.347999572753906,0.0,27.970104217529297
2018-07-30,28.347999572753906,28.347999572753906,28.347999572753906,28.347999572753906,0.0,27.970104217529297
2018-07-31,28.347999572753906,28.347999572753906,28.347999572753906,28.347999572753906,0.0,27.970104217529297
2018-08-01,28.347999572753906,28.347999572753906,28.347999572753906,28.347999572753906,0.0,27.970104217529297
2018-08-02,28.347999572753906,28.347999572753906,28.347999572753906,28.347999572753906,0.0,27.970104217529297
2018-08-03,28.347999572753906,28.347999572753906,28.347999572753906,28.347999572753906,0.0,27.970104217529297
2018-08-06,28.347999572753906,28.347999572753906,28.347999572753906,28.347999572753906,100.0,27.970104217529297
2018-08-07,28.347999572753906,28.347999572753906,28.347999572753906,28.347999572753906,0.0,27.970104217529297
2018-08-08,28.729999542236328,28.729999542236328,28.729999542236328,28.729999542236328,0.0,28.34701156616211
2018-08-09,28.531999588012695,28.530000686645508,28.530000686645508,28.531999588012695,200.0,28.15165138244629
2018-08-10,28.531999588012695,28.531999588012695,28.531999588012695,28.531999588012695,0.0,28.15165138244629
2018-08-13,27.940000534057617,27.940000534057617,27.940000534057617,27.940000534057617,200.0,27.56754493713379
2018-08-14,27.940000534057617,27.940000534057617,27.940000534057617,27.940000534057617,0.0,27.56754493713379
2018-08-15,27.940000534057617,27.940000534057617,27.940000534057617,27.940000534057617,0.0,27.56754493713379
2018-08-16,27.940000534057617,27.940000534057617,27.940000534057617,27.940000534057617,0.0,27.56754493713379
2018-08-17,27.940000534057617,27.940000534057617,27.940000534057617,27.940000534057617,0.0,27.56754493713379
2018-08-20,27.940000534057617,27.940000534057617,27.940000534057617,27.940000534057617,0.0,27.56754493713379
2018-08-21,27.940000534057617,27.940000534057617,27.940000534057617,27.940000534057617,0.0,27.56754493713379
2018-08-22,27.940000534057617,27.940000534057617,27.940000534057617,27.940000534057617,0.0,27.56754493713379
2018-08-23,27.940000534057617,27.940000534057617,27.940000534057617,27.940000534057617,100.0,27.56754493713379
2018-08-24,28.059999465942383,28.059999465942383,28.059999465942383,28.059999465942383,400.0,27.685943603515625
2018-08-27,28.059999465942383,28.059999465942383,28.059999465942383,28.059999465942383,0.0,27.685943603515625
2018-08-28,28.059999465942383,28.059999465942383,28.059999465942383,28.059999465942383,0.0,27.685943603515625
2018-08-29,28.059999465942383,28.059999465942383,28.059999465942383,28.059999465942383,0.0,27.685943603515625
2018-08-30,28.059999465942383,28.059999465942383,28.059999465942383,28.059999465942383,0.0,27.685943603515625
2018-08-31,28.059999465942383,28.059999465942383,28.059999465942383,28.059999465942383,0.0,27.685943603515625
2018-09-04,28.059999465942383,28.059999465942383,28.059999465942383,28.059999465942383,0.0,27.685943603515625
2018-09-05,28.059999465942383,28.059999465942383,28.059999465942383,28.059999465942383,0.0,27.685943603515625
2018-09-06,28.059999465942383,28.059999465942383,28.059999465942383,28.059999465942383,0.0,27.685943603515625
2018-09-07,28.059999465942383,28.059999465942383,28.059999465942383,28.059999465942383,0.0,27.685943603515625
2018-09-10,28.059999465942383,28.059999465942383,28.059999465942383,28.059999465942383,0.0,27.685943603515625
2018-09-11,28.059999465942383,28.059999465942383,28.059999465942383,28.059999465942383,0.0,27.685943603515625
2018-09-12,28.059999465942383,28.059999465942383,28.059999465942383,28.059999465942383,0.0,27.685943603515625
2018-09-13,28.059999465942383,28.059999465942383,28.059999465942383,28.059999465942383,0.0,27.685943603515625
2018-09-14,28.059999465942383,28.059999465942383,28.059999465942383,28.059999465942383,100.0,27.685943603515625
2018-09-17,28.059999465942383,28.059999465942383,28.059999465942383,28.059999465942383,0.0,27.685943603515625
2018-09-18,28.920000076293945,28.920000076293945,28.920000076293945,28.920000076293945,100.0,28.53447914123535
2018-09-19,28.920000076293945,28.920000076293945,28.920000076293945,28.920000076293945,0.0,28.53447914123535
2018-09-20,28.920000076293945,28.920000076293945,28.920000076293945,28.920000076293945,0.0,28.53447914123535
2018-09-21,28.920000076293945,28.920000076293945,28.920000076293945,28.920000076293945,0.0,28.53447914123535
2018-09-24,28.920000076293945,28.920000076293945,28.920000076293945,28.920000076293945,0.0,28.53447914123535
2018-09-25,28.920000076293945,28.920000076293945,28.920000076293945,28.920000076293945,0.0,28.76523780822754
2018-09-26,28.920000076293945,28.920000076293945,28.920000076293945,28.920000076293945,0.0,28.76523780822754
2018-09-27,28.920000076293945,28.920000076293945,28.920000076293945,28.920000076293945,0.0,28.76523780822754
2018-09-28,29.59600067138672,29.469999313354492,29.59600067138672,29.469999313354492,700.0,29.312294006347656
2018-10-01,29.469999313354492,29.469999313354492,29.469999313354492,29.469999313354492,100.0,29.312294006347656
2018-10-02,29.469999313354492,29.469999313354492,29.469999313354492,29.469999313354492,0.0,29.312294006347656
2018-10-03,29.510000228881836,29.510000228881836,29.510000228881836,29.510000228881836,100.0,29.352081298828125
2018-10-04,29.21500015258789,29.21500015258789,29.21500015258789,29.21500015258789,100.0,29.05866050720215
2018-10-05,29.21500015258789,29.21500015258789,29.21500015258789,29.21500015258789,100.0,29.05866050720215
2018-10-08,29.21500015258789,29.21500015258789,29.21500015258789,29.21500015258789,0.0,29.05866050720215
2018-10-09,28.940000534057617,28.940000534057617,28.940000534057617,28.940000534057617,100.0,28.785131454467773
2018-10-10,28.549999237060547,28.520000457763672,28.520000457763672,28.549999237060547,200.0,28.397218704223633
2018-10-11,28.010000228881836,28.010000228881836,28.010000228881836,28.010000228881836,100.0,27.860109329223633
2018-10-12,27.639999389648438,27.639999389648438,27.639999389648438,27.639999389648438,100.0,27.492088317871094
2018-10-15,27.639999389648438,27.639999389648438,27.639999389648438,27.639999389648438,0.0,27.492088317871094
2018-10-16,27.639999389648438,27.639999389648438,27.639999389648438,27.639999389648438,0.0,27.492088317871094
2018-10-17,27.639999389648438,27.639999389648438,27.639999389648438,27.639999389648438,100.0,27.492088317871094
2018-10-18,27.639999389648438,27.639999389648438,27.639999389648438,27.639999389648438,100.0,27.492088317871094
2018-10-19,27.639999389648438,27.639999389648438,27.639999389648438,27.639999389648438,0.0,27.492088317871094
2018-10-22,27.639999389648438,27.639999389648438,27.639999389648438,27.639999389648438,0.0,27.492088317871094
2018-10-23,27.639999389648438,27.639999389648438,27.639999389648438,27.639999389648438,100.0,27.492088317871094
2018-10-24,27.639999389648438,27.639999389648438,27.639999389648438,27.639999389648438,0.0,27.492088317871094
2018-10-25,27.639999389648438,27.639999389648438,27.639999389648438,27.639999389648438,0.0,27.492088317871094
2018-10-26,27.639999389648438,27.639999389648438,27.639999389648438,27.639999389648438,0.0,27.492088317871094
2018-10-29,27.639999389648438,27.639999389648438,27.639999389648438,27.639999389648438,0.0,27.492088317871094
2018-10-30,27.639999389648438,27.639999389648438,27.639999389648438,27.639999389648438,0.0,27.492088317871094
2018-10-31,27.639999389648438,27.639999389648438,27.639999389648438,27.639999389648438,0.0,27.492088317871094
2018-11-01,27.639999389648438,27.639999389648438,27.639999389648438,27.639999389648438,100.0,27.492088317871094
2018-11-02,27.639999389648438,27.639999389648438,27.639999389648438,27.639999389648438,0.0,27.492088317871094
2018-11-05,27.110000610351562,27.110000610351562,27.110000610351562,27.110000610351562,100.0,26.96492576599121
2018-11-06,27.360000610351562,27.360000610351562,27.360000610351562,27.360000610351562,100.0,27.213586807250977
2018-11-07,27.360000610351562,27.360000610351562,27.360000610351562,27.360000610351562,0.0,27.213586807250977
2018-11-08,27.360000610351562,27.360000610351562,27.360000610351562,27.360000610351562,100.0,27.213586807250977
2018-11-09,27.360000610351562,27.360000610351562,27.360000610351562,27.360000610351562,0.0,27.213586807250977
2018-11-12,27.360000610351562,27.360000610351562,27.360000610351562,27.360000610351562,0.0,27.213586807250977
2018-11-13,27.360000610351562,27.360000610351562,27.360000610351562,27.360000610351562,0.0,27.213586807250977
2018-11-14,27.360000610351562,27.360000610351562,27.360000610351562,27.360000610351562,100.0,27.213586807250977
2018-11-15,27.360000610351562,27.360000610351562,27.360000610351562,27.360000610351562,0.0,27.213586807250977
2018-11-16,27.360000610351562,27.360000610351562,27.360000610351562,27.360000610351562,0.0,27.213586807250977
2018-11-19,27.360000610351562,27.360000610351562,27.360000610351562,27.360000610351562,0.0,27.213586807250977
2018-11-20,27.360000610351562,27.360000610351562,27.360000610351562,27.360000610351562,0.0,27.213586807250977
2018-11-21,27.360000610351562,27.360000610351562,27.360000610351562,27.360000610351562,0.0,27.213586807250977
2018-11-23,26.729999542236328,26.729999542236328,26.729999542236328,26.729999542236328,500.0,26.586957931518555
2018-11-26,27.15999984741211,27.149999618530273,27.15999984741211,27.149999618530273,1100.0,27.004709243774414
2018-11-27,27.149999618530273,27.149999618530273,27.149999618530273,27.149999618530273,0.0,27.004709243774414
2018-11-28,27.190000534057617,27.190000534057617,27.190000534057617,27.190000534057617,300.0,27.044496536254883
2018-11-29,27.190000534057617,27.190000534057617,27.190000534057617,27.190000534057617,0.0,27.044496536254883
2018-11-30,27.399999618530273,27.327999114990234,27.399999618530273,27.327999114990234,800.0,27.1817569732666
2018-12-03,27.327999114990234,27.327999114990234,27.327999114990234,27.327999114990234,0.0,27.1817569732666
2018-12-04,27.100000381469727,27.100000381469727,27.100000381469727,27.100000381469727,500.0,26.954978942871094
2018-12-06,27.100000381469727,27.100000381469727,27.100000381469727,27.100000381469727,300.0,26.954978942871094
2018-12-07,27.100000381469727,27.100000381469727,27.100000381469727,27.100000381469727,0.0,26.954978942871094
2018-12-10,27.100000381469727,27.100000381469727,27.100000381469727,27.100000381469727,0.0,26.954978942871094
2018-12-11,26.17300033569336,26.17300033569336,26.17300033569336,26.17300033569336,100.0,26.032939910888672
2018-12-12,26.548999786376953,26.402999877929688,26.548999786376953,26.402999877929688,500.0,26.261707305908203
2018-12-13,26.402999877929688,26.402999877929688,26.402999877929688,26.402999877929688,0.0,26.261707305908203
2018-12-14,26.142000198364258,26.142000198364258,26.142000198364258,26.142000198364258,100.0,26.002105712890625
2018-12-17,25.829999923706055,25.5310001373291,25.770000457763672,25.732999801635742,2300.0,25.595293045043945
2018-12-18,25.81999969482422,25.81999969482422,25.81999969482422,25.81999969482422,100.0,25.681827545166016
2018-12-19,25.81999969482422,25.81999969482422,25.81999969482422,25.81999969482422,0.0,25.681827545166016
2018-12-20,25.81999969482422,25.81999969482422,25.81999969482422,25.81999969482422,0.0,25.681827545166016
2018-12-21,24.65999984741211,24.292999267578125,24.65999984741211,24.292999267578125,200.0,24.16299819946289
2018-12-24,24.292999267578125,24.292999267578125,24.292999267578125,24.292999267578125,0.0,24.292999267578125
2018-12-26,24.430999755859375,23.780000686645508,23.780000686645508,24.430999755859375,400.0,24.430999755859375
2018-12-27,24.624000549316406,24.624000549316406,24.624000549316406,24.624000549316406,0.0,24.624000549316406
2018-12-28,24.628000259399414,24.628000259399414,24.628000259399414,24.628000259399414,200.0,24.628000259399414
2018-12-31,24.474000930786133,24.474000930786133,24.474000930786133,24.474000930786133,100.0,24.474000930786133
2019-01-02,24.510000228881836,24.510000228881836,24.510000228881836,24.510000228881836,200.0,24.510000228881836
2019-01-03,24.10300064086914,24.0,24.0,24.10300064086914,500.0,24.10300064086914
2019-01-04,24.10300064086914,24.10300064086914,24.10300064086914,24.10300064086914,0.0,24.10300064086914
2019-01-07,24.10300064086914,24.10300064086914,24.10300064086914,24.10300064086914,0.0,24.10300064086914
2019-01-08,24.10300064086914,24.10300064086914,24.10300064086914,24.10300064086914,0.0,24.10300064086914
2019-01-09,24.10300064086914,24.10300064086914,24.10300064086914,24.10300064086914,0.0,24.10300064086914
2019-01-10,25.652000427246094,25.652000427246094,25.652000427246094,25.652000427246094,100.0,25.652000427246094
2019-01-11,25.652000427246094,25.652000427246094,25.652000427246094,25.652000427246094,0.0,25.652000427246094
2019-01-14,25.652000427246094,25.652000427246094,25.652000427246094,25.652000427246094,0.0,25.652000427246094
2019-01-15,25.652000427246094,25.652000427246094,25.652000427246094,25.652000427246094,0.0,25.652000427246094
2019-01-16,25.652000427246094,25.652000427246094,25.652000427246094,25.652000427246094,0.0,25.652000427246094
2019-01-17,25.652000427246094,25.652000427246094,25.652000427246094,25.652000427246094,0.0,25.652000427246094
2019-01-18,25.652000427246094,25.652000427246094,25.652000427246094,25.652000427246094,0.0,25.652000427246094
2019-01-22,25.652000427246094,25.652000427246094,25.652000427246094,25.652000427246094,0.0,25.652000427246094
2019-01-23,25.820999145507812,25.69099998474121,25.820999145507812,25.69099998474121,600.0,25.69099998474121
2019-01-24,25.69099998474121,25.69099998474121,25.69099998474121,25.69099998474121,0.0,25.69099998474121
2019-01-25,26.0939998626709,26.0939998626709,26.0939998626709,26.0939998626709,0.0,26.0939998626709
2019-01-28,25.88599967956543,25.81999969482422,25.81999969482422,25.88599967956543,100.0,25.88599967956543
2019-01-29,25.937000274658203,25.937000274658203,25.937000274658203,25.937000274658203,0.0,25.937000274658203
2019-01-30,26.13599967956543,26.13599967956543,26.13599967956543,26.13599967956543,0.0,26.13599967956543
2019-01-31,26.114999771118164,26.114999771118164,26.114999771118164,26.114999771118164,0.0,26.114999771118164
2019-02-01,26.020999908447266,25.989999771118164,26.010000228881836,26.020999908447266,400.0,26.020999908447266
2019-02-04,26.201000213623047,26.1200008392334,26.1200008392334,26.201000213623047,100.0,26.201000213623047
2019-02-05,26.243999481201172,26.243999481201172,26.243999481201172,26.243999481201172,0.0,26.243999481201172
2019-02-06,25.966999053955078,25.966999053955078,25.966999053955078,25.966999053955078,0.0,25.966999053955078
2019-02-07,25.600000381469727,25.589000701904297,25.600000381469727,25.589000701904297,200.0,25.589000701904297
2019-02-08,25.31800079345703,25.31800079345703,25.31800079345703,25.31800079345703,0.0,25.31800079345703
2019-02-11,25.44300079345703,25.44300079345703,25.44300079345703,25.44300079345703,0.0,25.44300079345703
2019-02-12,25.841999053955078,25.841999053955078,25.841999053955078,25.841999053955078,0.0,25.841999053955078
2019-02-13,25.975000381469727,25.975000381469727,25.975000381469727,25.975000381469727,0.0,25.975000381469727
2019-02-14,25.886999130249023,25.886999130249023,25.886999130249023,25.886999130249023,100.0,25.886999130249023
2019-02-15,26.209999084472656,26.149999618530273,26.209999084472656,26.149999618530273,3400.0,26.149999618530273
2019-02-19,26.281999588012695,26.225000381469727,26.231000900268555,26.281999588012695,900.0,26.281999588012695
2019-02-20,26.32200050354004,26.32200050354004,26.32200050354004,26.32200050354004,0.0,26.32200050354004
2019-02-21,26.209999084472656,26.209999084472656,26.209999084472656,26.209999084472656,200.0,26.209999084472656
2019-02-22,26.263999938964844,26.263999938964844,26.263999938964844,26.263999938964844,100.0,26.263999938964844
2019-02-25,26.408000946044922,26.408000946044922,26.408000946044922,26.408000946044922,100.0,26.408000946044922
2019-02-26,26.488000869750977,26.469999313354492,26.469999313354492,26.488000869750977,200.0,26.488000869750977
2019-02-27,26.385000228881836,26.385000228881836,26.385000228881836,26.385000228881836,0.0,26.385000228881836
2019-02-28,26.21299934387207,26.21299934387207,26.21299934387207,26.21299934387207,0.0,26.21299934387207
2019-03-01,26.29199981689453,26.29199981689453,26.29199981689453,26.29199981689453,0.0,26.29199981689453
2019-03-04,26.134000778198242,26.134000778198242,26.134000778198242,26.134000778198242,0.0,26.134000778198242
2019-03-05,26.204999923706055,26.204999923706055,26.204999923706055,26.204999923706055,0.0,26.204999923706055
2019-03-06,26.035999298095703,26.035999298095703,26.035999298095703,26.035999298095703,0.0,26.035999298095703
2019-03-07,25.71299934387207,25.71299934387207,25.71299934387207,25.71299934387207,0.0,25.71299934387207
2019-03-08,25.55900001525879,25.55900001525879,25.55900001525879,25.55900001525879,0.0,25.55900001525879
2019-03-11,25.8700008392334,25.8700008392334,25.8700008392334,25.8700008392334,0.0,25.8700008392334
2019-03-12,25.8700008392334,25.8700008392334,25.8700008392334,25.8700008392334,0.0,25.8700008392334
2019-03-13,25.8700008392334,25.8700008392334,25.8700008392334,25.8700008392334,0.0,25.8700008392334
2019-03-14,25.736000061035156,25.736000061035156,25.736000061035156,25.736000061035156,0.0,25.736000061035156
2019-03-15,26.01300048828125,26.01300048828125,26.01300048828125,26.01300048828125,0.0,26.01300048828125
2019-03-18,26.100000381469727,26.079999923706055,26.079999923706055,26.100000381469727,300.0,26.100000381469727
2019-03-19,26.104000091552734,26.104000091552734,26.104000091552734,26.104000091552734,0.0,26.104000091552734
2019-03-20,26.006999969482422,26.006999969482422,26.006999969482422,26.006999969482422,0.0,26.006999969482422
2019-03-21,26.240999221801758,26.240999221801758,26.240999221801758,26.240999221801758,0.0,26.240999221801758
2019-03-22,25.8439998626709,25.8439998626709,25.8439998626709,25.8439998626709,0.0,25.8439998626709
2019-03-25,25.875999450683594,25.875999450683594,25.875999450683594,25.875999450683594,0.0,25.875999450683594
2019-03-26,26.270999908447266,26.270999908447266,26.270999908447266,26.270999908447266,0.0,26.270999908447266
2019-03-27,26.091999053955078,26.091999053955078,26.091999053955078,26.091999053955078,0.0,26.091999053955078
2019-03-28,26.06599998474121,26.06599998474121,26.06599998474121,26.06599998474121,0.0,26.06599998474121
2019-03-29,26.066299438476562,26.066299438476562,26.066299438476562,26.066299438476562,0.0,26.066299438476562
