Date,High,Low,Open,Close,Volume,Adj Close
2015-12-18,24.360000610351562,24.360000610351562,24.360000610351562,24.360000610351562,600.0,23.094890594482422
2015-12-21,24.360000610351562,24.360000610351562,24.360000610351562,24.360000610351562,0.0,23.094890594482422
2015-12-22,24.360000610351562,24.360000610351562,24.360000610351562,24.360000610351562,0.0,23.094890594482422
2015-12-23,24.360000610351562,24.360000610351562,24.360000610351562,24.360000610351562,0.0,23.094890594482422
2015-12-24,24.889999389648438,24.889999389648438,24.889999389648438,24.889999389648438,800.0,23.597362518310547
2015-12-28,24.969999313354492,24.742000579833984,24.742000579833984,24.969999313354492,700.0,23.67321014404297
2015-12-29,24.969999313354492,24.969999313354492,24.969999313354492,24.969999313354492,0.0,23.67321014404297
2015-12-30,24.969999313354492,24.969999313354492,24.969999313354492,24.969999313354492,0.0,23.67321014404297
2015-12-31,24.969999313354492,24.969999313354492,24.969999313354492,24.969999313354492,0.0,23.67321014404297
2016-01-04,24.350000381469727,24.290000915527344,24.350000381469727,24.290000915527344,1600.0,23.028526306152344
2016-01-05,24.290000915527344,24.290000915527344,24.290000915527344,24.290000915527344,0.0,23.028526306152344
2016-01-06,24.290000915527344,24.290000915527344,24.290000915527344,24.290000915527344,0.0,23.028526306152344
2016-01-07,23.899999618530273,23.899999618530273,23.899999618530273,23.899999618530273,200.0,22.658781051635742
2016-01-08,23.860000610351562,23.540000915527344,23.729999542236328,23.549999237060547,10200.0,22.326953887939453
2016-01-11,23.558000564575195,23.280000686645508,23.3700008392334,23.299999237060547,2100.0,22.089937210083008
2016-01-12,23.65999984741211,23.420000076293945,23.6299991607666,23.65999984741211,1100.0,22.431243896484375
2016-01-13,23.48900032043457,23.420000076293945,23.48900032043457,23.420000076293945,700.0,22.203712463378906
2016-01-14,23.479999542236328,23.049999237060547,23.049999237060547,23.31999969482422,3400.0,22.108901977539062
2016-01-15,23.31999969482422,23.31999969482422,23.31999969482422,23.31999969482422,0.0,22.108901977539062
2016-01-19,23.31999969482422,23.31999969482422,23.31999969482422,23.31999969482422,0.0,22.108901977539062
2016-01-20,23.31999969482422,23.31999969482422,23.31999969482422,23.31999969482422,0.0,22.108901977539062
2016-01-21,23.31999969482422,23.31999969482422,23.31999969482422,23.31999969482422,0.0,22.108901977539062
2016-01-22,23.31999969482422,23.31999969482422,23.31999969482422,23.31999969482422,0.0,22.108901977539062
2016-01-25,23.31999969482422,23.31999969482422,23.31999969482422,23.31999969482422,0.0,22.108901977539062
2016-01-26,23.31999969482422,23.31999969482422,23.31999969482422,23.31999969482422,0.0,22.108901977539062
2016-01-27,23.31999969482422,23.31999969482422,23.31999969482422,23.31999969482422,0.0,22.108901977539062
2016-01-28,23.31999969482422,23.31999969482422,23.31999969482422,23.31999969482422,0.0,22.108901977539062
2016-01-29,23.58300018310547,23.299999237060547,23.299999237060547,23.399999618530273,6800.0,22.18474769592285
2016-02-01,23.399999618530273,23.399999618530273,23.399999618530273,23.399999618530273,0.0,22.18474769592285
2016-02-02,23.3799991607666,23.15999984741211,23.3799991607666,23.329999923706055,20000.0,22.11838150024414
2016-02-03,23.329999923706055,23.329999923706055,23.329999923706055,23.329999923706055,0.0,22.11838150024414
2016-02-04,23.329999923706055,23.329999923706055,23.329999923706055,23.329999923706055,0.0,22.11838150024414
2016-02-05,23.329999923706055,23.329999923706055,23.329999923706055,23.329999923706055,0.0,22.11838150024414
2016-02-08,23.329999923706055,23.329999923706055,23.329999923706055,23.329999923706055,0.0,22.11838150024414
2016-02-09,22.836000442504883,22.836000442504883,22.836000442504883,22.836000442504883,500.0,21.650039672851562
2016-02-10,22.836000442504883,22.836000442504883,22.836000442504883,22.836000442504883,0.0,21.650039672851562
2016-02-11,22.836000442504883,22.836000442504883,22.836000442504883,22.836000442504883,0.0,21.650039672851562
2016-02-12,22.836000442504883,22.836000442504883,22.836000442504883,22.836000442504883,0.0,21.650039672851562
2016-02-16,22.836000442504883,22.836000442504883,22.836000442504883,22.836000442504883,0.0,21.650039672851562
2016-02-17,22.836000442504883,22.836000442504883,22.836000442504883,22.836000442504883,0.0,21.650039672851562
2016-02-18,22.836000442504883,22.836000442504883,22.836000442504883,22.836000442504883,0.0,21.650039672851562
2016-02-19,22.836000442504883,22.836000442504883,22.836000442504883,22.836000442504883,0.0,21.650039672851562
2016-02-22,23.920000076293945,22.81999969482422,23.920000076293945,23.81999969482422,3600.0,22.582935333251953
2016-02-23,24.059999465942383,23.860000610351562,23.860000610351562,23.959999084472656,16300.0,22.715665817260742
2016-02-24,23.959999084472656,23.959999084472656,23.959999084472656,23.959999084472656,0.0,22.715665817260742
2016-02-25,23.959999084472656,23.959999084472656,23.959999084472656,23.959999084472656,0.0,22.715665817260742
2016-02-26,23.959999084472656,23.959999084472656,23.959999084472656,23.959999084472656,0.0,22.715665817260742
2016-02-29,24.280000686645508,24.260000228881836,24.260000228881836,24.280000686645508,2900.0,23.019044876098633
2016-03-01,24.489999771118164,24.190000534057617,24.190000534057617,24.459999084472656,10700.0,23.189697265625
2016-03-02,24.510000228881836,24.399999618530273,24.399999618530273,24.510000228881836,600.0,23.237104415893555
2016-03-03,24.700000762939453,24.510000228881836,24.510000228881836,24.700000762939453,2000.0,23.4172306060791
2016-03-04,24.780000686645508,24.709999084472656,24.719999313354492,24.709999084472656,300.0,23.426713943481445
2016-03-07,24.790000915527344,24.700000762939453,24.700000762939453,24.780000686645508,300.0,23.493080139160156
2016-03-08,24.739999771118164,24.610000610351562,24.6299991607666,24.739999771118164,3100.0,23.455158233642578
2016-03-09,24.739999771118164,24.739999771118164,24.739999771118164,24.739999771118164,0.0,23.455158233642578
2016-03-10,24.739999771118164,24.739999771118164,24.739999771118164,24.739999771118164,0.0,23.455158233642578
2016-03-11,24.739999771118164,24.739999771118164,24.739999771118164,24.739999771118164,0.0,23.455158233642578
2016-03-14,25.059999465942383,25.059999465942383,25.059999465942383,25.059999465942383,500.0,23.75853729248047
2016-03-15,25.059999465942383,25.059999465942383,25.059999465942383,25.059999465942383,0.0,23.75853729248047
2016-03-16,25.059999465942383,25.059999465942383,25.059999465942383,25.059999465942383,0.0,23.75853729248047
2016-03-17,25.059999465942383,25.059999465942383,25.059999465942383,25.059999465942383,0.0,23.75853729248047
2016-03-18,25.059999465942383,25.059999465942383,25.059999465942383,25.059999465942383,0.0,23.75853729248047
2016-03-21,25.479999542236328,25.479999542236328,25.479999542236328,25.479999542236328,500.0,24.156726837158203
2016-03-22,25.270000457763672,25.229999542236328,25.239999771118164,25.270000457763672,1800.0,23.957630157470703
2016-03-23,25.270000457763672,25.270000457763672,25.270000457763672,25.270000457763672,0.0,23.957630157470703
2016-03-24,25.270000457763672,25.270000457763672,25.270000457763672,25.270000457763672,0.0,23.957630157470703
2016-03-28,25.270000457763672,25.270000457763672,25.270000457763672,25.270000457763672,0.0,23.957630157470703
2016-03-29,25.270000457763672,25.270000457763672,25.270000457763672,25.270000457763672,0.0,23.957630157470703
2016-03-30,25.628000259399414,25.59000015258789,25.59000015258789,25.610000610351562,7700.0,24.279970169067383
2016-03-31,25.56999969482422,25.510000228881836,25.56999969482422,25.530000686645508,2100.0,24.20412826538086
2016-04-01,25.670000076293945,25.5,25.5,25.670000076293945,300.0,24.336856842041016
2016-04-04,25.5,25.5,25.5,25.5,100.0,24.175683975219727
2016-04-05,25.270000457763672,25.219999313354492,25.270000457763672,25.219999313354492,200.0,23.91022491455078
2016-04-06,25.389999389648438,25.239999771118164,25.239999771118164,25.350000381469727,1400.0,24.033479690551758
2016-04-07,25.350000381469727,25.350000381469727,25.350000381469727,25.350000381469727,0.0,24.033479690551758
2016-04-08,25.3799991607666,25.3799991607666,25.3799991607666,25.3799991607666,500.0,24.06191635131836
2016-04-11,25.3799991607666,25.3799991607666,25.3799991607666,25.3799991607666,0.0,24.06191635131836
2016-04-12,25.3799991607666,25.3799991607666,25.3799991607666,25.3799991607666,0.0,24.06191635131836
2016-04-13,25.610000610351562,25.610000610351562,25.610000610351562,25.610000610351562,1000.0,24.279970169067383
2016-04-14,26.020000457763672,25.558000564575195,26.020000457763672,25.558000564575195,900.0,24.230676651000977
2016-04-15,25.579999923706055,25.56999969482422,25.579999923706055,25.56999969482422,600.0,24.242053985595703
2016-04-18,25.729999542236328,25.729999542236328,25.729999542236328,25.729999542236328,100.0,24.393739700317383
2016-04-19,25.829999923706055,25.829999923706055,25.829999923706055,25.829999923706055,200.0,24.488548278808594
2016-04-20,25.829999923706055,25.829999923706055,25.829999923706055,25.829999923706055,0.0,24.488548278808594
2016-04-21,25.829999923706055,25.829999923706055,25.829999923706055,25.829999923706055,0.0,24.488548278808594
2016-04-22,25.6299991607666,25.6299991607666,25.6299991607666,25.6299991607666,200.0,24.298933029174805
2016-04-25,25.6299991607666,25.6299991607666,25.6299991607666,25.6299991607666,0.0,24.298933029174805
2016-04-26,25.6299991607666,25.6299991607666,25.6299991607666,25.6299991607666,0.0,24.298933029174805
2016-04-27,25.780000686645508,25.729999542236328,25.780000686645508,25.729999542236328,200.0,24.393739700317383
2016-04-28,25.809999465942383,25.802000045776367,25.809999465942383,25.802000045776367,1000.0,24.461999893188477
2016-04-29,25.3700008392334,25.3700008392334,25.3700008392334,25.3700008392334,400.0,24.05243682861328
2016-05-02,25.600000381469727,25.56999969482422,25.56999969482422,25.586999893188477,2200.0,24.258167266845703
2016-05-03,25.509000778198242,25.5,25.5,25.509000778198242,700.0,24.184219360351562
2016-05-04,25.469999313354492,25.3700008392334,25.40999984741211,25.43000030517578,4300.0,24.10931968688965
2016-05-05,25.5,25.420000076293945,25.5,25.420000076293945,400.0,24.099842071533203
2016-05-06,25.489999771118164,25.450000762939453,25.469999313354492,25.479999542236328,222600.0,24.156726837158203
2016-05-09,25.56599998474121,25.52199935913086,25.565000534057617,25.52199935913086,2000.0,24.196542739868164
2016-05-10,25.738000869750977,25.700000762939453,25.700000762939453,25.738000869750977,300.0,24.40132713317871
2016-05-11,25.760000228881836,25.6200008392334,25.729999542236328,25.6200008392334,5600.0,24.289453506469727
2016-05-12,25.68000030517578,25.489999771118164,25.68000030517578,25.6200008392334,1600.0,24.289453506469727
2016-05-13,25.5,25.392000198364258,25.5,25.392000198364258,1000.0,24.07329559326172
2016-05-16,25.666000366210938,25.665000915527344,25.666000366210938,25.665000915527344,600.0,24.332117080688477
2016-05-17,25.56999969482422,25.290000915527344,25.549999237060547,25.350000381469727,3600.0,24.033479690551758
2016-05-18,25.420000076293945,25.239999771118164,25.309999465942383,25.239999771118164,2300.0,23.929189682006836
2016-05-19,25.239999771118164,25.239999771118164,25.239999771118164,25.239999771118164,100.0,23.929189682006836
2016-05-20,25.239999771118164,25.239999771118164,25.239999771118164,25.239999771118164,0.0,23.929189682006836
2016-05-23,25.239999771118164,25.239999771118164,25.239999771118164,25.239999771118164,0.0,23.929189682006836
2016-05-24,25.610000610351562,25.559999465942383,25.559999465942383,25.610000610351562,1600.0,24.279970169067383
2016-05-25,25.610000610351562,25.610000610351562,25.610000610351562,25.610000610351562,0.0,24.279970169067383
2016-05-26,25.799999237060547,25.729999542236328,25.760000228881836,25.790000915527344,5800.0,24.450626373291016
2016-05-27,25.790000915527344,25.790000915527344,25.790000915527344,25.790000915527344,0.0,24.450626373291016
2016-05-31,25.81100082397461,25.81100082397461,25.81100082397461,25.81100082397461,1000.0,24.47053337097168
2016-06-01,26.020000457763672,25.93400001525879,25.950000762939453,26.020000457763672,5100.0,24.668676376342773
2016-06-02,25.940000534057617,25.940000534057617,25.940000534057617,25.940000534057617,1000.0,24.592832565307617
2016-06-03,26.09000015258789,25.969999313354492,25.969999313354492,26.09000015258789,2100.0,24.73504638671875
2016-06-06,26.200000762939453,26.139999389648438,26.139999389648438,26.170000076293945,2600.0,24.810894012451172
2016-06-07,26.15999984741211,26.1200008392334,26.149999618530273,26.1299991607666,29300.0,24.772964477539062
2016-06-08,26.339000701904297,26.17799949645996,26.280000686645508,26.339000701904297,1300.0,24.97110939025879
2016-06-09,26.323999404907227,26.187000274658203,26.239999771118164,26.270000457763672,7800.0,24.905698776245117
2016-06-10,26.191999435424805,26.030000686645508,26.139999389648438,26.079999923706055,1500.0,24.725561141967773
2016-06-13,25.979999542236328,25.979999542236328,25.979999542236328,25.979999542236328,700.0,24.630756378173828
2016-06-14,25.760000228881836,25.704999923706055,25.704999923706055,25.760000228881836,500.0,24.422182083129883
2016-06-15,25.760000228881836,25.760000228881836,25.760000228881836,25.760000228881836,0.0,24.422182083129883
2016-06-16,25.790000915527344,25.670000076293945,25.670000076293945,25.790000915527344,700.0,24.450626373291016
2016-06-17,25.790000915527344,25.790000915527344,25.790000915527344,25.790000915527344,0.0,24.450626373291016
2016-06-20,26.1200008392334,26.059999465942383,26.09000015258789,26.059999465942383,1600.0,24.70660400390625
2016-06-21,25.93899917602539,25.93899917602539,25.93899917602539,25.93899917602539,700.0,24.64958381652832
2016-06-22,26.059999465942383,25.90999984741211,26.049999237060547,25.90999984741211,342400.0,24.622026443481445
2016-06-23,26.15999984741211,26.1200008392334,26.1200008392334,26.15999984741211,300.0,24.859600067138672
2016-06-24,25.739999771118164,25.3799991607666,25.700000762939453,25.3799991607666,6500.0,24.118370056152344
2016-06-27,24.940000534057617,24.834999084472656,24.940000534057617,24.940000534057617,1400.0,23.700244903564453
2016-06-28,25.280000686645508,25.1200008392334,25.209999084472656,25.270000457763672,11900.0,24.013839721679688
2016-06-29,25.639999389648438,25.6299991607666,25.639999389648438,25.6299991607666,600.0,24.35594367980957
2016-06-30,25.6299991607666,25.6299991607666,25.6299991607666,25.6299991607666,0.0,24.35594367980957
2016-07-01,26.290000915527344,26.18000030517578,26.290000915527344,26.239999771118164,4000.0,24.935623168945312
2016-07-05,26.100000381469727,25.974000930786133,26.040000915527344,26.010000228881836,1300.0,24.717056274414062
2016-07-06,26.06999969482422,26.042999267578125,26.069000244140625,26.06999969482422,6700.0,24.774072647094727
2016-07-07,26.23699951171875,26.18000030517578,26.229999542236328,26.18000030517578,2200.0,24.878602981567383
2016-07-08,26.520000457763672,26.485000610351562,26.520000457763672,26.485000610351562,1100.0,25.16844367980957
2016-07-11,26.649999618530273,26.61199951171875,26.61199951171875,26.649999618530273,1400.0,25.325241088867188
2016-07-12,26.649999618530273,26.649999618530273,26.649999618530273,26.649999618530273,100.0,25.325241088867188
2016-07-13,26.81999969482422,26.773000717163086,26.773000717163086,26.81999969482422,800.0,25.486791610717773
2016-07-14,26.90999984741211,26.829999923706055,26.90999984741211,26.860000610351562,1600.0,25.524799346923828
2016-07-15,26.850000381469727,26.81399917602539,26.850000381469727,26.825000762939453,3600.0,25.491540908813477
2016-07-18,26.875999450683594,26.78499984741211,26.78499984741211,26.809999465942383,7600.0,25.477285385131836
2016-07-19,26.809999465942383,26.809999465942383,26.809999465942383,26.809999465942383,1500.0,25.477285385131836
2016-07-20,26.860000610351562,26.860000610351562,26.860000610351562,26.860000610351562,100.0,25.524799346923828
2016-07-21,26.8799991607666,26.770000457763672,26.850000381469727,26.799999237060547,2300.0,25.467784881591797
2016-07-22,27.0,26.84000015258789,26.84000015258789,27.0,1000.0,25.657840728759766
2016-07-25,26.920000076293945,26.860000610351562,26.920000076293945,26.899999618530273,1900.0,25.56281280517578
2016-07-26,26.899999618530273,26.899999618530273,26.899999618530273,26.899999618530273,0.0,25.56281280517578
2016-07-27,26.989999771118164,26.860000610351562,26.989999771118164,26.93000030517578,2700.0,25.59132194519043
2016-07-28,27.0,27.0,27.0,27.0,800.0,25.657840728759766
2016-07-29,27.040000915527344,26.915000915527344,26.950000762939453,26.9950008392334,3700.0,25.653091430664062
2016-08-01,27.030000686645508,26.95400047302246,27.030000686645508,26.969999313354492,1400.0,25.62933349609375
2016-08-02,26.969999313354492,26.969999313354492,26.969999313354492,26.969999313354492,0.0,25.62933349609375
2016-08-03,26.71299934387207,26.68000030517578,26.71299934387207,26.68000030517578,1900.0,25.353750228881836
2016-08-04,26.79199981689453,26.79199981689453,26.79199981689453,26.79199981689453,100.0,25.46018409729004
2016-08-05,26.950000762939453,26.909000396728516,26.93000030517578,26.909000396728516,2200.0,25.571369171142578
2016-08-08,26.899999618530273,26.80500030517578,26.899999618530273,26.80500030517578,1100.0,25.4725341796875
2016-08-09,26.91200065612793,26.860000610351562,26.90999984741211,26.860000610351562,2400.0,25.524799346923828
2016-08-10,26.93000030517578,26.84000015258789,26.93000030517578,26.860000610351562,4000.0,25.524799346923828
2016-08-11,26.920000076293945,26.920000076293945,26.920000076293945,26.920000076293945,100.0,25.581819534301758
2016-08-12,26.969999313354492,26.850000381469727,26.920000076293945,26.899999618530273,3700.0,25.56281280517578
2016-08-15,27.020000457763672,27.020000457763672,27.020000457763672,27.020000457763672,500.0,25.676849365234375
2016-08-16,26.860000610351562,26.799999237060547,26.860000610351562,26.799999237060547,2300.0,25.467784881591797
2016-08-17,26.719999313354492,26.59000015258789,26.65999984741211,26.719999313354492,6300.0,25.391759872436523
2016-08-18,26.719999313354492,26.719999313354492,26.719999313354492,26.719999313354492,0.0,25.391759872436523
2016-08-19,26.8799991607666,26.84000015258789,26.84000015258789,26.8700008392334,1700.0,25.5343074798584
2016-08-22,26.90999984741211,26.84000015258789,26.860000610351562,26.895999908447266,4400.0,25.55901336669922
2016-08-23,26.895999908447266,26.895999908447266,26.895999908447266,26.895999908447266,0.0,25.55901336669922
2016-08-24,27.190000534057617,26.8799991607666,27.190000534057617,26.8799991607666,5000.0,25.543806076049805
2016-08-25,26.8700008392334,26.81999969482422,26.829999923706055,26.81999969482422,13700.0,25.486791610717773
2016-08-26,26.889999389648438,26.65999984741211,26.889999389648438,26.700000762939453,4100.0,25.372756958007812
2016-08-29,26.920000076293945,26.81999969482422,26.899999618530273,26.881999969482422,14600.0,25.54570960998535
2016-08-30,26.816999435424805,26.78499984741211,26.78499984741211,26.816999435424805,800.0,25.48394203186035
2016-08-31,26.733999252319336,26.66900062561035,26.729999542236328,26.687000274658203,4600.0,25.36040496826172
2016-09-01,26.770000457763672,26.68600082397461,26.68600082397461,26.719999313354492,8100.0,25.391759872436523
2016-09-02,26.947999954223633,26.8799991607666,26.90999984741211,26.947999954223633,3600.0,25.608430862426758
2016-09-06,27.0,26.8799991607666,26.969999313354492,27.0,5300.0,25.657840728759766
2016-09-07,27.010000228881836,26.920000076293945,26.93899917602539,27.010000228881836,5900.0,25.667348861694336
2016-09-08,26.93600082397461,26.889999389648438,26.93600082397461,26.899999618530273,1100.0,25.56281280517578
2016-09-09,26.489999771118164,26.259000778198242,26.489999771118164,26.299999237060547,7100.0,24.992637634277344
2016-09-12,26.3799991607666,26.3799991607666,26.3799991607666,26.3799991607666,500.0,25.068662643432617
2016-09-13,26.280000686645508,26.059999465942383,26.270000457763672,26.139999389648438,9300.0,24.840595245361328
2016-09-14,26.200000762939453,26.06999969482422,26.200000762939453,26.06999969482422,4300.0,24.774072647094727
2016-09-15,26.329999923706055,26.25,26.25,26.329999923706055,1400.0,25.021150588989258
2016-09-16,26.200000762939453,26.163000106811523,26.200000762939453,26.163000106811523,900.0,24.862449645996094
2016-09-19,26.43000030517578,26.110000610351562,26.43000030517578,26.427000045776367,8900.0,25.113327026367188
2016-09-20,26.450000762939453,26.301000595092773,26.450000762939453,26.301000595092773,500.0,24.993589401245117
2016-09-21,26.350000381469727,26.299999237060547,26.299999237060547,26.329999923706055,4300.0,25.13679313659668
2016-09-22,26.739999771118164,26.68000030517578,26.690000534057617,26.690000534057617,3000.0,25.480478286743164
2016-09-23,26.649999618530273,26.540000915527344,26.649999618530273,26.56999969482422,6700.0,25.365915298461914
2016-09-26,26.479999542236328,26.389999389648438,26.420000076293945,26.399999618530273,4900.0,25.20362091064453
2016-09-27,26.476999282836914,26.3700008392334,26.440000534057617,26.447999954223633,3500.0,25.249446868896484
2016-09-28,26.43000030517578,26.3799991607666,26.43000030517578,26.3799991607666,800.0,25.184526443481445
2016-09-29,26.540000915527344,26.3700008392334,26.540000915527344,26.408000946044922,3600.0,25.21125602722168
2016-09-30,26.549999237060547,26.3799991607666,26.43000030517578,26.510000228881836,10800.0,25.308637619018555
2016-10-03,26.389999389648438,26.290000915527344,26.329999923706055,26.347999572753906,17800.0,25.153974533081055
2016-10-04,26.350000381469727,26.110000610351562,26.350000381469727,26.170000076293945,4400.0,24.984046936035156
2016-10-05,26.3700008392334,26.219999313354492,26.229999542236328,26.229999542236328,39300.0,25.041322708129883
2016-10-06,26.639999389648438,26.149999618530273,26.149999618530273,26.290000915527344,24000.0,25.09860610961914
2016-10-07,26.229999542236328,26.049999237060547,26.229999542236328,26.170000076293945,15900.0,24.984046936035156
2016-10-10,26.34000015258789,26.246999740600586,26.34000015258789,26.260000228881836,20500.0,25.069965362548828
2016-10-11,26.149999618530273,25.889999389648438,26.149999618530273,25.959999084472656,12100.0,24.783559799194336
2016-10-12,26.084999084472656,25.950000762939453,25.950000762939453,26.079999923706055,7700.0,24.898120880126953
2016-10-13,26.079999923706055,25.84000015258789,25.8799991607666,26.059999465942383,4500.0,24.879030227661133
2016-10-14,26.209999084472656,26.08300018310547,26.15999984741211,26.104999542236328,6800.0,24.921987533569336
2016-10-17,26.04599952697754,26.03499984741211,26.03499984741211,26.04599952697754,800.0,24.865663528442383
2016-10-18,26.149999618530273,26.06999969482422,26.1200008392334,26.1200008392334,7100.0,24.936309814453125
2016-10-19,26.13800048828125,26.12299919128418,26.13800048828125,26.1299991607666,2200.0,24.94585418701172
2016-10-20,26.049999237060547,25.979999542236328,26.049999237060547,26.0,10400.0,24.821746826171875
2016-10-21,25.989999771118164,25.989999771118164,25.989999771118164,25.989999771118164,200.0,24.812204360961914
2016-10-24,26.149999618530273,26.05699920654297,26.149999618530273,26.1200008392334,6400.0,24.936309814453125
2016-10-25,26.079999923706055,25.950000762939453,26.079999923706055,25.950000762939453,436800.0,24.774011611938477
2016-10-26,25.940000534057617,25.940000534057617,25.940000534057617,25.940000534057617,300.0,24.76446533203125
2016-10-27,25.829999923706055,25.679000854492188,25.81999969482422,25.68600082397461,6300.0,24.521976470947266
2016-10-28,25.899999618530273,25.88599967956543,25.88599967956543,25.899999618530273,2000.0,24.726280212402344
2016-10-31,25.940000534057617,25.871999740600586,25.871999740600586,25.940000534057617,400.0,24.76446533203125
2016-11-01,25.860000610351562,25.610000610351562,25.860000610351562,25.62299919128418,4100.0,24.461830139160156
2016-11-02,25.674999237060547,25.513999938964844,25.658000946044922,25.59000015258789,2400.0,24.430330276489258
2016-11-03,25.579999923706055,25.408000946044922,25.577999114990234,25.408000946044922,900.0,24.256576538085938
2016-11-04,25.600000381469727,25.479999542236328,25.479999542236328,25.5,1700.0,24.344404220581055
2016-11-07,25.8799991607666,25.87299919128418,25.875,25.8799991607666,4400.0,24.707185745239258
2016-11-08,26.110000610351562,25.8799991607666,25.8799991607666,26.059999465942383,3800.0,24.879030227661133
2016-11-09,26.2810001373291,25.829999923706055,25.959999084472656,26.270000457763672,7000.0,25.079513549804688
2016-11-10,26.354999542236328,26.277000427246094,26.354999542236328,26.277000427246094,400.0,25.08619499206543
2016-11-11,26.360000610351562,26.263999938964844,26.280000686645508,26.360000610351562,26700.0,25.165430068969727
2016-11-14,26.530000686645508,26.530000686645508,26.530000686645508,26.530000686645508,400.0,25.327730178833008
2016-11-15,26.739999771118164,26.610000610351562,26.639999389648438,26.674999237060547,2200.0,25.466157913208008
2016-11-16,26.690000534057617,26.639999389648438,26.690000534057617,26.690000534057617,3400.0,25.480478286743164
2016-11-17,26.829999923706055,26.81599998474121,26.81599998474121,26.829999923706055,3700.0,25.6141357421875
2016-11-18,26.849000930786133,26.843000411987305,26.843000411987305,26.849000930786133,500.0,25.632274627685547
2016-11-21,26.829999923706055,26.81999969482422,26.81999969482422,26.829999923706055,900.0,25.6141357421875
2016-11-22,27.049999237060547,26.993999481201172,27.0,27.049999237060547,3100.0,25.824159622192383
2016-11-23,27.1299991607666,27.069000244140625,27.079999923706055,27.1200008392334,7800.0,25.8909912109375
2016-11-25,27.290000915527344,27.25,27.28700065612793,27.273000717163086,1500.0,26.037063598632812
2016-11-28,27.43000030517578,27.18000030517578,27.43000030517578,27.19300079345703,8000.0,25.96068572998047
2016-11-29,27.31999969482422,27.27199935913086,27.283000946044922,27.290000915527344,16500.0,26.053287506103516
2016-11-30,27.270000457763672,27.093000411987305,27.270000457763672,27.093000411987305,14200.0,25.865215301513672
2016-12-01,27.049999237060547,26.996000289916992,27.030000686645508,26.996000289916992,1800.0,25.772613525390625
2016-12-02,27.059999465942383,26.989999771118164,27.059999465942383,26.989999771118164,800.0,25.76688003540039
2016-12-05,27.18000030517578,27.1200008392334,27.170000076293945,27.18000030517578,3100.0,25.948270797729492
2016-12-06,27.290000915527344,27.139999389648438,27.200000762939453,27.290000915527344,16800.0,26.053287506103516
2016-12-07,27.658000946044922,27.459999084472656,27.459999084472656,27.645000457763672,61500.0,26.392202377319336
2016-12-08,27.809999465942383,27.700000762939453,27.701000213623047,27.790000915527344,18500.0,26.530630111694336
2016-12-09,27.829999923706055,27.770000457763672,27.809999465942383,27.829999923706055,2100.0,26.568815231323242
2016-12-12,27.850000381469727,27.77199935913086,27.850000381469727,27.788000106811523,20700.0,26.52872085571289
2016-12-13,27.8700008392334,27.739999771118164,27.739999771118164,27.8700008392334,5900.0,26.607004165649414
2016-12-14,27.850000381469727,27.552000045776367,27.829999923706055,27.56999969482422,5000.0,26.32059669494629
2016-12-15,27.770000457763672,27.635000228881836,27.725000381469727,27.670000076293945,142600.0,26.416065216064453
2016-12-16,27.774999618530273,27.549999237060547,27.709999084472656,27.57900047302246,7100.0,26.329191207885742
2016-12-19,27.780000686645508,27.6200008392334,27.7549991607666,27.690000534057617,602300.0,26.43515968322754
2016-12-20,28.219999313354492,27.760000228881836,28.219999313354492,27.790000915527344,22200.0,26.530630111694336
2016-12-21,28.100000381469727,27.40999984741211,27.479999542236328,27.420000076293945,23700.0,26.541275024414062
2016-12-22,27.420000076293945,27.21500015258789,27.420000076293945,27.260000228881836,14700.0,26.38640594482422
2016-12-23,27.280000686645508,27.229999542236328,27.239999771118164,27.280000686645508,4200.0,26.405763626098633
2016-12-27,27.399999618530273,27.32900047302246,27.3799991607666,27.3799991607666,8200.0,26.50255584716797
2016-12-28,27.469999313354492,27.097999572753906,27.469999313354492,27.1200008392334,13000.0,26.25088882446289
2016-12-29,27.219999313354492,27.079999923706055,27.219999313354492,27.170000076293945,25700.0,26.299285888671875
2016-12-30,27.190000534057617,27.049999237060547,27.149999618530273,27.049999237060547,105600.0,26.183134078979492
2017-01-03,27.260000228881836,27.06999969482422,27.190000534057617,27.1200008392334,4500.0,26.25088882446289
2017-01-04,27.530000686645508,27.399999618530273,27.399999618530273,27.510000228881836,43100.0,26.62839126586914
2017-01-05,27.459999084472656,27.290000915527344,27.413999557495117,27.350000381469727,8300.0,26.473520278930664
2017-01-06,27.5,27.360000610351562,27.39900016784668,27.420000076293945,15300.0,26.541275024414062
2017-01-09,27.469999313354492,27.231000900268555,27.469999313354492,27.260000228881836,9400.0,26.38640594482422
2017-01-10,27.489999771118164,27.239999771118164,27.489999771118164,27.361000061035156,27500.0,26.484167098999023
2017-01-11,27.530000686645508,27.31999969482422,27.530000686645508,27.399999618530273,8200.0,26.52191734313965
2017-01-12,27.389999389648438,27.15999984741211,27.389999389648438,27.309999465942383,8400.0,26.43480110168457
2017-01-13,27.48900032043457,27.389999389648438,27.459999084472656,27.40999984741211,360200.0,26.53159523010254
2017-01-17,27.479999542236328,27.30900001525879,27.427000045776367,27.360000610351562,12100.0,26.483200073242188
2017-01-18,27.709999084472656,27.3700008392334,27.422000885009766,27.450000762939453,148600.0,26.570316314697266
2017-01-19,27.579999923706055,27.299999237060547,27.433000564575195,27.350000381469727,100300.0,26.473520278930664
2017-01-20,27.540000915527344,27.33799934387207,27.451000213623047,27.440000534057617,75200.0,26.560636520385742
2017-01-23,27.510000228881836,27.260000228881836,27.510000228881836,27.350000381469727,17000.0,26.473520278930664
2017-01-24,27.65999984741211,27.440000534057617,27.440000534057617,27.639999389648438,30400.0,26.75422477722168
2017-01-25,27.850000381469727,27.761999130249023,27.80500030517578,27.81599998474121,15300.0,26.924585342407227
2017-01-26,27.979999542236328,27.719999313354492,27.979999542236328,27.739999771118164,133700.0,26.85102081298828
2017-01-27,27.70400047302246,27.632999420166016,27.690000534057617,27.65999984741211,30400.0,26.773584365844727
2017-01-30,27.81999969482422,27.37700080871582,27.81999969482422,27.5,22500.0,26.618709564208984
2017-01-31,27.610000610351562,27.44499969482422,27.44499969482422,27.604999542236328,3300.0,26.72034454345703
2017-02-01,28.06999969482422,27.450000762939453,27.71299934387207,27.55500030517578,31800.0,26.671951293945312
2017-02-02,27.829999923706055,27.5,27.829999923706055,27.610000610351562,16400.0,26.725187301635742
2017-02-03,27.920000076293945,27.719999313354492,27.920000076293945,27.84000015258789,36900.0,26.947816848754883
2017-02-06,27.844999313354492,27.711999893188477,27.84000015258789,27.739999771118164,24800.0,26.85102081298828
2017-02-07,28.110000610351562,27.719999313354492,28.110000610351562,27.770000457763672,6900.0,26.880062103271484
2017-02-08,27.899999618530273,27.716999053955078,27.899999618530273,27.860000610351562,18200.0,26.96717643737793
2017-02-09,28.05500030517578,27.878000259399414,27.950000762939453,28.020000457763672,42700.0,27.122047424316406
2017-02-10,28.179000854492188,28.049999237060547,28.049999237060547,28.15999984741211,28000.0,27.2575626373291
2017-02-13,28.3799991607666,28.229999542236328,28.3799991607666,28.290000915527344,22700.0,27.383398056030273
2017-02-14,28.389999389648438,28.200000762939453,28.389999389648438,28.309999465942383,20600.0,27.402751922607422
2017-02-15,28.454999923706055,28.280000686645508,28.30500030517578,28.43000030517578,10900.0,27.518911361694336
2017-02-16,28.459999084472656,28.360000610351562,28.450000762939453,28.440000534057617,89700.0,27.528589248657227
2017-02-17,28.440000534057617,28.34000015258789,28.360000610351562,28.43000030517578,41300.0,27.518911361694336
2017-02-21,28.65999984741211,28.573999404907227,28.649999618530273,28.65999984741211,19200.0,27.741539001464844
2017-02-22,28.6299991607666,28.545000076293945,28.600000381469727,28.610000610351562,107900.0,27.693140029907227
2017-02-23,28.719999313354492,28.520000457763672,28.719999313354492,28.530000686645508,42600.0,27.615707397460938
2017-02-24,28.649999618530273,28.450000762939453,28.450000762939453,28.649999618530273,25900.0,27.731857299804688
2017-02-27,28.743999481201172,28.658000946044922,28.658000946044922,28.709999084472656,20100.0,27.789934158325195
2017-02-28,28.73699951171875,28.549999237060547,28.73699951171875,28.549999237060547,53800.0,27.63506317138672
2017-03-01,28.989999771118164,28.790000915527344,28.790000915527344,28.98699951171875,28000.0,28.058059692382812
2017-03-02,28.899999618530273,28.75,28.889999389648438,28.75,37000.0,27.828655242919922
2017-03-03,28.827999114990234,28.65999984741211,28.827999114990234,28.75,8200.0,27.828655242919922
2017-03-06,28.639999389648438,28.533000946044922,28.636999130249023,28.6299991607666,14100.0,27.71249771118164
2017-03-07,28.65999984741211,28.469999313354492,28.65999984741211,28.469999313354492,160700.0,27.557626724243164
2017-03-08,28.959999084472656,28.459999084472656,28.959999084472656,28.472000122070312,24500.0,27.55956268310547
2017-03-09,28.510000228881836,28.31999969482422,28.510000228881836,28.3700008392334,40800.0,27.460832595825195
2017-03-10,28.56999969482422,28.440000534057617,28.479999542236328,28.5,20300.0,27.586666107177734
2017-03-13,28.579999923706055,28.49799919128418,28.55699920654297,28.579999923706055,7000.0,27.66410255432129
2017-03-14,28.540000915527344,28.399999618530273,28.540000915527344,28.5,31200.0,27.586666107177734
2017-03-15,28.829999923706055,28.562999725341797,28.600000381469727,28.809999465942383,34900.0,27.886730194091797
2017-03-16,28.88800048828125,28.68000030517578,28.799999237060547,28.739999771118164,90300.0,27.8189754486084
2017-03-17,28.81999969482422,28.687000274658203,28.799999237060547,28.79599952697754,15300.0,27.873180389404297
2017-03-20,28.799999237060547,28.649999618530273,28.799999237060547,28.670000076293945,26900.0,27.7512149810791
2017-03-21,28.690000534057617,28.309999465942383,28.690000534057617,28.309999465942383,77600.0,27.402751922607422
2017-03-22,28.360000610351562,28.190000534057617,28.32900047302246,28.347999572753906,49900.0,27.481277465820312
2017-03-23,28.540000915527344,28.350000381469727,28.389999389648438,28.350000381469727,42700.0,27.483217239379883
2017-03-24,28.472000122070312,28.243999481201172,28.290000915527344,28.322999954223633,10500.0,27.457042694091797
2017-03-27,28.280000686645508,28.079999923706055,28.079999923706055,28.243999481201172,11000.0,27.38045883178711
2017-03-28,28.5,28.190000534057617,28.190000534057617,28.459999084472656,41900.0,27.589853286743164
2017-03-29,28.520000457763672,28.3799991607666,28.389999389648438,28.479999542236328,24600.0,27.609241485595703
2017-03-30,28.589000701904297,28.510000228881836,28.530000686645508,28.56999969482422,8500.0,27.696491241455078
2017-03-31,28.739999771118164,28.56999969482422,28.739999771118164,28.579999923706055,69600.0,27.706186294555664
2017-04-03,28.559999465942383,28.35099983215332,28.540000915527344,28.399999618530273,4600.0,27.531688690185547
2017-04-04,28.43000030517578,28.360000610351562,28.389999389648438,28.3700008392334,12700.0,27.502605438232422
2017-04-05,28.579999923706055,28.299999237060547,28.579999923706055,28.31999969482422,3700.0,27.45413589477539
2017-04-06,28.5,28.31399917602539,28.336000442504883,28.420000076293945,25400.0,27.551074981689453
2017-04-07,28.489999771118164,28.386999130249023,28.389999389648438,28.43000030517578,14500.0,27.560773849487305
2017-04-10,28.540000915527344,28.34000015258789,28.34000015258789,28.485000610351562,15400.0,27.614091873168945
2017-04-11,28.5,28.301000595092773,28.40999984741211,28.489999771118164,11300.0,27.618934631347656
2017-04-12,28.450000762939453,28.280000686645508,28.440000534057617,28.329999923706055,14300.0,27.463829040527344
2017-04-13,28.34000015258789,28.1200008392334,28.34000015258789,28.1200008392334,26600.0,27.260250091552734
2017-04-17,28.510000228881836,28.200000762939453,28.510000228881836,28.350000381469727,7500.0,27.483217239379883
2017-04-18,28.43000030517578,28.253000259399414,28.43000030517578,28.350000381469727,18000.0,27.483217239379883
2017-04-19,28.489999771118164,28.299999237060547,28.299999237060547,28.3799991607666,12500.0,27.512296676635742
2017-04-20,28.68000030517578,28.444000244140625,28.5,28.639999389648438,9400.0,27.76435089111328
2017-04-21,28.6299991607666,28.545000076293945,28.6299991607666,28.594999313354492,11000.0,27.720727920532227
2017-04-24,28.950000762939453,28.80500030517578,28.809999465942383,28.90999984741211,25300.0,28.026092529296875
2017-04-25,29.399999618530273,29.011999130249023,29.399999618530273,29.059999465942383,9200.0,28.171510696411133
2017-04-26,29.152999877929688,28.93000030517578,28.93000030517578,29.06999969482422,22300.0,28.181201934814453
2017-04-27,29.15999984741211,29.040000915527344,29.1299991607666,29.083999633789062,11900.0,28.194774627685547
2017-04-28,28.969999313354492,28.89299964904785,28.969999313354492,28.93000030517578,49800.0,28.045486450195312
2017-05-01,29.06999969482422,28.854999542236328,29.06999969482422,28.93000030517578,150700.0,28.045486450195312
2017-05-02,28.920000076293945,28.833999633789062,28.889999389648438,28.920000076293945,6200.0,28.035791397094727
2017-05-03,28.850000381469727,28.770000457763672,28.770000457763672,28.832000732421875,13600.0,27.95047950744629
2017-05-04,28.854999542236328,28.760000228881836,28.760000228881836,28.850000381469727,10700.0,27.967931747436523
2017-05-05,29.020000457763672,28.889999389648438,28.940000534057617,29.020000457763672,10200.0,28.132732391357422
2017-05-08,28.950000762939453,28.8700008392334,28.950000762939453,28.893999099731445,46500.0,28.010583877563477
2017-05-09,29.0,28.85700035095215,29.0,28.85700035095215,12500.0,27.974716186523438
2017-05-10,28.969999313354492,28.799999237060547,28.799999237060547,28.895999908447266,21800.0,28.01252555847168
2017-05-11,28.920000076293945,28.70400047302246,28.920000076293945,28.799999237060547,72600.0,27.91946029663086
2017-05-12,28.860000610351562,28.663000106811523,28.860000610351562,28.667999267578125,4200.0,27.791494369506836
2017-05-15,28.867000579833984,28.790000915527344,28.84000015258789,28.820999145507812,14000.0,27.939815521240234
2017-05-16,29.299999237060547,28.719999313354492,29.299999237060547,28.759000778198242,21700.0,27.87971305847168
2017-05-17,28.5,28.336000442504883,28.5,28.336000442504883,29700.0,27.46964454650879
2017-05-18,28.489999771118164,28.15999984741211,28.15999984741211,28.3700008392334,20700.0,27.502605438232422
2017-05-19,28.6299991607666,28.5,28.5,28.59000015258789,6000.0,27.71588134765625
2017-05-22,28.790000915527344,28.700000762939453,28.719999313354492,28.729999542236328,16100.0,27.85159683227539
2017-05-23,28.860000610351562,28.719999313354492,28.729999542236328,28.799999237060547,26000.0,27.91946029663086
2017-05-24,28.899999618530273,28.799999237060547,28.889999389648438,28.899999618530273,6800.0,28.016401290893555
2017-05-25,29.079999923706055,28.892000198364258,28.959999084472656,29.06999969482422,23100.0,28.181201934814453
2017-05-26,29.059999465942383,28.989999771118164,29.030000686645508,29.048999786376953,78300.0,28.160846710205078
2017-05-30,29.059999465942383,29.0,29.003999710083008,29.0,8800.0,28.113344192504883
2017-05-31,29.1200008392334,29.0049991607666,29.01300048828125,29.104000091552734,5000.0,28.21416473388672
2017-06-01,29.450000762939453,29.229999542236328,29.26099967956543,29.450000762939453,13700.0,28.54958724975586
2017-06-02,29.549999237060547,29.489999771118164,29.510000228881836,29.489999771118164,28300.0,28.588361740112305
2017-06-05,29.46500015258789,29.399999618530273,29.433000564575195,29.40999984741211,10300.0,28.51080894470215
2017-06-06,29.6200008392334,29.219999313354492,29.6200008392334,29.235000610351562,31500.0,28.341157913208008
2017-06-07,29.719999313354492,29.225000381469727,29.350000381469727,29.283000946044922,8000.0,28.387691497802734
2017-06-08,29.350000381469727,29.200000762939453,29.25,29.312999725341797,20000.0,28.41677474975586
2017-06-09,29.469999313354492,29.34000015258789,29.381000518798828,29.34000015258789,23000.0,28.44294548034668
2017-06-12,29.399999618530273,29.312999725341797,29.399999618530273,29.399999618530273,8500.0,28.501113891601562
2017-06-13,29.56999969482422,29.424999237060547,29.479999542236328,29.540000915527344,265000.0,28.636837005615234
2017-06-14,29.65999984741211,29.457000732421875,29.65999984741211,29.517000198364258,26300.0,28.614538192749023
2017-06-15,29.700000762939453,29.30699920654297,29.700000762939453,29.45800018310547,19500.0,28.557340621948242
2017-06-16,29.850000381469727,29.3700008392334,29.850000381469727,29.420000076293945,13900.0,28.520503997802734
2017-06-19,29.68000030517578,29.459999084472656,29.459999084472656,29.670000076293945,52400.0,28.762859344482422
2017-06-20,29.520000457763672,29.43000030517578,29.459999084472656,29.43000030517578,4800.0,28.53019905090332
2017-06-21,29.30900001525879,29.134000778198242,29.239999771118164,29.134000778198242,15200.0,28.345340728759766
2017-06-22,29.25,29.113000869750977,29.25,29.148000717163086,31200.0,28.35896110534668
2017-06-23,29.25,29.19099998474121,29.239999771118164,29.201000213623047,6400.0,28.4105281829834
2017-06-26,29.3700008392334,29.270000457763672,29.360000610351562,29.309999465942383,26400.0,28.516576766967773
2017-06-27,29.31999969482422,29.090999603271484,29.299999237060547,29.1299991607666,36000.0,28.341447830200195
2017-06-28,29.371999740600586,29.209999084472656,29.260000228881836,29.34000015258789,17300.0,28.545764923095703
2017-06-29,29.260000228881836,28.93000030517578,29.2549991607666,29.1200008392334,22000.0,28.33172035217285
2017-06-30,29.25,29.1299991607666,29.239999771118164,29.25,9300.0,28.458202362060547
2017-07-03,29.510000228881836,29.31399917602539,29.510000228881836,29.34000015258789,74400.0,28.545764923095703
2017-07-05,29.350000381469727,29.236000061035156,29.350000381469727,29.31999969482422,14700.0,28.526304244995117
2017-07-06,29.219999313354492,28.97800064086914,29.18000030517578,28.979999542236328,19000.0,28.195507049560547
2017-07-07,29.530000686645508,29.155000686645508,29.530000686645508,29.299999237060547,32900.0,28.506845474243164
2017-07-10,29.3799991607666,29.190000534057617,29.34600067138672,29.3700008392334,23700.0,28.574953079223633
2017-07-11,29.360000610351562,29.170000076293945,29.360000610351562,29.2549991607666,42000.0,28.463062286376953
2017-07-12,29.540000915527344,29.40999984741211,29.540000915527344,29.43000030517578,12600.0,28.633329391479492
2017-07-13,29.81999969482422,29.360000610351562,29.81999969482422,29.479999542236328,17700.0,28.681974411010742
2017-07-14,29.639999389648438,29.507999420166016,29.56999969482422,29.639999389648438,7200.0,28.837642669677734
2017-07-17,29.68600082397461,29.520000457763672,29.520000457763672,29.645000457763672,10900.0,28.842506408691406
2017-07-18,29.559999465942383,29.459999084472656,29.459999084472656,29.549999237060547,23300.0,28.750078201293945
2017-07-19,29.700000762939453,29.6299991607666,29.636999130249023,29.67799949645996,3700.0,28.874614715576172
2017-07-20,29.759000778198242,29.639999389648438,29.670000076293945,29.695999145507812,12500.0,28.892126083374023
2017-07-21,29.722999572753906,29.618000030517578,29.618000030517578,29.69499969482422,9400.0,28.891155242919922
2017-07-24,29.72599983215332,29.643999099731445,29.643999099731445,29.69300079345703,7500.0,28.889209747314453
2017-07-25,29.81599998474121,29.7450008392334,29.774999618530273,29.77199935913086,7700.0,28.9660701751709
2017-07-26,29.729999542236328,29.656999588012695,29.700000762939453,29.68000030517578,12800.0,28.876562118530273
2017-07-27,29.639999389648438,29.423999786376953,29.639999389648438,29.506999969482422,17100.0,28.708242416381836
2017-07-28,29.579999923706055,29.46500015258789,29.518999099731445,29.56999969482422,8100.0,28.76953887939453
2017-07-31,29.600000381469727,29.5,29.530000686645508,29.547000885009766,16400.0,28.747161865234375
2017-08-01,29.6200008392334,29.530000686645508,29.530000686645508,29.610000610351562,12200.0,28.808454513549805
2017-08-02,29.559999465942383,29.461000442504883,29.52899932861328,29.559999465942383,10900.0,28.75980567932129
2017-08-03,29.56999969482422,29.5,29.540000915527344,29.54800033569336,37200.0,28.74813461303711
2017-08-04,29.600000381469727,29.558000564575195,29.575000762939453,29.600000381469727,10200.0,28.79872703552246
2017-08-07,29.670000076293945,29.600000381469727,29.600000381469727,29.65999984741211,12000.0,28.85710334777832
2017-08-08,29.763999938964844,29.535999298095703,29.639999389648438,29.565000534057617,8300.0,28.764677047729492
2017-08-09,29.549999237060547,29.41200065612793,29.549999237060547,29.450000762939453,32400.0,28.652788162231445
2017-08-10,29.40999984741211,29.114999771118164,29.40999984741211,29.139999389648438,12100.0,28.351179122924805
2017-08-11,29.260000228881836,29.118999481201172,29.260000228881836,29.18000030517578,10800.0,28.39009666442871
2017-08-14,29.510000228881836,29.399999618530273,29.399999618530273,29.479999542236328,4800.0,28.681974411010742
2017-08-15,29.600000381469727,29.329999923706055,29.600000381469727,29.386999130249023,10800.0,28.59149169921875
2017-08-16,29.56999969482422,29.420000076293945,29.469999313354492,29.469999313354492,24100.0,28.6722469329834
2017-08-17,29.43000030517578,29.049999237060547,29.43000030517578,29.049999237060547,158600.0,28.263612747192383
2017-08-18,29.079999923706055,28.920000076293945,29.079999923706055,28.95199966430664,44400.0,28.16826629638672
2017-08-21,28.992000579833984,28.8700008392334,28.8799991607666,28.979999542236328,11400.0,28.195507049560547
2017-08-22,29.25,29.06999969482422,29.079999923706055,29.229000091552734,41400.0,28.43777084350586
2017-08-23,29.190000534057617,29.10099983215332,29.190000534057617,29.11199951171875,22700.0,28.323936462402344
2017-08-24,29.190000534057617,29.04599952697754,29.176000595092773,29.04599952697754,55000.0,28.259721755981445
2017-08-25,29.25,29.170000076293945,29.25,29.229999542236328,7000.0,28.438739776611328
2017-08-28,29.18000030517578,29.0939998626709,29.18000030517578,29.124000549316406,3700.0,28.33561134338379
2017-08-29,29.149999618530273,29.0,29.0,29.1299991607666,7300.0,28.341447830200195
2017-08-30,29.299999237060547,29.214000701904297,29.214000701904297,29.29199981689453,5600.0,28.499061584472656
2017-08-31,29.476999282836914,29.34000015258789,29.34000015258789,29.476999282836914,4100.0,28.679054260253906
2017-09-01,29.604999542236328,29.53700065612793,29.600000381469727,29.604999542236328,1700.0,28.8035888671875
2017-09-05,29.43600082397461,29.149999618530273,29.389999389648438,29.260000228881836,8400.0,28.467927932739258
2017-09-06,29.290000915527344,29.239999771118164,29.270000457763672,29.261999130249023,4200.0,28.46987533569336
2017-09-07,29.277000427246094,29.1200008392334,29.277000427246094,29.229999542236328,6300.0,28.438739776611328
2017-09-08,29.389999389648438,29.117000579833984,29.117000579833984,29.33799934387207,9500.0,28.543819427490234
2017-09-11,29.719999313354492,29.610000610351562,29.610000610351562,29.68000030517578,31800.0,28.876562118530273
2017-09-12,29.795000076293945,29.649999618530273,29.649999618530273,29.770000457763672,16500.0,28.964128494262695
2017-09-13,29.809999465942383,29.72599983215332,29.7450008392334,29.780000686645508,22500.0,28.973854064941406
2017-09-14,29.770000457763672,29.690000534057617,29.709999084472656,29.709999084472656,13800.0,28.90574836730957
2017-09-15,29.799999237060547,29.579999923706055,29.579999923706055,29.788999557495117,4500.0,28.982606887817383
2017-09-18,29.93000030517578,29.790000915527344,29.799999237060547,29.8799991607666,204600.0,29.07114601135254
2017-09-19,29.941999435424805,29.89699935913086,29.920000076293945,29.940000534057617,3000.0,29.1295223236084
2017-09-20,30.030000686645508,29.895000457763672,30.030000686645508,29.989999771118164,17100.0,29.17816925048828
2017-09-21,29.93000030517578,29.790000915527344,29.93000030517578,29.829999923706055,15200.0,29.128366470336914
2017-09-22,29.899999618530273,29.829999923706055,29.860000610351562,29.899999618530273,17200.0,29.19672203063965
2017-09-25,29.989999771118164,29.770000457763672,29.989999771118164,29.8700008392334,8600.0,29.167428970336914
2017-09-26,29.959999084472656,29.8799991607666,29.891000747680664,29.920000076293945,8700.0,29.216251373291016
2017-09-27,30.06999969482422,29.899999618530273,30.06999969482422,30.059999465942383,18700.0,29.35295867919922
2017-09-28,30.139999389648438,29.959999084472656,30.030000686645508,30.100000381469727,64900.0,29.39202117919922
2017-09-29,30.219999313354492,30.18000030517578,30.197999954223633,30.20199966430664,7300.0,29.49161720275879
2017-10-02,30.389999389648438,30.190000534057617,30.200000762939453,30.389999389648438,159700.0,29.67519760131836
2017-10-03,30.450000762939453,30.309999465942383,30.350000381469727,30.450000762939453,43100.0,29.733787536621094
2017-10-04,30.496999740600586,30.457000732421875,30.479999542236328,30.459999084472656,1900.0,29.743547439575195
2017-10-05,30.628000259399414,30.523000717163086,30.523000717163086,30.610000610351562,24800.0,29.890024185180664
2017-10-06,30.610000610351562,30.530000686645508,30.579999923706055,30.600000381469727,9600.0,29.880258560180664
2017-10-09,30.559999465942383,30.485000610351562,30.540000915527344,30.49799919128418,3600.0,29.780654907226562
2017-10-10,30.56399917602539,30.469999313354492,30.56399917602539,30.489999771118164,42600.0,29.772844314575195
2017-10-11,30.600000381469727,30.489999771118164,30.56399917602539,30.600000381469727,504300.0,29.880258560180664
2017-10-12,30.659000396728516,30.440000534057617,30.440000534057617,30.614999771118164,9100.0,29.8949031829834
2017-10-13,30.724000930786133,30.648000717163086,30.670000076293945,30.68000030517578,24000.0,29.958375930786133
2017-10-16,30.75,30.621999740600586,30.75,30.6560001373291,8300.0,29.934938430786133
2017-10-17,30.690000534057617,30.59000015258789,30.59000015258789,30.621000289916992,5600.0,29.90076446533203
2017-10-18,30.753999710083008,30.6200008392334,30.6200008392334,30.749000549316406,7800.0,30.025753021240234
2017-10-19,30.729999542236328,30.56999969482422,30.56999969482422,30.729999542236328,22400.0,30.0072021484375
2017-10-20,30.979999542236328,30.8700008392334,30.8700008392334,30.93000030517578,7400.0,30.202497482299805
2017-10-23,31.020000457763672,30.899999618530273,31.010000228881836,30.916000366210938,12800.0,30.188825607299805
2017-10-24,31.020000457763672,30.94300079345703,30.950000762939453,31.020000457763672,6700.0,30.290380477905273
2017-10-25,30.8700008392334,30.65999984741211,30.8700008392334,30.799999237060547,12300.0,30.07555389404297
2017-10-26,30.989999771118164,30.8700008392334,30.8700008392334,30.920000076293945,22300.0,30.192731857299805
2017-10-27,30.969999313354492,30.86199951171875,30.86199951171875,30.959999084472656,3700.0,30.23179054260254
2017-10-30,30.93000030517578,30.77199935913086,30.93000030517578,30.812000274658203,503800.0,30.08727264404297
2017-10-31,30.90999984741211,30.739999771118164,30.861000061035156,30.899999618530273,164800.0,30.173198699951172
2017-11-01,31.030000686645508,30.780000686645508,31.00200080871582,30.875,34700.0,30.14879035949707
2017-11-02,30.93000030517578,30.80299949645996,30.920000076293945,30.915000915527344,5200.0,30.187849044799805
2017-11-03,30.94499969482422,30.899999618530273,30.94499969482422,30.94499969482422,3700.0,30.21714210510254
2017-11-06,31.0,30.927000045776367,30.979999542236328,30.940000534057617,10100.0,30.212261199951172
2017-11-07,31.05500030517578,30.85099983215332,31.05500030517578,30.889999389648438,8300.0,30.163436889648438
2017-11-08,30.983999252319336,30.8799991607666,30.908000946044922,30.96500015258789,16000.0,30.236671447753906
2017-11-09,30.88599967956543,30.65999984741211,30.8799991607666,30.84000015258789,10200.0,30.11461067199707
2017-11-10,30.84000015258789,30.76799964904785,30.809999465942383,30.829999923706055,5900.0,30.104848861694336
2017-11-13,30.917999267578125,30.816999435424805,30.816999435424805,30.9060001373291,6300.0,30.179059982299805
2017-11-14,30.950000762939453,30.860000610351562,30.899999618530273,30.941999435424805,38600.0,30.214214324951172
2017-11-15,30.8700008392334,30.783000946044922,30.783000946044922,30.844999313354492,8600.0,30.119495391845703
2017-11-16,31.1299991607666,31.030000686645508,31.054000854492188,31.049999237060547,30900.0,30.319673538208008
2017-11-17,31.1299991607666,31.07699966430664,31.07699966430664,31.094999313354492,5900.0,30.36361312866211
2017-11-20,31.219999313354492,31.110000610351562,31.149999618530273,31.202999114990234,7600.0,30.469072341918945
2017-11-21,31.3700008392334,31.299999237060547,31.3700008392334,31.354000091552734,41800.0,30.61652374267578
2017-11-22,31.389999389648438,31.25,31.389999389648438,31.297000885009766,10000.0,30.56086540222168
2017-11-24,31.32900047302246,31.32699966430664,31.32699966430664,31.32900047302246,600.0,30.592111587524414
2017-11-27,31.3799991607666,31.299999237060547,31.360000610351562,31.336000442504883,13500.0,30.598949432373047
2017-11-28,31.677000045776367,31.389999389648438,31.389999389648438,31.656999588012695,19600.0,30.912395477294922
2017-11-29,31.8700008392334,31.65999984741211,31.65999984741211,31.802000045776367,9600.0,31.053987503051758
2017-11-30,32.16999816894531,31.90999984741211,32.0099983215332,32.055999755859375,20900.0,31.302011489868164
2017-12-01,32.5,31.60300064086914,32.5,31.940000534057617,44500.0,31.188737869262695
2017-12-04,32.270999908447266,32.0629997253418,32.15999984741211,32.08000183105469,9800.0,31.32544708251953
2017-12-05,32.08700180053711,31.83300018310547,31.989999771118164,31.86199951171875,17800.0,31.11257553100586
2017-12-06,31.875,31.760000228881836,31.834999084472656,31.809999465942383,13700.0,31.061796188354492
2017-12-07,31.989999771118164,31.867000579833984,31.867000579833984,31.969999313354492,5700.0,31.218032836914062
2017-12-08,32.290000915527344,32.029998779296875,32.290000915527344,32.13999938964844,49300.0,31.384035110473633
2017-12-11,32.5099983215332,32.029998779296875,32.5099983215332,32.06999969482422,13100.0,31.315683364868164
2017-12-12,32.159000396728516,32.08000183105469,32.08000183105469,32.130001068115234,13300.0,31.374271392822266
2017-12-13,32.141998291015625,32.060001373291016,32.13999938964844,32.060001373291016,23000.0,31.305919647216797
2017-12-14,32.051998138427734,31.81399917602539,31.940000534057617,31.889999389648438,21800.0,31.139915466308594
2017-12-15,32.21900177001953,32.06100082397461,32.08000183105469,32.09000015258789,9800.0,31.33521270751953
2017-12-18,32.380001068115234,32.308998107910156,32.34000015258789,32.33000183105469,15600.0,31.569568634033203
2017-12-19,32.16999816894531,32.060001373291016,32.16999816894531,32.11000061035156,4300.0,31.512643814086914
2017-12-20,32.124000549316406,32.05099868774414,32.11000061035156,32.060001373291016,21900.0,31.463579177856445
2017-12-21,32.06999969482422,32.0099983215332,32.040000915527344,32.013999938964844,9500.0,31.418432235717773
2017-12-22,32.02000045776367,31.924999237060547,31.979999542236328,31.9950008392334,4200.0,31.39978790283203
2017-12-26,32.06100082397461,31.98900032043457,32.060001373291016,31.98900032043457,10800.0,31.393896102905273
2017-12-27,32.08000183105469,32.0,32.040000915527344,32.029998779296875,8100.0,31.434131622314453
2017-12-28,32.130001068115234,32.00299835205078,32.130001068115234,32.130001068115234,24100.0,31.53227424621582
2017-12-29,32.22999954223633,32.04999923706055,32.22999954223633,32.06999969482422,53400.0,31.473390579223633
2018-01-02,32.125,32.04999923706055,32.09199905395508,32.108001708984375,11800.0,31.51068687438965
2018-01-03,32.290000915527344,32.150001525878906,32.220001220703125,32.25,77700.0,31.65003776550293
2018-01-04,32.43299865722656,32.37300109863281,32.400001525878906,32.37300109863281,9000.0,31.7707576751709
2018-01-05,32.571998596191406,32.369998931884766,32.369998931884766,32.571998596191406,12700.0,31.966049194335938
2018-01-08,32.709999084472656,32.529998779296875,32.56999969482422,32.689998626708984,19900.0,32.08185577392578
2018-01-09,32.79899978637695,32.68000030517578,32.73899841308594,32.7599983215332,18900.0,32.150550842285156
2018-01-10,32.56999969482422,32.470001220703125,32.56999969482422,32.505001068115234,38100.0,31.900299072265625
2018-01-11,32.790000915527344,32.59400177001953,32.62099838256836,32.790000915527344,22200.0,32.179996490478516
2018-01-12,32.970001220703125,32.88999938964844,32.9119987487793,32.959999084472656,8400.0,32.34683609008789
2018-01-16,33.119998931884766,32.67499923706055,33.04999923706055,32.76900100708008,18800.0,32.15938949584961
2018-01-17,33.1609992980957,32.88600158691406,32.95000076293945,33.095001220703125,36800.0,32.47932434082031
2018-01-18,33.12900161743164,32.95199966430664,33.099998474121094,33.040000915527344,30300.0,32.42534255981445
2018-01-19,33.27799987792969,33.15999984741211,33.19900131225586,33.27799987792969,11800.0,32.65892028808594
2018-01-22,33.439998626708984,33.310001373291016,33.310001373291016,33.439998626708984,13200.0,32.81789779663086
2018-01-23,33.58000183105469,33.5099983215332,33.529998779296875,33.564998626708984,21400.0,32.94057846069336
2018-01-24,33.709999084472656,33.43000030517578,33.709999084472656,33.527000427246094,34000.0,32.90328598022461
2018-01-25,33.689998626708984,33.5,33.689998626708984,33.529998779296875,13700.0,32.906227111816406
2018-01-26,33.869998931884766,33.599998474121094,33.599998474121094,33.869998931884766,11200.0,33.23990249633789
2018-01-29,33.810001373291016,33.61000061035156,33.720001220703125,33.619998931884766,10300.0,32.99455642700195
2018-01-30,33.38999938964844,33.24800109863281,33.24800109863281,33.34000015258789,7100.0,32.719764709472656
2018-01-31,33.40999984741211,33.220001220703125,33.38999938964844,33.314998626708984,29000.0,32.695228576660156
2018-02-01,33.33599853515625,33.06999969482422,33.06999969482422,33.17300033569336,100800.0,32.555870056152344
2018-02-02,32.96099853515625,32.61000061035156,32.959999084472656,32.61000061035156,32300.0,32.00334548950195
2018-02-05,32.582000732421875,31.639999389648438,32.400001525878906,31.889999389648438,48600.0,31.296737670898438
2018-02-06,31.8799991607666,30.82200050354004,31.020000457763672,31.739999771118164,51200.0,31.1495304107666
2018-02-07,32.06999969482422,31.670000076293945,31.670000076293945,31.770000457763672,20100.0,31.178972244262695
2018-02-08,31.850000381469727,30.729999542236328,31.850000381469727,30.729999542236328,12600.0,30.1583194732666
2018-02-09,31.225000381469727,30.31999969482422,31.0,31.06999969482422,52200.0,30.49199104309082
2018-02-12,31.559999465942383,31.100000381469727,31.100000381469727,31.559999465942383,5900.0,30.97287940979004
2018-02-13,31.597999572753906,31.302000045776367,31.3700008392334,31.570999145507812,19400.0,30.983673095703125
2018-02-14,32.029998779296875,31.6200008392334,31.670000076293945,31.989999771118164,23800.0,31.394880294799805
2018-02-15,32.33000183105469,31.97100067138672,32.15999984741211,32.33000183105469,37500.0,31.728557586669922
2018-02-16,32.505001068115234,32.20000076293945,32.20000076293945,32.470001220703125,16100.0,31.865947723388672
2018-02-20,32.41999816894531,32.16400146484375,32.41999816894531,32.16400146484375,11000.0,31.565645217895508
2018-02-21,32.52000045776367,32.0,32.11000061035156,32.0099983215332,24200.0,31.41450309753418
2018-02-22,32.25,31.940000534057617,32.06999969482422,31.940000534057617,203100.0,31.345808029174805
2018-02-23,32.45000076293945,32.130001068115234,32.2400016784668,32.45000076293945,8400.0,31.846323013305664
2018-02-26,32.65999984741211,32.474998474121094,32.59000015258789,32.630001068115234,24800.0,32.02297592163086
2018-02-27,32.77000045776367,32.31999969482422,32.7400016784668,32.31999969482422,12400.0,31.718740463256836
2018-02-28,32.39799880981445,32.00699996948242,32.39799880981445,32.02000045776367,39000.0,31.4243221282959
2018-03-01,31.850000381469727,31.465999603271484,31.75,31.642000198364258,11700.0,31.053354263305664
2018-03-02,31.753999710083008,31.361000061035156,31.459999084472656,31.753999710083008,13000.0,31.163267135620117
2018-03-05,32.10900115966797,31.66699981689453,31.68000030517578,32.09000015258789,4400.0,31.493017196655273
2018-03-06,32.290000915527344,32.02000045776367,32.073001861572266,32.220001220703125,54900.0,31.620601654052734
2018-03-07,32.27399826049805,31.950000762939453,31.950000762939453,32.25,15100.0,31.65003776550293
2018-03-08,32.380001068115234,32.20000076293945,32.380001068115234,32.36000061035156,14700.0,31.757993698120117
2018-03-09,32.823001861572266,32.59000015258789,32.59000015258789,32.823001861572266,32700.0,32.21238327026367
2018-03-12,32.88800048828125,32.7599983215332,32.849998474121094,32.849998474121094,21400.0,32.2388801574707
2018-03-13,32.97999954223633,32.69900131225586,32.95000076293945,32.69900131225586,10400.0,32.0906867980957
2018-03-14,32.77000045776367,32.5,32.77000045776367,32.52299880981445,73500.0,31.91796112060547
2018-03-15,32.619998931884766,32.459999084472656,32.540000915527344,32.50899887084961,8200.0,31.90422248840332
2018-03-16,32.69599914550781,32.529998779296875,32.529998779296875,32.683998107910156,38200.0,32.075965881347656
2018-03-19,32.5099983215332,32.2140007019043,32.4900016784668,32.41999816894531,7400.0,31.81687355041504
2018-03-20,32.5,32.40999984741211,32.5,32.459999084472656,14200.0,31.85613441467285
2018-03-21,32.54999923706055,32.33599853515625,32.36000061035156,32.387001037597656,7300.0,31.86695671081543
2018-03-22,32.150001525878906,31.660999298095703,32.08000183105469,31.660999298095703,12100.0,31.152616500854492
2018-03-23,31.656999588012695,31.079999923706055,31.656999588012695,31.079999923706055,62900.0,30.580944061279297
2018-03-26,31.75,31.309999465942383,31.3700008392334,31.75,15900.0,31.24018669128418
2018-03-27,31.899999618530273,31.31999969482422,31.780000686645508,31.31999969482422,27400.0,30.817092895507812
2018-03-28,31.538000106811523,31.336000442504883,31.39299964904785,31.413999557495117,23400.0,30.90958023071289
2018-03-29,31.860000610351562,31.440000534057617,31.440000534057617,31.797000885009766,25700.0,31.286434173583984
2018-04-02,31.719999313354492,30.850000381469727,31.719999313354492,30.933000564575195,80000.0,30.43630599975586
2018-04-03,31.530000686645508,31.184999465942383,31.200000762939453,31.440000534057617,12200.0,30.935165405273438
2018-04-04,31.80500030517578,31.049999237060547,31.049999237060547,31.780000686645508,102200.0,31.269704818725586
2018-04-05,32.04999923706055,31.860000610351562,31.940000534057617,31.959999084472656,23900.0,31.446815490722656
2018-04-06,31.85300064086914,31.229999542236328,31.850000381469727,31.360000610351562,47700.0,30.856449127197266
2018-04-09,31.770000457763672,31.40999984741211,31.530000686645508,31.59000015258789,73800.0,31.08275604248047
2018-04-10,32.08000183105469,31.6299991607666,32.08000183105469,31.850000381469727,43600.0,31.338581085205078
2018-04-11,31.799999237060547,31.600000381469727,31.639999389648438,31.677000045776367,29500.0,31.168357849121094
2018-04-12,31.889999389648438,31.760000228881836,31.760000228881836,31.84000015258789,22400.0,31.3287410736084
2018-04-13,31.84000015258789,31.62299919128418,31.829999923706055,31.71500015258789,62100.0,31.20574951171875
2018-04-16,32.12300109863281,31.871000289916992,32.040000915527344,32.06999969482422,28500.0,31.5550479888916
2018-04-17,32.41999816894531,32.15999984741211,32.15999984741211,32.349998474121094,397300.0,31.83055305480957
2018-04-18,32.470001220703125,32.340999603271484,32.380001068115234,32.35599899291992,14900.0,31.836456298828125
2018-04-19,32.224998474121094,32.0099983215332,32.224998474121094,32.11899948120117,84400.0,31.603260040283203
2018-04-20,32.099998474121094,31.780000686645508,32.099998474121094,31.850000381469727,9200.0,31.338581085205078
2018-04-23,32.04800033569336,31.81999969482422,31.899999618530273,31.834999084472656,24300.0,31.323820114135742
2018-04-24,32.04999923706055,31.389999389648438,32.04999923706055,31.594999313354492,30800.0,31.087675094604492
2018-04-25,31.690000534057617,31.388999938964844,31.600000381469727,31.59000015258789,15500.0,31.08275604248047
2018-04-26,31.888999938964844,31.56999969482422,31.56999969482422,31.799999237060547,8300.0,31.289382934570312
2018-04-27,31.899999618530273,31.75,31.899999618530273,31.81999969482422,30700.0,31.309062957763672
2018-04-30,31.849000930786133,31.565000534057617,31.849000930786133,31.6299991607666,10000.0,31.122114181518555
2018-05-01,31.57900047302246,31.292999267578125,31.56999969482422,31.5,26400.0,30.99420166015625
2018-05-02,31.6200008392334,31.350000381469727,31.5,31.350000381469727,40000.0,30.846609115600586
2018-05-03,31.40999984741211,30.976999282836914,31.25,31.34000015258789,8100.0,30.836769104003906
2018-05-04,31.780000686645508,31.270000457763672,31.270000457763672,31.68000030517578,18900.0,31.171310424804688
2018-05-07,31.829999923706055,31.641000747680664,31.698999404907227,31.753000259399414,5900.0,31.243139266967773
2018-05-08,31.780000686645508,31.6299991607666,31.719999313354492,31.72800064086914,41200.0,31.21854019165039
2018-05-09,31.950000762939453,31.65999984741211,31.739999771118164,31.899999618530273,20500.0,31.38777732849121
2018-05-10,32.16999816894531,32.00600051879883,32.01499938964844,32.15999984741211,23400.0,31.64360237121582
2018-05-11,32.25699996948242,32.099998474121094,32.20000076293945,32.20899963378906,4300.0,31.691818237304688
2018-05-14,32.25,32.095001220703125,32.25,32.13999938964844,22500.0,31.623924255371094
2018-05-15,32.02299880981445,31.899999618530273,31.899999618530273,31.96500015258789,37800.0,31.451736450195312
2018-05-16,32.209999084472656,32.02000045776367,32.02000045776367,32.18000030517578,25900.0,31.663280487060547
2018-05-17,32.22999954223633,32.040000915527344,32.14099884033203,32.1510009765625,24600.0,31.634748458862305
2018-05-18,32.20000076293945,32.090999603271484,32.13999938964844,32.17499923706055,9800.0,31.658363342285156
2018-05-21,32.400001525878906,32.33399963378906,32.36000061035156,32.369998931884766,13200.0,31.85023307800293
2018-05-22,32.43000030517578,32.279998779296875,32.43000030517578,32.279998779296875,21300.0,31.761676788330078
2018-05-23,32.292999267578125,32.08000183105469,32.08000183105469,32.27399826049805,18800.0,31.75577163696289
2018-05-24,32.36000061035156,32.130001068115234,32.29999923706055,32.33000183105469,7700.0,31.810876846313477
2018-05-25,32.38999938964844,32.27000045776367,32.375,32.36000061035156,11600.0,31.840391159057617
2018-05-29,32.17599868774414,31.950000762939453,32.17599868774414,31.989999771118164,38800.0,31.476333618164062
2018-05-30,32.470001220703125,32.220001220703125,32.220001220703125,32.404998779296875,10000.0,31.88467025756836
2018-05-31,32.43000030517578,32.02000045776367,32.43000030517578,32.04999923706055,150800.0,31.535369873046875
2018-06-01,32.400001525878906,32.25,32.25,32.36000061035156,10800.0,31.840391159057617
2018-06-04,32.529998779296875,32.400001525878906,32.400001525878906,32.51100158691406,5900.0,31.988969802856445
2018-06-05,32.599998474121094,32.45000076293945,32.48400115966797,32.56999969482422,124400.0,32.04701614379883
2018-06-06,32.7599983215332,32.470001220703125,32.599998474121094,32.720001220703125,55000.0,32.194610595703125
2018-06-07,32.86000061035156,32.66999816894531,32.77000045776367,32.810001373291016,52000.0,32.28316879272461
2018-06-08,32.970001220703125,32.7599983215332,32.81399917602539,32.970001220703125,31900.0,32.44059753417969
2018-06-11,33.040000915527344,32.959999084472656,33.0,32.97999954223633,9300.0,32.450435638427734
2018-06-12,33.060001373291016,32.95000076293945,32.95000076293945,33.029998779296875,38600.0,32.4996337890625
2018-06-13,33.0989990234375,32.86000061035156,33.0989990234375,32.86000061035156,24500.0,32.33236312866211
2018-06-14,33.0099983215332,32.88999938964844,33.0099983215332,32.97999954223633,6800.0,32.450435638427734
2018-06-15,33.04999923706055,32.790000915527344,32.790000915527344,33.04999923706055,3900.0,32.519309997558594
2018-06-18,32.97999954223633,32.882999420166016,32.959999084472656,32.970001220703125,12800.0,32.44059753417969
2018-06-19,32.810001373291016,32.61800003051758,32.78300094604492,32.810001373291016,14700.0,32.28316879272461
2018-06-20,32.900001525878906,32.810001373291016,32.82500076293945,32.8390007019043,11500.0,32.31169891357422
2018-06-21,32.79999923706055,32.619998931884766,32.79999923706055,32.68000030517578,12500.0,32.15525436401367
2018-06-22,32.7400016784668,32.689998626708984,32.7400016784668,32.7140007019043,24900.0,32.1887092590332
2018-06-25,32.68000030517578,32.189998626708984,32.68000030517578,32.349998474121094,17800.0,31.83055305480957
2018-06-26,32.470001220703125,32.29999923706055,32.470001220703125,32.29999923706055,44700.0,31.781352996826172
2018-06-27,32.36899948120117,31.90999984741211,32.25,31.90999984741211,117200.0,31.54018211364746
2018-06-28,32.020999908447266,31.729999542236328,31.979999542236328,32.020999908447266,16500.0,31.6498966217041
2018-06-29,32.279998779296875,32.0099983215332,32.130001068115234,32.0099983215332,16400.0,31.639022827148438
2018-07-02,32.09000015258789,31.761999130249023,31.761999130249023,32.09000015258789,10700.0,31.718097686767578
2018-07-03,32.25,31.950000762939453,32.130001068115234,31.969999313354492,34500.0,31.599485397338867
2018-07-05,32.209999084472656,32.025001525878906,32.119998931884766,32.18000030517578,17400.0,31.807052612304688
2018-07-06,32.52000045776367,32.22200012207031,32.22200012207031,32.4900016784668,60000.0,32.11346435546875
2018-07-09,32.7400016784668,32.560001373291016,32.560001373291016,32.7400016784668,12400.0,32.36056900024414
2018-07-10,32.849998474121094,32.7400016784668,32.81399917602539,32.849998474121094,28300.0,32.46928787231445
2018-07-11,32.7400016784668,32.540000915527344,32.7400016784668,32.54999923706055,40000.0,32.172767639160156
2018-07-12,32.779998779296875,32.599998474121094,32.63999938964844,32.75,57900.0,32.37044906616211
2018-07-13,32.849998474121094,32.720001220703125,32.720001220703125,32.81999969482422,14800.0,32.43963623046875
2018-07-16,32.7599983215332,32.650001525878906,32.7599983215332,32.720001220703125,267000.0,32.34079360961914
2018-07-17,32.90399932861328,32.66999816894531,32.66999816894531,32.900001525878906,28700.0,32.518707275390625
2018-07-18,33.040000915527344,32.95399856567383,32.96200180053711,33.03499984741211,104300.0,32.65214538574219
2018-07-19,33.099998474121094,32.92900085449219,32.935001373291016,33.029998779296875,41100.0,32.64720153808594
2018-07-20,33.0,32.89799880981445,32.94900131225586,32.89799880981445,107000.0,32.51673126220703
2018-07-23,32.95000076293945,32.849998474121094,32.88999938964844,32.91999816894531,16600.0,32.538475036621094
2018-07-24,33.029998779296875,32.709999084472656,33.029998779296875,32.75,20100.0,32.37044906616211
2018-07-25,32.900001525878906,32.72999954223633,32.82899856567383,32.89400100708008,15200.0,32.512779235839844
2018-07-26,33.25400161743164,33.125,33.191001892089844,33.2130012512207,16200.0,32.828086853027344
2018-07-27,33.2760009765625,32.92100143432617,33.27000045776367,32.959999084472656,10900.0,32.5780143737793
2018-07-30,33.040000915527344,32.7599983215332,33.040000915527344,32.779998779296875,12600.0,32.40009689331055
2018-07-31,33.108001708984375,32.88999938964844,32.88999938964844,33.060001373291016,23400.0,32.67685317993164
2018-08-01,33.0369987487793,32.86000061035156,32.999000549316406,32.86000061035156,25200.0,32.47917175292969
2018-08-02,33.11000061035156,32.77000045776367,32.81999969482422,33.09000015258789,19900.0,32.706504821777344
2018-08-03,33.22999954223633,33.082000732421875,33.084999084472656,33.209999084472656,14100.0,32.82511901855469
2018-08-06,33.36000061035156,33.09000015258789,33.09000015258789,33.349998474121094,24700.0,32.96349334716797
2018-08-07,33.52000045776367,33.40999984741211,33.40999984741211,33.494998931884766,40800.0,33.1068115234375
2018-08-08,33.4900016784668,33.380001068115234,33.43000030517578,33.459999084472656,7900.0,33.07221984863281
2018-08-09,33.56999969482422,33.38999938964844,33.56999969482422,33.38999938964844,7800.0,33.003028869628906
2018-08-10,33.31999969482422,33.19200134277344,33.2400016784668,33.222999572753906,6200.0,32.83796691894531
2018-08-13,33.279998779296875,33.02000045776367,33.279998779296875,33.029998779296875,9800.0,32.64720153808594
2018-08-14,33.409000396728516,33.20600128173828,33.220001220703125,33.369998931884766,51900.0,32.98326110839844
2018-08-15,33.20000076293945,32.946998596191406,33.20000076293945,33.08000183105469,11400.0,32.69662857055664
2018-08-16,33.41400146484375,33.31999969482422,33.31999969482422,33.31999969482422,21700.0,32.933841705322266
2018-08-17,33.54999923706055,33.34600067138672,33.35499954223633,33.520999908447266,8000.0,33.132511138916016
2018-08-20,33.72999954223633,33.59600067138672,33.665000915527344,33.63999938964844,16900.0,33.2501335144043
2018-08-21,33.900001525878906,33.790000915527344,33.790000915527344,33.84000015258789,19700.0,33.44781494140625
2018-08-22,33.79999923706055,33.72999954223633,33.79999923706055,33.749000549316406,6600.0,33.357872009277344
2018-08-23,33.766998291015625,33.650001525878906,33.7130012512207,33.70000076293945,44200.0,33.30944061279297
2018-08-24,33.86000061035156,33.68000030517578,33.68000030517578,33.83700180053711,42600.0,33.44485092163086
2018-08-27,34.06999969482422,33.880001068115234,33.880001068115234,33.95500183105469,23900.0,33.561485290527344
2018-08-28,33.999000549316406,33.89699935913086,33.974998474121094,33.970001220703125,5500.0,33.57630920410156
2018-08-29,34.13999938964844,33.98099899291992,33.98099899291992,34.119998931884766,28600.0,33.724571228027344
2018-08-30,34.07899856567383,33.832000732421875,34.04999923706055,33.840999603271484,13300.0,33.44880294799805
2018-08-31,33.941001892089844,33.7599983215332,33.7599983215332,33.941001892089844,8000.0,33.54764938354492
2018-09-04,33.97999954223633,33.867000579833984,33.91999816894531,33.939998626708984,41000.0,33.546653747558594
2018-09-05,33.99599838256836,33.7760009765625,33.790000915527344,33.95000076293945,8200.0,33.556541442871094
2018-09-06,34.060001373291016,33.86800003051758,34.060001373291016,33.939998626708984,13500.0,33.546653747558594
2018-09-07,33.90999984741211,33.73500061035156,33.90999984741211,33.77000045776367,8200.0,33.37862777709961
2018-09-10,33.91999816894531,33.86000061035156,33.90999984741211,33.87699890136719,15300.0,33.4843864440918
2018-09-11,33.959999084472656,33.689998626708984,33.689998626708984,33.90999984741211,6700.0,33.51700210571289
2018-09-12,33.959999084472656,33.744998931884766,33.900001525878906,33.91999816894531,15500.0,33.526885986328125
2018-09-13,34.08000183105469,33.93000030517578,33.970001220703125,33.970001220703125,35600.0,33.57630920410156
2018-09-14,34.09000015258789,33.959999084472656,33.99399948120117,34.06999969482422,42600.0,33.67515182495117
2018-09-17,33.9900016784668,33.82600021362305,33.9900016784668,33.8489990234375,63800.0,33.45670700073242
2018-09-18,34.04999923706055,33.790000915527344,33.86899948120117,33.9900016784668,69900.0,33.59607696533203
2018-09-19,34.040000915527344,33.79999923706055,33.97999954223633,33.83000183105469,63000.0,33.43793487548828
2018-09-20,34.06999969482422,33.91999816894531,33.91999816894531,34.06999969482422,10300.0,33.67515182495117
2018-09-21,34.15599822998047,34.0099983215332,34.06999969482422,34.029998779296875,106800.0,33.63561248779297
2018-09-24,33.939998626708984,33.810001373291016,33.939998626708984,33.88999938964844,9600.0,33.49723815917969
2018-09-25,33.95000076293945,33.77000045776367,33.95000076293945,33.79999923706055,18300.0,33.40827941894531
2018-09-26,33.77000045776367,33.560001373291016,33.678001403808594,33.560001373291016,18600.0,33.29616928100586
2018-09-27,33.66899871826172,33.52000045776367,33.643001556396484,33.540000915527344,18500.0,33.276329040527344
2018-09-28,33.65999984741211,33.540000915527344,33.540000915527344,33.61000061035156,18600.0,33.34577560424805
2018-10-01,33.75,33.470001220703125,33.75,33.56999969482422,25400.0,33.306087493896484
2018-10-02,33.599998474121094,33.459999084472656,33.54999923706055,33.4900016784668,46200.0,33.22671890258789
2018-10-03,33.63999938964844,33.4900016784668,33.52000045776367,33.5260009765625,50100.0,33.26243591308594
2018-10-04,33.37699890136719,33.108001708984375,33.37699890136719,33.220001220703125,19500.0,32.958839416503906
2018-10-05,33.21099853515625,32.86000061035156,33.21099853515625,33.040000915527344,41000.0,32.78025817871094
2018-10-08,33.08000183105469,32.84400177001953,33.06999969482422,33.060001373291016,56200.0,32.80009841918945
2018-10-09,33.03099822998047,32.8120002746582,33.0099983215332,32.81999969482422,49200.0,32.56198501586914
2018-10-10,32.70000076293945,31.8700008392334,32.70000076293945,31.8700008392334,24400.0,31.619455337524414
2018-10-11,31.93000030517578,31.239999771118164,31.75200080871582,31.239999771118164,16900.0,30.99440574645996
2018-10-12,31.660999298095703,31.19099998474121,31.6200008392334,31.459999084472656,82200.0,31.212677001953125
2018-10-15,31.719999313354492,31.469999313354492,31.489999771118164,31.530000686645508,23800.0,31.282127380371094
2018-10-16,32.13999938964844,31.722999572753906,31.739999771118164,32.13999938964844,13500.0,31.887331008911133
2018-10-17,32.08000183105469,31.770000457763672,31.908000946044922,32.0,17500.0,31.748432159423828
2018-10-18,31.979999542236328,31.520000457763672,31.833999633789062,31.600000381469727,29800.0,31.35157585144043
2018-10-19,31.81999969482422,31.44099998474121,31.700000762939453,31.469999313354492,57800.0,31.222597122192383
2018-10-22,31.489999771118164,31.298999786376953,31.489999771118164,31.40999984741211,21400.0,31.163070678710938
2018-10-23,31.270000457763672,30.639999389648438,30.84000015258789,31.1200008392334,19800.0,30.875350952148438
2018-10-24,31.211000442504883,30.299999237060547,31.18000030517578,30.299999237060547,22100.0,30.061796188354492
2018-10-25,30.915000915527344,30.420000076293945,30.43000030517578,30.75,10500.0,30.508258819580078
2018-10-26,30.64699935913086,30.163000106811523,30.420000076293945,30.3799991607666,12000.0,30.14116668701172
2018-10-29,30.983999252319336,30.190000534057617,30.709999084472656,30.389999389648438,42300.0,30.15108871459961
2018-10-30,30.920000076293945,30.562000274658203,30.56999969482422,30.920000076293945,88900.0,30.676923751831055
2018-10-31,31.43000030517578,31.149999618530273,31.23900032043457,31.149999618530273,92900.0,30.905115127563477
2018-11-01,31.62299919128418,31.406999588012695,31.406999588012695,31.601999282836914,29100.0,31.353559494018555
2018-11-02,31.860000610351562,31.309999465942383,31.860000610351562,31.520000457763672,68500.0,31.272205352783203
2018-11-05,31.729999542236328,31.440000534057617,31.579999923706055,31.6299991607666,16000.0,31.38134002685547
2018-11-06,31.850000381469727,31.6299991607666,31.6299991607666,31.80500030517578,254500.0,31.554964065551758
2018-11-07,32.402000427246094,32.034000396728516,32.0989990234375,32.38999938964844,20500.0,32.1353645324707
2018-11-08,32.43000030517578,32.25199890136719,32.35499954223633,32.33000183105469,83200.0,32.07583999633789
2018-11-09,32.22999954223633,31.95599937438965,32.22999954223633,32.11000061035156,8100.0,31.857568740844727
2018-11-12,31.93000030517578,31.610000610351562,31.93000030517578,31.639999389648438,9200.0,31.39126205444336
2018-11-13,31.910999298095703,31.520000457763672,31.75,31.6200008392334,26000.0,31.37141990661621
2018-11-14,31.889999389648438,31.365999221801758,31.790000915527344,31.420000076293945,24400.0,31.172992706298828
2018-11-15,31.6299991607666,31.18000030517578,31.18000030517578,31.600000381469727,57500.0,31.35157585144043
2018-11-16,31.809999465942383,31.559999465942383,31.628000259399414,31.709999084472656,15600.0,31.460710525512695
2018-11-19,31.709999084472656,31.190000534057617,31.709999084472656,31.249000549316406,105500.0,31.00333595275879
2018-11-20,30.959999084472656,30.670000076293945,30.81999969482422,30.719999313354492,17600.0,30.47849464416504
2018-11-21,31.101999282836914,30.97599983215332,30.98200035095215,30.97599983215332,3900.0,30.73248291015625
2018-11-23,30.961999893188477,30.729999542236328,30.729999542236328,30.961999893188477,1800.0,30.718591690063477
2018-11-26,31.280000686645508,31.100000381469727,31.18000030517578,31.270000457763672,17700.0,31.024171829223633
2018-11-27,31.170000076293945,31.040000915527344,31.131000518798828,31.170000076293945,20000.0,30.924957275390625
2018-11-28,31.770000457763672,31.150999069213867,31.299999237060547,31.770000457763672,416400.0,31.520240783691406
2018-11-29,31.84000015258789,31.572999954223633,31.70400047302246,31.777999877929688,12700.0,31.52817726135254
2018-11-30,31.90999984741211,31.709999084472656,31.729999542236328,31.8799991607666,21100.0,31.629375457763672
2018-12-03,32.196998596191406,31.910999298095703,32.0,32.18000030517578,218900.0,31.927017211914062
2018-12-04,32.02000045776367,31.198999404907227,32.02000045776367,31.200000762939453,33800.0,30.954721450805664
2018-12-06,31.139999389648438,30.34000015258789,30.780000686645508,31.139999389648438,124100.0,30.895191192626953
2018-12-07,31.149999618530273,30.320999145507812,31.149999618530273,30.450000762939453,73800.0,30.210617065429688
2018-12-10,30.43400001525879,29.950000762939453,30.059999465942383,30.385000228881836,22000.0,30.146127700805664
2018-12-11,30.809999465942383,30.209999084472656,30.670000076293945,30.34000015258789,33000.0,30.101482391357422
2018-12-12,30.850000381469727,30.511999130249023,30.62299919128418,30.525999069213867,31800.0,30.28601837158203
2018-12-13,30.559999465942383,30.29199981689453,30.559999465942383,30.358999252319336,14200.0,30.120332717895508
2018-12-14,30.25,29.8700008392334,30.190000534057617,29.8799991607666,34300.0,29.645097732543945
2018-12-17,29.8799991607666,29.15999984741211,29.6299991607666,29.290000915527344,73000.0,29.059736251831055
2018-12-18,29.649999618530273,29.18000030517578,29.559999465942383,29.329999923706055,42800.0,29.099422454833984
2018-12-19,29.489999771118164,28.639999389648438,29.139999389648438,28.739999771118164,28400.0,28.66063690185547
2018-12-20,28.700000762939453,28.054000854492188,28.56999969482422,28.280000686645508,99400.0,28.201908111572266
2018-12-21,28.540000915527344,27.8700008392334,28.399999618530273,27.8700008392334,91700.0,27.793039321899414
2018-12-24,27.719999313354492,27.1200008392334,27.719999313354492,27.12700080871582,70300.0,27.052091598510742
2018-12-26,28.190000534057617,27.089000701904297,27.177000045776367,28.190000534057617,69300.0,28.11215591430664
2018-12-27,28.3700008392334,27.531999588012695,27.8799991607666,28.3700008392334,96100.0,28.291658401489258
2018-12-28,28.736000061035156,28.31999969482422,28.520000457763672,28.43000030517578,176500.0,28.35149383544922
2018-12-31,28.687000274658203,28.389999389648438,28.549999237060547,28.670000076293945,64600.0,28.590829849243164
2019-01-02,28.649999618530273,28.299999237060547,28.299999237060547,28.503000259399414,28600.0,28.424291610717773
2019-01-03,28.399999618530273,28.059999465942383,28.34000015258789,28.10099983215332,28900.0,28.023401260375977
2019-01-04,28.959999084472656,28.329999923706055,28.329999923706055,28.836000442504883,12600.0,28.756372451782227
2019-01-07,29.309999465942383,28.82900047302246,28.899999618530273,29.09000015258789,26000.0,29.00967025756836
2019-01-08,29.422000885009766,29.141000747680664,29.25,29.420000076293945,26300.0,29.33875846862793
2019-01-09,29.679000854492188,29.509000778198242,29.540000915527344,29.610000610351562,17600.0,29.528234481811523
2019-01-10,29.764999389648438,29.469999313354492,29.559999465942383,29.743000030517578,9700.0,29.66086769104004
2019-01-11,29.84000015258789,29.652999877929688,29.652999877929688,29.84000015258789,26300.0,29.757598876953125
2019-01-14,29.746000289916992,29.658000946044922,29.672000885009766,29.66200065612793,33300.0,29.58009147644043
2019-01-15,29.8799991607666,29.731000900268555,29.809999465942383,29.8799991607666,23400.0,29.797487258911133
2019-01-16,30.010000228881836,29.840999603271484,29.860000610351562,29.969999313354492,13200.0,29.887239456176758
2019-01-17,30.218000411987305,29.910999298095703,29.910999298095703,30.200000762939453,7400.0,30.116605758666992
2019-01-18,30.635000228881836,30.358999252319336,30.358999252319336,30.6299991607666,22900.0,30.5454158782959
2019-01-22,30.39900016784668,30.08099937438965,30.389999389648438,30.25,35000.0,30.166467666625977
2019-01-23,30.469999313354492,30.159000396728516,30.469999313354492,30.33799934387207,15700.0,30.254222869873047
2019-01-24,30.469999313354492,30.290000915527344,30.375999450683594,30.360000610351562,23200.0,30.27616310119629
2019-01-25,30.700000762939453,30.575000762939453,30.639999389648438,30.6200008392334,23400.0,30.535446166992188
2019-01-28,30.579999923706055,30.384000778198242,30.392000198364258,30.540000915527344,18100.0,30.45566749572754
2019-01-29,30.670000076293945,30.57200050354004,30.610000610351562,30.639999389648438,89600.0,30.555389404296875
2019-01-30,30.989999771118164,30.684999465942383,30.700000762939453,30.89299964904785,28500.0,30.80769157409668
2019-01-31,31.149999618530273,30.809999465942383,30.809999465942383,31.149999618530273,661000.0,31.063982009887695
2019-02-01,31.209999084472656,31.059999465942383,31.100000381469727,31.209999084472656,10900.0,31.123815536499023
2019-02-04,31.3799991607666,31.06999969482422,31.118999481201172,31.3799991607666,304900.0,31.293346405029297
2019-02-05,31.524999618530273,31.389999389648438,31.450000762939453,31.524999618530273,5800.0,31.437946319580078
2019-02-06,31.510000228881836,31.430999755859375,31.459999084472656,31.510000228881836,8100.0,31.42298698425293
2019-02-07,31.40999984741211,31.187000274658203,31.399999618530273,31.40999984741211,100400.0,31.32326316833496
2019-02-08,31.399999618530273,31.201000213623047,31.229999542236328,31.39699935913086,75700.0,31.310298919677734
2019-02-11,31.540000915527344,31.43000030517578,31.43000030517578,31.489999771118164,29600.0,31.40304183959961
2019-02-12,31.860000610351562,31.610000610351562,31.610000610351562,31.860000610351562,18300.0,31.772022247314453
2019-02-13,32.0,31.829999923706055,32.0,31.989999771118164,32300.0,31.901660919189453
2019-02-14,32.029998779296875,31.790000915527344,31.790000915527344,31.889999389648438,35600.0,31.801937103271484
2019-02-15,32.22999954223633,32.11000061035156,32.150001525878906,32.22999954223633,104100.0,32.14099884033203
2019-02-19,32.34000015258789,32.119998931884766,32.119998931884766,32.2599983215332,140500.0,32.17091369628906
2019-02-20,32.39099884033203,32.2859992980957,32.308998107910156,32.36000061035156,18800.0,32.2706413269043
2019-02-21,32.369998931884766,32.20000076293945,32.314998626708984,32.31999969482422,11600.0,32.230751037597656
2019-02-22,32.529998779296875,32.41600036621094,32.45000076293945,32.529998779296875,21100.0,32.44017028808594
2019-02-25,32.67499923706055,32.4900016784668,32.59000015258789,32.4900016784668,30700.0,32.40028381347656
2019-02-26,32.52000045776367,32.40999984741211,32.52000045776367,32.41999816894531,20100.0,32.33047103881836
2019-02-27,32.45000076293945,32.290000915527344,32.35499954223633,32.400001525878906,7400.0,32.31053161621094
2019-02-28,32.459999084472656,32.33000183105469,32.34000015258789,32.400001525878906,16600.0,32.31053161621094
2019-03-01,32.619998931884766,32.369998931884766,32.619998931884766,32.53300094604492,5700.0,32.44316482543945
2019-03-04,32.599998474121094,32.099998474121094,32.599998474121094,32.31999969482422,13500.0,32.230751037597656
2019-03-05,32.35100173950195,32.25,32.290000915527344,32.2599983215332,12200.0,32.17091369628906
2019-03-06,32.2599983215332,32.029998779296875,32.2599983215332,32.06399917602539,44000.0,31.97545623779297
2019-03-07,32.08000183105469,31.7549991607666,31.950000762939453,31.790000915527344,20200.0,31.70221519470215
2019-03-08,31.75,31.54800033569336,31.600000381469727,31.75,6900.0,31.662324905395508
2019-03-11,32.08700180053711,31.75,31.75,32.08000183105469,97100.0,31.99141502380371
2019-03-12,32.20000076293945,32.08000183105469,32.130001068115234,32.099998474121094,51500.0,32.011356353759766
2019-03-13,32.433998107910156,32.25,32.279998779296875,32.34000015258789,13200.0,32.250694274902344
2019-03-14,32.310001373291016,32.19300079345703,32.25,32.22999954223633,27300.0,32.14099884033203
2019-03-15,32.404998779296875,32.22999954223633,32.27899932861328,32.25,36100.0,32.25
2019-03-18,32.41999816894531,32.27000045776367,32.41999816894531,32.400001525878906,117300.0,32.400001525878906
2019-03-19,32.55400085449219,32.25,32.47999954223633,32.290000915527344,50100.0,32.290000915527344
2019-03-20,32.36000061035156,32.040000915527344,32.27000045776367,32.11399841308594,28100.0,32.11399841308594
2019-03-21,32.63999938964844,32.060001373291016,32.060001373291016,32.58000183105469,19800.0,32.58000183105469
2019-03-22,32.47999954223633,32.04999923706055,32.47999954223633,32.04999923706055,5900.0,32.04999923706055
2019-03-25,32.138999938964844,31.889999389648438,31.959999084472656,32.04999923706055,15000.0,32.04999923706055
2019-03-26,32.31999969482422,32.08399963378906,32.2400016784668,32.279998779296875,18500.0,32.279998779296875
2019-03-27,32.30099868774414,32.06399917602539,32.30099868774414,32.150001525878906,5800.0,32.150001525878906
2019-03-28,32.40700149536133,32.21099853515625,32.40700149536133,32.349998474121094,15500.0,32.349998474121094
2019-03-29,32.61000061035156,32.441001892089844,32.540000915527344,32.58000183105469,104100.0,32.58000183105469
2019-04-01,32.93000030517578,32.720001220703125,32.720001220703125,32.93000030517578,11800.0,32.93000030517578
2019-04-02,32.849998474121094,32.720001220703125,32.744998931884766,32.849998474121094,39600.0,32.849998474121094
2019-04-03,33.034000396728516,32.89400100708008,33.0099983215332,32.959999084472656,10900.0,32.959999084472656
2019-04-04,33.02000045776367,32.880001068115234,32.970001220703125,33.02000045776367,155900.0,33.02000045776367
2019-04-05,33.178001403808594,33.11000061035156,33.11000061035156,33.178001403808594,8400.0,33.178001403808594
2019-04-08,33.22999954223633,33.0989990234375,33.099998474121094,33.22999954223633,5500.0,33.22999954223633
2019-04-09,33.06999969482422,32.93899917602539,33.02799987792969,32.97999954223633,125300.0,32.97999954223633
2019-04-10,33.15999984741211,33.0099983215332,33.0099983215332,33.15999984741211,8700.0,33.15999984741211
2019-04-11,33.231998443603516,33.14899826049805,33.22999954223633,33.231998443603516,16600.0,33.231998443603516
2019-04-12,33.45000076293945,33.347999572753906,33.349998474121094,33.45000076293945,10100.0,33.45000076293945
2019-04-15,33.459999084472656,33.35200119018555,33.459999084472656,33.369998931884766,37500.0,33.369998931884766
2019-04-16,33.492000579833984,33.297000885009766,33.47999954223633,33.34000015258789,39900.0,33.34000015258789
2019-04-17,33.395999908447266,33.12699890136719,33.395999908447266,33.150001525878906,121300.0,33.150001525878906
2019-04-18,33.301998138427734,33.150001525878906,33.21900177001953,33.25,8400.0,33.25
2019-04-22,33.16999816894531,33.09299850463867,33.16999816894531,33.15999984741211,19600.0,33.15999984741211
2019-04-23,33.50899887084961,33.18000030517578,33.18000030517578,33.459999084472656,33800.0,33.459999084472656
2019-04-24,33.63999938964844,33.529998779296875,33.54999923706055,33.529998779296875,214000.0,33.529998779296875
2019-04-25,33.43600082397461,33.20000076293945,33.327999114990234,33.369998931884766,23300.0,33.369998931884766
2019-04-26,33.52000045776367,33.33000183105469,33.33000183105469,33.52000045776367,31700.0,33.52000045776367
2019-04-29,33.630001068115234,33.53900146484375,33.630001068115234,33.53900146484375,9100.0,33.53900146484375
2019-04-30,33.678001403808594,33.439998626708984,33.507999420166016,33.678001403808594,17100.0,33.678001403808594
2019-05-01,33.68000030517578,33.3489990234375,33.625999450683594,33.3489990234375,24500.0,33.3489990234375
2019-05-02,33.43000030517578,33.15299987792969,33.2400016784668,33.400001525878906,12500.0,33.400001525878906
2019-05-03,33.66600036621094,33.500999450683594,33.500999450683594,33.66600036621094,3900.0,33.66600036621094
2019-05-06,33.61399841308594,33.20100021362305,33.2400016784668,33.540000915527344,68900.0,33.540000915527344
2019-05-07,33.358001708984375,32.92100143432617,33.358001708984375,33.08000183105469,18900.0,33.08000183105469
2019-05-08,33.18000030517578,32.9900016784668,33.04199981689453,32.9900016784668,8800.0,32.9900016784668
2019-05-09,33.0,32.63999938964844,32.65999984741211,32.959999084472656,10000.0,32.959999084472656
2019-05-10,33.2400016784668,32.56100082397461,32.779998779296875,33.209999084472656,15500.0,33.209999084472656
2019-05-13,32.4900016784668,32.29999923706055,32.4900016784668,32.40999984741211,128200.0,32.40999984741211
2019-05-14,32.79199981689453,32.52000045776367,32.52000045776367,32.61000061035156,14000.0,32.61000061035156
2019-05-15,32.83000183105469,32.38999938964844,32.38999938964844,32.72999954223633,12300.0,32.72999954223633
2019-05-16,33.13999938964844,32.939998626708984,33.029998779296875,32.96200180053711,7500.0,32.96200180053711
2019-05-17,32.99300003051758,32.779998779296875,32.80699920654297,32.779998779296875,6400.0,32.779998779296875
2019-05-20,32.7599983215332,32.584999084472656,32.70000076293945,32.630001068115234,23600.0,32.630001068115234
2019-05-21,33.029998779296875,32.84000015258789,32.84000015258789,32.95000076293945,6700.0,32.95000076293945
2019-05-22,32.93899917602539,32.827999114990234,32.91299819946289,32.90999984741211,9400.0,32.90999984741211
2019-05-23,32.5629997253418,32.3849983215332,32.5099983215332,32.47100067138672,22800.0,32.47100067138672
2019-05-24,32.65999984741211,32.5099983215332,32.58000183105469,32.529998779296875,59300.0,32.529998779296875
