Date,High,Low,Open,Close,Volume,Adj Close
2017-01-12,20.1200008392334,19.920000076293945,20.1200008392334,20.100000381469727,9100.0,19.24888801574707
2017-01-13,20.329999923706055,20.06999969482422,20.110000610351562,20.139999389648438,48900.0,19.287193298339844
2017-01-17,20.100000381469727,19.968000411987305,20.100000381469727,19.976999282836914,61100.0,19.13109588623047
2017-01-18,20.0,19.829999923706055,19.899999618530273,20.0,30000.0,19.153121948242188
2017-01-19,19.979999542236328,19.850000381469727,19.979999542236328,19.889999389648438,22400.0,19.047779083251953
2017-01-20,19.969999313354492,19.8700008392334,19.959999084472656,19.900999069213867,61900.0,19.058313369750977
2017-01-23,19.93000030517578,19.84000015258789,19.920000076293945,19.860000610351562,8600.0,19.019052505493164
2017-01-24,20.200000762939453,19.940000534057617,19.940000534057617,20.170000076293945,20900.0,19.31592559814453
2017-01-25,20.31999969482422,20.209999084472656,20.209999084472656,20.299999237060547,53400.0,19.440420150756836
2017-01-26,20.3700008392334,20.350000381469727,20.350000381469727,20.3700008392334,37900.0,19.507455825805664
2017-01-27,20.360000610351562,20.299999237060547,20.350000381469727,20.31999969482422,38900.0,19.459571838378906
2017-01-30,20.18000030517578,20.110000610351562,20.170000076293945,20.170000076293945,14400.0,19.31592559814453
2017-01-31,20.139999389648438,20.049999237060547,20.110000610351562,20.139999389648438,22400.0,19.287193298339844
2017-02-01,20.329999923706055,20.06999969482422,20.139999389648438,20.09000015258789,136500.0,19.23931121826172
2017-02-02,20.1200008392334,20.030000686645508,20.06999969482422,20.09000015258789,38400.0,19.23931121826172
2017-02-03,20.43000030517578,20.299999237060547,20.329999923706055,20.40999984741211,24200.0,19.545761108398438
2017-02-06,20.399999618530273,20.329999923706055,20.350000381469727,20.350000381469727,62600.0,19.48830223083496
2017-02-07,20.399999618530273,20.350000381469727,20.399999618530273,20.360000610351562,18400.0,19.497879028320312
2017-02-08,20.329999923706055,20.25,20.25,20.309999465942383,25200.0,19.449995040893555
2017-02-09,20.530000686645508,20.34000015258789,20.3799991607666,20.520000457763672,10100.0,19.651103973388672
2017-02-10,20.59000015258789,20.54199981689453,20.56999969482422,20.56999969482422,30900.0,19.698986053466797
2017-02-13,22.0,20.68000030517578,22.0,20.760000228881836,26900.0,19.88094139099121
2017-02-14,21.09000015258789,20.729999542236328,20.729999542236328,20.86199951171875,28500.0,19.978620529174805
2017-02-15,21.0,20.878999710083008,20.8799991607666,20.989999771118164,25300.0,20.101200103759766
2017-02-16,21.010000228881836,20.916000366210938,21.010000228881836,20.989999771118164,24200.0,20.101200103759766
2017-02-17,21.030000686645508,20.8799991607666,20.8799991607666,21.030000686645508,12300.0,20.139509201049805
2017-02-21,21.15999984741211,21.069000244140625,21.09000015258789,21.15999984741211,32600.0,20.26400375366211
2017-02-22,21.18000030517578,21.059999465942383,21.09000015258789,21.15999984741211,20700.0,20.26400375366211
2017-02-23,21.450000762939453,21.1200008392334,21.200000762939453,21.200000762939453,24400.0,20.302310943603516
2017-02-24,21.100000381469727,20.989999771118164,21.079999923706055,21.09000015258789,19600.0,20.19696807861328
2017-02-27,22.149999618530273,21.07699966430664,21.719999313354492,21.149999618530273,22000.0,20.254426956176758
2017-02-28,21.149999618530273,21.04800033569336,21.08799934387207,21.139999389648438,9800.0,20.244850158691406
2017-03-01,21.600000381469727,21.420000076293945,21.420000076293945,21.540000915527344,40000.0,20.627914428710938
2017-03-02,21.40999984741211,21.299999237060547,21.40999984741211,21.299999237060547,20900.0,20.398075103759766
2017-03-03,21.360000610351562,21.299999237060547,21.299999237060547,21.329999923706055,60000.0,20.42680549621582
2017-03-06,21.270000457763672,21.190000534057617,21.209999084472656,21.260000228881836,19400.0,20.359769821166992
2017-03-07,21.25,21.170000076293945,21.209999084472656,21.170000076293945,22300.0,20.27358055114746
2017-03-08,21.3700008392334,21.18000030517578,21.3700008392334,21.200000762939453,7300.0,20.302310943603516
2017-03-09,21.280000686645508,21.148000717163086,21.280000686645508,21.149999618530273,20700.0,20.254426956176758
2017-03-10,21.280000686645508,21.1299991607666,21.25,21.229999542236328,30100.0,20.331039428710938
2017-03-13,21.280000686645508,21.219999313354492,21.229999542236328,21.229999542236328,15000.0,20.331039428710938
2017-03-14,21.229999542236328,21.148000717163086,21.170000076293945,21.229999542236328,12100.0,20.331039428710938
2017-03-15,21.299999237060547,21.200000762939453,21.299999237060547,21.225000381469727,20200.0,20.326251983642578
2017-03-16,21.360000610351562,21.25,21.360000610351562,21.299999237060547,31400.0,20.398075103759766
2017-03-17,21.34000015258789,21.1299991607666,21.280000686645508,21.139999389648438,433500.0,20.244850158691406
2017-03-20,21.100000381469727,20.940000534057617,21.079999923706055,20.940000534057617,20700.0,20.053319931030273
2017-03-21,20.969999313354492,20.600000381469727,20.969999313354492,20.600000381469727,17400.0,19.727718353271484
2017-03-22,20.6299991607666,20.489999771118164,20.5,20.59000015258789,29500.0,19.7181396484375
2017-03-23,20.729999542236328,20.56999969482422,20.58300018310547,20.56999969482422,18600.0,19.698986053466797
2017-03-24,20.68000030517578,20.459999084472656,20.639999389648438,20.59000015258789,34600.0,19.7181396484375
2017-03-27,20.5,20.209999084472656,20.209999084472656,20.469999313354492,15800.0,19.603221893310547
2017-03-28,20.75,20.50200080871582,20.510000228881836,20.709999084472656,19500.0,19.833057403564453
2017-03-29,20.68000030517578,20.615999221801758,20.639999389648438,20.65999984741211,21900.0,19.785175323486328
2017-03-30,20.8700008392334,20.709999084472656,20.709999084472656,20.8700008392334,16800.0,19.986284255981445
2017-03-31,20.84000015258789,20.760000228881836,20.809999465942383,20.760000228881836,25400.0,19.88094139099121
2017-04-03,20.780000686645508,20.549999237060547,20.780000686645508,20.639999389648438,17300.0,19.766023635864258
2017-04-04,20.709999084472656,20.639999389648438,20.649999618530273,20.700000762939453,35200.0,19.823482513427734
2017-04-05,20.8799991607666,20.600000381469727,20.850000381469727,20.600000381469727,73900.0,19.727718353271484
2017-04-06,20.65999984741211,20.559999465942383,20.579999923706055,20.6200008392334,8100.0,19.746870040893555
2017-04-07,20.639999389648438,20.530000686645508,20.549999237060547,20.639999389648438,22500.0,19.766023635864258
2017-04-10,20.68000030517578,20.549999237060547,20.68000030517578,20.59000015258789,15400.0,19.7181396484375
2017-04-11,20.549999237060547,20.399999618530273,20.5,20.479999542236328,13200.0,19.612796783447266
2017-04-12,20.510000228881836,20.389999389648438,20.489999771118164,20.40999984741211,25700.0,19.545761108398438
2017-04-13,20.479999542236328,20.18000030517578,20.479999542236328,20.18000030517578,24400.0,19.32550048828125
2017-04-17,20.43199920654297,20.219999313354492,20.219999313354492,20.43199920654297,8000.0,19.56682777404785
2017-04-18,20.399999618530273,20.236000061035156,20.350000381469727,20.299999237060547,29900.0,19.440420150756836
2017-04-19,20.440000534057617,20.209999084472656,20.3799991607666,20.25,15600.0,19.39253807067871
2017-04-20,20.549999237060547,20.399999618530273,20.399999618530273,20.549999237060547,10800.0,19.679832458496094
2017-04-21,20.559999465942383,20.406999588012695,20.5,20.40999984741211,15600.0,19.545761108398438
2017-04-24,20.790000915527344,20.700000762939453,20.700000762939453,20.780000686645508,63600.0,19.900094985961914
2017-04-25,21.020000457763672,20.920000076293945,20.920000076293945,20.979999542236328,24500.0,20.091625213623047
2017-04-26,21.1200008392334,20.947999954223633,20.947999954223633,21.059999465942383,13200.0,20.168237686157227
2017-04-27,21.040000915527344,20.910999298095703,21.040000915527344,20.989999771118164,28300.0,20.101200103759766
2017-04-28,21.020000457763672,20.850000381469727,21.010000228881836,20.850000381469727,9500.0,19.967130661010742
2017-05-01,21.0,20.891000747680664,20.940000534057617,20.9950008392334,7100.0,20.10599136352539
2017-05-02,21.0,20.920000076293945,21.0,20.920000076293945,17600.0,20.03416633605957
2017-05-03,21.049999237060547,20.969999313354492,20.989999771118164,21.010000228881836,25300.0,20.1203556060791
2017-05-04,21.149999618530273,21.04599952697754,21.149999618530273,21.06999969482422,7700.0,20.177814483642578
2017-05-05,21.086999893188477,20.999000549316406,21.059999465942383,21.059999465942383,34000.0,20.168237686157227
2017-05-08,21.06999969482422,20.93000030517578,21.06999969482422,20.93000030517578,12700.0,20.043743133544922
2017-05-09,21.030000686645508,20.920000076293945,20.979999542236328,20.920000076293945,21200.0,20.03416633605957
2017-05-10,20.979999542236328,20.93000030517578,20.940000534057617,20.93000030517578,8100.0,20.043743133544922
2017-05-11,20.950000762939453,20.729999542236328,20.950000762939453,20.8700008392334,25600.0,19.986284255981445
2017-05-12,20.829999923706055,20.709999084472656,20.780000686645508,20.75,18200.0,19.87136459350586
2017-05-15,20.975000381469727,20.799999237060547,20.799999237060547,20.8799991607666,13500.0,19.995859146118164
2017-05-16,20.979999542236328,20.90999984741211,20.979999542236328,20.959999084472656,12700.0,20.072471618652344
2017-05-17,20.700000762939453,20.48699951171875,20.639999389648438,20.48699951171875,21200.0,19.6195011138916
2017-05-18,20.649999618530273,20.510000228881836,20.510000228881836,20.6200008392334,26800.0,19.746870040893555
2017-05-19,20.77899932861328,20.6200008392334,20.6200008392334,20.75,17100.0,19.87136459350586
2017-05-22,20.819000244140625,20.777999877929688,20.777999877929688,20.80900001525879,10800.0,19.927865982055664
2017-05-23,20.969999313354492,20.84000015258789,20.84000015258789,20.90999984741211,12000.0,20.02458953857422
2017-05-24,21.0,20.899999618530273,20.969999313354492,21.0,16900.0,20.11077880859375
2017-05-25,21.079999923706055,21.003999710083008,21.030000686645508,21.049999237060547,31400.0,20.158660888671875
2017-05-26,21.06999969482422,21.0,21.0,21.049999237060547,15700.0,20.158660888671875
2017-05-30,20.950000762939453,20.889999389648438,20.950000762939453,20.930999755859375,114800.0,20.04469871520996
2017-05-31,20.8799991607666,20.7549991607666,20.770000457763672,20.8700008392334,24600.0,19.986284255981445
2017-06-01,21.079999923706055,20.899999618530273,20.899999618530273,21.059999465942383,16500.0,20.168237686157227
2017-06-02,21.114999771118164,21.010000228881836,21.010000228881836,21.079999923706055,13900.0,20.18739128112793
2017-06-05,21.15999984741211,21.049999237060547,21.100000381469727,21.09000015258789,14400.0,20.19696807861328
2017-06-06,21.030000686645508,20.950000762939453,20.950000762939453,21.010000228881836,18200.0,20.1203556060791
2017-06-07,21.100000381469727,21.040000915527344,21.09000015258789,21.09000015258789,12100.0,20.19696807861328
2017-06-08,21.264999389648438,21.111000061035156,21.111000061035156,21.219999313354492,245600.0,20.321462631225586
2017-06-09,21.450000762939453,21.273000717163086,21.31999969482422,21.3799991607666,21200.0,20.474685668945312
2017-06-12,21.440000534057617,21.309999465942383,21.440000534057617,21.384000778198242,18100.0,20.478519439697266
2017-06-13,21.56999969482422,21.489999771118164,21.489999771118164,21.549999237060547,14300.0,20.637487411499023
2017-06-14,21.489999771118164,21.360000610351562,21.489999771118164,21.45800018310547,53700.0,20.549386978149414
2017-06-15,21.490999221801758,21.420000076293945,21.420000076293945,21.479999542236328,474000.0,20.570453643798828
2017-06-16,21.559999465942383,21.450000762939453,21.559999465942383,21.510000228881836,8800.0,20.59918212890625
2017-06-19,21.68000030517578,21.604999542236328,21.6200008392334,21.639999389648438,11200.0,20.723676681518555
2017-06-20,21.56999969482422,21.5,21.56999969482422,21.5,6600.0,20.58960723876953
2017-06-21,21.440000534057617,21.3799991607666,21.43000030517578,21.3799991607666,12400.0,20.474685668945312
2017-06-22,21.368999481201172,21.270999908447266,21.368999481201172,21.309999465942383,20300.0,20.407651901245117
2017-06-23,21.329999923706055,21.21500015258789,21.270000457763672,21.229999542236328,20500.0,20.331039428710938
2017-06-26,21.389999389648438,21.299999237060547,21.299999237060547,21.3700008392334,8200.0,20.465112686157227
2017-06-27,21.489999771118164,21.3799991607666,21.3799991607666,21.3799991607666,13000.0,20.474685668945312
2017-06-28,21.670000076293945,21.527999877929688,21.549999237060547,21.665000915527344,11400.0,20.74761962890625
2017-06-29,21.84000015258789,21.5049991607666,21.84000015258789,21.68000030517578,12700.0,20.76198387145996
2017-06-30,21.700000762939453,21.577999114990234,21.700000762939453,21.610000610351562,5500.0,20.694950103759766
2017-07-03,21.969999313354492,21.829999923706055,21.829999923706055,21.920000076293945,6400.0,20.991823196411133
2017-07-05,21.889999389648438,21.81999969482422,21.81999969482422,21.850000381469727,9600.0,20.924787521362305
2017-07-06,21.889999389648438,21.729999542236328,21.850000381469727,21.729999542236328,137600.0,20.809865951538086
2017-07-07,21.860000610351562,21.709999084472656,21.719999313354492,21.81999969482422,16000.0,20.896055221557617
2017-07-10,21.889999389648438,21.81999969482422,21.829999923706055,21.829999923706055,28000.0,20.9056339263916
2017-07-11,21.790000915527344,21.6299991607666,21.790000915527344,21.719999313354492,7000.0,20.800291061401367
2017-07-12,21.809999465942383,21.690000534057617,21.709999084472656,21.809999465942383,16900.0,20.886478424072266
2017-07-13,21.920000076293945,21.829999923706055,21.829999923706055,21.899999618530273,12600.0,20.972667694091797
2017-07-14,21.959999084472656,21.719999313354492,21.719999313354492,21.940000534057617,11700.0,21.010974884033203
2017-07-17,21.959999084472656,21.829999923706055,21.829999923706055,21.93000030517578,6900.0,21.001399993896484
2017-07-18,21.969999313354492,21.851999282836914,21.889999389648438,21.969999313354492,13500.0,21.039705276489258
2017-07-19,22.01300048828125,21.940000534057617,22.01300048828125,21.959999084472656,12800.0,21.030128479003906
2017-07-20,22.079999923706055,21.989999771118164,22.079999923706055,22.040000915527344,7300.0,21.106740951538086
2017-07-21,22.190000534057617,22.049999237060547,22.049999237060547,22.149999618530273,7300.0,21.21208381652832
2017-07-24,22.260000228881836,22.170000076293945,22.202999114990234,22.229999542236328,13200.0,21.2886962890625
2017-07-25,22.459999084472656,22.31999969482422,22.459999084472656,22.34000015258789,10900.0,21.3940372467041
2017-07-26,22.3700008392334,22.260000228881836,22.350000381469727,22.260000228881836,41800.0,21.317424774169922
2017-07-27,22.25,22.059999465942383,22.239999771118164,22.100000381469727,15000.0,21.164201736450195
2017-07-28,22.18899917602539,22.079999923706055,22.079999923706055,22.18899917602539,5100.0,21.249431610107422
2017-07-31,22.34000015258789,22.280000686645508,22.280000686645508,22.31999969482422,12500.0,21.37488555908203
2017-08-01,22.444000244140625,22.350000381469727,22.389999389648438,22.440000534057617,19300.0,21.489805221557617
2017-08-02,22.450000762939453,22.364999771118164,22.43899917602539,22.420000076293945,24500.0,21.47064971923828
2017-08-03,22.420000076293945,22.3700008392334,22.399999618530273,22.38800048828125,12300.0,21.440006256103516
2017-08-04,22.5,22.389999389648438,22.5,22.420000076293945,11600.0,21.47064971923828
2017-08-07,22.42099952697754,22.364999771118164,22.42099952697754,22.3799991607666,8400.0,21.432342529296875
2017-08-08,22.5,22.302000045776367,22.3799991607666,22.309999465942383,24200.0,21.36530876159668
2017-08-09,22.326000213623047,22.18000030517578,22.18000030517578,22.326000213623047,11000.0,21.380630493164062
2017-08-10,22.200000762939453,22.030000686645508,22.200000762939453,22.030000686645508,15000.0,21.097164154052734
2017-08-11,22.040000915527344,21.899999618530273,21.979999542236328,21.899999618530273,11100.0,20.972667694091797
2017-08-14,22.260000228881836,22.079999923706055,22.079999923706055,22.190000534057617,13800.0,21.250391006469727
2017-08-15,22.329999923706055,22.229999542236328,22.309999465942383,22.270000457763672,15700.0,21.327003479003906
2017-08-16,22.360000610351562,22.239999771118164,22.34000015258789,22.260000228881836,11200.0,21.317424774169922
2017-08-17,22.149999618530273,22.014999389648438,22.149999618530273,22.040000915527344,7700.0,21.106740951538086
2017-08-18,21.979999542236328,21.84000015258789,21.860000610351562,21.969999313354492,9200.0,21.039705276489258
2017-08-21,21.93899917602539,21.850000381469727,21.850000381469727,21.93899917602539,7100.0,21.01001739501953
2017-08-22,22.059999465942383,21.989999771118164,22.010000228881836,22.059999465942383,10300.0,21.12589454650879
2017-08-23,22.079999923706055,21.90999984741211,21.90999984741211,22.020000457763672,10200.0,21.087589263916016
2017-08-24,22.020000457763672,21.950000762939453,22.010000228881836,21.959999084472656,7000.0,21.030128479003906
2017-08-25,22.059999465942383,21.959999084472656,22.020000457763672,22.010000228881836,19300.0,21.078012466430664
2017-08-28,21.969999313354492,21.81999969482422,21.969999313354492,21.850000381469727,34900.0,20.924787521362305
2017-08-29,21.81100082397461,21.719999313354492,21.760000228881836,21.770000457763672,9100.0,20.848173141479492
2017-08-30,21.940000534057617,21.820999145507812,21.8799991607666,21.850000381469727,14300.0,20.924787521362305
2017-08-31,21.950000762939453,21.8700008392334,21.899999618530273,21.889999389648438,17900.0,20.963092803955078
2017-09-01,22.049999237060547,21.93000030517578,21.959999084472656,21.93000030517578,11500.0,21.001399993896484
2017-09-05,21.7189998626709,21.459999084472656,21.700000762939453,21.479999542236328,12300.0,20.570453643798828
2017-09-06,21.63599967956543,21.54599952697754,21.559999465942383,21.559999465942383,17800.0,20.647066116333008
2017-09-07,21.459999084472656,21.18199920654297,21.450000762939453,21.194000244140625,11100.0,20.29656410217285
2017-09-08,21.579999923706055,21.149999618530273,21.149999618530273,21.525999069213867,8700.0,20.614505767822266
2017-09-11,21.8700008392334,21.75,21.770000457763672,21.809999465942383,13000.0,20.886478424072266
2017-09-12,22.0,21.8700008392334,21.8799991607666,21.979999542236328,12700.0,21.049280166625977
2017-09-13,21.966999053955078,21.920000076293945,21.950000762939453,21.940000534057617,12500.0,21.010974884033203
2017-09-14,21.93000030517578,21.850000381469727,21.93000030517578,21.8799991607666,7000.0,20.953516006469727
2017-09-15,21.989999771118164,21.860000610351562,21.860000610351562,21.989999771118164,9000.0,21.058856964111328
2017-09-18,22.1200008392334,22.020000457763672,22.079999923706055,22.06999969482422,9600.0,21.135469436645508
2017-09-19,22.229999542236328,22.079999923706055,22.079999923706055,22.200000762939453,17500.0,21.259965896606445
2017-09-20,22.3799991607666,22.18000030517578,22.18000030517578,22.270000457763672,21600.0,21.327003479003906
2017-09-21,22.399999618530273,22.170000076293945,22.170000076293945,22.3799991607666,26000.0,21.432342529296875
2017-09-22,22.33300018310547,22.239999771118164,22.25,22.33300018310547,11500.0,21.3873348236084
2017-09-25,22.350000381469727,22.200000762939453,22.329999923706055,22.260000228881836,8100.0,21.317424774169922
2017-09-26,22.329999923706055,22.209999084472656,22.229999542236328,22.270000457763672,31100.0,21.327003479003906
2017-09-27,22.510000228881836,22.360000610351562,22.399999618530273,22.489999771118164,26500.0,21.537687301635742
2017-09-28,22.549999237060547,22.40399932861328,22.40399932861328,22.530000686645508,10800.0,21.57599449157715
2017-09-29,22.6299991607666,22.559999465942383,22.579999923706055,22.610000610351562,22100.0,21.652605056762695
2017-10-02,22.75,22.59000015258789,22.59000015258789,22.729999542236328,7500.0,21.76752281188965
2017-10-03,22.850000381469727,22.739999771118164,22.790000915527344,22.850000381469727,18600.0,21.882442474365234
2017-10-04,22.860000610351562,22.780000686645508,22.790000915527344,22.80500030517578,17200.0,21.83934783935547
2017-10-05,23.017000198364258,22.850000381469727,22.850000381469727,22.959999084472656,73600.0,21.98778533935547
2017-10-06,23.040000915527344,22.892000198364258,23.0,22.959999084472656,15800.0,21.98778533935547
2017-10-09,23.030000686645508,22.8700008392334,23.030000686645508,22.920000076293945,12000.0,21.949480056762695
2017-10-10,23.040000915527344,22.93000030517578,22.975000381469727,23.010000228881836,11000.0,22.035669326782227
2017-10-11,23.055999755859375,22.959999084472656,23.0,23.049999237060547,10600.0,22.073974609375
2017-10-12,23.100000381469727,22.908000946044922,23.100000381469727,22.908000946044922,26100.0,21.93798828125
2017-10-13,23.079999923706055,22.950000762939453,22.950000762939453,23.0,4000.0,22.026090621948242
2017-10-16,23.079999923706055,23.01300048828125,23.049999237060547,23.075000762939453,88000.0,22.097917556762695
2017-10-17,23.139999389648438,22.90999984741211,23.139999389648438,22.93000030517578,11000.0,21.959054946899414
2017-10-18,23.040000915527344,22.969999313354492,22.979999542236328,23.0,11000.0,22.026090621948242
2017-10-19,23.010000228881836,22.8700008392334,22.8700008392334,23.0,14400.0,22.026090621948242
2017-10-20,23.229999542236328,23.149999618530273,23.170000076293945,23.209999084472656,10800.0,22.227197647094727
2017-10-23,23.19499969482422,23.13800048828125,23.190000534057617,23.13800048828125,6800.0,22.158248901367188
2017-10-24,23.268999099731445,23.21299934387207,23.21299934387207,23.21500015258789,22600.0,22.23198699951172
2017-10-25,23.31999969482422,23.06399917602539,23.260000228881836,23.18000030517578,8000.0,22.198471069335938
2017-10-26,23.343000411987305,23.277999877929688,23.277999877929688,23.329999923706055,10200.0,22.342117309570312
2017-10-27,23.350000381469727,23.246999740600586,23.350000381469727,23.290000915527344,8200.0,22.30381202697754
2017-10-30,23.399999618530273,23.209999084472656,23.209999084472656,23.329999923706055,7400.0,22.342117309570312
2017-10-31,23.334999084472656,23.270000457763672,23.270000457763672,23.299999237060547,9800.0,22.313386917114258
2017-11-01,23.399999618530273,23.280000686645508,23.389999389648438,23.290000915527344,4400.0,22.30381202697754
2017-11-02,23.434999465942383,23.25,23.389999389648438,23.3700008392334,8800.0,22.38042449951172
2017-11-03,23.31999969482422,23.25,23.280000686645508,23.309999465942383,34900.0,22.32296371459961
2017-11-06,23.339000701904297,23.25,23.25,23.31999969482422,41700.0,22.33254051208496
2017-11-07,23.3700008392334,23.079999923706055,23.31999969482422,23.079999923706055,11700.0,22.102703094482422
2017-11-08,23.110000610351562,23.020000457763672,23.06999969482422,23.06999969482422,16900.0,22.09312629699707
2017-11-09,23.02899932861328,22.899999618530273,23.0,23.0,14700.0,22.026090621948242
2017-11-10,22.989999771118164,22.950000762939453,22.979999542236328,22.989999771118164,10200.0,22.01651382446289
2017-11-13,22.97800064086914,22.84000015258789,22.84000015258789,22.950000762939453,18600.0,21.978208541870117
2017-11-14,22.937999725341797,22.812000274658203,22.889999389648438,22.937999725341797,16000.0,21.96671485900879
2017-11-15,23.010000228881836,22.819000244140625,22.819000244140625,22.975000381469727,18900.0,22.00214958190918
2017-11-16,23.010000228881836,22.920000076293945,22.989999771118164,22.920000076293945,17600.0,21.949480056762695
2017-11-17,22.93899917602539,22.850000381469727,22.850000381469727,22.920000076293945,5900.0,21.949480056762695
2017-11-20,22.985000610351562,22.950000762939453,22.950000762939453,22.954999923706055,8300.0,21.982995986938477
2017-11-21,23.089000701904297,22.989999771118164,23.07900047302246,23.030000686645508,8000.0,22.054821014404297
2017-11-22,23.059999465942383,22.90999984741211,23.059999465942383,22.90999984741211,20700.0,21.93990135192871
2017-11-24,23.0,22.90999984741211,22.90999984741211,23.0,2500.0,22.026090621948242
2017-11-27,22.969999313354492,22.8799991607666,22.90999984741211,22.9689998626709,5900.0,21.996402740478516
2017-11-28,23.34000015258789,22.926000595092773,22.926000595092773,23.34000015258789,7800.0,22.351694107055664
2017-11-29,23.6299991607666,23.399999618530273,23.549999237060547,23.520000457763672,146800.0,22.524072647094727
2017-11-30,23.888999938964844,23.57900047302246,23.600000381469727,23.72599983215332,161800.0,22.721349716186523
2017-12-01,23.73699951171875,23.3700008392334,23.729999542236328,23.719999313354492,9100.0,22.71560287475586
2017-12-04,23.989999771118164,23.809999465942383,23.950000762939453,23.81999969482422,18800.0,22.811368942260742
2017-12-05,23.920000076293945,23.700000762939453,23.8799991607666,23.700000762939453,16800.0,22.69645118713379
2017-12-06,23.75,23.639999389648438,23.68000030517578,23.674999237060547,16900.0,22.672508239746094
2017-12-07,23.819000244140625,23.639999389648438,23.65999984741211,23.788000106811523,14900.0,22.780723571777344
2017-12-08,23.920000076293945,23.799999237060547,23.889999389648438,23.920000076293945,6400.0,22.907133102416992
2017-12-11,23.937999725341797,23.860000610351562,23.860000610351562,23.93000030517578,6700.0,22.916711807250977
2017-12-12,24.187999725341797,23.90999984741211,23.90999984741211,24.150999069213867,16000.0,23.128353118896484
2017-12-13,24.15999984741211,23.950000762939453,24.1299991607666,23.950000762939453,18900.0,22.93586540222168
2017-12-14,24.0,23.799999237060547,24.0,23.851999282836914,22100.0,22.842012405395508
2017-12-15,24.15999984741211,23.92099952697754,23.923999786376953,24.059999465942383,19600.0,23.04120635986328
2017-12-18,24.3439998626709,24.16699981689453,24.170000076293945,24.200000762939453,12500.0,23.17527961730957
2017-12-19,24.34000015258789,24.110000610351562,24.329999923706055,24.110000610351562,16700.0,23.08909034729004
2017-12-20,24.260000228881836,24.049999237060547,24.260000228881836,24.049999237060547,8800.0,23.031627655029297
2017-12-21,24.260000228881836,24.149999618530273,24.15999984741211,24.200000762939453,22300.0,23.17527961730957
2017-12-22,24.238000869750977,24.09000015258789,24.190000534057617,24.17099952697754,16100.0,23.147504806518555
2017-12-26,23.90999984741211,23.825000762939453,23.90999984741211,23.829999923706055,2300.0,23.07198715209961
2017-12-27,23.920000076293945,23.829999923706055,23.889999389648438,23.8799991607666,9000.0,23.120397567749023
2017-12-28,24.010000228881836,23.90999984741211,23.989999771118164,24.0,14200.0,23.23657989501953
2017-12-29,24.059999465942383,23.93400001525879,24.059999465942383,23.950000762939453,34600.0,23.18817138671875
2018-01-02,24.020000457763672,23.780000686645508,24.020000457763672,23.809999465942383,12900.0,23.052623748779297
2018-01-03,24.020000457763672,23.937999725341797,23.950000762939453,24.010000228881836,19300.0,23.246261596679688
2018-01-04,24.3700008392334,24.15999984741211,24.170000076293945,24.219999313354492,20900.0,23.449581146240234
2018-01-05,24.309999465942383,24.15999984741211,24.299999237060547,24.309999465942383,15800.0,23.536718368530273
2018-01-08,24.309999465942383,24.190000534057617,24.25,24.277999877929688,17100.0,23.5057373046875
2018-01-09,24.479999542236328,24.3799991607666,24.40999984741211,24.43000030517578,6100.0,23.652902603149414
2018-01-10,24.645000457763672,24.43000030517578,24.43000030517578,24.551000595092773,26000.0,23.77005386352539
2018-01-11,24.69499969482422,24.579999923706055,24.579999923706055,24.69499969482422,20100.0,23.909473419189453
2018-01-12,24.917999267578125,24.760000228881836,24.770000457763672,24.917999267578125,13600.0,24.12537956237793
2018-01-16,25.190000534057617,24.799999237060547,25.190000534057617,24.860000610351562,14800.0,24.069225311279297
2018-01-17,25.01300048828125,24.795000076293945,24.989999771118164,24.969999313354492,23200.0,24.175724029541016
2018-01-18,24.947999954223633,24.850000381469727,24.864999771118164,24.860000610351562,10500.0,24.069225311279297
2018-01-19,24.951000213623047,24.790000915527344,24.860000610351562,24.950000762939453,18500.0,24.156362533569336
2018-01-22,25.190000534057617,24.8799991607666,24.8799991607666,25.15999984741211,6100.0,24.359682083129883
2018-01-23,25.350000381469727,25.139999389648438,25.239999771118164,25.34000015258789,35000.0,24.53395652770996
2018-01-24,25.540000915527344,25.350000381469727,25.3700008392334,25.5,23000.0,24.688867568969727
2018-01-25,25.59000015258789,25.40999984741211,25.59000015258789,25.440000534057617,14200.0,24.630775451660156
2018-01-26,25.520000457763672,25.389999389648438,25.469999313354492,25.510000228881836,23000.0,24.698549270629883
2018-01-29,25.618000030517578,25.420000076293945,25.530000686645508,25.489999771118164,9200.0,24.679183959960938
2018-01-30,25.489999771118164,25.299999237060547,25.489999771118164,25.350000381469727,13900.0,24.543638229370117
2018-01-31,25.5,25.280000686645508,25.329999923706055,25.3799991607666,18500.0,24.572683334350586
2018-02-01,25.549999237060547,25.357999801635742,25.357999801635742,25.49799919128418,5100.0,24.68692970275879
2018-02-02,25.43000030517578,24.915000915527344,25.40999984741211,24.915000915527344,8200.0,24.12247657775879
2018-02-05,24.77400016784668,23.719999313354492,24.549999237060547,23.850000381469727,23400.0,23.091352462768555
2018-02-06,24.257999420166016,23.329999923706055,23.459999084472656,24.180999755859375,46600.0,23.411823272705078
2018-02-07,24.466999053955078,24.1200008392334,24.1200008392334,24.190000534057617,19700.0,23.4205379486084
2018-02-08,24.239999771118164,23.209999084472656,24.219999313354492,23.239999771118164,36600.0,22.500755310058594
2018-02-09,23.67799949645996,22.950000762939453,23.38599967956543,23.67799949645996,29100.0,22.924821853637695
2018-02-12,24.15999984741211,23.790000915527344,23.860000610351562,23.920000076293945,12900.0,23.15912437438965
2018-02-13,24.030000686645508,23.790000915527344,23.790000915527344,23.979999542236328,31600.0,23.21721649169922
2018-02-14,24.479000091552734,23.899999618530273,23.899999618530273,24.469999313354492,13900.0,23.69162940979004
2018-02-15,24.757999420166016,24.54599952697754,24.639999389648438,24.719999313354492,33700.0,23.933677673339844
2018-02-16,24.910999298095703,24.700000762939453,24.700000762939453,24.812999725341797,14300.0,24.023719787597656
2018-02-20,24.850000381469727,24.667999267578125,24.774999618530273,24.670000076293945,15000.0,23.885269165039062
2018-02-21,24.983999252319336,24.59000015258789,24.729999542236328,24.861000061035156,6200.0,24.070192337036133
2018-02-22,24.858999252319336,24.577999114990234,24.70400047302246,24.579999923706055,15400.0,23.798131942749023
2018-02-23,24.91200065612793,24.724000930786133,24.729999542236328,24.91200065612793,8600.0,24.119571685791016
2018-02-26,25.218000411987305,25.0,25.09000015258789,25.180999755859375,14700.0,24.380014419555664
2018-02-27,25.280000686645508,25.020000457763672,25.280000686645508,25.020000457763672,64300.0,24.224136352539062
2018-02-28,25.128000259399414,24.700000762939453,25.075000762939453,24.700000762939453,20500.0,23.91431427001953
2018-03-01,24.75,24.19499969482422,24.65999984741211,24.308000564575195,35800.0,23.5347843170166
2018-03-02,24.388999938964844,23.950000762939453,24.040000915527344,24.388999938964844,10000.0,23.61320686340332
2018-03-05,24.719999313354492,24.149999618530273,24.149999618530273,24.719999313354492,6600.0,23.933677673339844
2018-03-06,24.809999465942383,24.59000015258789,24.770000457763672,24.795000076293945,8500.0,24.00629234313965
2018-03-07,24.709999084472656,24.549999237060547,24.56999969482422,24.690000534057617,10400.0,23.904632568359375
2018-03-08,24.850000381469727,24.674999237060547,24.850000381469727,24.788999557495117,6800.0,24.0004825592041
2018-03-09,25.290000915527344,25.030000686645508,25.030000686645508,25.280000686645508,9100.0,24.47586441040039
2018-03-12,25.389999389648438,25.204999923706055,25.3799991607666,25.280000686645508,18600.0,24.47586441040039
2018-03-13,25.329999923706055,24.959999084472656,25.329999923706055,24.959999084472656,10200.0,24.16604232788086
2018-03-14,25.110000610351562,24.73900032043457,25.110000610351562,24.780000686645508,5200.0,23.991769790649414
2018-03-15,24.889999389648438,24.76300048828125,24.839000701904297,24.790000915527344,16100.0,24.00145149230957
2018-03-16,24.989999771118164,24.799999237060547,24.799999237060547,24.895000457763672,7500.0,24.103111267089844
2018-03-19,24.84000015258789,24.510000228881836,24.84000015258789,24.680999755859375,6200.0,23.895917892456055
2018-03-20,24.790000915527344,24.68000030517578,24.68000030517578,24.75,6700.0,23.962722778320312
2018-03-21,24.913999557495117,24.649999618530273,24.72100067138672,24.780000686645508,6400.0,23.991769790649414
2018-03-22,24.399999618530273,23.899999618530273,24.399999618530273,23.899999618530273,20500.0,23.139760971069336
2018-03-23,23.929000854492188,23.333999633789062,23.8799991607666,23.395000457763672,17500.0,22.65082550048828
2018-03-26,24.0,23.549999237060547,23.780000686645508,23.950000762939453,8900.0,23.18817138671875
2018-03-27,24.010000228881836,23.43000030517578,23.920000076293945,23.448999404907227,11700.0,22.703105926513672
2018-03-28,23.719999313354492,23.510000228881836,23.540000915527344,23.600000381469727,26100.0,22.84930419921875
2018-03-29,24.062999725341797,23.75,23.75,23.959999084472656,8300.0,23.197851181030273
2018-04-02,23.989999771118164,23.219999313354492,23.989999771118164,23.420000076293945,13900.0,22.675029754638672
2018-04-03,23.729000091552734,23.459999084472656,23.6299991607666,23.69700050354004,18100.0,22.943218231201172
2018-04-04,23.93000030517578,23.339000701904297,23.339000701904297,23.920000076293945,34600.0,23.15912437438965
2018-04-05,24.149999618530273,23.94099998474121,24.049999237060547,24.111000061035156,8500.0,23.34404945373535
2018-04-06,23.90999984741211,23.429000854492188,23.90999984741211,23.579999923706055,6700.0,22.829940795898438
2018-04-09,24.042999267578125,23.54199981689453,23.75,23.775999069213867,22200.0,23.019704818725586
2018-04-10,23.979999542236328,23.829999923706055,23.979999542236328,23.920000076293945,6500.0,23.15912437438965
2018-04-11,23.86199951171875,23.701000213623047,23.81999969482422,23.739999771118164,13600.0,22.98484992980957
2018-04-12,24.07900047302246,23.93899917602539,23.93899917602539,23.989999771118164,4000.0,23.226898193359375
2018-04-13,24.149999618530273,23.6200008392334,24.149999618530273,23.68000030517578,211200.0,22.926759719848633
2018-04-16,24.020000457763672,23.900999069213867,23.930999755859375,23.999000549316406,6100.0,23.235612869262695
2018-04-17,24.149999618530273,23.930999755859375,24.06999969482422,23.996999740600586,21500.0,23.233675003051758
2018-04-18,24.100000381469727,23.959999084472656,24.100000381469727,24.009000778198242,8400.0,23.24529457092285
2018-04-19,24.29400062561035,24.049999237060547,24.049999237060547,24.283000946044922,17700.0,23.51058006286621
2018-04-20,24.3799991607666,24.17099952697754,24.350000381469727,24.280000686645508,11900.0,23.507675170898438
2018-04-23,24.399999618530273,24.31999969482422,24.360000610351562,24.333999633789062,7700.0,23.559955596923828
2018-04-24,24.489999771118164,24.049999237060547,24.43899917602539,24.170000076293945,275200.0,23.401172637939453
2018-04-25,24.1200008392334,23.930999755859375,24.079999923706055,23.940000534057617,11800.0,23.178489685058594
2018-04-26,24.139999389648438,24.059999465942383,24.070999145507812,24.125,3400.0,23.35760498046875
2018-04-27,24.18000030517578,24.023000717163086,24.18000030517578,24.079999923706055,12600.0,23.314035415649414
2018-04-30,24.211999893188477,24.010000228881836,24.149999618530273,24.010000228881836,7000.0,23.246261596679688
2018-05-01,23.920000076293945,23.700000762939453,23.81100082397461,23.8799991607666,18700.0,23.120397567749023
2018-05-02,23.9060001373291,23.732999801635742,23.850000381469727,23.732999801635742,5600.0,22.978073120117188
2018-05-03,23.700000762939453,23.371000289916992,23.600000381469727,23.62299919128418,9700.0,22.871572494506836
2018-05-04,23.979999542236328,23.667999267578125,23.667999267578125,23.940000534057617,7800.0,23.178489685058594
2018-05-07,24.100000381469727,23.90999984741211,23.950000762939453,23.993999481201172,3000.0,23.230770111083984
2018-05-08,24.197999954223633,23.969999313354492,23.969999313354492,24.114999771118164,2100.0,23.34792137145996
2018-05-09,24.440000534057617,24.170000076293945,24.170000076293945,24.40999984741211,14900.0,23.6335391998291
2018-05-10,24.579999923706055,24.389999389648438,24.389999389648438,24.534000396728516,7400.0,23.75359535217285
2018-05-11,24.68400001525879,24.523000717163086,24.670000076293945,24.586000442504883,7900.0,23.803939819335938
2018-05-14,24.60700035095215,24.440000534057617,24.60700035095215,24.440000534057617,8400.0,23.66258430480957
2018-05-15,24.5,24.329999923706055,24.479999542236328,24.360000610351562,11000.0,23.585128784179688
2018-05-16,24.54800033569336,24.389999389648438,24.389999389648438,24.440000534057617,12400.0,23.66258430480957
2018-05-17,24.548999786376953,24.389999389648438,24.389999389648438,24.450000762939453,25600.0,23.67226791381836
2018-05-18,24.399999618530273,24.309999465942383,24.399999618530273,24.357999801635742,15200.0,23.583192825317383
2018-05-21,24.56999969482422,24.53499984741211,24.540000915527344,24.53499984741211,5200.0,23.754562377929688
2018-05-22,24.709999084472656,24.399999618530273,24.399999618530273,24.583999633789062,11100.0,23.802003860473633
2018-05-23,24.399999618530273,24.260000228881836,24.350000381469727,24.399999618530273,5900.0,23.623855590820312
2018-05-24,24.360000610351562,24.18000030517578,24.360000610351562,24.329999923706055,6400.0,23.55608367919922
2018-05-25,24.25,24.18000030517578,24.229999542236328,24.239999771118164,20600.0,23.46894645690918
2018-05-29,23.989999771118164,23.469999313354492,23.989999771118164,23.610000610351562,22900.0,22.858985900878906
2018-05-30,23.979000091552734,23.719999313354492,23.760000228881836,23.8799991607666,7600.0,23.120397567749023
2018-05-31,23.843000411987305,23.690000534057617,23.729999542236328,23.78700065612793,22700.0,23.03035545349121
2018-06-01,24.049999237060547,23.940000534057617,23.940000534057617,23.999000549316406,4500.0,23.235612869262695
2018-06-04,24.131000518798828,24.079999923706055,24.100000381469727,24.121999740600586,8400.0,23.354700088500977
2018-06-05,24.110000610351562,23.972000122070312,24.06999969482422,24.040000915527344,13200.0,23.27530860900879
2018-06-06,24.3799991607666,24.239999771118164,24.239999771118164,24.329999923706055,7000.0,23.55608367919922
2018-06-07,24.6200008392334,24.34000015258789,24.6200008392334,24.440000534057617,15200.0,23.66258430480957
2018-06-08,24.5,24.385000228881836,24.440000534057617,24.493999481201172,4800.0,23.714866638183594
2018-06-11,24.52400016784668,24.450000762939453,24.450000762939453,24.523000717163086,4900.0,23.742944717407227
2018-06-12,24.5,24.33799934387207,24.485000610351562,24.389999389648438,11500.0,23.614173889160156
2018-06-13,24.510000228881836,24.3700008392334,24.430999755859375,24.3700008392334,10000.0,23.594812393188477
2018-06-14,24.389999389648438,24.219999313354492,24.389999389648438,24.270999908447266,15700.0,23.498960494995117
2018-06-15,24.280000686645508,23.969999313354492,24.049999237060547,24.280000686645508,14000.0,23.507675170898438
2018-06-18,24.26300048828125,24.12700080871582,24.12700080871582,24.260000228881836,8000.0,23.488309860229492
2018-06-19,24.24799919128418,24.049999237060547,24.100000381469727,24.200000762939453,15600.0,23.430219650268555
2018-06-20,24.209999084472656,24.030000686645508,24.200000762939453,24.030000686645508,9000.0,23.265626907348633
2018-06-21,24.05900001525879,23.84000015258789,23.959999084472656,23.961000442504883,15700.0,23.198822021484375
2018-06-22,24.150999069213867,24.030000686645508,24.149999618530273,24.030000686645508,28200.0,23.265626907348633
2018-06-25,23.864999771118164,23.683000564575195,23.864999771118164,23.770000457763672,4400.0,23.013896942138672
2018-06-26,23.839000701904297,23.625,23.690000534057617,23.75,25800.0,22.99453353881836
2018-06-27,23.833999633789062,23.517000198364258,23.760000228881836,23.520000457763672,5300.0,22.771848678588867
2018-06-28,23.625999450683594,23.399999618530273,23.440000534057617,23.59000015258789,8600.0,22.839622497558594
2018-06-29,23.913999557495117,23.67099952697754,23.799999237060547,23.67099952697754,8800.0,22.918045043945312
2018-07-02,23.809999465942383,23.479999542236328,23.479999542236328,23.739999771118164,17300.0,22.98484992980957
2018-07-03,23.889999389648438,23.700000762939453,23.889999389648438,23.700000762939453,2800.0,22.946123123168945
2018-07-05,23.829999923706055,23.72100067138672,23.75,23.81999969482422,10000.0,23.062305450439453
2018-07-06,23.958999633789062,23.768999099731445,23.768999099731445,23.899999618530273,2300.0,23.139760971069336
2018-07-09,24.37299919128418,24.0,24.0,24.329999923706055,8600.0,23.55608367919922
2018-07-10,24.389999389648438,24.239999771118164,24.360000610351562,24.299999237060547,15000.0,23.527036666870117
2018-07-11,24.260000228881836,24.149999618530273,24.167999267578125,24.179000854492188,13500.0,23.409887313842773
2018-07-12,24.25,24.030000686645508,24.25,24.190000534057617,24000.0,23.4205379486084
2018-07-13,24.190000534057617,23.964000701904297,24.1200008392334,24.149999618530273,13200.0,23.38180923461914
2018-07-16,24.34000015258789,24.1299991607666,24.1299991607666,24.325000762939453,19400.0,23.55124282836914
2018-07-17,24.440000534057617,24.3700008392334,24.393999099731445,24.3700008392334,15300.0,23.594812393188477
2018-07-18,24.694000244140625,24.459999084472656,24.490999221801758,24.649999618530273,5600.0,23.865903854370117
2018-07-19,24.586000442504883,24.34000015258789,24.586000442504883,24.354999542236328,11700.0,23.58028793334961
2018-07-20,24.434999465942383,24.367000579833984,24.3700008392334,24.3799991607666,14900.0,23.6044921875
2018-07-23,24.608999252319336,24.389999389648438,24.483999252319336,24.56399917602539,4700.0,23.782638549804688
2018-07-24,24.700000762939453,24.59000015258789,24.59000015258789,24.670000076293945,16100.0,23.885269165039062
2018-07-25,24.815000534057617,24.614999771118164,24.649999618530273,24.719999313354492,62300.0,23.933677673339844
2018-07-26,24.93000030517578,24.790000915527344,24.809999465942383,24.84000015258789,52900.0,24.04986000061035
2018-07-27,24.90999984741211,24.729999542236328,24.88599967956543,24.780000686645508,9400.0,23.991769790649414
2018-07-30,24.799999237060547,24.65999984741211,24.760000228881836,24.65999984741211,8200.0,23.875585556030273
2018-07-31,24.74799919128418,24.631999969482422,24.709999084472656,24.729000091552734,14700.0,23.942392349243164
2018-08-01,24.888999938964844,24.722000122070312,24.829999923706055,24.780000686645508,16100.0,23.991769790649414
2018-08-02,24.719999313354492,24.60099983215332,24.6299991607666,24.65999984741211,11800.0,23.875585556030273
2018-08-03,24.7450008392334,24.6299991607666,24.670000076293945,24.732999801635742,4100.0,23.946264266967773
2018-08-06,24.850000381469727,24.709999084472656,24.773000717163086,24.850000381469727,11200.0,24.05954360961914
2018-08-07,25.110000610351562,24.88800048828125,24.950000762939453,24.989999771118164,18400.0,24.19508934020996
2018-08-08,25.040000915527344,24.860000610351562,24.860000610351562,25.0,32000.0,24.204771041870117
2018-08-09,24.989999771118164,24.90999984741211,24.959999084472656,24.940000534057617,9300.0,24.14668083190918
2018-08-10,24.690000534057617,24.530000686645508,24.690000534057617,24.61400032043457,9500.0,23.8310489654541
2018-08-13,24.5,24.45400047302246,24.5,24.469999313354492,3200.0,23.69162940979004
2018-08-14,24.690000534057617,24.483999252319336,24.530000686645508,24.639999389648438,78300.0,23.85622215270996
2018-08-15,24.520000457763672,24.429000854492188,24.450000762939453,24.448999404907227,6800.0,23.671297073364258
2018-08-16,24.799999237060547,24.62700080871582,24.62700080871582,24.7450008392334,16200.0,23.957883834838867
2018-08-17,24.770999908447266,24.670000076293945,24.670000076293945,24.76300048828125,5800.0,23.975311279296875
2018-08-20,24.868000030517578,24.75,24.75,24.850000381469727,5000.0,24.05954360961914
2018-08-21,25.06999969482422,24.860000610351562,24.860000610351562,24.979999542236328,19400.0,24.185407638549805
2018-08-22,25.020000457763672,24.923999786376953,24.950000762939453,24.985000610351562,73400.0,24.190248489379883
2018-08-23,24.969999313354492,24.875999450683594,24.969999313354492,24.899999618530273,8700.0,24.107952117919922
2018-08-24,25.020000457763672,24.961000442504883,24.989999771118164,24.996000289916992,4600.0,24.200899124145508
2018-08-27,25.249000549316406,25.18000030517578,25.22800064086914,25.239999771118164,6400.0,24.437137603759766
2018-08-28,25.290000915527344,25.121000289916992,25.290000915527344,25.18000030517578,11700.0,24.379045486450195
2018-08-29,25.229999542236328,25.041000366210938,25.170000076293945,25.211000442504883,11000.0,24.409059524536133
2018-08-30,25.1299991607666,24.95800018310547,25.1299991607666,24.989999771118164,13900.0,24.19508934020996
2018-08-31,24.966999053955078,24.8799991607666,24.951000213623047,24.93000030517578,18900.0,24.13699722290039
2018-09-04,25.010000228881836,24.850000381469727,24.950000762939453,24.950000762939453,10000.0,24.156362533569336
2018-09-05,24.985000610351562,24.8799991607666,24.947999954223633,24.8799991607666,4100.0,24.088586807250977
2018-09-06,24.92300033569336,24.729999542236328,24.92300033569336,24.729999542236328,9200.0,23.943359375
2018-09-07,24.735000610351562,24.649999618530273,24.670000076293945,24.71500015258789,3900.0,23.928836822509766
2018-09-10,24.83300018310547,24.729999542236328,24.83300018310547,24.79800033569336,1900.0,24.009197235107422
2018-09-11,24.847000122070312,24.739999771118164,24.75,24.770000457763672,5400.0,23.982088088989258
2018-09-12,24.7549991607666,24.600000381469727,24.600000381469727,24.690000534057617,14600.0,23.904632568359375
2018-09-13,24.850000381469727,24.731000900268555,24.76099967956543,24.775999069213867,5000.0,23.987895965576172
2018-09-14,24.950000762939453,24.84000015258789,24.84000015258789,24.93199920654297,6300.0,24.138933181762695
2018-09-17,24.910999298095703,24.809999465942383,24.910999298095703,24.809999465942383,1100.0,24.020814895629883
2018-09-18,24.961999893188477,24.825000762939453,24.839000701904297,24.8700008392334,10600.0,24.078907012939453
2018-09-19,25.256000518798828,24.920000076293945,24.920000076293945,25.239999771118164,9800.0,24.437137603759766
2018-09-20,25.523000717163086,25.3799991607666,25.3799991607666,25.5,12000.0,24.688867568969727
2018-09-21,25.514999389648438,25.43000030517578,25.5,25.450000762939453,5400.0,24.640457153320312
2018-09-24,25.420000076293945,25.19499969482422,25.420000076293945,25.229999542236328,11200.0,24.427453994750977
2018-09-25,25.264999389648438,25.190000534057617,25.229999542236328,25.209999084472656,5600.0,24.408090591430664
2018-09-26,25.190000534057617,24.93000030517578,25.118999481201172,24.979999542236328,10300.0,24.185407638549805
2018-09-27,25.006999969482422,24.836000442504883,24.989999771118164,24.86199951171875,5400.0,24.0711612701416
2018-09-28,24.790000915527344,24.68000030517578,24.760000228881836,24.709999084472656,10600.0,23.923994064331055
2018-10-01,24.766000747680664,24.628999710083008,24.766000747680664,24.729999542236328,5600.0,23.943359375
2018-10-02,24.729999542236328,24.617000579833984,24.676000595092773,24.729999542236328,8800.0,23.943359375
2018-10-03,24.934999465942383,24.766000747680664,24.829999923706055,24.7810001373291,62300.0,23.99273681640625
2018-10-04,25.009000778198242,24.739999771118164,24.829999923706055,24.889999389648438,12200.0,24.098270416259766
2018-10-05,24.899999618530273,24.68000030517578,24.899999618530273,24.72100067138672,2500.0,23.934646606445312
2018-10-08,24.844999313354492,24.65999984741211,24.68000030517578,24.84000015258789,7500.0,24.04986000061035
2018-10-09,24.850000381469727,24.610000610351562,24.75,24.770000457763672,10700.0,23.982088088989258
2018-10-10,24.719999313354492,24.049999237060547,24.659000396728516,24.049999237060547,64200.0,23.284988403320312
2018-10-11,24.038000106811523,23.5,23.840999603271484,23.530000686645508,81500.0,22.781532287597656
2018-10-12,23.732999801635742,23.28700065612793,23.67300033569336,23.530000686645508,36800.0,22.781532287597656
2018-10-15,23.610000610351562,23.479999542236328,23.510000228881836,23.5,10400.0,22.752485275268555
2018-10-16,23.785999298095703,23.450000762939453,23.469999313354492,23.785999298095703,9500.0,23.029386520385742
2018-10-17,24.058000564575195,23.690000534057617,23.729999542236328,23.899999618530273,37100.0,23.139760971069336
2018-10-18,23.90999984741211,23.510000228881836,23.850000381469727,23.549999237060547,16400.0,22.800893783569336
2018-10-19,23.724000930786133,23.628000259399414,23.639999389648438,23.6299991607666,117700.0,22.87834930419922
2018-10-22,23.475000381469727,23.26099967956543,23.475000381469727,23.29199981689453,900.0,22.551101684570312
2018-10-23,23.110000610351562,22.75,22.90999984741211,23.110000610351562,41400.0,22.37489128112793
2018-10-24,22.854999542236328,22.25,22.81100082397461,22.299999237060547,38600.0,21.590654373168945
2018-10-25,22.799999237060547,22.469999313354492,22.469999313354492,22.790000915527344,46800.0,22.06507110595703
2018-10-26,22.559999465942383,22.177000045776367,22.3799991607666,22.420000076293945,32900.0,21.706838607788086
2018-10-29,22.780000686645508,22.18000030517578,22.739999771118164,22.31999969482422,14800.0,21.61001968383789
2018-10-30,22.780000686645508,22.3799991607666,22.3799991607666,22.780000686645508,27500.0,22.055387496948242
2018-10-31,23.290000915527344,22.905000686645508,22.905000686645508,23.049999237060547,18000.0,22.31679916381836
2018-11-01,23.170000076293945,23.072999954223633,23.09000015258789,23.12700080871582,11900.0,22.39134979248047
2018-11-02,23.309999465942383,23.030000686645508,23.309999465942383,23.100000381469727,5600.0,22.365209579467773
2018-11-05,23.45400047302246,23.030000686645508,23.25,23.35700035095215,14600.0,22.61403465270996
2018-11-06,23.579999923706055,23.3799991607666,23.43000030517578,23.479999542236328,27000.0,22.73311996459961
2018-11-07,23.83799934387207,23.450000762939453,23.450000762939453,23.784000396728516,29000.0,23.02745246887207
2018-11-08,23.961000442504883,23.798999786376953,23.899999618530273,23.827999114990234,6400.0,23.070051193237305
2018-11-09,23.736000061035156,23.639999389648438,23.72800064086914,23.719999313354492,5000.0,22.965486526489258
2018-11-12,23.615999221801758,23.2810001373291,23.615999221801758,23.2810001373291,8300.0,22.540451049804688
2018-11-13,23.479999542236328,23.219999313354492,23.367000579833984,23.280000686645508,37400.0,22.53948402404785
2018-11-14,23.389999389648438,23.05500030517578,23.389999389648438,23.139999389648438,6500.0,22.4039363861084
2018-11-15,23.406999588012695,22.90999984741211,23.020000457763672,23.34000015258789,21700.0,22.59757423400879
2018-11-16,23.479999542236328,23.229999542236328,23.260000228881836,23.43000030517578,12400.0,22.684711456298828
2018-11-19,23.3700008392334,23.15999984741211,23.350000381469727,23.299999237060547,8500.0,22.55884552001953
2018-11-20,23.1299991607666,22.76099967956543,23.1299991607666,22.799999237060547,18700.0,22.074750900268555
2018-11-21,23.16699981689453,22.899999618530273,22.899999618530273,23.09000015258789,8300.0,22.355525970458984
2018-11-23,22.860000610351562,22.829999923706055,22.829999923706055,22.860000610351562,600.0,22.132843017578125
2018-11-26,23.334999084472656,23.170000076293945,23.239999771118164,23.270000457763672,21700.0,22.529802322387695
2018-11-27,23.34000015258789,23.139999389648438,23.211999893188477,23.19700050354004,20700.0,22.459123611450195
2018-11-28,23.613000869750977,23.13599967956543,23.2810001373291,23.613000869750977,21700.0,22.86189079284668
2018-11-29,23.600000381469727,23.420000076293945,23.600000381469727,23.549999237060547,12600.0,22.800893783569336
2018-11-30,23.621999740600586,23.417999267578125,23.43000030517578,23.59000015258789,13400.0,22.839622497558594
2018-12-03,23.90999984741211,23.639999389648438,23.90999984741211,23.729999542236328,7900.0,22.975168228149414
2018-12-04,23.420000076293945,22.892000198364258,23.420000076293945,22.95800018310547,11000.0,22.227725982666016
2018-12-06,22.632999420166016,22.18000030517578,22.56999969482422,22.632999420166016,18200.0,21.913063049316406
2018-12-07,22.950000762939453,22.190000534057617,22.809999465942383,22.402999877929688,70400.0,21.690380096435547
2018-12-10,22.25,21.774999618530273,22.25,22.180999755859375,32900.0,21.475440979003906
2018-12-11,22.420000076293945,21.920000076293945,22.420000076293945,22.030000686645508,99200.0,21.32924461364746
2018-12-12,22.374000549316406,22.079999923706055,22.190000534057617,22.170000076293945,55000.0,21.46479034423828
2018-12-13,22.139999389648438,21.920000076293945,22.059999465942383,21.950000762939453,12600.0,21.251789093017578
2018-12-14,21.937999725341797,21.649999618530273,21.809999465942383,21.670000076293945,91000.0,20.980695724487305
2018-12-17,21.777000427246094,21.458999633789062,21.56999969482422,21.5,18400.0,20.816102981567383
2018-12-18,21.680999755859375,21.200000762939453,21.610000610351562,21.34000015258789,131500.0,20.661191940307617
2018-12-19,21.59000015258789,20.93000030517578,21.316999435424805,20.966999053955078,25100.0,20.30005645751953
2018-12-20,21.058000564575195,20.709999084472656,20.89900016784668,20.759000778198242,240100.0,20.098674774169922
2018-12-21,21.040000915527344,20.465999603271484,20.809999465942383,20.48699951171875,51600.0,19.835325241088867
2018-12-24,20.493000030517578,20.1200008392334,20.299999237060547,20.1200008392334,130100.0,19.48000144958496
2018-12-26,20.270000457763672,19.290000915527344,19.510000228881836,20.270000457763672,89300.0,20.270000457763672
2018-12-27,20.3700008392334,19.790000915527344,19.90999984741211,20.326000213623047,87000.0,20.326000213623047
2018-12-28,20.729999542236328,20.423999786376953,20.56999969482422,20.475000381469727,119900.0,20.475000381469727
2018-12-31,20.676000595092773,20.465999603271484,20.56999969482422,20.5,93200.0,20.5
2019-01-02,20.719999313354492,20.34000015258789,20.34000015258789,20.690000534057617,72700.0,20.690000534057617
2019-01-03,20.674999237060547,20.389999389648438,20.674999237060547,20.389999389648438,4500.0,20.389999389648438
2019-01-04,21.072999954223633,20.722000122070312,20.722000122070312,21.020000457763672,14800.0,21.020000457763672
2019-01-07,21.18400001525879,20.920000076293945,20.920000076293945,21.110000610351562,13600.0,21.110000610351562
2019-01-08,21.170000076293945,20.92799949645996,21.170000076293945,21.139999389648438,9400.0,21.139999389648438
2019-01-09,21.299999237060547,21.110000610351562,21.229999542236328,21.190000534057617,23200.0,21.190000534057617
2019-01-10,21.299999237060547,21.149999618530273,21.200000762939453,21.270999908447266,2400.0,21.270999908447266
2019-01-11,21.31999969482422,21.051000595092773,21.134000778198242,21.31999969482422,209200.0,21.31999969482422
2019-01-14,21.371000289916992,21.309999465942383,21.31999969482422,21.358999252319336,2800.0,21.358999252319336
2019-01-15,21.479999542236328,21.290000915527344,21.347999572753906,21.469999313354492,15200.0,21.469999313354492
2019-01-16,21.878000259399414,21.65999984741211,21.663000106811523,21.854000091552734,17300.0,21.854000091552734
2019-01-17,21.989999771118164,21.700000762939453,21.722999572753906,21.889999389648438,9700.0,21.889999389648438
2019-01-18,22.224000930786133,22.020000457763672,22.059999465942383,22.190000534057617,13400.0,22.190000534057617
2019-01-22,22.040000915527344,21.82200050354004,21.969999313354492,21.868999481201172,7200.0,21.868999481201172
2019-01-23,21.899999618530273,21.756999969482422,21.850000381469727,21.82900047302246,7100.0,21.82900047302246
2019-01-24,21.989999771118164,21.84000015258789,21.864999771118164,21.920000076293945,12400.0,21.920000076293945
2019-01-25,22.139999389648438,22.030000686645508,22.06999969482422,22.040000915527344,17000.0,22.040000915527344
2019-01-28,21.951000213623047,21.85700035095215,21.920000076293945,21.951000213623047,5300.0,21.951000213623047
2019-01-29,22.065000534057617,21.8799991607666,21.993000030517578,21.920000076293945,10600.0,21.920000076293945
2019-01-30,22.18899917602539,21.915000915527344,21.9689998626709,22.110000610351562,5600.0,22.110000610351562
2019-01-31,22.06100082397461,21.958999633789062,21.985000610351562,22.059999465942383,6500.0,22.059999465942383
2019-02-01,22.224000930786133,22.09000015258789,22.149999618530273,22.14299964904785,22500.0,22.14299964904785
2019-02-04,22.18000030517578,22.040000915527344,22.040000915527344,22.18000030517578,14800.0,22.18000030517578
2019-02-05,22.299999237060547,22.190000534057617,22.23900032043457,22.299999237060547,18000.0,22.299999237060547
2019-02-06,22.190000534057617,22.076000213623047,22.190000534057617,22.15999984741211,23300.0,22.15999984741211
2019-02-07,22.100000381469727,21.83799934387207,22.06999969482422,21.979999542236328,9600.0,21.979999542236328
2019-02-08,21.889999389648438,21.600000381469727,21.889999389648438,21.81999969482422,21900.0,21.81999969482422
2019-02-11,21.8700008392334,21.767000198364258,21.8700008392334,21.799999237060547,21600.0,21.799999237060547
2019-02-12,22.179000854492188,22.010000228881836,22.010000228881836,22.131999969482422,17100.0,22.131999969482422
2019-02-13,22.32900047302246,22.14299964904785,22.32900047302246,22.1560001373291,14800.0,22.1560001373291
2019-02-14,22.100000381469727,21.8700008392334,21.950000762939453,21.950000762939453,8800.0,21.950000762939453
2019-02-15,22.32900047302246,22.25,22.26300048828125,22.299999237060547,13900.0,22.299999237060547
2019-02-19,22.410999298095703,22.246000289916992,22.280000686645508,22.3700008392334,7700.0,22.3700008392334
2019-02-20,22.600000381469727,22.378999710083008,22.378999710083008,22.600000381469727,13600.0,22.600000381469727
2019-02-21,22.559999465942383,22.34000015258789,22.559999465942383,22.3799991607666,3300.0,22.3799991607666
2019-02-22,22.465999603271484,22.361000061035156,22.402000427246094,22.361000061035156,3800.0,22.361000061035156
2019-02-25,22.652000427246094,22.500999450683594,22.559999465942383,22.503999710083008,5600.0,22.503999710083008
2019-02-26,22.541000366210938,22.437000274658203,22.440000534057617,22.479999542236328,12400.0,22.479999542236328
2019-02-27,22.493000030517578,22.3799991607666,22.3799991607666,22.4689998626709,26600.0,22.4689998626709
2019-02-28,22.549999237060547,22.437000274658203,22.47100067138672,22.492000579833984,16300.0,22.492000579833984
2019-03-01,22.726999282836914,22.59000015258789,22.726999282836914,22.648000717163086,7400.0,22.648000717163086
2019-03-04,22.68000030517578,22.31999969482422,22.59000015258789,22.440000534057617,11400.0,22.440000534057617
2019-03-05,22.530000686645508,22.299999237060547,22.360000610351562,22.459999084472656,8100.0,22.459999084472656
2019-03-06,22.56999969482422,22.30500030517578,22.475000381469727,22.31399917602539,15200.0,22.31399917602539
2019-03-07,22.309999465942383,21.979999542236328,22.309999465942383,22.076000213623047,4900.0,22.076000213623047
2019-03-08,22.049999237060547,21.861000061035156,21.861000061035156,21.989999771118164,2600.0,21.989999771118164
2019-03-11,22.3799991607666,22.17099952697754,22.17099952697754,22.357999801635742,8500.0,22.357999801635742
2019-03-12,22.41699981689453,22.360000610351562,22.3799991607666,22.364999771118164,10800.0,22.364999771118164
2019-03-13,22.68000030517578,22.489999771118164,22.489999771118164,22.639999389648438,16600.0,22.639999389648438
2019-03-14,22.780000686645508,22.540000915527344,22.540000915527344,22.66900062561035,11500.0,22.66900062561035
2019-03-15,22.881000518798828,22.767000198364258,22.773000717163086,22.850000381469727,8500.0,22.850000381469727
2019-03-18,23.06999969482422,22.989999771118164,22.989999771118164,23.040000915527344,5900.0,23.040000915527344
2019-03-19,23.170000076293945,22.829999923706055,23.170000076293945,22.889999389648438,14400.0,22.889999389648438
2019-03-20,22.809999465942383,22.511999130249023,22.790000915527344,22.511999130249023,17900.0,22.511999130249023
2019-03-21,22.59000015258789,22.469999313354492,22.469999313354492,22.540000915527344,12800.0,22.540000915527344
2019-03-22,22.104999542236328,21.940000534057617,22.070999145507812,22.010000228881836,36800.0,22.010000228881836
2019-03-25,22.034000396728516,21.790000915527344,21.8799991607666,21.84000015258789,19700.0,21.84000015258789
2019-03-26,22.104000091552734,21.8799991607666,21.950000762939453,22.006000518798828,59600.0,22.006000518798828
2019-03-27,22.069000244140625,21.878999710083008,22.033000946044922,22.040000915527344,9400.0,22.040000915527344
2019-03-28,22.030000686645508,21.889999389648438,22.030000686645508,22.0,9500.0,22.0
2019-03-29,22.142000198364258,22.040000915527344,22.12700080871582,22.06999969482422,8800.0,22.06999969482422
2019-04-01,22.534000396728516,22.3700008392334,22.3700008392334,22.534000396728516,9400.0,22.534000396728516
2019-04-02,22.57900047302246,22.440000534057617,22.559999465942383,22.51099967956543,17100.0,22.51099967956543
2019-04-03,22.690000534057617,22.54400062561035,22.690000534057617,22.56999969482422,10900.0,22.56999969482422
2019-04-04,22.783000946044922,22.67799949645996,22.691999435424805,22.731000900268555,8500.0,22.731000900268555
2019-04-05,22.760000228881836,22.65999984741211,22.701000213623047,22.670000076293945,22900.0,22.670000076293945
2019-04-08,22.850000381469727,22.65999984741211,22.850000381469727,22.760000228881836,12200.0,22.760000228881836
2019-04-09,22.65999984741211,22.510000228881836,22.65999984741211,22.527000427246094,11400.0,22.527000427246094
2019-04-10,22.6200008392334,22.51099967956543,22.51099967956543,22.6200008392334,12600.0,22.6200008392334
2019-04-11,22.812999725341797,22.65999984741211,22.65999984741211,22.725000381469727,7000.0,22.725000381469727
2019-04-12,23.15999984741211,23.0,23.06999969482422,23.100000381469727,23900.0,23.100000381469727
2019-04-15,23.059999465942383,22.97100067138672,23.059999465942383,22.99799919128418,31500.0,22.99799919128418
2019-04-16,23.298999786376953,23.139999389648438,23.15999984741211,23.298999786376953,3000.0,23.298999786376953
2019-04-17,23.280000686645508,23.149999618530273,23.280000686645508,23.19700050354004,10300.0,23.19700050354004
2019-04-18,23.325000762939453,23.110000610351562,23.110000610351562,23.267000198364258,13000.0,23.267000198364258
2019-04-22,23.260000228881836,23.170000076293945,23.21299934387207,23.18000030517578,21900.0,23.18000030517578
2019-04-23,23.290000915527344,23.08799934387207,23.1200008392334,23.275999069213867,19900.0,23.275999069213867
2019-04-24,23.309999465942383,23.2450008392334,23.290000915527344,23.299999237060547,26800.0,23.299999237060547
2019-04-25,23.450000762939453,23.229999542236328,23.229999542236328,23.398000717163086,13800.0,23.398000717163086
2019-04-26,23.670000076293945,23.350000381469727,23.350000381469727,23.610000610351562,9200.0,23.610000610351562
2019-04-29,23.959999084472656,23.6299991607666,23.6299991607666,23.8700008392334,11400.0,23.8700008392334
2019-04-30,23.799999237060547,23.697999954223633,23.770000457763672,23.799999237060547,3900.0,23.799999237060547
2019-05-01,23.850000381469727,23.7189998626709,23.84000015258789,23.7189998626709,4400.0,23.7189998626709
2019-05-02,23.798999786376953,23.610000610351562,23.709999084472656,23.610000610351562,6400.0,23.610000610351562
2019-05-03,23.899999618530273,23.739999771118164,23.84000015258789,23.8799991607666,8500.0,23.8799991607666
2019-05-06,23.75,23.405000686645508,23.405000686645508,23.739999771118164,65800.0,23.739999771118164
2019-05-07,23.597999572753906,23.15999984741211,23.597999572753906,23.25,16600.0,23.25
2019-05-08,23.35099983215332,23.229999542236328,23.309999465942383,23.229999542236328,5400.0,23.229999542236328
2019-05-09,23.148000717163086,22.889999389648438,22.889999389648438,23.09000015258789,17100.0,23.09000015258789
2019-05-10,23.3700008392334,22.940000534057617,22.959999084472656,23.31999969482422,7500.0,23.31999969482422
2019-05-13,22.899999618530273,22.67099952697754,22.856000900268555,22.739999771118164,5400.0,22.739999771118164
2019-05-14,23.049999237060547,22.81100082397461,22.844999313354492,22.922000885009766,22200.0,22.922000885009766
2019-05-15,22.96500015258789,22.729999542236328,22.729999542236328,22.90399932861328,4400.0,22.90399932861328
2019-05-16,23.229999542236328,23.030000686645508,23.030000686645508,23.06800079345703,5900.0,23.06800079345703
2019-05-17,23.149999618530273,22.975000381469727,22.98200035095215,22.975000381469727,10500.0,22.975000381469727
2019-05-20,23.06999969482422,22.850000381469727,22.850000381469727,22.951000213623047,8000.0,22.951000213623047
2019-05-21,23.204999923706055,23.083999633789062,23.1200008392334,23.172000885009766,12600.0,23.172000885009766
2019-05-22,23.180999755859375,23.048999786376953,23.079999923706055,23.15999984741211,7100.0,23.15999984741211
2019-05-23,22.854000091552734,22.719999313354492,22.799999237060547,22.743000030517578,4600.0,22.743000030517578
2019-05-24,22.899999618530273,22.82699966430664,22.82699966430664,22.899999618530273,6400.0,22.899999618530273
