Date,High,Low,Open,Close,Volume,Adj Close
2015-01-05,76.38999938964844,76.38999938964844,76.38999938964844,76.38999938964844,450.0,76.38999938964844
2015-01-06,77.16190338134766,77.16190338134766,77.16190338134766,77.16190338134766,150.0,77.16190338134766
2015-01-09,76.5999984741211,76.5999984741211,76.5999984741211,76.5999984741211,168.0,76.5999984741211
2015-01-14,78.1500015258789,78.1500015258789,78.1500015258789,78.1500015258789,221.0,78.1500015258789
2015-01-20,78.69000244140625,78.69000244140625,78.69000244140625,78.69000244140625,164.0,78.69000244140625
2015-01-21,77.9000015258789,77.81999969482422,77.9000015258789,77.81999969482422,264.0,77.81999969482422
2015-01-22,77.44999694824219,77.36000061035156,77.44999694824219,77.36000061035156,200.0,77.36000061035156
2015-01-28,78.14009857177734,78.13999938964844,78.13999938964844,78.14009857177734,600.0,78.14009857177734
2015-02-24,75.99099731445312,75.93009948730469,75.99099731445312,75.93009948730469,650.0,75.93009948730469
2015-02-26,76.2699966430664,76.2699966430664,76.2699966430664,76.2699966430664,501.0,76.2699966430664
2015-03-02,75.58999633789062,75.41000366210938,75.58999633789062,75.41000366210938,3903.0,75.41000366210938
2015-03-04,74.93000030517578,74.6500015258789,74.93000030517578,74.7300033569336,500.0,74.7300033569336
2015-03-06,73.93000030517578,73.30799865722656,73.93000030517578,73.30999755859375,1000.0,73.30999755859375
2015-03-18,76.70999908447266,76.70999908447266,76.70999908447266,76.70999908447266,1100.0,76.70999908447266
2015-03-19,76.52999877929688,76.52999877929688,76.52999877929688,76.52999877929688,140.0,76.52999877929688
2015-04-13,76.69999694824219,76.6500015258789,76.69999694824219,76.6500015258789,900.0,76.6500015258789
2015-04-15,77.26000213623047,77.26000213623047,77.26000213623047,77.26000213623047,1001.0,77.26000213623047
2015-04-22,75.56999969482422,75.56999969482422,75.56999969482422,75.56999969482422,151.0,75.56999969482422
2015-05-01,74.08999633789062,74.08999633789062,74.08999633789062,74.08999633789062,500.0,74.08999633789062
2015-05-13,72.31400299072266,72.12000274658203,72.31400299072266,72.12010192871094,491.0,72.12010192871094
2015-05-22,72.70999908447266,72.70999908447266,72.70999908447266,72.70999908447266,150.0,72.70999908447266
2015-05-26,73.41999816894531,73.41999816894531,73.41999816894531,73.41999816894531,150.0,73.41999816894531
2015-06-03,71.63999938964844,71.52999877929688,71.63999938964844,71.52999877929688,800.0,71.52999877929688
2015-06-04,71.52999877929688,71.52999877929688,71.52999877929688,71.52999877929688,501.0,71.52999877929688
2015-07-15,71.54000091552734,71.54000091552734,71.54000091552734,71.54000091552734,200.0,71.54000091552734
2015-07-16,71.54000091552734,71.54000091552734,71.54000091552734,71.54000091552734,198.0,71.54000091552734
2015-07-31,74.13999938964844,74.13999938964844,74.13999938964844,74.13999938964844,500.0,74.13999938964844
2015-08-11,75.56529998779297,75.56529998779297,75.56529998779297,75.56529998779297,201.0,75.56529998779297
2015-08-18,75.04000091552734,74.95999908447266,74.95999908447266,75.04000091552734,1273.0,75.04000091552734
2015-08-24,76.7300033569336,76.7300033569336,76.7300033569336,76.7300033569336,182.0,76.7300033569336
2015-09-01,74.08000183105469,74.08000183105469,74.08000183105469,74.08000183105469,418.0,74.08000183105469
2015-09-03,73.9000015258789,73.9000015258789,73.9000015258789,73.9000015258789,421.0,73.9000015258789
2015-09-09,73.41899871826172,73.41899871826172,73.41899871826172,73.41899871826172,117.0,73.41899871826172
2015-09-29,75.6686019897461,75.6686019897461,75.6686019897461,75.6686019897461,253.0,75.6686019897461
2015-10-20,75.2699966430664,75.25,75.2699966430664,75.25,400.0,75.25
2015-10-22,75.7699966430664,75.7699966430664,75.7699966430664,75.7699966430664,191.0,75.7699966430664
2015-10-23,75.04000091552734,75.04000091552734,75.04000091552734,75.04000091552734,150.0,75.04000091552734
2015-10-27,75.84989929199219,75.84989929199219,75.84989929199219,75.84989929199219,276.0,75.84989929199219
2015-10-29,75.0,75.0,75.0,75.0,154.0,75.0
2015-11-04,73.88999938964844,73.88999938964844,73.88999938964844,73.88999938964844,500.0,73.88999938964844
2015-11-05,73.83999633789062,73.83999633789062,73.83999633789062,73.83999633789062,122.0,73.83999633789062
2015-11-06,73.69999694824219,73.69999694824219,73.69999694824219,73.69999694824219,100.0,73.69999694824219
2015-11-10,72.94000244140625,72.93990325927734,72.94000244140625,72.93990325927734,659.0,72.93990325927734
2015-11-18,73.52999877929688,73.52999877929688,73.52999877929688,73.52999877929688,260.0,73.52999877929688
2015-12-07,75.96990203857422,74.83999633789062,75.96990203857422,74.83999633789062,472.0,74.83999633789062
2015-12-14,75.36000061035156,75.24099731445312,75.24099731445312,75.36000061035156,322.0,75.36000061035156
2015-12-23,74.3499984741211,74.3499984741211,74.3499984741211,74.3499984741211,401.0,74.3499984741211
2016-01-06,74.88999938964844,74.88999938964844,74.88999938964844,74.88999938964844,200.0,74.88999938964844
2016-01-07,75.77999877929688,75.77999877929688,75.77999877929688,75.77999877929688,100.0,75.77999877929688
2016-01-19,76.69999694824219,76.69999694824219,76.69999694824219,76.69999694824219,117.0,76.69999694824219
2016-02-09,79.5999984741211,79.58999633789062,79.58999633789062,79.5999984741211,1400.0,79.5999984741211
2016-02-12,80.14869689941406,80.08999633789062,80.14869689941406,80.08999633789062,4578.0,80.08999633789062
2016-02-16,83.11000061035156,80.9000015258789,83.11000061035156,81.5999984741211,7309.0,81.5999984741211
2016-02-18,79.69860076904297,79.69860076904297,79.69860076904297,79.69860076904297,953.0,79.69860076904297
2016-02-22,80.06999969482422,78.0,79.97000122070312,80.05000305175781,1701.0,80.05000305175781
2016-02-23,80.05999755859375,79.77999877929688,80.05999755859375,79.77999877929688,4030.0,79.77999877929688
2016-03-09,78.0,78.0,78.0,78.0,8843.0,78.0
2016-03-10,77.66999816894531,77.66999816894531,77.66999816894531,77.66999816894531,106.0,77.66999816894531
2016-03-11,79.25990295410156,77.73500061035156,78.69950103759766,78.91999816894531,2100.0,78.91999816894531
2016-03-14,78.98999786376953,78.26000213623047,78.45999908447266,78.6500015258789,4200.0,78.6500015258789
2016-03-15,78.66000366210938,78.66000366210938,78.66000366210938,78.66000366210938,100.0,78.66000366210938
2016-03-16,78.5,77.9000015258789,78.07820129394531,78.5,2000.0,78.5
2016-03-18,78.5999984741211,78.4800033569336,78.4800033569336,78.5999984741211,300.0,78.5999984741211
2016-03-21,80.41999816894531,79.75,80.41999816894531,79.75,236.0,79.75
2016-03-22,79.08000183105469,78.14990234375,78.1500015258789,78.9000015258789,6400.0,78.9000015258789
2016-03-24,77.94300079345703,77.94300079345703,77.94300079345703,77.94300079345703,126.0,77.94300079345703
2016-03-30,81.2699966430664,81.2699966430664,81.2699966430664,81.2699966430664,100.0,81.2699966430664
2016-05-09,80.0999984741211,80.0999984741211,80.0999984741211,80.0999984741211,202.0,80.0999984741211
2016-05-12,80.0999984741211,80.08000183105469,80.08000183105469,80.0999984741211,201.0,80.0999984741211
2016-05-13,80.61000061035156,80.51000213623047,80.51000213623047,80.61000061035156,201.0,80.61000061035156
2016-05-16,80.39990234375,80.39990234375,80.39990234375,80.39990234375,200.0,80.39990234375
2016-05-17,80.20999908447266,80.05999755859375,80.08000183105469,80.20050048828125,600.0,80.20050048828125
2016-05-24,79.83000183105469,79.83000183105469,79.83000183105469,79.83000183105469,301.0,79.83000183105469
2016-05-26,79.48999786376953,79.37999725341797,79.37999725341797,79.48999786376953,802.0,79.48999786376953
2016-05-27,79.5,79.25,79.25,79.5,400.0,79.5
2016-05-31,79.5,79.29000091552734,79.29000091552734,79.5,400.0,79.5
2016-06-01,80.16999816894531,79.95999908447266,79.95999908447266,80.11000061035156,801.0,80.11000061035156
2016-06-02,80.41000366210938,80.29989624023438,80.30000305175781,80.38009643554688,401.0,80.38009643554688
2016-06-03,81.20999908447266,80.98999786376953,80.98999786376953,81.20999908447266,201.0,81.20999908447266
2016-06-06,81.05000305175781,80.8499984741211,80.8499984741211,81.05000305175781,200.0,81.05000305175781
2016-06-07,81.1500015258789,81.05000305175781,81.05000305175781,81.1500015258789,200.0,81.1500015258789
2016-06-08,81.58000183105469,80.97000122070312,80.97000122070312,81.58000183105469,300.0,81.58000183105469
2016-06-09,81.6500015258789,81.5999984741211,81.5999984741211,81.6500015258789,200.0,81.6500015258789
2016-11-04,79.33000183105469,79.33000183105469,79.33000183105469,79.33000183105469,125.0,79.33000183105469
2017-02-14,75.02999877929688,75.02999877929688,75.02999877929688,75.02999877929688,200.0,75.02999877929688
2017-03-17,74.41999816894531,63.119998931884766,73.7699966430664,74.41999816894531,556.0,74.41999816894531
2017-05-23,77.19999694824219,77.19999694824219,77.19999694824219,77.19999694824219,100.0,77.19999694824219
2017-05-24,77.19999694824219,77.19999694824219,77.19999694824219,77.19999694824219,0.0,77.19999694824219
2017-05-25,77.19999694824219,77.19999694824219,77.19999694824219,77.19999694824219,0.0,77.19999694824219
2017-05-26,77.19999694824219,77.19999694824219,77.19999694824219,77.19999694824219,0.0,77.19999694824219
2017-05-30,77.19999694824219,77.19999694824219,77.19999694824219,77.19999694824219,0.0,77.19999694824219
2017-05-31,77.19999694824219,77.19999694824219,77.19999694824219,77.19999694824219,0.0,77.19999694824219
2017-06-01,77.19999694824219,77.19999694824219,77.19999694824219,77.19999694824219,0.0,77.19999694824219
2017-06-02,77.19999694824219,77.19999694824219,77.19999694824219,77.19999694824219,0.0,77.19999694824219
2017-06-05,77.19999694824219,77.19999694824219,77.19999694824219,77.19999694824219,0.0,77.19999694824219
2017-06-06,77.19999694824219,77.19999694824219,77.19999694824219,77.19999694824219,0.0,77.19999694824219
2017-06-07,77.19999694824219,77.19999694824219,77.19999694824219,77.19999694824219,0.0,77.19999694824219
2017-06-08,77.19999694824219,77.19999694824219,77.19999694824219,77.19999694824219,0.0,77.19999694824219
2017-06-09,77.19999694824219,77.19999694824219,77.19999694824219,77.19999694824219,0.0,77.19999694824219
2017-06-12,77.19999694824219,77.19999694824219,77.19999694824219,77.19999694824219,0.0,77.19999694824219
2017-06-13,77.19999694824219,77.19999694824219,77.19999694824219,77.19999694824219,0.0,77.19999694824219
2017-06-14,77.19999694824219,77.19999694824219,77.19999694824219,77.19999694824219,0.0,77.19999694824219
2017-06-15,77.19999694824219,77.19999694824219,77.19999694824219,77.19999694824219,0.0,77.19999694824219
2017-06-16,77.19999694824219,77.19999694824219,77.19999694824219,77.19999694824219,0.0,77.19999694824219
2017-06-19,77.19999694824219,77.19999694824219,77.19999694824219,77.19999694824219,0.0,77.19999694824219
2017-06-20,77.19999694824219,77.19999694824219,77.19999694824219,77.19999694824219,0.0,77.19999694824219
2017-06-21,77.19999694824219,77.19999694824219,77.19999694824219,77.19999694824219,0.0,77.19999694824219
2017-06-22,77.19999694824219,77.19999694824219,77.19999694824219,77.19999694824219,0.0,77.19999694824219
2017-06-23,77.19999694824219,77.19999694824219,77.19999694824219,77.19999694824219,0.0,77.19999694824219
2017-06-26,77.19999694824219,77.19999694824219,77.19999694824219,77.19999694824219,0.0,77.19999694824219
2017-06-27,77.19999694824219,77.19999694824219,77.19999694824219,77.19999694824219,0.0,77.19999694824219
2017-06-28,77.19999694824219,77.19999694824219,77.19999694824219,77.19999694824219,0.0,77.19999694824219
2017-06-29,77.19999694824219,77.19999694824219,77.19999694824219,77.19999694824219,0.0,77.19999694824219
2017-06-30,77.19999694824219,77.19999694824219,77.19999694824219,77.19999694824219,0.0,77.19999694824219
2017-07-03,77.19999694824219,77.19999694824219,77.19999694824219,77.19999694824219,0.0,77.19999694824219
2017-07-05,77.19999694824219,77.19999694824219,77.19999694824219,77.19999694824219,0.0,77.19999694824219
2017-07-06,77.19999694824219,77.19999694824219,77.19999694824219,77.19999694824219,0.0,77.19999694824219
2017-07-07,77.19999694824219,77.19999694824219,77.19999694824219,77.19999694824219,0.0,77.19999694824219
2017-07-10,77.19999694824219,77.19999694824219,77.19999694824219,77.19999694824219,0.0,77.19999694824219
2017-07-11,77.19999694824219,77.19999694824219,77.19999694824219,77.19999694824219,0.0,77.19999694824219
2017-07-12,77.19999694824219,77.19999694824219,77.19999694824219,77.19999694824219,0.0,77.19999694824219
2017-07-13,77.19999694824219,77.19999694824219,77.19999694824219,77.19999694824219,0.0,77.19999694824219
2017-07-14,77.19999694824219,77.19999694824219,77.19999694824219,77.19999694824219,0.0,77.19999694824219
2017-07-17,77.19999694824219,77.19999694824219,77.19999694824219,77.19999694824219,0.0,77.19999694824219
2017-07-18,77.19999694824219,77.19999694824219,77.19999694824219,77.19999694824219,0.0,77.19999694824219
2017-07-19,77.19999694824219,77.19999694824219,77.19999694824219,77.19999694824219,0.0,77.19999694824219
2017-07-20,77.19999694824219,77.19999694824219,77.19999694824219,77.19999694824219,0.0,77.19999694824219
2017-07-21,77.19999694824219,77.19999694824219,77.19999694824219,77.19999694824219,0.0,77.19999694824219
2017-07-24,77.19999694824219,77.19999694824219,77.19999694824219,77.19999694824219,0.0,77.19999694824219
2017-07-25,77.19999694824219,77.19999694824219,77.19999694824219,77.19999694824219,0.0,77.19999694824219
2017-07-26,77.19999694824219,77.19999694824219,77.19999694824219,77.19999694824219,0.0,77.19999694824219
2017-07-27,77.19999694824219,77.19999694824219,77.19999694824219,77.19999694824219,0.0,77.19999694824219
2017-07-28,77.19999694824219,77.19999694824219,77.19999694824219,77.19999694824219,0.0,77.19999694824219
2017-07-31,77.19999694824219,77.19999694824219,77.19999694824219,77.19999694824219,0.0,77.19999694824219
2017-08-01,77.19999694824219,77.19999694824219,77.19999694824219,77.19999694824219,0.0,77.19999694824219
2017-08-02,77.19999694824219,77.19999694824219,77.19999694824219,77.19999694824219,0.0,77.19999694824219
2017-08-03,77.19999694824219,77.19999694824219,77.19999694824219,77.19999694824219,0.0,77.19999694824219
2017-08-04,77.19999694824219,77.19999694824219,77.19999694824219,77.19999694824219,0.0,77.19999694824219
2017-08-07,77.19999694824219,77.19999694824219,77.19999694824219,77.19999694824219,0.0,77.19999694824219
2017-08-08,77.19999694824219,77.19999694824219,77.19999694824219,77.19999694824219,0.0,77.19999694824219
2017-08-09,77.19999694824219,77.19999694824219,77.19999694824219,77.19999694824219,0.0,77.19999694824219
2017-08-10,77.19999694824219,77.19999694824219,77.19999694824219,77.19999694824219,0.0,77.19999694824219
2017-08-11,77.19999694824219,77.19999694824219,77.19999694824219,77.19999694824219,0.0,77.19999694824219
2017-08-14,77.19999694824219,77.19999694824219,77.19999694824219,77.19999694824219,0.0,77.19999694824219
2017-08-15,77.19999694824219,77.19999694824219,77.19999694824219,77.19999694824219,0.0,77.19999694824219
2017-08-16,77.19999694824219,77.19999694824219,77.19999694824219,77.19999694824219,0.0,77.19999694824219
2017-08-17,77.19999694824219,77.19999694824219,77.19999694824219,77.19999694824219,0.0,77.19999694824219
2017-08-18,77.19999694824219,77.19999694824219,77.19999694824219,77.19999694824219,0.0,77.19999694824219
2017-08-21,77.19999694824219,77.19999694824219,77.19999694824219,77.19999694824219,0.0,77.19999694824219
2017-08-22,77.19999694824219,77.19999694824219,77.19999694824219,77.19999694824219,0.0,77.19999694824219
2017-08-23,77.19999694824219,77.19999694824219,77.19999694824219,77.19999694824219,0.0,77.19999694824219
2017-08-24,77.19999694824219,77.19999694824219,77.19999694824219,77.19999694824219,0.0,77.19999694824219
2017-08-25,77.19999694824219,77.19999694824219,77.19999694824219,77.19999694824219,0.0,77.19999694824219
2017-08-28,77.19999694824219,77.19999694824219,77.19999694824219,77.19999694824219,0.0,77.19999694824219
2017-08-29,77.19999694824219,77.19999694824219,77.19999694824219,77.19999694824219,0.0,77.19999694824219
2017-08-30,77.19999694824219,77.19999694824219,77.19999694824219,77.19999694824219,0.0,77.19999694824219
2017-08-31,77.19999694824219,77.19999694824219,77.19999694824219,77.19999694824219,0.0,77.19999694824219
2017-09-01,77.19999694824219,77.19999694824219,77.19999694824219,77.19999694824219,0.0,77.19999694824219
2017-09-05,77.19999694824219,77.19999694824219,77.19999694824219,77.19999694824219,0.0,77.19999694824219
2017-09-06,77.19999694824219,77.19999694824219,77.19999694824219,77.19999694824219,0.0,77.19999694824219
2017-09-07,77.19999694824219,77.19999694824219,77.19999694824219,77.19999694824219,0.0,77.19999694824219
2017-09-08,77.19999694824219,77.19999694824219,77.19999694824219,77.19999694824219,0.0,77.19999694824219
2017-09-11,77.19999694824219,77.19999694824219,77.19999694824219,77.19999694824219,0.0,77.19999694824219
2017-09-12,77.19999694824219,77.19999694824219,77.19999694824219,77.19999694824219,0.0,77.19999694824219
2017-09-13,77.19999694824219,77.19999694824219,77.19999694824219,77.19999694824219,0.0,77.19999694824219
2017-09-14,77.19999694824219,77.19999694824219,77.19999694824219,77.19999694824219,0.0,77.19999694824219
2017-09-15,77.19999694824219,77.19999694824219,77.19999694824219,77.19999694824219,0.0,77.19999694824219
2017-09-18,77.19999694824219,77.19999694824219,77.19999694824219,77.19999694824219,0.0,77.19999694824219
2017-09-19,77.19999694824219,77.19999694824219,77.19999694824219,77.19999694824219,0.0,77.19999694824219
2017-09-20,77.19999694824219,77.19999694824219,77.19999694824219,77.19999694824219,0.0,77.19999694824219
2017-09-21,77.19999694824219,77.19999694824219,77.19999694824219,77.19999694824219,0.0,77.19999694824219
2017-09-22,77.19999694824219,77.19999694824219,77.19999694824219,77.19999694824219,0.0,77.19999694824219
2017-09-25,77.19999694824219,77.19999694824219,77.19999694824219,77.19999694824219,0.0,77.19999694824219
2017-09-26,77.19999694824219,77.19999694824219,77.19999694824219,77.19999694824219,0.0,77.19999694824219
2017-09-27,77.19999694824219,77.19999694824219,77.19999694824219,77.19999694824219,0.0,77.19999694824219
2017-09-28,77.19999694824219,77.19999694824219,77.19999694824219,77.19999694824219,0.0,77.19999694824219
2017-09-29,77.19999694824219,77.19999694824219,77.19999694824219,77.19999694824219,0.0,77.19999694824219
2017-10-02,77.19999694824219,77.19999694824219,77.19999694824219,77.19999694824219,0.0,77.19999694824219
2017-10-03,78.12000274658203,78.11990356445312,78.11990356445312,78.12000274658203,484.0,78.12000274658203
2017-10-04,78.12000274658203,78.12000274658203,78.12000274658203,78.12000274658203,0.0,78.12000274658203
2017-10-05,78.12000274658203,78.12000274658203,78.12000274658203,78.12000274658203,0.0,78.12000274658203
2017-10-06,78.12000274658203,78.12000274658203,78.12000274658203,78.12000274658203,0.0,78.12000274658203
2017-10-09,78.12000274658203,78.12000274658203,78.12000274658203,78.12000274658203,0.0,78.12000274658203
2017-10-10,78.12000274658203,78.12000274658203,78.12000274658203,78.12000274658203,0.0,78.12000274658203
2017-10-11,77.88140106201172,77.88140106201172,77.88140106201172,77.88140106201172,100.0,77.88140106201172
2017-10-12,77.88140106201172,77.88140106201172,77.88140106201172,77.88140106201172,0.0,77.88140106201172
2017-10-13,77.88140106201172,77.88140106201172,77.88140106201172,77.88140106201172,0.0,77.88140106201172
2017-10-16,77.88140106201172,77.88140106201172,77.88140106201172,77.88140106201172,0.0,77.88140106201172
2017-10-17,77.88140106201172,77.88140106201172,77.88140106201172,77.88140106201172,0.0,77.88140106201172
2017-10-18,77.88140106201172,77.88140106201172,77.88140106201172,77.88140106201172,0.0,77.88140106201172
2017-10-19,77.88140106201172,77.88140106201172,77.88140106201172,77.88140106201172,0.0,77.88140106201172
2017-10-20,77.88140106201172,77.88140106201172,77.88140106201172,77.88140106201172,0.0,77.88140106201172
2017-10-23,77.88140106201172,77.88140106201172,77.88140106201172,77.88140106201172,0.0,77.88140106201172
2017-10-24,77.88140106201172,77.88140106201172,77.88140106201172,77.88140106201172,0.0,77.88140106201172
2017-10-25,77.88140106201172,77.88140106201172,77.88140106201172,77.88140106201172,0.0,77.88140106201172
2017-10-26,77.88140106201172,77.88140106201172,77.88140106201172,77.88140106201172,0.0,77.88140106201172
2017-10-27,77.88140106201172,77.88140106201172,77.88140106201172,77.88140106201172,0.0,77.88140106201172
2017-10-30,77.88140106201172,77.88140106201172,77.88140106201172,77.88140106201172,0.0,77.88140106201172
2017-10-31,77.88140106201172,77.88140106201172,77.88140106201172,77.88140106201172,0.0,77.88140106201172
2017-11-01,77.88140106201172,77.88140106201172,77.88140106201172,77.88140106201172,0.0,77.88140106201172
2017-11-02,77.88140106201172,77.88140106201172,77.88140106201172,77.88140106201172,0.0,77.88140106201172
2017-11-03,77.88140106201172,77.88140106201172,77.88140106201172,77.88140106201172,0.0,77.88140106201172
2017-11-06,77.88140106201172,77.88140106201172,77.88140106201172,77.88140106201172,0.0,77.88140106201172
2017-11-07,77.88140106201172,77.88140106201172,77.88140106201172,77.88140106201172,0.0,77.88140106201172
2017-11-08,77.88140106201172,77.88140106201172,77.88140106201172,77.88140106201172,0.0,77.88140106201172
2017-11-09,77.88140106201172,77.88140106201172,77.88140106201172,77.88140106201172,0.0,77.88140106201172
2017-11-10,77.88140106201172,77.88140106201172,77.88140106201172,77.88140106201172,0.0,77.88140106201172
2017-11-13,77.88140106201172,77.88140106201172,77.88140106201172,77.88140106201172,0.0,77.88140106201172
2017-11-14,77.88140106201172,77.88140106201172,77.88140106201172,77.88140106201172,0.0,77.88140106201172
2017-11-15,77.88140106201172,77.88140106201172,77.88140106201172,77.88140106201172,0.0,77.88140106201172
2017-11-16,77.88140106201172,77.88140106201172,77.88140106201172,77.88140106201172,0.0,77.88140106201172
2017-11-17,77.88140106201172,77.88140106201172,77.88140106201172,77.88140106201172,0.0,77.88140106201172
2017-11-20,77.88140106201172,77.88140106201172,77.88140106201172,77.88140106201172,0.0,77.88140106201172
2017-11-21,77.88140106201172,77.88140106201172,77.88140106201172,77.88140106201172,0.0,77.88140106201172
2017-11-22,77.88140106201172,77.88140106201172,77.88140106201172,77.88140106201172,0.0,77.88140106201172
2017-11-24,77.88140106201172,77.88140106201172,77.88140106201172,77.88140106201172,0.0,77.88140106201172
2017-11-27,77.88140106201172,77.88140106201172,77.88140106201172,77.88140106201172,0.0,77.88140106201172
2017-11-28,77.88140106201172,77.88140106201172,77.88140106201172,77.88140106201172,0.0,77.88140106201172
2017-11-29,77.88140106201172,77.88140106201172,77.88140106201172,77.88140106201172,0.0,77.88140106201172
2017-11-30,77.88140106201172,77.88140106201172,77.88140106201172,77.88140106201172,0.0,77.88140106201172
2017-12-01,77.88140106201172,77.88140106201172,77.88140106201172,77.88140106201172,0.0,77.88140106201172
2017-12-04,77.88140106201172,77.88140106201172,77.88140106201172,77.88140106201172,0.0,77.88140106201172
2017-12-05,77.88140106201172,77.88140106201172,77.88140106201172,77.88140106201172,0.0,77.88140106201172
2017-12-06,77.88140106201172,77.88140106201172,77.88140106201172,77.88140106201172,0.0,77.88140106201172
2017-12-07,77.88140106201172,77.88140106201172,77.88140106201172,77.88140106201172,0.0,77.88140106201172
2017-12-08,77.88140106201172,77.88140106201172,77.88140106201172,77.88140106201172,0.0,77.88140106201172
2017-12-11,77.88140106201172,77.88140106201172,77.88140106201172,77.88140106201172,0.0,77.88140106201172
2017-12-12,77.88140106201172,77.88140106201172,77.88140106201172,77.88140106201172,0.0,77.88140106201172
2017-12-13,77.88140106201172,77.88140106201172,77.88140106201172,77.88140106201172,0.0,77.88140106201172
2017-12-14,77.88140106201172,77.88140106201172,77.88140106201172,77.88140106201172,0.0,77.88140106201172
2017-12-15,77.88140106201172,77.88140106201172,77.88140106201172,77.88140106201172,0.0,77.88140106201172
2017-12-18,77.88140106201172,77.88140106201172,77.88140106201172,77.88140106201172,0.0,77.88140106201172
2017-12-19,77.88140106201172,77.88140106201172,77.88140106201172,77.88140106201172,0.0,77.88140106201172
2017-12-20,77.88140106201172,77.88140106201172,77.88140106201172,77.88140106201172,0.0,77.88140106201172
2017-12-21,77.88140106201172,77.88140106201172,77.88140106201172,77.88140106201172,0.0,77.88140106201172
2017-12-22,77.88140106201172,77.88140106201172,77.88140106201172,77.88140106201172,0.0,77.88140106201172
2017-12-26,77.88140106201172,77.88140106201172,77.88140106201172,77.88140106201172,0.0,77.88140106201172
2017-12-27,77.88140106201172,77.88140106201172,77.88140106201172,77.88140106201172,0.0,77.88140106201172
2017-12-28,77.88140106201172,77.88140106201172,77.88140106201172,77.88140106201172,0.0,77.88140106201172
2017-12-29,77.88140106201172,77.88140106201172,77.88140106201172,77.88140106201172,0.0,77.88140106201172
2018-01-02,77.88140106201172,77.88140106201172,77.88140106201172,77.88140106201172,0.0,77.88140106201172
2018-01-03,77.88140106201172,77.88140106201172,77.88140106201172,77.88140106201172,0.0,77.88140106201172
2018-01-04,77.88140106201172,77.88140106201172,77.88140106201172,77.88140106201172,0.0,77.88140106201172
2018-01-05,77.88140106201172,77.88140106201172,77.88140106201172,77.88140106201172,0.0,77.88140106201172
2018-01-08,77.88140106201172,77.88140106201172,77.88140106201172,77.88140106201172,0.0,77.88140106201172
2018-01-09,77.88140106201172,77.88140106201172,77.88140106201172,77.88140106201172,0.0,77.88140106201172
2018-01-10,77.88140106201172,77.88140106201172,77.88140106201172,77.88140106201172,0.0,77.88140106201172
2018-01-11,77.88140106201172,77.88140106201172,77.88140106201172,77.88140106201172,0.0,77.88140106201172
2018-01-12,77.88140106201172,77.88140106201172,77.88140106201172,77.88140106201172,0.0,77.88140106201172
2018-01-16,77.88140106201172,77.88140106201172,77.88140106201172,77.88140106201172,0.0,77.88140106201172
2018-01-17,77.88140106201172,77.88140106201172,77.88140106201172,77.88140106201172,0.0,77.88140106201172
2018-01-18,77.88140106201172,77.88140106201172,77.88140106201172,77.88140106201172,0.0,77.88140106201172
2018-01-19,77.88140106201172,77.88140106201172,77.88140106201172,77.88140106201172,0.0,77.88140106201172
2018-01-22,77.88140106201172,77.88140106201172,77.88140106201172,77.88140106201172,0.0,77.88140106201172
2018-01-23,77.88140106201172,77.88140106201172,77.88140106201172,77.88140106201172,0.0,77.88140106201172
2018-01-24,77.88140106201172,77.88140106201172,77.88140106201172,77.88140106201172,0.0,77.88140106201172
2018-01-25,77.88140106201172,77.88140106201172,77.88140106201172,77.88140106201172,0.0,77.88140106201172
2018-01-26,77.88140106201172,77.88140106201172,77.88140106201172,77.88140106201172,0.0,77.88140106201172
2018-01-29,77.88140106201172,77.88140106201172,77.88140106201172,77.88140106201172,0.0,77.88140106201172
2018-01-30,77.88140106201172,77.88140106201172,77.88140106201172,77.88140106201172,0.0,77.88140106201172
2018-01-31,77.88140106201172,77.88140106201172,77.88140106201172,77.88140106201172,0.0,77.88140106201172
2018-02-01,76.45999908447266,76.05999755859375,76.45999908447266,76.05999755859375,400.0,76.05999755859375
2018-02-02,75.30999755859375,75.08000183105469,75.30999755859375,75.08000183105469,400.0,75.08000183105469
2018-02-05,75.08000183105469,75.08000183105469,75.08000183105469,75.08000183105469,0.0,75.08000183105469
2018-02-06,75.08000183105469,75.08000183105469,75.08000183105469,75.08000183105469,0.0,75.08000183105469
2018-02-07,75.08000183105469,75.08000183105469,75.08000183105469,75.08000183105469,0.0,75.08000183105469
2018-02-08,75.08000183105469,75.08000183105469,75.08000183105469,75.08000183105469,0.0,75.08000183105469
2018-02-09,75.08000183105469,75.08000183105469,75.08000183105469,75.08000183105469,0.0,75.08000183105469
2018-02-12,75.08000183105469,75.08000183105469,75.08000183105469,75.08000183105469,0.0,75.08000183105469
2018-02-13,75.08000183105469,75.08000183105469,75.08000183105469,75.08000183105469,0.0,75.08000183105469
2018-02-14,75.08000183105469,75.08000183105469,75.08000183105469,75.08000183105469,0.0,75.08000183105469
2018-02-15,75.08000183105469,75.08000183105469,75.08000183105469,75.08000183105469,0.0,75.08000183105469
2018-02-16,75.08000183105469,75.08000183105469,75.08000183105469,75.08000183105469,0.0,75.08000183105469
2018-02-20,75.08000183105469,75.08000183105469,75.08000183105469,75.08000183105469,0.0,75.08000183105469
2018-02-21,75.08000183105469,75.08000183105469,75.08000183105469,75.08000183105469,0.0,75.08000183105469
2018-02-22,75.08000183105469,75.08000183105469,75.08000183105469,75.08000183105469,0.0,75.08000183105469
2018-02-23,75.08000183105469,75.08000183105469,75.08000183105469,75.08000183105469,0.0,75.08000183105469
2018-02-26,75.08000183105469,75.08000183105469,75.08000183105469,75.08000183105469,0.0,75.08000183105469
2018-02-27,75.08000183105469,75.08000183105469,75.08000183105469,75.08000183105469,0.0,75.08000183105469
2018-02-28,75.08000183105469,75.08000183105469,75.08000183105469,75.08000183105469,0.0,75.08000183105469
2018-03-01,75.08000183105469,75.08000183105469,75.08000183105469,75.08000183105469,0.0,75.08000183105469
2018-03-02,75.08000183105469,75.08000183105469,75.08000183105469,75.08000183105469,0.0,75.08000183105469
2018-03-05,75.08000183105469,75.08000183105469,75.08000183105469,75.08000183105469,0.0,75.08000183105469
2018-03-06,75.08000183105469,75.08000183105469,75.08000183105469,75.08000183105469,0.0,75.08000183105469
2018-03-07,75.08000183105469,75.08000183105469,75.08000183105469,75.08000183105469,0.0,75.08000183105469
2018-03-08,75.08000183105469,75.08000183105469,75.08000183105469,75.08000183105469,0.0,75.08000183105469
2018-03-09,75.08000183105469,75.08000183105469,75.08000183105469,75.08000183105469,0.0,75.08000183105469
2018-03-12,75.08000183105469,75.08000183105469,75.08000183105469,75.08000183105469,0.0,75.08000183105469
2018-03-13,75.08000183105469,75.08000183105469,75.08000183105469,75.08000183105469,0.0,75.08000183105469
2018-03-14,75.08000183105469,75.08000183105469,75.08000183105469,75.08000183105469,0.0,75.08000183105469
2018-03-15,75.08000183105469,75.08000183105469,75.08000183105469,75.08000183105469,0.0,75.08000183105469
2018-03-16,75.08000183105469,75.08000183105469,75.08000183105469,75.08000183105469,0.0,75.08000183105469
2018-03-19,75.08000183105469,75.08000183105469,75.08000183105469,75.08000183105469,0.0,75.08000183105469
2018-03-20,75.08000183105469,75.08000183105469,75.08000183105469,75.08000183105469,0.0,75.08000183105469
2018-03-21,75.08000183105469,75.08000183105469,75.08000183105469,75.08000183105469,0.0,75.08000183105469
2018-03-22,75.08000183105469,75.08000183105469,75.08000183105469,75.08000183105469,0.0,75.08000183105469
2018-03-23,75.08000183105469,75.08000183105469,75.08000183105469,75.08000183105469,0.0,75.08000183105469
2018-03-26,75.08000183105469,75.08000183105469,75.08000183105469,75.08000183105469,0.0,75.08000183105469
2018-03-27,75.08000183105469,75.08000183105469,75.08000183105469,75.08000183105469,0.0,75.08000183105469
2018-03-28,75.08000183105469,75.08000183105469,75.08000183105469,75.08000183105469,0.0,75.08000183105469
2018-03-29,75.08000183105469,75.08000183105469,75.08000183105469,75.08000183105469,0.0,75.08000183105469
2018-04-02,75.08000183105469,75.08000183105469,75.08000183105469,75.08000183105469,0.0,75.08000183105469
2018-04-03,75.08000183105469,75.08000183105469,75.08000183105469,75.08000183105469,0.0,75.08000183105469
2018-04-04,75.08000183105469,75.08000183105469,75.08000183105469,75.08000183105469,0.0,75.08000183105469
2018-04-05,75.08000183105469,75.08000183105469,75.08000183105469,75.08000183105469,0.0,75.08000183105469
2018-04-06,75.08000183105469,75.08000183105469,75.08000183105469,75.08000183105469,0.0,75.08000183105469
2018-04-09,75.08000183105469,75.08000183105469,75.08000183105469,75.08000183105469,0.0,75.08000183105469
2018-04-10,75.08000183105469,75.08000183105469,75.08000183105469,75.08000183105469,0.0,75.08000183105469
2018-04-11,75.08000183105469,75.08000183105469,75.08000183105469,75.08000183105469,0.0,75.08000183105469
2018-04-12,75.08000183105469,75.08000183105469,75.08000183105469,75.08000183105469,0.0,75.08000183105469
2018-04-13,75.08000183105469,75.08000183105469,75.08000183105469,75.08000183105469,0.0,75.08000183105469
2018-04-16,75.08000183105469,75.08000183105469,75.08000183105469,75.08000183105469,0.0,75.08000183105469
2018-04-17,75.08000183105469,75.08000183105469,75.08000183105469,75.08000183105469,0.0,75.08000183105469
2018-04-18,75.08000183105469,75.08000183105469,75.08000183105469,75.08000183105469,0.0,75.08000183105469
2018-04-19,75.08000183105469,75.08000183105469,75.08000183105469,75.08000183105469,0.0,75.08000183105469
2018-04-20,75.08000183105469,75.08000183105469,75.08000183105469,75.08000183105469,0.0,75.08000183105469
2018-04-23,75.08000183105469,75.08000183105469,75.08000183105469,75.08000183105469,0.0,75.08000183105469
2018-04-24,75.08000183105469,75.08000183105469,75.08000183105469,75.08000183105469,0.0,75.08000183105469
2018-04-25,75.08000183105469,75.08000183105469,75.08000183105469,75.08000183105469,0.0,75.08000183105469
2018-04-26,75.08000183105469,75.08000183105469,75.08000183105469,75.08000183105469,0.0,75.08000183105469
2018-04-27,75.08000183105469,75.08000183105469,75.08000183105469,75.08000183105469,0.0,75.08000183105469
2018-04-30,75.08000183105469,75.08000183105469,75.08000183105469,75.08000183105469,0.0,75.08000183105469
2018-05-01,75.08000183105469,75.08000183105469,75.08000183105469,75.08000183105469,0.0,75.08000183105469
2018-05-02,75.08000183105469,75.08000183105469,75.08000183105469,75.08000183105469,0.0,75.08000183105469
2018-05-03,75.08000183105469,75.08000183105469,75.08000183105469,75.08000183105469,0.0,75.08000183105469
2018-05-04,75.08000183105469,75.08000183105469,75.08000183105469,75.08000183105469,0.0,75.08000183105469
2018-05-07,75.08000183105469,75.08000183105469,75.08000183105469,75.08000183105469,0.0,75.08000183105469
2018-05-08,75.08000183105469,75.08000183105469,75.08000183105469,75.08000183105469,0.0,75.08000183105469
2018-05-09,75.08000183105469,75.08000183105469,75.08000183105469,75.08000183105469,0.0,75.08000183105469
2018-05-10,75.08000183105469,75.08000183105469,75.08000183105469,75.08000183105469,0.0,75.08000183105469
2018-05-11,75.08000183105469,75.08000183105469,75.08000183105469,75.08000183105469,0.0,75.08000183105469
2018-05-14,75.08000183105469,75.08000183105469,75.08000183105469,75.08000183105469,0.0,75.08000183105469
2018-05-15,75.08000183105469,75.08000183105469,75.08000183105469,75.08000183105469,0.0,75.08000183105469
2018-05-16,75.08000183105469,75.08000183105469,75.08000183105469,75.08000183105469,0.0,75.08000183105469
2018-05-17,75.08000183105469,75.08000183105469,75.08000183105469,75.08000183105469,0.0,75.08000183105469
2018-05-18,75.08000183105469,75.08000183105469,75.08000183105469,75.08000183105469,0.0,75.08000183105469
2018-05-21,75.08000183105469,75.08000183105469,75.08000183105469,75.08000183105469,0.0,75.08000183105469
2018-05-22,75.08000183105469,75.08000183105469,75.08000183105469,75.08000183105469,0.0,75.08000183105469
2018-05-23,75.08000183105469,75.08000183105469,75.08000183105469,75.08000183105469,0.0,75.08000183105469
2018-05-24,75.08000183105469,75.08000183105469,75.08000183105469,75.08000183105469,0.0,75.08000183105469
2018-05-25,75.08000183105469,75.08000183105469,75.08000183105469,75.08000183105469,0.0,75.08000183105469
2018-05-29,75.08000183105469,75.08000183105469,75.08000183105469,75.08000183105469,0.0,75.08000183105469
2018-05-30,75.08000183105469,75.08000183105469,75.08000183105469,75.08000183105469,0.0,75.08000183105469
2018-05-31,75.08000183105469,75.08000183105469,75.08000183105469,75.08000183105469,0.0,75.08000183105469
2018-06-01,75.08000183105469,75.08000183105469,75.08000183105469,75.08000183105469,0.0,75.08000183105469
2018-06-04,75.08000183105469,75.08000183105469,75.08000183105469,75.08000183105469,0.0,75.08000183105469
2018-06-05,75.08000183105469,75.08000183105469,75.08000183105469,75.08000183105469,0.0,75.08000183105469
2018-06-06,75.08000183105469,75.08000183105469,75.08000183105469,75.08000183105469,0.0,75.08000183105469
2018-06-07,75.08000183105469,75.08000183105469,75.08000183105469,75.08000183105469,0.0,75.08000183105469
2018-06-08,75.08000183105469,75.08000183105469,75.08000183105469,75.08000183105469,0.0,75.08000183105469
2018-06-11,75.08000183105469,75.08000183105469,75.08000183105469,75.08000183105469,0.0,75.08000183105469
2018-06-12,75.08000183105469,75.08000183105469,75.08000183105469,75.08000183105469,0.0,75.08000183105469
2018-06-13,75.08000183105469,75.08000183105469,75.08000183105469,75.08000183105469,0.0,75.08000183105469
2018-06-14,75.08000183105469,75.08000183105469,75.08000183105469,75.08000183105469,0.0,75.08000183105469
2018-06-15,75.08000183105469,75.08000183105469,75.08000183105469,75.08000183105469,0.0,75.08000183105469
2018-06-18,75.08000183105469,75.08000183105469,75.08000183105469,75.08000183105469,0.0,75.08000183105469
2018-06-19,75.08000183105469,75.08000183105469,75.08000183105469,75.08000183105469,0.0,75.08000183105469
2018-06-20,75.08000183105469,75.08000183105469,75.08000183105469,75.08000183105469,0.0,75.08000183105469
2018-06-21,75.08000183105469,75.08000183105469,75.08000183105469,75.08000183105469,0.0,75.08000183105469
2018-06-22,75.08000183105469,75.08000183105469,75.08000183105469,75.08000183105469,0.0,75.08000183105469
2018-06-25,75.08000183105469,75.08000183105469,75.08000183105469,75.08000183105469,0.0,75.08000183105469
2018-06-26,75.08000183105469,75.08000183105469,75.08000183105469,75.08000183105469,0.0,75.08000183105469
2018-06-27,75.08000183105469,75.08000183105469,75.08000183105469,75.08000183105469,0.0,75.08000183105469
2018-06-28,75.08000183105469,75.08000183105469,75.08000183105469,75.08000183105469,0.0,75.08000183105469
2018-06-29,75.08000183105469,75.08000183105469,75.08000183105469,75.08000183105469,0.0,75.08000183105469
2018-07-02,75.08000183105469,75.08000183105469,75.08000183105469,75.08000183105469,0.0,75.08000183105469
2018-07-03,75.08000183105469,75.08000183105469,75.08000183105469,75.08000183105469,0.0,75.08000183105469
2018-07-05,75.08000183105469,75.08000183105469,75.08000183105469,75.08000183105469,0.0,75.08000183105469
2018-07-06,75.08000183105469,75.08000183105469,75.08000183105469,75.08000183105469,0.0,75.08000183105469
2018-07-09,75.08000183105469,75.08000183105469,75.08000183105469,75.08000183105469,0.0,75.08000183105469
2018-07-10,75.08000183105469,75.08000183105469,75.08000183105469,75.08000183105469,0.0,75.08000183105469
2018-07-11,75.08000183105469,75.08000183105469,75.08000183105469,75.08000183105469,0.0,75.08000183105469
2018-07-12,75.08000183105469,75.08000183105469,75.08000183105469,75.08000183105469,0.0,75.08000183105469
2018-07-13,75.08000183105469,75.08000183105469,75.08000183105469,75.08000183105469,0.0,75.08000183105469
2018-07-16,75.08000183105469,75.08000183105469,75.08000183105469,75.08000183105469,0.0,75.08000183105469
2018-07-17,75.08000183105469,75.08000183105469,75.08000183105469,75.08000183105469,0.0,75.08000183105469
2018-07-18,75.08000183105469,75.08000183105469,75.08000183105469,75.08000183105469,0.0,75.08000183105469
2018-07-19,75.08000183105469,75.08000183105469,75.08000183105469,75.08000183105469,0.0,75.08000183105469
2018-07-20,75.08000183105469,75.08000183105469,75.08000183105469,75.08000183105469,0.0,75.08000183105469
2018-07-23,75.08000183105469,75.08000183105469,75.08000183105469,75.08000183105469,0.0,75.08000183105469
2018-07-24,75.08000183105469,75.08000183105469,75.08000183105469,75.08000183105469,0.0,75.08000183105469
2018-07-25,75.08000183105469,75.08000183105469,75.08000183105469,75.08000183105469,0.0,75.08000183105469
2018-07-26,75.08000183105469,75.08000183105469,75.08000183105469,75.08000183105469,0.0,75.08000183105469
2018-07-27,75.08000183105469,75.08000183105469,75.08000183105469,75.08000183105469,0.0,75.08000183105469
2018-07-30,75.08000183105469,75.08000183105469,75.08000183105469,75.08000183105469,0.0,75.08000183105469
2018-07-31,75.08000183105469,75.08000183105469,75.08000183105469,75.08000183105469,0.0,75.08000183105469
2018-08-01,75.08000183105469,75.08000183105469,75.08000183105469,75.08000183105469,0.0,75.08000183105469
2018-08-02,75.08000183105469,75.08000183105469,75.08000183105469,75.08000183105469,0.0,75.08000183105469
2018-08-03,75.08000183105469,75.08000183105469,75.08000183105469,75.08000183105469,0.0,75.08000183105469
2018-08-06,75.08000183105469,75.08000183105469,75.08000183105469,75.08000183105469,0.0,75.08000183105469
2018-08-07,75.08000183105469,75.08000183105469,75.08000183105469,75.08000183105469,0.0,75.08000183105469
2018-08-08,75.08000183105469,75.08000183105469,75.08000183105469,75.08000183105469,0.0,75.08000183105469
2018-08-09,75.08000183105469,75.08000183105469,75.08000183105469,75.08000183105469,0.0,75.08000183105469
2018-08-10,75.08000183105469,75.08000183105469,75.08000183105469,75.08000183105469,0.0,75.08000183105469
2018-08-13,75.08000183105469,75.08000183105469,75.08000183105469,75.08000183105469,0.0,75.08000183105469
2018-08-14,75.08000183105469,75.08000183105469,75.08000183105469,75.08000183105469,0.0,75.08000183105469
2018-08-15,75.08000183105469,75.08000183105469,75.08000183105469,75.08000183105469,0.0,75.08000183105469
2018-08-16,75.08000183105469,75.08000183105469,75.08000183105469,75.08000183105469,0.0,75.08000183105469
2018-08-17,75.08000183105469,75.08000183105469,75.08000183105469,75.08000183105469,0.0,75.08000183105469
2018-08-20,75.08000183105469,75.08000183105469,75.08000183105469,75.08000183105469,0.0,75.08000183105469
2018-08-21,75.08000183105469,75.08000183105469,75.08000183105469,75.08000183105469,0.0,75.08000183105469
2018-08-22,75.08000183105469,75.08000183105469,75.08000183105469,75.08000183105469,0.0,75.08000183105469
2018-08-23,75.08000183105469,75.08000183105469,75.08000183105469,75.08000183105469,0.0,75.08000183105469
2018-08-24,75.08000183105469,75.08000183105469,75.08000183105469,75.08000183105469,0.0,75.08000183105469
2018-08-27,75.08000183105469,75.08000183105469,75.08000183105469,75.08000183105469,0.0,75.08000183105469
2018-08-28,75.08000183105469,75.08000183105469,75.08000183105469,75.08000183105469,0.0,75.08000183105469
2018-08-29,75.08000183105469,75.08000183105469,75.08000183105469,75.08000183105469,0.0,75.08000183105469
2018-08-30,75.08000183105469,75.08000183105469,75.08000183105469,75.08000183105469,0.0,75.08000183105469
2018-08-31,75.08000183105469,75.08000183105469,75.08000183105469,75.08000183105469,0.0,75.08000183105469
2018-09-04,75.08000183105469,75.08000183105469,75.08000183105469,75.08000183105469,0.0,75.08000183105469
2018-09-05,75.08000183105469,75.08000183105469,75.08000183105469,75.08000183105469,0.0,75.08000183105469
2018-09-06,75.08000183105469,75.08000183105469,75.08000183105469,75.08000183105469,0.0,75.08000183105469
2018-09-07,75.08000183105469,75.08000183105469,75.08000183105469,75.08000183105469,0.0,75.08000183105469
2018-09-10,75.08000183105469,75.08000183105469,75.08000183105469,75.08000183105469,0.0,75.08000183105469
2018-09-11,75.08000183105469,75.08000183105469,75.08000183105469,75.08000183105469,0.0,75.08000183105469
2018-09-12,75.08000183105469,75.08000183105469,75.08000183105469,75.08000183105469,0.0,75.08000183105469
2018-09-13,75.08000183105469,75.08000183105469,75.08000183105469,75.08000183105469,0.0,75.08000183105469
2018-09-14,75.08000183105469,75.08000183105469,75.08000183105469,75.08000183105469,0.0,75.08000183105469
2018-09-17,75.08000183105469,75.08000183105469,75.08000183105469,75.08000183105469,0.0,75.08000183105469
2018-09-18,75.08000183105469,75.08000183105469,75.08000183105469,75.08000183105469,0.0,75.08000183105469
2018-09-19,75.08000183105469,75.08000183105469,75.08000183105469,75.08000183105469,0.0,75.08000183105469
2018-09-20,75.08000183105469,75.08000183105469,75.08000183105469,75.08000183105469,0.0,75.08000183105469
2018-09-21,75.08000183105469,75.08000183105469,75.08000183105469,75.08000183105469,0.0,75.08000183105469
2018-09-24,75.08000183105469,75.08000183105469,75.08000183105469,75.08000183105469,0.0,75.08000183105469
2018-09-25,75.08000183105469,75.08000183105469,75.08000183105469,75.08000183105469,0.0,75.08000183105469
2018-09-26,75.08000183105469,75.08000183105469,75.08000183105469,75.08000183105469,0.0,75.08000183105469
2018-09-27,75.08000183105469,75.08000183105469,75.08000183105469,75.08000183105469,0.0,75.08000183105469
2018-09-28,75.08000183105469,75.08000183105469,75.08000183105469,75.08000183105469,0.0,75.08000183105469
2018-10-01,75.08000183105469,75.08000183105469,75.08000183105469,75.08000183105469,0.0,75.08000183105469
2018-10-02,75.08000183105469,75.08000183105469,75.08000183105469,75.08000183105469,0.0,75.08000183105469
2018-10-03,75.08000183105469,75.08000183105469,75.08000183105469,75.08000183105469,0.0,75.08000183105469
2018-10-04,75.08000183105469,75.08000183105469,75.08000183105469,75.08000183105469,0.0,75.08000183105469
2018-10-05,75.08000183105469,75.08000183105469,75.08000183105469,75.08000183105469,0.0,75.08000183105469
2018-10-08,75.08000183105469,75.08000183105469,75.08000183105469,75.08000183105469,0.0,75.08000183105469
2018-10-09,75.08000183105469,75.08000183105469,75.08000183105469,75.08000183105469,0.0,75.08000183105469
2018-10-10,75.08000183105469,75.08000183105469,75.08000183105469,75.08000183105469,0.0,75.08000183105469
2018-10-11,75.08000183105469,75.08000183105469,75.08000183105469,75.08000183105469,0.0,75.08000183105469
2018-10-12,75.08000183105469,75.08000183105469,75.08000183105469,75.08000183105469,0.0,75.08000183105469
2018-10-15,75.08000183105469,75.08000183105469,75.08000183105469,75.08000183105469,0.0,75.08000183105469
2018-10-16,75.08000183105469,75.08000183105469,75.08000183105469,75.08000183105469,0.0,75.08000183105469
2018-10-17,75.08000183105469,75.08000183105469,75.08000183105469,75.08000183105469,0.0,75.08000183105469
2018-10-18,75.08000183105469,75.08000183105469,75.08000183105469,75.08000183105469,0.0,75.08000183105469
2018-10-19,75.08000183105469,75.08000183105469,75.08000183105469,75.08000183105469,0.0,75.08000183105469
2018-10-22,75.08000183105469,75.08000183105469,75.08000183105469,75.08000183105469,0.0,75.08000183105469
2018-10-23,75.08000183105469,75.08000183105469,75.08000183105469,75.08000183105469,0.0,75.08000183105469
2018-10-24,75.08000183105469,75.08000183105469,75.08000183105469,75.08000183105469,0.0,75.08000183105469
2018-10-25,75.08000183105469,75.08000183105469,75.08000183105469,75.08000183105469,0.0,75.08000183105469
2018-10-26,75.08000183105469,75.08000183105469,75.08000183105469,75.08000183105469,0.0,75.08000183105469
2018-10-29,75.08000183105469,75.08000183105469,75.08000183105469,75.08000183105469,0.0,75.08000183105469
2018-10-30,75.08000183105469,75.08000183105469,75.08000183105469,75.08000183105469,0.0,75.08000183105469
2018-10-31,75.08000183105469,75.08000183105469,75.08000183105469,75.08000183105469,0.0,75.08000183105469
2018-11-01,75.08000183105469,75.08000183105469,75.08000183105469,75.08000183105469,0.0,75.08000183105469
2018-11-02,75.08000183105469,75.08000183105469,75.08000183105469,75.08000183105469,0.0,75.08000183105469
2018-11-05,75.08000183105469,75.08000183105469,75.08000183105469,75.08000183105469,0.0,75.08000183105469
2018-11-06,75.08000183105469,75.08000183105469,75.08000183105469,75.08000183105469,0.0,75.08000183105469
2018-11-07,75.08000183105469,75.08000183105469,75.08000183105469,75.08000183105469,0.0,75.08000183105469
2018-11-08,75.08000183105469,75.08000183105469,75.08000183105469,75.08000183105469,0.0,75.08000183105469
2018-11-09,75.08000183105469,75.08000183105469,75.08000183105469,75.08000183105469,0.0,75.08000183105469
2018-11-12,75.08000183105469,75.08000183105469,75.08000183105469,75.08000183105469,0.0,75.08000183105469
2018-11-13,75.08000183105469,75.08000183105469,75.08000183105469,75.08000183105469,0.0,75.08000183105469
2018-11-14,75.08000183105469,75.08000183105469,75.08000183105469,75.08000183105469,0.0,75.08000183105469
2018-11-15,75.08000183105469,75.08000183105469,75.08000183105469,75.08000183105469,0.0,75.08000183105469
2018-11-16,75.08000183105469,75.08000183105469,75.08000183105469,75.08000183105469,0.0,75.08000183105469
2018-11-19,75.08000183105469,75.08000183105469,75.08000183105469,75.08000183105469,0.0,75.08000183105469
2018-11-20,75.08000183105469,75.08000183105469,75.08000183105469,75.08000183105469,0.0,75.08000183105469
2018-11-21,75.08000183105469,75.08000183105469,75.08000183105469,75.08000183105469,0.0,75.08000183105469
2018-11-23,75.08000183105469,75.08000183105469,75.08000183105469,75.08000183105469,0.0,75.08000183105469
2018-11-26,75.08000183105469,75.08000183105469,75.08000183105469,75.08000183105469,0.0,75.08000183105469
2018-11-27,75.08000183105469,75.08000183105469,75.08000183105469,75.08000183105469,0.0,75.08000183105469
2018-11-28,75.08000183105469,75.08000183105469,75.08000183105469,75.08000183105469,0.0,75.08000183105469
2018-11-29,75.08000183105469,75.08000183105469,75.08000183105469,75.08000183105469,0.0,75.08000183105469
2018-11-30,75.08000183105469,75.08000183105469,75.08000183105469,75.08000183105469,0.0,75.08000183105469
2018-12-03,75.08000183105469,75.08000183105469,75.08000183105469,75.08000183105469,0.0,75.08000183105469
2018-12-04,75.08000183105469,75.08000183105469,75.08000183105469,75.08000183105469,0.0,75.08000183105469
2018-12-06,75.08000183105469,75.08000183105469,75.08000183105469,75.08000183105469,0.0,75.08000183105469
2018-12-07,75.08000183105469,75.08000183105469,75.08000183105469,75.08000183105469,0.0,75.08000183105469
2018-12-10,75.08000183105469,75.08000183105469,75.08000183105469,75.08000183105469,0.0,75.08000183105469
2018-12-11,75.08000183105469,75.08000183105469,75.08000183105469,75.08000183105469,0.0,75.08000183105469
2018-12-12,75.08000183105469,75.08000183105469,75.08000183105469,75.08000183105469,0.0,75.08000183105469
2018-12-13,75.08000183105469,75.08000183105469,75.08000183105469,75.08000183105469,0.0,75.08000183105469
2018-12-14,75.08000183105469,75.08000183105469,75.08000183105469,75.08000183105469,0.0,75.08000183105469
2018-12-17,75.08000183105469,75.08000183105469,75.08000183105469,75.08000183105469,0.0,75.08000183105469
2018-12-18,75.08000183105469,75.08000183105469,75.08000183105469,75.08000183105469,0.0,75.08000183105469
2018-12-19,75.08000183105469,75.08000183105469,75.08000183105469,75.08000183105469,0.0,75.08000183105469
2018-12-20,75.08000183105469,75.08000183105469,75.08000183105469,75.08000183105469,0.0,75.08000183105469
2018-12-21,75.08000183105469,75.08000183105469,75.08000183105469,75.08000183105469,0.0,75.08000183105469
2018-12-24,75.08000183105469,75.08000183105469,75.08000183105469,75.08000183105469,0.0,75.08000183105469
2018-12-26,75.08000183105469,75.08000183105469,75.08000183105469,75.08000183105469,0.0,75.08000183105469
2018-12-27,75.08000183105469,75.08000183105469,75.08000183105469,75.08000183105469,0.0,75.08000183105469
2018-12-28,75.08000183105469,75.08000183105469,75.08000183105469,75.08000183105469,0.0,75.08000183105469
2018-12-31,75.08000183105469,75.08000183105469,75.08000183105469,75.08000183105469,0.0,75.08000183105469
2019-01-02,75.08000183105469,75.08000183105469,75.08000183105469,75.08000183105469,0.0,75.08000183105469
2019-01-03,75.08000183105469,75.08000183105469,75.08000183105469,75.08000183105469,0.0,75.08000183105469
2019-01-04,75.08000183105469,75.08000183105469,75.08000183105469,75.08000183105469,0.0,75.08000183105469
2019-01-07,75.08000183105469,75.08000183105469,75.08000183105469,75.08000183105469,0.0,75.08000183105469
2019-01-08,75.08000183105469,75.08000183105469,75.08000183105469,75.08000183105469,0.0,75.08000183105469
2019-01-09,75.08000183105469,75.08000183105469,75.08000183105469,75.08000183105469,0.0,75.08000183105469
2019-01-10,75.08000183105469,75.08000183105469,75.08000183105469,75.08000183105469,0.0,75.08000183105469
2019-01-11,75.08000183105469,75.08000183105469,75.08000183105469,75.08000183105469,0.0,75.08000183105469
2019-01-14,75.08000183105469,75.08000183105469,75.08000183105469,75.08000183105469,0.0,75.08000183105469
2019-01-15,75.08000183105469,75.08000183105469,75.08000183105469,75.08000183105469,0.0,75.08000183105469
2019-01-16,75.08000183105469,75.08000183105469,75.08000183105469,75.08000183105469,0.0,75.08000183105469
2019-01-17,75.08000183105469,75.08000183105469,75.08000183105469,75.08000183105469,0.0,75.08000183105469
2019-01-18,75.08000183105469,75.08000183105469,75.08000183105469,75.08000183105469,0.0,75.08000183105469
2019-01-22,75.08000183105469,75.08000183105469,75.08000183105469,75.08000183105469,0.0,75.08000183105469
2019-01-23,75.08000183105469,75.08000183105469,75.08000183105469,75.08000183105469,0.0,75.08000183105469
2019-01-24,75.08000183105469,75.08000183105469,75.08000183105469,75.08000183105469,0.0,75.08000183105469
2019-01-25,75.08000183105469,75.08000183105469,75.08000183105469,75.08000183105469,0.0,75.08000183105469
2019-01-28,75.08000183105469,75.08000183105469,75.08000183105469,75.08000183105469,0.0,75.08000183105469
2019-01-29,75.08000183105469,75.08000183105469,75.08000183105469,75.08000183105469,0.0,75.08000183105469
2019-01-30,75.08000183105469,75.08000183105469,75.08000183105469,75.08000183105469,0.0,75.08000183105469
2019-01-31,75.08000183105469,75.08000183105469,75.08000183105469,75.08000183105469,0.0,75.08000183105469
2019-02-01,75.08000183105469,75.08000183105469,75.08000183105469,75.08000183105469,0.0,75.08000183105469
2019-02-04,75.08000183105469,75.08000183105469,75.08000183105469,75.08000183105469,0.0,75.08000183105469
2019-02-05,75.08000183105469,75.08000183105469,75.08000183105469,75.08000183105469,0.0,75.08000183105469
2019-02-06,75.08000183105469,75.08000183105469,75.08000183105469,75.08000183105469,0.0,75.08000183105469
2019-02-07,75.08000183105469,75.08000183105469,75.08000183105469,75.08000183105469,0.0,75.08000183105469
2019-02-08,75.08000183105469,75.08000183105469,75.08000183105469,75.08000183105469,0.0,75.08000183105469
2019-02-11,75.08000183105469,75.08000183105469,75.08000183105469,75.08000183105469,0.0,75.08000183105469
2019-02-12,75.08000183105469,75.08000183105469,75.08000183105469,75.08000183105469,0.0,75.08000183105469
2019-02-13,75.08000183105469,75.08000183105469,75.08000183105469,75.08000183105469,0.0,75.08000183105469
2019-02-14,75.08000183105469,75.08000183105469,75.08000183105469,75.08000183105469,0.0,75.08000183105469
2019-02-15,75.08000183105469,75.08000183105469,75.08000183105469,75.08000183105469,0.0,75.08000183105469
2019-02-19,75.08000183105469,75.08000183105469,75.08000183105469,75.08000183105469,0.0,75.08000183105469
2019-02-20,75.08000183105469,75.08000183105469,75.08000183105469,75.08000183105469,0.0,75.08000183105469
2019-02-21,75.08000183105469,75.08000183105469,75.08000183105469,75.08000183105469,0.0,75.08000183105469
2019-02-22,75.08000183105469,75.08000183105469,75.08000183105469,75.08000183105469,0.0,75.08000183105469
2019-02-25,75.08000183105469,75.08000183105469,75.08000183105469,75.08000183105469,0.0,75.08000183105469
2019-02-26,75.08000183105469,75.08000183105469,75.08000183105469,75.08000183105469,0.0,75.08000183105469
2019-02-27,75.08000183105469,75.08000183105469,75.08000183105469,75.08000183105469,0.0,75.08000183105469
2019-02-28,75.08000183105469,75.08000183105469,75.08000183105469,75.08000183105469,0.0,75.08000183105469
2019-03-01,75.08000183105469,75.08000183105469,75.08000183105469,75.08000183105469,0.0,75.08000183105469
2019-03-04,75.08000183105469,75.08000183105469,75.08000183105469,75.08000183105469,0.0,75.08000183105469
2019-03-05,75.08000183105469,75.08000183105469,75.08000183105469,75.08000183105469,0.0,75.08000183105469
2019-03-06,75.08000183105469,75.08000183105469,75.08000183105469,75.08000183105469,0.0,75.08000183105469
2019-03-07,75.08000183105469,75.08000183105469,75.08000183105469,75.08000183105469,0.0,75.08000183105469
2019-03-08,75.08000183105469,75.08000183105469,75.08000183105469,75.08000183105469,0.0,75.08000183105469
2019-03-11,75.08000183105469,75.08000183105469,75.08000183105469,75.08000183105469,0.0,75.08000183105469
2019-03-12,75.08000183105469,75.08000183105469,75.08000183105469,75.08000183105469,0.0,75.08000183105469
2019-03-13,75.08000183105469,75.08000183105469,75.08000183105469,75.08000183105469,0.0,75.08000183105469
2019-03-14,75.08000183105469,75.08000183105469,75.08000183105469,75.08000183105469,0.0,75.08000183105469
2019-03-15,75.08000183105469,75.08000183105469,75.08000183105469,75.08000183105469,0.0,75.08000183105469
2019-03-18,75.08000183105469,75.08000183105469,75.08000183105469,75.08000183105469,0.0,75.08000183105469
2019-03-19,75.08000183105469,75.08000183105469,75.08000183105469,75.08000183105469,0.0,75.08000183105469
2019-03-20,75.08000183105469,75.08000183105469,75.08000183105469,75.08000183105469,0.0,75.08000183105469
2019-03-21,75.08000183105469,75.08000183105469,75.08000183105469,75.08000183105469,0.0,75.08000183105469
2019-03-22,75.08000183105469,75.08000183105469,75.08000183105469,75.08000183105469,0.0,75.08000183105469
2019-03-25,75.08000183105469,75.08000183105469,75.08000183105469,75.08000183105469,0.0,75.08000183105469
2019-03-26,75.08000183105469,75.08000183105469,75.08000183105469,75.08000183105469,0.0,75.08000183105469
2019-03-27,75.08000183105469,75.08000183105469,75.08000183105469,75.08000183105469,0.0,75.08000183105469
2019-03-28,75.08000183105469,75.08000183105469,75.08000183105469,75.08000183105469,0.0,75.08000183105469
2019-03-29,75.08000183105469,75.08000183105469,75.08000183105469,75.08000183105469,0.0,75.08000183105469
2019-04-01,75.08000183105469,75.08000183105469,75.08000183105469,75.08000183105469,0.0,75.08000183105469
2019-04-02,75.08000183105469,75.08000183105469,75.08000183105469,75.08000183105469,0.0,75.08000183105469
2019-04-03,75.08000183105469,75.08000183105469,75.08000183105469,75.08000183105469,0.0,75.08000183105469
2019-04-04,75.08000183105469,75.08000183105469,75.08000183105469,75.08000183105469,0.0,75.08000183105469
2019-04-05,75.08000183105469,75.08000183105469,75.08000183105469,75.08000183105469,0.0,75.08000183105469
2019-04-08,75.08000183105469,75.08000183105469,75.08000183105469,75.08000183105469,0.0,75.08000183105469
2019-04-09,75.08000183105469,75.08000183105469,75.08000183105469,75.08000183105469,0.0,75.08000183105469
2019-04-10,75.08000183105469,75.08000183105469,75.08000183105469,75.08000183105469,0.0,75.08000183105469
2019-04-11,75.08000183105469,75.08000183105469,75.08000183105469,75.08000183105469,0.0,75.08000183105469
2019-04-12,75.08000183105469,75.08000183105469,75.08000183105469,75.08000183105469,0.0,75.08000183105469
2019-04-15,75.08000183105469,75.08000183105469,75.08000183105469,75.08000183105469,0.0,75.08000183105469
2019-04-16,75.08000183105469,75.08000183105469,75.08000183105469,75.08000183105469,0.0,75.08000183105469
2019-04-17,75.08000183105469,75.08000183105469,75.08000183105469,75.08000183105469,0.0,75.08000183105469
2019-04-18,75.08000183105469,75.08000183105469,75.08000183105469,75.08000183105469,0.0,75.08000183105469
2019-04-22,75.08000183105469,75.08000183105469,75.08000183105469,75.08000183105469,0.0,75.08000183105469
2019-04-23,75.08000183105469,75.08000183105469,75.08000183105469,75.08000183105469,0.0,75.08000183105469
2019-04-24,75.08000183105469,75.08000183105469,75.08000183105469,75.08000183105469,0.0,75.08000183105469
2019-04-25,75.08000183105469,75.08000183105469,75.08000183105469,75.08000183105469,0.0,75.08000183105469
2019-04-26,75.08000183105469,75.08000183105469,75.08000183105469,75.08000183105469,0.0,75.08000183105469
2019-04-29,75.08000183105469,75.08000183105469,75.08000183105469,75.08000183105469,0.0,75.08000183105469
2019-04-30,75.08000183105469,75.08000183105469,75.08000183105469,75.08000183105469,0.0,75.08000183105469
2019-05-01,75.08000183105469,75.08000183105469,75.08000183105469,75.08000183105469,0.0,75.08000183105469
2019-05-02,75.08000183105469,75.08000183105469,75.08000183105469,75.08000183105469,0.0,75.08000183105469
2019-05-03,75.08000183105469,75.08000183105469,75.08000183105469,75.08000183105469,0.0,75.08000183105469
2019-05-06,75.08000183105469,75.08000183105469,75.08000183105469,75.08000183105469,0.0,75.08000183105469
2019-05-07,75.08000183105469,75.08000183105469,75.08000183105469,75.08000183105469,0.0,75.08000183105469
2019-05-08,75.08000183105469,75.08000183105469,75.08000183105469,75.08000183105469,0.0,75.08000183105469
