Date,High,Low,Open,Close,Volume,Adj Close
2018-03-20,5.599999904632568,4.599999904632568,5.199999809265137,4.619999885559082,304300,4.619999885559082
2018-03-21,4.900000095367432,4.610000133514404,4.889999866485596,4.742000102996826,23200,4.742000102996826
2018-03-22,4.75,4.599999904632568,4.671000003814697,4.599999904632568,54100,4.599999904632568
2018-03-23,4.75,4.599999904632568,4.599999904632568,4.65500020980835,8400,4.65500020980835
2018-03-26,4.679999828338623,4.5,4.679999828338623,4.5,42100,4.5
2018-03-27,4.699999809265137,4.5,4.690000057220459,4.5,9200,4.5
2018-03-28,4.513999938964844,4.5,4.5,4.5,27800,4.5
2018-03-29,4.690000057220459,4.5,4.690000057220459,4.5,15900,4.5
2018-04-02,4.5920000076293945,4.400000095367432,4.5920000076293945,4.400000095367432,43400,4.400000095367432
2018-04-03,4.848999977111816,4.409999847412109,4.409999847412109,4.848999977111816,35100,4.848999977111816
2018-04-04,4.829999923706055,4.49399995803833,4.829999923706055,4.679999828338623,19700,4.679999828338623
2018-04-05,4.800000190734863,4.590000152587891,4.789999961853027,4.716000080108643,36600,4.716000080108643
2018-04-06,5.21999979019165,4.6579999923706055,4.684000015258789,4.75,64700,4.75
2018-04-09,4.900000095367432,4.730000019073486,4.900000095367432,4.828999996185303,20800,4.828999996185303
2018-04-10,5.0,4.889999866485596,4.9039998054504395,4.889999866485596,26600,4.889999866485596
2018-04-11,4.889999866485596,4.854000091552734,4.888999938964844,4.861000061035156,5900,4.861000061035156
2018-04-12,4.949999809265137,4.75,4.75,4.949999809265137,3800,4.949999809265137
2018-04-13,5.0,4.800000190734863,5.0,4.926000118255615,16000,4.926000118255615
2018-04-16,5.0,4.671000003814697,4.929999828338623,4.671000003814697,3200,4.671000003814697
2018-04-17,4.988999843597412,4.760000228881836,4.760000228881836,4.926000118255615,3600,4.926000118255615
2018-04-18,5.0,4.789999961853027,4.789999961853027,4.949999809265137,51600,4.949999809265137
2018-04-19,4.960000038146973,4.860000133514404,4.900000095367432,4.860000133514404,1200,4.860000133514404
2018-04-20,4.949999809265137,4.889999866485596,4.949999809265137,4.889999866485596,2600,4.889999866485596
2018-04-23,4.980000019073486,4.900000095367432,4.980000019073486,4.900000095367432,14900,4.900000095367432
2018-04-24,4.980000019073486,4.880000114440918,4.900000095367432,4.949999809265137,4100,4.949999809265137
2018-04-25,5.099999904632568,4.800000190734863,4.810999870300293,5.013000011444092,9200,5.013000011444092
2018-04-26,8.5,5.099999904632568,5.099999904632568,5.429999828338623,442700,5.429999828338623
2018-04-27,6.098999977111816,5.420000076293945,5.420000076293945,5.699999809265137,110000,5.699999809265137
2018-04-30,6.289999961853027,5.550000190734863,5.769999980926514,5.809999942779541,84400,5.809999942779541
2018-05-01,5.880000114440918,5.130000114440918,5.769999980926514,5.159999847412109,33200,5.159999847412109
2018-05-02,5.989999771118164,5.010000228881836,5.989999771118164,5.590000152587891,52400,5.590000152587891
2018-05-03,5.798999786376953,5.215000152587891,5.215000152587891,5.519999980926514,29800,5.519999980926514
2018-05-04,5.699999809265137,4.660999774932861,5.5,5.0,56900,5.0
2018-05-07,5.400000095367432,5.10699987411499,5.300000190734863,5.300000190734863,25900,5.300000190734863
2018-05-08,5.409999847412109,5.260000228881836,5.28000020980835,5.400000095367432,13800,5.400000095367432
2018-05-09,5.659999847412109,5.349999904632568,5.389999866485596,5.589000225067139,7700,5.589000225067139
2018-05-10,5.989999771118164,5.159999847412109,5.5,5.159999847412109,23600,5.159999847412109
2018-05-11,5.689000129699707,5.341000080108643,5.689000129699707,5.609000205993652,19700,5.609000205993652
2018-05-14,5.610000133514404,5.389999866485596,5.389999866485596,5.550000190734863,8100,5.550000190734863
2018-05-15,5.550000190734863,5.360000133514404,5.539999961853027,5.550000190734863,4200,5.550000190734863
2018-05-16,5.826000213623047,5.550000190734863,5.550000190734863,5.826000213623047,17300,5.826000213623047
2018-05-17,6.099999904632568,5.520999908447266,5.520999908447266,5.995999813079834,30900,5.995999813079834
2018-05-18,6.349999904632568,5.260000228881836,5.699999809265137,6.199999809265137,39200,6.199999809265137
2018-05-21,6.340000152587891,6.031000137329102,6.239999771118164,6.340000152587891,5100,6.340000152587891
2018-05-22,6.25,6.0,6.0,6.199999809265137,5700,6.199999809265137
2018-05-23,7.0,6.0,6.230000019073486,6.880000114440918,53400,6.880000114440918
2018-05-24,6.880000114440918,6.389999866485596,6.880000114440918,6.570000171661377,45300,6.570000171661377
2018-05-25,6.739999771118164,6.10099983215332,6.570000171661377,6.71999979019165,14300,6.71999979019165
2018-05-29,6.75,6.420000076293945,6.559999942779541,6.730000019073486,4500,6.730000019073486
2018-05-30,6.53000020980835,6.10099983215332,6.53000020980835,6.39900016784668,5300,6.39900016784668
2018-05-31,6.519000053405762,6.050000190734863,6.289999961853027,6.510000228881836,9400,6.510000228881836
2018-06-01,6.480000019073486,5.9710001945495605,6.230000019073486,6.460000038146973,17100,6.460000038146973
2018-06-04,6.360000133514404,5.809999942779541,6.2230000495910645,6.150000095367432,26900,6.150000095367432
2018-06-05,6.198999881744385,6.010000228881836,6.019999980926514,6.050000190734863,8300,6.050000190734863
2018-06-06,6.580999851226807,6.0,6.0,6.309999942779541,25700,6.309999942779541
2018-06-07,6.658999919891357,6.260000228881836,6.658999919891357,6.468999862670898,16400,6.468999862670898
2018-06-08,6.739999771118164,6.3420000076293945,6.739999771118164,6.590000152587891,1400,6.590000152587891
2018-06-11,6.5,6.159999847412109,6.5,6.480000019073486,2500,6.480000019073486
2018-06-12,6.699999809265137,6.230000019073486,6.46999979019165,6.699999809265137,10300,6.699999809265137
2018-06-13,6.75,6.060999870300293,6.75,6.598999977111816,35700,6.598999977111816
2018-06-14,6.590000152587891,6.210000038146973,6.400000095367432,6.550000190734863,19100,6.550000190734863
2018-06-15,7.510000228881836,6.619999885559082,6.619999885559082,7.39900016784668,56500,7.39900016784668
2018-06-18,7.949999809265137,6.8420000076293945,7.389999866485596,7.21999979019165,55400,7.21999979019165
2018-06-19,7.199999809265137,6.800000190734863,6.949999809265137,7.063000202178955,14600,7.063000202178955
2018-06-20,7.099999904632568,6.860000133514404,7.099999904632568,6.985000133514404,2800,6.985000133514404
2018-06-21,6.900000095367432,5.730999946594238,6.900000095367432,6.210000038146973,23200,6.210000038146973
2018-06-22,6.880000114440918,6.409999847412109,6.630000114440918,6.449999809265137,7000,6.449999809265137
2018-06-25,7.090000152587891,6.119999885559082,6.400000095367432,7.090000152587891,2200,7.090000152587891
2018-06-26,7.068999767303467,6.539999961853027,6.539999961853027,6.784999847412109,1500,6.784999847412109
2018-06-27,7.019999980926514,6.210000038146973,6.510000228881836,6.2210001945495605,3300,6.2210001945495605
2018-06-28,6.150000095367432,6.010000228881836,6.150000095367432,6.010000228881836,400,6.010000228881836
2018-06-29,5.989999771118164,5.710000038146973,5.900000095367432,5.75,6700,5.75
2018-07-02,6.171000003814697,5.699999809265137,5.855000019073486,6.125999927520752,9500,6.125999927520752
2018-07-03,6.190000057220459,6.0,6.190000057220459,6.056000232696533,12500,6.056000232696533
2018-07-05,6.25,5.949999809265137,6.25,6.0,6900,6.0
2018-07-06,6.578999996185303,6.130000114440918,6.578999996185303,6.489999771118164,15400,6.489999771118164
2018-07-09,6.599999904632568,6.360000133514404,6.550000190734863,6.559999942779541,12700,6.559999942779541
2018-07-10,6.800000190734863,6.659999847412109,6.659999847412109,6.710000038146973,6100,6.710000038146973
2018-07-11,6.701000213623047,6.699999809265137,6.701000213623047,6.699999809265137,700,6.699999809265137
2018-07-12,6.980000019073486,6.824999809265137,6.900000095367432,6.929999828338623,5500,6.929999828338623
2018-07-13,7.440000057220459,6.980000019073486,6.980000019073486,7.230000019073486,7500,7.230000019073486
2018-07-16,7.64900016784668,7.199999809265137,7.639999866485596,7.494999885559082,1800,7.494999885559082
2018-07-17,7.650000095367432,7.563000202178955,7.590000152587891,7.590000152587891,2400,7.590000152587891
2018-07-18,7.650000095367432,7.25,7.590000152587891,7.599999904632568,5100,7.599999904632568
2018-07-19,8.199999809265137,7.349999904632568,7.650000095367432,7.821000099182129,16300,7.821000099182129
2018-07-20,8.5,7.079999923706055,8.5,7.989999771118164,9200,7.989999771118164
2018-07-23,8.75,7.75,8.0,8.048999786376953,16700,8.048999786376953
2018-07-24,8.0,7.144000053405762,8.0,7.7789998054504395,20100,7.7789998054504395
2018-07-25,9.0,7.800000190734863,8.0,8.0,2100,8.0
2018-07-26,8.59000015258789,7.880000114440918,8.505999565124512,7.880000114440918,1500,7.880000114440918
2018-07-27,8.199999809265137,7.739999771118164,7.789999961853027,8.17300033569336,16300,8.17300033569336
2018-07-30,8.399999618530273,7.650000095367432,8.130000114440918,8.270000457763672,16400,8.270000457763672
2018-07-31,9.460000038146973,7.639999866485596,8.949999809265137,9.0,15100,9.0
2018-08-01,8.5,8.039999961853027,8.039999961853027,8.5,600,8.5
2018-08-02,8.975000381469727,7.547999858856201,8.010000228881836,8.420000076293945,8300,8.420000076293945
2018-08-03,8.383000373840332,7.03000020980835,7.550000190734863,8.34000015258789,3800,8.34000015258789
2018-08-06,8.170000076293945,7.420000076293945,8.170000076293945,7.877999782562256,5500,7.877999782562256
2018-08-07,7.76200008392334,7.0,7.610000133514404,7.377999782562256,2200,7.377999782562256
2018-08-08,8.0,7.0,8.0,7.2170000076293945,11100,7.2170000076293945
2018-08-09,7.599999904632568,7.190000057220459,7.190000057220459,7.460000038146973,13900,7.460000038146973
2018-08-10,7.699999809265137,7.1529998779296875,7.400000095367432,7.455999851226807,1500,7.455999851226807
2018-08-13,7.630000114440918,7.0,7.630000114440918,7.050000190734863,8100,7.050000190734863
2018-08-14,7.460000038146973,6.440000057220459,7.460000038146973,7.15500020980835,6700,7.15500020980835
2018-08-15,7.139999866485596,6.800000190734863,7.139999866485596,7.0,1700,7.0
2018-08-16,7.309999942779541,6.5980000495910645,6.800000190734863,7.309999942779541,7700,7.309999942779541
2018-08-17,7.309999942779541,6.699999809265137,6.949999809265137,6.849999904632568,31900,6.849999904632568
2018-08-20,7.041999816894531,6.849999904632568,7.0,6.849999904632568,5500,6.849999904632568
2018-08-21,7.110000133514404,6.802999973297119,6.829999923706055,7.079999923706055,15000,7.079999923706055
2018-08-22,7.289999961853027,6.699999809265137,7.099999904632568,7.050000190734863,7600,7.050000190734863
2018-08-23,7.03000020980835,6.699999809265137,7.0,7.0,2000,7.0
2018-08-24,7.230000019073486,6.510000228881836,7.230000019073486,6.71999979019165,2800,6.71999979019165
2018-08-27,6.840000152587891,6.71999979019165,6.730000019073486,6.78000020980835,4000,6.78000020980835
2018-08-28,7.449999809265137,6.599999904632568,6.690000057220459,6.800000190734863,9800,6.800000190734863
2018-08-29,7.0,6.289999961853027,6.760000228881836,6.679999828338623,6500,6.679999828338623
2018-08-30,6.999000072479248,6.051000118255615,6.051000118255615,6.989999771118164,7800,6.989999771118164
2018-08-31,7.699999809265137,7.019999980926514,7.349999904632568,7.699999809265137,5200,7.699999809265137
2018-09-04,8.5600004196167,7.510000228881836,8.0,7.809999942779541,4300,7.809999942779541
2018-09-05,8.03499984741211,7.110000133514404,7.710000038146973,7.639999866485596,6300,7.639999866485596
2018-09-06,8.300000190734863,7.449999809265137,7.839000225067139,8.0,1700,8.0
2018-09-07,8.0,7.199999809265137,7.599999904632568,7.599999904632568,5300,7.599999904632568
2018-09-10,7.989999771118164,7.5,7.599999904632568,7.989999771118164,1800,7.989999771118164
2018-09-11,7.690000057220459,7.400000095367432,7.5,7.570000171661377,12500,7.570000171661377
2018-09-12,8.300000190734863,7.570000171661377,8.300000190734863,7.760000228881836,5200,7.760000228881836
2018-09-13,8.300000190734863,7.110000133514404,8.28499984741211,7.685999870300293,12200,7.685999870300293
2018-09-14,8.25,7.550000190734863,7.75,7.619999885559082,10300,7.619999885559082
2018-09-17,8.300000190734863,7.539999961853027,7.539999961853027,8.210000038146973,5800,8.210000038146973
2018-09-18,8.010000228881836,7.119999885559082,7.119999885559082,7.6529998779296875,5400,7.6529998779296875
2018-09-19,7.599999904632568,7.110000133514404,7.599999904632568,7.559999942779541,900,7.559999942779541
2018-09-20,7.599999904632568,7.199999809265137,7.599999904632568,7.5970001220703125,4800,7.5970001220703125
2018-09-21,7.869999885559082,7.869999885559082,7.869999885559082,7.869999885559082,300,7.869999885559082
2018-09-24,8.229999542236328,7.210000038146973,7.5,8.100000381469727,12700,8.100000381469727
2018-09-25,8.0,7.5,7.5,7.75,10900,7.75
2018-09-26,8.300000190734863,7.5,8.199999809265137,7.808000087738037,10500,7.808000087738037
2018-09-27,8.0,7.949999809265137,8.0,7.949999809265137,300,7.949999809265137
2018-09-28,8.289999961853027,8.0,8.0,8.0,600,8.0
2018-10-01,9.0,7.909999847412109,7.909999847412109,8.479999542236328,2000,8.479999542236328
2018-10-02,8.720000267028809,7.289999961853027,8.720000267028809,8.0600004196167,1000,8.0600004196167
2018-10-03,8.336000442504883,7.679999828338623,8.0600004196167,7.679999828338623,7400,7.679999828338623
2018-10-04,8.404999732971191,7.5,7.5,7.599999904632568,8000,7.599999904632568
2018-10-05,8.75,7.75,7.800000190734863,8.75,300,8.75
2018-10-08,8.5,7.440000057220459,8.5,7.53000020980835,5300,7.53000020980835
2018-10-09,7.96999979019165,7.260000228881836,7.400000095367432,7.309999942779541,4100,7.309999942779541
2018-10-10,7.6020002365112305,7.309999942779541,7.6020002365112305,7.349999904632568,2300,7.349999904632568
2018-10-11,7.28000020980835,6.5,7.28000020980835,6.539999961853027,2900,6.539999961853027
2018-10-12,7.0,6.349999904632568,7.0,6.96999979019165,400,6.96999979019165
2018-10-15,7.550000190734863,7.110000133514404,7.110000133514404,7.550000190734863,2800,7.550000190734863
2018-10-16,7.900000095367432,7.125,7.125,7.809999942779541,1200,7.809999942779541
2018-10-17,8.25,7.75,7.800000190734863,8.0,2300,8.0
2018-10-18,8.069999694824219,6.699999809265137,8.029999732971191,6.699999809265137,1400,6.699999809265137
2018-10-19,7.699999809265137,6.519999980926514,7.0,6.519999980926514,1300,6.519999980926514
2018-10-22,7.0,6.610000133514404,6.610000133514404,7.0,200,7.0
2018-10-23,7.789999961853027,6.800000190734863,7.789999961853027,7.0,3000,7.0
2018-10-24,7.0,7.0,7.0,7.0,0,7.0
2018-10-25,7.0,6.809999942779541,6.809999942779541,7.0,1600,7.0
2018-10-26,7.050000190734863,6.400000095367432,7.046000003814697,6.400000095367432,3600,6.400000095367432
2018-10-29,7.21999979019165,6.590000152587891,6.590000152587891,7.21999979019165,200,7.21999979019165
2018-10-30,7.0,6.170000076293945,7.0,6.329999923706055,2500,6.329999923706055
2018-10-31,7.099999904632568,6.329999923706055,6.329999923706055,6.880000114440918,6000,6.880000114440918
2018-11-01,7.099999904632568,6.21999979019165,7.099999904632568,6.670000076293945,3500,6.670000076293945
2018-11-02,7.170000076293945,6.329999923706055,6.329999923706055,7.170000076293945,5200,7.170000076293945
2018-11-05,7.177999973297119,6.690000057220459,7.177999973297119,6.710000038146973,3000,6.710000038146973
2018-11-06,6.7220001220703125,6.309999942779541,6.71999979019165,6.349999904632568,1800,6.349999904632568
2018-11-07,6.440000057220459,5.880000114440918,6.440000057220459,5.889999866485596,6100,5.889999866485596
2018-11-08,6.300000190734863,5.860000133514404,5.876999855041504,6.177000045776367,2400,6.177000045776367
2018-11-09,6.590000152587891,6.300000190734863,6.300000190734863,6.556000232696533,3300,6.556000232696533
2018-11-12,6.557000160217285,6.425000190734863,6.557000160217285,6.550000190734863,1200,6.550000190734863
2018-11-13,6.539999961853027,6.315000057220459,6.480000019073486,6.315000057220459,1200,6.315000057220459
2018-11-14,6.559999942779541,6.480000019073486,6.559999942779541,6.480000019073486,400,6.480000019073486
2018-11-15,6.449999809265137,6.440000057220459,6.440000057220459,6.449999809265137,400,6.449999809265137
2018-11-16,6.420000076293945,6.329999923706055,6.400000095367432,6.409999847412109,1800,6.409999847412109
2018-11-19,6.409999847412109,5.889999866485596,6.199999809265137,6.409999847412109,800,6.409999847412109
2018-11-20,6.369999885559082,6.369999885559082,6.369999885559082,6.369999885559082,100,6.369999885559082
2018-11-21,6.349999904632568,6.150000095367432,6.349999904632568,6.150000095367432,600,6.150000095367432
2018-11-23,6.150000095367432,6.150000095367432,6.150000095367432,6.150000095367432,0,6.150000095367432
2018-11-26,6.099999904632568,5.660999774932861,5.889999866485596,6.099999904632568,1000,6.099999904632568
2018-11-27,6.099999904632568,6.099999904632568,6.099999904632568,6.099999904632568,100,6.099999904632568
2018-11-28,5.989999771118164,5.989999771118164,5.989999771118164,5.989999771118164,600,5.989999771118164
2018-11-29,5.989999771118164,5.989999771118164,5.989999771118164,5.989999771118164,0,5.989999771118164
2018-11-30,5.989999771118164,5.989999771118164,5.989999771118164,5.989999771118164,0,5.989999771118164
2018-12-03,5.949999809265137,5.714000225067139,5.714000225067139,5.949999809265137,500,5.949999809265137
2018-12-04,5.949999809265137,5.949999809265137,5.949999809265137,5.949999809265137,0,5.949999809265137
2018-12-06,5.550000190734863,5.550000190734863,5.550000190734863,5.550000190734863,300,5.550000190734863
2018-12-07,5.550000190734863,5.550000190734863,5.550000190734863,5.550000190734863,100,5.550000190734863
2018-12-10,5.0,4.460000038146973,4.949999809265137,5.0,500,5.0
2018-12-11,4.949999809265137,4.0,4.949999809265137,4.0,300,4.0
2018-12-12,4.989999771118164,4.110000133514404,4.989999771118164,4.849999904632568,4200,4.849999904632568
2018-12-13,4.849999904632568,4.849999904632568,4.849999904632568,4.849999904632568,100,4.849999904632568
2018-12-14,4.119999885559082,4.0,4.119999885559082,4.079999923706055,2400,4.079999923706055
2018-12-17,4.849999904632568,3.990000009536743,4.0,4.5,5800,4.5
2018-12-18,4.5,4.5,4.5,4.5,0,4.5
2018-12-19,4.499000072479248,3.5,3.5,4.499000072479248,12000,4.499000072479248
2018-12-20,4.25,3.3499999046325684,4.25,4.25,4800,4.25
2018-12-21,4.449999809265137,3.6500000953674316,4.230000019073486,3.7899999618530273,9100,3.7899999618530273
2018-12-24,3.7899999618530273,3.7899999618530273,3.7899999618530273,3.7899999618530273,0,3.7899999618530273
2018-12-26,4.570000171661377,4.429999828338623,4.489999771118164,4.570000171661377,2700,4.570000171661377
2018-12-27,5.5,4.570000171661377,4.570000171661377,5.460000038146973,7200,5.460000038146973
2018-12-28,5.5,4.320000171661377,5.400000095367432,5.5,4700,5.5
2018-12-31,6.5,5.210000038146973,5.5,6.5,3200,6.5
2019-01-02,6.789999961853027,6.170000076293945,6.170000076293945,6.789999961853027,1900,6.789999961853027
2019-01-03,7.010000228881836,6.550000190734863,7.010000228881836,7.0,2700,7.0
2019-01-04,7.5,6.400000095367432,7.010000228881836,7.5,5900,7.5
2019-01-07,8.0,6.650000095367432,7.5,8.0,6900,8.0
2019-01-08,8.460000038146973,7.932000160217285,8.0,8.460000038146973,8900,8.460000038146973
2019-01-09,8.75,7.659999847412109,8.279999732971191,8.5,3900,8.5
2019-01-10,8.75,7.960000038146973,8.489999771118164,8.739999771118164,12600,8.739999771118164
2019-01-11,8.949999809265137,8.220000267028809,8.739999771118164,8.880000114440918,11900,8.880000114440918
2019-01-14,9.1899995803833,9.0,9.0,9.170000076293945,3100,9.170000076293945
2019-01-15,9.210000038146973,8.420000076293945,9.170000076293945,8.819999694824219,17700,8.819999694824219
2019-01-16,9.210000038146973,7.789999961853027,9.210000038146973,9.0,8300,9.0
2019-01-17,8.779999732971191,7.590000152587891,8.140000343322754,7.639999866485596,8000,7.639999866485596
2019-01-18,8.5,7.300000190734863,8.489999771118164,7.300000190734863,6400,7.300000190734863
2019-01-22,8.0,7.239999771118164,7.239999771118164,7.998000144958496,2400,7.998000144958496
2019-01-23,8.399999618530273,7.659999847412109,8.399999618530273,8.279999732971191,3900,8.279999732971191
2019-01-24,8.399999618530273,7.5,8.0,7.820000171661377,6300,7.820000171661377
2019-01-25,9.079999923706055,8.071000099182129,8.220999717712402,8.781000137329102,7100,8.781000137329102
2019-01-28,9.25,8.329999923706055,9.25,8.899999618530273,900,8.899999618530273
2019-01-29,8.739999771118164,7.53000020980835,7.900000095367432,8.739999771118164,900,8.739999771118164
2019-01-30,8.899999618530273,7.5,8.84000015258789,8.770000457763672,9700,8.770000457763672
2019-01-31,8.850000381469727,7.840000152587891,8.770000457763672,8.59000015258789,6100,8.59000015258789
2019-02-01,8.850000381469727,8.069999694824219,8.850000381469727,8.850000381469727,5100,8.850000381469727
2019-02-04,8.979999542236328,8.850000381469727,8.979999542236328,8.970000267028809,1500,8.970000267028809
2019-02-05,9.100000381469727,8.949999809265137,9.0,9.100000381469727,1200,9.100000381469727
2019-02-06,9.25,8.100000381469727,8.10099983215332,9.25,1600,9.25
2019-02-07,9.300000190734863,9.300000190734863,9.300000190734863,9.300000190734863,400,9.300000190734863
2019-02-08,9.300000190734863,9.300000190734863,9.300000190734863,9.300000190734863,0,9.300000190734863
2019-02-11,9.289999961853027,9.170000076293945,9.199999809265137,9.289999961853027,900,9.289999961853027
2019-02-12,9.5,9.289999961853027,9.300000190734863,9.489999771118164,2400,9.489999771118164
2019-02-13,9.75,9.479999542236328,9.479999542236328,9.75,3000,9.75
2019-02-14,11.170000076293945,9.03600025177002,9.640000343322754,10.920000076293945,26800,10.920000076293945
2019-02-15,10.920000076293945,9.920000076293945,10.399999618530273,10.90999984741211,1700,10.90999984741211
2019-02-19,11.5,10.069999694824219,10.069999694824219,11.5,8000,11.5
2019-02-20,11.520000457763672,10.399999618530273,11.520000457763672,11.520000457763672,4500,11.520000457763672
2019-02-21,11.539999961853027,10.069999694824219,11.539999961853027,11.510000228881836,1500,11.510000228881836
2019-02-22,12.5,11.140000343322754,11.279999732971191,12.380000114440918,9400,12.380000114440918
2019-02-25,13.449999809265137,12.0,12.399999618530273,13.223999977111816,6700,13.223999977111816
2019-02-26,13.479999542236328,12.0,13.050000190734863,13.34000015258789,4800,13.34000015258789
2019-02-27,13.555999755859375,11.59000015258789,13.199999809265137,12.199999809265137,9600,12.199999809265137
2019-02-28,12.65999984741211,10.550000190734863,12.449999809265137,12.0,3500,12.0
2019-03-01,11.789999961853027,10.630000114440918,11.789999961853027,10.789999961853027,3800,10.789999961853027
2019-03-04,11.789999961853027,10.279999732971191,11.789999961853027,11.399999618530273,3800,11.399999618530273
2019-03-05,11.788999557495117,10.229999542236328,11.0,11.579000473022461,2400,11.579000473022461
2019-03-06,11.789999961853027,11.569999694824219,11.680000305175781,11.598999977111816,1300,11.598999977111816
2019-03-07,11.789999961853027,10.300000190734863,11.789999961853027,11.789999961853027,6600,11.789999961853027
2019-03-08,11.800000190734863,10.718000411987305,11.800000190734863,11.800000190734863,700,11.800000190734863
2019-03-11,12.680000305175781,10.3100004196167,10.640000343322754,11.399999618530273,8500,11.399999618530273
2019-03-12,12.680000305175781,10.5600004196167,11.380000114440918,10.5600004196167,3300,10.5600004196167
2019-03-13,11.020000457763672,9.65999984741211,11.020000457763672,11.020000457763672,11300,11.020000457763672
2019-03-14,12.220000267028809,10.1899995803833,10.670000076293945,11.449999809265137,12800,11.449999809265137
2019-03-15,11.5,9.800000190734863,11.5,9.800000190734863,13300,9.800000190734863
2019-03-18,11.5,9.399999618530273,9.979999542236328,10.289999961853027,13600,10.289999961853027
2019-03-19,10.399999618530273,9.479999542236328,10.289999961853027,10.399999618530273,8500,10.399999618530273
2019-03-20,10.399999618530273,9.5,10.0,9.75,12200,9.75
2019-03-21,10.350000381469727,9.5,10.350000381469727,10.267999649047852,7600,10.267999649047852
2019-03-22,10.399999618530273,8.239999771118164,9.829999923706055,9.289999961853027,6800,9.289999961853027
2019-03-25,9.460000038146973,8.949999809265137,9.199999809265137,9.210000038146973,4000,9.210000038146973
2019-03-26,9.25,9.25,9.25,9.25,100,9.25
2019-03-27,9.260000228881836,7.710000038146973,9.010000228881836,8.1899995803833,7100,8.1899995803833
2019-03-28,8.760000228881836,7.550000190734863,8.760000228881836,8.760000228881836,2000,8.760000228881836
2019-03-29,9.199999809265137,7.420000076293945,9.199999809265137,7.420000076293945,3100,7.420000076293945
2019-04-01,7.980000019073486,6.573999881744385,7.980000019073486,7.25,2000,7.25
2019-04-02,7.599999904632568,6.989999771118164,7.599999904632568,7.079999923706055,2400,7.079999923706055
2019-04-03,7.320000171661377,5.900000095367432,7.320000171661377,6.599999904632568,5400,6.599999904632568
2019-04-04,6.599999904632568,6.110000133514404,6.329999923706055,6.519999980926514,7000,6.519999980926514
2019-04-05,8.569999694824219,6.039999961853027,6.579999923706055,7.900000095367432,10900,7.900000095367432
2019-04-08,9.020000457763672,7.489999771118164,7.940000057220459,9.020000457763672,17400,9.020000457763672
2019-04-09,9.210000038146973,7.400000095367432,7.400000095367432,9.0600004196167,7000,9.0600004196167
2019-04-10,9.210000038146973,7.7220001220703125,9.210000038146973,9.020000457763672,7800,9.020000457763672
2019-04-11,9.510000228881836,8.359999656677246,8.989999771118164,9.489999771118164,5700,9.489999771118164
2019-04-12,9.510000228881836,7.920000076293945,9.039999961853027,8.600000381469727,2100,8.600000381469727
2019-04-15,9.329999923706055,8.0,8.619999885559082,8.600000381469727,8200,8.600000381469727
2019-04-16,9.149999618530273,8.010000228881836,8.649999618530273,8.300000190734863,6200,8.300000190734863
2019-04-17,9.149999618530273,7.53000020980835,8.130000114440918,8.399999618530273,11500,8.399999618530273
2019-04-18,9.288000106811523,6.869999885559082,8.779999732971191,9.130000114440918,15100,9.130000114440918
2019-04-22,8.199999809265137,7.300000190734863,8.119999885559082,7.880000114440918,6500,7.880000114440918
2019-04-23,8.210000038146973,7.389999866485596,8.210000038146973,8.210000038146973,1400,8.210000038146973
2019-04-24,8.210000038146973,7.159999847412109,7.739999771118164,7.659999847412109,3000,7.659999847412109
2019-04-25,7.900000095367432,7.170000076293945,7.210000038146973,7.900000095367432,1000,7.900000095367432
2019-04-26,7.360000133514404,5.300000190734863,7.360000133514404,5.980000019073486,15900,5.980000019073486
2019-04-29,6.440000057220459,5.034999847412109,6.440000057220459,6.300000190734863,8100,6.300000190734863
2019-04-30,6.760000228881836,6.03000020980835,6.400000095367432,6.71999979019165,4400,6.71999979019165
2019-05-01,7.519999980926514,6.184000015258789,7.119999885559082,7.130000114440918,5300,7.130000114440918
2019-05-02,7.119999885559082,6.21999979019165,6.239999771118164,7.070000171661377,1000,7.070000171661377
2019-05-03,7.130000114440918,5.519999980926514,7.130000114440918,6.300000190734863,7600,6.300000190734863
2019-05-06,7.119999885559082,5.815999984741211,5.815999984741211,6.389999866485596,2100,6.389999866485596
2019-05-07,6.710000038146973,5.519999980926514,6.710000038146973,6.039999961853027,7200,6.039999961853027
2019-05-08,6.650000095367432,6.090000152587891,6.349999904632568,6.550000190734863,7000,6.550000190734863
2019-05-09,6.559999942779541,5.5,6.289999961853027,5.599999904632568,24900,5.599999904632568
2019-05-10,5.880000114440918,5.010000228881836,5.599999904632568,5.230000019073486,11300,5.230000019073486
2019-05-13,5.179999828338623,4.659999847412109,5.0,4.989999771118164,1500,4.989999771118164
2019-05-14,5.400000095367432,4.449999809265137,4.659999847412109,5.130000114440918,14200,5.130000114440918
2019-05-15,5.039999961853027,4.409999847412109,5.039999961853027,4.590000152587891,17700,4.590000152587891
2019-05-16,4.5,3.700000047683716,4.5,3.7300000190734863,56000,3.7300000190734863
2019-05-17,4.960000038146973,4.039999961853027,4.039999961853027,4.699999809265137,37300,4.699999809265137
2019-05-20,4.599999904632568,4.050000190734863,4.599999904632568,4.369999885559082,30100,4.369999885559082
2019-05-21,4.389999866485596,3.5999999046325684,4.179999828338623,4.0,41200,4.0
2019-05-22,4.171000003814697,3.5399999618530273,3.890000104904175,3.5399999618530273,71700,3.5399999618530273
2019-05-23,4.0,3.5999999046325684,3.5999999046325684,3.8399999141693115,89300,3.8399999141693115
2019-05-24,4.230000019073486,3.509999990463257,3.7920000553131104,3.5199999809265137,72300,3.5199999809265137
