Date,High,Low,Open,Close,Volume,Adj Close
2015-01-02,13524000.0,12465600.0,12700800.0,13288800.0,0.0,11301872.0
2015-01-05,13406400.0,12112800.0,13171200.0,12583200.0,0.0,10701773.0
2015-01-06,12700800.0,11760000.0,12583200.0,12230400.0,0.0,10401723.0
2015-01-07,12583200.0,11877600.0,12230400.0,11877600.0,0.0,10101673.0
2015-01-08,12936000.0,11877600.0,12465600.0,12700800.0,0.0,10801789.0
2015-01-09,13053600.0,12112800.0,12818400.0,12230400.0,0.0,10401723.0
2015-01-12,12936000.0,11877600.0,12465600.0,12348000.0,0.0,10501739.0
2015-01-13,12936000.0,11172000.0,12936000.0,11760000.0,0.0,10001656.0
2015-01-14,12230400.0,10936800.0,11289600.0,12112800.0,0.0,10301706.0
2015-01-15,12112800.0,11407200.0,11877600.0,11524800.0,0.0,9801624.0
2015-01-16,11760000.0,11407200.0,11524800.0,11642400.0,0.0,9901640.0
2015-01-20,11524800.0,10936800.0,11172000.0,11054400.0,0.0,9401558.0
2015-01-21,12230400.0,11054400.0,11289600.0,11995200.0,0.0,10201690.0
2015-01-22,12348000.0,11995200.0,12112800.0,12112800.0,0.0,10301706.0
2015-01-23,12348000.0,11054400.0,12112800.0,11407200.0,0.0,9701607.0
2015-01-26,11524800.0,11054400.0,11407200.0,11289600.0,0.0,9601590.0
2015-01-27,11407200.0,10936800.0,11054400.0,11289600.0,0.0,9601590.0
2015-01-28,11407200.0,10936800.0,11407200.0,11289600.0,0.0,9601590.0
2015-01-29,11407200.0,10113600.0,11407200.0,10584000.0,0.0,9001491.0
2015-01-30,11289600.0,10113600.0,10113600.0,10936800.0,0.0,9301540.0
2015-02-02,11524800.0,10819200.0,10936800.0,11407200.0,0.0,9701607.0
2015-02-03,12465600.0,11407200.0,11524800.0,11877600.0,0.0,10101673.0
2015-02-04,12583200.0,11760000.0,11995200.0,12112800.0,0.0,10301706.0
2015-02-05,12700800.0,11877600.0,12230400.0,12465600.0,0.0,10601756.0
2015-02-06,12818400.0,11995200.0,12465600.0,12112800.0,0.0,10301706.0
2015-02-09,12465600.0,11995200.0,12230400.0,12112800.0,0.0,10301706.0
2015-02-10,12465600.0,11407200.0,12465600.0,11524800.0,0.0,9801624.0
2015-02-11,11760000.0,11172000.0,11407200.0,11289600.0,0.0,9601590.0
2015-02-12,11877600.0,11407200.0,11642400.0,11642400.0,0.0,9901640.0
2015-02-13,11877600.0,11524800.0,11642400.0,11877600.0,0.0,10101673.0
2015-02-17,11995200.0,11172000.0,11995200.0,11760000.0,0.0,10001656.0
2015-02-18,12112800.0,11524800.0,11760000.0,11877600.0,0.0,10101673.0
2015-02-19,11995200.0,11760000.0,11877600.0,11995200.0,0.0,10201690.0
2015-02-20,11877600.0,11172000.0,11760000.0,11524800.0,0.0,9801624.0
2015-02-23,11760000.0,11289600.0,11524800.0,11524800.0,0.0,9801624.0
2015-02-24,11642400.0,11407200.0,11524800.0,11524800.0,0.0,9801624.0
2015-02-25,11995200.0,11407200.0,11642400.0,11995200.0,0.0,10201690.0
2015-02-26,12700800.0,11524800.0,11995200.0,11642400.0,0.0,9901640.0
2015-02-27,11524800.0,11172000.0,11407200.0,11172000.0,0.0,9501574.0
2015-03-02,11289600.0,10701600.0,11172000.0,10936800.0,0.0,9301540.0
2015-03-03,11172000.0,10701600.0,10701600.0,10819200.0,0.0,9201525.0
2015-03-04,10936800.0,10466400.0,10819200.0,10701600.0,0.0,9101508.0
2015-03-05,10701600.0,10466400.0,10701600.0,10584000.0,0.0,9001491.0
2015-03-06,10584000.0,10231200.0,10584000.0,10348800.0,0.0,8801458.0
2015-03-09,10584000.0,10113600.0,10466400.0,10584000.0,0.0,9001491.0
2015-03-10,10584000.0,10113600.0,10348800.0,10584000.0,0.0,9001491.0
2015-03-11,10466400.0,9996000.0,10231200.0,10113600.0,0.0,8601424.0
2015-03-12,10466400.0,9996000.0,9996000.0,10231200.0,0.0,8701442.0
2015-03-13,10466400.0,9878400.0,10348800.0,9996000.0,0.0,8501408.0
2015-03-16,10113600.0,9055200.0,9996000.0,9525600.0,0.0,8101341.5
2015-03-17,9525600.0,9055200.0,9290400.0,9172800.0,0.0,7801291.5
2015-03-18,9408000.0,8702400.0,9055200.0,8937600.0,0.0,7601258.5
2015-03-19,8937600.0,8467200.0,8820000.0,8584800.0,0.0,7301209.0
2015-03-20,9408000.0,8584800.0,8584800.0,9408000.0,0.0,8001324.5
2015-03-23,9760800.0,9055200.0,9290400.0,9525600.0,0.0,8101341.5
2015-03-24,9996000.0,9290400.0,9760800.0,9996000.0,0.0,8501408.0
2015-03-25,9878400.0,9525600.0,9878400.0,9760800.0,0.0,8301375.5
2015-03-26,9996000.0,9525600.0,9760800.0,9878400.0,0.0,8401392.0
2015-03-27,9996000.0,9408000.0,9996000.0,9760800.0,0.0,8301375.5
2015-03-30,9996000.0,9290400.0,9878400.0,9525600.0,0.0,8101341.5
2015-03-31,9878400.0,8702400.0,9760800.0,8937600.0,0.0,7601258.5
2015-04-01,9172800.0,8584800.0,9055200.0,8702400.0,0.0,7401225.5
2015-04-02,9172800.0,8820000.0,8820000.0,8820000.0,0.0,7501242.5
2015-04-06,9290400.0,8702400.0,8820000.0,9172800.0,0.0,7801291.5
2015-04-07,9643200.0,9172800.0,9290400.0,9408000.0,0.0,8001324.5
2015-04-08,9760800.0,9055200.0,9525600.0,9290400.0,0.0,7901308.5
2015-04-09,9525600.0,9172800.0,9290400.0,9290400.0,0.0,7901308.5
2015-04-10,9408000.0,9172800.0,9408000.0,9290400.0,0.0,7901308.5
2015-04-13,9408000.0,9172800.0,9172800.0,9172800.0,0.0,7801291.5
2015-04-14,9290400.0,8937600.0,9172800.0,9055200.0,0.0,7701276.5
2015-04-15,9525600.0,9055200.0,9055200.0,9290400.0,0.0,7901308.5
2015-04-16,9408000.0,8820000.0,9290400.0,8820000.0,0.0,7501242.5
2015-04-17,8820000.0,8584800.0,8820000.0,8702400.0,0.0,7401225.5
2015-04-20,8820000.0,8584800.0,8702400.0,8820000.0,0.0,7501242.5
2015-04-21,8820000.0,8349600.0,8702400.0,8702400.0,0.0,7401225.5
2015-04-22,8820000.0,8349600.0,8584800.0,8702400.0,0.0,7401225.5
2015-04-23,8820000.0,8114400.0,8702400.0,8349600.0,0.0,7101176.0
2015-04-24,8702400.0,8349600.0,8349600.0,8584800.0,0.0,7301209.0
2015-04-27,8702400.0,8349600.0,8467200.0,8349600.0,0.0,7101176.0
2015-04-28,8349600.0,8114400.0,8232000.0,8232000.0,0.0,7001159.0
2015-04-29,8232000.0,7761600.0,8232000.0,7996800.0,0.0,6801126.0
2015-04-30,8349600.0,7644000.0,7879200.0,8349600.0,0.0,7101176.0
2015-05-01,8349600.0,7644000.0,8349600.0,8114400.0,0.0,6901143.0
2015-05-04,8349600.0,7996800.0,7996800.0,8232000.0,0.0,7001159.0
2015-05-05,8584800.0,7996800.0,8349600.0,8584800.0,0.0,7301209.0
2015-05-06,8820000.0,8467200.0,8467200.0,8584800.0,0.0,7301209.0
2015-05-07,8584800.0,8114400.0,8467200.0,8232000.0,0.0,7001159.0
2015-05-08,8349600.0,8114400.0,8232000.0,8349600.0,0.0,7101176.0
2015-05-11,8702400.0,8349600.0,8349600.0,8467200.0,0.0,7201192.5
2015-05-12,9172800.0,8232000.0,8467200.0,9172800.0,0.0,7801291.5
2015-05-13,9996000.0,9290400.0,9408000.0,9525600.0,0.0,8101341.5
2015-05-14,9878400.0,9290400.0,9408000.0,9525600.0,0.0,8101341.5
2015-05-15,9525600.0,9172800.0,9525600.0,9172800.0,0.0,7801291.5
2015-05-18,9408000.0,8820000.0,9055200.0,9290400.0,0.0,7901308.5
2015-05-19,9290400.0,8937600.0,9290400.0,8937600.0,0.0,7601258.5
2015-05-20,9290400.0,8937600.0,8937600.0,9055200.0,0.0,7701276.5
2015-05-21,9643200.0,9172800.0,9290400.0,9290400.0,0.0,7901308.5
2015-05-22,9643200.0,9290400.0,9643200.0,9525600.0,0.0,8101341.5
2015-05-26,9525600.0,8820000.0,9525600.0,8937600.0,0.0,7601258.5
2015-05-27,9408000.0,8820000.0,9055200.0,9172800.0,0.0,7801291.5
2015-05-28,9172800.0,8702400.0,8937600.0,8820000.0,0.0,7501242.5
2015-05-29,8820000.0,8467200.0,8820000.0,8584800.0,0.0,7301209.0
2015-06-01,8702400.0,8349600.0,8349600.0,8584800.0,0.0,7301209.0
2015-06-02,8937600.0,8349600.0,8702400.0,8820000.0,0.0,7501242.5
2015-06-03,9055200.0,8467200.0,8702400.0,8584800.0,0.0,7301209.0
2015-06-04,8702400.0,8584800.0,8584800.0,8584800.0,0.0,7301209.0
2015-06-05,8702400.0,8467200.0,8584800.0,8467200.0,0.0,7201192.5
2015-06-08,8584800.0,8349600.0,8467200.0,8349600.0,0.0,7101176.0
2015-06-09,8584800.0,8232000.0,8584800.0,8349600.0,0.0,7101176.0
2015-06-10,8349600.0,7996800.0,8349600.0,8232000.0,0.0,7001159.0
2015-06-11,8349600.0,7996800.0,8232000.0,7996800.0,0.0,6801126.0
2015-06-12,8232000.0,7879200.0,7996800.0,7879200.0,0.0,6701109.5
2015-06-15,8702400.0,7879200.0,7996800.0,8467200.0,0.0,7201192.5
2015-06-16,8584800.0,8349600.0,8349600.0,8584800.0,0.0,7301209.0
2015-06-17,8937600.0,8114400.0,8584800.0,8114400.0,0.0,6901143.0
2015-06-18,8349600.0,7761600.0,8349600.0,8114400.0,0.0,6901143.0
2015-06-19,8349600.0,7996800.0,8114400.0,8349600.0,0.0,7101176.0
2015-06-22,8467200.0,8114400.0,8232000.0,8349600.0,0.0,7101176.0
2015-06-23,8702400.0,8232000.0,8349600.0,8349600.0,0.0,7101176.0
2015-06-24,8702400.0,8232000.0,8349600.0,8584800.0,0.0,7301209.0
2015-06-25,8702400.0,8114400.0,8584800.0,8232000.0,0.0,7001159.0
2015-06-26,8349600.0,8114400.0,8349600.0,8349600.0,0.0,7101176.0
2015-06-29,8232000.0,7408800.0,7996800.0,7408800.0,0.0,6301043.5
2015-06-30,7644000.0,6820800.0,7291200.0,7056000.0,0.0,6000994.0
2015-07-01,7526400.0,6585600.0,7291200.0,6703200.0,0.0,5700944.5
2015-07-02,7173600.0,6820800.0,6820800.0,6938400.0,0.0,5900977.5
2015-07-06,6938400.0,6232800.0,6938400.0,6350400.0,0.0,5400894.5
2015-07-07,6468000.0,5762400.0,6350400.0,5997600.0,0.0,5100845.0
2015-07-08,6350400.0,5997600.0,5997600.0,5997600.0,0.0,5100845.0
2015-07-09,6585600.0,6115200.0,6115200.0,6232800.0,0.0,5300878.0
2015-07-10,6820800.0,6232800.0,6703200.0,6232800.0,0.0,5300878.0
2015-07-13,7056000.0,6468000.0,6820800.0,6820800.0,0.0,5800960.5
2015-07-14,7056000.0,6585600.0,7056000.0,6820800.0,0.0,5800960.5
2015-07-15,6938400.0,6468000.0,6820800.0,6585600.0,0.0,5600928.0
2015-07-16,7291200.0,6468000.0,6585600.0,7291200.0,0.0,6201027.0
2015-07-17,8114400.0,7173600.0,7408800.0,7996800.0,0.0,6801126.0
2015-07-20,8114400.0,7408800.0,8114400.0,7526400.0,0.0,6401060.5
2015-07-21,7879200.0,7408800.0,7644000.0,7761600.0,0.0,6601093.5
2015-07-22,7761600.0,6703200.0,7761600.0,6938400.0,0.0,5900977.5
2015-07-23,7408800.0,6585600.0,7173600.0,6820800.0,0.0,5800960.5
2015-07-24,7173600.0,6468000.0,6938400.0,6468000.0,0.0,5500911.0
2015-07-27,6468000.0,5880000.0,6232800.0,5880000.0,0.0,5000828.0
2015-07-28,6232800.0,5762400.0,5997600.0,6115200.0,0.0,5200861.5
2015-07-29,6585600.0,6232800.0,6232800.0,6585600.0,0.0,5600928.0
2015-07-30,6585600.0,5997600.0,6585600.0,6115200.0,0.0,5200861.5
2015-07-31,6350400.0,5997600.0,6115200.0,6232800.0,0.0,5300878.0
2015-08-03,6468000.0,6115200.0,6232800.0,6350400.0,0.0,5400894.5
2015-08-04,6468000.0,6232800.0,6350400.0,6350400.0,0.0,5400894.5
2015-08-05,6468000.0,6232800.0,6468000.0,6350400.0,0.0,5400894.5
2015-08-06,6703200.0,6115200.0,6350400.0,6468000.0,0.0,5500911.0
2015-08-07,6350400.0,5056800.0,6232800.0,5292000.0,0.0,4500745.5
2015-08-10,5409600.0,4704000.0,5174400.0,4939200.0,0.0,4200696.0
2015-08-11,5056800.0,4586400.0,5056800.0,4704000.0,0.0,4000662.25
2015-08-12,4704000.0,4468800.0,4468800.0,4586400.0,0.0,3900645.75
2015-08-13,4704000.0,4468800.0,4704000.0,4468800.0,0.0,3800629.25
2015-08-14,4586400.0,4233600.0,4468800.0,4351200.0,0.0,3700612.75
2015-08-17,4468800.0,4233600.0,4233600.0,4351200.0,0.0,3700612.75
2015-08-18,4351200.0,3880800.0,4351200.0,3998400.0,0.0,3400563.0
2015-08-19,4116000.0,3880800.0,3998400.0,4116000.0,0.0,3500579.5
2015-08-20,4233600.0,3880800.0,4116000.0,4233600.0,0.0,3600596.25
2015-08-21,4233600.0,3998400.0,4116000.0,4116000.0,0.0,3500579.5
2015-08-24,3998400.0,3410400.0,3528000.0,3880800.0,0.0,3300546.75
2015-08-25,4233600.0,3998400.0,4233600.0,4233600.0,0.0,3600596.25
2015-08-26,4351200.0,3998400.0,4233600.0,4233600.0,0.0,3600596.25
2015-08-27,5292000.0,3998400.0,3998400.0,5292000.0,0.0,4500745.5
2015-08-28,5880000.0,5056800.0,5527200.0,5174400.0,0.0,4400729.0
2015-08-31,5527200.0,4939200.0,5292000.0,5409600.0,0.0,4600762.5
2015-09-01,5880000.0,4939200.0,5292000.0,5174400.0,0.0,4400729.0
2015-09-02,5409600.0,4939200.0,5174400.0,5174400.0,0.0,4400729.0
2015-09-03,5527200.0,5056800.0,5174400.0,5292000.0,0.0,4500745.5
2015-09-04,5409600.0,5174400.0,5174400.0,5174400.0,0.0,4400729.0
2015-09-08,5527200.0,5174400.0,5174400.0,5292000.0,0.0,4500745.5
2015-09-09,5527200.0,4939200.0,5292000.0,5056800.0,0.0,4300712.0
2015-09-10,4939200.0,2704800.0,4821600.0,3057600.0,0.0,2600430.75
2015-09-11,3175200.0,2587200.0,3057600.0,2704800.0,0.0,2300381.25
2015-09-14,2940000.0,2469600.0,2704800.0,2704800.0,0.0,2300381.25
2015-09-15,2822400.0,2469600.0,2587200.0,2587200.0,0.0,2200364.5
2015-09-16,3057600.0,2469600.0,2587200.0,2822400.0,0.0,2400397.5
2015-09-17,3057600.0,2704800.0,2940000.0,2822400.0,0.0,2400397.5
2015-09-18,2822400.0,2469600.0,2822400.0,2704800.0,0.0,2300381.25
2015-09-21,2704800.0,2469600.0,2704800.0,2587200.0,0.0,2200364.5
2015-09-22,2587200.0,2352000.0,2587200.0,2469600.0,0.0,2100348.0
2015-09-23,2469600.0,2234400.0,2469600.0,2234400.0,0.0,1900314.625
2015-09-24,2234400.0,2116800.0,2116800.0,2234400.0,0.0,1900314.625
2015-09-25,2234400.0,2116800.0,2234400.0,2116800.0,0.0,1800298.125
2015-09-28,2116800.0,1881600.0,2116800.0,1999200.0,0.0,1700281.5
2015-09-29,2116800.0,1881600.0,1999200.0,1881600.0,0.0,1600265.125
2015-09-30,2116800.0,1881600.0,1881600.0,1999200.0,0.0,1700281.5
2015-10-01,2587200.0,1999200.0,1999200.0,2352000.0,0.0,2000331.125
2015-10-02,2704800.0,2234400.0,2352000.0,2469600.0,0.0,2100348.0
2015-10-05,2587200.0,2234400.0,2469600.0,2469600.0,0.0,2100348.0
2015-10-06,2587200.0,2352000.0,2469600.0,2352000.0,0.0,2000331.125
2015-10-07,2469600.0,2352000.0,2352000.0,2352000.0,0.0,2000331.125
2015-10-08,2469600.0,2234400.0,2469600.0,2352000.0,0.0,2000331.125
2015-10-09,2469600.0,2352000.0,2352000.0,2352000.0,0.0,2000331.125
2015-10-12,2469600.0,2352000.0,2469600.0,2469600.0,0.0,2100348.0
2015-10-13,2587200.0,2352000.0,2352000.0,2469600.0,0.0,2100348.0
2015-10-14,2704800.0,2469600.0,2469600.0,2587200.0,0.0,2200364.5
2015-10-15,2704800.0,2469600.0,2704800.0,2469600.0,0.0,2100348.0
2015-10-16,2587200.0,2352000.0,2587200.0,2469600.0,0.0,2100348.0
2015-10-19,2587200.0,2352000.0,2469600.0,2352000.0,0.0,2000331.125
2015-10-20,2469600.0,2352000.0,2352000.0,2352000.0,0.0,2000331.125
2015-10-21,2352000.0,2116800.0,2352000.0,2116800.0,0.0,1800298.125
2015-10-22,2234400.0,2116800.0,2234400.0,2234400.0,0.0,1900314.625
2015-10-23,2352000.0,2234400.0,2234400.0,2234400.0,0.0,1900314.625
2015-10-26,2352000.0,2234400.0,2234400.0,2352000.0,0.0,2000331.125
2015-10-27,2352000.0,2234400.0,2352000.0,2234400.0,0.0,1900314.625
2015-10-28,2352000.0,2234400.0,2352000.0,2352000.0,0.0,2000331.125
2015-10-29,2352000.0,2234400.0,2352000.0,2352000.0,0.0,2000331.125
2015-10-30,2352000.0,2234400.0,2352000.0,2352000.0,0.0,2000331.125
2015-11-02,2352000.0,2234400.0,2234400.0,2352000.0,0.0,2000331.125
2015-11-03,2352000.0,2352000.0,2352000.0,2352000.0,0.0,2000331.125
2015-11-04,2469600.0,2352000.0,2352000.0,2352000.0,0.0,2000331.125
2015-11-05,2352000.0,2116800.0,2352000.0,2352000.0,0.0,2000331.125
2015-11-06,2352000.0,2234400.0,2352000.0,2352000.0,0.0,2000331.125
2015-11-09,2352000.0,2234400.0,2234400.0,2234400.0,0.0,1900314.625
2015-11-10,2352000.0,2234400.0,2352000.0,2234400.0,0.0,1900314.625
2015-11-11,2234400.0,2116800.0,2234400.0,2116800.0,0.0,1800298.125
2015-11-12,2234400.0,2116800.0,2234400.0,2116800.0,0.0,1800298.125
2015-11-13,2116800.0,2116800.0,2116800.0,2116800.0,0.0,1800298.125
2015-11-16,2234400.0,1999200.0,2116800.0,1999200.0,0.0,1700281.5
2015-11-17,2116800.0,1881600.0,1999200.0,1999200.0,0.0,1700281.5
2015-11-18,1999200.0,1881600.0,1999200.0,1881600.0,0.0,1600265.125
2015-11-19,1881600.0,1881600.0,1881600.0,1881600.0,0.0,1600265.125
2015-11-20,1999200.0,1764000.0,1881600.0,1881600.0,0.0,1600265.125
2015-11-23,1999200.0,1764000.0,1881600.0,1764000.0,0.0,1500248.5
2015-11-24,1881600.0,1764000.0,1764000.0,1881600.0,0.0,1600265.125
2015-11-25,1881600.0,1764000.0,1881600.0,1881600.0,0.0,1600265.125
2015-11-27,1881600.0,1764000.0,1881600.0,1881600.0,0.0,1600265.125
2015-11-30,1881600.0,1881600.0,1881600.0,1881600.0,0.0,1600265.125
2015-12-01,1999200.0,1881600.0,1881600.0,1881600.0,0.0,1600265.125
2015-12-02,1999200.0,1764000.0,1881600.0,1764000.0,0.0,1500248.5
2015-12-03,1881600.0,1764000.0,1881600.0,1881600.0,0.0,1600265.125
2015-12-04,1999200.0,1764000.0,1999200.0,1764000.0,0.0,1500248.5
2015-12-07,1764000.0,1646400.0,1764000.0,1646400.0,0.0,1400232.0
2015-12-08,1881600.0,1646400.0,1764000.0,1646400.0,0.0,1400232.0
2015-12-09,1764000.0,1411200.0,1646400.0,1411200.0,0.0,1200198.75
2015-12-10,1528800.0,1176000.0,1528800.0,1293600.0,0.0,1100182.25
2015-12-11,1411200.0,1176000.0,1293600.0,1293600.0,0.0,1100182.25
2015-12-14,1411200.0,1176000.0,1293600.0,1293600.0,0.0,1100182.25
2015-12-15,1293600.0,1176000.0,1293600.0,1176000.0,0.0,1000165.5625
2015-12-16,1176000.0,1176000.0,1176000.0,1176000.0,0.0,1000165.5625
2015-12-17,1176000.0,1058400.0,1176000.0,1058400.0,0.0,900149.0625
2015-12-18,1058400.0,1058400.0,1058400.0,1058400.0,0.0,900149.0625
2015-12-21,1058400.0,940800.0,1058400.0,940800.0,0.0,800132.5625
2015-12-22,1176000.0,940800.0,940800.0,1058400.0,0.0,900149.0625
2015-12-23,1881600.0,1058400.0,1176000.0,1528800.0,0.0,1300215.375
2015-12-24,2352000.0,1646400.0,1646400.0,2234400.0,0.0,1900314.625
2015-12-28,3292800.0,2234400.0,2352000.0,2940000.0,0.0,2500414.0
2015-12-29,3410400.0,2116800.0,3175200.0,2116800.0,0.0,1800298.125
2015-12-30,2234400.0,1764000.0,2116800.0,1881600.0,0.0,1600265.125
2015-12-31,2234400.0,1764000.0,1764000.0,1999200.0,0.0,1700281.5
2016-01-04,1999200.0,1764000.0,1999200.0,1881600.0,0.0,1600265.125
2016-01-05,1999200.0,1764000.0,1881600.0,1881600.0,0.0,1600265.125
2016-01-06,1881600.0,1646400.0,1881600.0,1764000.0,0.0,1500248.5
2016-01-07,1764000.0,1528800.0,1764000.0,1528800.0,0.0,1300215.375
2016-01-08,1646400.0,1293600.0,1646400.0,1411200.0,0.0,1200198.75
2016-01-11,1646400.0,1293600.0,1411200.0,1293600.0,0.0,1100182.25
2016-01-12,1528800.0,1293600.0,1411200.0,1293600.0,0.0,1100182.25
2016-01-13,1411200.0,1176000.0,1293600.0,1293600.0,0.0,1100182.25
2016-01-14,1411200.0,1176000.0,1293600.0,1293600.0,0.0,1100182.25
2016-01-15,1293600.0,1176000.0,1176000.0,1176000.0,0.0,1000165.5625
2016-01-19,1293600.0,1058400.0,1176000.0,1176000.0,0.0,1000165.5625
2016-01-20,1176000.0,1058400.0,1176000.0,1058400.0,0.0,900149.0625
2016-01-21,1411200.0,1058400.0,1176000.0,1293600.0,0.0,1100182.25
2016-01-22,1764000.0,1293600.0,1293600.0,1764000.0,0.0,1500248.5
2016-01-25,1999200.0,1411200.0,1881600.0,1528800.0,0.0,1300215.375
2016-01-26,1646400.0,1528800.0,1528800.0,1528800.0,0.0,1300215.375
2016-01-27,1646400.0,1411200.0,1528800.0,1646400.0,0.0,1400232.0
2016-01-28,1881600.0,1528800.0,1646400.0,1528800.0,0.0,1300215.375
2016-01-29,1646400.0,1528800.0,1646400.0,1528800.0,0.0,1300215.375
2016-02-01,1528800.0,1411200.0,1528800.0,1528800.0,0.0,1300215.375
2016-02-02,1528800.0,1411200.0,1528800.0,1411200.0,0.0,1200198.75
2016-02-03,1528800.0,1293600.0,1411200.0,1411200.0,0.0,1200198.75
2016-02-04,1528800.0,1411200.0,1411200.0,1528800.0,0.0,1300215.375
2016-02-05,1528800.0,1293600.0,1528800.0,1411200.0,0.0,1200198.75
2016-02-08,1411200.0,1176000.0,1411200.0,1293600.0,0.0,1100182.25
2016-02-09,1293600.0,1176000.0,1293600.0,1176000.0,0.0,1000165.5625
2016-02-10,1293600.0,1176000.0,1293600.0,1176000.0,0.0,1000165.5625
2016-02-11,1293600.0,1176000.0,1176000.0,1176000.0,0.0,1000165.5625
2016-02-12,1293600.0,1176000.0,1176000.0,1293600.0,0.0,1100182.25
2016-02-16,1411200.0,1293600.0,1293600.0,1411200.0,0.0,1200198.75
2016-02-17,1528800.0,1293600.0,1528800.0,1411200.0,0.0,1200198.75
2016-02-18,1411200.0,1293600.0,1411200.0,1293600.0,0.0,1100182.25
2016-02-19,1293600.0,1176000.0,1293600.0,1293600.0,0.0,1100182.25
2016-02-22,1293600.0,1176000.0,1176000.0,1293600.0,0.0,1100182.25
2016-02-23,1293600.0,1293600.0,1293600.0,1293600.0,0.0,1100182.25
2016-02-24,1293600.0,1176000.0,1176000.0,1293600.0,0.0,1100182.25
2016-02-25,1293600.0,1176000.0,1293600.0,1176000.0,0.0,1000165.5625
2016-02-26,1293600.0,1176000.0,1293600.0,1293600.0,0.0,1100182.25
2016-02-29,1411200.0,1176000.0,1293600.0,1293600.0,0.0,1100182.25
2016-03-01,1411200.0,1293600.0,1411200.0,1411200.0,0.0,1200198.75
2016-03-02,1411200.0,1293600.0,1293600.0,1293600.0,0.0,1100182.25
2016-03-03,1881600.0,1293600.0,1293600.0,1646400.0,0.0,1400232.0
2016-03-04,1999200.0,1411200.0,1999200.0,1646400.0,0.0,1400232.0
2016-03-07,2116800.0,1646400.0,1764000.0,1881600.0,0.0,1600265.125
2016-03-08,2116800.0,1528800.0,1999200.0,1646400.0,0.0,1400232.0
2016-03-09,1411200.0,1293600.0,1411200.0,1293600.0,0.0,1100182.25
2016-03-10,1411200.0,1176000.0,1293600.0,1293600.0,0.0,1100182.25
2016-03-11,1270080.0,940800.0,1251264.0,1011360.0,0.0,860142.4375
2016-03-14,1307712.0,997248.0,997248.0,1218336.0,0.0,1036171.5
2016-03-15,1284192.0,1044288.0,1208928.0,1053696.0,0.0,896148.4375
2016-03-16,1218336.0,1039584.0,1039584.0,1190112.0,0.0,1012167.75
2016-03-17,1232448.0,1133664.0,1190112.0,1199520.0,0.0,1020168.875
2016-03-18,1255968.0,1124256.0,1223040.0,1133664.0,0.0,964159.5625
2016-03-21,1143072.0,1081920.0,1119552.0,1133664.0,0.0,964159.5625
2016-03-22,1147776.0,1100736.0,1105440.0,1143072.0,0.0,972161.0625
2016-03-23,1143072.0,1025472.0,1143072.0,1039584.0,0.0,884146.375
2016-03-24,1072512.0,997248.0,1016064.0,1044288.0,0.0,888147.125
2016-03-28,1086624.0,1006656.0,1044288.0,1077216.0,0.0,916151.75
2016-03-29,1081920.0,1011360.0,1058400.0,1053696.0,0.0,896148.4375
2016-03-30,1147776.0,1063104.0,1081920.0,1096032.0,0.0,932154.3125
2016-03-31,1147776.0,1086624.0,1096032.0,1105440.0,0.0,940155.6875
2016-04-01,1096032.0,1006656.0,1077216.0,1044288.0,0.0,888147.125
2016-04-04,1048992.0,992544.0,1034880.0,1006656.0,0.0,856141.75
2016-04-05,1001952.0,870240.0,987840.0,907872.0,0.0,772127.875
2016-04-06,917280.0,846720.0,917280.0,865536.0,0.0,736121.875
2016-04-07,912576.0,856128.0,865536.0,889056.0,0.0,756125.3125
2016-04-08,997248.0,893760.0,907872.0,969024.0,0.0,824136.5
2016-04-11,1025472.0,893760.0,936096.0,992544.0,0.0,844139.8125
2016-04-12,1044288.0,959616.0,1006656.0,1020768.0,0.0,868143.8125
2016-04-13,1176000.0,1016064.0,1030176.0,1110144.0,0.0,944156.375
2016-04-14,1138368.0,1053696.0,1138368.0,1063104.0,0.0,904149.75
2016-04-15,1091328.0,1025472.0,1053696.0,1030176.0,0.0,876145.125
2016-04-18,1048992.0,954912.0,1011360.0,987840.0,0.0,840139.0625
2016-04-19,1081920.0,978432.0,978432.0,1058400.0,0.0,900149.0625
2016-04-20,1138368.0,1058400.0,1058400.0,1091328.0,0.0,928153.6875
2016-04-21,1152480.0,1077216.0,1114848.0,1077216.0,0.0,916151.75
2016-04-22,1166592.0,1039584.0,1067808.0,1138368.0,0.0,968160.25
2016-04-25,1166592.0,1081920.0,1110144.0,1096032.0,0.0,932154.3125
2016-04-26,1143072.0,1063104.0,1081920.0,1133664.0,0.0,964159.5625
2016-04-27,1387680.0,1105440.0,1128960.0,1354752.0,0.0,1152190.75
2016-04-28,2182656.0,1312416.0,1397088.0,1740480.0,0.0,1480245.125
2016-04-29,2093280.0,1745184.0,1970976.0,1886304.0,0.0,1604265.625
2016-05-02,1787520.0,1651104.0,1778112.0,1731072.0,0.0,1472243.75
2016-05-03,1702848.0,1444128.0,1651104.0,1467648.0,0.0,1248206.625
2016-05-04,1599360.0,1415904.0,1467648.0,1425312.0,0.0,1212200.75
2016-05-05,1477056.0,1270080.0,1458240.0,1293600.0,0.0,1100182.25
2016-05-06,1444128.0,1251264.0,1260672.0,1382976.0,0.0,1176194.875
2016-05-09,1481760.0,1223040.0,1378272.0,1241856.0,0.0,1056174.875
2016-05-10,1359456.0,1232448.0,1241856.0,1335936.0,0.0,1136188.125
2016-05-11,1397088.0,1255968.0,1326528.0,1312416.0,0.0,1116184.875
2016-05-12,1340640.0,1166592.0,1317120.0,1190112.0,0.0,1012167.75
2016-05-13,1237152.0,1166592.0,1185408.0,1204224.0,0.0,1024169.6875
2016-05-16,1260672.0,1152480.0,1223040.0,1166592.0,0.0,992164.3125
2016-05-17,1326528.0,1147776.0,1166592.0,1255968.0,0.0,1068177.0
2016-05-18,1284192.0,1161888.0,1246560.0,1180704.0,0.0,1004166.375
2016-05-19,1270080.0,1133664.0,1161888.0,1232448.0,0.0,1048173.6875
2016-05-20,1128960.0,978432.0,1086624.0,1025472.0,0.0,872144.5625
2016-05-23,1058400.0,1011360.0,1034880.0,1020768.0,0.0,868143.8125
2016-05-24,1011360.0,964320.0,1011360.0,969024.0,0.0,824136.5
2016-05-25,1077216.0,969024.0,969024.0,1058400.0,0.0,900149.0625
2016-05-26,1114848.0,997248.0,1077216.0,1030176.0,0.0,876145.125
2016-05-27,1105440.0,1006656.0,1034880.0,1030176.0,0.0,876145.125
2016-05-31,1072512.0,1011360.0,1016064.0,1030176.0,0.0,876145.125
2016-06-01,1034880.0,997248.0,1025472.0,1020768.0,0.0,868143.8125
2016-06-02,1034880.0,978432.0,1016064.0,1020768.0,0.0,868143.8125
2016-06-03,1034880.0,987840.0,1030176.0,1001952.0,0.0,852141.125
2016-06-06,1119552.0,1001952.0,1011360.0,1110144.0,0.0,944156.375
2016-06-07,682080.0,597408.0,677376.0,606816.0,0.0,516085.53125
2016-06-08,639744.0,522144.0,639744.0,559776.0,0.0,476078.9375
2016-06-09,606816.0,559776.0,569184.0,583296.0,0.0,496082.15625
2016-06-10,588000.0,540960.0,583296.0,545664.0,0.0,464076.84375
2016-06-13,545664.0,517440.0,540960.0,531552.0,0.0,452074.875
2016-06-14,531552.0,460992.0,531552.0,470400.0,0.0,400066.28125
2016-06-15,479808.0,376320.0,470400.0,404544.0,0.0,344057.0
2016-06-16,423360.0,381024.0,390432.0,385728.0,0.0,328054.34375
2016-06-17,446880.0,390432.0,404544.0,409248.0,0.0,348057.625
2016-06-20,446880.0,395136.0,428064.0,399840.0,0.0,340056.34375
2016-06-21,399840.0,366912.0,395136.0,381024.0,0.0,324053.625
2016-06-22,376320.0,352800.0,376320.0,357504.0,0.0,304050.375
2016-06-23,362208.0,329280.0,357504.0,338688.0,0.0,288047.6875
2016-06-24,333984.0,301056.0,333984.0,301056.0,0.0,256042.421875
2016-06-27,310464.0,263424.0,291648.0,272832.0,0.0,232038.421875
2016-06-28,305760.0,268128.0,282240.0,277536.0,0.0,236039.09375
2016-06-29,291648.0,263424.0,291648.0,272832.0,0.0,232038.421875
2016-06-30,282240.0,258720.0,282240.0,263424.0,0.0,224037.109375
2016-07-01,315168.0,244608.0,268128.0,291648.0,0.0,248041.078125
2016-07-05,305760.0,239904.0,305760.0,239904.0,0.0,204033.78125
2016-07-06,239904.0,197568.0,239904.0,221088.0,0.0,188031.140625
2016-07-07,221088.0,202272.0,221088.0,216384.0,0.0,184030.46875
2016-07-08,221088.0,202272.0,221088.0,216384.0,0.0,184030.46875
2016-07-11,216384.0,202272.0,216384.0,206976.0,0.0,176029.15625
2016-07-12,235200.0,206976.0,206976.0,216384.0,0.0,184030.46875
2016-07-13,216384.0,206976.0,216384.0,206976.0,0.0,176029.15625
2016-07-14,221088.0,206976.0,206976.0,206976.0,0.0,176029.15625
2016-07-15,211680.0,202272.0,211680.0,206976.0,0.0,176029.15625
2016-07-18,206976.0,188160.0,206976.0,202272.0,0.0,172028.5
2016-07-19,202272.0,188160.0,197568.0,192864.0,0.0,164027.171875
2016-07-20,211680.0,188160.0,206976.0,192864.0,0.0,164027.171875
2016-07-21,286944.0,197568.0,197568.0,272832.0,0.0,232038.421875
2016-07-22,310464.0,235200.0,305760.0,239904.0,0.0,204033.78125
2016-07-25,244608.0,192864.0,244608.0,192864.0,0.0,164027.171875
2016-07-26,202272.0,188160.0,197568.0,192864.0,0.0,164027.171875
2016-07-27,202272.0,174048.0,202272.0,174048.0,0.0,148024.515625
2016-07-28,188160.0,174048.0,188160.0,174048.0,0.0,148024.515625
2016-07-29,174048.0,150528.0,174048.0,159936.0,0.0,136022.53125
2016-08-01,202272.0,159936.0,178752.0,169344.0,0.0,144023.84375
2016-08-02,206976.0,169344.0,197568.0,188160.0,0.0,160026.515625
2016-08-03,192864.0,164640.0,188160.0,178752.0,0.0,152025.1875
2016-08-04,183456.0,169344.0,178752.0,178752.0,0.0,152025.1875
2016-08-05,211680.0,178752.0,183456.0,192864.0,0.0,164027.171875
2016-08-08,230496.0,192864.0,197568.0,216384.0,0.0,184030.46875
2016-08-09,188160.0,164640.0,188160.0,178752.0,0.0,152025.1875
2016-08-10,178752.0,164640.0,169344.0,164640.0,0.0,140023.1875
2016-08-11,174048.0,159936.0,174048.0,164640.0,0.0,140023.1875
2016-08-12,169344.0,150528.0,164640.0,150528.0,0.0,128021.2109375
2016-08-15,147000.0,119952.0,143472.0,123480.0,0.0,105017.3828125
2016-08-16,134064.0,122304.0,130536.0,122304.0,0.0,104017.234375
2016-08-17,128184.0,119952.0,121128.0,123480.0,0.0,105017.3828125
2016-08-18,123480.0,111720.0,123480.0,118776.0,0.0,101016.71875
2016-08-19,118776.0,111720.0,117600.0,112896.0,0.0,96015.890625
2016-08-22,112896.0,99960.0,111720.0,99960.0,0.0,85014.0859375
2016-08-23,105840.0,97608.0,99960.0,105840.0,0.0,90014.90625
2016-08-24,108192.0,99960.0,105840.0,99960.0,0.0,85014.0859375
2016-08-25,105840.0,94080.0,105840.0,94080.0,0.0,80013.2578125
2016-08-26,110544.0,89376.0,95256.0,97608.0,0.0,83013.7421875
2016-08-29,97608.0,89376.0,96432.0,90552.0,0.0,77012.75
2016-08-30,91728.0,77616.0,90552.0,82320.0,0.0,70011.59375
2016-08-31,79968.0,72912.0,79968.0,72912.0,0.0,62010.26953125
2016-09-01,76440.0,54096.0,76440.0,65856.0,0.0,56009.27734375
2016-09-02,77616.0,62328.0,77616.0,64680.0,0.0,55009.11328125
2016-09-06,64680.0,56448.0,63504.0,56448.0,0.0,48007.9453125
2016-09-07,64680.0,52920.0,56448.0,57624.0,0.0,49008.12109375
2016-09-08,63504.0,52920.0,57624.0,58800.0,0.0,50008.28515625
2016-09-09,58800.0,54096.0,58800.0,56448.0,0.0,48007.9453125
2016-09-12,56448.0,52920.0,55272.0,52920.0,0.0,45007.453125
2016-09-13,61152.0,52920.0,52920.0,58800.0,0.0,50008.28515625
2016-09-14,59976.0,54096.0,57624.0,54096.0,0.0,46007.6171875
2016-09-15,67032.0,54096.0,58800.0,57624.0,0.0,49008.12109375
2016-09-16,65856.0,58800.0,61152.0,61152.0,0.0,52008.6171875
2016-09-19,61152.0,54096.0,61152.0,54096.0,0.0,46007.6171875
2016-09-20,56448.0,48216.0,54096.0,49392.0,0.0,42006.95703125
2016-09-21,52920.0,48216.0,48216.0,51744.0,0.0,44007.2890625
2016-09-22,57624.0,51744.0,54096.0,56448.0,0.0,48007.9453125
2016-09-23,63504.0,55272.0,59976.0,56448.0,0.0,48007.9453125
2016-09-26,56448.0,52920.0,56448.0,55272.0,0.0,47007.78515625
2016-09-27,55272.0,51744.0,55272.0,51744.0,0.0,44007.2890625
2016-09-28,55272.0,51744.0,51744.0,54096.0,0.0,46007.6171875
2016-09-29,58800.0,51744.0,55272.0,52920.0,0.0,45007.453125
2016-09-30,54096.0,50568.0,50568.0,52920.0,0.0,45007.453125
2016-10-03,54096.0,50568.0,50568.0,52920.0,0.0,45007.453125
2016-10-04,55272.0,51744.0,55272.0,51744.0,0.0,44007.2890625
2016-10-05,52920.0,50568.0,52920.0,50568.0,0.0,43007.125
2016-10-06,55272.0,49392.0,51744.0,50568.0,0.0,43007.125
2016-10-07,52920.0,48216.0,52920.0,48216.0,0.0,41006.79296875
2016-10-10,51744.0,49392.0,49392.0,50568.0,0.0,43007.125
2016-10-11,50568.0,48216.0,50568.0,48216.0,0.0,41006.79296875
2016-10-12,50568.0,47040.0,50568.0,47040.0,0.0,40006.62890625
2016-10-13,50568.0,44688.0,50568.0,45864.0,0.0,39006.45703125
2016-10-14,48216.0,44688.0,48216.0,44688.0,0.0,38006.296875
2016-10-17,47040.0,43512.0,44688.0,43512.0,0.0,37006.12890625
2016-10-18,47040.0,39984.0,44688.0,42336.0,0.0,36005.9609375
2016-10-19,47040.0,39984.0,41160.0,45864.0,0.0,39006.45703125
2016-10-20,49392.0,44688.0,44688.0,45864.0,0.0,39006.45703125
2016-10-21,45864.0,41160.0,44688.0,42336.0,0.0,36005.9609375
2016-10-24,43512.0,41160.0,42336.0,42336.0,0.0,36005.9609375
2016-10-25,47040.0,41160.0,43512.0,45864.0,0.0,39006.45703125
2016-10-26,47040.0,43512.0,45864.0,43512.0,0.0,37006.12890625
2016-10-27,45864.0,43512.0,45864.0,43512.0,0.0,37006.12890625
2016-10-28,42336.0,35280.0,41160.0,37632.0,0.0,32005.302734375
2016-10-31,37632.0,35280.0,37632.0,36456.0,0.0,31005.134765625
2016-11-01,42649.6015625,33006.3984375,35750.3984375,34104.0,0.0,29004.802734375
2016-11-02,34025.6015625,30105.599609375,33947.19921875,30889.599609375,0.0,26271.017578125
2016-11-03,39905.6015625,30262.400390625,30340.80078125,36848.0,0.0,31338.5234375
2016-11-04,44923.19921875,35123.19921875,39200.0,35985.6015625,0.0,30605.0703125
2016-11-07,39984.0,34731.19921875,37945.6015625,36064.0,0.0,30671.748046875
2016-11-08,37553.6015625,34966.3984375,34966.3984375,35750.3984375,0.0,30405.037109375
2016-11-09,40376.0,35201.6015625,35672.0,39984.0,0.0,34005.6328125
2016-11-10,122304.0,37240.0,37632.0,93296.0,700.0,79346.4765625
2016-11-11,147156.796875,83809.6015625,95883.203125,106624.0,600.0,90681.6875
2016-11-14,352016.0,106624.0,113680.0,336022.40625,1200.0,285780.6875
2016-11-15,799680.0,355936.0,431200.0,572320.0,1300.0,486747.34375
2016-11-16,572320.0,572320.0,572320.0,572320.0,0.0,486747.34375
2016-11-17,424536.0,84672.0,400467.1875,86240.0,1000.0,73345.4765625
2016-11-18,170284.796875,86632.0,99097.6015625,92590.3984375,3600.0,78746.3828125
2016-11-21,128889.6015625,68443.203125,109211.203125,71344.0,3000.0,60676.71875
2016-11-22,75734.3984375,47824.0,74480.0,48764.80078125,2300.0,41473.53515625
2016-11-23,53782.3984375,41944.0,49862.3984375,47118.3984375,3100.0,40073.3046875
2016-11-25,48529.6015625,42806.3984375,47432.0,42963.19921875,900.0,36539.38671875
2016-11-28,46099.19921875,38180.80078125,42963.19921875,38808.0,1700.0,33005.46484375
2016-11-29,39748.80078125,31987.19921875,39748.80078125,33947.19921875,1900.0,28871.447265625
2016-11-30,45080.0,34104.0,36064.0,41160.0,3000.0,35005.796875
2016-12-01,50176.0,38102.3984375,49000.0,41160.0,4600.0,35005.796875
2016-12-02,40062.3984375,35358.3984375,39200.0,37632.0,1800.0,32005.302734375
2016-12-05,38964.80078125,35672.0,38964.80078125,36064.0,900.0,30671.748046875
2016-12-06,41395.19921875,36612.80078125,38259.19921875,37553.6015625,2300.0,31938.625
2016-12-07,37632.0,35436.80078125,37632.0,36064.0,900.0,30671.748046875
2016-12-08,35750.3984375,32928.0,35280.0,33555.19921875,1100.0,28538.060546875
2016-12-09,34731.19921875,31438.400390625,33241.6015625,31752.0,900.0,27004.474609375
2016-12-12,33320.0,30340.80078125,32928.0,31516.80078125,800.0,26804.439453125
2016-12-13,31987.19921875,30576.0,31516.80078125,31046.400390625,300.0,26404.373046875
2016-12-14,31595.19921875,27518.400390625,31046.400390625,27832.0,600.0,23670.5859375
2016-12-15,42649.6015625,29556.80078125,32222.400390625,42336.0,4900.0,36005.9609375
2016-12-16,48216.0,36769.6015625,47040.0,38494.3984375,5800.0,32738.755859375
2016-12-19,41552.0,37240.0,39278.3984375,39121.6015625,1300.0,33272.17578125
2016-12-20,39356.80078125,37004.80078125,38259.19921875,38024.0,700.0,32338.69140625
2016-12-21,40454.3984375,37318.3984375,39984.0,38180.80078125,700.0,32472.044921875
2016-12-22,38572.80078125,34652.80078125,37788.80078125,35436.80078125,700.0,30138.326171875
2016-12-23,35280.0,32692.80078125,34966.3984375,33320.0,700.0,28338.025390625
2016-12-27,32614.400390625,31124.80078125,31124.80078125,31360.0,900.0,26671.083984375
2016-12-28,31908.80078125,29400.0,31595.19921875,29556.80078125,700.0,25137.49609375
2016-12-29,31908.80078125,29164.80078125,29792.0,29400.0,900.0,25004.142578125
2016-12-30,30027.19921875,28616.0,29400.0,28929.599609375,600.0,24604.07421875
2017-01-03,29635.19921875,28067.19921875,29243.19921875,28459.19921875,600.0,24204.0078125
2017-01-04,28302.400390625,27048.0,28224.0,27361.599609375,1000.0,23270.51953125
2017-01-05,28772.80078125,23363.19921875,28616.0,24382.400390625,2200.0,20736.767578125
2017-01-06,25480.0,23206.400390625,24852.80078125,23755.19921875,1300.0,20203.345703125
2017-01-09,24539.19921875,20619.19921875,24539.19921875,21403.19921875,2000.0,18203.015625
2017-01-10,21324.80078125,18345.599609375,21168.0,18580.80078125,2600.0,15802.6171875
2017-01-11,19051.19921875,16464.0,18894.400390625,17169.599609375,2100.0,14602.4169921875
2017-01-12,17012.80078125,14425.599609375,16934.400390625,14425.599609375,2500.0,12268.6982421875
2017-01-13,17483.19921875,13249.599609375,14268.7998046875,14660.7998046875,5200.0,12468.7314453125
2017-01-17,15131.2001953125,12387.2001953125,15131.2001953125,12700.7998046875,3700.0,10801.7890625
2017-01-18,12857.599609375,11132.7998046875,12387.2001953125,12465.599609375,3600.0,10601.755859375
2017-01-19,11446.400390625,7840.0,11132.7998046875,7918.39990234375,9400.0,6734.44775390625
2017-01-20,8859.2001953125,7761.60009765625,8153.60009765625,7918.39990234375,6900.0,6734.44775390625
2017-01-23,7497.0,5145.0,7350.0,5292.0,14100.0,4500.7451171875
2017-01-24,5488.0,4331.60009765625,5448.7998046875,4390.39990234375,21100.0,3733.951416015625
2017-01-25,4645.2001953125,3900.39990234375,4390.39990234375,3920.0,12700.0,3333.885498046875
2017-01-26,3949.39990234375,2891.0,3949.39990234375,2920.39990234375,16200.0,2483.744384765625
2017-01-27,2763.60009765625,1930.5999755859375,2763.60009765625,1950.199951171875,29100.0,1658.6080322265625
2017-01-30,2597.0,1950.199951171875,2009.0,2410.800048828125,51400.0,2050.339599609375
2017-01-31,5625.2001953125,3165.39990234375,3479.0,4949.0,168700.0,4209.03076171875
2017-02-01,6252.39990234375,4331.60009765625,5919.2001953125,4527.60009765625,107600.0,3850.6376953125
2017-02-02,4704.0,3773.0,4704.0,4096.39990234375,30400.0,3483.91015625
2017-02-03,4410.0,3822.0,3920.0,4096.39990234375,12900.0,3483.91015625
2017-02-06,5625.2001953125,4165.0,4263.0,5497.7998046875,50000.0,4675.7734375
2017-02-07,5978.0,4655.0,5644.7998046875,4733.39990234375,63100.0,4025.666748046875
2017-02-08,4312.0,3763.199951171875,4116.0,3910.199951171875,25100.0,3325.550537109375
2017-02-09,4165.0,3753.39990234375,3969.0,3841.60009765625,11200.0,3267.207763671875
2017-02-10,3988.60009765625,3822.0,3978.800048828125,3910.199951171875,5600.0,3325.550537109375
2017-02-13,4802.0,3920.0,3929.800048828125,4645.2001953125,26600.0,3950.654296875
2017-02-14,4870.60009765625,4184.60009765625,4802.0,4302.2001953125,14900.0,3658.93994140625
2017-02-15,4312.0,4067.0,4214.0,4194.39990234375,6600.0,3567.257568359375
2017-02-16,4390.39990234375,4086.60009765625,4086.60009765625,4263.0,5600.0,3625.600341796875
2017-02-17,4615.7998046875,4312.0,4606.0,4380.60009765625,11300.0,3725.6171875
2017-02-21,3557.39990234375,3185.0,3557.39990234375,3214.39990234375,25800.0,2733.7861328125
2017-02-22,3263.39990234375,2567.60009765625,3253.60009765625,2646.0,27500.0,2250.37255859375
2017-02-23,2450.0,2097.199951171875,2401.0,2303.0,26400.0,1958.65771484375
2017-02-24,2381.39990234375,2097.199951171875,2205.0,2195.199951171875,23700.0,1866.9757080078125
2017-02-27,1999.199951171875,1773.800048828125,1989.4000244140625,1832.5999755859375,49300.0,1558.5914306640625
2017-02-28,2361.800048828125,1881.5999755859375,2077.60009765625,2018.800048828125,62800.0,1716.950927734375
2017-03-01,1960.0,1773.800048828125,1960.0,1871.800048828125,31800.0,1591.9302978515625
2017-03-02,1832.5999755859375,1538.5999755859375,1822.800048828125,1538.5999755859375,32600.0,1308.5499267578125
2017-03-03,1705.199951171875,1283.800048828125,1636.5999755859375,1342.5999755859375,65100.0,1141.8558349609375
2017-03-06,1421.0,1225.0,1313.199951171875,1283.800048828125,30100.0,1091.84765625
2017-03-07,1372.0,1225.0,1323.0,1244.5999755859375,27700.0,1058.5086669921875
2017-03-08,1568.0,1234.800048828125,1293.5999755859375,1558.199951171875,44400.0,1325.219482421875
2017-03-09,1979.5999755859375,1450.4000244140625,1519.0,1862.0,86100.0,1583.5955810546875
2017-03-10,2077.60009765625,1685.5999755859375,1852.199951171875,1803.199951171875,81500.0,1533.5872802734375
2017-03-13,1891.4000244140625,1685.5999755859375,1793.4000244140625,1734.5999755859375,25900.0,1475.258544921875
2017-03-14,1822.800048828125,1617.0,1813.0,1764.0,25700.0,1500.2630615234375
2017-03-15,1754.199951171875,1646.4000244140625,1754.199951171875,1675.800048828125,18500.0,1425.249755859375
2017-03-16,1871.800048828125,1528.800048828125,1617.0,1793.4000244140625,44400.0,1525.267333984375
2017-03-17,1813.0,1617.0,1813.0,1636.5999755859375,40100.0,1391.9107666015625
2017-03-20,1421.0,1205.4000244140625,1323.0,1352.4000244140625,58500.0,1150.2015380859375
2017-03-21,1440.5999755859375,1323.0,1352.4000244140625,1381.800048828125,23800.0,1175.2060546875
2017-03-22,1381.800048828125,1303.4000244140625,1352.4000244140625,1313.199951171875,20000.0,1116.8623046875
2017-03-23,1411.199951171875,1274.0,1323.0,1372.0,19000.0,1166.8712158203125
2017-03-24,1450.4000244140625,1303.4000244140625,1381.800048828125,1323.0,15700.0,1125.197265625
2017-03-27,1401.4000244140625,1303.4000244140625,1362.199951171875,1372.0,9700.0,1166.8712158203125
2017-03-28,1509.199951171875,1421.0,1430.800048828125,1470.0,21800.0,1250.2191162109375
2017-03-29,1813.0,1538.5999755859375,1597.4000244140625,1715.0,47900.0,1458.5889892578125
2017-03-30,1862.0,1558.199951171875,1783.5999755859375,1607.199951171875,36300.0,1366.90625
2017-03-31,1675.800048828125,1528.800048828125,1617.0,1617.0,14400.0,1375.2410888671875
2017-04-03,1401.4000244140625,1264.199951171875,1352.4000244140625,1313.199951171875,55500.0,1116.8623046875
2017-04-04,1293.5999755859375,1185.800048828125,1274.0,1215.199951171875,49900.0,1033.514404296875
2017-04-05,1195.5999755859375,980.0,1176.0,1009.4000244140625,61900.0,858.4837646484375
2017-04-06,1029.0,891.7999877929688,1019.2000122070312,1009.4000244140625,42000.0,858.4837646484375
2017-04-07,793.7999877929688,686.0,784.0,686.0,44000.0,583.4356079101562
2017-04-10,637.0,568.4000244140625,627.2000122070312,607.5999755859375,34100.0,516.7572021484375
2017-04-11,529.2000122070312,423.8500061035156,529.2000122070312,426.29998779296875,80400.0,362.56353759765625
2017-04-12,548.7999877929688,396.8999938964844,455.70001220703125,531.6500244140625,120000.0,452.16259765625
2017-04-13,573.2999877929688,477.75,514.5,492.45001220703125,98500.0,418.82342529296875
2017-04-17,482.6499938964844,443.45001220703125,477.75,472.8500061035156,31300.0,402.1538391113281
2017-04-18,480.20001220703125,416.5,443.45001220703125,418.95001220703125,43800.0,356.31243896484375
2017-04-19,448.3500061035156,411.6000061035156,421.3999938964844,433.6499938964844,37600.0,368.81463623046875
2017-04-20,445.8999938964844,411.6000061035156,441.0,414.04998779296875,19900.0,352.1450500488281
2017-04-21,418.95001220703125,374.8500061035156,416.5,379.75,44700.0,322.9732666015625
2017-04-24,379.75,311.1499938964844,379.75,320.95001220703125,62300.0,272.96453857421875
2017-04-25,355.25,325.8500061035156,330.75,325.8500061035156,42200.0,277.13189697265625
2017-04-26,338.1000061035156,301.3500061035156,335.6499938964844,301.3500061035156,34600.0,256.2949523925781
2017-04-27,335.6499938964844,296.45001220703125,328.29998779296875,325.8500061035156,53900.0,286.4472351074219
2017-04-28,345.45001220703125,311.1499938964844,343.0,318.5,26400.0,279.9860534667969
2017-05-01,320.95001220703125,257.25,313.6000061035156,257.25,56100.0,226.14256286621094
2017-05-02,271.95001220703125,257.25,259.70001220703125,259.70001220703125,33700.0,228.29632568359375
2017-05-03,200.89999389648438,159.25,178.85000610351562,181.3000030517578,84800.0,159.37667846679688
2017-05-04,208.25,181.3000030517578,181.3000030517578,203.35000610351562,26600.0,178.7603302001953
2017-05-05,291.54998779296875,191.10000610351562,191.10000610351562,242.5500030517578,111100.0,213.2201385498047
2017-05-08,264.6000061035156,235.1999969482422,264.6000061035156,252.35000610351562,36400.0,221.83509826660156
2017-05-09,249.89999389648438,215.60000610351562,247.4499969482422,225.39999389648438,25600.0,198.1439666748047
2017-05-10,249.89999389648438,210.6999969482422,225.39999389648438,235.1999969482422,41000.0,206.7589111328125
2017-05-11,236.25,182.0,204.0500030517578,186.5500030517578,180200.0,163.9918212890625
2017-05-12,192.5,168.6999969482422,192.5,177.4499969482422,116900.0,155.99221801757812
2017-05-15,171.5,151.1999969482422,164.5,155.75,101500.0,136.91624450683594
2017-05-16,152.60000610351562,138.60000610351562,151.5500030517578,140.6999969482422,77800.0,123.68614196777344
2017-05-17,152.9499969482422,131.9499969482422,137.89999389648438,145.60000610351562,131800.0,127.99361419677734
2017-05-18,158.5500030517578,141.0500030517578,145.25,148.75,88000.0,130.7626953125
2017-05-19,156.4499969482422,138.9499969482422,150.5,140.0,71800.0,123.0707778930664
2017-05-22,135.4499969482422,119.3499984741211,134.0500030517578,119.69999694824219,78100.0,105.22552490234375
2017-05-23,118.6500015258789,109.19999694824219,116.9000015258789,110.25,66900.0,96.91824340820312
2017-05-24,111.30000305175781,102.55000305175781,109.19999694824219,106.05000305175781,62600.0,93.22612762451172
2017-05-25,116.9000015258789,103.94999694824219,105.69999694824219,106.75,98300.0,93.84147644042969
2017-05-26,109.55000305175781,98.0,108.5,99.05000305175781,79300.0,87.07258605957031
2017-05-30,99.05000305175781,88.55000305175781,96.25,95.19999694824219,103400.0,83.68812561035156
2017-05-31,94.1500015258789,82.5999984741211,93.0999984741211,83.30000305175781,75800.0,73.22712707519531
2017-06-01,95.55000305175781,77.0,80.8499984741211,89.5999984741211,154200.0,78.76530456542969
2017-06-02,88.55000305175781,78.4000015258789,85.05000305175781,80.5,80800.0,70.76570129394531
2017-06-05,75.94999694824219,67.55000305175781,75.94999694824219,67.9000015258789,142200.0,59.689334869384766
2017-06-06,80.1500015258789,61.95000076293945,66.5,73.5,215900.0,64.6121597290039
2017-06-07,72.44999694824219,61.599998474121094,70.3499984741211,62.650001525878906,169700.0,55.074180603027344
2017-06-08,72.44999694824219,61.599998474121094,66.5,66.5,178200.0,58.458621978759766
2017-06-09,71.75,64.75,65.0999984741211,68.94999694824219,150500.0,60.612361907958984
2017-06-12,70.0,63.0,67.55000305175781,65.0999984741211,107300.0,57.227909088134766
2017-06-13,79.80000305175781,64.4000015258789,65.80000305175781,68.25,421200.0,59.99700927734375
2017-06-14,71.75,61.599998474121094,71.75,62.650001525878906,272500.0,55.074180603027344
2017-06-15,63.70000076293945,56.70000076293945,62.650001525878906,59.5,204000.0,52.305084228515625
2017-06-16,62.650001525878906,57.04999923706055,58.45000076293945,61.25,111500.0,53.843467712402344
2017-06-19,47.25,41.29999923706055,46.900001525878906,41.650001525878906,389300.0,36.613563537597656
2017-06-20,41.29999923706055,34.29999923706055,41.29999923706055,35.70000076293945,273700.0,31.38304901123047
2017-06-21,34.29999923706055,29.399999618530273,34.29999923706055,29.75,225200.0,26.152542114257812
2017-06-22,25.760000228881836,19.739999771118164,25.760000228881836,19.809999465942383,1476700.0,17.41451644897461
2017-06-23,19.530000686645508,17.010000228881836,18.1299991607666,17.079999923706055,970100.0,15.014636039733887
2017-06-26,16.59000015258789,14.84000015258789,15.329999923706055,16.3799991607666,552000.0,14.399280548095703
2017-06-27,19.739999771118164,15.75,16.520000457763672,17.850000381469727,1363500.0,15.691524505615234
2017-06-28,16.8700008392334,13.4399995803833,16.799999237060547,13.4399995803833,1677900.0,11.81479549407959
2017-06-29,13.09000015258789,11.619999885559082,12.529999732971191,11.970000267028809,812100.0,10.522552490234375
2017-06-30,11.760000228881836,8.819999694824219,11.270000457763672,8.890000343322754,1144800.0,7.814995765686035
2017-07-03,8.1899995803833,7.139999866485596,7.349999904632568,7.210000038146973,861300.0,6.3381452560424805
2017-07-05,10.149999618530273,7.210000038146973,10.149999618530273,7.980000019073486,3947700.0,7.015035152435303
2017-07-06,8.680000305175781,7.139999866485596,7.699999809265137,7.489999771118164,1361100.0,6.584287166595459
2017-07-07,7.980000019073486,7.0,7.909999847412109,7.349999904632568,1070700.0,6.461215972900391
2017-07-10,7.070000171661377,6.230000019073486,6.929999828338623,6.440000057220459,1087600.0,5.661256313323975
2017-07-11,7.420000076293945,6.440000057220459,7.420000076293945,6.650000095367432,1102500.0,5.84586238861084
2017-07-12,7.349999904632568,6.230000019073486,6.650000095367432,6.579999923706055,1159300.0,5.784327030181885
2017-07-13,7.139999866485596,6.440000057220459,6.71999979019165,6.929999828338623,995200.0,6.09200382232666
2017-07-14,7.559999942779541,6.650000095367432,7.0,6.71999979019165,1665800.0,5.907397747039795
2017-07-17,6.789999961853027,5.949999809265137,6.71999979019165,6.230000019073486,857200.0,5.476649761199951
2017-07-18,6.230000019073486,5.670000076293945,5.739999771118164,5.809999942779541,889900.0,5.710577011108398
2017-07-19,4.059999942779541,3.5,3.990000009536743,3.5,1881600.0,3.4401068687438965
2017-07-20,4.199999809265137,2.940000057220459,3.2899999618530273,3.009999990463257,1599900.0,2.9584920406341553
2017-07-21,3.8399999141693115,1.2699999809265137,1.5800000429153442,2.1700000762939453,36085600.0,2.132866382598877
2017-07-24,2.990000009536743,1.649999976158142,2.5,1.6699999570846558,40947700.0,1.6414223909378052
2017-07-25,1.6699999570846558,1.3600000143051147,1.6699999570846558,1.409999966621399,14766000.0,1.3858716487884521
2017-07-26,1.2899999618530273,1.0199999809265137,1.2599999904632568,1.0399999618530273,15812600.0,1.0222032070159912
2017-07-27,1.2899999618530273,0.9800000190734863,1.059999942779541,1.2000000476837158,21790900.0,1.1794651746749878
2017-07-28,1.3799999952316284,1.1699999570846558,1.2999999523162842,1.2000000476837158,16383500.0,1.1794651746749878
2017-07-31,1.1699999570846558,1.0199999809265137,1.100000023841858,1.0800000429153442,7860800.0,1.061518669128418
2017-08-01,1.7899999618530273,1.0299999713897705,1.0299999713897705,1.7599999904632568,37689800.0,1.7298823595046997
2017-08-02,1.8799999952316284,1.3200000524520874,1.6799999475479126,1.340000033378601,37982300.0,1.31706964969635
2017-08-03,1.4900000095367432,1.2000000476837158,1.3200000524520874,1.2300000190734863,16399100.0,1.2089518308639526
2017-08-04,1.5,1.2799999713897705,1.350000023841858,1.3700000047683716,12606600.0,1.3465561866760254
2017-08-07,1.4600000381469727,1.2799999713897705,1.309999942779541,1.2999999523162842,6620900.0,1.2777539491653442
2017-08-08,1.559999942779541,1.2699999809265137,1.3799999952316284,1.4299999475479126,13058800.0,1.4055293798446655
2017-08-09,1.850000023841858,1.3600000143051147,1.4600000381469727,1.7699999809265137,26895200.0,1.7397112846374512
2017-08-10,2.25,1.7300000190734863,1.809999942779541,2.049999952316284,45385000.0,2.0149195194244385
2017-08-11,4.230000019073486,2.869999885559082,4.139999866485596,3.0999999046325684,52671800.0,3.0469515323638916
2017-08-14,3.619999885559082,2.8499999046325684,3.190000057220459,3.3499999046325684,23643100.0,3.2926738262176514
2017-08-15,3.7799999713897705,3.380000114440918,3.430000066757202,3.5299999713897705,21367300.0,3.4695932865142822
2017-08-16,3.740000009536743,3.0999999046325684,3.5399999618530273,3.190000057220459,16405200.0,3.1354119777679443
2017-08-17,3.450000047683716,2.930000066757202,3.0299999713897705,3.200000047683716,13061500.0,3.145240545272827
2017-08-18,3.450000047683716,3.2100000381469727,3.2799999713897705,3.3499999046325684,8935000.0,3.2926738262176514
2017-08-21,3.549999952316284,3.2200000286102295,3.4600000381469727,3.309999942779541,5113900.0,3.2533583641052246
2017-08-22,3.2799999713897705,3.0199999809265137,3.2699999809265137,3.069999933242798,6650800.0,3.017465114593506
2017-08-23,3.190000057220459,2.9200000762939453,3.069999933242798,3.180000066757202,6156500.0,3.125582695007324
2017-08-24,3.1600000858306885,3.0399999618530273,3.1500000953674316,3.0899999141693115,3397300.0,3.037122964859009
2017-08-25,3.200000047683716,3.049999952316284,3.059999942779541,3.059999942779541,2950500.0,3.007636308670044
2017-08-28,3.1700000762939453,3.0299999713897705,3.130000114440918,3.0899999141693115,2580800.0,3.037122964859009
2017-08-29,3.450000047683716,3.0299999713897705,3.109999895095825,3.440000057220459,7038900.0,3.381133794784546
2017-08-30,3.5,3.0299999713897705,3.4700000286102295,3.0399999618530273,12017700.0,2.987978458404541
2017-08-31,2.8299999237060547,2.450000047683716,2.4700000286102295,2.7200000286102295,11901000.0,2.673454523086548
2017-09-01,2.7200000286102295,2.25,2.7100000381469727,2.259999990463257,7165900.0,2.2213261127471924
2017-09-05,2.4800000190734863,1.840000033378601,2.3399999141693115,1.9900000095367432,9398300.0,1.955946445465088
2017-09-06,2.180000066757202,1.9800000190734863,2.059999942779541,2.1600000858306885,4193600.0,2.123037338256836
2017-09-07,2.619999885559082,2.200000047683716,2.200000047683716,2.5399999618530273,8712500.0,2.496534585952759
2017-09-08,2.7100000381469727,2.2899999618530273,2.509999990463257,2.359999895095825,7411800.0,2.319614887237549
2017-09-11,2.5799999237060547,2.369999885559082,2.4200000762939453,2.490000009536743,3507900.0,2.447390556335449
2017-09-12,2.5999999046325684,2.359999895095825,2.5999999046325684,2.450000047683716,3071400.0,2.4080748558044434
2017-09-13,2.5,2.359999895095825,2.430000066757202,2.4700000286102295,2044300.0,2.4277327060699463
2017-09-14,2.619999885559082,2.4700000286102295,2.4800000190734863,2.549999952316284,4054700.0,2.5063633918762207
2017-09-15,2.5899999141693115,2.4700000286102295,2.549999952316284,2.549999952316284,1682100.0,2.5063633918762207
2017-09-18,2.640000104904175,2.5,2.5899999141693115,2.5399999618530273,1713700.0,2.496534585952759
2017-09-19,2.5899999141693115,2.490000009536743,2.5799999237060547,2.5299999713897705,1175900.0,2.486705780029297
2017-09-20,2.549999952316284,2.4700000286102295,2.5399999618530273,2.4800000190734863,1549400.0,2.437561511993408
2017-09-21,2.5799999237060547,2.4200000762939453,2.5,2.549999952316284,1406800.0,2.5063633918762207
2017-09-22,2.5799999237060547,2.440000057220459,2.5299999713897705,2.5,1684900.0,2.457219123840332
2017-09-25,2.5,2.309999942779541,2.4700000286102295,2.319999933242798,2652100.0,2.280299186706543
2017-09-26,2.359999895095825,2.200000047683716,2.3299999237060547,2.3499999046325684,1558500.0,2.309785842895508
2017-09-27,2.490000009536743,2.319999933242798,2.3499999046325684,2.450000047683716,2251300.0,2.4080748558044434
2017-09-28,2.5199999809265137,2.4200000762939453,2.4600000381469727,2.5,1622200.0,2.457219123840332
2017-09-29,2.5199999809265137,2.390000104904175,2.5199999809265137,2.4600000381469727,1512700.0,2.4179036617279053
2017-10-02,2.799999952316284,2.359999895095825,2.430000066757202,2.759999990463257,4765500.0,2.7127702236175537
2017-10-03,3.2300000190734863,2.8499999046325684,2.9700000286102295,2.890000104904175,9984700.0,2.840545415878296
2017-10-04,3.2200000286102295,3.0,3.180000066757202,3.130000114440918,4884000.0,3.0764384269714355
2017-10-05,3.2100000381469727,2.940000057220459,3.2100000381469727,3.059999942779541,3268000.0,3.007636308670044
2017-10-06,3.450000047683716,3.009999990463257,3.109999895095825,3.3299999237060547,8132300.0,3.2730159759521484
2017-10-09,3.4200000762939453,3.180000066757202,3.319999933242798,3.25,2776400.0,3.194385051727295
2017-10-10,3.4800000190734863,3.259999990463257,3.2899999618530273,3.3399999141693115,4106500.0,3.2828447818756104
2017-10-11,3.390000104904175,3.259999990463257,3.3499999046325684,3.3499999046325684,2239000.0,3.2926738262176514
2017-10-12,3.3299999237060547,3.069999933242798,3.319999933242798,3.0899999141693115,2870100.0,3.037122964859009
2017-10-13,3.200000047683716,2.859999895095825,3.0799999237060547,3.1700000762939453,4437000.0,3.1157541275024414
2017-10-16,3.3399999141693115,3.130000114440918,3.200000047683716,3.2200000286102295,2342700.0,3.16489839553833
2017-10-17,3.3299999237060547,3.190000057220459,3.25,3.2100000381469727,2351300.0,3.155069589614868
2017-10-18,3.2699999809265137,3.0799999237060547,3.259999990463257,3.119999885559082,1204000.0,3.0666093826293945
2017-10-19,3.180000066757202,3.069999933242798,3.180000066757202,3.140000104904175,1709100.0,3.0862674713134766
2017-10-20,3.7899999618530273,3.1500000953674316,3.1500000953674316,3.609999895095825,9069600.0,3.548224449157715
2017-10-23,4.449999809265137,3.6600000858306885,3.680000066757202,3.8299999237060547,21583400.0,3.7644596099853516
2017-10-24,4.139999866485596,3.6700000762939453,4.070000171661377,4.059999942779541,6037500.0,3.9905240535736084
2017-10-25,5.590000152587891,4.079999923706055,4.159999847412109,5.0,25325900.0,4.914438247680664
2017-10-26,5.179999828338623,4.409999847412109,4.739999771118164,4.650000095367432,14451000.0,4.5924482345581055
2017-10-27,5.010000228881836,4.650000095367432,4.739999771118164,4.800000190734863,5851300.0,4.740592002868652
2017-10-30,5.0,4.099999904632568,5.0,4.300000190734863,8378900.0,4.2467803955078125
2017-10-31,4.599999904632568,4.179999828338623,4.409999847412109,4.199999809265137,5184700.0,4.148017883300781
2017-11-01,4.28000020980835,3.7300000190734863,4.170000076293945,3.890000104904175,5790100.0,3.841855049133301
2017-11-02,4.179999828338623,3.819999933242798,3.859999895095825,4.0,3177000.0,3.950493335723877
2017-11-03,4.789999961853027,4.019999980926514,4.019999980926514,4.389999866485596,18848700.0,4.335666179656982
2017-11-06,5.010000228881836,4.21999979019165,4.699999809265137,4.489999771118164,13602400.0,4.434428691864014
2017-11-07,4.849999904632568,4.300000190734863,4.840000152587891,4.369999885559082,6573900.0,4.315914154052734
2017-11-08,4.349999904632568,3.930000066757202,4.300000190734863,4.119999885559082,4820000.0,4.0690083503723145
2017-11-09,4.380000114440918,3.930000066757202,4.0,4.190000057220459,2505500.0,4.138141632080078
2017-11-10,4.170000076293945,4.050000190734863,4.110000133514404,4.099999904632568,1821200.0,4.04925537109375
2017-11-13,4.139999866485596,3.950000047683716,4.110000133514404,3.9700000286102295,2272600.0,3.9208648204803467
2017-11-14,4.25,3.630000114440918,3.940000057220459,4.039999961853027,6531400.0,3.9899981021881104
2017-11-15,3.950000047683716,3.7200000286102295,3.8299999237060547,3.819999933242798,3020400.0,3.7727210521698
2017-11-16,3.8499999046325684,3.7100000381469727,3.799999952316284,3.759999990463257,1851200.0,3.71346378326416
2017-11-17,4.119999885559082,3.7799999713897705,3.9700000286102295,3.859999895095825,4074100.0,3.812225818634033
2017-11-20,4.190000057220459,3.930000066757202,4.050000190734863,4.150000095367432,4340700.0,4.098636627197266
2017-11-21,4.5,4.130000114440918,4.230000019073486,4.369999885559082,7836400.0,4.315914154052734
2017-11-22,4.190000057220459,3.869999885559082,3.869999885559082,3.950000047683716,5291400.0,3.9011123180389404
2017-11-24,4.110000133514404,3.890000104904175,3.940000057220459,3.990000009536743,1442500.0,3.940617322921753
2017-11-27,4.170000076293945,3.880000114440918,4.0,4.119999885559082,3702900.0,4.0690083503723145
2017-11-28,4.21999979019165,3.950000047683716,4.079999923706055,4.0,2685700.0,3.950493335723877
2017-11-29,4.260000228881836,3.9600000381469727,4.019999980926514,4.119999885559082,4372300.0,4.0690083503723145
2017-11-30,4.46999979019165,4.159999847412109,4.170000076293945,4.25,4140300.0,4.197399139404297
2017-12-01,4.400000095367432,4.039999961853027,4.369999885559082,4.150000095367432,2632500.0,4.098636627197266
2017-12-04,4.320000171661377,4.139999866485596,4.269999980926514,4.230000019073486,2186800.0,4.177646636962891
2017-12-05,4.210000038146973,3.9200000762939453,4.199999809265137,3.950000047683716,3172600.0,3.9011123180389404
2017-12-06,4.03000020980835,3.8299999237060547,3.9200000762939453,3.8499999046325684,1894500.0,3.802349805831909
2017-12-07,4.050000190734863,3.819999933242798,3.819999933242798,3.9100000858306885,1682900.0,3.861607313156128
2017-12-08,4.150000095367432,3.9600000381469727,4.0,4.019999980926514,1652200.0,3.970245838165283
2017-12-11,4.170000076293945,3.990000009536743,4.059999942779541,4.070000171661377,1872500.0,4.019627094268799
2017-12-12,4.099999904632568,3.880000114440918,4.090000152587891,3.9000000953674316,1934300.0,3.851731061935425
2017-12-13,3.990000009536743,3.8499999046325684,3.930000066757202,3.869999885559082,1207600.0,3.8221023082733154
2017-12-14,3.890000104904175,3.680000066757202,3.8499999046325684,3.7100000381469727,2254100.0,3.6640825271606445
2017-12-15,3.869999885559082,3.75,3.75,3.809999942779541,1350400.0,3.7628448009490967
2017-12-18,3.880000114440918,3.7200000286102295,3.819999933242798,3.740000009536743,1464800.0,3.693711519241333
2017-12-19,3.809999942779541,3.630000114440918,3.700000047683716,3.640000104904175,1388700.0,3.594949245452881
2017-12-20,3.640000104904175,3.369999885559082,3.619999885559082,3.5199999809265137,2696000.0,3.4764342308044434
2017-12-21,3.5199999809265137,3.380000114440918,3.4800000190734863,3.4600000381469727,1380600.0,3.4171769618988037
2017-12-22,3.5799999237060547,3.4000000953674316,3.440000057220459,3.4800000190734863,1367100.0,3.436929225921631
2017-12-26,3.490000009536743,3.3299999237060547,3.450000047683716,3.359999895095825,1209500.0,3.3184144496917725
2017-12-27,3.7899999618530273,3.4100000858306885,3.4600000381469727,3.700000047683716,2994100.0,3.6542065143585205
2017-12-28,3.700000047683716,3.5199999809265137,3.700000047683716,3.5399999618530273,1527000.0,3.4961867332458496
2017-12-29,3.740000009536743,3.509999990463257,3.5399999618530273,3.5299999713897705,1697800.0,3.4863102436065674
2018-01-02,3.7200000286102295,3.5299999713897705,3.559999942779541,3.7100000381469727,1144200.0,3.6640825271606445
2018-01-03,4.050000190734863,3.6700000762939453,3.7200000286102295,3.880000114440918,2817300.0,3.8319785594940186
2018-01-04,4.039999961853027,3.7799999713897705,3.9200000762939453,3.880000114440918,1798600.0,3.8319785594940186
2018-01-05,4.03000020980835,3.7799999713897705,3.890000104904175,3.819999933242798,1887100.0,3.7727210521698
2018-01-08,3.890000104904175,3.7899999618530273,3.819999933242798,3.859999895095825,926900.0,3.812225818634033
2018-01-09,3.9000000953674316,3.7799999713897705,3.890000104904175,3.7899999618530273,677100.0,3.7430925369262695
2018-01-10,3.869999885559082,3.700000047683716,3.75,3.7899999618530273,946400.0,3.7430925369262695
2018-01-11,3.9000000953674316,3.75,3.759999990463257,3.799999952316284,1051500.0,3.7529685497283936
2018-01-12,3.869999885559082,3.75,3.799999952316284,3.7899999618530273,1024500.0,3.7430925369262695
2018-01-16,3.809999942779541,3.6500000953674316,3.7799999713897705,3.759999990463257,1050800.0,3.71346378326416
2018-01-17,3.7799999713897705,3.640000104904175,3.7300000190734863,3.700000047683716,830400.0,3.6542065143585205
2018-01-18,3.7799999713897705,3.6700000762939453,3.690000057220459,3.690000057220459,545100.0,3.6443302631378174
2018-01-19,3.690000057220459,3.5999999046325684,3.690000057220459,3.619999885559082,672700.0,3.5751965045928955
2018-01-22,3.7100000381469727,3.609999895095825,3.619999885559082,3.619999885559082,764600.0,3.5751965045928955
2018-01-23,3.680000066757202,3.559999942779541,3.619999885559082,3.5999999046325684,859700.0,3.5554440021514893
2018-01-24,3.6700000762939453,3.549999952316284,3.5799999237060547,3.630000114440918,636300.0,3.5850727558135986
2018-01-25,3.680000066757202,3.549999952316284,3.5999999046325684,3.5899999141693115,775000.0,3.545567750930786
2018-01-26,3.630000114440918,3.509999990463257,3.5899999141693115,3.5299999713897705,789300.0,3.4863102436065674
2018-01-29,3.549999952316284,3.4100000858306885,3.5299999713897705,3.4800000190734863,1072800.0,3.436929225921631
2018-01-30,3.4700000286102295,3.2100000381469727,3.4600000381469727,3.319999933242798,1760600.0,3.27890944480896
2018-01-31,3.430000066757202,3.2699999809265137,3.309999942779541,3.359999895095825,624600.0,3.3184144496917725
2018-02-01,3.4100000858306885,3.2699999809265137,3.369999885559082,3.2699999809265137,458600.0,3.2295284271240234
2018-02-02,3.2799999713897705,3.0899999141693115,3.25,3.130000114440918,1428300.0,3.091261148452759
2018-02-05,3.359999895095825,2.890000104904175,3.059999942779541,2.9100000858306885,2596100.0,2.8739840984344482
2018-02-06,2.9200000762939453,2.740000009536743,2.75,2.8499999046325684,2214800.0,2.8147263526916504
2018-02-07,3.7799999713897705,3.3499999046325684,3.4100000858306885,3.5899999141693115,12341300.0,3.545567750930786
2018-02-08,4.0,3.4200000762939453,3.809999942779541,3.440000057220459,4795000.0,3.3974244594573975
2018-02-09,3.630000114440918,3.180000066757202,3.509999990463257,3.319999933242798,2292400.0,3.27890944480896
2018-02-12,3.450000047683716,3.3299999237060547,3.430000066757202,3.4100000858306885,895100.0,3.367795705795288
2018-02-13,3.819999933242798,3.3499999046325684,3.4000000953674316,3.75,2499100.0,3.703587532043457
2018-02-14,3.819999933242798,3.640000104904175,3.7799999713897705,3.740000009536743,1520600.0,3.693711519241333
2018-02-15,3.869999885559082,3.6600000858306885,3.7300000190734863,3.7899999618530273,1522500.0,3.7430925369262695
2018-02-16,3.930000066757202,3.680000066757202,3.7899999618530273,3.7300000190734863,1567700.0,3.7073113918304443
2018-02-20,3.7699999809265137,3.630000114440918,3.7100000381469727,3.630000114440918,607500.0,3.607919931411743
2018-02-21,3.690000057220459,3.5199999809265137,3.640000104904175,3.5399999618530273,632000.0,3.5184671878814697
2018-02-22,3.5999999046325684,3.3499999046325684,3.569999933242798,3.390000104904175,1583200.0,3.369379758834839
2018-02-23,3.4700000286102295,3.380000114440918,3.4000000953674316,3.4100000858306885,569100.0,3.3892581462860107
2018-02-26,3.7699999809265137,3.4600000381469727,3.4600000381469727,3.759999990463257,1627600.0,3.737128973007202
2018-02-27,3.8299999237060547,3.6500000953674316,3.7899999618530273,3.7200000286102295,1528100.0,3.6973724365234375
2018-02-28,3.6700000762939453,3.390000104904175,3.5799999237060547,3.490000009536743,2300700.0,3.468771457672119
2018-03-01,3.569999933242798,3.4100000858306885,3.4600000381469727,3.509999990463257,882200.0,3.488649606704712
2018-03-02,3.5799999237060547,3.430000066757202,3.450000047683716,3.549999952316284,549900.0,3.5284063816070557
2018-03-05,3.6500000953674316,3.509999990463257,3.549999952316284,3.619999885559082,765300.0,3.597980499267578
2018-03-06,3.8299999237060547,3.619999885559082,3.680000066757202,3.7899999618530273,1461000.0,3.76694655418396
2018-03-07,3.759999990463257,3.6500000953674316,3.7300000190734863,3.680000066757202,732600.0,3.6576156616210938
2018-03-08,3.799999952316284,3.6700000762939453,3.680000066757202,3.690000057220459,719200.0,3.6675548553466797
2018-03-09,4.0,3.680000066757202,3.700000047683716,3.940000057220459,2531000.0,3.91603422164917
2018-03-12,4.230000019073486,3.9200000762939453,4.050000190734863,4.150000095367432,3517200.0,4.124756813049316
2018-03-13,4.300000190734863,3.9200000762939453,4.190000057220459,3.950000047683716,2512500.0,3.925973415374756
2018-03-14,4.150000095367432,3.9600000381469727,4.010000228881836,4.019999980926514,1677700.0,3.9955475330352783
2018-03-15,4.480000019073486,4.019999980926514,4.090000152587891,4.03000020980835,3972400.0,4.005486965179443
2018-03-16,4.380000114440918,4.079999923706055,4.079999923706055,4.179999828338623,1373700.0,4.154573917388916
2018-03-19,4.289999961853027,4.079999923706055,4.150000095367432,4.170000076293945,1513600.0,4.144635200500488
2018-03-20,4.25,4.059999942779541,4.199999809265137,4.139999866485596,953500.0,4.1148176193237305
2018-03-21,4.210000038146973,4.059999942779541,4.110000133514404,4.159999847412109,1157100.0,4.134695529937744
2018-03-22,4.199999809265137,4.050000190734863,4.170000076293945,4.070000171661377,911600.0,4.045243740081787
2018-03-23,4.079999923706055,3.8499999046325684,4.059999942779541,3.869999885559082,1334400.0,3.8464598655700684
2018-03-26,4.03000020980835,3.930000066757202,3.950000047683716,4.0,723300.0,3.9756691455841064
2018-03-27,4.03000020980835,3.700000047683716,4.03000020980835,3.759999990463257,1087900.0,3.737128973007202
2018-03-28,3.809999942779541,3.549999952316284,3.7699999809265137,3.5999999046325684,990600.0,3.5781021118164062
2018-03-29,3.759999990463257,3.5899999141693115,3.5999999046325684,3.6600000858306885,632300.0,3.637737274169922
2018-04-02,3.7100000381469727,3.490000009536743,3.6500000953674316,3.559999942779541,606700.0,3.5383455753326416
2018-04-03,3.630000114440918,3.4700000286102295,3.5899999141693115,3.5299999713897705,562600.0,3.508527994155884
2018-04-04,3.5999999046325684,3.4000000953674316,3.450000047683716,3.4700000286102295,1046800.0,3.4488930702209473
2018-04-05,3.5999999046325684,3.490000009536743,3.490000009536743,3.5399999618530273,1044300.0,3.5184671878814697
2018-04-06,3.549999952316284,3.4000000953674316,3.4800000190734863,3.4100000858306885,501300.0,3.3892581462860107
2018-04-09,3.5199999809265137,3.440000057220459,3.440000057220459,3.4600000381469727,531800.0,3.4389538764953613
2018-04-10,3.6700000762939453,3.430000066757202,3.509999990463257,3.6500000953674316,753800.0,3.627798080444336
2018-04-11,3.890000104904175,3.7300000190734863,3.740000009536743,3.75,861500.0,3.727189779281616
2018-04-12,3.819999933242798,3.630000114440918,3.799999952316284,3.6600000858306885,824300.0,3.637737274169922
2018-04-13,3.7699999809265137,3.569999933242798,3.700000047683716,3.740000009536743,783300.0,3.7172505855560303
2018-04-16,3.8399999141693115,3.740000009536743,3.7699999809265137,3.819999933242798,528200.0,3.7967638969421387
2018-04-17,3.819999933242798,3.700000047683716,3.7899999618530273,3.7200000286102295,496400.0,3.6973724365234375
2018-04-18,3.869999885559082,3.759999990463257,3.809999942779541,3.7799999713897705,517400.0,3.757007360458374
2018-04-19,3.890000104904175,3.75,3.75,3.819999933242798,464400.0,3.7967638969421387
2018-04-20,3.859999895095825,3.740000009536743,3.809999942779541,3.7899999618530273,306800.0,3.76694655418396
2018-04-23,3.890000104904175,3.7300000190734863,3.890000104904175,3.809999942779541,303300.0,3.7868247032165527
2018-04-24,3.859999895095825,3.6600000858306885,3.819999933242798,3.690000057220459,542300.0,3.6675548553466797
2018-04-25,3.700000047683716,3.5,3.6700000762939453,3.5399999618530273,716400.0,3.5184671878814697
2018-04-26,3.5899999141693115,3.5,3.5299999713897705,3.509999990463257,579000.0,3.488649606704712
2018-04-27,3.569999933242798,3.5,3.5299999713897705,3.509999990463257,313500.0,3.488649606704712
2018-04-30,3.549999952316284,3.450000047683716,3.549999952316284,3.4800000190734863,324100.0,3.458832263946533
2018-05-01,3.5199999809265137,3.4000000953674316,3.5,3.430000066757202,383700.0,3.4091362953186035
2018-05-02,3.509999990463257,3.4200000762939453,3.4800000190734863,3.5,371200.0,3.478710412979126
2018-05-03,3.509999990463257,3.440000057220459,3.490000009536743,3.450000047683716,266600.0,3.4290146827697754
2018-05-04,3.5799999237060547,3.4600000381469727,3.5,3.559999942779541,440800.0,3.5383455753326416
2018-05-07,3.5899999141693115,3.5199999809265137,3.5799999237060547,3.549999952316284,438500.0,3.5284063816070557
2018-05-08,3.700000047683716,3.549999952316284,3.5999999046325684,3.6500000953674316,1401100.0,3.627798080444336
2018-05-09,3.9700000286102295,3.630000114440918,3.950000047683716,3.6700000762939453,2601100.0,3.647676467895508
2018-05-10,3.75,3.5799999237060547,3.6700000762939453,3.740000009536743,850300.0,3.7172505855560303
2018-05-11,3.7899999618530273,3.6500000953674316,3.7200000286102295,3.740000009536743,868000.0,3.7172505855560303
2018-05-14,3.890000104904175,3.700000047683716,3.7899999618530273,3.859999895095825,1269700.0,3.8365206718444824
2018-05-15,3.869999885559082,3.7200000286102295,3.859999895095825,3.740000009536743,1385800.0,3.7172505855560303
2018-05-16,3.890000104904175,3.700000047683716,3.7200000286102295,3.8299999237060547,1010500.0,3.8067030906677246
2018-05-17,3.9700000286102295,3.799999952316284,3.8499999046325684,3.9000000953674316,1049100.0,3.876277446746826
2018-05-18,3.940000057220459,3.809999942779541,3.9100000858306885,3.8399999141693115,774200.0,3.8166422843933105
2018-05-21,3.940000057220459,3.809999942779541,3.8499999046325684,3.890000104904175,623600.0,3.8663382530212402
2018-05-22,4.119999885559082,3.859999895095825,3.890000104904175,4.070000171661377,1535700.0,4.045243740081787
2018-05-23,4.239999771118164,4.050000190734863,4.070000171661377,4.110000133514404,1478800.0,4.085000038146973
2018-05-24,4.309999942779541,4.019999980926514,4.050000190734863,4.170000076293945,1611700.0,4.170000076293945
2018-05-25,4.230000019073486,3.950000047683716,4.150000095367432,4.059999942779541,899200.0,4.059999942779541
2018-05-29,3.9800000190734863,3.799999952316284,3.9800000190734863,3.9700000286102295,1417300.0,3.9700000286102295
2018-05-30,4.059999942779541,3.880000114440918,3.9700000286102295,3.9100000858306885,983600.0,3.9100000858306885
2018-05-31,4.070000171661377,3.9100000858306885,3.930000066757202,3.9600000381469727,1110100.0,3.9600000381469727
2018-06-01,4.099999904632568,3.880000114440918,4.099999904632568,3.9600000381469727,558200.0,3.9600000381469727
2018-06-04,3.990000009536743,3.859999895095825,3.9600000381469727,3.930000066757202,398000.0,3.930000066757202
2018-06-05,4.190000057220459,3.950000047683716,3.950000047683716,4.190000057220459,941400.0,4.190000057220459
2018-06-06,4.28000020980835,4.079999923706055,4.21999979019165,4.090000152587891,770000.0,4.090000152587891
2018-06-07,4.159999847412109,4.090000152587891,4.090000152587891,4.110000133514404,395200.0,4.110000133514404
2018-06-08,4.170000076293945,4.0,4.139999866485596,4.170000076293945,684500.0,4.170000076293945
2018-06-11,4.380000114440918,4.150000095367432,4.170000076293945,4.210000038146973,950100.0,4.210000038146973
2018-06-12,4.389999866485596,4.21999979019165,4.239999771118164,4.289999961853027,655500.0,4.289999961853027
2018-06-13,4.579999923706055,4.309999942779541,4.309999942779541,4.510000228881836,1113200.0,4.510000228881836
2018-06-14,5.340000152587891,4.559999942779541,4.570000171661377,4.909999847412109,5378800.0,4.909999847412109
2018-06-15,5.050000190734863,4.670000076293945,4.869999885559082,4.860000133514404,1990400.0,4.860000133514404
2018-06-18,5.239999771118164,4.820000171661377,4.929999828338623,5.070000171661377,1590000.0,5.070000171661377
2018-06-19,5.21999979019165,4.829999923706055,5.0,5.099999904632568,1501000.0,5.099999904632568
2018-06-20,5.309999942779541,5.110000133514404,5.179999828338623,5.170000076293945,1280100.0,5.170000076293945
2018-06-21,6.289999961853027,4.909999847412109,5.139999866485596,5.78000020980835,4849200.0,5.78000020980835
2018-06-22,6.900000095367432,5.409999847412109,5.769999980926514,6.289999961853027,8702800.0,6.289999961853027
2018-06-25,6.900000095367432,6.21999979019165,6.340000152587891,6.53000020980835,5278600.0,6.53000020980835
2018-06-26,6.730000019073486,5.840000152587891,6.599999904632568,6.099999904632568,3419300.0,6.099999904632568
2018-06-27,6.400000095367432,5.449999809265137,6.0,5.590000152587891,2431900.0,5.590000152587891
2018-06-28,5.739999771118164,5.150000095367432,5.519999980926514,5.159999847412109,1810300.0,5.159999847412109
2018-06-29,5.539999961853027,5.159999847412109,5.349999904632568,5.260000228881836,1562300.0,5.260000228881836
2018-07-02,5.78000020980835,5.179999828338623,5.269999980926514,5.659999847412109,1740900.0,5.659999847412109
2018-07-03,5.869999885559082,5.380000114440918,5.699999809265137,5.559999942779541,1371800.0,5.559999942779541
2018-07-05,5.949999809265137,5.550000190734863,5.590000152587891,5.920000076293945,1543700.0,5.920000076293945
2018-07-06,6.46999979019165,5.989999771118164,6.0,6.110000133514404,2600600.0,6.110000133514404
2018-07-09,6.360000133514404,5.940000057220459,6.199999809265137,5.96999979019165,1756500.0,5.96999979019165
2018-07-10,6.230000019073486,5.710000038146973,6.090000152587891,5.71999979019165,1373500.0,5.71999979019165
2018-07-11,5.769999980926514,5.539999961853027,5.610000133514404,5.699999809265137,867800.0,5.699999809265137
2018-07-12,5.769999980926514,5.579999923706055,5.699999809265137,5.610000133514404,730400.0,5.610000133514404
2018-07-13,5.590000152587891,5.170000076293945,5.550000190734863,5.179999828338623,1893500.0,5.179999828338623
2018-07-16,5.260000228881836,4.940000057220459,5.230000019073486,5.03000020980835,1263900.0,5.03000020980835
2018-07-17,5.329999923706055,5.050000190734863,5.050000190734863,5.269999980926514,722400.0,5.269999980926514
2018-07-18,5.400000095367432,5.210000038146973,5.210000038146973,5.329999923706055,705100.0,5.329999923706055
2018-07-19,5.340000152587891,5.159999847412109,5.28000020980835,5.179999828338623,424400.0,5.179999828338623
2018-07-20,5.199999809265137,4.909999847412109,5.159999847412109,4.920000076293945,1215500.0,4.920000076293945
2018-07-23,5.03000020980835,4.820000171661377,4.880000114440918,4.920000076293945,730000.0,4.920000076293945
2018-07-24,5.199999809265137,4.949999809265137,5.090000152587891,4.980000019073486,866600.0,4.980000019073486
2018-07-25,5.269999980926514,4.929999828338623,5.039999961853027,5.159999847412109,712300.0,5.159999847412109
2018-07-26,5.210000038146973,5.070000171661377,5.170000076293945,5.130000114440918,464000.0,5.130000114440918
2018-07-27,5.150000095367432,5.03000020980835,5.090000152587891,5.099999904632568,372500.0,5.099999904632568
2018-07-30,5.329999923706055,5.050000190734863,5.130000114440918,5.239999771118164,800400.0,5.239999771118164
2018-07-31,5.489999771118164,5.210000038146973,5.340000152587891,5.269999980926514,922000.0,5.269999980926514
2018-08-01,5.289999961853027,4.860000133514404,5.210000038146973,5.039999961853027,1352500.0,5.039999961853027
2018-08-02,5.130000114440918,4.809999942779541,5.019999980926514,5.099999904632568,1339600.0,5.099999904632568
2018-08-03,5.239999771118164,5.010000228881836,5.03000020980835,5.090000152587891,453600.0,5.090000152587891
2018-08-06,5.25,5.03000020980835,5.050000190734863,5.230000019073486,549400.0,5.230000019073486
2018-08-07,5.260000228881836,5.130000114440918,5.230000019073486,5.210000038146973,443600.0,5.210000038146973
2018-08-08,5.300000190734863,5.050000190734863,5.21999979019165,5.090000152587891,676900.0,5.090000152587891
2018-08-09,5.110000133514404,4.989999771118164,5.050000190734863,5.010000228881836,382900.0,5.010000228881836
2018-08-10,5.010000228881836,4.809999942779541,5.0,4.889999866485596,902000.0,4.889999866485596
2018-08-13,4.860000133514404,4.639999866485596,4.860000133514404,4.659999847412109,843300.0,4.659999847412109
2018-08-14,4.730000019073486,4.53000020980835,4.570000171661377,4.610000133514404,675700.0,4.610000133514404
2018-08-15,4.650000095367432,4.289999961853027,4.449999809265137,4.289999961853027,1109100.0,4.289999961853027
2018-08-16,4.480000019073486,4.340000152587891,4.349999904632568,4.420000076293945,499200.0,4.420000076293945
2018-08-17,4.46999979019165,4.340000152587891,4.380000114440918,4.360000133514404,320900.0,4.360000133514404
2018-08-20,4.610000133514404,4.340000152587891,4.380000114440918,4.570000171661377,545300.0,4.570000171661377
2018-08-21,4.769999980926514,4.619999885559082,4.619999885559082,4.690000057220459,527600.0,4.690000057220459
2018-08-22,4.840000152587891,4.710000038146973,4.710000038146973,4.840000152587891,664500.0,4.840000152587891
2018-08-23,5.019999980926514,4.769999980926514,4.800000190734863,4.829999923706055,880400.0,4.829999923706055
2018-08-24,4.980000019073486,4.760000228881836,4.869999885559082,4.840000152587891,898900.0,4.840000152587891
2018-08-27,4.940000057220459,4.75,4.820000171661377,4.909999847412109,519300.0,4.909999847412109
2018-08-28,5.010000228881836,4.840000152587891,4.900000095367432,4.940000057220459,682600.0,4.940000057220459
2018-08-29,4.96999979019165,4.840000152587891,4.909999847412109,4.929999828338623,337000.0,4.929999828338623
2018-08-30,4.960000038146973,4.840000152587891,4.889999866485596,4.849999904632568,686600.0,4.849999904632568
2018-08-31,4.909999847412109,4.760000228881836,4.829999923706055,4.829999923706055,645600.0,4.829999923706055
2018-09-04,4.820000171661377,4.510000228881836,4.800000190734863,4.519999980926514,1089800.0,4.519999980926514
2018-09-05,4.619999885559082,4.429999828338623,4.550000190734863,4.599999904632568,1112800.0,4.599999904632568
2018-09-06,4.730000019073486,4.53000020980835,4.579999923706055,4.630000114440918,771600.0,4.630000114440918
2018-09-07,4.75,4.579999923706055,4.659999847412109,4.670000076293945,378500.0,4.670000076293945
2018-09-10,4.889999866485596,4.679999828338623,4.679999828338623,4.840000152587891,544200.0,4.840000152587891
2018-09-11,4.860000133514404,4.670000076293945,4.860000133514404,4.699999809265137,390500.0,4.699999809265137
2018-09-12,4.800000190734863,4.650000095367432,4.699999809265137,4.75,385500.0,4.75
2018-09-13,4.829999923706055,4.670000076293945,4.78000020980835,4.710000038146973,368100.0,4.710000038146973
2018-09-14,4.789999961853027,4.650000095367432,4.769999980926514,4.71999979019165,388700.0,4.71999979019165
2018-09-17,4.800000190734863,4.659999847412109,4.690000057220459,4.710000038146973,609400.0,4.710000038146973
2018-09-18,4.849999904632568,4.710000038146973,4.710000038146973,4.789999961853027,454700.0,4.789999961853027
2018-09-19,5.380000114440918,4.760000228881836,4.809999942779541,5.269999980926514,1448700.0,5.269999980926514
2018-09-20,5.539999961853027,5.039999961853027,5.210000038146973,5.210000038146973,1409600.0,5.210000038146973
2018-09-21,5.699999809265137,5.159999847412109,5.25,5.420000076293945,1412600.0,5.420000076293945
2018-09-24,5.46999979019165,5.28000020980835,5.409999847412109,5.360000133514404,601200.0,5.360000133514404
2018-09-25,5.840000152587891,5.340000152587891,5.380000114440918,5.789999961853027,1569800.0,5.789999961853027
2018-09-26,6.070000171661377,5.369999885559082,5.800000190734863,5.46999979019165,1443300.0,5.46999979019165
2018-09-27,5.949999809265137,5.429999828338623,5.460000038146973,5.860000133514404,1126500.0,5.860000133514404
2018-09-28,6.239999771118164,5.860000133514404,5.869999885559082,6.099999904632568,1373000.0,6.099999904632568
2018-10-01,6.28000020980835,5.96999979019165,6.21999979019165,5.980000019073486,846800.0,5.980000019073486
2018-10-02,6.119999885559082,5.730000019073486,5.940000057220459,5.800000190734863,909000.0,5.800000190734863
2018-10-03,5.980000019073486,5.739999771118164,5.800000190734863,5.820000171661377,681500.0,5.820000171661377
2018-10-04,6.199999809265137,5.71999979019165,5.820000171661377,5.820000171661377,1291400.0,5.820000171661377
2018-10-05,6.019999980926514,5.579999923706055,5.849999904632568,5.679999828338623,585300.0,5.679999828338623
2018-10-08,5.800000190734863,5.420000076293945,5.679999828338623,5.489999771118164,553400.0,5.489999771118164
2018-10-09,5.480000019073486,5.170000076293945,5.460000038146973,5.21999979019165,808900.0,5.21999979019165
2018-10-10,5.28000020980835,4.769999980926514,5.199999809265137,4.869999885559082,907800.0,4.869999885559082
2018-10-11,5.090000152587891,4.78000020980835,4.880000114440918,4.920000076293945,528400.0,4.920000076293945
2018-10-12,5.050000190734863,4.820000171661377,5.039999961853027,4.920000076293945,355300.0,4.920000076293945
2018-10-15,5.099999904632568,4.829999923706055,4.900000095367432,5.039999961853027,634500.0,5.039999961853027
2018-10-16,5.25,4.960000038146973,5.070000171661377,5.21999979019165,634800.0,5.21999979019165
2018-10-17,5.210000038146973,5.03000020980835,5.199999809265137,5.059999942779541,446000.0,5.059999942779541
2018-10-18,5.179999828338623,4.900000095367432,5.050000190734863,5.0,473300.0,5.0
2018-10-19,5.110000133514404,4.860000133514404,5.039999961853027,4.909999847412109,362300.0,4.909999847412109
2018-10-22,5.840000152587891,4.980000019073486,5.050000190734863,5.539999961853027,2600600.0,5.539999961853027
2018-10-23,5.420000076293945,5.090000152587891,5.300000190734863,5.159999847412109,853200.0,5.159999847412109
2018-10-24,5.320000171661377,4.980000019073486,5.179999828338623,5.010000228881836,619800.0,5.010000228881836
2018-10-25,5.110000133514404,4.849999904632568,5.039999961853027,4.929999828338623,470500.0,4.929999828338623
2018-10-26,5.119999885559082,4.78000020980835,5.0,4.840000152587891,787200.0,4.840000152587891
2018-10-29,5.21999979019165,4.840000152587891,5.0,4.880000114440918,1251000.0,4.880000114440918
2018-10-30,5.849999904632568,4.929999828338623,5.0,5.5,3171400.0,5.5
2018-10-31,6.090000152587891,5.420000076293945,5.449999809265137,5.829999923706055,2140100.0,5.829999923706055
2018-11-01,6.25,5.820000171661377,5.880000114440918,5.949999809265137,1604900.0,5.949999809265137
2018-11-02,6.329999923706055,5.690000057220459,5.96999979019165,6.21999979019165,1270200.0,6.21999979019165
2018-11-05,6.25,5.769999980926514,6.210000038146973,5.769999980926514,770200.0,5.769999980926514
2018-11-06,6.190000057220459,5.75,5.769999980926514,6.159999847412109,751000.0,6.159999847412109
2018-11-07,6.170000076293945,5.940000057220459,6.150000095367432,5.96999979019165,551300.0,5.96999979019165
2018-11-08,5.960000038146973,5.75,5.960000038146973,5.820000171661377,497600.0,5.820000171661377
2018-11-09,5.920000076293945,5.559999942779541,5.78000020980835,5.829999923706055,549200.0,5.829999923706055
2018-11-12,5.949999809265137,5.139999866485596,5.900000095367432,5.369999885559082,1040500.0,5.369999885559082
2018-11-13,5.739999771118164,5.449999809265137,5.510000228881836,5.710000038146973,1036500.0,5.710000038146973
2018-11-14,5.940000057220459,5.349999904632568,5.690000057220459,5.539999961853027,1196200.0,5.539999961853027
2018-11-15,5.610000133514404,5.400000095367432,5.460000038146973,5.480000019073486,556900.0,5.480000019073486
2018-11-16,5.619999885559082,5.460000038146973,5.489999771118164,5.5,668100.0,5.5
2018-11-19,5.579999923706055,5.409999847412109,5.449999809265137,5.519999980926514,626500.0,5.519999980926514
2018-11-20,5.570000171661377,5.059999942779541,5.449999809265137,5.090000152587891,1571000.0,5.090000152587891
2018-11-21,5.340000152587891,5.079999923706055,5.079999923706055,5.28000020980835,536900.0,5.28000020980835
2018-11-23,5.440000057220459,5.21999979019165,5.28000020980835,5.329999923706055,221600.0,5.329999923706055
2018-11-26,5.650000095367432,5.400000095367432,5.400000095367432,5.650000095367432,1052000.0,5.650000095367432
2018-11-27,5.739999771118164,5.519999980926514,5.619999885559082,5.590000152587891,933600.0,5.590000152587891
2018-11-28,5.920000076293945,5.610000133514404,5.630000114440918,5.869999885559082,1195000.0,5.869999885559082
2018-11-29,6.0,5.699999809265137,5.800000190734863,5.78000020980835,644300.0,5.78000020980835
2018-11-30,5.840000152587891,5.650000095367432,5.760000228881836,5.659999847412109,416300.0,5.659999847412109
2018-12-03,5.840000152587891,5.679999828338623,5.760000228881836,5.730000019073486,429400.0,5.730000019073486
2018-12-04,5.840000152587891,5.400000095367432,5.670000076293945,5.46999979019165,1311300.0,5.46999979019165
2018-12-06,5.489999771118164,5.059999942779541,5.46999979019165,5.320000171661377,1013800.0,5.320000171661377
2018-12-07,5.389999866485596,5.159999847412109,5.25,5.25,496600.0,5.25
2018-12-10,5.539999961853027,5.210000038146973,5.210000038146973,5.5,617200.0,5.5
2018-12-11,5.739999771118164,5.389999866485596,5.53000020980835,5.590000152587891,851100.0,5.590000152587891
2018-12-12,5.820000171661377,5.579999923706055,5.579999923706055,5.769999980926514,893000.0,5.769999980926514
2018-12-13,5.940000057220459,5.769999980926514,5.849999904632568,5.829999923706055,498500.0,5.829999923706055
2018-12-14,6.150000095367432,5.699999809265137,5.829999923706055,6.03000020980835,1195600.0,6.03000020980835
2018-12-17,6.150000095367432,5.800000190734863,5.960000038146973,5.829999923706055,384800.0,5.829999923706055
2018-12-18,5.920000076293945,5.570000171661377,5.920000076293945,5.590000152587891,347600.0,5.590000152587891
2018-12-19,5.820000171661377,5.53000020980835,5.590000152587891,5.579999923706055,235900.0,5.579999923706055
2018-12-20,5.699999809265137,5.440000057220459,5.519999980926514,5.639999866485596,379400.0,5.639999866485596
2018-12-21,5.860000133514404,5.300000190734863,5.590000152587891,5.329999923706055,551700.0,5.329999923706055
2018-12-24,5.409999847412109,5.210000038146973,5.309999942779541,5.269999980926514,211900.0,5.269999980926514
2018-12-26,5.559999942779541,5.21999979019165,5.21999979019165,5.510000228881836,363300.0,5.510000228881836
2018-12-27,5.489999771118164,5.289999961853027,5.420000076293945,5.420000076293945,275200.0,5.420000076293945
2018-12-28,5.599999904632568,5.440000057220459,5.46999979019165,5.5,218400.0,5.5
2018-12-31,5.670000076293945,5.550000190734863,5.570000171661377,5.650000095367432,251500.0,5.650000095367432
2019-01-02,5.900000095367432,5.5,5.519999980926514,5.880000114440918,371800.0,5.880000114440918
2019-01-03,5.949999809265137,5.739999771118164,5.949999809265137,5.809999942779541,165300.0,5.809999942779541
2019-01-04,6.179999828338623,5.829999923706055,5.880000114440918,6.139999866485596,821900.0,6.139999866485596
2019-01-07,6.840000152587891,6.119999885559082,6.199999809265137,6.75,1364400.0,6.75
2019-01-08,7.21999979019165,6.300000190734863,7.139999866485596,6.340000152587891,1241200.0,6.340000152587891
2019-01-09,6.619999885559082,6.010000228881836,6.369999885559082,6.059999942779541,855600.0,6.059999942779541
2019-01-10,6.329999923706055,5.929999828338623,6.099999904632568,6.03000020980835,559500.0,6.03000020980835
2019-01-11,6.349999904632568,5.920000076293945,5.949999809265137,6.210000038146973,400200.0,6.210000038146973
2019-01-14,6.329999923706055,5.960000038146973,6.329999923706055,6.03000020980835,354600.0,6.03000020980835
2019-01-15,6.079999923706055,5.809999942779541,6.050000190734863,5.900000095367432,393600.0,5.900000095367432
2019-01-16,6.039999961853027,5.75,5.900000095367432,5.869999885559082,402300.0,5.869999885559082
2019-01-17,5.949999809265137,5.820000171661377,5.909999847412109,5.940000057220459,116800.0,5.940000057220459
2019-01-18,6.0,5.860000133514404,5.929999828338623,5.929999828338623,313800.0,5.929999828338623
2019-01-22,5.869999885559082,5.610000133514404,5.829999923706055,5.630000114440918,600600.0,5.630000114440918
2019-01-23,5.730000019073486,5.53000020980835,5.639999866485596,5.559999942779541,350200.0,5.559999942779541
2019-01-24,5.679999828338623,5.460000038146973,5.670000076293945,5.619999885559082,431100.0,5.619999885559082
2019-01-25,5.730000019073486,5.550000190734863,5.639999866485596,5.579999923706055,374700.0,5.579999923706055
2019-01-28,5.539999961853027,5.329999923706055,5.53000020980835,5.389999866485596,404100.0,5.389999866485596
2019-01-29,5.449999809265137,5.150000095367432,5.400000095367432,5.179999828338623,657000.0,5.179999828338623
2019-01-30,5.230000019073486,5.079999923706055,5.159999847412109,5.110000133514404,354800.0,5.110000133514404
2019-01-31,5.139999866485596,4.980000019073486,5.099999904632568,5.03000020980835,595000.0,5.03000020980835
2019-02-01,5.139999866485596,4.980000019073486,4.980000019073486,5.050000190734863,440100.0,5.050000190734863
2019-02-04,5.139999866485596,5.019999980926514,5.079999923706055,5.119999885559082,584400.0,5.119999885559082
2019-02-05,5.199999809265137,4.989999771118164,5.179999828338623,5.050000190734863,548300.0,5.050000190734863
2019-02-06,5.230000019073486,4.980000019073486,5.079999923706055,5.199999809265137,766600.0,5.199999809265137
2019-02-07,5.21999979019165,5.010000228881836,5.199999809265137,5.059999942779541,318100.0,5.059999942779541
2019-02-08,5.090000152587891,4.829999923706055,5.0,5.050000190734863,669400.0,5.050000190734863
2019-02-11,5.159999847412109,5.010000228881836,5.070000171661377,5.150000095367432,342700.0,5.150000095367432
2019-02-12,5.199999809265137,5.079999923706055,5.150000095367432,5.150000095367432,302400.0,5.150000095367432
2019-02-13,5.190000057220459,5.099999904632568,5.150000095367432,5.139999866485596,195600.0,5.139999866485596
2019-02-14,5.369999885559082,5.090000152587891,5.090000152587891,5.28000020980835,384900.0,5.28000020980835
2019-02-15,5.289999961853027,5.099999904632568,5.289999961853027,5.130000114440918,260500.0,5.130000114440918
2019-02-19,5.389999866485596,5.119999885559082,5.199999809265137,5.360000133514404,277800.0,5.360000133514404
2019-02-20,5.409999847412109,5.21999979019165,5.329999923706055,5.239999771118164,288100.0,5.239999771118164
2019-02-21,5.309999942779541,5.170000076293945,5.230000019073486,5.210000038146973,212100.0,5.210000038146973
2019-02-22,5.269999980926514,5.179999828338623,5.21999979019165,5.25,217500.0,5.25
2019-02-25,5.409999847412109,5.170000076293945,5.260000228881836,5.369999885559082,456200.0,5.369999885559082
2019-02-26,5.489999771118164,5.230000019073486,5.309999942779541,5.28000020980835,278500.0,5.28000020980835
2019-02-27,5.449999809265137,5.170000076293945,5.210000038146973,5.429999828338623,214100.0,5.429999828338623
2019-02-28,5.429999828338623,5.010000228881836,5.369999885559082,5.099999904632568,534400.0,5.099999904632568
2019-03-01,5.300000190734863,5.110000133514404,5.289999961853027,5.260000228881836,412100.0,5.260000228881836
2019-03-04,5.550000190734863,5.230000019073486,5.260000228881836,5.519999980926514,564100.0,5.519999980926514
2019-03-05,5.619999885559082,5.230000019073486,5.489999771118164,5.369999885559082,378500.0,5.369999885559082
2019-03-06,5.449999809265137,5.300000190734863,5.380000114440918,5.369999885559082,128200.0,5.369999885559082
2019-03-07,5.409999847412109,5.199999809265137,5.380000114440918,5.28000020980835,281700.0,5.28000020980835
2019-03-08,5.260000228881836,5.090000152587891,5.21999979019165,5.170000076293945,361100.0,5.170000076293945
2019-03-11,5.349999904632568,5.119999885559082,5.260000228881836,5.269999980926514,361400.0,5.269999980926514
2019-03-12,5.340000152587891,5.150000095367432,5.269999980926514,5.210000038146973,289100.0,5.210000038146973
2019-03-13,5.269999980926514,5.170000076293945,5.269999980926514,5.21999979019165,101800.0,5.21999979019165
2019-03-14,5.21999979019165,5.099999904632568,5.179999828338623,5.110000133514404,153000.0,5.110000133514404
2019-03-15,5.199999809265137,5.059999942779541,5.090000152587891,5.179999828338623,366500.0,5.179999828338623
2019-03-18,5.179999828338623,5.010000228881836,5.179999828338623,5.059999942779541,227100.0,5.059999942779541
2019-03-19,5.070000171661377,4.900000095367432,5.059999942779541,4.949999809265137,341300.0,4.949999809265137
2019-03-20,5.0,4.769999980926514,4.960000038146973,4.840000152587891,246800.0,4.840000152587891
2019-03-21,4.989999771118164,4.829999923706055,4.829999923706055,4.940000057220459,254500.0,4.940000057220459
2019-03-22,4.96999979019165,4.690000057220459,4.940000057220459,4.730000019073486,317600.0,4.730000019073486
2019-03-25,4.78000020980835,4.519999980926514,4.739999771118164,4.590000152587891,405500.0,4.590000152587891
2019-03-26,4.639999866485596,4.369999885559082,4.630000114440918,4.409999847412109,521500.0,4.409999847412109
2019-03-27,4.71999979019165,4.420000076293945,4.460000038146973,4.670000076293945,431000.0,4.670000076293945
2019-03-28,4.699999809265137,4.590000152587891,4.599999904632568,4.610000133514404,157000.0,4.610000133514404
2019-03-29,4.730000019073486,4.570000171661377,4.730000019073486,4.619999885559082,120800.0,4.619999885559082
2019-04-01,4.650000095367432,4.489999771118164,4.539999961853027,4.510000228881836,289100.0,4.510000228881836
2019-04-02,4.630000114440918,4.5,4.5,4.610000133514404,233200.0,4.610000133514404
2019-04-03,4.639999866485596,4.440000057220459,4.639999866485596,4.480000019073486,306700.0,4.480000019073486
2019-04-04,4.519999980926514,4.400000095367432,4.519999980926514,4.46999979019165,193900.0,4.46999979019165
2019-04-05,4.519999980926514,4.400000095367432,4.46999979019165,4.449999809265137,179100.0,4.449999809265137
2019-04-08,4.489999771118164,4.369999885559082,4.400000095367432,4.389999866485596,266000.0,4.389999866485596
2019-04-09,4.380000114440918,4.190000057220459,4.360000133514404,4.239999771118164,352400.0,4.239999771118164
2019-04-10,4.449999809265137,4.230000019073486,4.230000019073486,4.380000114440918,419400.0,4.380000114440918
2019-04-11,4.519999980926514,4.349999904632568,4.369999885559082,4.489999771118164,345600.0,4.489999771118164
2019-04-12,4.599999904632568,4.409999847412109,4.480000019073486,4.449999809265137,251600.0,4.449999809265137
2019-04-15,4.5,4.420000076293945,4.460000038146973,4.46999979019165,105700.0,4.46999979019165
2019-04-16,4.539999961853027,4.360000133514404,4.5,4.400000095367432,205200.0,4.400000095367432
2019-04-17,4.460000038146973,4.340000152587891,4.420000076293945,4.380000114440918,190800.0,4.380000114440918
2019-04-18,4.409999847412109,4.28000020980835,4.380000114440918,4.309999942779541,128700.0,4.309999942779541
2019-04-22,4.380000114440918,4.260000228881836,4.289999961853027,4.329999923706055,124700.0,4.329999923706055
2019-04-23,4.360000133514404,4.190000057220459,4.320000171661377,4.260000228881836,231700.0,4.260000228881836
2019-04-24,4.289999961853027,4.179999828338623,4.25,4.199999809265137,107800.0,4.199999809265137
2019-04-25,4.190000057220459,4.070000171661377,4.170000076293945,4.090000152587891,213900.0,4.090000152587891
2019-04-26,4.090000152587891,3.9600000381469727,4.090000152587891,4.0,348700.0,4.0
2019-04-29,4.210000038146973,3.9600000381469727,4.0,4.159999847412109,357100.0,4.159999847412109
2019-04-30,4.329999923706055,4.070000171661377,4.190000057220459,4.170000076293945,340600.0,4.170000076293945
2019-05-01,4.21999979019165,4.03000020980835,4.190000057220459,4.079999923706055,287200.0,4.079999923706055
2019-05-02,4.170000076293945,3.9800000190734863,4.019999980926514,4.010000228881836,341100.0,4.010000228881836
2019-05-03,4.099999904632568,3.9600000381469727,4.010000228881836,4.050000190734863,220300.0,4.050000190734863
2019-05-06,4.099999904632568,3.9100000858306885,3.9700000286102295,4.050000190734863,277400.0,4.050000190734863
2019-05-07,3.9800000190734863,3.799999952316284,3.8399999141693115,3.809999942779541,420000.0,3.809999942779541
2019-05-08,3.9800000190734863,3.799999952316284,3.859999895095825,3.930000066757202,273500.0,3.930000066757202
2019-05-09,3.9800000190734863,3.809999942779541,3.930000066757202,3.9100000858306885,234400.0,3.9100000858306885
2019-05-10,3.950000047683716,3.859999895095825,3.9200000762939453,3.9200000762939453,106900.0,3.9200000762939453
2019-05-13,3.890000104904175,3.75,3.869999885559082,3.7899999618530273,195900.0,3.7899999618530273
2019-05-14,3.9600000381469727,3.809999942779541,3.809999942779541,3.819999933242798,205300.0,3.819999933242798
2019-05-15,3.9000000953674316,3.759999990463257,3.809999942779541,3.8299999237060547,186500.0,3.8299999237060547
2019-05-16,4.5,3.9000000953674316,3.9000000953674316,4.150000095367432,1358000.0,4.150000095367432
2019-05-17,4.25,3.930000066757202,4.25,4.0,450000.0,4.0
2019-05-20,3.9700000286102295,3.759999990463257,3.940000057220459,3.930000066757202,374200.0,3.930000066757202
2019-05-21,3.9600000381469727,3.890000104904175,3.930000066757202,3.9000000953674316,84500.0,3.9000000953674316
2019-05-22,3.890000104904175,3.759999990463257,3.880000114440918,3.7799999713897705,275700.0,3.7799999713897705
2019-05-23,3.7799999713897705,3.549999952316284,3.75,3.640000104904175,336100.0,3.640000104904175
2019-05-24,3.7799999713897705,3.630000114440918,3.630000114440918,3.75,155400.0,3.75
