Date,High,Low,Open,Close,Volume,Adj Close
2015-06-23,20.450000762939453,20.18000030517578,20.299999237060547,20.25,12500.0,16.771928787231445
2015-06-24,20.299999237060547,20.049999237060547,20.25,20.18000030517578,12200.0,16.71395492553711
2015-06-25,20.450000762939453,19.950000762939453,20.149999618530273,20.350000381469727,19700.0,16.854751586914062
2015-06-26,21.799999237060547,20.299999237060547,20.450000762939453,21.559999465942383,6900.0,17.856924057006836
2015-06-29,22.25,21.299999237060547,21.559999465942383,21.75,9200.0,18.01429557800293
2015-06-30,21.5,20.75,21.459999084472656,20.8700008392334,6400.0,17.28543472290039
2015-07-01,20.899999618530273,20.25,20.520000457763672,20.75,15500.0,17.186054229736328
2015-07-02,21.75,20.799999237060547,20.799999237060547,21.25,25200.0,17.600168228149414
2015-07-06,22.0,21.149999618530273,21.149999618530273,21.399999618530273,13500.0,17.724411010742188
2015-07-07,21.700000762939453,21.40999984741211,21.40999984741211,21.469999313354492,19500.0,17.78238296508789
2015-07-08,23.600000381469727,21.40999984741211,21.489999771118164,21.40999984741211,2400.0,17.73269271850586
2015-07-09,21.75,21.40999984741211,21.75,21.520000457763672,3700.0,17.823802947998047
2015-07-10,22.25,21.40999984741211,21.549999237060547,22.239999771118164,16700.0,18.420133590698242
2015-07-13,22.75,20.75,22.649999618530273,22.399999618530273,23600.0,18.55265235900879
2015-07-14,22.200000762939453,21.75,22.200000762939453,22.0,7500.0,18.221357345581055
2015-07-15,21.899999618530273,21.5,21.899999618530273,21.799999237060547,9500.0,18.055707931518555
2015-07-16,22.200000762939453,21.299999237060547,22.0,21.450000762939453,8400.0,17.765819549560547
2015-07-17,21.700000762939453,21.5,21.700000762939453,21.649999618530273,3600.0,17.931472778320312
2015-07-20,22.600000381469727,21.260000228881836,21.729999542236328,21.3700008392334,26100.0,17.69956398010254
2015-07-21,21.790000915527344,21.450000762939453,21.450000762939453,21.75,7200.0,18.01429557800293
2015-07-22,21.799999237060547,21.0,21.5,21.0,11200.0,17.393115997314453
2015-07-23,21.5,20.100000381469727,21.09000015258789,21.5,13700.0,17.80722999572754
2015-07-24,25.0,20.950000762939453,21.299999237060547,21.200000762939453,26000.0,17.558761596679688
2015-07-27,21.049999237060547,20.5,21.049999237060547,20.649999618530273,10200.0,17.10323143005371
2015-07-28,20.799999237060547,20.649999618530273,20.75,20.700000762939453,5100.0,17.14463996887207
2015-07-29,21.049999237060547,20.0,21.049999237060547,20.0,42900.0,16.56487274169922
2015-07-30,20.25,19.899999618530273,20.25,20.0,144000.0,16.56487274169922
2015-07-31,19.909000396728516,19.399999618530273,19.899999618530273,19.520000457763672,15900.0,16.167314529418945
2015-08-03,19.600000381469727,19.450000762939453,19.600000381469727,19.469999313354492,7300.0,16.12590217590332
2015-08-04,20.200000762939453,18.75,19.079999923706055,19.65999984741211,21600.0,16.283262252807617
2015-08-05,20.209999084472656,19.0,19.700000762939453,19.25,19000.0,15.943686485290527
2015-08-06,19.90999984741211,19.040000915527344,19.469999313354492,19.25,9800.0,15.943686485290527
2015-08-07,19.600000381469727,19.399999618530273,19.450000762939453,19.530000686645508,3900.0,16.175596237182617
2015-08-10,20.489999771118164,19.459999084472656,20.0,19.459999084472656,31800.0,16.11761474609375
2015-08-11,19.75,18.799999237060547,19.399999618530273,18.899999618530273,31700.0,15.653802871704102
2015-08-14,20.329999923706055,19.170000076293945,19.549999237060547,19.549999237060547,49900.0,16.192155838012695
2015-08-18,19.979999542236328,19.25,19.25,19.84000015258789,37400.0,16.524484634399414
2015-08-19,20.0,19.360000610351562,19.84000015258789,19.360000610351562,24200.0,16.124692916870117
2015-08-20,19.350000381469727,18.510000228881836,19.350000381469727,18.875,17200.0,15.720748901367188
2015-08-21,19.760000228881836,18.802000045776367,19.0,19.1299991607666,51900.0,15.933131217956543
2015-08-24,19.760000228881836,18.802000045776367,19.0,18.8700008392334,50900.0,15.716582298278809
2015-08-25,19.649999618530273,18.690000534057617,19.100000381469727,18.690000534057617,33500.0,15.56666374206543
2015-08-26,18.649999618530273,18.450000762939453,18.649999618530273,18.450000762939453,5000.0,15.366767883300781
2015-08-27,19.149999618530273,18.600000381469727,18.600000381469727,18.899999618530273,17200.0,15.741568565368652
2015-08-28,19.65999984741211,18.989999771118164,19.100000381469727,19.1299991607666,14600.0,15.933131217956543
2015-08-31,19.18000030517578,17.059999465942383,18.709999084472656,17.799999237060547,59300.0,14.82539176940918
2015-09-04,17.489999771118164,17.260000228881836,17.299999237060547,17.290000915527344,10900.0,14.400619506835938
2015-09-08,17.84000015258789,17.479999542236328,17.75,17.479999542236328,14000.0,14.558863639831543
2015-09-09,18.399999618530273,17.700000762939453,17.829999923706055,18.200000762939453,19900.0,15.15854263305664
2015-09-15,18.31999969482422,18.0,18.31999969482422,18.100000381469727,11100.0,15.075262069702148
2015-09-17,17.989999771118164,17.299999237060547,17.75,17.56999969482422,31300.0,14.72248649597168
2015-09-18,17.799999237060547,17.260000228881836,17.479999542236328,17.360000610351562,37800.0,14.546524047851562
2015-09-22,17.350000381469727,16.600000381469727,17.139999389648438,17.0,53900.0,14.24486255645752
2015-09-23,17.229999542236328,16.479999542236328,17.229999542236328,16.479999542236328,9700.0,13.8091402053833
2015-09-24,16.940000534057617,16.100000381469727,16.799999237060547,16.309999465942383,81600.0,13.666688919067383
2015-09-25,17.0,16.450000762939453,16.5,16.510000228881836,103000.0,13.834281921386719
2015-09-28,16.700000762939453,15.819999694824219,16.5,15.890000343322754,74700.0,13.314760208129883
2015-09-29,15.800000190734863,14.949999809265137,15.800000190734863,15.210000038146973,52800.0,12.744962692260742
2015-09-30,16.1299991607666,15.220000267028809,15.220000267028809,16.1299991607666,52200.0,13.515860557556152
2015-10-26,17.549999237060547,17.350000381469727,17.350000381469727,17.40999984741211,11600.0,14.588415145874023
2015-10-27,17.600000381469727,16.81999969482422,17.500999450683594,16.81999969482422,37400.0,14.094038009643555
2015-10-28,17.200000762939453,16.799999237060547,16.90999984741211,16.850000381469727,21500.0,14.119174003601074
2015-10-29,17.770000457763672,16.950000762939453,16.950000762939453,17.3700008392334,40400.0,14.554903984069824
2015-11-04,17.229999542236328,16.959999084472656,17.020000457763672,17.149999618530273,28100.0,14.370555877685547
2015-12-14,14.65999984741211,14.010000228881836,14.520000457763672,14.180000305175781,25700.0,11.881895065307617
2015-12-21,15.545000076293945,15.0,15.329999923706055,15.300000190734863,38100.0,12.820380210876465
2015-12-22,15.4399995803833,14.90999984741211,15.199999809265137,15.15999984741211,50900.0,12.703068733215332
2015-12-24,15.699999809265137,15.470000267028809,15.489999771118164,15.630000114440918,25200.0,13.096898078918457
2015-12-28,15.670000076293945,15.239999771118164,15.600000381469727,15.319999694824219,26700.0,12.837137222290039
2015-12-31,15.25,14.979999542236328,15.15999984741211,15.15999984741211,322800.0,12.703068733215332
2016-01-04,15.109999656677246,14.5600004196167,15.0,15.109999656677246,44000.0,12.661170959472656
2016-01-05,15.449999809265137,15.109999656677246,15.154999732971191,15.420000076293945,10200.0,12.920930862426758
2016-01-06,15.430000305175781,15.050000190734863,15.430000305175781,15.079999923706055,13700.0,12.636033058166504
2016-01-07,15.039999961853027,14.609999656677246,14.970000267028809,14.779999732971191,25000.0,12.384653091430664
2016-01-08,14.779999732971191,14.510000228881836,14.779999732971191,14.520000457763672,32000.0,12.166792869567871
2016-01-11,14.545000076293945,14.25,14.520000457763672,14.279999732971191,13600.0,11.965685844421387
2016-01-19,13.979999542236328,13.510000228881836,13.550000190734863,13.739999771118164,101200.0,11.513201713562012
2016-01-20,13.930000305175781,12.6899995803833,13.649999618530273,13.390000343322754,200100.0,11.219924926757812
2016-01-21,14.380000114440918,13.345000267028809,13.520000457763672,13.75,125100.0,11.52158260345459
2016-01-22,14.479999542236328,13.845000267028809,14.069999694824219,14.170000076293945,43400.0,11.873516082763672
2016-01-25,14.5,13.949999809265137,14.210000038146973,14.170000076293945,75700.0,11.873516082763672
2016-01-26,14.600000381469727,14.145000457763672,14.204999923706055,14.479999542236328,65000.0,12.133272171020508
2016-02-01,14.529999732971191,14.385000228881836,14.5,14.5,29300.0,12.150032043457031
2016-02-02,14.520000457763672,14.239999771118164,14.449999809265137,14.3100004196167,26500.0,11.990827560424805
2016-02-03,14.600000381469727,14.34000015258789,14.420000076293945,14.479999542236328,83900.0,12.133272171020508
2016-02-04,14.5649995803833,14.40999984741211,14.5,14.5,27900.0,12.150032043457031
2016-02-08,14.210000038146973,13.739999771118164,14.199999809265137,13.890000343322754,19700.0,11.638893127441406
2016-02-09,14.0,13.859999656677246,13.904999732971191,14.0,23100.0,11.731067657470703
2016-02-16,14.300000190734863,14.0,14.289999961853027,14.0600004196167,30700.0,11.781341552734375
2016-02-17,14.430000305175781,14.100000381469727,14.130000114440918,14.199999809265137,69100.0,11.898651123046875
2016-02-18,14.329999923706055,14.069999694824219,14.199999809265137,14.220000267028809,49900.0,11.915410995483398
2016-02-19,14.359999656677246,14.1899995803833,14.270000457763672,14.3100004196167,65000.0,11.990827560424805
2016-02-22,14.960000038146973,14.350000381469727,14.380000114440918,14.960000038146973,47000.0,12.535483360290527
2016-02-23,14.9399995803833,14.70300006866455,14.899999618530273,14.779999732971191,38200.0,12.384653091430664
2016-02-24,14.800000190734863,14.279999732971191,14.770000457763672,14.640000343322754,56700.0,12.267343521118164
2016-02-25,14.710000038146973,14.4399995803833,14.65999984741211,14.710000038146973,19900.0,12.326000213623047
2016-02-29,15.199999809265137,14.800000190734863,14.920000076293945,14.9399995803833,28400.0,12.518722534179688
2016-03-01,15.390000343322754,14.949999809265137,14.949999809265137,15.390000343322754,40000.0,12.895793914794922
2016-03-02,15.390000343322754,15.100000381469727,15.100000381469727,15.289999961853027,31900.0,12.81199836730957
2016-03-03,15.449999809265137,15.149999618530273,15.307999610900879,15.40999984741211,18800.0,12.912551879882812
2016-03-07,15.539999961853027,15.390000343322754,15.399999618530273,15.449999809265137,6800.0,12.946065902709961
2016-03-08,15.449999809265137,15.239999771118164,15.399999618530273,15.289999961853027,21100.0,12.81199836730957
2016-03-09,15.53499984741211,15.380000114440918,15.430000305175781,15.5,25500.0,12.987964630126953
2016-03-10,15.699999809265137,15.420000076293945,15.470000267028809,15.59000015258789,58400.0,13.063384056091309
2016-03-14,15.880000114440918,15.779999732971191,15.8100004196167,15.8100004196167,18400.0,13.247726440429688
2016-03-15,15.84000015258789,15.699999809265137,15.699999809265137,15.8100004196167,23300.0,13.247726440429688
2016-03-16,15.819999694824219,15.640000343322754,15.649999618530273,15.779999732971191,30400.0,13.314377784729004
2016-03-17,16.225000381469727,15.890000343322754,15.899999618530273,16.15999984741211,35600.0,13.635008811950684
2016-03-18,16.268999099731445,16.15999984741211,16.219999313354492,16.15999984741211,35600.0,13.635008811950684
2016-03-21,16.229999542236328,16.1200008392334,16.1200008392334,16.18000030517578,11300.0,13.65188217163086
2016-03-22,16.219999313354492,16.110000610351562,16.1200008392334,16.1200008392334,21500.0,13.60125732421875
2016-03-23,16.200000762939453,16.0,16.149999618530273,16.059999465942383,12800.0,13.550629615783691
2016-03-24,16.170000076293945,15.920000076293945,16.049999237060547,15.949999809265137,21500.0,13.457818031311035
2016-03-28,16.06999969482422,15.949999809265137,16.0,15.989999771118164,17800.0,13.491567611694336
2016-03-29,16.209999084472656,16.020000457763672,16.149999618530273,16.040000915527344,21000.0,13.5337553024292
2016-03-31,16.40999984741211,16.139999389648438,16.139999389648438,16.329999923706055,25000.0,13.778443336486816
2016-04-01,16.329999923706055,16.010000228881836,16.219999313354492,16.260000228881836,27300.0,13.719379425048828
2016-04-04,16.299999237060547,16.079999923706055,16.299999237060547,16.190000534057617,13000.0,13.660316467285156
2016-04-05,16.200000762939453,16.0,16.200000762939453,16.049999237060547,15500.0,13.542193412780762
2016-04-06,16.200000762939453,16.0,16.040000915527344,16.110000610351562,18400.0,13.592816352844238
2016-04-08,16.110000610351562,15.949999809265137,16.020000457763672,15.979999542236328,10000.0,13.48313045501709
2016-04-11,16.31999969482422,15.979999542236328,16.0,16.0,8400.0,13.500005722045898
2016-04-12,16.25,15.869999885559082,16.1299991607666,16.25,22700.0,13.710943222045898
2016-04-14,16.31999969482422,16.200000762939453,16.299999237060547,16.200000762939453,14400.0,13.668753623962402
2016-04-18,16.290000915527344,16.149999618530273,16.149999618530273,16.290000915527344,12500.0,13.744693756103516
2016-04-20,16.530000686645508,16.360000610351562,16.40999984741211,16.450000762939453,21100.0,13.879693984985352
2016-04-21,16.5,16.229999542236328,16.46500015258789,16.290000915527344,17200.0,13.744693756103516
2016-04-22,16.40999984741211,16.200000762939453,16.260000228881836,16.229999542236328,10700.0,13.694068908691406
2016-04-25,16.270000457763672,16.0,16.270000457763672,16.010000228881836,9900.0,13.508440017700195
2016-04-26,16.270000457763672,16.010000228881836,16.110000610351562,16.260000228881836,42600.0,13.719379425048828
2016-04-27,16.31999969482422,16.15999984741211,16.190000534057617,16.25,27500.0,13.710943222045898
2016-04-28,16.350000381469727,16.209999084472656,16.290000915527344,16.229999542236328,25100.0,13.694068908691406
2016-04-29,16.290000915527344,16.139999389648438,16.239999771118164,16.200000762939453,19000.0,13.668753623962402
2016-05-02,16.295000076293945,16.148000717163086,16.290000915527344,16.209999084472656,22200.0,13.677192687988281
2016-05-03,16.270000457763672,16.079999923706055,16.139999389648438,16.15999984741211,40400.0,13.635008811950684
2016-05-04,16.260000228881836,16.155000686645508,16.229999542236328,16.170000076293945,14700.0,13.64344310760498
2016-05-05,16.29800033569336,16.110000610351562,16.219999313354492,16.110000610351562,32700.0,13.592816352844238
2016-05-06,16.209999084472656,16.09000015258789,16.09000015258789,16.209999084472656,20400.0,13.677192687988281
2016-05-09,16.239999771118164,16.1299991607666,16.21500015258789,16.1299991607666,33400.0,13.609692573547363
2016-05-10,16.329999923706055,16.149999618530273,16.190000534057617,16.329999923706055,33600.0,13.778443336486816
2016-05-16,16.350000381469727,16.229999542236328,16.229999542236328,16.350000381469727,16000.0,13.79532241821289
2016-05-17,16.43000030517578,16.15999984741211,16.360000610351562,16.260000228881836,16800.0,13.719379425048828
2016-05-18,16.299999237060547,16.06999969482422,16.260000228881836,16.229999542236328,15800.0,13.694068908691406
2016-05-19,16.149999618530273,16.020000457763672,16.059999465942383,16.059999465942383,30300.0,13.550629615783691
2016-05-20,16.229999542236328,16.110000610351562,16.149999618530273,16.1299991607666,25100.0,13.609692573547363
2016-05-23,16.260000228881836,16.1299991607666,16.131000518798828,16.260000228881836,15100.0,13.719379425048828
2016-05-25,16.459999084472656,16.299999237060547,16.34000015258789,16.299999237060547,13300.0,13.753129005432129
2016-05-26,16.420000076293945,16.31999969482422,16.350000381469727,16.329999923706055,14400.0,13.778443336486816
2016-05-31,16.6200008392334,16.459999084472656,16.559999465942383,16.559999465942383,21200.0,13.972505569458008
2016-06-01,16.559999465942383,16.3700008392334,16.5,16.559999465942383,32000.0,13.972505569458008
2016-06-02,16.56999969482422,16.440000534057617,16.440000534057617,16.56999969482422,25100.0,13.980942726135254
2016-06-06,16.899999618530273,16.579999923706055,16.600000381469727,16.899999618530273,28000.0,14.259382247924805
2016-06-07,17.030000686645508,16.84000015258789,16.850000381469727,16.889999389648438,43000.0,14.250946044921875
2016-06-08,17.049999237060547,16.940000534057617,16.950000762939453,16.959999084472656,15700.0,14.310004234313965
2016-06-09,16.979999542236328,16.90999984741211,16.959999084472656,16.979999542236328,22700.0,14.32688045501709
2016-06-10,16.915000915527344,16.760000228881836,16.899999618530273,16.809999465942383,12300.0,14.183439254760742
2016-06-13,16.899999618530273,16.76099967956543,16.889999389648438,16.780000686645508,13200.0,14.158130645751953
2016-06-14,16.899999618530273,16.7549991607666,16.790000915527344,16.889999389648438,11200.0,14.250946044921875
2016-06-15,17.040000915527344,16.760000228881836,16.850000381469727,17.020000457763672,18800.0,14.446162223815918
2016-06-16,17.010000228881836,16.790000915527344,17.010000228881836,17.010000228881836,20500.0,14.437676429748535
2016-06-17,17.040000915527344,16.93000030517578,17.040000915527344,16.979999542236328,14000.0,14.41220760345459
2016-06-20,17.344999313354492,16.950000762939453,17.110000610351562,16.959999084472656,14000.0,14.395234107971191
2016-06-21,17.09000015258789,17.0,17.030000686645508,17.059999465942383,6900.0,14.480114936828613
2016-06-22,17.100000381469727,16.959999084472656,17.06999969482422,17.0,11000.0,14.429184913635254
2016-06-23,17.350000381469727,17.010000228881836,17.149999618530273,17.270000457763672,18800.0,14.658355712890625
2016-06-24,17.0,16.809999465942383,17.0,16.84000015258789,25700.0,14.293381690979004
2016-06-27,16.940000534057617,16.59000015258789,16.940000534057617,16.639999389648438,8300.0,14.123623847961426
2016-06-30,18.0,17.600000381469727,17.600000381469727,17.690000534057617,21200.0,15.014842987060547
2016-07-01,17.709999084472656,17.610000610351562,17.700000762939453,17.6200008392334,11900.0,14.955430030822754
2016-07-05,17.65999984741211,17.479999542236328,17.65999984741211,17.530000686645508,14300.0,14.879037857055664
2016-07-06,17.81999969482422,17.479999542236328,17.5,17.65999984741211,15500.0,14.989378929138184
2016-07-07,17.709999084472656,17.649999618530273,17.649999618530273,17.709999084472656,5600.0,15.031818389892578
2016-07-11,17.81999969482422,17.260000228881836,17.81999969482422,17.450000762939453,49900.0,14.811138153076172
2016-07-12,17.6200008392334,17.3799991607666,17.6200008392334,17.3799991607666,26000.0,14.751716613769531
2016-07-13,17.43000030517578,17.309999465942383,17.424999237060547,17.31999969482422,22800.0,14.700796127319336
2016-07-14,17.3799991607666,17.270000457763672,17.299999237060547,17.3799991607666,23300.0,14.822750091552734
2016-07-15,17.3700008392334,17.309999465942383,17.309999465942383,17.34000015258789,12300.0,14.788640975952148
2016-07-18,17.399999618530273,17.34000015258789,17.3799991607666,17.399999618530273,6400.0,14.839813232421875
2016-07-19,17.40999984741211,17.260000228881836,17.350000381469727,17.299999237060547,24000.0,14.754526138305664
2016-07-20,17.559999465942383,17.25,17.299999237060547,17.469999313354492,23600.0,14.899508476257324
2016-07-21,17.459999084472656,17.3700008392334,17.459999084472656,17.3700008392334,9200.0,14.814229011535645
2016-07-22,17.459999084472656,17.399999618530273,17.458999633789062,17.459999084472656,13800.0,14.890985488891602
2016-07-25,17.489999771118164,17.44499969482422,17.459999084472656,17.469999313354492,5700.0,14.899508476257324
2016-07-26,17.489999771118164,17.440000534057617,17.459999084472656,17.489999771118164,5000.0,14.916569709777832
2016-07-27,17.530000686645508,17.389999389648438,17.469999313354492,17.389999389648438,9700.0,14.831282615661621
2016-07-29,17.5,17.399999618530273,17.399999618530273,17.5,2800.0,14.925095558166504
2016-08-01,17.469999313354492,17.40999984741211,17.469999313354492,17.40999984741211,9400.0,14.84834098815918
2016-08-02,17.40999984741211,17.280000686645508,17.40999984741211,17.31999969482422,6200.0,14.771584510803223
2016-08-03,17.329999923706055,17.190000534057617,17.190000534057617,17.309999465942383,11100.0,14.763054847717285
2016-08-04,17.399999618530273,17.350000381469727,17.360000610351562,17.385000228881836,7800.0,14.82701587677002
2016-08-08,17.600000381469727,17.489999771118164,17.530000686645508,17.510000228881836,15900.0,14.93362808227539
2016-08-09,17.610000610351562,17.450000762939453,17.59000015258789,17.559999465942383,16100.0,14.97627067565918
2016-08-10,17.559999465942383,17.31999969482422,17.5,17.329999923706055,29800.0,14.780110359191895
2016-08-11,17.489999771118164,17.25,17.364999771118164,17.479999542236328,12600.0,14.908036231994629
2016-08-15,17.479999542236328,17.399999618530273,17.440000534057617,17.420000076293945,17800.0,14.856873512268066
2016-08-16,17.610000610351562,17.3700008392334,17.3700008392334,17.56999969482422,13300.0,14.9847993850708
2016-08-17,17.540000915527344,17.3700008392334,17.3700008392334,17.469999313354492,6500.0,14.97022533416748
2016-08-18,17.760000228881836,17.530000686645508,17.530000686645508,17.760000228881836,5900.0,15.218735694885254
2016-08-19,17.809999465942383,17.649999618530273,17.739999771118164,17.809999465942383,19400.0,15.261582374572754
2016-08-22,17.719999313354492,17.59000015258789,17.59000015258789,17.719999313354492,5800.0,15.184454917907715
2016-08-23,17.719999313354492,17.65999984741211,17.690000534057617,17.670000076293945,10200.0,15.141608238220215
2016-08-24,17.649999618530273,17.5,17.59000015258789,17.520000457763672,14800.0,15.013076782226562
2016-08-25,17.59000015258789,17.420000076293945,17.510000228881836,17.440000534057617,15000.0,14.944523811340332
2016-08-26,17.549999237060547,17.309999465942383,17.459999084472656,17.360000610351562,5800.0,14.875974655151367
2016-08-29,17.440000534057617,17.350000381469727,17.440000534057617,17.360000610351562,15300.0,14.875974655151367
2016-08-31,17.360000610351562,17.219999313354492,17.360000610351562,17.270000457763672,9400.0,14.798847198486328
2016-09-01,17.280000686645508,17.209999084472656,17.260000228881836,17.280000686645508,7500.0,14.807417869567871
2016-09-02,17.420000076293945,17.260000228881836,17.260000228881836,17.350000381469727,2300.0,14.867403984069824
2016-09-06,17.434999465942383,17.229999542236328,17.434999465942383,17.25,19500.0,14.78171443939209
2016-09-07,17.34000015258789,17.280000686645508,17.280000686645508,17.299999237060547,3400.0,14.824555397033691
2016-09-08,17.43000030517578,17.260000228881836,17.260000228881836,17.429000854492188,5800.0,14.935098648071289
2016-09-12,17.200000762939453,16.850000381469727,16.850000381469727,17.1299991607666,11700.0,14.678882598876953
2016-09-13,17.020000457763672,16.739999771118164,17.020000457763672,16.739999771118164,11800.0,14.344688415527344
2016-09-14,16.799999237060547,16.700000762939453,16.700000762939453,16.799999237060547,19600.0,14.396100997924805
2016-09-15,16.739999771118164,16.670000076293945,16.68000030517578,16.68000030517578,20800.0,14.364237785339355
2016-09-19,16.56999969482422,16.450000762939453,16.5,16.450000762939453,9900.0,14.166167259216309
2016-09-21,16.540000915527344,16.440000534057617,16.5,16.489999771118164,16800.0,14.200616836547852
2016-09-22,16.690000534057617,16.481000900268555,16.549999237060547,16.6200008392334,17500.0,14.31257152557373
2016-09-23,16.6299991607666,16.549999237060547,16.600000381469727,16.549999237060547,13400.0,14.252286911010742
2016-09-26,16.59000015258789,16.549999237060547,16.549999237060547,16.579999923706055,5200.0,14.278121948242188
2016-09-27,16.59000015258789,16.549999237060547,16.579999923706055,16.549999237060547,8300.0,14.252286911010742
2016-09-28,16.649999618530273,16.549999237060547,16.549999237060547,16.649999618530273,10400.0,14.33840274810791
2016-09-29,16.700000762939453,16.600000381469727,16.6200008392334,16.600000381469727,19300.0,14.295345306396484
2016-09-30,16.790000915527344,16.649999618530273,16.649999618530273,16.770000457763672,11800.0,14.441742897033691
2016-10-03,16.743999481201172,16.625,16.639999389648438,16.65999984741211,5900.0,14.347014427185059
2016-10-04,16.709999084472656,16.559999465942383,16.709999084472656,16.6200008392334,10700.0,14.31257152557373
2016-10-05,16.610000610351562,16.549999237060547,16.59000015258789,16.549999237060547,4300.0,14.252286911010742
2016-10-06,16.600000381469727,16.490999221801758,16.600000381469727,16.551000595092773,12100.0,14.25314712524414
2016-10-07,16.565000534057617,16.530000686645508,16.549999237060547,16.549999237060547,12500.0,14.252286911010742
2016-10-10,16.610000610351562,16.549999237060547,16.549999237060547,16.610000610351562,9500.0,14.303953170776367
2016-10-12,16.68000030517578,16.549999237060547,16.610000610351562,16.68000030517578,12000.0,14.364237785339355
2016-10-13,16.649999618530273,16.545000076293945,16.549999237060547,16.56999969482422,12400.0,14.269508361816406
2016-10-14,16.770000457763672,16.520000457763672,16.540000915527344,16.6200008392334,43200.0,14.384621620178223
2016-10-17,16.649999618530273,16.450000762939453,16.649999618530273,16.469999313354492,16700.0,14.254792213439941
2016-10-18,16.56999969482422,16.520000457763672,16.56999969482422,16.527999877929688,9400.0,14.3049955368042
2016-10-20,16.56999969482422,16.459999084472656,16.489999771118164,16.496999740600586,11000.0,14.278162002563477
2016-10-21,16.469999313354492,16.459999084472656,16.459999084472656,16.459999084472656,29500.0,14.24614143371582
2016-10-24,16.6200008392334,16.485000610351562,16.559999465942383,16.600000381469727,10700.0,14.367308616638184
2016-10-25,16.579999923706055,16.549999237060547,16.559999465942383,16.549999237060547,5900.0,14.324033737182617
2016-10-26,16.600000381469727,16.459999084472656,16.459999084472656,16.545000076293945,12400.0,14.319707870483398
2016-10-27,16.760000228881836,16.5,16.760000228881836,16.549999237060547,12000.0,14.324033737182617
2016-10-28,16.579999923706055,16.459999084472656,16.56999969482422,16.479999542236328,17300.0,14.263452529907227
2016-10-31,16.549999237060547,16.459999084472656,16.510000228881836,16.469999313354492,12100.0,14.254792213439941
2016-11-01,16.559999465942383,16.270000457763672,16.469999313354492,16.270000457763672,24800.0,14.081694602966309
2016-11-02,16.25,16.0,16.25,16.059999465942383,15900.0,13.89993953704834
2016-11-03,16.06999969482422,15.850000381469727,16.0,15.880000114440918,17500.0,13.744149208068848
2016-11-04,15.970000267028809,15.600000381469727,15.899999618530273,15.600000381469727,14800.0,13.501811981201172
2016-11-07,15.746999740600586,15.649999618530273,15.680000305175781,15.649999618530273,27100.0,13.545085906982422
2016-11-08,15.789999961853027,15.640000343322754,15.699999809265137,15.640000343322754,19400.0,13.536431312561035
2016-11-10,15.6899995803833,15.569999694824219,15.619999885559082,15.649999618530273,15400.0,13.545085906982422
2016-11-11,15.850000381469727,15.470000267028809,15.630000114440918,15.850000381469727,26400.0,13.718183517456055
2016-11-14,15.970000267028809,15.5,15.75,15.6899995803833,15800.0,13.579703330993652
2016-11-16,15.772000312805176,15.5600004196167,15.760000228881836,15.649999618530273,13500.0,13.617119789123535
2016-11-18,15.789999961853027,15.579999923706055,15.579999923706055,15.640000343322754,23800.0,13.608418464660645
2016-11-21,15.930000305175781,15.720000267028809,15.75,15.930000305175781,9500.0,13.860748291015625
2016-11-22,15.96500015258789,15.899999618530273,15.899999618530273,15.899999618530273,11800.0,13.834648132324219
2016-11-23,15.949999809265137,15.630000114440918,15.949999809265137,15.670000076293945,24300.0,13.634521484375
2016-11-25,15.684000015258789,15.630000114440918,15.630000114440918,15.680000305175781,3600.0,13.64322566986084
2016-11-28,15.920000076293945,15.609999656677246,15.680000305175781,15.699999809265137,34800.0,13.660624504089355
2016-11-29,15.800000190734863,15.600000381469727,15.6850004196167,15.75,23500.0,13.70412826538086
2016-11-30,15.850000381469727,15.75,15.800000190734863,15.760000228881836,18800.0,13.712827682495117
2016-12-01,15.75,15.59000015258789,15.729999542236328,15.600000381469727,20200.0,13.573615074157715
2016-12-02,15.649999618530273,15.470000267028809,15.630000114440918,15.600000381469727,12700.0,13.573615074157715
2016-12-05,15.640000343322754,15.380000114440918,15.640000343322754,15.409000396728516,69400.0,13.407422065734863
2016-12-06,15.52299976348877,15.390000343322754,15.420000076293945,15.449999809265137,84500.0,13.443100929260254
2016-12-07,15.600000381469727,15.489999771118164,15.489999771118164,15.559000015258789,17500.0,13.537940979003906
2016-12-08,15.649999618530273,15.529999732971191,15.529999732971191,15.569999694824219,45800.0,13.547511100769043
2016-12-09,15.720000267028809,15.600000381469727,15.600000381469727,15.640000343322754,21100.0,13.608418464660645
2016-12-12,15.670000076293945,15.579999923706055,15.670000076293945,15.619999885559082,22400.0,13.591015815734863
2016-12-13,15.819999694824219,15.635000228881836,15.65999984741211,15.8100004196167,44600.0,13.75633716583252
2016-12-14,15.949999809265137,15.8100004196167,15.8100004196167,15.829999923706055,29200.0,13.773737907409668
2016-12-15,15.829999923706055,15.609999656677246,15.779999732971191,15.699999809265137,36200.0,13.732627868652344
2016-12-16,15.75,15.630000114440918,15.680000305175781,15.630000114440918,67600.0,13.67139720916748
2016-12-19,15.9399995803833,15.680000305175781,15.6899995803833,15.9399995803833,46400.0,13.942549705505371
2016-12-20,16.290000915527344,15.869999885559082,15.880000114440918,16.15999984741211,64100.0,14.134986877441406
2016-12-21,16.270000457763672,16.155000686645508,16.15999984741211,16.239999771118164,42300.0,14.20495891571045
2016-12-22,16.450000762939453,16.25,16.25,16.450000762939453,76000.0,14.38864517211914
2016-12-23,16.479999542236328,16.31999969482422,16.459999084472656,16.329999923706055,43000.0,14.28368091583252
2016-12-27,16.520000457763672,16.25,16.520000457763672,16.3799991607666,14900.0,14.327417373657227
2016-12-28,16.389999389648438,16.25,16.350000381469727,16.25,17300.0,14.213706016540527
2016-12-29,16.360000610351562,16.260000228881836,16.360000610351562,16.260000228881836,12500.0,14.222455024719238
2016-12-30,16.299999237060547,16.18000030517578,16.299999237060547,16.219999313354492,9500.0,14.18746566772461
2017-01-03,16.489999771118164,16.299999237060547,16.299999237060547,16.489999771118164,15800.0,14.42363166809082
2017-01-04,16.739999771118164,16.56999969482422,16.579999923706055,16.670000076293945,17400.0,14.581073760986328
2017-01-05,16.709999084472656,16.614999771118164,16.68000030517578,16.68000030517578,5000.0,14.589824676513672
2017-01-06,16.722000122070312,16.610000610351562,16.667999267578125,16.6200008392334,17100.0,14.53734016418457
2017-01-09,16.639999389648438,16.374000549316406,16.610000610351562,16.5,15000.0,14.432379722595215
2017-01-10,16.538999557495117,16.309999465942383,16.440000534057617,16.309999465942383,17200.0,14.266185760498047
2017-01-11,16.424999237060547,16.299999237060547,16.3700008392334,16.378999710083008,15100.0,14.326539039611816
2017-01-12,16.40999984741211,16.329999923706055,16.40999984741211,16.350000381469727,5300.0,14.301178932189941
2017-01-13,16.450000762939453,16.360000610351562,16.360000610351562,16.440000534057617,12500.0,14.379895210266113
2017-01-17,16.450000762939453,16.3700008392334,16.420000076293945,16.410999298095703,33700.0,14.354528427124023
2017-01-19,16.43000030517578,16.280000686645508,16.43000030517578,16.350000381469727,11600.0,14.373876571655273
2017-01-20,16.399999618530273,16.260000228881836,16.34000015258789,16.260000228881836,25200.0,14.29475212097168
2017-01-23,16.34000015258789,16.239999771118164,16.299999237060547,16.34000015258789,25200.0,14.365081787109375
2017-01-24,16.5,16.299999237060547,16.299999237060547,16.479999542236328,25200.0,14.4881591796875
2017-01-25,16.639999389648438,16.469999313354492,16.469999313354492,16.59000015258789,29800.0,14.584863662719727
2017-01-26,16.65999984741211,16.510000228881836,16.600000381469727,16.650999069213867,21600.0,14.638490676879883
2017-01-27,16.760000228881836,16.65999984741211,16.719999313354492,16.729999542236328,13700.0,14.707941055297852
2017-01-30,16.75,16.649999618530273,16.739999771118164,16.700000762939453,23300.0,14.681567192077637
2017-01-31,16.700000762939453,16.469999313354492,16.68000030517578,16.600000381469727,19400.0,14.593657493591309
2017-02-01,16.75,16.68000030517578,16.68000030517578,16.722000122070312,8300.0,14.700909614562988
2017-02-02,16.850000381469727,16.700000762939453,16.700000762939453,16.829999923706055,13100.0,14.795855522155762
2017-02-03,16.989999771118164,16.850000381469727,16.850000381469727,16.93000030517578,20800.0,14.883771896362305
2017-02-06,16.950000762939453,16.84000015258789,16.889999389648438,16.950000762939453,11400.0,14.90135383605957
2017-02-07,16.989999771118164,16.940000534057617,16.940000534057617,16.979999542236328,9900.0,14.927724838256836
2017-02-08,17.049999237060547,16.961999893188477,16.969999313354492,17.049999237060547,11200.0,14.989267349243164
2017-02-09,17.11400032043457,17.040000915527344,17.079999923706055,17.09000015258789,14300.0,15.024432182312012
2017-02-10,17.100000381469727,17.059999465942383,17.100000381469727,17.059999465942383,27000.0,14.998058319091797
2017-02-13,17.139999389648438,17.09000015258789,17.100000381469727,17.1299991607666,25200.0,15.059597969055176
2017-02-14,17.125,17.0,17.125,17.0,18300.0,14.945310592651367
2017-02-16,16.979999542236328,16.809999465942383,16.899999618530273,16.959999084472656,18500.0,14.910143852233887
2017-02-17,16.959999084472656,16.850000381469727,16.850000381469727,16.959999084472656,13400.0,14.910143852233887
2017-02-21,17.0049991607666,16.920000076293945,16.920000076293945,17.0,20200.0,14.945310592651367
2017-02-22,17.100000381469727,16.90999984741211,17.0,17.079999923706055,21400.0,15.015640258789062
2017-02-23,17.1200008392334,17.040000915527344,17.100000381469727,17.1200008392334,26100.0,15.05080795288086
2017-02-24,17.139999389648438,17.049999237060547,17.079999923706055,17.079999923706055,22400.0,15.015640258789062
2017-02-27,17.139999389648438,17.100000381469727,17.1299991607666,17.139999389648438,28400.0,15.068387031555176
2017-02-28,17.18000030517578,16.959999084472656,17.1200008392334,17.06999969482422,32800.0,15.006847381591797
2017-03-01,17.489999771118164,17.06999969482422,17.06999969482422,17.40999984741211,29400.0,15.305755615234375
2017-03-02,17.399999618530273,17.309999465942383,17.3799991607666,17.309999465942383,17500.0,15.217840194702148
2017-03-03,17.350000381469727,17.25,17.350000381469727,17.270000457763672,10100.0,15.182676315307617
2017-03-06,17.229999542236328,17.15999984741211,17.18000030517578,17.229999542236328,12800.0,15.147510528564453
2017-03-07,17.290000915527344,17.190000534057617,17.190000534057617,17.222000122070312,33500.0,15.140478134155273
2017-03-08,17.270000457763672,17.149999618530273,17.270000457763672,17.149999618530273,5700.0,15.077178955078125
2017-03-09,17.170000076293945,17.0,17.170000076293945,17.02199935913086,14300.0,14.964651107788086
2017-03-10,17.013999938964844,16.899999618530273,17.010000228881836,16.920000076293945,20400.0,14.874983787536621
2017-03-13,17.059999465942383,16.809999465942383,17.059999465942383,16.85099983215332,12200.0,14.81431770324707
2017-03-14,16.850000381469727,16.739999771118164,16.809999465942383,16.75200080871582,18400.0,14.727282524108887
2017-03-15,16.899999618530273,16.75,16.790000915527344,16.899999618530273,6900.0,14.931376457214355
2017-03-16,16.940000534057617,16.860000610351562,16.920000076293945,16.889999389648438,10300.0,14.922539710998535
2017-03-17,16.940000534057617,16.899999618530273,16.940000534057617,16.93000030517578,10900.0,14.957880020141602
2017-03-20,16.969999313354492,16.889999389648438,16.93000030517578,16.959999084472656,6400.0,14.984384536743164
2017-03-21,17.020000457763672,16.790000915527344,17.010000228881836,16.790000915527344,30700.0,14.834192276000977
2017-03-22,16.979999542236328,16.75,16.760000228881836,16.969999313354492,25400.0,14.993220329284668
2017-03-23,16.969999313354492,16.90999984741211,16.920000076293945,16.959999084472656,6500.0,14.984384536743164
2017-03-24,16.950000762939453,16.850000381469727,16.950000762939453,16.878999710083008,14800.0,14.912822723388672
2017-03-27,16.979999542236328,16.878999710083008,16.889999389648438,16.950000762939453,10700.0,14.975552558898926
2017-03-28,17.06999969482422,16.950000762939453,16.950000762939453,17.042999267578125,5300.0,15.057720184326172
2017-03-29,17.040000915527344,16.920000076293945,17.014999389648438,16.920000076293945,26400.0,14.949050903320312
2017-03-30,16.9950008392334,16.8700008392334,16.950000762939453,16.920000076293945,27600.0,14.949050903320312
2017-03-31,16.954999923706055,16.760000228881836,16.950000762939453,16.950000762939453,24000.0,14.975552558898926
2017-04-03,16.959999084472656,16.770000457763672,16.940000534057617,16.959999084472656,23800.0,14.984384536743164
2017-04-04,17.030000686645508,16.93000030517578,16.93000030517578,17.030000686645508,10400.0,15.046236991882324
2017-04-05,17.100000381469727,17.0,17.049999237060547,17.0,14300.0,15.019728660583496
2017-04-06,17.149999618530273,17.06999969482422,17.072999954223633,17.1200008392334,7500.0,15.125748634338379
2017-04-07,17.149999618530273,17.059999465942383,17.139999389648438,17.149999618530273,8800.0,15.15225601196289
2017-04-10,17.280000686645508,17.1299991607666,17.149999618530273,17.25,25400.0,15.240604400634766
2017-04-11,17.299999237060547,17.229999542236328,17.299999237060547,17.239999771118164,21700.0,15.231768608093262
2017-04-12,17.225000381469727,17.110000610351562,17.209999084472656,17.139999389648438,25300.0,15.216673851013184
2017-04-13,17.209999084472656,17.020000457763672,17.149999618530273,17.020000457763672,32100.0,15.110149383544922
2017-04-17,17.139999389648438,17.0,17.108999252319336,17.075000762939453,33900.0,15.158975601196289
2017-04-18,17.149999618530273,17.020000457763672,17.079999923706055,17.149999618530273,19400.0,15.22555923461914
2017-04-19,17.239999771118164,17.1200008392334,17.145000457763672,17.190000534057617,31600.0,15.26107120513916
2017-04-20,17.309999465942383,17.09000015258789,17.209999084472656,17.26099967956543,21100.0,15.324098587036133
2017-04-21,17.260000228881836,17.201000213623047,17.25,17.229999542236328,15500.0,15.296578407287598
2017-04-24,17.309999465942383,17.200000762939453,17.270000457763672,17.260000228881836,7600.0,15.32321548461914
2017-04-25,17.350000381469727,17.170000076293945,17.190000534057617,17.290000915527344,40800.0,15.349852561950684
2017-04-26,17.360000610351562,17.260000228881836,17.299999237060547,17.299999237060547,14800.0,15.358725547790527
2017-04-27,17.329999923706055,17.15999984741211,17.209999084472656,17.15999984741211,30400.0,15.234434127807617
2017-04-28,17.239999771118164,17.1299991607666,17.200000762939453,17.1299991607666,19800.0,15.20780086517334
2017-05-02,17.3700008392334,16.989999771118164,17.3700008392334,16.989999771118164,30000.0,15.083510398864746
2017-05-03,17.139999389648438,17.049999237060547,17.049999237060547,17.09000015258789,4500.0,15.17228889465332
2017-05-04,17.1299991607666,17.020000457763672,17.1200008392334,17.059999465942383,10700.0,15.145652770996094
2017-05-05,17.209999084472656,17.010000228881836,17.010000228881836,17.200000762939453,14100.0,15.269949913024902
2017-05-08,17.25,17.15999984741211,17.174999237060547,17.15999984741211,21500.0,15.234434127807617
2017-05-09,17.34600067138672,17.209999084472656,17.34600067138672,17.299999237060547,4300.0,15.358725547790527
2017-05-10,17.270000457763672,17.190000534057617,17.260000228881836,17.270000457763672,8700.0,15.332088470458984
2017-05-11,17.209999084472656,16.959999084472656,17.204999923706055,17.079999923706055,33200.0,15.163409233093262
2017-05-12,17.18000030517578,17.059999465942383,17.059999465942383,17.100000381469727,11100.0,15.181170463562012
2017-05-15,17.200000762939453,17.1299991607666,17.200000762939453,17.200000762939453,10700.0,15.269949913024902
2017-05-16,17.239999771118164,17.190000534057617,17.239999771118164,17.229999542236328,8100.0,15.296578407287598
2017-05-17,17.110000610351562,16.950000762939453,17.110000610351562,16.950000762939453,23000.0,15.120841026306152
2017-05-18,16.959999084472656,16.84000015258789,16.959999084472656,16.8799991607666,10400.0,15.058396339416504
2017-05-19,17.0,16.895000457763672,16.895000457763672,17.0,11200.0,15.16544246673584
2017-05-22,17.100000381469727,17.0,17.0,17.079999923706055,21700.0,15.236808776855469
2017-05-23,17.110000610351562,17.020000457763672,17.084999084472656,17.09000015258789,9400.0,15.245733261108398
2017-05-24,17.110000610351562,17.049999237060547,17.059999465942383,17.110000610351562,13300.0,15.26357364654541
2017-05-25,17.135000228881836,17.06999969482422,17.113000869750977,17.1299991607666,9500.0,15.281413078308105
2017-05-26,17.149999618530273,17.079999923706055,17.149999618530273,17.086999893188477,7100.0,15.243060111999512
2017-05-30,17.18000030517578,17.059999465942383,17.059999465942383,17.170000076293945,14400.0,15.317095756530762
2017-05-31,17.25,17.1200008392334,17.18000030517578,17.239999771118164,17200.0,15.37954330444336
2017-06-01,17.309999465942383,17.200000762939453,17.200000762939453,17.309999465942383,18600.0,15.441988945007324
2017-06-02,17.34000015258789,17.299999237060547,17.299999237060547,17.34000015258789,4300.0,15.468750953674316
2017-06-05,17.389999389648438,17.350000381469727,17.389999389648438,17.3700008392334,5000.0,15.495515823364258
2017-06-06,17.375,17.214000701904297,17.309999465942383,17.315000534057617,11600.0,15.44644546508789
2017-06-07,17.450000762939453,17.239999771118164,17.3700008392334,17.239999771118164,11600.0,15.37954330444336
2017-06-08,17.31999969482422,17.25,17.31999969482422,17.290000915527344,2700.0,15.424152374267578
2017-06-09,17.309999465942383,17.229999542236328,17.290000915527344,17.229999542236328,6500.0,15.370621681213379
2017-06-12,17.25,17.170000076293945,17.219999313354492,17.170000076293945,5600.0,15.317095756530762
2017-06-13,17.270000457763672,17.18000030517578,17.18000030517578,17.233999252319336,4400.0,15.374186515808105
2017-06-14,17.31999969482422,17.149999618530273,17.31999969482422,17.299999237060547,12300.0,15.433065414428711
2017-06-15,17.25,17.09000015258789,17.25,17.1299991607666,18000.0,15.355081558227539
2017-06-16,17.18600082397461,17.1299991607666,17.149999618530273,17.156999588012695,29300.0,15.379283905029297
2017-06-19,17.25,17.135000228881836,17.190000534057617,17.229999542236328,30200.0,15.444724082946777
2017-06-20,17.239999771118164,17.049999237060547,17.239999771118164,17.100000381469727,18300.0,15.328191757202148
2017-06-21,17.170000076293945,17.059999465942383,17.1299991607666,17.079999923706055,15500.0,15.310262680053711
2017-06-22,17.110000610351562,17.049999237060547,17.110000610351562,17.059999465942383,26500.0,15.29233455657959
2017-06-23,17.149999618530273,17.059999465942383,17.059999465942383,17.149999618530273,13600.0,15.37300968170166
2017-06-26,17.209999084472656,17.135000228881836,17.200000762939453,17.19099998474121,17400.0,15.409761428833008
2017-06-27,17.260000228881836,17.15999984741211,17.260000228881836,17.239999771118164,12000.0,15.453686714172363
2017-06-28,17.299999237060547,17.1200008392334,17.170000076293945,17.290000915527344,8500.0,15.498509407043457
2017-06-29,17.280000686645508,17.139999389648438,17.25,17.200000762939453,19700.0,15.417831420898438
2017-06-30,17.290000915527344,17.149999618530273,17.18000030517578,17.229999542236328,19800.0,15.444724082946777
2017-07-03,17.270000457763672,17.19099998474121,17.200000762939453,17.270000457763672,3500.0,15.48057746887207
2017-07-05,17.174999237060547,17.06999969482422,17.174999237060547,17.100000381469727,5400.0,15.328191757202148
2017-07-06,17.18000030517578,17.000999450683594,17.18000030517578,17.049999237060547,11300.0,15.283371925354004
2017-07-07,17.149999618530273,17.05500030517578,17.05500030517578,17.139999389648438,8500.0,15.364044189453125
2017-07-10,17.110000610351562,17.049999237060547,17.110000610351562,17.06999969482422,2800.0,15.301299095153809
2017-07-11,17.100000381469727,17.0,17.094999313354492,17.0,16300.0,15.238551139831543
2017-07-12,17.104999542236328,17.049999237060547,17.049999237060547,17.079999923706055,8700.0,15.310262680053711
2017-07-13,17.052000045776367,16.950000762939453,17.0,17.049999237060547,35900.0,15.283371925354004
2017-07-14,17.1200008392334,16.969999313354492,16.969999313354492,17.1200008392334,17600.0,15.421192169189453
2017-07-17,17.139999389648438,16.989999771118164,17.104999542236328,16.989999771118164,11400.0,15.304088592529297
2017-07-18,17.049999237060547,16.90999984741211,17.0,17.020000457763672,36100.0,15.331116676330566
2017-07-19,17.149999618530273,17.030000686645508,17.030000686645508,17.149999618530273,17700.0,15.448211669921875
2017-07-20,17.260000228881836,17.139999389648438,17.139999389648438,17.25,11300.0,15.53829288482666
2017-07-21,17.219999313354492,17.149999618530273,17.209999084472656,17.219999313354492,13300.0,15.511263847351074
2017-07-24,17.170000076293945,17.079999923706055,17.170000076293945,17.079999923706055,10500.0,15.385156631469727
2017-07-25,17.15999984741211,17.100000381469727,17.149999618530273,17.1299991607666,14500.0,15.430194854736328
2017-07-26,17.139999389648438,17.09000015258789,17.09000015258789,17.139999389648438,23600.0,15.439203262329102
2017-07-27,17.149999618530273,17.100000381469727,17.1299991607666,17.149999618530273,9300.0,15.448211669921875
2017-07-28,17.170000076293945,17.06999969482422,17.1200008392334,17.170000076293945,14500.0,15.466228485107422
2017-07-31,17.18000030517578,17.139999389648438,17.139999389648438,17.177000045776367,11600.0,15.4725341796875
2017-08-01,17.229999542236328,17.149999618530273,17.149999618530273,17.209999084472656,10600.0,15.502256393432617
2017-08-02,17.190000534057617,17.149999618530273,17.184999465942383,17.149999618530273,12000.0,15.448211669921875
2017-08-03,17.139999389648438,17.09000015258789,17.1299991607666,17.09000015258789,5400.0,15.394164085388184
2017-08-04,17.15999984741211,17.09000015258789,17.15999984741211,17.09000015258789,3800.0,15.394164085388184
2017-08-07,17.09000015258789,17.030000686645508,17.09000015258789,17.030000686645508,4800.0,15.34012222290039
2017-08-08,17.024999618530273,16.959999084472656,17.024999618530273,16.985000610351562,12700.0,15.299583435058594
2017-08-09,17.0,16.81999969482422,16.93000030517578,16.888999938964844,15900.0,15.213107109069824
2017-08-10,16.860000610351562,16.540000915527344,16.860000610351562,16.639999389648438,23700.0,14.988818168640137
2017-08-11,16.649999618530273,16.510000228881836,16.649999618530273,16.56999969482422,11700.0,14.925765991210938
2017-08-14,16.790000915527344,16.639999389648438,16.639999389648438,16.75,8100.0,15.087907791137695
2017-08-15,16.75,16.690000534057617,16.739999771118164,16.700000762939453,23000.0,15.042865753173828
2017-08-16,16.760000228881836,16.700000762939453,16.700000762939453,16.760000228881836,23400.0,15.09691333770752
2017-08-17,16.690000534057617,16.5049991607666,16.690000534057617,16.510000228881836,12600.0,14.945734024047852
2017-08-18,16.510000228881836,16.399999618530273,16.510000228881836,16.479999542236328,17300.0,14.918580055236816
2017-08-21,16.479999542236328,16.389999389648438,16.420000076293945,16.479999542236328,7100.0,14.918580055236816
2017-08-22,16.540000915527344,16.469999313354492,16.479999542236328,16.540000915527344,11400.0,14.972890853881836
2017-08-23,16.56999969482422,16.520000457763672,16.524999618530273,16.56999969482422,10600.0,15.00005054473877
2017-08-24,16.559999465942383,16.510000228881836,16.549999237060547,16.510000228881836,7000.0,14.945734024047852
2017-08-25,16.65999984741211,16.575000762939453,16.575000762939453,16.649999618530273,4200.0,15.072469711303711
2017-08-28,16.649999618530273,16.600000381469727,16.649999618530273,16.600000381469727,3800.0,15.027207374572754
2017-08-29,16.600000381469727,16.489999771118164,16.56999969482422,16.489999771118164,16900.0,14.927631378173828
2017-08-30,16.545000076293945,16.479999542236328,16.530000686645508,16.510000228881836,17700.0,14.945734024047852
2017-08-31,16.604999542236328,16.5,16.510000228881836,16.538000106811523,30700.0,14.97108268737793
2017-09-01,16.670000076293945,16.56999969482422,16.59000015258789,16.6200008392334,20900.0,15.045313835144043
2017-09-05,16.65999984741211,16.5,16.56999969482422,16.5,6200.0,14.936684608459473
2017-09-06,16.621000289916992,16.540000915527344,16.610000610351562,16.540000915527344,6000.0,14.972890853881836
2017-09-07,16.639999389648438,16.530000686645508,16.579999923706055,16.639999389648438,13900.0,15.06341552734375
2017-09-08,16.635000228881836,16.549999237060547,16.549999237060547,16.6200008392334,8100.0,15.045313835144043
2017-09-11,16.774999618530273,16.6299991607666,16.6299991607666,16.729999542236328,5800.0,15.144890785217285
2017-09-12,16.770000457763672,16.700000762939453,16.719999313354492,16.704999923706055,10600.0,15.122258186340332
2017-09-13,16.780000686645508,16.700000762939453,16.732999801635742,16.739999771118164,12100.0,15.153942108154297
2017-09-14,16.78499984741211,16.7549991607666,16.770000457763672,16.78499984741211,7300.0,15.19467830657959
2017-09-15,16.780000686645508,16.6299991607666,16.780000686645508,16.670000076293945,11200.0,15.165570259094238
2017-09-18,16.719999313354492,16.610000610351562,16.65999984741211,16.639999389648438,17600.0,15.138276100158691
2017-09-19,16.68000030517578,16.610000610351562,16.649999618530273,16.665000915527344,15600.0,15.16102123260498
2017-09-20,16.799999237060547,16.642000198364258,16.642000198364258,16.709999084472656,24100.0,15.20195484161377
2017-09-21,16.719999313354492,16.6200008392334,16.719999313354492,16.6299991607666,15400.0,15.129176139831543
2017-09-22,16.729999542236328,16.649999618530273,16.670000076293945,16.729999542236328,10700.0,15.220155715942383
2017-09-25,16.770000457763672,16.666000366210938,16.68000030517578,16.760000228881836,7400.0,15.247448921203613
2017-09-26,16.799999237060547,16.739999771118164,16.770000457763672,16.790000915527344,14000.0,15.274739265441895
2017-09-27,16.850000381469727,16.697999954223633,16.700000762939453,16.84000015258789,20500.0,15.320225715637207
2017-09-28,16.8799991607666,16.760000228881836,16.760000228881836,16.8799991607666,16200.0,15.356614112854004
2017-09-29,16.90999984741211,16.850000381469727,16.8700008392334,16.90999984741211,12800.0,15.383909225463867
2017-10-02,16.959999084472656,16.889999389648438,16.889999389648438,16.950000762939453,6900.0,15.42029857635498
2017-10-03,17.030000686645508,16.902999877929688,16.902999877929688,17.0,33100.0,15.465784072875977
2017-10-04,17.0,16.920000076293945,16.9950008392334,16.950000762939453,21900.0,15.42029857635498
2017-10-05,17.045000076293945,16.889999389648438,16.889999389648438,17.030000686645508,30300.0,15.493080139160156
2017-10-06,17.040000915527344,16.940000534057617,16.979999542236328,16.950000762939453,10200.0,15.42029857635498
2017-10-09,16.989999771118164,16.90999984741211,16.934999465942383,16.989999771118164,18100.0,15.45668888092041
2017-10-10,17.010000228881836,17.0,17.0,17.010000228881836,1500.0,15.474888801574707
2017-10-11,17.049999237060547,16.950000762939453,17.049999237060547,16.950000762939453,15200.0,15.42029857635498
2017-10-12,17.030000686645508,16.986000061035156,17.0,17.030000686645508,9900.0,15.493080139160156
2017-10-13,17.010000228881836,16.969999313354492,17.0,16.989999771118164,10200.0,15.45668888092041
2017-10-16,17.0,16.93000030517578,17.0,16.93000030517578,6700.0,15.402104377746582
2017-10-17,16.90999984741211,16.850000381469727,16.90999984741211,16.850000381469727,12600.0,15.329322814941406
2017-10-18,16.850000381469727,16.729999542236328,16.850000381469727,16.780000686645508,25700.0,15.341208457946777
2017-10-19,16.829999923706055,16.739999771118164,16.829999923706055,16.739999771118164,10200.0,15.304638862609863
2017-10-20,16.829999923706055,16.739999771118164,16.799999237060547,16.791000366210938,19400.0,15.351264953613281
2017-10-23,16.80500030517578,16.75,16.799999237060547,16.790000915527344,20800.0,15.350350379943848
2017-10-24,16.816999435424805,16.75,16.799999237060547,16.790000915527344,58600.0,15.350350379943848
2017-10-25,16.770000457763672,16.670000076293945,16.739999771118164,16.760000228881836,6600.0,15.32292652130127
2017-10-26,16.780000686645508,16.735000610351562,16.735000610351562,16.780000686645508,10500.0,15.341208457946777
2017-10-27,16.799999237060547,16.709999084472656,16.799999237060547,16.729999542236328,21900.0,15.29549789428711
2017-10-30,16.690000534057617,16.559999465942383,16.690000534057617,16.600000381469727,15900.0,15.17664623260498
2017-10-31,16.719999313354492,16.600000381469727,16.719999313354492,16.6200008392334,11400.0,15.194929122924805
2017-11-01,16.69499969482422,16.579999923706055,16.65999984741211,16.579999923706055,18100.0,15.158356666564941
2017-11-02,16.579999923706055,16.450000762939453,16.56999969482422,16.489999771118164,17400.0,15.076074600219727
2017-11-03,16.55500030517578,16.469999313354492,16.55500030517578,16.510000228881836,7400.0,15.094359397888184
2017-11-06,16.719999313354492,16.454999923706055,16.719999313354492,16.459999084472656,7200.0,15.048649787902832
2017-11-07,16.53499984741211,16.469999313354492,16.469999313354492,16.5,10200.0,15.085217475891113
2017-11-08,16.559999465942383,16.510000228881836,16.510000228881836,16.549999237060547,11500.0,15.130928993225098
2017-11-09,16.510000228881836,16.3799991607666,16.4950008392334,16.3799991607666,27200.0,14.975502967834473
2017-11-10,16.399999618530273,16.239999771118164,16.389999389648438,16.239999771118164,21900.0,14.847509384155273
2017-11-13,16.239999771118164,16.1299991607666,16.1299991607666,16.149999618530273,48500.0,14.765227317810059
2017-11-14,16.110000610351562,16.020000457763672,16.110000610351562,16.059999465942383,20100.0,14.682945251464844
2017-11-15,16.100000381469727,15.949999809265137,16.049999237060547,16.100000381469727,32300.0,14.719515800476074
2017-11-16,16.1299991607666,16.025999069213867,16.025999069213867,16.030000686645508,46000.0,14.655515670776367
2017-11-17,15.979999542236328,15.850000381469727,15.960000038146973,15.949999809265137,29500.0,14.649086952209473
2017-11-20,16.020000457763672,15.949999809265137,15.949999809265137,15.989999771118164,29900.0,14.68582534790039
2017-11-21,16.209999084472656,16.049999237060547,16.049999237060547,16.170000076293945,20100.0,14.851142883300781
2017-11-22,16.299999237060547,16.100000381469727,16.299999237060547,16.100000381469727,14200.0,14.786853790283203
2017-11-24,16.229999542236328,16.110000610351562,16.110000610351562,16.139999389648438,3800.0,14.823591232299805
2017-11-27,16.155000686645508,16.059999465942383,16.1299991607666,16.138999938964844,19100.0,14.822670936584473
2017-11-28,16.170000076293945,16.030000686645508,16.1200008392334,16.15999984741211,26300.0,14.841961860656738
2017-11-29,16.280000686645508,16.100000381469727,16.100000381469727,16.280000686645508,16400.0,14.952176094055176
2017-11-30,16.3799991607666,16.260000228881836,16.270000457763672,16.360000610351562,22700.0,15.025647163391113
2017-12-01,16.360000610351562,16.299999237060547,16.329999923706055,16.350000381469727,8400.0,15.016464233398438
2017-12-04,16.450000762939453,16.399999618530273,16.399999618530273,16.450000762939453,31400.0,15.108306884765625
2017-12-05,16.479999542236328,16.40999984741211,16.450000762939453,16.450000762939453,25800.0,15.108306884765625
2017-12-06,16.469999313354492,16.399999618530273,16.450000762939453,16.399999618530273,19800.0,15.062384605407715
2017-12-07,16.440000534057617,16.3799991607666,16.420000076293945,16.420000076293945,18700.0,15.080757141113281
2017-12-08,16.424999237060547,16.31999969482422,16.350000381469727,16.399999618530273,77300.0,15.062384605407715
2017-12-11,16.440000534057617,16.399999618530273,16.399999618530273,16.420000076293945,95500.0,15.080757141113281
2017-12-12,16.604999542236328,16.399999618530273,16.399999618530273,16.604999542236328,29900.0,15.250662803649902
2017-12-13,16.729999542236328,16.559999465942383,16.584999084472656,16.729999542236328,23700.0,15.365468978881836
2017-12-14,16.790000915527344,16.709999084472656,16.719999313354492,16.75,10400.0,15.383835792541504
2017-12-15,16.75,16.6200008392334,16.639999389648438,16.75,17100.0,15.45117473602295
2017-12-18,16.8799991607666,16.770000457763672,16.799999237060547,16.770000457763672,25300.0,15.469629287719727
2017-12-19,16.770000457763672,16.700000762939453,16.759000778198242,16.709999084472656,27300.0,15.414278030395508
2017-12-20,16.729999542236328,16.459999084472656,16.729999542236328,16.459999084472656,21100.0,15.183664321899414
2017-12-21,16.514999389648438,16.459999084472656,16.469999313354492,16.5,73800.0,15.220564842224121
2017-12-22,16.559999465942383,16.5,16.548999786376953,16.549999237060547,24300.0,15.26668643951416
2017-12-26,16.530000686645508,16.5,16.514999389648438,16.520000457763672,10200.0,15.239014625549316
2017-12-27,16.55500030517578,16.489999771118164,16.520000457763672,16.489999771118164,102000.0,15.211339950561523
2017-12-28,16.540000915527344,16.469999313354492,16.520000457763672,16.5,147900.0,15.220564842224121
2017-12-29,16.59000015258789,16.479999542236328,16.479999542236328,16.59000015258789,22900.0,15.303585052490234
2018-01-02,16.639999389648438,16.559999465942383,16.559999465942383,16.59000015258789,27400.0,15.303585052490234
2018-01-03,16.635000228881836,16.510000228881836,16.510000228881836,16.559999465942383,14100.0,15.275911331176758
2018-01-04,16.690000534057617,16.579999923706055,16.579999923706055,16.65999984741211,7900.0,15.368157386779785
2018-01-05,16.68000030517578,16.600000381469727,16.670000076293945,16.68000030517578,19400.0,15.386608123779297
2018-01-08,16.709999084472656,16.6299991607666,16.632999420166016,16.709999084472656,12300.0,15.414278030395508
2018-01-09,16.770000457763672,16.670000076293945,16.709999084472656,16.770000457763672,21700.0,15.469629287719727
2018-01-10,16.75,16.649999618530273,16.690000534057617,16.739999771118164,16700.0,15.441951751708984
2018-01-11,16.799999237060547,16.709999084472656,16.725000381469727,16.709999084472656,15800.0,15.414278030395508
2018-01-12,16.82900047302246,16.760000228881836,16.799999237060547,16.780000686645508,10100.0,15.478852272033691
2018-01-16,16.899999618530273,16.770000457763672,16.899999618530273,16.81999969482422,19300.0,15.515751838684082
2018-01-17,16.84000015258789,16.790000915527344,16.809999465942383,16.790000915527344,16000.0,15.488079071044922
2018-01-18,16.719999313354492,16.65999984741211,16.709999084472656,16.690000534057617,38100.0,15.463061332702637
2018-01-19,16.700000762939453,16.6299991607666,16.6299991607666,16.690000534057617,7500.0,15.463061332702637
2018-01-22,16.75,16.700000762939453,16.729999542236328,16.711999893188477,7400.0,15.483445167541504
2018-01-23,16.829999923706055,16.709999084472656,16.709999084472656,16.790000915527344,7300.0,15.555710792541504
2018-01-24,16.8799991607666,16.75,16.8799991607666,16.799999237060547,12400.0,15.564974784851074
2018-01-25,16.819000244140625,16.75,16.77899932861328,16.780000686645508,10600.0,15.546445846557617
2018-01-26,16.850000381469727,16.770000457763672,16.790000915527344,16.81999969482422,11100.0,15.58350658416748
2018-01-29,16.809999465942383,16.739999771118164,16.790000915527344,16.739999771118164,6200.0,15.509385108947754
2018-01-30,16.729999542236328,16.56999969482422,16.65999984741211,16.68000030517578,14700.0,15.453800201416016
2018-01-31,16.690000534057617,16.6200008392334,16.649999618530273,16.690000534057617,4600.0,15.463061332702637
2018-02-01,16.65999984741211,16.540000915527344,16.65999984741211,16.59000015258789,10100.0,15.370410919189453
2018-02-02,16.5,16.34000015258789,16.440000534057617,16.34000015258789,14600.0,15.138792037963867
2018-02-05,16.260000228881836,15.760000228881836,16.260000228881836,15.770000457763672,16100.0,14.610692977905273
2018-02-06,15.729999542236328,15.489999771118164,15.680000305175781,15.720000267028809,44800.0,14.564370155334473
2018-02-07,15.918000221252441,15.630000114440918,15.630000114440918,15.720000267028809,43000.0,14.564370155334473
2018-02-08,15.710000038146973,15.430000305175781,15.710000038146973,15.430000305175781,14100.0,14.295689582824707
2018-02-09,15.5,15.223999977111816,15.489999771118164,15.4399995803833,31200.0,14.304952621459961
2018-02-12,15.670000076293945,15.460000038146973,15.489999771118164,15.569999694824219,22400.0,14.425395011901855
2018-02-13,15.680000305175781,15.510000228881836,15.529999732971191,15.670000076293945,16100.0,14.518044471740723
2018-02-14,15.770000457763672,15.651000022888184,15.651000022888184,15.75,31400.0,14.592164993286133
2018-02-15,15.800000190734863,15.670000076293945,15.670000076293945,15.760000228881836,7900.0,14.669419288635254
2018-02-16,15.850000381469727,15.75,15.819999694824219,15.779999732971191,21000.0,14.688035011291504
2018-02-20,15.819999694824219,15.690999984741211,15.770000457763672,15.699999809265137,20100.0,14.613572120666504
2018-02-21,15.760000228881836,15.699999809265137,15.710000038146973,15.699999809265137,18600.0,14.613572120666504
2018-02-22,15.753999710083008,15.682000160217285,15.739999771118164,15.75,14500.0,14.660112380981445
2018-02-23,15.819999694824219,15.720000267028809,15.75,15.800000190734863,33200.0,14.706650733947754
2018-02-26,15.869999885559082,15.800000190734863,15.869999885559082,15.8100004196167,20700.0,14.715960502624512
2018-02-27,15.859999656677246,15.678999900817871,15.859999656677246,15.75,16600.0,14.660112380981445
2018-02-28,15.71500015258789,15.550000190734863,15.699999809265137,15.550000190734863,10400.0,14.473952293395996
2018-03-01,15.59000015258789,15.380000114440918,15.545000076293945,15.399999618530273,18000.0,14.334330558776855
2018-03-02,15.369999885559082,15.029999732971191,15.369999885559082,15.319999694824219,39900.0,14.259868621826172
2018-03-05,15.449999809265137,15.300000190734863,15.300000190734863,15.4399995803833,29800.0,14.371562957763672
2018-03-06,15.470000267028809,15.399999618530273,15.460000038146973,15.4399995803833,18600.0,14.371562957763672
2018-03-07,15.5,15.449999809265137,15.449999809265137,15.489999771118164,13200.0,14.41810417175293
2018-03-08,15.539999961853027,15.5,15.5,15.529999732971191,4900.0,14.455333709716797
2018-03-09,15.6899995803833,15.600000381469727,15.65999984741211,15.6899995803833,20000.0,14.604263305664062
2018-03-12,15.704999923706055,15.640000343322754,15.65999984741211,15.649999618530273,16100.0,14.567031860351562
2018-03-13,15.789999961853027,15.649999618530273,15.789999961853027,15.680000305175781,21200.0,14.594956398010254
2018-03-14,15.694999694824219,15.649999618530273,15.694999694824219,15.65999984741211,15200.0,14.576339721679688
2018-03-15,15.609999656677246,15.5600004196167,15.59000015258789,15.609999656677246,7900.0,14.597848892211914
2018-03-16,15.619999885559082,15.550000190734863,15.579999923706055,15.550000190734863,11700.0,14.541738510131836
2018-03-19,15.5,15.399999618530273,15.5,15.470000267028809,14600.0,14.466925621032715
2018-03-20,15.489999771118164,15.350000381469727,15.470000267028809,15.350000381469727,21100.0,14.35470962524414
2018-03-21,15.380000114440918,15.279999732971191,15.359999656677246,15.279999732971191,25100.0,14.289246559143066
2018-03-22,15.279999732971191,15.029999732971191,15.25,15.029999732971191,32700.0,14.055455207824707
2018-03-23,15.039999961853027,14.829999923706055,15.039999961853027,14.850000381469727,25600.0,13.887126922607422
2018-03-26,15.050000190734863,14.859999656677246,15.050000190734863,14.9399995803833,33100.0,13.971290588378906
2018-03-27,15.069999694824219,14.920000076293945,14.920000076293945,14.949999809265137,23400.0,13.980643272399902
2018-03-28,15.09000015258789,14.949999809265137,15.09000015258789,14.949999809265137,23700.0,13.980643272399902
2018-03-29,15.03499984741211,14.949999809265137,15.0,15.029999732971191,35300.0,14.055455207824707
2018-04-02,15.050000190734863,14.960000038146973,14.960000038146973,15.010000228881836,13000.0,14.036752700805664
2018-04-03,15.039999961853027,14.96500015258789,14.989999771118164,15.039999961853027,18400.0,14.064806938171387
2018-04-04,15.107000350952148,14.949999809265137,15.015000343322754,15.100000381469727,31000.0,14.120916366577148
2018-04-05,15.199999809265137,15.114999771118164,15.130000114440918,15.180000305175781,19700.0,14.195730209350586
2018-04-06,15.204999923706055,15.0,15.204999923706055,15.039999961853027,16100.0,14.064806938171387
2018-04-09,15.194999694824219,15.039999961853027,15.130000114440918,15.180000305175781,12600.0,14.195730209350586
2018-04-10,15.229999542236328,15.140000343322754,15.15999984741211,15.15999984741211,12700.0,14.17702579498291
2018-04-11,15.199999809265137,15.130000114440918,15.140000343322754,15.199999809265137,21800.0,14.214432716369629
2018-04-12,15.239999771118164,15.210000038146973,15.210000038146973,15.230999946594238,5000.0,14.243422508239746
2018-04-13,15.180000305175781,15.100000381469727,15.175000190734863,15.109999656677246,8200.0,14.198320388793945
2018-04-16,15.220000267028809,15.109999656677246,15.220000267028809,15.1899995803833,11600.0,14.273491859436035
2018-04-17,15.369999885559082,15.25,15.25,15.369999885559082,10700.0,14.442631721496582
2018-04-18,15.449999809265137,15.395000457763672,15.399999618530273,15.402000427246094,27700.0,14.472701072692871
2018-04-19,15.319999694824219,15.210000038146973,15.319999694824219,15.279999732971191,17700.0,14.358062744140625
2018-04-20,15.210000038146973,15.1899995803833,15.199999809265137,15.210000038146973,19500.0,14.292284965515137
2018-04-23,15.25,15.119999885559082,15.25,15.119999885559082,11700.0,14.207714080810547
2018-04-24,15.279999732971191,15.109999656677246,15.279999732971191,15.109999656677246,24000.0,14.198320388793945
2018-04-25,15.130000114440918,15.109999656677246,15.109999656677246,15.130000114440918,4300.0,14.217114448547363
2018-04-26,15.220000267028809,15.201000213623047,15.220000267028809,15.201000213623047,3700.0,14.283827781677246
2018-04-27,15.369999885559082,15.230999946594238,15.288999557495117,15.329999923706055,15700.0,14.405045509338379
2018-04-30,15.420000076293945,15.229999542236328,15.350000381469727,15.270000457763672,19800.0,14.348665237426758
2018-05-01,15.229999542236328,15.109999656677246,15.229999542236328,15.119999885559082,26200.0,14.207714080810547
2018-05-02,15.135000228881836,15.079999923706055,15.130000114440918,15.100000381469727,9600.0,14.188922882080078
2018-05-03,15.100000381469727,15.029999732971191,15.029999732971191,15.100000381469727,5400.0,14.188922882080078
2018-05-04,15.149999618530273,15.050000190734863,15.109999656677246,15.100000381469727,23900.0,14.188922882080078
2018-05-07,15.229999542236328,15.15999984741211,15.15999984741211,15.229999542236328,3800.0,14.311079025268555
2018-05-08,15.220000267028809,15.149999618530273,15.210000038146973,15.199999809265137,11700.0,14.282888412475586
2018-05-09,15.210000038146973,15.175000190734863,15.1899995803833,15.199999809265137,18900.0,14.282888412475586
2018-05-10,15.4399995803833,15.239999771118164,15.239999771118164,15.420000076293945,17600.0,14.489615440368652
2018-05-11,15.550000190734863,15.449999809265137,15.5,15.5,14300.0,14.564788818359375
2018-05-14,15.529999732971191,15.40999984741211,15.505000114440918,15.420000076293945,18500.0,14.489615440368652
2018-05-15,15.420000076293945,15.3100004196167,15.420000076293945,15.324999809265137,16100.0,14.400346755981445
2018-05-16,15.385000228881836,15.300000190734863,15.369999885559082,15.3100004196167,12800.0,14.386252403259277
2018-05-17,15.369999885559082,15.199999809265137,15.369999885559082,15.289999961853027,14200.0,14.43629264831543
2018-05-18,15.279999732971191,15.229999542236328,15.25,15.229999542236328,5500.0,14.37964153289795
2018-05-21,15.3100004196167,15.229999542236328,15.3100004196167,15.25,11400.0,14.39852523803711
2018-05-22,15.295000076293945,15.239999771118164,15.260000228881836,15.25,25900.0,14.39852523803711
2018-05-23,15.3100004196167,15.229999542236328,15.260000228881836,15.270000457763672,22600.0,14.41740894317627
2018-05-24,15.28499984741211,15.199999809265137,15.260000228881836,15.210000038146973,16100.0,14.360759735107422
2018-05-25,15.25,15.199999809265137,15.199999809265137,15.25,16700.0,14.39852523803711
2018-05-29,15.199999809265137,15.100000381469727,15.199999809265137,15.109999656677246,15100.0,14.266345024108887
2018-05-30,15.289999961853027,15.1899995803833,15.279999732971191,15.265000343322754,9200.0,14.412689208984375
2018-05-31,15.3100004196167,15.25,15.260000228881836,15.289999961853027,26800.0,14.43629264831543
2018-06-01,15.329999923706055,15.25,15.25,15.329999923706055,12200.0,14.474061012268066
2018-06-04,15.390000343322754,15.295000076293945,15.300000190734863,15.350000381469727,28000.0,14.49294376373291
2018-06-05,15.359999656677246,15.329999923706055,15.333999633789062,15.359999656677246,21100.0,14.502385139465332
2018-06-06,15.420000076293945,15.380000114440918,15.420000076293945,15.390000343322754,35100.0,14.530710220336914
2018-06-07,15.5,15.390000343322754,15.5,15.4399995803833,18000.0,14.57791805267334
2018-06-08,15.539999961853027,15.390000343322754,15.390000343322754,15.539999961853027,13400.0,14.672333717346191
2018-06-11,15.550000190734863,15.510000228881836,15.510000228881836,15.529999732971191,27200.0,14.662891387939453
2018-06-12,15.579999923706055,15.54800033569336,15.550000190734863,15.5600004196167,60400.0,14.691217422485352
2018-06-13,15.600000381469727,15.550000190734863,15.600000381469727,15.579999923706055,19300.0,14.710101127624512
2018-06-14,15.649999618530273,15.529999732971191,15.529999732971191,15.579999923706055,18600.0,14.710101127624512
2018-06-15,15.529999732971191,15.470000267028809,15.529999732971191,15.470000267028809,222300.0,14.675004005432129
2018-06-18,15.4399995803833,15.402999877929688,15.420000076293945,15.4399995803833,7400.0,14.646544456481934
2018-06-19,15.420000076293945,15.369999885559082,15.420000076293945,15.369999885559082,14000.0,14.5801420211792
2018-06-20,15.479999542236328,15.40999984741211,15.449999809265137,15.420000076293945,16700.0,14.62757396697998
2018-06-21,15.4350004196167,15.359999656677246,15.420000076293945,15.369999885559082,11700.0,14.5801420211792
2018-06-22,15.449999809265137,15.378999710083008,15.430000305175781,15.378999710083008,24100.0,14.588679313659668
2018-06-25,15.34000015258789,15.149999618530273,15.329999923706055,15.270000457763672,32100.0,14.485281944274902
2018-06-26,15.3100004196167,15.239999771118164,15.239999771118164,15.3100004196167,4700.0,14.523226737976074
2018-06-27,15.380000114440918,15.335000038146973,15.345000267028809,15.359999656677246,8900.0,14.570655822753906
2018-06-28,15.399999618530273,15.333000183105469,15.354999542236328,15.369999885559082,16100.0,14.5801420211792
2018-06-29,15.430000305175781,15.380000114440918,15.420000076293945,15.380000114440918,5300.0,14.589628219604492
2018-07-02,15.350000381469727,15.300000190734863,15.300000190734863,15.350000381469727,6500.0,14.561171531677246
2018-07-03,15.4399995803833,15.420000076293945,15.420000076293945,15.420000076293945,1000.0,14.62757396697998
2018-07-05,15.550000190734863,15.505999565124512,15.520000457763672,15.520000457763672,2700.0,14.722433090209961
2018-07-06,15.600000381469727,15.569000244140625,15.59000015258789,15.600000381469727,6600.0,14.798321723937988
2018-07-09,15.739999771118164,15.649999618530273,15.739999771118164,15.680000305175781,19700.0,14.874211311340332
2018-07-10,15.706999778747559,15.678999900817871,15.680000305175781,15.6899995803833,5700.0,14.883695602416992
2018-07-11,15.680999755859375,15.649999618530273,15.680999755859375,15.649999618530273,13500.0,14.84575080871582
2018-07-12,15.699999809265137,15.585000038146973,15.600000381469727,15.699999809265137,13500.0,14.893183708190918
2018-07-13,15.760000228881836,15.611000061035156,15.760000228881836,15.611000061035156,13000.0,14.808756828308105
2018-07-16,15.550000190734863,15.460000038146973,15.529999732971191,15.489999771118164,15600.0,14.763009071350098
2018-07-17,15.470000267028809,15.430000305175781,15.430000305175781,15.467000007629395,8100.0,14.7410888671875
2018-07-18,15.470000267028809,15.430000305175781,15.449999809265137,15.470000267028809,5200.0,14.743948936462402
2018-07-19,15.5,15.4399995803833,15.449999809265137,15.479999542236328,19900.0,14.753478050231934
2018-07-20,15.529999732971191,15.444999694824219,15.46500015258789,15.479999542236328,23900.0,14.753478050231934
2018-07-23,15.510000228881836,15.369999885559082,15.510000228881836,15.479999542236328,15900.0,14.753478050231934
2018-07-24,15.510000228881836,15.399999618530273,15.510000228881836,15.399999618530273,32100.0,14.67723274230957
2018-07-25,15.470000267028809,15.425000190734863,15.449999809265137,15.449999809265137,61900.0,14.724885940551758
2018-07-26,15.5,15.390000343322754,15.390000343322754,15.489999771118164,40100.0,14.763009071350098
2018-07-27,15.5600004196167,15.489999771118164,15.510000228881836,15.489999771118164,20000.0,14.763009071350098
2018-07-30,15.5,15.420000076293945,15.460000038146973,15.5,13900.0,14.772540092468262
2018-07-31,15.59000015258789,15.475000381469727,15.59000015258789,15.539999961853027,17700.0,14.810661315917969
2018-08-01,15.633999824523926,15.503999710083008,15.633999824523926,15.5600004196167,11300.0,14.829723358154297
2018-08-02,15.59000015258789,15.529999732971191,15.569999694824219,15.579999923706055,22800.0,14.848784446716309
2018-08-03,15.75,15.597999572753906,15.75,15.6899995803833,14100.0,14.953621864318848
2018-08-06,15.75,15.65999984741211,15.680000305175781,15.75,27000.0,15.0108060836792
2018-08-07,15.949999809265137,15.668999671936035,15.680000305175781,15.869999885559082,26300.0,15.125174522399902
2018-08-08,15.899999618530273,15.770000457763672,15.899999618530273,15.770000457763672,13100.0,15.029869079589844
2018-08-09,15.777999877929688,15.720000267028809,15.770000457763672,15.720000267028809,8700.0,14.982215881347656
2018-08-10,15.770000457763672,15.649999618530273,15.770000457763672,15.649999618530273,13700.0,14.915498733520508
2018-08-13,15.746999740600586,15.600000381469727,15.680000305175781,15.600000381469727,15400.0,14.867846488952637
2018-08-14,15.729999542236328,15.649999618530273,15.710000038146973,15.649999618530273,7300.0,14.915498733520508
2018-08-15,15.640000343322754,15.600000381469727,15.640000343322754,15.600000381469727,6600.0,14.867846488952637
2018-08-16,15.640000343322754,15.600000381469727,15.609999656677246,15.640000343322754,18200.0,14.976049423217773
2018-08-17,15.6899995803833,15.62600040435791,15.630000114440918,15.6899995803833,23700.0,15.023927688598633
2018-08-20,15.720000267028809,15.680000305175781,15.6899995803833,15.704999923706055,45700.0,15.038290023803711
2018-08-21,15.720000267028809,15.699999809265137,15.710000038146973,15.710000038146973,70100.0,15.04307746887207
2018-08-22,15.720000267028809,15.680000305175781,15.680000305175781,15.710000038146973,16300.0,15.04307746887207
2018-08-23,15.720000267028809,15.640000343322754,15.640000343322754,15.6899995803833,24500.0,15.023927688598633
2018-08-24,15.75,15.6899995803833,15.720000267028809,15.710000038146973,30600.0,15.04307746887207
2018-08-27,15.75,15.699999809265137,15.739999771118164,15.710000038146973,17700.0,15.04307746887207
2018-08-28,15.781000137329102,15.720000267028809,15.729999542236328,15.760000228881836,24300.0,15.090956687927246
2018-08-29,15.829999923706055,15.774999618530273,15.8100004196167,15.829999923706055,10700.0,15.157983779907227
2018-08-30,15.850000381469727,15.760000228881836,15.760000228881836,15.789999961853027,17700.0,15.119681358337402
2018-08-31,15.819999694824219,15.75,15.789999961853027,15.789999961853027,13700.0,15.119681358337402
2018-09-04,15.760000228881836,15.670000076293945,15.760000228881836,15.670000076293945,11900.0,15.004776000976562
2018-09-05,15.680000305175781,15.630000114440918,15.649999618530273,15.630000114440918,28700.0,14.966474533081055
2018-09-06,15.692000389099121,15.569999694824219,15.6899995803833,15.59000015258789,14900.0,14.92817211151123
2018-09-07,15.579999923706055,15.520000457763672,15.529999732971191,15.520000457763672,14800.0,14.861144065856934
2018-09-10,15.5649995803833,15.460000038146973,15.536999702453613,15.496000289916992,27900.0,14.838163375854492
2018-09-11,15.5,15.4399995803833,15.4399995803833,15.489999771118164,13900.0,14.832416534423828
2018-09-12,15.550000190734863,15.460000038146973,15.550000190734863,15.470000267028809,22700.0,14.81326675415039
2018-09-13,15.569999694824219,15.420000076293945,15.5600004196167,15.45199966430664,34900.0,14.796031951904297
2018-09-14,15.539999961853027,15.3149995803833,15.4399995803833,15.347999572753906,38100.0,14.69644546508789
2018-09-17,15.470000267028809,15.300000190734863,15.300000190734863,15.470000267028809,12400.0,14.81326675415039
2018-09-18,15.5,15.399999618530273,15.5,15.40999984741211,19900.0,14.755813598632812
2018-09-19,15.5,15.390000343322754,15.390000343322754,15.463000297546387,14400.0,14.806563377380371
2018-09-20,15.529999732971191,15.4399995803833,15.460000038146973,15.470000267028809,30900.0,14.81326675415039
2018-09-21,15.479999542236328,15.430000305175781,15.430000305175781,15.430000305175781,14800.0,14.851768493652344
2018-09-24,15.470000267028809,15.420000076293945,15.461000442504883,15.4399995803833,15500.0,14.861393928527832
2018-09-25,15.420000076293945,15.300000190734863,15.420000076293945,15.300000190734863,14600.0,14.726639747619629
2018-09-26,15.329999923706055,15.279999732971191,15.300000190734863,15.289999961853027,24300.0,14.717015266418457
2018-09-27,15.319999694824219,15.21399974822998,15.25,15.279999732971191,18300.0,14.707387924194336
2018-09-28,15.295000076293945,15.1899995803833,15.270000457763672,15.1899995803833,19400.0,14.620760917663574
2018-10-01,15.3100004196167,15.25,15.270000457763672,15.270000457763672,10100.0,14.697763442993164
2018-10-02,15.300000190734863,15.25,15.270000457763672,15.289999961853027,9300.0,14.717015266418457
2018-10-03,15.388999938964844,15.289999961853027,15.319999694824219,15.319999694824219,30800.0,14.745889663696289
2018-10-04,15.274999618530273,15.149999618530273,15.260000228881836,15.149999618530273,32400.0,14.582259178161621
2018-10-05,15.25,15.0,15.109999656677246,15.0,19600.0,14.437882423400879
2018-10-08,15.074000358581543,15.0,15.0,15.029999732971191,18200.0,14.466757774353027
2018-10-09,15.130000114440918,15.010000228881836,15.0649995803833,15.010000228881836,11600.0,14.44750690460205
2018-10-10,15.015000343322754,14.65999984741211,15.010000228881836,14.680000305175781,47400.0,14.129873275756836
2018-10-11,14.739999771118164,14.611000061035156,14.630000114440918,14.6899995803833,49000.0,14.139498710632324
2018-10-12,14.762999534606934,14.630000114440918,14.744999885559082,14.649999618530273,33700.0,14.100997924804688
2018-10-15,14.670000076293945,14.550000190734863,14.654999732971191,14.550000190734863,19400.0,14.004744529724121
2018-10-16,14.800000190734863,14.595000267028809,14.640000343322754,14.800000190734863,20600.0,14.245375633239746
2018-10-17,14.730999946594238,14.630000114440918,14.65999984741211,14.630000114440918,10800.0,14.158279418945312
2018-10-18,14.760000228881836,14.579999923706055,14.649999618530273,14.600000381469727,17500.0,14.129247665405273
2018-10-19,14.699999809265137,14.649999618530273,14.649999618530273,14.694999694824219,7100.0,14.221182823181152
2018-10-22,14.75,14.682000160217285,14.729999542236328,14.720000267028809,23200.0,14.245377540588379
2018-10-23,14.630000114440918,14.510000228881836,14.550000190734863,14.5600004196167,12800.0,14.090537071228027
2018-10-24,14.59000015258789,14.4399995803833,14.59000015258789,14.479999542236328,15900.0,14.013114929199219
2018-10-25,14.510000228881836,14.399999618530273,14.470000267028809,14.4399995803833,18300.0,13.974404335021973
2018-10-26,14.324999809265137,14.100000381469727,14.289999961853027,14.229999542236328,33900.0,13.771177291870117
2018-10-29,14.239999771118164,14.029999732971191,14.239999771118164,14.029999732971191,21300.0,13.577624320983887
2018-10-30,14.239999771118164,14.029999732971191,14.220000267028809,14.180000305175781,30200.0,13.72278881072998
2018-10-31,14.3100004196167,14.223999977111816,14.239999771118164,14.289999961853027,22600.0,13.829242706298828
2018-11-01,14.600000381469727,14.399999618530273,14.550000190734863,14.600000381469727,24100.0,14.129247665405273
2018-11-02,14.600000381469727,14.520000457763672,14.600000381469727,14.59000015258789,11200.0,14.119568824768066
2018-11-05,14.640000343322754,14.569999694824219,14.59000015258789,14.569999694824219,25700.0,14.100213050842285
2018-11-06,14.6899995803833,14.579999923706055,14.6899995803833,14.670000076293945,49100.0,14.196988105773926
2018-11-07,14.899999618530273,14.71500015258789,14.899999618530273,14.779999732971191,18400.0,14.303442001342773
2018-11-08,14.829999923706055,14.75,14.779999732971191,14.819999694824219,19400.0,14.34215259552002
2018-11-09,14.8100004196167,14.760000228881836,14.800000190734863,14.798999786376953,16400.0,14.321830749511719
2018-11-12,14.800000190734863,14.520000457763672,14.800000190734863,14.649999618530273,15800.0,14.177633285522461
2018-11-13,14.680000305175781,14.579999923706055,14.609999656677246,14.680000305175781,9700.0,14.206666946411133
2018-11-14,14.770000457763672,14.640000343322754,14.729999542236328,14.770000457763672,32100.0,14.2937650680542
2018-11-15,14.770000457763672,14.550000190734863,14.770000457763672,14.550000190734863,12200.0,14.08085823059082
2018-11-16,14.59000015258789,14.4350004196167,14.59000015258789,14.449999809265137,10400.0,14.061395645141602
2018-11-19,14.40999984741211,14.319999694824219,14.380000114440918,14.369999885559082,7300.0,13.98354721069336
2018-11-20,14.369999885559082,14.15999984741211,14.369999885559082,14.173999786376953,17400.0,13.792819023132324
2018-11-21,14.34000015258789,14.149999618530273,14.175000190734863,14.289999961853027,26200.0,13.905699729919434
2018-11-23,14.270000457763672,14.069999694824219,14.270000457763672,14.170000076293945,11600.0,13.78892707824707
2018-11-26,14.34000015258789,14.149999618530273,14.239999771118164,14.180000305175781,16400.0,13.798657417297363
2018-11-27,14.75,14.149999618530273,14.75,14.279999732971191,22900.0,13.895967483520508
2018-11-28,14.369999885559082,14.229999542236328,14.279999732971191,14.3100004196167,17400.0,13.925162315368652
2018-11-29,14.369999885559082,14.260000228881836,14.369999885559082,14.350000381469727,36700.0,13.964086532592773
2018-11-30,14.399999618530273,14.289999961853027,14.289999961853027,14.380000114440918,11800.0,13.993279457092285
2018-12-03,14.430000305175781,14.359999656677246,14.430000305175781,14.359999656677246,18300.0,13.973816871643066
2018-12-04,14.388999938964844,14.09000015258789,14.359999656677246,14.170000076293945,21100.0,13.78892707824707
2018-12-06,14.010000228881836,13.78499984741211,13.989999771118164,13.961000442504883,33200.0,13.58554744720459
2018-12-07,14.029999732971191,13.819999694824219,13.960000038146973,13.835000038146973,30600.0,13.462936401367188
2018-12-10,13.854999542236328,13.600000381469727,13.680000305175781,13.6899995803833,32300.0,13.321834564208984
2018-12-11,13.8100004196167,13.720000267028809,13.800000190734863,13.75,17400.0,13.380221366882324
2018-12-12,13.831000328063965,13.720000267028809,13.800000190734863,13.789999961853027,30700.0,13.419146537780762
2018-12-13,13.829999923706055,13.75,13.760000228881836,13.829999923706055,12500.0,13.458069801330566
2018-12-14,13.739999771118164,13.59000015258789,13.699999809265137,13.59000015258789,21700.0,13.30146598815918
2018-12-17,13.670000076293945,13.229999542236328,13.630000114440918,13.229999542236328,24000.0,12.949110984802246
2018-12-18,13.5,13.119999885559082,13.5,13.199999809265137,28800.0,12.919747352600098
2018-12-19,13.880000114440918,13.039999961853027,13.199999809265137,13.09000015258789,43200.0,12.812082290649414
2018-12-20,13.460000038146973,12.579999923706055,13.460000038146973,12.979999542236328,95100.0,12.70441722869873
2018-12-21,12.949999809265137,12.670000076293945,12.869999885559082,12.739999771118164,22600.0,12.469511985778809
2018-12-24,12.970000267028809,12.229999542236328,12.34000015258789,12.270000457763672,55600.0,12.009492874145508
2018-12-26,12.90999984741211,12.220000267028809,12.569999694824219,12.640000343322754,40800.0,12.371636390686035
2018-12-27,12.779999732971191,12.420000076293945,12.539999961853027,12.569999694824219,30000.0,12.303122520446777
2018-12-28,12.850000381469727,12.550000190734863,12.850000381469727,12.625,116500.0,12.356954574584961
2018-12-31,12.739999771118164,12.579999923706055,12.640000343322754,12.619999885559082,63400.0,12.352060317993164
2019-01-02,12.880000114440918,12.574999809265137,12.65999984741211,12.880000114440918,15700.0,12.606541633605957
2019-01-03,12.920000076293945,12.800000190734863,12.899999618530273,12.899999618530273,42600.0,12.626116752624512
2019-01-04,13.180000305175781,12.880000114440918,13.0,13.109999656677246,44600.0,12.831657409667969
2019-01-07,13.529999732971191,13.210000038146973,13.210000038146973,13.449999809265137,27700.0,13.164440155029297
2019-01-08,13.680000305175781,13.550000190734863,13.670000076293945,13.569999694824219,53300.0,13.281891822814941
2019-01-09,13.75,13.569999694824219,13.649999618530273,13.739999771118164,56200.0,13.448281288146973
2019-01-10,13.729999542236328,13.600000381469727,13.680000305175781,13.720000267028809,23300.0,13.428707122802734
2019-01-11,13.774999618530273,13.67199993133545,13.729999542236328,13.729999542236328,14200.0,13.438493728637695
2019-01-14,13.770000457763672,13.699999809265137,13.710000038146973,13.739999771118164,13300.0,13.448281288146973
2019-01-15,13.90999984741211,13.739999771118164,13.739999771118164,13.838000297546387,16700.0,13.544200897216797
2019-01-16,14.14799976348877,13.890000343322754,13.949999809265137,14.069999694824219,57500.0,13.77127456665039
2019-01-17,14.069999694824219,13.913999557495117,14.069999694824219,13.920000076293945,29600.0,13.702370643615723
2019-01-18,14.050000190734863,13.96500015258789,13.970000267028809,14.010000228881836,19900.0,13.790963172912598
2019-01-22,14.039999961853027,13.869999885559082,14.010000228881836,13.880000114440918,15300.0,13.662996292114258
2019-01-23,13.960000038146973,13.890000343322754,13.920000076293945,13.932999610900879,40300.0,13.715167045593262
2019-01-24,14.0,13.899999618530273,13.90999984741211,14.0,7300.0,13.781119346618652
2019-01-25,14.239999771118164,13.84000015258789,13.960000038146973,13.84000015258789,9400.0,13.623621940612793
2019-01-28,14.020000457763672,13.850000381469727,14.020000457763672,13.930000305175781,26000.0,13.712215423583984
2019-01-29,14.0,13.899999618530273,13.970000267028809,14.0,8900.0,13.781119346618652
2019-01-30,14.210000038146973,14.001999855041504,14.050000190734863,14.210000038146973,11000.0,13.987835884094238
2019-01-31,14.279999732971191,14.133999824523926,14.149999618530273,14.279999732971191,16700.0,14.056741714477539
2019-02-01,14.729999542236328,14.1899995803833,14.1899995803833,14.300000190734863,21900.0,14.07642936706543
2019-02-04,15.22599983215332,14.579999923706055,14.699999809265137,14.670000076293945,83500.0,14.440644264221191
2019-02-05,14.75,14.600000381469727,14.680000305175781,14.600000381469727,45300.0,14.371739387512207
2019-02-06,14.920000076293945,14.600000381469727,14.899999618530273,14.899999618530273,43500.0,14.667048454284668
2019-02-07,14.850000381469727,14.609999656677246,14.850000381469727,14.6899995803833,23900.0,14.460331916809082
2019-02-08,14.75,14.529999732971191,14.75,14.680000305175781,26500.0,14.450488090515137
2019-02-11,14.850000381469727,14.6850004196167,14.699999809265137,14.75,28600.0,14.519394874572754
2019-02-12,14.949999809265137,14.75,14.800000190734863,14.84000015258789,34100.0,14.607987403869629
2019-02-13,14.890000343322754,14.829999923706055,14.850000381469727,14.829999923706055,21900.0,14.598142623901367
2019-02-14,14.928999900817871,14.869999885559082,14.869999885559082,14.890000343322754,15500.0,14.657205581665039
2019-02-15,15.300000190734863,14.829999923706055,14.850000381469727,14.949999809265137,20400.0,14.795760154724121
2019-02-19,15.100000381469727,14.8100004196167,14.920000076293945,15.100000381469727,23500.0,14.9442138671875
2019-02-20,15.085000038146973,15.0,15.0600004196167,15.069999694824219,17800.0,14.914522171020508
2019-02-21,15.079999923706055,14.949999809265137,15.0600004196167,14.949999809265137,5900.0,14.795760154724121
2019-02-22,15.100000381469727,14.930000305175781,14.930000305175781,15.0,8900.0,14.845245361328125
2019-02-25,15.109999656677246,14.979999542236328,14.979999542236328,15.03499984741211,11800.0,14.879883766174316
2019-02-26,15.100000381469727,15.010000228881836,15.010000228881836,15.010000228881836,18700.0,14.855141639709473
2019-02-27,15.319999694824219,14.989999771118164,15.020000457763672,15.319999694824219,35100.0,15.161943435668945
2019-02-28,15.335000038146973,15.260000228881836,15.300000190734863,15.319999694824219,24600.0,15.161943435668945
2019-03-01,15.619999885559082,15.284000396728516,15.329999923706055,15.619999885559082,26200.0,15.458847999572754
2019-03-04,15.600000381469727,15.505000114440918,15.550000190734863,15.59000015258789,12500.0,15.429158210754395
2019-03-05,15.600000381469727,15.300000190734863,15.59000015258789,15.300000190734863,13900.0,15.14215087890625
2019-03-06,15.468000411987305,15.260000228881836,15.390000343322754,15.34000015258789,13200.0,15.181736946105957
2019-03-07,15.458000183105469,15.050000190734863,15.3100004196167,15.069999694824219,30500.0,14.914522171020508
2019-03-08,15.0,14.789999961853027,15.0,14.916999816894531,31400.0,14.763100624084473
2019-03-11,15.100000381469727,14.890000343322754,14.9399995803833,15.0600004196167,34700.0,14.904626846313477
2019-03-12,15.157999992370605,15.0600004196167,15.079999923706055,15.109999656677246,158900.0,14.954110145568848
2019-03-13,15.260000228881836,15.109999656677246,15.109999656677246,15.260000228881836,22400.0,15.102563858032227
2019-03-14,15.5,15.270000457763672,15.5,15.420000076293945,38400.0,15.26091194152832
2019-03-15,15.449999809265137,15.399999618530273,15.425999641418457,15.399999618530273,9900.0,15.241117477416992
2019-03-18,15.600000381469727,15.430000305175781,15.470000267028809,15.470999717712402,16300.0,15.311385154724121
2019-03-19,15.579999923706055,15.4399995803833,15.579999923706055,15.5,8900.0,15.340086936950684
2019-03-20,15.489999771118164,15.359999656677246,15.489999771118164,15.420999526977539,14900.0,15.261900901794434
2019-03-21,15.439000129699707,15.300000190734863,15.380000114440918,15.420000076293945,17700.0,15.26091194152832
2019-03-22,15.399999618530273,15.25,15.319999694824219,15.25,29400.0,15.092665672302246
2019-03-25,15.279999732971191,15.199999809265137,15.279999732971191,15.199999809265137,18700.0,15.043182373046875
2019-03-26,15.359999656677246,15.149999618530273,15.359999656677246,15.149999618530273,13200.0,14.993697166442871
2019-03-27,15.241999626159668,15.199999809265137,15.239999771118164,15.210000038146973,3800.0,15.053078651428223
2019-03-28,15.300000190734863,15.170000076293945,15.170000076293945,15.300000190734863,11400.0,15.14215087890625
2019-03-29,15.380000114440918,15.321000099182129,15.350000381469727,15.369999885559082,9200.0,15.211427688598633
2019-04-01,15.432000160217285,15.34000015258789,15.350000381469727,15.359999656677246,224300.0,15.201530456542969
2019-04-02,15.579999923706055,15.40999984741211,15.470000267028809,15.449999809265137,23600.0,15.290602684020996
2019-04-03,15.529999732971191,15.460000038146973,15.529999732971191,15.520000457763672,14200.0,15.359880447387695
2019-04-04,15.5600004196167,15.420000076293945,15.449999809265137,15.420000076293945,22100.0,15.26091194152832
2019-04-05,15.470000267028809,15.449999809265137,15.449999809265137,15.449999809265137,3300.0,15.290602684020996
2019-04-08,15.494999885559082,15.468999862670898,15.468999862670898,15.479999542236328,7000.0,15.320292472839355
2019-04-09,15.5,15.420000076293945,15.430000305175781,15.489999771118164,13600.0,15.33018970489502
2019-04-10,15.630000114440918,15.479999542236328,15.479999542236328,15.550000190734863,12900.0,15.389571189880371
2019-04-11,15.600000381469727,15.529999732971191,15.5600004196167,15.529999732971191,12000.0,15.369776725769043
2019-04-12,15.699999809265137,15.510000228881836,15.600000381469727,15.699999809265137,49000.0,15.538022994995117
2019-04-15,15.701000213623047,15.597000122070312,15.6899995803833,15.630000114440918,14200.0,15.468746185302734
2019-04-16,15.779999732971191,15.630000114440918,15.680000305175781,15.630000114440918,10000.0,15.468746185302734
2019-04-17,15.654999732971191,15.609999656677246,15.609999656677246,15.619999885559082,13200.0,15.538379669189453
2019-04-18,15.720000267028809,15.609999656677246,15.609999656677246,15.720000267028809,12600.0,15.637857437133789
2019-04-22,15.670000076293945,15.449999809265137,15.670000076293945,15.5,8300.0,15.419007301330566
2019-04-23,15.522000312805176,15.399999618530273,15.522000312805176,15.420000076293945,10300.0,15.339425086975098
2019-04-24,15.449999809265137,15.399999618530273,15.425000190734863,15.449999809265137,19700.0,15.369268417358398
2019-04-25,15.579999923706055,15.359999656677246,15.359999656677246,15.579999923706055,9700.0,15.498588562011719
2019-04-26,15.600000381469727,15.4399995803833,15.600000381469727,15.4399995803833,9700.0,15.359319686889648
2019-04-29,15.600000381469727,15.446000099182129,15.460000038146973,15.59000015258789,16700.0,15.508536338806152
2019-04-30,15.59000015258789,15.489999771118164,15.59000015258789,15.489999771118164,5400.0,15.409058570861816
2019-05-01,15.600000381469727,15.539999961853027,15.569999694824219,15.550000190734863,8700.0,15.468746185302734
2019-05-02,15.644000053405762,15.46500015258789,15.479999542236328,15.520000457763672,9800.0,15.438902854919434
2019-05-03,15.550000190734863,15.430000305175781,15.550000190734863,15.479999542236328,31800.0,15.399110794067383
2019-05-06,15.475000381469727,15.359999656677246,15.390000343322754,15.470000267028809,13100.0,15.389163970947266
2019-05-07,15.369999885559082,15.220000267028809,15.359999656677246,15.220000267028809,17600.0,15.140470504760742
2019-05-08,15.42300033569336,15.289999961853027,15.42300033569336,15.319999694824219,7000.0,15.239947319030762
2019-05-09,15.369999885559082,15.220000267028809,15.229999542236328,15.239999771118164,17400.0,15.160365104675293
2019-05-10,15.385000228881836,15.210000038146973,15.210000038146973,15.25,22500.0,15.170312881469727
2019-05-13,15.25,15.057000160217285,15.170000076293945,15.100000381469727,29200.0,15.021097183227539
2019-05-14,15.40999984741211,15.095000267028809,15.170000076293945,15.40999984741211,6900.0,15.329477310180664
2019-05-15,15.4399995803833,15.170000076293945,15.25,15.3100004196167,23100.0,15.230000495910645
2019-05-16,15.390000343322754,15.229999542236328,15.335000038146973,15.279999732971191,9300.0,15.279999732971191
2019-05-17,15.449999809265137,15.043999671936035,15.170000076293945,15.199999809265137,25600.0,15.199999809265137
2019-05-20,15.239999771118164,15.149999618530273,15.239999771118164,15.210000038146973,9700.0,15.210000038146973
2019-05-21,15.199999809265137,15.137999534606934,15.149999618530273,15.1899995803833,14200.0,15.1899995803833
2019-05-22,15.246000289916992,15.119999885559082,15.156999588012695,15.119999885559082,22200.0,15.119999885559082
2019-05-23,15.119999885559082,15.029999732971191,15.029999732971191,15.069999694824219,6400.0,15.069999694824219
2019-05-24,15.1899995803833,15.020000457763672,15.149999618530273,15.170000076293945,10700.0,15.170000076293945
