Date,High,Low,Open,Close,Volume,Adj Close
2016-12-06,48.2599983215332,48.2599983215332,48.2599983215332,48.2599983215332,100.0,46.378963470458984
2016-12-07,48.2599983215332,48.2599983215332,48.2599983215332,48.2599983215332,0.0,46.378963470458984
2016-12-08,48.2599983215332,48.2599983215332,48.2599983215332,48.2599983215332,0.0,46.378963470458984
2016-12-09,48.2599983215332,48.2599983215332,48.2599983215332,48.2599983215332,0.0,46.378963470458984
2016-12-12,48.2599983215332,48.2599983215332,48.2599983215332,48.2599983215332,0.0,46.378963470458984
2016-12-13,49.66999816894531,49.66999816894531,49.66999816894531,49.66999816894531,200.0,47.73400115966797
2016-12-14,49.66999816894531,49.66999816894531,49.66999816894531,49.66999816894531,0.0,47.73400115966797
2016-12-15,49.66999816894531,49.66999816894531,49.66999816894531,49.66999816894531,0.0,47.73400115966797
2016-12-16,49.66999816894531,49.66999816894531,49.66999816894531,49.66999816894531,0.0,47.73400115966797
2016-12-19,49.66999816894531,49.66999816894531,49.66999816894531,49.66999816894531,0.0,47.73400115966797
2016-12-20,49.66999816894531,49.66999816894531,49.66999816894531,49.66999816894531,0.0,47.73400115966797
2016-12-21,49.66999816894531,49.66999816894531,49.66999816894531,49.66999816894531,0.0,47.73400115966797
2016-12-22,49.66999816894531,49.66999816894531,49.66999816894531,49.66999816894531,0.0,47.73400115966797
2016-12-23,49.630001068115234,49.310001373291016,49.630001068115234,49.310001373291016,300.0,47.388038635253906
2016-12-27,49.310001373291016,49.310001373291016,49.310001373291016,49.310001373291016,0.0,47.388038635253906
2016-12-28,49.310001373291016,49.310001373291016,49.310001373291016,49.310001373291016,0.0,47.388038635253906
2016-12-29,49.13999938964844,49.09000015258789,49.09000015258789,49.125999450683594,4500.0,47.21121597290039
2016-12-30,49.125999450683594,49.125999450683594,49.125999450683594,49.125999450683594,0.0,47.21121597290039
2017-01-03,49.125999450683594,49.125999450683594,49.125999450683594,49.125999450683594,0.0,47.21121597290039
2017-01-04,49.125999450683594,49.125999450683594,49.125999450683594,49.125999450683594,100.0,47.21121597290039
2017-01-05,49.125999450683594,49.125999450683594,49.125999450683594,49.125999450683594,0.0,47.21121597290039
2017-01-06,49.86000061035156,49.86000061035156,49.86000061035156,49.86000061035156,300.0,47.91659927368164
2017-01-09,49.72999954223633,49.63999938964844,49.650001525878906,49.66999816894531,1000.0,47.73400115966797
2017-01-10,49.75,49.58000183105469,49.58000183105469,49.75,200.0,47.81089401245117
2017-01-11,49.75,49.75,49.75,49.75,0.0,47.81089401245117
2017-01-12,49.75,49.75,49.75,49.75,0.0,47.81089401245117
2017-01-13,49.75,49.75,49.75,49.75,0.0,47.81089401245117
2017-01-17,49.560001373291016,49.560001373291016,49.560001373291016,49.560001373291016,200.0,47.628299713134766
2017-01-18,49.560001373291016,49.560001373291016,49.560001373291016,49.560001373291016,200.0,47.628299713134766
2017-01-19,49.560001373291016,49.560001373291016,49.560001373291016,49.560001373291016,0.0,47.628299713134766
2017-01-20,49.560001373291016,49.560001373291016,49.560001373291016,49.560001373291016,0.0,47.628299713134766
2017-01-23,49.560001373291016,49.560001373291016,49.560001373291016,49.560001373291016,0.0,47.628299713134766
2017-01-24,49.90999984741211,49.70899963378906,49.7400016784668,49.90999984741211,3800.0,47.96464538574219
2017-01-25,49.90999984741211,49.90999984741211,49.90999984741211,49.90999984741211,0.0,47.96464538574219
2017-01-26,49.90999984741211,49.90999984741211,49.90999984741211,49.90999984741211,0.0,47.96464538574219
2017-01-27,50.13999938964844,50.13999938964844,50.13999938964844,50.13999938964844,400.0,48.185691833496094
2017-01-30,50.13999938964844,50.13999938964844,50.13999938964844,50.13999938964844,0.0,48.185691833496094
2017-01-31,50.13999938964844,50.13999938964844,50.13999938964844,50.13999938964844,0.0,48.185691833496094
2017-02-01,50.13999938964844,50.13999938964844,50.13999938964844,50.13999938964844,0.0,48.185691833496094
2017-02-02,50.13999938964844,50.13999938964844,50.13999938964844,50.13999938964844,0.0,48.185691833496094
2017-02-03,50.13999938964844,50.13999938964844,50.13999938964844,50.13999938964844,0.0,48.185691833496094
2017-02-06,50.13999938964844,50.13999938964844,50.13999938964844,50.13999938964844,0.0,48.185691833496094
2017-02-07,50.2599983215332,50.25,50.2599983215332,50.25,1700.0,48.291404724121094
2017-02-08,50.25,50.25,50.25,50.25,0.0,48.291404724121094
2017-02-09,50.25,50.25,50.25,50.25,0.0,48.291404724121094
2017-02-10,50.88999938964844,50.5,50.88999938964844,50.5,2000.0,48.531654357910156
2017-02-13,50.5,50.5,50.5,50.5,0.0,48.531654357910156
2017-02-14,50.5,50.5,50.5,50.5,0.0,48.531654357910156
2017-02-15,50.5,50.5,50.5,50.5,0.0,48.531654357910156
2017-02-16,50.5,50.5,50.5,50.5,0.0,48.531654357910156
2017-02-17,50.5,50.5,50.5,50.5,0.0,48.531654357910156
2017-02-21,50.5,50.5,50.5,50.5,0.0,48.531654357910156
2017-02-22,50.5,50.5,50.5,50.5,0.0,48.531654357910156
2017-02-23,50.5,50.5,50.5,50.5,0.0,48.531654357910156
2017-02-24,50.5,50.5,50.5,50.5,0.0,48.531654357910156
2017-02-27,51.779998779296875,51.5099983215332,51.5099983215332,51.779998779296875,900.0,49.76176834106445
2017-02-28,51.779998779296875,51.779998779296875,51.779998779296875,51.779998779296875,0.0,49.76176834106445
2017-03-01,51.779998779296875,51.779998779296875,51.779998779296875,51.779998779296875,0.0,49.76176834106445
2017-03-02,51.779998779296875,51.779998779296875,51.779998779296875,51.779998779296875,7500.0,49.76176834106445
2017-03-03,51.779998779296875,51.779998779296875,51.779998779296875,51.779998779296875,0.0,49.76176834106445
2017-03-06,51.779998779296875,51.779998779296875,51.779998779296875,51.779998779296875,0.0,49.76176834106445
2017-03-07,51.779998779296875,51.779998779296875,51.779998779296875,51.779998779296875,0.0,49.76176834106445
2017-03-08,51.900001525878906,51.900001525878906,51.900001525878906,51.900001525878906,200.0,49.87709045410156
2017-03-09,51.849998474121094,51.849998474121094,51.849998474121094,51.849998474121094,400.0,49.82903289794922
2017-03-10,51.849998474121094,51.849998474121094,51.849998474121094,51.849998474121094,0.0,49.82903289794922
2017-03-13,51.849998474121094,51.849998474121094,51.849998474121094,51.849998474121094,0.0,49.82903289794922
2017-03-14,51.869998931884766,51.869998931884766,51.869998931884766,51.869998931884766,300.0,49.8482551574707
2017-03-15,51.869998931884766,51.869998931884766,51.869998931884766,51.869998931884766,0.0,49.8482551574707
2017-03-16,51.869998931884766,51.869998931884766,51.869998931884766,51.869998931884766,0.0,49.8482551574707
2017-03-17,51.869998931884766,51.869998931884766,51.869998931884766,51.869998931884766,0.0,49.8482551574707
2017-03-20,51.869998931884766,51.869998931884766,51.869998931884766,51.869998931884766,5000.0,49.8482551574707
2017-03-21,51.63999938964844,51.56999969482422,51.599998474121094,51.56999969482422,2300.0,49.55995178222656
2017-03-22,51.56999969482422,51.56999969482422,51.56999969482422,51.56999969482422,0.0,49.55995178222656
2017-03-23,51.790000915527344,51.790000915527344,51.790000915527344,51.790000915527344,300.0,49.77137756347656
2017-03-24,51.790000915527344,51.790000915527344,51.790000915527344,51.790000915527344,0.0,50.081787109375
2017-03-27,51.790000915527344,51.790000915527344,51.790000915527344,51.790000915527344,0.0,50.081787109375
2017-03-28,51.790000915527344,51.790000915527344,51.790000915527344,51.790000915527344,0.0,50.081787109375
2017-03-29,51.790000915527344,51.790000915527344,51.790000915527344,51.790000915527344,0.0,50.081787109375
2017-03-30,51.709999084472656,51.709999084472656,51.709999084472656,51.709999084472656,200.0,50.00442886352539
2017-03-31,51.709999084472656,51.709999084472656,51.709999084472656,51.709999084472656,0.0,50.00442886352539
2017-04-03,51.56999969482422,51.56999969482422,51.56999969482422,51.56999969482422,100.0,49.869041442871094
2017-04-04,51.56999969482422,51.56999969482422,51.56999969482422,51.56999969482422,0.0,49.869041442871094
2017-04-05,51.56999969482422,51.56999969482422,51.56999969482422,51.56999969482422,0.0,49.869041442871094
2017-04-06,51.619998931884766,51.597999572753906,51.619998931884766,51.597999572753906,500.0,49.896114349365234
2017-04-07,51.597999572753906,51.597999572753906,51.597999572753906,51.597999572753906,0.0,49.896114349365234
2017-04-10,51.597999572753906,51.597999572753906,51.597999572753906,51.597999572753906,0.0,49.896114349365234
2017-04-11,51.597999572753906,51.597999572753906,51.597999572753906,51.597999572753906,0.0,49.896114349365234
2017-04-12,51.597999572753906,51.597999572753906,51.597999572753906,51.597999572753906,0.0,49.896114349365234
2017-04-13,51.29999923706055,51.29999923706055,51.29999923706055,51.29999923706055,200.0,49.60794448852539
2017-04-17,51.29999923706055,51.29999923706055,51.29999923706055,51.29999923706055,0.0,49.60794448852539
2017-04-18,51.29999923706055,51.29999923706055,51.29999923706055,51.29999923706055,0.0,49.60794448852539
2017-04-19,51.29999923706055,51.29999923706055,51.29999923706055,51.29999923706055,0.0,49.60794448852539
2017-04-20,51.29999923706055,51.29999923706055,51.29999923706055,51.29999923706055,0.0,49.60794448852539
2017-04-21,51.29999923706055,51.29999923706055,51.29999923706055,51.29999923706055,0.0,49.60794448852539
2017-04-24,51.29999923706055,51.29999923706055,51.29999923706055,51.29999923706055,0.0,49.60794448852539
2017-04-25,52.23400115966797,52.23400115966797,52.23400115966797,52.23400115966797,200.0,50.51114273071289
2017-04-26,52.23400115966797,52.23400115966797,52.23400115966797,52.23400115966797,0.0,50.51114273071289
2017-04-27,52.23400115966797,52.23400115966797,52.23400115966797,52.23400115966797,0.0,50.51114273071289
2017-04-28,52.23400115966797,52.23400115966797,52.23400115966797,52.23400115966797,0.0,50.51114273071289
2017-05-01,52.23400115966797,52.23400115966797,52.23400115966797,52.23400115966797,0.0,50.51114273071289
2017-05-02,52.31999969482422,52.31999969482422,52.31999969482422,52.31999969482422,300.0,50.59430694580078
2017-05-03,52.31999969482422,52.31999969482422,52.31999969482422,52.31999969482422,0.0,50.59430694580078
2017-05-04,52.31999969482422,52.31999969482422,52.31999969482422,52.31999969482422,0.0,50.59430694580078
2017-05-05,52.31999969482422,52.31999969482422,52.31999969482422,52.31999969482422,0.0,50.59430694580078
2017-05-08,52.540000915527344,52.540000915527344,52.540000915527344,52.540000915527344,1000.0,50.80705642700195
2017-05-09,52.540000915527344,52.540000915527344,52.540000915527344,52.540000915527344,0.0,50.80705642700195
2017-05-10,52.540000915527344,52.540000915527344,52.540000915527344,52.540000915527344,0.0,50.80705642700195
2017-05-11,52.43000030517578,52.310001373291016,52.310001373291016,52.43000030517578,300.0,50.7006721496582
2017-05-12,52.43000030517578,52.43000030517578,52.43000030517578,52.43000030517578,0.0,50.7006721496582
2017-05-15,52.60599899291992,52.60599899291992,52.60599899291992,52.60599899291992,1000.0,50.870872497558594
2017-05-16,52.60599899291992,52.60599899291992,52.60599899291992,52.60599899291992,0.0,50.870872497558594
2017-05-17,52.25,52.2400016784668,52.25,52.2400016784668,4400.0,50.51694107055664
2017-05-18,52.2400016784668,52.2400016784668,52.2400016784668,52.2400016784668,0.0,50.51694107055664
2017-05-19,52.2400016784668,52.2400016784668,52.2400016784668,52.2400016784668,0.0,50.51694107055664
2017-05-22,52.41999816894531,52.34000015258789,52.34000015258789,52.41999816894531,400.0,50.691009521484375
2017-05-23,52.41999816894531,52.41999816894531,52.41999816894531,52.41999816894531,10100.0,50.691009521484375
2017-05-24,52.68000030517578,52.57699966430664,52.57699966430664,52.68000030517578,2100.0,50.94243621826172
2017-05-25,52.68000030517578,52.68000030517578,52.68000030517578,52.68000030517578,0.0,50.94243621826172
2017-05-26,52.9900016784668,52.96200180053711,52.9900016784668,52.97999954223633,1600.0,51.232540130615234
2017-05-30,52.97999954223633,52.97999954223633,52.97999954223633,52.97999954223633,0.0,51.232540130615234
2017-05-31,52.97999954223633,52.97999954223633,52.97999954223633,52.97999954223633,0.0,51.232540130615234
2017-06-01,52.97999954223633,52.97999954223633,52.97999954223633,52.97999954223633,0.0,51.232540130615234
2017-06-02,53.5,53.5,53.5,53.5,200.0,51.73538589477539
2017-06-05,53.529998779296875,53.46500015258789,53.529998779296875,53.5099983215332,600.0,51.74505615234375
2017-06-06,53.5099983215332,53.5099983215332,53.5099983215332,53.5099983215332,0.0,51.74505615234375
2017-06-07,53.5099983215332,53.5099983215332,53.5099983215332,53.5099983215332,0.0,51.74505615234375
2017-06-08,53.34700012207031,53.34700012207031,53.34700012207031,53.34700012207031,400.0,51.587432861328125
2017-06-09,53.34700012207031,53.34700012207031,53.34700012207031,53.34700012207031,0.0,51.587432861328125
2017-06-12,53.34700012207031,53.34700012207031,53.34700012207031,53.34700012207031,0.0,51.587432861328125
2017-06-13,53.560001373291016,53.5260009765625,53.560001373291016,53.53499984741211,1000.0,51.76923370361328
2017-06-14,53.53499984741211,53.53499984741211,53.53499984741211,53.53499984741211,0.0,51.76923370361328
2017-06-15,53.303001403808594,53.290000915527344,53.290000915527344,53.303001403808594,200.0,51.544891357421875
2017-06-16,53.400001525878906,53.24800109863281,53.380001068115234,53.369998931884766,17700.0,51.609676361083984
2017-06-19,53.369998931884766,53.369998931884766,53.369998931884766,53.369998931884766,17300.0,51.609676361083984
2017-06-20,53.689998626708984,53.689998626708984,53.689998626708984,53.689998626708984,300.0,51.91911697387695
2017-06-21,53.689998626708984,53.689998626708984,53.689998626708984,53.689998626708984,0.0,51.91911697387695
2017-06-22,53.689998626708984,53.689998626708984,53.689998626708984,53.689998626708984,0.0,51.91911697387695
2017-06-23,53.59000015258789,53.46699905395508,53.46699905395508,53.59000015258789,400.0,51.822418212890625
2017-06-26,53.59000015258789,53.59000015258789,53.59000015258789,53.59000015258789,0.0,51.822418212890625
2017-06-27,53.349998474121094,53.025001525878906,53.349998474121094,53.025001525878906,600.0,51.51155471801758
2017-06-28,53.025001525878906,53.025001525878906,53.025001525878906,53.025001525878906,0.0,51.51155471801758
2017-06-29,53.025001525878906,53.025001525878906,53.025001525878906,53.025001525878906,0.0,51.51155471801758
2017-06-30,53.16999816894531,53.060001373291016,53.060001373291016,53.16999816894531,600.0,51.65241241455078
2017-07-03,53.16999816894531,53.16999816894531,53.16999816894531,53.16999816894531,0.0,51.65241241455078
2017-07-05,53.16999816894531,53.16999816894531,53.16999816894531,53.16999816894531,0.0,51.65241241455078
2017-07-06,52.900001525878906,52.86000061035156,52.874000549316406,52.900001525878906,800.0,51.39011764526367
2017-07-07,52.900001525878906,52.900001525878906,52.900001525878906,52.900001525878906,0.0,51.39011764526367
2017-07-10,52.900001525878906,52.900001525878906,52.900001525878906,52.900001525878906,0.0,51.39011764526367
2017-07-11,53.099998474121094,53.099998474121094,53.099998474121094,53.099998474121094,400.0,51.58441162109375
2017-07-12,53.099998474121094,53.099998474121094,53.099998474121094,53.099998474121094,0.0,51.58441162109375
2017-07-13,53.099998474121094,53.099998474121094,53.099998474121094,53.099998474121094,0.0,51.58441162109375
2017-07-14,53.099998474121094,53.099998474121094,53.099998474121094,53.099998474121094,0.0,51.58441162109375
2017-07-17,53.099998474121094,53.099998474121094,53.099998474121094,53.099998474121094,0.0,51.58441162109375
2017-07-18,53.814998626708984,53.709999084472656,53.779998779296875,53.814998626708984,1200.0,52.278995513916016
2017-07-19,53.814998626708984,53.814998626708984,53.814998626708984,53.814998626708984,0.0,52.278995513916016
2017-07-20,53.814998626708984,53.814998626708984,53.814998626708984,53.814998626708984,0.0,52.278995513916016
2017-07-21,53.814998626708984,53.814998626708984,53.814998626708984,53.814998626708984,0.0,52.278995513916016
2017-07-24,53.814998626708984,53.814998626708984,53.814998626708984,53.814998626708984,0.0,52.278995513916016
2017-07-25,53.814998626708984,53.814998626708984,53.814998626708984,53.814998626708984,0.0,52.278995513916016
2017-07-26,54.21900177001953,54.20500183105469,54.20500183105469,54.21900177001953,600.0,52.671478271484375
2017-07-27,54.24100112915039,54.24100112915039,54.24100112915039,54.24100112915039,100.0,52.69284439086914
2017-07-28,54.24100112915039,54.24100112915039,54.24100112915039,54.24100112915039,0.0,52.69284439086914
2017-07-31,54.111000061035156,54.111000061035156,54.111000061035156,54.111000061035156,500.0,52.566558837890625
2017-08-01,54.111000061035156,54.111000061035156,54.111000061035156,54.111000061035156,100.0,52.566558837890625
2017-08-02,53.97999954223633,53.97999954223633,53.97999954223633,53.97999954223633,3000.0,52.43928527832031
2017-08-03,54.040000915527344,53.959999084472656,53.959999084472656,54.0099983215332,17700.0,52.46842956542969
2017-08-04,54.0099983215332,54.0099983215332,54.0099983215332,54.0099983215332,0.0,52.46842956542969
2017-08-07,54.0099983215332,54.0099983215332,54.0099983215332,54.0099983215332,0.0,52.46842956542969
2017-08-08,54.310001373291016,54.310001373291016,54.310001373291016,54.310001373291016,1200.0,52.7598762512207
2017-08-09,54.310001373291016,54.310001373291016,54.310001373291016,54.310001373291016,0.0,52.7598762512207
2017-08-10,54.310001373291016,54.310001373291016,54.310001373291016,54.310001373291016,0.0,52.7598762512207
2017-08-11,53.40999984741211,53.40999984741211,53.40999984741211,53.40999984741211,100.0,51.885562896728516
2017-08-14,54.02000045776367,53.709999084472656,53.97999954223633,53.9900016784668,1600.0,52.449012756347656
2017-08-15,53.9900016784668,53.9900016784668,53.9900016784668,53.9900016784668,0.0,52.449012756347656
2017-08-16,54.0,54.0,54.0,54.0,300.0,52.45872497558594
2017-08-17,54.0,54.0,54.0,54.0,0.0,52.45872497558594
2017-08-18,54.0,54.0,54.0,54.0,0.0,52.45872497558594
2017-08-21,54.0,54.0,54.0,54.0,5100.0,52.45872497558594
2017-08-22,54.0,54.0,54.0,54.0,0.0,52.45872497558594
2017-08-23,53.56999969482422,53.540000915527344,53.540000915527344,53.56999969482422,300.0,52.040992736816406
2017-08-24,53.599998474121094,53.52399826049805,53.52399826049805,53.599998474121094,179700.0,52.07013702392578
2017-08-25,53.70000076293945,53.58000183105469,53.70000076293945,53.619998931884766,4200.0,52.089576721191406
2017-08-28,53.5,53.5,53.5,53.5,200.0,51.97299575805664
2017-08-29,53.5,53.5,53.5,53.5,0.0,51.97299575805664
2017-08-30,53.90999984741211,53.869998931884766,53.869998931884766,53.90999984741211,1400.0,52.37129211425781
2017-08-31,54.18000030517578,54.04999923706055,54.04999923706055,54.18000030517578,1000.0,52.63358688354492
2017-09-01,54.34000015258789,54.29899978637695,54.3390007019043,54.29899978637695,700.0,52.74918746948242
2017-09-05,54.29899978637695,54.29899978637695,54.29899978637695,54.29899978637695,0.0,52.74918746948242
2017-09-06,54.29899978637695,54.29899978637695,54.29899978637695,54.29899978637695,0.0,52.74918746948242
2017-09-07,54.02299880981445,54.02299880981445,54.02299880981445,54.02299880981445,100.0,52.48106384277344
2017-09-08,54.02000045776367,54.02000045776367,54.02000045776367,54.02000045776367,200.0,52.478153228759766
2017-09-11,54.560001373291016,54.40999984741211,54.40999984741211,54.540000915527344,2200.0,52.983306884765625
2017-09-12,54.7400016784668,54.7400016784668,54.7400016784668,54.7400016784668,200.0,53.17760467529297
2017-09-13,54.7599983215332,54.7599983215332,54.7599983215332,54.7599983215332,100.0,53.197025299072266
2017-09-14,54.66999816894531,54.619998931884766,54.66999816894531,54.630001068115234,9200.0,53.070743560791016
2017-09-15,54.775001525878906,54.775001525878906,54.775001525878906,54.775001525878906,100.0,53.21160888671875
2017-09-18,54.775001525878906,54.775001525878906,54.775001525878906,54.775001525878906,0.0,53.21160888671875
2017-09-19,54.775001525878906,54.775001525878906,54.775001525878906,54.775001525878906,0.0,53.21160888671875
2017-09-20,54.935001373291016,54.84000015258789,54.935001373291016,54.84000015258789,1700.0,53.27474594116211
2017-09-21,54.84000015258789,54.84000015258789,54.84000015258789,54.84000015258789,0.0,53.27474594116211
2017-09-22,54.84000015258789,54.84000015258789,54.84000015258789,54.84000015258789,0.0,53.27474594116211
2017-09-25,54.83000183105469,54.83000183105469,54.83000183105469,54.83000183105469,200.0,53.26503372192383
2017-09-26,54.58300018310547,54.56999969482422,54.58000183105469,54.58300018310547,600.0,53.20459747314453
2017-09-27,54.7400016784668,54.5,54.51900100708008,54.72999954223633,1000.0,53.34788513183594
2017-09-28,54.779998779296875,54.69499969482422,54.69499969482422,54.779998779296875,600.0,53.3966178894043
2017-09-29,54.779998779296875,54.779998779296875,54.779998779296875,54.779998779296875,0.0,53.3966178894043
2017-10-02,54.779998779296875,54.779998779296875,54.779998779296875,54.779998779296875,0.0,53.3966178894043
2017-10-03,55.27000045776367,55.27000045776367,55.27000045776367,55.27000045776367,100.0,53.87424850463867
2017-10-04,55.40999984741211,55.2859992980957,55.31999969482422,55.2859992980957,1900.0,53.88984298706055
2017-10-05,55.66999816894531,55.46500015258789,55.46500015258789,55.66999816894531,7200.0,54.26414108276367
2017-10-06,55.64899826049805,55.61000061035156,55.61000061035156,55.619998931884766,600.0,54.21540832519531
2017-10-09,55.720001220703125,55.5099983215332,55.720001220703125,55.5099983215332,1100.0,54.10818862915039
2017-10-10,55.5099983215332,55.5099983215332,55.5099983215332,55.5099983215332,0.0,54.10818862915039
2017-10-11,55.709999084472656,55.709999084472656,55.709999084472656,55.709999084472656,200.0,54.30312728881836
2017-10-12,55.79999923706055,55.720001220703125,55.77000045776367,55.720001220703125,1400.0,54.31288146972656
2017-10-13,55.900001525878906,55.86000061035156,55.900001525878906,55.869998931884766,1000.0,54.4590950012207
2017-10-16,55.89099884033203,55.86000061035156,55.89099884033203,55.86000061035156,1600.0,54.449344635009766
2017-10-17,56.02000045776367,55.880001068115234,56.02000045776367,55.9010009765625,1000.0,54.48930740356445
2017-10-18,56.06700134277344,56.029998779296875,56.03099822998047,56.06700134277344,400.0,54.651123046875
2017-10-19,56.08000183105469,55.944000244140625,55.97999954223633,56.07099914550781,800.0,54.65502166748047
2017-10-20,56.07099914550781,56.07099914550781,56.07099914550781,56.07099914550781,0.0,54.65502166748047
2017-10-23,56.439998626708984,56.12300109863281,56.439998626708984,56.12300109863281,800.0,54.70570373535156
2017-10-24,56.380001068115234,56.25899887084961,56.380001068115234,56.25899887084961,1300.0,54.83827209472656
2017-10-25,56.09400177001953,55.86000061035156,56.09400177001953,55.86000061035156,3600.0,54.449344635009766
2017-10-26,56.16999816894531,56.119998931884766,56.119998931884766,56.16999816894531,31100.0,54.75151824951172
2017-10-27,56.619998931884766,56.529998779296875,56.53900146484375,56.56999969482422,23600.0,55.141414642333984
2017-10-30,56.560001373291016,56.32500076293945,56.560001373291016,56.33000183105469,6000.0,54.9074821472168
2017-10-31,56.33000183105469,56.33000183105469,56.33000183105469,56.33000183105469,0.0,54.9074821472168
2017-11-01,56.560001373291016,56.540000915527344,56.560001373291016,56.540000915527344,800.0,55.11216735839844
2017-11-02,56.59000015258789,56.349998474121094,56.349998474121094,56.59000015258789,24500.0,55.16091537475586
2017-11-03,56.7400016784668,56.529998779296875,56.70000076293945,56.7400016784668,4500.0,55.30712890625
2017-11-06,56.81999969482422,56.7400016784668,56.7400016784668,56.77899932861328,3200.0,55.34514236450195
2017-11-07,56.801998138427734,56.632999420166016,56.801998138427734,56.720001220703125,9900.0,55.287628173828125
2017-11-08,56.869998931884766,56.76100158691406,56.790000915527344,56.869998931884766,13900.0,55.433841705322266
2017-11-09,56.599998474121094,56.400001525878906,56.400001525878906,56.599998474121094,4100.0,55.170658111572266
2017-11-10,56.59000015258789,56.459999084472656,56.459999084472656,56.59000015258789,2900.0,55.16091537475586
2017-11-13,56.61000061035156,56.513999938964844,56.560001373291016,56.540000915527344,5300.0,55.11216735839844
2017-11-14,56.499000549316406,56.319000244140625,56.319000244140625,56.45899963378906,2900.0,55.03321838378906
2017-11-15,56.3390007019043,56.25400161743164,56.25400161743164,56.25899887084961,1000.0,54.83827209472656
2017-11-16,56.70899963378906,56.625,56.70000076293945,56.66999816894531,1900.0,55.2388916015625
2017-11-17,56.584999084472656,56.44200134277344,56.54999923706055,56.5099983215332,3100.0,55.08293151855469
2017-11-20,56.65999984741211,56.5099983215332,56.65999984741211,56.54999923706055,8600.0,55.12192153930664
2017-11-21,56.90999984741211,56.75,56.790000915527344,56.900001525878906,5400.0,55.46308517456055
2017-11-22,56.900001525878906,56.834999084472656,56.900001525878906,56.89899826049805,1900.0,55.46210861206055
2017-11-24,57.0,56.88100051879883,56.89500045776367,57.0,3400.0,55.5605583190918
2017-11-27,57.01900100708008,57.01599884033203,57.01900100708008,57.01599884033203,700.0,55.57615280151367
2017-11-28,57.47999954223633,57.47999954223633,57.47999954223633,57.47999954223633,400.0,56.02843475341797
2017-11-29,57.63999938964844,57.45000076293945,57.63999938964844,57.5099983215332,5700.0,56.05767822265625
2017-11-30,58.13999938964844,57.85499954223633,57.85499954223633,58.00899887084961,700.0,56.54407501220703
2017-12-01,58.0,57.47999954223633,58.0,57.779998779296875,1800.0,56.320865631103516
2017-12-04,58.2599983215332,57.90999984741211,58.2599983215332,57.939998626708984,1300.0,56.4768180847168
2017-12-05,57.95000076293945,57.694000244140625,57.95000076293945,57.694000244140625,4300.0,56.237030029296875
2017-12-06,57.694000244140625,57.694000244140625,57.694000244140625,57.694000244140625,0.0,56.237030029296875
2017-12-07,57.72999954223633,57.400001525878906,57.47999954223633,57.63999938964844,3400.0,56.18439483642578
2017-12-08,57.88999938964844,57.88999938964844,57.88999938964844,57.88999938964844,600.0,56.42808532714844
2017-12-11,58.11000061035156,57.946998596191406,57.946998596191406,58.099998474121094,9000.0,56.632774353027344
2017-12-12,58.20000076293945,58.17100143432617,58.189998626708984,58.20000076293945,2900.0,56.730255126953125
2017-12-13,58.36000061035156,58.290000915527344,58.34000015258789,58.34000015258789,2000.0,56.86671829223633
2017-12-14,58.22999954223633,58.040000915527344,58.22999954223633,58.040000915527344,1200.0,56.57429885864258
2017-12-15,58.560001373291016,58.54999923706055,58.560001373291016,58.54999923706055,4600.0,57.071414947509766
2017-12-18,58.869998931884766,58.76499938964844,58.869998931884766,58.76499938964844,2000.0,57.28098678588867
2017-12-19,58.380001068115234,58.27000045776367,58.380001068115234,58.279998779296875,1600.0,57.1094970703125
2017-12-20,58.599998474121094,58.220001220703125,58.599998474121094,58.29899978637695,1900.0,57.12812042236328
2017-12-21,58.48500061035156,58.38999938964844,58.38999938964844,58.459999084472656,1600.0,57.285888671875
2017-12-22,58.4900016784668,58.33000183105469,58.4900016784668,58.33000183105469,500.0,57.15849685668945
2017-12-26,58.27899932861328,58.25,58.2599983215332,58.27899932861328,4600.0,57.108516693115234
2017-12-27,58.279998779296875,58.279998779296875,58.279998779296875,58.279998779296875,400.0,57.1094970703125
2017-12-28,58.36000061035156,58.36000061035156,58.36000061035156,58.36000061035156,800.0,57.187896728515625
2017-12-29,58.369998931884766,58.32899856567383,58.369998931884766,58.33000183105469,4100.0,57.15849685668945
2018-01-02,58.47999954223633,58.34000015258789,58.34000015258789,58.459999084472656,1100.0,57.285888671875
2018-01-03,58.959999084472656,58.79499816894531,58.79499816894531,58.959999084472656,1800.0,57.775840759277344
2018-01-04,59.27000045776367,59.21500015258789,59.244998931884766,59.27000045776367,1000.0,58.079620361328125
2018-01-05,59.540000915527344,59.37699890136719,59.529998779296875,59.540000915527344,7300.0,58.34419250488281
2018-01-08,59.7599983215332,59.58599853515625,59.70000076293945,59.722999572753906,9000.0,58.52351379394531
2018-01-09,60.0099983215332,59.66999816894531,59.66999816894531,60.0099983215332,1500.0,58.804752349853516
2018-01-10,59.599998474121094,59.560001373291016,59.599998474121094,59.560001373291016,600.0,58.36379623413086
2018-01-11,59.902000427246094,59.902000427246094,59.902000427246094,59.902000427246094,400.0,58.69892883300781
2018-01-12,60.540000915527344,60.38999938964844,60.38999938964844,60.540000915527344,600.0,59.32411193847656
2018-01-16,60.650001525878906,60.47600173950195,60.650001525878906,60.47600173950195,500.0,59.26139831542969
2018-01-17,61.03499984741211,60.90800094604492,60.90800094604492,61.03499984741211,10400.0,59.80916976928711
2018-01-18,61.0099983215332,60.790000915527344,60.790000915527344,61.0099983215332,1500.0,59.784664154052734
2018-01-19,61.029998779296875,61.012001037597656,61.02000045776367,61.012001037597656,900.0,59.7866325378418
2018-01-22,61.540000915527344,61.33000183105469,61.369998931884766,61.540000915527344,2300.0,60.30402755737305
2018-01-23,61.880001068115234,61.74800109863281,61.869998931884766,61.77000045776367,7400.0,60.52941131591797
2018-01-24,61.86000061035156,61.65999984741211,61.750999450683594,61.79999923706055,1400.0,60.55880355834961
2018-01-25,62.13999938964844,61.79999923706055,62.13999938964844,61.79999923706055,700.0,60.55880355834961
2018-01-26,62.56999969482422,62.290000915527344,62.290000915527344,62.540000915527344,3100.0,61.2839469909668
2018-01-29,62.40999984741211,62.35200119018555,62.369998931884766,62.40999984741211,1300.0,61.15655517578125
2018-01-30,61.900001525878906,61.56999969482422,61.900001525878906,61.56999969482422,8600.0,60.33342361450195
2018-01-31,61.650001525878906,61.61899948120117,61.650001525878906,61.650001525878906,1500.0,60.41182327270508
2018-02-01,61.71500015258789,61.42499923706055,61.42499923706055,61.560001373291016,1800.0,60.32362747192383
2018-02-02,60.959999084472656,60.224998474121094,60.959999084472656,60.224998474121094,600.0,59.01543426513672
2018-02-05,60.13999938964844,58.0,59.900001525878906,58.0,1700.0,56.83512496948242
2018-02-06,58.2599983215332,57.74700164794922,58.2599983215332,57.74700164794922,489500.0,56.58720779418945
2018-02-07,59.069000244140625,58.72999954223633,58.72999954223633,59.069000244140625,400.0,57.88264846801758
2018-02-08,58.66999816894531,57.439998626708984,58.66999816894531,57.439998626708984,1500.0,56.286373138427734
2018-02-09,57.03499984741211,55.54999923706055,57.03499984741211,56.66999816894531,3400.0,55.53183364868164
2018-02-12,58.25,57.5,57.689998626708984,58.25,4700.0,57.080108642578125
2018-02-13,58.119998931884766,57.56999969482422,57.56999969482422,58.095001220703125,1400.0,56.928218841552734
2018-02-14,58.939998626708984,57.779998779296875,57.779998779296875,58.939998626708984,24500.0,57.75624465942383
2018-02-15,59.42900085449219,59.237998962402344,59.237998962402344,59.42900085449219,600.0,58.23542785644531
2018-02-16,60.0,59.29999923706055,59.29999923706055,59.64500045776367,2000.0,58.447086334228516
2018-02-20,59.90999984741211,59.44499969482422,59.479000091552734,59.599998474121094,6200.0,58.40298843383789
2018-02-21,59.97999954223633,59.630001068115234,59.630001068115234,59.97999954223633,2900.0,58.775360107421875
2018-02-22,61.0099983215332,59.209999084472656,61.0099983215332,59.209999084472656,4700.0,58.02082443237305
2018-02-23,59.540000915527344,59.5099983215332,59.5099983215332,59.52299880981445,1400.0,58.327537536621094
2018-02-26,60.43000030517578,60.130001068115234,60.130001068115234,60.41999816894531,7900.0,59.206520080566406
2018-02-27,60.86000061035156,60.09000015258789,60.74100112915039,60.09000015258789,2100.0,58.883148193359375
2018-02-28,60.29999923706055,59.470001220703125,60.29999923706055,59.470001220703125,5400.0,58.27560043334961
2018-03-01,59.47999954223633,58.24800109863281,59.47999954223633,58.56999969482422,5500.0,57.3936767578125
2018-03-02,58.619998931884766,58.04999923706055,58.04999923706055,58.619998931884766,19400.0,57.44267272949219
2018-03-05,59.56999969482422,58.79999923706055,58.79999923706055,59.56999969482422,1000.0,58.373592376708984
2018-03-06,59.7400016784668,59.3849983215332,59.57500076293945,59.650001525878906,2600.0,58.45198059082031
2018-03-07,59.709999084472656,59.14500045776367,59.470001220703125,59.709999084472656,8700.0,58.51077651977539
2018-03-08,60.029998779296875,59.77000045776367,60.029998779296875,59.900001525878906,3200.0,58.69696044921875
2018-03-09,60.96500015258789,60.290000915527344,60.334999084472656,60.96500015258789,8200.0,59.740577697753906
2018-03-12,61.029998779296875,60.96500015258789,60.98500061035156,61.029998779296875,9400.0,59.80427551269531
2018-03-13,61.20000076293945,60.55799865722656,61.20000076293945,60.55799865722656,7800.0,59.34174728393555
2018-03-14,60.7599983215332,60.189998626708984,60.7599983215332,60.25,22400.0,59.03993606567383
2018-03-15,60.45000076293945,60.12699890136719,60.279998779296875,60.27000045776367,3900.0,59.05953598022461
2018-03-16,60.470001220703125,60.32899856567383,60.36899948120117,60.470001220703125,3600.0,59.255516052246094
2018-03-19,60.209999084472656,59.369998931884766,60.209999084472656,59.439998626708984,11900.0,58.2462043762207
2018-03-20,59.630001068115234,59.52899932861328,59.558998107910156,59.599998474121094,2600.0,58.40298843383789
2018-03-21,59.83000183105469,59.709999084472656,59.83000183105469,59.709999084472656,5400.0,58.51077651977539
2018-03-22,58.81999969482422,58.77000045776367,58.81999969482422,58.77000045776367,4100.0,57.76476287841797
2018-03-23,58.15999984741211,56.63100051879883,58.15999984741211,56.68299865722656,27200.0,55.71345520019531
2018-03-26,58.13999938964844,57.29999923706055,57.349998474121094,58.08000183105469,3100.0,57.086570739746094
2018-03-27,58.41999816894531,57.119998931884766,58.41999816894531,57.119998931884766,6700.0,56.142982482910156
2018-03-28,57.25,56.72200012207031,56.73899841308594,57.040000915527344,2600.0,56.064353942871094
2018-03-29,57.880001068115234,57.06999969482422,57.29999923706055,57.79100036621094,7900.0,56.80250930786133
2018-04-02,56.560001373291016,56.029998779296875,56.5,56.40999984741211,5700.0,55.445133209228516
2018-04-03,57.00400161743164,56.36000061035156,56.63999938964844,57.00400161743164,3200.0,56.028968811035156
2018-04-04,57.83000183105469,56.75899887084961,56.75899887084961,57.83000183105469,1300.0,56.840843200683594
2018-04-05,58.082000732421875,58.082000732421875,58.082000732421875,58.082000732421875,200.0,57.088531494140625
2018-04-06,58.060001373291016,56.66999816894531,58.060001373291016,56.70000076293945,8500.0,55.73017120361328
2018-04-09,57.900001525878906,57.060001373291016,57.29999923706055,57.060001373291016,5100.0,56.084014892578125
2018-04-10,58.209999084472656,57.7400016784668,57.880001068115234,58.11000061035156,3700.0,57.11605453491211
2018-04-11,58.06999969482422,57.7599983215332,57.7599983215332,57.84000015258789,10700.0,56.850669860839844
2018-04-12,58.45000076293945,58.279998779296875,58.279998779296875,58.40999984741211,2800.0,57.41092300415039
2018-04-13,58.75,58.08000183105469,58.75,58.290000915527344,3100.0,57.292972564697266
2018-04-16,58.82899856567383,58.61000061035156,58.720001220703125,58.66999816894531,3200.0,57.66646957397461
2018-04-17,59.29999923706055,59.132999420166016,59.132999420166016,59.29999923706055,14300.0,58.28569793701172
2018-04-18,59.47999954223633,59.45000076293945,59.47999954223633,59.45000076293945,600.0,58.43313217163086
2018-04-19,59.20000076293945,58.84000015258789,59.20000076293945,58.95000076293945,2300.0,57.94168472290039
2018-04-20,58.9900016784668,58.42499923706055,58.9900016784668,58.42599868774414,2600.0,57.4266471862793
2018-04-23,58.65999984741211,58.459999084472656,58.65999984741211,58.459999084472656,3500.0,57.46006774902344
2018-04-24,58.939998626708984,57.5099983215332,58.939998626708984,57.529998779296875,18500.0,56.54597091674805
2018-04-25,57.78799819946289,57.529998779296875,57.529998779296875,57.78799819946289,500.0,56.799560546875
2018-04-26,58.61000061035156,58.189998626708984,58.189998626708984,58.56999969482422,20700.0,57.56818389892578
2018-04-27,58.70000076293945,58.40399932861328,58.70000076293945,58.40399932861328,2000.0,57.40502166748047
2018-04-30,58.40399932861328,58.40399932861328,58.40399932861328,58.40399932861328,0.0,57.40502166748047
2018-05-01,58.40399932861328,58.40399932861328,58.40399932861328,58.40399932861328,0.0,57.40502166748047
2018-05-02,58.09000015258789,58.03799819946289,58.09000015258789,58.060001373291016,3900.0,57.0669059753418
2018-05-03,57.7400016784668,56.95100021362305,57.54999923706055,57.56999969482422,42000.0,56.585289001464844
2018-05-04,58.400001525878906,58.040000915527344,58.04999923706055,58.400001525878906,3000.0,57.401092529296875
2018-05-07,58.689998626708984,58.52899932861328,58.5890007019043,58.66699981689453,17400.0,57.66352081298828
2018-05-08,58.4900016784668,58.290000915527344,58.46900177001953,58.470001220703125,32500.0,57.46989822387695
2018-05-09,59.130001068115234,58.625,58.810001373291016,59.029998779296875,80200.0,58.02031326293945
2018-05-10,59.70000076293945,59.36000061035156,59.36000061035156,59.62900161743164,4900.0,58.609073638916016
2018-05-11,59.83000183105469,59.625,59.7599983215332,59.709999084472656,14400.0,58.68867874145508
2018-05-14,60.005001068115234,59.70899963378906,60.005001068115234,59.70899963378906,4200.0,58.68769454956055
2018-05-15,59.38999938964844,59.24399948120117,59.33000183105469,59.257999420166016,13500.0,58.244415283203125
2018-05-16,59.630001068115234,59.400001525878906,59.400001525878906,59.5099983215332,3500.0,58.49210739135742
2018-05-17,59.709999084472656,59.369998931884766,59.5,59.369998931884766,1100.0,58.354496002197266
2018-05-18,59.540000915527344,59.30400085449219,59.540000915527344,59.40999984741211,6800.0,58.39381408691406
2018-05-21,59.88999938964844,59.71500015258789,59.81999969482422,59.742000579833984,1800.0,58.72013473510742
2018-05-22,59.970001220703125,59.84000015258789,59.970001220703125,59.91999816894531,1600.0,58.89509582519531
2018-05-23,59.810001373291016,59.3489990234375,59.380001068115234,59.810001373291016,1200.0,58.78697967529297
2018-05-24,59.75,59.48400115966797,59.48400115966797,59.75,2000.0,58.72800064086914
2018-05-25,59.66999816894531,59.5099983215332,59.65999984741211,59.59000015258789,2500.0,58.570735931396484
2018-05-29,59.279998779296875,58.66699981689453,59.279998779296875,58.81999969482422,4100.0,57.81390380859375
2018-05-30,59.79999923706055,59.29800033569336,59.349998474121094,59.70000076293945,17200.0,58.678855895996094
2018-05-31,59.5099983215332,59.31999969482422,59.5099983215332,59.33000183105469,900.0,58.31519317626953
2018-06-01,59.970001220703125,59.779998779296875,59.779998779296875,59.900001525878906,1800.0,58.875431060791016
2018-06-04,60.22999954223633,59.970001220703125,59.970001220703125,60.22999954223633,2700.0,59.199790954589844
2018-06-05,60.2599983215332,60.19499969482422,60.19499969482422,60.25,6900.0,59.21944808959961
2018-06-06,60.689998626708984,60.28499984741211,60.38999938964844,60.689998626708984,103600.0,59.65192413330078
2018-06-07,60.72200012207031,60.54499816894531,60.619998931884766,60.720001220703125,16000.0,59.68141174316406
2018-06-08,60.90999984741211,60.61000061035156,60.61000061035156,60.90999984741211,7500.0,59.868160247802734
2018-06-11,61.150001525878906,60.810001373291016,60.810001373291016,61.11000061035156,9800.0,60.06473922729492
2018-06-12,61.119998931884766,60.970001220703125,61.08000183105469,61.040000915527344,1200.0,59.995933532714844
2018-06-13,61.18000030517578,60.974998474121094,61.02000045776367,61.040000915527344,2300.0,59.995933532714844
2018-06-14,61.06800079345703,61.02000045776367,61.06800079345703,61.060001373291016,800.0,60.01559829711914
2018-06-15,60.97999954223633,60.63999938964844,60.654998779296875,60.97999954223633,4200.0,59.93696212768555
2018-06-18,60.95000076293945,60.56999969482422,60.7400016784668,60.95000076293945,6100.0,59.907474517822266
2018-06-19,60.650001525878906,60.479000091552734,60.4900016784668,60.6150016784668,5700.0,59.57820510864258
2018-06-20,60.93000030517578,60.810001373291016,60.86000061035156,60.82899856567383,9100.0,59.788543701171875
2018-06-21,60.7400016784668,60.439998626708984,60.7400016784668,60.459999084472656,3200.0,59.42585754394531
2018-06-22,60.59400177001953,60.487998962402344,60.518001556396484,60.59400177001953,2700.0,59.55756759643555
2018-06-25,60.33000183105469,59.40999984741211,60.33000183105469,59.40999984741211,2900.0,58.39381408691406
2018-06-26,59.77000045776367,59.62900161743164,59.62900161743164,59.77000045776367,1300.0,58.980960845947266
2018-06-27,60.00899887084961,59.4900016784668,59.83000183105469,59.4900016784668,3100.0,58.704654693603516
2018-06-28,59.44499969482422,59.040000915527344,59.04999923706055,59.44499969482422,15600.0,58.66025161743164
2018-06-29,60.0,59.790000915527344,59.83000183105469,59.88999938964844,7400.0,59.0993766784668
2018-07-02,59.42399978637695,59.18000030517578,59.36000061035156,59.42399978637695,9100.0,58.6395263671875
2018-07-03,59.900001525878906,59.5620002746582,59.880001068115234,59.56999969482422,1900.0,58.783599853515625
2018-07-05,59.97999954223633,59.619998931884766,59.630001068115234,59.97999954223633,24800.0,59.18818664550781
2018-07-06,60.54999923706055,59.939998626708984,60.11000061035156,60.540000915527344,11400.0,59.74079513549805
2018-07-09,60.91999816894531,60.87799835205078,60.91999816894531,60.900001525878906,5800.0,60.09604263305664
2018-07-10,61.220001220703125,61.060001373291016,61.119998931884766,61.209999084472656,2600.0,60.40195083618164
2018-07-11,60.91999816894531,60.810001373291016,60.90999984741211,60.810001373291016,6000.0,60.007232666015625
2018-07-12,61.380001068115234,61.25,61.29999923706055,61.31999969482422,12800.0,60.510498046875
2018-07-13,61.43000030517578,61.380001068115234,61.380001068115234,61.43000030517578,1100.0,60.61904525756836
2018-07-16,61.560001373291016,61.279998779296875,61.560001373291016,61.334999084472656,6500.0,60.525299072265625
2018-07-17,61.70000076293945,61.20000076293945,61.20000076293945,61.65999984741211,8400.0,60.846012115478516
2018-07-18,61.779998779296875,61.61000061035156,61.61000061035156,61.7400016784668,1800.0,60.924957275390625
2018-07-19,61.689998626708984,61.52000045776367,61.689998626708984,61.54999923706055,52000.0,60.73746109008789
2018-07-20,61.59000015258789,61.459999084472656,61.5890007019043,61.47800064086914,25900.0,60.66641616821289
2018-07-23,61.58000183105469,61.35200119018555,61.35200119018555,61.58000183105469,900.0,60.767066955566406
2018-07-24,61.97999954223633,61.625,61.97999954223633,61.625,1300.0,60.81147003173828
2018-07-25,62.12699890136719,61.814998626708984,61.849998474121094,62.11000061035156,5300.0,61.290069580078125
2018-07-26,62.290000915527344,62.23099899291992,62.279998779296875,62.290000915527344,6000.0,61.46769332885742
2018-07-27,62.5099983215332,61.70000076293945,62.5099983215332,61.75199890136719,12000.0,60.936798095703125
2018-07-30,61.91999816894531,61.41400146484375,61.91999816894531,61.439998626708984,11000.0,60.62891387939453
2018-07-31,61.88999938964844,61.68000030517578,61.70000076293945,61.834999084472656,7100.0,61.018699645996094
2018-08-01,62.0099983215332,61.724998474121094,62.0099983215332,61.77199935913086,9000.0,60.9565315246582
2018-08-02,62.15999984741211,61.560001373291016,61.560001373291016,62.097999572753906,1200.0,61.278228759765625
2018-08-03,62.400001525878906,62.23400115966797,62.25899887084961,62.400001525878906,19900.0,61.57624435424805
2018-08-06,62.7400016784668,62.37200164794922,62.37200164794922,62.64699935913086,6900.0,61.819976806640625
2018-08-07,62.90999984741211,62.84000015258789,62.86000061035156,62.90999984741211,4400.0,62.07951354980469
2018-08-08,62.849998474121094,62.68000030517578,62.68000030517578,62.84000015258789,5300.0,62.010433197021484
2018-08-09,62.93000030517578,62.750999450683594,62.93000030517578,62.78300094604492,6000.0,61.954185485839844
2018-08-10,62.47999954223633,62.11000061035156,62.47999954223633,62.15800094604492,9700.0,61.337440490722656
2018-08-13,62.189998626708984,61.96500015258789,62.099998474121094,62.029998779296875,1900.0,61.211124420166016
2018-08-14,62.43000030517578,62.349998474121094,62.41999816894531,62.35100173950195,2500.0,61.527889251708984
2018-08-15,62.16999816894531,61.65999984741211,62.16999816894531,61.91999816894531,3600.0,61.10257339477539
2018-08-16,62.599998474121094,62.3120002746582,62.34000015258789,62.369998931884766,12800.0,61.54663848876953
2018-08-17,62.720001220703125,62.34000015258789,62.34000015258789,62.630001068115234,10100.0,61.80320358276367
2018-08-20,62.83000183105469,62.630001068115234,62.83000183105469,62.790000915527344,2000.0,61.96109390258789
2018-08-21,63.13999938964844,62.959999084472656,62.959999084472656,63.02000045776367,22500.0,62.18805694580078
2018-08-22,62.9900016784668,62.78499984741211,62.78499984741211,62.93000030517578,12500.0,62.0992431640625
2018-08-23,62.97999954223633,62.8120002746582,62.97999954223633,62.882999420166016,11100.0,62.05286407470703
2018-08-24,63.266998291015625,63.150001525878906,63.150001525878906,63.231998443603516,12400.0,62.39725875854492
2018-08-27,63.77000045776367,63.400001525878906,63.400001525878906,63.7400016784668,10100.0,62.89855194091797
2018-08-28,63.83000183105469,63.69499969482422,63.83000183105469,63.77000045776367,11900.0,62.92815399169922
2018-08-29,64.19000244140625,63.83000183105469,63.93000030517578,64.1500015258789,8200.0,63.303138732910156
2018-08-30,64.08999633789062,63.77000045776367,64.0199966430664,63.869998931884766,4200.0,63.026832580566406
2018-08-31,63.93000030517578,63.72999954223633,63.880001068115234,63.72999954223633,8700.0,62.8886833190918
2018-09-04,63.880001068115234,63.560001373291016,63.880001068115234,63.79999923706055,15300.0,62.957759857177734
2018-09-05,63.599998474121094,63.38999938964844,63.54999923706055,63.599998474121094,5500.0,62.760398864746094
2018-09-06,63.66999816894531,63.22700119018555,63.66999816894531,63.43600082397461,5000.0,62.59856414794922
2018-09-07,63.400001525878906,63.07500076293945,63.220001220703125,63.17300033569336,11300.0,62.33903503417969
2018-09-10,63.59000015258789,63.310001373291016,63.59000015258789,63.40999984741211,11500.0,62.57291030883789
2018-09-11,63.650001525878906,63.380001068115234,63.380001068115234,63.61000061035156,12300.0,62.770267486572266
2018-09-12,63.66999816894531,63.415000915527344,63.66999816894531,63.599998474121094,5100.0,62.760398864746094
2018-09-13,64.0,63.88999938964844,64.0,63.91999816894531,4600.0,63.076175689697266
2018-09-14,64.08000183105469,63.869998931884766,64.0,64.0199966430664,10500.0,63.17485046386719
2018-09-17,64.0999984741211,63.619998931884766,64.0999984741211,63.619998931884766,10700.0,62.78013610839844
2018-09-18,64.06999969482422,63.845001220703125,63.85900115966797,63.959999084472656,12500.0,63.11564636230469
2018-09-19,64.02999877929688,63.930999755859375,64.01000213623047,63.95000076293945,9800.0,63.105777740478516
2018-09-20,64.63999938964844,64.38999938964844,64.38999938964844,64.62999725341797,7700.0,63.776798248291016
2018-09-21,64.7699966430664,64.52999877929688,64.7699966430664,64.52999877929688,2300.0,63.67811965942383
2018-09-24,64.31999969482422,64.18000030517578,64.18000030517578,64.31999969482422,13800.0,63.470890045166016
2018-09-25,64.36000061035156,64.16100311279297,64.36000061035156,64.16799926757812,3400.0,63.320899963378906
2018-09-26,64.19999694824219,63.709999084472656,64.12000274658203,63.709999084472656,14400.0,63.10497283935547
2018-09-27,64.18000030517578,63.84000015258789,63.84000015258789,64.04000091552734,20400.0,63.43184280395508
2018-09-28,64.0199966430664,63.790000915527344,63.790000915527344,63.970001220703125,5400.0,63.36250686645508
2018-10-01,64.44000244140625,64.04199981689453,64.4000015258789,64.05500030517578,25400.0,63.446693420410156
2018-10-02,64.26499938964844,64.08999633789062,64.18000030517578,64.19000244140625,32600.0,63.58041763305664
2018-10-03,64.41999816894531,64.08999633789062,64.19999694824219,64.1500015258789,11000.0,63.540794372558594
2018-10-04,64.13999938964844,63.2400016784668,64.13999938964844,63.59000015258789,14700.0,62.98611068725586
2018-10-05,63.7599983215332,62.93000030517578,63.7599983215332,63.22999954223633,12900.0,62.6295280456543
2018-10-08,63.220001220703125,62.707000732421875,63.0,63.13999938964844,10700.0,62.54038619995117
2018-10-09,63.13399887084961,63.04999923706055,63.04999923706055,63.13399887084961,3300.0,62.53443908691406
2018-10-10,62.42900085449219,61.37799835205078,62.319000244140625,61.37799835205078,17700.0,60.79511642456055
2018-10-11,61.11000061035156,59.529998779296875,60.81999969482422,59.810001373291016,28800.0,59.24201202392578
2018-10-12,60.59700012207031,59.930999755859375,60.59700012207031,60.54999923706055,10800.0,59.974979400634766
2018-10-15,60.5099983215332,60.15999984741211,60.5099983215332,60.15999984741211,3800.0,59.588687896728516
2018-10-16,61.470001220703125,60.595001220703125,60.595001220703125,61.459999084472656,35600.0,60.876338958740234
2018-10-17,61.52000045776367,61.099998474121094,61.52000045776367,61.27799987792969,9400.0,60.696067810058594
2018-10-18,61.172000885009766,60.36000061035156,61.172000885009766,60.529998779296875,2600.0,59.955169677734375
2018-10-19,60.9900016784668,60.29999923706055,60.75,60.5,8300.0,59.92545700073242
2018-10-22,60.689998626708984,60.108001708984375,60.689998626708984,60.189998626708984,2100.0,59.61840057373047
2018-10-23,60.13999938964844,58.94499969482422,59.349998474121094,59.869998931884766,8300.0,59.30143737792969
2018-10-24,59.95000076293945,58.04999923706055,59.95000076293945,58.04999923706055,11700.0,57.49871826171875
2018-10-25,59.43000030517578,58.54999923706055,58.54999923706055,59.08000183105469,16400.0,58.518943786621094
2018-10-26,58.41999816894531,57.38999938964844,57.9900016784668,58.0,13000.0,57.44919967651367
2018-10-29,58.744998931884766,57.0,58.744998931884766,57.68000030517578,6900.0,57.13223648071289
2018-10-30,58.369998931884766,57.779998779296875,57.88999938964844,58.29600143432617,19300.0,57.74238586425781
2018-10-31,59.60599899291992,59.25,59.28499984741211,59.60599899291992,1300.0,59.039947509765625
2018-11-01,59.869998931884766,59.507999420166016,59.5099983215332,59.869998931884766,5800.0,59.30143737792969
2018-11-02,59.959999084472656,59.11000061035156,59.959999084472656,59.47999954223633,2700.0,58.91514205932617
2018-11-05,59.86000061035156,59.42300033569336,59.42300033569336,59.86000061035156,9900.0,59.29153823852539
2018-11-06,60.02399826049805,59.82899856567383,59.88999938964844,60.01499938964844,3600.0,59.44506072998047
2018-11-07,61.5099983215332,60.68000030517578,60.790000915527344,61.5099983215332,10200.0,60.925865173339844
2018-11-08,61.54999923706055,61.20500183105469,61.459999084472656,61.20500183105469,3700.0,60.62376022338867
2018-11-09,60.808998107910156,60.63800048828125,60.808998107910156,60.75,8100.0,60.1730842590332
2018-11-12,60.869998931884766,59.83000183105469,60.869998931884766,59.83000183105469,16500.0,59.261817932128906
2018-11-13,60.06999969482422,59.659000396728516,59.95000076293945,59.66999816894531,19400.0,59.10334014892578
2018-11-14,59.9900016784668,58.880001068115234,59.9900016784668,59.220001220703125,22800.0,58.65760803222656
2018-11-15,59.97999954223633,58.849998474121094,58.900001525878906,59.880001068115234,13400.0,59.311344146728516
2018-11-16,60.15800094604492,59.599998474121094,59.81999969482422,60.0099983215332,6700.0,59.44010925292969
2018-11-19,59.70000076293945,58.86000061035156,59.70000076293945,59.02000045776367,6600.0,58.45951461791992
2018-11-20,58.349998474121094,57.83000183105469,58.040000915527344,57.959999084472656,31700.0,57.40958023071289
2018-11-21,58.45000076293945,58.189998626708984,58.45000076293945,58.189998626708984,3600.0,57.637393951416016
2018-11-23,58.08000183105469,57.86000061035156,57.86000061035156,58.08000183105469,1100.0,57.5284423828125
2018-11-26,58.779998779296875,58.39799880981445,58.5099983215332,58.779998779296875,3600.0,58.2217903137207
2018-11-27,59.02000045776367,58.45000076293945,58.65999984741211,59.02000045776367,23700.0,58.45951461791992
2018-11-28,60.349998474121094,58.959999084472656,59.060001373291016,60.349998474121094,44500.0,59.77688217163086
2018-11-29,60.41999816894531,59.7599983215332,60.0,60.130001068115234,21800.0,59.55896759033203
2018-11-30,60.56999969482422,60.119998931884766,60.189998626708984,60.56999969482422,16000.0,59.99479293823242
2018-12-03,61.400001525878906,60.970001220703125,61.36000061035156,61.22999954223633,11800.0,60.648521423339844
2018-12-04,61.279998779296875,59.310001373291016,61.279998779296875,59.310001373291016,16500.0,58.74675750732422
2018-12-06,59.40999984741211,57.86000061035156,58.54999923706055,59.40999984741211,58000.0,58.84580612182617
2018-12-07,59.42499923706055,57.84000015258789,59.33000183105469,57.93000030517578,27300.0,57.37986373901367
2018-12-10,58.20000076293945,56.9900016784668,57.849998474121094,58.02000045776367,49300.0,57.46900939941406
2018-12-11,58.72800064086914,58.02000045776367,58.720001220703125,58.02000045776367,5400.0,57.46900939941406
2018-12-12,59.02000045776367,58.53499984741211,58.63999938964844,58.564998626708984,7700.0,58.008827209472656
2018-12-13,58.75,58.06800079345703,58.58000183105469,58.14500045776367,6800.0,57.59282302856445
2018-12-14,57.90999984741211,57.15999984741211,57.90999984741211,57.19300079345703,18800.0,56.64986038208008
2018-12-17,56.87300109863281,55.47100067138672,56.400001525878906,55.54999923706055,27400.0,55.3077392578125
2018-12-18,56.29999923706055,55.45000076293945,56.279998779296875,55.77000045776367,36300.0,55.52677917480469
2018-12-19,56.459999084472656,54.91299819946289,55.630001068115234,55.0,46000.0,54.760135650634766
2018-12-20,54.95000076293945,53.52000045776367,54.7599983215332,53.91999816894531,120600.0,53.684844970703125
2018-12-21,54.77000045776367,52.7400016784668,54.439998626708984,52.849998474121094,132200.0,52.619510650634766
2018-12-24,52.7599983215332,51.470001220703125,52.34000015258789,51.47999954223633,67100.0,51.25548553466797
2018-12-26,54.099998474121094,51.354000091552734,51.900001525878906,54.099998474121094,71500.0,53.86405944824219
2018-12-27,54.220001220703125,52.55699920654297,52.90999984741211,54.220001220703125,36800.0,53.98353958129883
2018-12-28,55.13999938964844,54.16999816894531,54.83000183105469,54.2599983215332,58500.0,54.0682373046875
2018-12-31,54.93000030517578,54.310001373291016,54.849998474121094,54.93000030517578,171000.0,54.735870361328125
2019-01-02,54.96900177001953,53.91999816894531,53.91999816894531,54.72999954223633,24200.0,54.53657531738281
2019-01-03,54.34000015258789,53.459999084472656,54.25,53.459999084472656,20600.0,53.27106475830078
2019-01-04,55.428001403808594,54.314998626708984,54.314998626708984,55.40999984741211,36300.0,55.21417236328125
2019-01-07,56.11000061035156,55.41999816894531,55.41999816894531,55.77000045776367,4100.0,55.57290267944336
2019-01-08,56.459999084472656,55.79999923706055,56.459999084472656,56.400001525878906,21000.0,56.20067596435547
2019-01-09,56.75,56.29999923706055,56.50600051879883,56.54999923706055,21700.0,56.35014343261719
2019-01-10,56.779998779296875,56.11000061035156,56.33000183105469,56.779998779296875,33500.0,56.57933044433594
2019-01-11,56.79999923706055,56.507999420166016,56.63999938964844,56.775001525878906,11600.0,56.5743522644043
2019-01-14,56.66899871826172,56.4379997253418,56.47999954223633,56.59000015258789,21400.0,56.3900032043457
2019-01-15,57.13999938964844,56.4900016784668,56.68000030517578,57.11000061035156,13300.0,56.908164978027344
2019-01-16,57.47999954223633,57.130001068115234,57.130001068115234,57.2599983215332,13100.0,57.05763244628906
2019-01-17,57.75,57.25,57.25,57.70000076293945,6600.0,57.4960823059082
2019-01-18,58.93000030517578,57.970001220703125,58.93000030517578,58.308998107910156,14500.0,58.10292434692383
2019-01-22,58.22999954223633,57.349998474121094,58.22999954223633,57.5,35500.0,57.29678726196289
2019-01-23,58.082000732421875,57.27799987792969,57.79999923706055,57.79999923706055,16000.0,57.595726013183594
2019-01-24,57.90299987792969,57.59000015258789,57.66999816894531,57.81999969482422,71900.0,57.61565399169922
2019-01-25,58.41999816894531,58.209999084472656,58.22800064086914,58.279998779296875,15400.0,58.07402801513672
2019-01-28,57.93000030517578,57.52000045776367,57.93000030517578,57.900001525878906,31700.0,57.69537353515625
2019-01-29,58.029998779296875,57.650001525878906,57.93299865722656,57.7599983215332,30100.0,57.55586624145508
2019-01-30,58.84000015258789,57.970001220703125,58.2400016784668,58.70000076293945,45100.0,58.49254608154297
2019-01-31,59.25400161743164,58.52000045776367,58.52000045776367,59.22999954223633,32800.0,59.02067184448242
2019-02-01,59.4379997253418,59.060001373291016,59.41999816894531,59.20000076293945,18200.0,58.990779876708984
2019-02-04,59.599998474121094,59.185001373291016,59.369998931884766,59.50400161743164,9000.0,59.293704986572266
2019-02-05,59.93000030517578,59.650001525878906,59.650001525878906,59.92499923706055,38100.0,59.71321487426758
2019-02-06,60.0,59.709999084472656,60.0,59.900001525878906,13800.0,59.68830490112305
2019-02-07,59.619998931884766,58.95500183105469,59.619998931884766,59.31999969482422,16400.0,59.110355377197266
2019-02-08,59.27000045776367,58.95000076293945,59.20000076293945,59.25,12900.0,59.04060363769531
2019-02-11,59.66999816894531,59.327999114990234,59.66999816894531,59.5,9800.0,59.28971862792969
2019-02-12,60.27000045776367,59.91400146484375,59.939998626708984,60.189998626708984,14600.0,59.97727966308594
2019-02-13,60.55799865722656,60.33000183105469,60.42599868774414,60.47999954223633,11300.0,60.26625442504883
2019-02-14,60.46500015258789,60.04999923706055,60.29999923706055,60.40999984741211,47500.0,60.196502685546875
2019-02-15,60.84600067138672,60.63999938964844,60.70600128173828,60.814998626708984,71900.0,60.60007095336914
2019-02-19,61.16999816894531,60.82600021362305,60.84000015258789,61.060001373291016,15700.0,60.844207763671875
2019-02-20,61.279998779296875,60.97999954223633,61.029998779296875,61.119998931884766,62500.0,60.90399169921875
2019-02-21,61.11000061035156,60.750999450683594,60.9119987487793,60.82699966430664,9100.0,60.612030029296875
2019-02-22,61.349998474121094,61.119998931884766,61.279998779296875,61.29999923706055,26600.0,61.08335494995117
2019-02-25,61.81999969482422,61.43000030517578,61.81999969482422,61.43000030517578,14200.0,61.21289825439453
2019-02-26,61.494998931884766,61.16999816894531,61.16999816894531,61.459999084472656,33600.0,61.24279022216797
2019-02-27,61.439998626708984,61.125999450683594,61.29999923706055,61.439998626708984,20600.0,61.222862243652344
2019-02-28,61.36000061035156,61.125999450683594,61.25,61.2599983215332,31300.0,61.043495178222656
2019-03-01,61.68000030517578,61.3849983215332,61.599998474121094,61.599998474121094,29300.0,61.382293701171875
2019-03-04,61.85900115966797,60.97999954223633,61.85900115966797,61.26900100708008,14400.0,61.052467346191406
2019-03-05,61.540000915527344,61.18899917602539,61.52000045776367,61.349998474121094,18800.0,61.1331787109375
2019-03-06,61.40999984741211,60.79999923706055,61.40999984741211,60.91999816894531,31600.0,60.70469665527344
2019-03-07,60.90999984741211,60.178001403808594,60.90999984741211,60.25,10800.0,60.03706741333008
2019-03-08,60.23699951171875,59.8129997253418,60.0099983215332,60.23699951171875,49900.0,60.024112701416016
2019-03-11,61.16999816894531,60.59199905395508,60.599998474121094,61.16999816894531,19800.0,60.95381546020508
2019-03-12,61.529998779296875,61.310001373291016,61.369998931884766,61.349998474121094,27300.0,61.1331787109375
2019-03-13,62.04999923706055,61.62799835205078,61.75,61.84000015258789,19000.0,61.6214485168457
2019-03-14,62.060001373291016,61.7400016784668,62.02000045776367,61.808998107910156,13100.0,61.59055709838867
2019-03-15,62.2400016784668,61.94900131225586,61.94900131225586,62.11000061035156,15800.0,61.89049530029297
2019-03-18,62.369998931884766,62.15399932861328,62.34000015258789,62.36000061035156,41500.0,62.139610290527344
2019-03-19,62.77000045776367,62.20500183105469,62.72999954223633,62.25,11600.0,62.029998779296875
2019-03-20,62.349998474121094,61.77000045776367,62.040000915527344,61.974998474121094,30300.0,61.974998474121094
2019-03-21,62.72999954223633,61.86000061035156,61.86000061035156,62.689998626708984,12200.0,62.689998626708984
2019-03-22,62.09000015258789,61.470001220703125,62.09000015258789,61.470001220703125,28000.0,61.470001220703125
2019-03-25,61.551998138427734,61.099998474121094,61.5,61.38999938964844,17200.0,61.38999938964844
2019-03-26,62.0099983215332,61.58000183105469,61.93000030517578,61.849998474121094,18900.0,61.849998474121094
2019-03-27,61.970001220703125,61.27000045776367,61.970001220703125,61.52000045776367,21600.0,61.52000045776367
2019-03-28,61.849998474121094,61.540000915527344,61.77000045776367,61.72999954223633,21400.0,61.72999954223633
2019-03-29,62.20000076293945,61.970001220703125,62.029998779296875,62.13999938964844,6800.0,62.13999938964844
2019-04-01,62.90999984741211,62.540000915527344,62.540000915527344,62.887001037597656,11300.0,62.887001037597656
2019-04-02,63.029998779296875,62.790000915527344,62.90999984741211,63.029998779296875,49800.0,63.029998779296875
2019-04-03,63.36000061035156,63.0099983215332,63.249000549316406,63.0099983215332,16200.0,63.0099983215332
2019-04-04,63.2599983215332,63.029998779296875,63.2599983215332,63.150001525878906,14600.0,63.150001525878906
2019-04-05,63.529998779296875,63.380001068115234,63.380001068115234,63.459999084472656,13000.0,63.459999084472656
2019-04-08,63.650001525878906,63.34000015258789,63.34000015258789,63.650001525878906,87500.0,63.650001525878906
2019-04-09,63.43000030517578,63.16999816894531,63.33000183105469,63.16999816894531,28000.0,63.16999816894531
2019-04-10,63.529998779296875,63.29999923706055,63.323001861572266,63.47999954223633,17600.0,63.47999954223633
2019-04-11,63.599998474121094,63.39799880981445,63.560001373291016,63.529998779296875,13100.0,63.529998779296875
2019-04-12,64.04000091552734,63.810001373291016,64.04000091552734,63.95000076293945,9800.0,63.95000076293945
2019-04-15,64.13999938964844,63.724998474121094,64.13999938964844,63.91999816894531,11900.0,63.91999816894531
2019-04-16,64.12000274658203,63.85499954223633,64.12000274658203,64.01000213623047,28900.0,64.01000213623047
2019-04-17,64.12999725341797,63.71200180053711,64.12999725341797,63.75,6400.0,63.75
2019-04-18,63.97999954223633,63.650001525878906,63.66999816894531,63.902000427246094,11400.0,63.902000427246094
2019-04-22,64.0,63.72999954223633,63.93000030517578,64.0,15800.0,64.0
2019-04-23,64.59500122070312,64.12000274658203,64.19999694824219,64.5199966430664,15400.0,64.5199966430664
2019-04-24,64.63999938964844,64.42400360107422,64.52999877929688,64.51000213623047,18400.0,64.51000213623047
2019-04-25,64.58000183105469,64.22699737548828,64.55999755859375,64.44000244140625,12300.0,64.44000244140625
2019-04-26,64.5469970703125,64.19300079345703,64.36900329589844,64.54000091552734,21800.0,64.54000091552734
2019-04-29,64.8550033569336,64.63999938964844,64.80000305175781,64.7699966430664,59800.0,64.7699966430664
2019-04-30,64.8499984741211,64.31999969482422,64.7300033569336,64.8499984741211,91500.0,64.8499984741211
2019-05-01,65.08000183105469,64.30000305175781,65.08000183105469,64.30000305175781,24700.0,64.30000305175781
2019-05-02,65.41999816894531,63.79800033569336,64.36000061035156,64.05999755859375,47600.0,64.05999755859375
2019-05-03,64.81999969482422,64.47699737548828,64.62000274658203,64.76599884033203,46000.0,64.76599884033203
2019-05-06,64.56999969482422,63.81999969482422,63.81999969482422,64.52999877929688,47800.0,64.52999877929688
2019-05-07,64.06999969482422,63.137001037597656,64.05000305175781,63.45000076293945,29400.0,63.45000076293945
2019-05-08,63.7400016784668,63.220001220703125,63.220001220703125,63.61000061035156,97200.0,63.61000061035156
2019-05-09,63.22999954223633,62.47700119018555,62.95000076293945,63.189998626708984,21900.0,63.189998626708984
2019-05-10,63.16999816894531,62.29199981689453,63.060001373291016,63.130001068115234,16800.0,63.130001068115234
2019-05-13,62.28900146484375,61.67300033569336,62.28900146484375,61.81999969482422,32200.0,61.81999969482422
2019-05-14,62.77000045776367,61.9900016784668,61.9900016784668,62.40999984741211,46400.0,62.40999984741211
2019-05-15,62.90999984741211,61.96200180053711,62.0,62.777000427246094,20200.0,62.777000427246094
2019-05-16,63.63999938964844,63.310001373291016,63.34000015258789,63.310001373291016,158100.0,63.310001373291016
2019-05-17,63.512001037597656,62.939998626708984,63.0,62.979000091552734,29100.0,62.979000091552734
2019-05-20,62.72100067138672,62.36000061035156,62.474998474121094,62.540000915527344,18900.0,62.540000915527344
2019-05-21,63.099998474121094,62.91999816894531,63.02000045776367,63.04999923706055,63300.0,63.04999923706055
2019-05-22,63.04999923706055,62.827999114990234,62.887001037597656,62.9630012512207,22500.0,62.9630012512207
2019-05-23,62.4900016784668,61.7760009765625,62.4900016784668,62.097999572753906,16200.0,62.097999572753906
2019-05-24,62.459999084472656,62.15999984741211,62.433998107910156,62.15999984741211,45500.0,62.15999984741211
