Date,High,Low,Open,Close,Volume,Adj Close
2015-11-19,25.030000686645508,24.969999313354492,25.030000686645508,24.979999542236328,6600.0,24.22964096069336
2015-11-20,25.3700008392334,25.09000015258789,25.3700008392334,25.100000381469727,8400.0,24.34603500366211
2015-11-23,25.3700008392334,25.100000381469727,25.3700008392334,25.139999389648438,6800.0,24.38483238220215
2015-11-24,25.270000457763672,25.0,25.1200008392334,25.270000457763672,2700.0,24.510929107666016
2015-11-25,25.309999465942383,25.239999771118164,25.25,25.309999465942383,2700.0,24.549728393554688
2015-11-27,25.360000610351562,25.329999923706055,25.329999923706055,25.350000381469727,11800.0,24.58852767944336
2015-11-30,25.690000534057617,25.243999481201172,25.690000534057617,25.25,20900.0,24.491527557373047
2015-12-01,25.440000534057617,25.329999923706055,25.329999923706055,25.426000595092773,800.0,24.662242889404297
2015-12-02,25.520000457763672,25.25,25.520000457763672,25.25,5300.0,24.491527557373047
2015-12-03,25.420000076293945,24.81999969482422,25.420000076293945,24.829999923706055,15900.0,24.084144592285156
2015-12-04,25.219999313354492,25.05500030517578,25.05500030517578,25.219999313354492,6000.0,24.46242904663086
2015-12-07,25.209999084472656,25.010000228881836,25.209999084472656,25.010000228881836,5400.0,24.258739471435547
2015-12-08,24.950000762939453,24.950000762939453,24.950000762939453,24.950000762939453,700.0,24.20054054260254
2015-12-09,24.979999542236328,24.610000610351562,24.93000030517578,24.639999389648438,2500.0,23.899852752685547
2015-12-10,24.799999237060547,24.43000030517578,24.43000030517578,24.799999237060547,2700.0,24.05504608154297
2015-12-11,24.489999771118164,24.219999313354492,24.479999542236328,24.219999313354492,5300.0,23.49246597290039
2015-12-14,24.389999389648438,24.200000762939453,24.389999389648438,24.299999237060547,2200.0,23.570064544677734
2015-12-15,24.5,24.5,24.5,24.5,200.0,23.76405906677246
2015-12-16,24.809999465942383,24.530000686645508,24.709999084472656,24.809999465942383,3100.0,24.064743041992188
2015-12-17,24.749000549316406,24.600000381469727,24.749000549316406,24.600000381469727,2300.0,23.86105728149414
2015-12-18,24.270000457763672,24.200000762939453,24.25,24.200000762939453,3100.0,23.473073959350586
2015-12-21,24.280000686645508,24.239999771118164,24.239999771118164,24.280000686645508,700.0,23.5506649017334
2015-12-22,24.280000686645508,24.280000686645508,24.280000686645508,24.280000686645508,0.0,23.5506649017334
2015-12-23,24.81999969482422,24.530000686645508,24.530000686645508,24.81999969482422,6100.0,24.074443817138672
2015-12-24,24.860000610351562,24.84000015258789,24.850000381469727,24.850000381469727,1600.0,24.103544235229492
2015-12-28,24.90999984741211,24.790000915527344,24.90999984741211,24.790000915527344,600.0,24.04534912109375
2015-12-29,25.059999465942383,24.969999313354492,25.059999465942383,25.010000228881836,2800.0,24.258739471435547
2015-12-30,24.959999084472656,24.809999465942383,24.809999465942383,24.860000610351562,1800.0,24.113243103027344
2015-12-31,24.844999313354492,24.6200008392334,24.844999313354492,24.639999389648438,3800.0,23.899852752685547
2016-01-04,24.639999389648438,24.639999389648438,24.639999389648438,24.639999389648438,0.0,23.899852752685547
2016-01-05,24.399999618530273,24.34000015258789,24.399999618530273,24.34000015258789,500.0,23.60886573791504
2016-01-06,23.8799991607666,23.860000610351562,23.860000610351562,23.8700008392334,1100.0,23.152978897094727
2016-01-07,23.582000732421875,23.270000457763672,23.270000457763672,23.34000015258789,1700.0,22.638904571533203
2016-01-08,23.200000762939453,23.170000076293945,23.170000076293945,23.200000762939453,300.0,22.503108978271484
2016-01-11,23.15999984741211,22.790000915527344,23.15999984741211,22.950000762939453,800.0,22.260622024536133
2016-01-12,22.780000686645508,22.780000686645508,22.780000686645508,22.780000686645508,200.0,22.095726013183594
2016-01-13,23.200000762939453,22.510000228881836,23.200000762939453,22.510000228881836,500.0,21.833837509155273
2016-01-14,22.81999969482422,22.200000762939453,22.219999313354492,22.81999969482422,1800.0,22.134521484375
2016-01-15,22.700000762939453,22.600000381469727,22.700000762939453,22.600000381469727,500.0,21.92112922668457
2016-01-19,22.5,22.0,22.5,22.0,600.0,21.339155197143555
2016-01-20,22.15999984741211,21.600000381469727,21.600000381469727,22.15999984741211,1100.0,21.494346618652344
2016-01-21,22.18000030517578,22.18000030517578,22.18000030517578,22.18000030517578,200.0,21.513750076293945
2016-01-22,22.600000381469727,22.469999313354492,22.600000381469727,22.506999969482422,1900.0,21.830923080444336
2016-01-25,22.579999923706055,22.239999771118164,22.579999923706055,22.239999771118164,2500.0,21.57194709777832
2016-01-26,22.420000076293945,22.420000076293945,22.420000076293945,22.420000076293945,200.0,21.746538162231445
2016-01-27,22.600000381469727,22.25,22.520000457763672,22.25,900.0,21.58164405822754
2016-01-28,22.43000030517578,22.18000030517578,22.43000030517578,22.18000030517578,800.0,21.513750076293945
2016-01-29,22.850000381469727,22.149999618530273,22.149999618530273,22.850000381469727,3100.0,22.163618087768555
2016-02-01,23.06999969482422,23.06999969482422,23.06999969482422,23.06999969482422,100.0,22.377012252807617
2016-02-02,22.59000015258789,22.40999984741211,22.59000015258789,22.40999984741211,2900.0,21.736839294433594
2016-02-03,22.350000381469727,22.309999465942383,22.309999465942383,22.350000381469727,200.0,21.67864418029785
2016-02-04,22.6299991607666,22.6299991607666,22.6299991607666,22.6299991607666,200.0,21.950231552124023
2016-02-05,22.459999084472656,22.459999084472656,22.459999084472656,22.459999084472656,200.0,21.785335540771484
2016-02-08,21.690000534057617,21.579999923706055,21.690000534057617,21.579999923706055,1100.0,20.931772232055664
2016-02-09,21.799999237060547,21.670000076293945,21.799999237060547,21.670000076293945,200.0,21.01906394958496
2016-02-10,23.5,21.899999618530273,22.149999618530273,23.5,3500.0,22.794099807739258
2016-02-11,23.190000534057617,21.719999313354492,21.719999313354492,23.190000534057617,500.0,22.493410110473633
2016-02-12,21.8799991607666,21.8799991607666,21.8799991607666,21.8799991607666,300.0,21.222759246826172
2016-02-16,22.43000030517578,22.43000030517578,22.43000030517578,22.43000030517578,200.0,21.75623893737793
2016-02-17,22.889999389648438,22.790000915527344,22.790000915527344,22.860000610351562,500.0,22.173322677612305
2016-02-18,22.780000686645508,22.780000686645508,22.780000686645508,22.780000686645508,200.0,22.095726013183594
2016-02-19,22.889999389648438,22.639999389648438,22.889999389648438,22.809999465942383,500.0,22.12482261657715
2016-02-22,23.174999237060547,23.174999237060547,23.174999237060547,23.174999237060547,400.0,22.478857040405273
2016-02-23,23.020000457763672,23.020000457763672,23.020000457763672,23.020000457763672,200.0,22.328514099121094
2016-02-24,23.110000610351562,23.09000015258789,23.09000015258789,23.110000610351562,200.0,22.415815353393555
2016-02-25,24.0,23.149999618530273,23.360000610351562,23.989999771118164,1300.0,23.269380569458008
2016-02-26,23.520000457763672,23.43000030517578,23.43000030517578,23.510000228881836,600.0,22.803796768188477
2016-02-29,24.06999969482422,23.700000762939453,23.700000762939453,23.84000015258789,1200.0,23.123886108398438
2016-03-01,23.826000213623047,23.479999542236328,23.81999969482422,23.826000213623047,2000.0,23.11030387878418
2016-03-02,23.959999084472656,23.889999389648438,23.889999389648438,23.959999084472656,300.0,23.240278244018555
2016-03-03,25.56999969482422,23.937000274658203,24.25,24.690000534057617,2200.0,23.948347091674805
2016-03-04,24.43000030517578,24.059999465942383,24.43000030517578,24.200000762939453,9200.0,23.473073959350586
2016-03-07,24.31100082397461,24.16699981689453,24.280000686645508,24.31100082397461,1300.0,23.580732345581055
2016-03-08,24.114999771118164,24.059999465942383,24.059999465942383,24.114999771118164,1000.0,23.390623092651367
2016-03-09,24.100000381469727,24.00200080871582,24.00200080871582,24.100000381469727,800.0,23.376075744628906
2016-03-10,24.100000381469727,24.100000381469727,24.100000381469727,24.100000381469727,0.0,23.376075744628906
2016-03-11,24.479999542236328,24.290000915527344,24.290000915527344,24.479999542236328,500.0,23.74465560913086
2016-03-14,24.479999542236328,24.479999542236328,24.479999542236328,24.479999542236328,0.0,23.74465560913086
2016-03-15,24.329999923706055,24.299999237060547,24.299999237060547,24.329999923706055,400.0,23.59916114807129
2016-03-16,24.329999923706055,24.329999923706055,24.329999923706055,24.329999923706055,0.0,23.59916114807129
2016-03-17,24.700000762939453,24.549999237060547,24.549999237060547,24.700000762939453,5900.0,23.95804786682129
2016-03-18,24.700000762939453,24.700000762939453,24.700000762939453,24.700000762939453,0.0,23.95804786682129
2016-03-21,24.889999389648438,24.889999389648438,24.889999389648438,24.889999389648438,2900.0,24.14234161376953
2016-03-22,25.1200008392334,25.1200008392334,25.1200008392334,25.1200008392334,100.0,24.36543846130371
2016-03-23,24.75,24.75,24.75,24.75,100.0,24.006547927856445
2016-03-24,24.5049991607666,24.489999771118164,24.489999771118164,24.5049991607666,400.0,23.768903732299805
2016-03-28,24.5049991607666,24.5049991607666,24.5049991607666,24.5049991607666,0.0,23.768903732299805
2016-03-29,24.993000030517578,24.649999618530273,24.649999618530273,24.993000030517578,600.0,24.24225425720215
2016-03-30,25.13599967956543,25.13599967956543,25.13599967956543,25.13599967956543,200.0,24.38095474243164
2016-03-31,25.170000076293945,25.170000076293945,25.170000076293945,25.170000076293945,100.0,24.413930892944336
2016-04-01,25.229999542236328,25.229999542236328,25.229999542236328,25.229999542236328,100.0,24.472126007080078
2016-04-04,25.139999389648438,25.1299991607666,25.1299991607666,25.139999389648438,1500.0,24.38483238220215
2016-04-05,25.0,24.899999618530273,25.0,24.899999618530273,1300.0,24.152042388916016
2016-04-06,25.020000457763672,25.020000457763672,25.020000457763672,25.020000457763672,600.0,24.268434524536133
2016-04-07,24.709999084472656,24.709999084472656,24.709999084472656,24.709999084472656,100.0,23.967750549316406
2016-04-08,24.8799991607666,24.8799991607666,24.8799991607666,24.8799991607666,100.0,24.132644653320312
2016-04-11,24.899999618530273,24.899999618530273,24.899999618530273,24.899999618530273,800.0,24.152042388916016
2016-04-12,25.059999465942383,24.739999771118164,25.059999465942383,24.8799991607666,500.0,24.132644653320312
2016-04-13,25.309999465942383,25.190000534057617,25.190000534057617,25.309999465942383,800.0,24.549728393554688
2016-04-14,25.308000564575195,25.308000564575195,25.308000564575195,25.308000564575195,300.0,24.54779052734375
2016-04-15,25.267000198364258,25.267000198364258,25.267000198364258,25.267000198364258,600.0,24.50801658630371
2016-04-18,25.645000457763672,25.645000457763672,25.645000457763672,25.645000457763672,100.0,24.874664306640625
2016-04-19,25.860000610351562,25.860000610351562,25.860000610351562,25.860000610351562,200.0,25.083206176757812
2016-04-20,26.020000457763672,25.670000076293945,25.979999542236328,25.69499969482422,1900.0,24.923160552978516
2016-04-21,25.64900016784668,25.34000015258789,25.34000015258789,25.549999237060547,4600.0,24.782520294189453
2016-04-22,25.600000381469727,25.600000381469727,25.600000381469727,25.600000381469727,300.0,24.831018447875977
2016-04-25,25.81999969482422,25.540000915527344,25.81999969482422,25.540000915527344,1500.0,24.77281951904297
2016-04-26,25.709999084472656,25.641000747680664,25.709999084472656,25.641000747680664,800.0,24.870786666870117
2016-04-27,25.75,25.628999710083008,25.628999710083008,25.75,300.0,24.976511001586914
2016-04-28,25.639999389648438,25.378999710083008,25.639999389648438,25.378999710083008,400.0,24.616653442382812
2016-04-29,25.378999710083008,25.378999710083008,25.378999710083008,25.378999710083008,0.0,24.616653442382812
2016-05-02,25.461999893188477,25.329999923706055,25.329999923706055,25.461999893188477,200.0,24.697162628173828
2016-05-03,25.139999389648438,25.010000228881836,25.010000228881836,25.139999389648438,200.0,24.38483238220215
2016-05-04,25.030000686645508,24.95199966430664,25.030000686645508,24.95199966430664,600.0,24.20248031616211
2016-05-05,25.239999771118164,24.940000534057617,25.010000228881836,25.239999771118164,1100.0,24.481826782226562
2016-05-06,25.280000686645508,24.81999969482422,24.851999282836914,25.280000686645508,900.0,24.520631790161133
2016-05-09,25.280000686645508,25.280000686645508,25.280000686645508,25.280000686645508,0.0,24.520631790161133
2016-05-10,25.489999771118164,25.320999145507812,25.489999771118164,25.320999145507812,300.0,24.560394287109375
2016-05-11,25.079999923706055,25.079999923706055,25.079999923706055,25.079999923706055,100.0,24.326635360717773
2016-05-12,25.389999389648438,24.895000457763672,25.389999389648438,25.009000778198242,2300.0,24.257768630981445
2016-05-13,24.81999969482422,24.81999969482422,24.81999969482422,24.81999969482422,200.0,24.074443817138672
2016-05-16,25.139999389648438,25.040000915527344,25.040000915527344,25.100000381469727,400.0,24.34603500366211
2016-05-17,25.020000457763672,25.020000457763672,25.020000457763672,25.020000457763672,500.0,24.268434524536133
2016-05-18,24.989999771118164,24.81800079345703,24.989999771118164,24.81800079345703,1600.0,24.072509765625
2016-05-19,24.790000915527344,24.790000915527344,24.790000915527344,24.790000915527344,1400.0,24.04534912109375
2016-05-20,25.229999542236328,25.030000686645508,25.059999465942383,25.079999923706055,3300.0,24.326635360717773
2016-05-23,26.18400001525879,25.18000030517578,25.450000762939453,25.924999237060547,3700.0,25.14625358581543
2016-05-24,25.5,25.3799991607666,25.5,25.447999954223633,500.0,24.683578491210938
2016-05-25,25.66200065612793,25.66200065612793,25.66200065612793,25.66200065612793,200.0,24.891157150268555
2016-05-26,25.68000030517578,25.670000076293945,25.670000076293945,25.68000030517578,200.0,24.908611297607422
2016-05-27,25.799999237060547,25.770000457763672,25.780000686645508,25.799999237060547,2900.0,25.025009155273438
2016-05-31,26.110000610351562,25.8799991607666,26.110000610351562,25.8799991607666,600.0,25.102602005004883
2016-06-01,26.079999923706055,25.899999618530273,26.079999923706055,26.010000228881836,2800.0,25.228702545166016
2016-06-02,26.048999786376953,26.0,26.0,26.048999786376953,500.0,25.266525268554688
2016-06-03,25.959999084472656,25.8700008392334,25.959999084472656,25.899999618530273,1000.0,25.12200355529785
2016-06-06,27.290000915527344,26.049999237060547,26.06999969482422,26.5,2800.0,25.703981399536133
2016-06-07,26.34000015258789,26.177000045776367,26.177000045776367,26.280000686645508,1500.0,25.490589141845703
2016-06-08,26.59000015258789,26.215999603271484,26.59000015258789,26.34000015258789,5000.0,25.548784255981445
2016-06-09,26.200000762939453,26.197999954223633,26.200000762939453,26.197999954223633,500.0,25.41105079650879
2016-06-10,25.753000259399414,25.753000259399414,25.753000259399414,25.753000259399414,800.0,24.979419708251953
2016-06-13,25.753000259399414,25.753000259399414,25.753000259399414,25.753000259399414,0.0,24.979419708251953
2016-06-14,25.510000228881836,25.440000534057617,25.440000534057617,25.469999313354492,19800.0,24.704919815063477
2016-06-15,25.649999618530273,25.649999618530273,25.649999618530273,25.649999618530273,400.0,24.879514694213867
2016-06-16,26.020000457763672,25.309999465942383,26.020000457763672,25.59000015258789,1300.0,24.821311950683594
2016-06-17,25.5,25.5,25.5,25.5,200.0,24.73401641845703
2016-06-20,25.920000076293945,25.920000076293945,25.920000076293945,25.920000076293945,200.0,25.171016693115234
2016-06-21,25.780000686645508,25.68000030517578,25.739999771118164,25.760000228881836,5700.0,25.015642166137695
2016-06-22,25.8700008392334,25.690000534057617,25.8700008392334,25.690000534057617,4000.0,24.94766616821289
2016-06-23,25.961999893188477,25.961999893188477,25.961999893188477,25.961999893188477,300.0,25.211801528930664
2016-06-24,25.329999923706055,25.0,25.329999923706055,25.0,3400.0,24.277599334716797
2016-06-27,25.239999771118164,25.100000381469727,25.100000381469727,25.239999771118164,1400.0,24.51066780090332
2016-06-28,25.0,24.649999618530273,24.8700008392334,24.799999237060547,6000.0,24.08338165283203
2016-06-29,25.299999237060547,25.12700080871582,25.139999389648438,25.299999237060547,1500.0,24.56892967224121
2016-06-30,25.600000381469727,25.600000381469727,25.600000381469727,25.600000381469727,100.0,24.860261917114258
2016-07-01,25.989999771118164,25.6200008392334,25.989999771118164,25.65999984741211,3400.0,24.918529510498047
2016-07-05,25.790000915527344,25.469999313354492,25.790000915527344,25.469999313354492,23300.0,24.73401641845703
2016-07-06,25.579999923706055,25.399999618530273,25.399999618530273,25.579999923706055,2000.0,24.84084129333496
2016-07-07,25.709999084472656,25.459999084472656,25.459999084472656,25.709999084472656,1200.0,24.967082977294922
2016-07-08,26.190000534057617,26.059999465942383,26.059999465942383,26.190000534057617,1300.0,25.43321418762207
2016-07-11,26.889999389648438,26.260000228881836,26.889999389648438,26.260000228881836,200.0,25.501192092895508
2016-07-12,26.84000015258789,26.549999237060547,26.84000015258789,26.549999237060547,3300.0,25.78281021118164
2016-07-13,26.450000762939453,26.450000762939453,26.450000762939453,26.450000762939453,300.0,25.685705184936523
2016-07-14,26.649999618530273,26.610000610351562,26.649999618530273,26.610000610351562,18900.0,25.84107780456543
2016-07-15,26.610000610351562,26.5,26.530000686645508,26.610000610351562,3200.0,25.84107780456543
2016-07-18,26.6200008392334,26.6200008392334,26.6200008392334,26.6200008392334,100.0,25.850791931152344
2016-07-19,26.610000610351562,26.520000457763672,26.59000015258789,26.520000457763672,17600.0,25.753677368164062
2016-07-20,26.739999771118164,26.739999771118164,26.739999771118164,26.739999771118164,200.0,25.967323303222656
2016-07-21,26.760000228881836,26.59000015258789,26.746999740600586,26.59000015258789,700.0,25.821657180786133
2016-07-22,26.809999465942383,26.610000610351562,26.770000457763672,26.809999465942383,1400.0,26.03529930114746
2016-07-25,26.809999465942383,26.739999771118164,26.809999465942383,26.739999771118164,300.0,25.967323303222656
2016-07-26,27.0,26.829999923706055,26.899999618530273,26.829999923706055,15300.0,26.054719924926758
2016-07-27,26.889999389648438,26.889999389648438,26.889999389648438,26.889999389648438,200.0,26.11298370361328
2016-07-28,27.0,26.959999084472656,26.959999084472656,27.0,600.0,26.21980857849121
2016-07-29,28.34000015258789,26.899999618530273,28.34000015258789,26.989999771118164,5000.0,26.210094451904297
2016-08-01,27.0,26.889999389648438,26.889999389648438,26.899999618530273,1600.0,26.122699737548828
2016-08-02,26.639999389648438,26.639999389648438,26.639999389648438,26.639999389648438,400.0,25.870210647583008
2016-08-03,26.770000457763672,26.65999984741211,26.65999984741211,26.770000457763672,500.0,25.9964542388916
2016-08-04,26.950000762939453,26.81999969482422,26.950000762939453,26.81999969482422,1000.0,26.045007705688477
2016-08-05,27.010000228881836,26.97800064086914,26.989999771118164,27.010000228881836,2700.0,26.229520797729492
2016-08-08,27.010000228881836,27.010000228881836,27.010000228881836,27.010000228881836,0.0,26.229520797729492
2016-08-09,26.989999771118164,26.94499969482422,26.969999313354492,26.94499969482422,1300.0,26.166397094726562
2016-08-10,26.8799991607666,26.8799991607666,26.8799991607666,26.8799991607666,500.0,26.1032772064209
2016-08-11,26.989999771118164,26.989999771118164,26.989999771118164,26.989999771118164,200.0,26.210094451904297
2016-08-12,27.0,27.0,27.0,27.0,200.0,26.21980857849121
2016-08-15,27.1200008392334,27.1200008392334,27.1200008392334,27.1200008392334,300.0,26.336341857910156
2016-08-16,27.1299991607666,26.992000579833984,27.1299991607666,26.992000579833984,1100.0,26.2120418548584
2016-08-17,26.940000534057617,26.799999237060547,26.940000534057617,26.809999465942383,700.0,26.03529930114746
2016-08-18,27.0,27.0,27.0,27.0,200.0,26.21980857849121
2016-08-19,26.988000869750977,26.988000869750977,26.988000869750977,26.988000869750977,400.0,26.208154678344727
2016-08-22,27.079999923706055,27.079999923706055,27.079999923706055,27.079999923706055,200.0,26.297494888305664
2016-08-23,27.216999053955078,27.216999053955078,27.216999053955078,27.216999053955078,300.0,26.430538177490234
2016-08-24,27.350000381469727,27.170000076293945,27.350000381469727,27.170000076293945,1100.0,26.38489532470703
2016-08-25,27.049999237060547,27.0,27.049999237060547,27.0,800.0,26.21980857849121
2016-08-26,27.09000015258789,27.09000015258789,27.09000015258789,27.09000015258789,200.0,26.307209014892578
2016-08-29,27.110000610351562,27.09000015258789,27.100000381469727,27.110000610351562,800.0,26.32663345336914
2016-08-30,27.0,27.0,27.0,27.0,200.0,26.21980857849121
2016-08-31,26.979999542236328,26.979999542236328,26.979999542236328,26.979999542236328,200.0,26.20038414001465
2016-09-01,27.059999465942383,26.850000381469727,27.059999465942383,26.979999542236328,11700.0,26.20038414001465
2016-09-02,27.13599967956543,27.13599967956543,27.13599967956543,27.13599967956543,700.0,26.351879119873047
2016-09-06,27.190000534057617,27.1200008392334,27.190000534057617,27.1200008392334,800.0,26.336341857910156
2016-09-07,27.239999771118164,27.15999984741211,27.170000076293945,27.239999771118164,2800.0,26.452871322631836
2016-09-08,27.1200008392334,27.1200008392334,27.1200008392334,27.1200008392334,600.0,26.336341857910156
2016-09-09,26.59000015258789,26.5,26.59000015258789,26.5,300.0,25.734256744384766
2016-09-12,26.729999542236328,26.3700008392334,26.5,26.729999542236328,2700.0,25.957609176635742
2016-09-13,26.850000381469727,26.299999237060547,26.850000381469727,26.299999237060547,700.0,25.607093811035156
2016-09-14,26.280000686645508,26.229999542236328,26.229999542236328,26.239999771118164,600.0,25.548675537109375
2016-09-15,26.5,26.229999542236328,26.229999542236328,26.5,300.0,25.801822662353516
2016-09-16,26.41200065612793,26.399999618530273,26.399999618530273,26.41200065612793,500.0,25.716144561767578
2016-09-19,26.575000762939453,26.559999465942383,26.559999465942383,26.575000762939453,300.0,25.87485122680664
2016-09-20,26.670000076293945,26.600000381469727,26.670000076293945,26.600000381469727,300.0,25.899192810058594
2016-09-21,26.889999389648438,26.700000762939453,26.700000762939453,26.889999389648438,400.0,26.181550979614258
2016-09-22,27.139999389648438,27.125,27.125,27.139999389648438,300.0,26.424964904785156
2016-09-23,27.049999237060547,27.049999237060547,27.049999237060547,27.049999237060547,300.0,26.33733558654785
2016-09-26,26.979999542236328,26.774999618530273,26.979999542236328,26.774999618530273,1100.0,26.069580078125
2016-09-27,26.968000411987305,26.843000411987305,26.843000411987305,26.968000411987305,1200.0,26.257495880126953
2016-09-28,27.040000915527344,26.920000076293945,27.040000915527344,27.040000915527344,700.0,26.32760238647461
2016-09-29,27.100000381469727,26.82900047302246,27.100000381469727,26.82900047302246,3800.0,26.12215805053711
2016-09-30,26.964000701904297,26.8700008392334,26.8700008392334,26.964000701904297,800.0,26.25360107421875
2016-10-03,26.93000030517578,26.850000381469727,26.93000030517578,26.850000381469727,400.0,26.142602920532227
2016-10-04,26.920000076293945,26.7189998626709,26.799999237060547,26.7189998626709,800.0,26.01505470275879
2016-10-05,27.010000228881836,26.75,26.790000915527344,26.93000030517578,6000.0,26.220497131347656
2016-10-06,26.8700008392334,26.8700008392334,26.8700008392334,26.8700008392334,200.0,26.162078857421875
2016-10-07,26.809999465942383,26.68000030517578,26.809999465942383,26.729999542236328,1000.0,26.025766372680664
2016-10-10,26.829999923706055,26.780000686645508,26.780000686645508,26.829999923706055,1700.0,26.123130798339844
2016-10-11,26.700000762939453,26.316999435424805,26.700000762939453,26.350000381469727,900.0,25.655776977539062
2016-10-12,26.65999984741211,26.329999923706055,26.329999923706055,26.440000534057617,3900.0,25.743406295776367
2016-10-13,26.530000686645508,26.049999237060547,26.530000686645508,26.270000457763672,2700.0,25.57788848876953
2016-10-14,26.222000122070312,26.209999084472656,26.209999084472656,26.222000122070312,1400.0,25.531150817871094
2016-10-17,26.260000228881836,26.18000030517578,26.200000762939453,26.18000030517578,2700.0,25.490259170532227
2016-10-18,26.37700080871582,26.37700080871582,26.37700080871582,26.37700080871582,100.0,25.682064056396484
2016-10-19,26.459999084472656,26.290000915527344,26.309999465942383,26.450000762939453,2500.0,25.753145217895508
2016-10-20,26.381999969482422,26.381999969482422,26.381999969482422,26.381999969482422,300.0,25.686933517456055
2016-10-21,26.59000015258789,26.350000381469727,26.59000015258789,26.399999618530273,4400.0,25.70446014404297
2016-10-24,26.579999923706055,26.459999084472656,26.459999084472656,26.503000259399414,4600.0,25.804746627807617
2016-10-25,26.3700008392334,26.2549991607666,26.3700008392334,26.31999969482422,1600.0,25.626567840576172
2016-10-26,26.29199981689453,26.18000030517578,26.29199981689453,26.219999313354492,1400.0,25.529203414916992
2016-10-27,26.3799991607666,26.018999099731445,26.3799991607666,26.018999099731445,2900.0,25.333498001098633
2016-10-28,26.09000015258789,26.09000015258789,26.09000015258789,26.09000015258789,300.0,25.40262794494629
2016-10-31,26.450000762939453,26.09000015258789,26.450000762939453,26.170000076293945,3800.0,25.480520248413086
2016-11-01,26.040000915527344,25.829999923706055,26.040000915527344,25.920000076293945,1900.0,25.237106323242188
2016-11-02,25.829999923706055,25.760000228881836,25.829999923706055,25.760000228881836,1700.0,25.08132553100586
2016-11-03,25.625,25.625,25.625,25.625,200.0,24.949880599975586
2016-11-04,25.86199951171875,25.677000045776367,25.86199951171875,25.677000045776367,200.0,25.000511169433594
2016-11-07,26.299999237060547,26.128999710083008,26.299999237060547,26.200000762939453,4000.0,25.50973129272461
2016-11-08,26.429000854492188,26.160999298095703,26.25,26.290000915527344,3400.0,25.597362518310547
2016-11-09,26.709999084472656,26.290000915527344,26.299999237060547,26.70800018310547,1300.0,26.00434684753418
2016-11-10,26.944000244140625,26.840999603271484,26.850000381469727,26.889999389648438,1500.0,26.181550979614258
2016-11-11,27.025999069213867,26.85099983215332,26.989999771118164,27.025999069213867,1500.0,26.313966751098633
2016-11-14,27.360000610351562,27.15999984741211,27.15999984741211,27.25,2100.0,26.53206443786621
2016-11-15,27.5,27.29599952697754,27.5,27.371999740600586,700.0,26.650854110717773
2016-11-16,27.389999389648438,27.31999969482422,27.389999389648438,27.31999969482422,800.0,26.600221633911133
2016-11-17,27.559999465942383,27.499000549316406,27.53700065612793,27.559999465942383,700.0,26.833900451660156
2016-11-18,27.540000915527344,27.482999801635742,27.509000778198242,27.482999801635742,4400.0,26.758930206298828
2016-11-21,27.639999389648438,27.639999389648438,27.639999389648438,27.639999389648438,200.0,26.911792755126953
2016-11-22,27.780000686645508,27.690000534057617,27.760000228881836,27.780000686645508,900.0,27.04810333251953
2016-11-23,27.860000610351562,27.579999923706055,27.579999923706055,27.860000610351562,1100.0,27.12599754333496
2016-11-25,27.979999542236328,27.979999542236328,27.979999542236328,27.979999542236328,1000.0,27.242834091186523
2016-11-28,27.8799991607666,27.74799919128418,27.8799991607666,27.759000778198242,2700.0,27.027658462524414
2016-11-29,28.100000381469727,27.766000747680664,28.100000381469727,27.766000747680664,700.0,27.034473419189453
2016-11-30,27.739999771118164,27.65999984741211,27.739999771118164,27.670000076293945,1000.0,26.941003799438477
2016-12-01,27.579999923706055,27.3799991607666,27.579999923706055,27.3799991607666,700.0,26.658639907836914
2016-12-02,27.3799991607666,27.3799991607666,27.3799991607666,27.3799991607666,200.0,26.658639907836914
2016-12-05,27.700000762939453,27.549999237060547,27.549999237060547,27.68899917602539,1000.0,26.959497451782227
2016-12-06,27.860000610351562,27.860000610351562,27.860000610351562,27.860000610351562,200.0,27.12599754333496
2016-12-07,28.209999084472656,27.858999252319336,27.969999313354492,28.190000534057617,4800.0,27.447301864624023
2016-12-08,28.440000534057617,28.219999313354492,28.219999313354492,28.371000289916992,500.0,27.623533248901367
2016-12-09,28.5,28.360000610351562,28.5,28.389999389648438,5300.0,27.642032623291016
2016-12-12,28.5,28.191999435424805,28.5,28.229999542236328,2400.0,27.48624610900879
2016-12-13,28.405000686645508,28.31399917602539,28.405000686645508,28.360000610351562,8700.0,27.612821578979492
2016-12-14,28.31999969482422,28.125,28.301000595092773,28.1299991607666,4400.0,27.388879776000977
2016-12-15,28.31999969482422,28.200000762939453,28.200000762939453,28.229999542236328,5900.0,27.48624610900879
2016-12-16,28.360000610351562,28.1200008392334,28.360000610351562,28.1200008392334,2300.0,27.379148483276367
2016-12-19,29.329999923706055,28.16900062561035,28.31999969482422,28.187000274658203,12100.0,27.444377899169922
2016-12-20,29.0,28.280000686645508,28.459999084472656,28.32900047302246,14900.0,27.582639694213867
2016-12-21,28.309999465942383,28.299999237060547,28.309999465942383,28.299999237060547,2200.0,27.554397583007812
2016-12-22,28.510000228881836,28.100000381469727,28.510000228881836,28.110000610351562,1800.0,27.36941146850586
2016-12-23,28.20199966430664,28.131000518798828,28.139999389648438,28.20199966430664,2400.0,27.458982467651367
2016-12-27,28.459999084472656,28.31800079345703,28.459999084472656,28.329999923706055,4100.0,27.583616256713867
2016-12-28,28.0,27.799999237060547,28.0,27.799999237060547,3000.0,27.283300399780273
2016-12-29,27.799999237060547,27.73699951171875,27.79199981689453,27.73699951171875,900.0,27.22146987915039
2016-12-30,27.889999389648438,27.6299991607666,27.889999389648438,27.6299991607666,2500.0,27.116456985473633
2017-01-03,27.90999984741211,27.724000930786133,27.899999618530273,27.850000381469727,2900.0,27.332368850708008
2017-01-04,28.239999771118164,28.04199981689453,28.04199981689453,28.239999771118164,2600.0,27.715120315551758
2017-01-05,28.260000228881836,27.993999481201172,28.260000228881836,28.1200008392334,18100.0,27.597354888916016
2017-01-06,28.191999435424805,28.170000076293945,28.191999435424805,28.170000076293945,600.0,27.64642333984375
2017-01-09,28.219999313354492,28.1299991607666,28.219999313354492,28.1299991607666,600.0,27.607166290283203
2017-01-10,28.25,28.19099998474121,28.200000762939453,28.219999313354492,3900.0,27.695493698120117
2017-01-11,28.42799949645996,28.200000762939453,28.219999313354492,28.25,3200.0,27.72493553161621
2017-01-12,28.170000076293945,28.010000228881836,28.020000457763672,28.15999984741211,16700.0,27.636608123779297
2017-01-13,28.309999465942383,28.290000915527344,28.290000915527344,28.301000595092773,600.0,27.774988174438477
2017-01-17,28.26799964904785,28.20800018310547,28.26799964904785,28.229000091552734,1200.0,27.704328536987305
2017-01-18,28.260000228881836,28.200000762939453,28.209999084472656,28.200000762939453,1800.0,27.67586326599121
2017-01-19,28.209999084472656,28.06100082397461,28.209999084472656,28.100000381469727,3900.0,27.577726364135742
2017-01-20,28.420000076293945,28.18000030517578,28.420000076293945,28.225000381469727,2100.0,27.700401306152344
2017-01-23,28.309999465942383,28.14699935913086,28.309999465942383,28.14699935913086,5600.0,27.62384796142578
2017-01-24,28.530000686645508,28.530000686645508,28.530000686645508,28.530000686645508,1700.0,27.999731063842773
2017-01-25,28.75,28.75,28.75,28.75,800.0,28.21564483642578
2017-01-26,28.792999267578125,28.68000030517578,28.792999267578125,28.68000030517578,1300.0,28.146942138671875
2017-01-27,28.649999618530273,28.597000122070312,28.600000381469727,28.649999618530273,3400.0,28.11750030517578
2017-01-30,28.6200008392334,28.332000732421875,28.6200008392334,28.440000534057617,9000.0,27.911405563354492
2017-01-31,28.469999313354492,28.281999588012695,28.469999313354492,28.469999313354492,4200.0,27.940847396850586
2017-02-01,28.65999984741211,28.440000534057617,28.65999984741211,28.440000534057617,900.0,27.911405563354492
2017-02-02,28.5,28.3700008392334,28.5,28.450000762939453,8400.0,27.921218872070312
2017-02-03,28.670000076293945,28.559999465942383,28.559999465942383,28.639999389648438,3000.0,28.10768699645996
2017-02-06,28.6200008392334,28.549999237060547,28.6200008392334,28.579999923706055,1600.0,28.04880142211914
2017-02-07,28.541000366210938,28.540000915527344,28.540000915527344,28.541000366210938,300.0,28.010530471801758
2017-02-08,28.579999923706055,28.5,28.540000915527344,28.56999969482422,2000.0,28.03898811340332
2017-02-09,28.84000015258789,28.636999130249023,28.81999969482422,28.829999923706055,13400.0,28.29415512084961
2017-02-10,28.950000762939453,28.875,28.889999389648438,28.950000762939453,1100.0,28.41192626953125
2017-02-13,29.239999771118164,29.049999237060547,29.239999771118164,29.049999237060547,3300.0,28.510068893432617
2017-02-14,29.198999404907227,29.049999237060547,29.190000534057617,29.100000381469727,4000.0,28.55913734436035
2017-02-15,29.299999237060547,29.128999710083008,29.1299991607666,29.260000228881836,5300.0,28.716161727905273
2017-02-16,29.229999542236328,29.190000534057617,29.229999542236328,29.190000534057617,1000.0,28.6474666595459
2017-02-17,29.25,29.100000381469727,29.25,29.229999542236328,2900.0,28.68671989440918
2017-02-21,29.440000534057617,29.3700008392334,29.3799991607666,29.43000030517578,4800.0,28.88300132751465
2017-02-22,29.371999740600586,29.371999740600586,29.371999740600586,29.371999740600586,1200.0,28.826080322265625
2017-02-23,29.309999465942383,29.195999145507812,29.195999145507812,29.309999465942383,1500.0,28.765233993530273
2017-02-24,29.360000610351562,29.163999557495117,29.360000610351562,29.360000610351562,5400.0,28.814308166503906
2017-02-27,29.549999237060547,29.40999984741211,29.420000076293945,29.540000915527344,5400.0,28.99095916748047
2017-02-28,29.670000076293945,29.326000213623047,29.670000076293945,29.326000213623047,1800.0,28.78093719482422
2017-03-01,29.799999237060547,29.625,29.649999618530273,29.799999237060547,2300.0,29.246129989624023
2017-03-02,29.780000686645508,29.50200080871582,29.780000686645508,29.540000915527344,4900.0,28.99095916748047
2017-03-03,29.5,29.5,29.5,29.5,700.0,28.951702117919922
2017-03-06,29.530000686645508,29.299999237060547,29.530000686645508,29.350000381469727,5700.0,28.80449104309082
2017-03-07,29.350000381469727,29.260000228881836,29.31999969482422,29.260000228881836,2100.0,28.716161727905273
2017-03-08,29.256000518798828,29.21500015258789,29.256000518798828,29.21500015258789,1800.0,28.672000885009766
2017-03-09,29.200000762939453,29.106000900268555,29.200000762939453,29.121000289916992,2400.0,28.579748153686523
2017-03-10,29.270000457763672,29.15999984741211,29.270000457763672,29.190000534057617,2300.0,28.6474666595459
2017-03-13,29.389999389648438,29.290000915527344,29.299999237060547,29.361000061035156,20100.0,28.81528663635254
2017-03-14,29.420000076293945,29.1299991607666,29.420000076293945,29.246000289916992,3300.0,28.70242691040039
2017-03-15,29.600000381469727,29.530000686645508,29.530000686645508,29.600000381469727,1600.0,29.04984474182129
2017-03-16,29.729999542236328,29.551000595092773,29.729999542236328,29.65999984741211,2800.0,29.108728408813477
2017-03-17,29.65999984741211,29.65999984741211,29.65999984741211,29.65999984741211,0.0,29.108728408813477
2017-03-20,29.709999084472656,29.600000381469727,29.709999084472656,29.600000381469727,1300.0,29.04984474182129
2017-03-21,29.709999084472656,29.0,29.709999084472656,29.0,6100.0,28.509151458740234
2017-03-22,29.049999237060547,28.930999755859375,29.0,29.040000915527344,1800.0,28.548477172851562
2017-03-23,29.229999542236328,28.950000762939453,28.950000762939453,29.06999969482422,6700.0,28.57796859741211
2017-03-24,29.15999984741211,29.06599998474121,29.09000015258789,29.06599998474121,5000.0,28.574037551879883
2017-03-27,29.059999465942383,28.899999618530273,29.0,29.059999465942383,500.0,28.568140029907227
2017-03-28,29.280000686645508,29.059999465942383,29.059999465942383,29.2549991607666,500.0,28.759838104248047
2017-03-29,29.309999465942383,29.2450008392334,29.299999237060547,29.2450008392334,1800.0,28.750009536743164
2017-03-30,29.440000534057617,29.332000732421875,29.43000030517578,29.354999542236328,2100.0,28.858144760131836
2017-03-31,29.540000915527344,29.360000610351562,29.540000915527344,29.469999313354492,10700.0,28.97119903564453
2017-04-03,29.450000762939453,29.238000869750977,29.450000762939453,29.238000869750977,9500.0,28.743125915527344
2017-04-04,29.3799991607666,29.104999542236328,29.3799991607666,29.149999618530273,8300.0,28.6566162109375
2017-04-05,29.375,29.049999237060547,29.3700008392334,29.049999237060547,4900.0,28.55830955505371
2017-04-06,29.170000076293945,29.0,29.15999984741211,29.09000015258789,13300.0,28.597631454467773
2017-04-07,29.09600067138672,29.06999969482422,29.09600067138672,29.06999969482422,900.0,28.57796859741211
2017-04-10,29.450000762939453,29.190000534057617,29.450000762939453,29.209999084472656,1300.0,28.715599060058594
2017-04-11,29.31999969482422,29.17099952697754,29.31999969482422,29.17099952697754,2600.0,28.677257537841797
2017-04-12,29.190000534057617,29.024999618530273,29.190000534057617,29.027999877929688,5600.0,28.536678314208984
2017-04-13,29.020000457763672,28.829999923706055,28.940000534057617,28.829999923706055,3000.0,28.342029571533203
2017-04-17,29.100000381469727,28.899999618530273,28.899999618530273,29.100000381469727,1300.0,28.60746192932129
2017-04-18,29.040000915527344,28.983999252319336,29.040000915527344,29.03499984741211,1700.0,28.543560028076172
2017-04-19,29.280000686645508,29.090999603271484,29.270000457763672,29.090999603271484,1700.0,28.59861183166504
2017-04-20,29.889999389648438,29.280000686645508,29.889999389648438,29.450000762939453,12400.0,28.9515380859375
2017-04-21,29.489999771118164,29.25,29.489999771118164,29.356000900268555,5700.0,28.859128952026367
2017-04-24,29.809999465942383,29.652999877929688,29.809999465942383,29.72599983215332,3700.0,29.22286605834961
2017-04-25,29.915000915527344,29.86400032043457,29.889999389648438,29.915000915527344,1200.0,29.408666610717773
2017-04-26,30.059999465942383,29.950000762939453,29.950000762939453,29.95400047302246,3200.0,29.447006225585938
2017-04-27,30.075000762939453,30.013999938964844,30.049999237060547,30.075000762939453,2100.0,29.565959930419922
2017-04-28,29.93000030517578,29.770000457763672,29.93000030517578,29.867000579833984,2300.0,29.361478805541992
2017-05-01,29.959999084472656,29.81599998474121,29.959999084472656,29.885000228881836,1500.0,29.379173278808594
2017-05-02,29.959999084472656,29.81800079345703,29.959999084472656,29.93000030517578,4700.0,29.42341423034668
2017-05-03,29.93000030517578,29.709999084472656,29.709999084472656,29.790000915527344,3400.0,29.285783767700195
2017-05-04,29.889999389648438,29.760000228881836,29.889999389648438,29.8799991607666,1900.0,29.374256134033203
2017-05-05,30.045000076293945,29.985000610351562,30.030000686645508,30.045000076293945,1000.0,29.536468505859375
2017-05-08,30.049999237060547,29.90999984741211,30.049999237060547,29.90999984741211,1900.0,29.403749465942383
2017-05-09,30.038999557495117,29.90999984741211,30.038999557495117,29.924999237060547,1400.0,29.418495178222656
2017-05-10,30.34000015258789,29.996000289916992,30.34000015258789,30.084999084472656,2700.0,29.57578468322754
2017-05-11,30.0,29.84000015258789,29.84000015258789,29.989999771118164,4000.0,29.482398986816406
2017-05-12,29.8799991607666,29.8799991607666,29.8799991607666,29.8799991607666,2000.0,29.374256134033203
2017-05-15,30.10300064086914,30.0,30.0,30.079999923706055,2600.0,29.57087516784668
2017-05-16,30.079999923706055,30.033000946044922,30.06999969482422,30.079999923706055,600.0,29.57087516784668
2017-05-17,29.75,29.489999771118164,29.75,29.489999771118164,2600.0,28.99085807800293
2017-05-18,29.700000762939453,29.450000762939453,29.520000457763672,29.6299991607666,3700.0,29.128490447998047
2017-05-19,29.93000030517578,29.860000610351562,29.90999984741211,29.860000610351562,5500.0,29.354595184326172
2017-05-22,30.0,29.899999618530273,29.899999618530273,29.989999771118164,4100.0,29.482398986816406
2017-05-23,30.219999313354492,30.007999420166016,30.219999313354492,30.040000915527344,8000.0,29.531553268432617
2017-05-24,30.079999923706055,30.017000198364258,30.079999923706055,30.017000198364258,900.0,29.508941650390625
2017-05-25,30.299999237060547,30.18400001525879,30.18400001525879,30.207000732421875,2100.0,29.695724487304688
2017-05-26,30.260000228881836,30.141000747680664,30.141000747680664,30.24799919128418,23100.0,29.73603057861328
2017-05-30,30.34000015258789,30.104999542236328,30.34000015258789,30.104999542236328,1700.0,29.59545135498047
2017-05-31,30.299999237060547,30.040000915527344,30.299999237060547,30.170000076293945,1100.0,29.659351348876953
2017-06-01,30.610000610351562,30.3700008392334,30.3700008392334,30.610000610351562,700.0,30.091901779174805
2017-06-02,30.770000457763672,30.6299991607666,30.719999313354492,30.729999542236328,2800.0,30.209871292114258
2017-06-05,31.110000610351562,30.579999923706055,31.110000610351562,30.6299991607666,2200.0,30.11156463623047
2017-06-06,30.45400047302246,30.45400047302246,30.45400047302246,30.45400047302246,200.0,29.93854522705078
2017-06-07,30.690000534057617,30.459999084472656,30.690000534057617,30.540000915527344,4200.0,30.023086547851562
2017-06-08,30.6200008392334,30.525999069213867,30.6200008392334,30.525999069213867,1000.0,30.009323120117188
2017-06-09,30.792999267578125,30.600000381469727,30.792999267578125,30.600000381469727,500.0,30.082073211669922
2017-06-12,30.700000762939453,30.610000610351562,30.700000762939453,30.610000610351562,1400.0,30.091901779174805
2017-06-13,30.700000762939453,30.479999542236328,30.479999542236328,30.700000762939453,3500.0,30.180381774902344
2017-06-14,30.860000610351562,30.700000762939453,30.700000762939453,30.860000610351562,2800.0,30.33767318725586
2017-06-15,30.799999237060547,30.534000396728516,30.799999237060547,30.676000595092773,2200.0,30.156784057617188
2017-06-16,30.649999618530273,30.527000427246094,30.649999618530273,30.527000427246094,1100.0,30.01030921936035
2017-06-19,30.940000534057617,30.739999771118164,30.739999771118164,30.940000534057617,4200.0,30.416316986083984
2017-06-20,30.940000534057617,30.549999237060547,30.940000534057617,30.549999237060547,1100.0,30.081531524658203
2017-06-21,30.540000915527344,30.489999771118164,30.530000686645508,30.489999771118164,2000.0,30.02245330810547
2017-06-22,30.709999084472656,30.389999389648438,30.389999389648438,30.51099967956543,4900.0,30.04313087463379
2017-06-23,30.719999313354492,30.665000915527344,30.719999313354492,30.665000915527344,2000.0,30.19476890563965
2017-06-26,30.81999969482422,30.746000289916992,30.81999969482422,30.746000289916992,2300.0,30.27452850341797
2017-06-27,30.729999542236328,30.65999984741211,30.729999542236328,30.65999984741211,300.0,30.18984603881836
2017-06-28,30.799999237060547,30.604999542236328,30.604999542236328,30.799999237060547,1100.0,30.327695846557617
2017-06-29,30.6200008392334,30.485000610351562,30.6200008392334,30.485000610351562,2100.0,30.017532348632812
2017-06-30,30.639999389648438,30.510000228881836,30.584999084472656,30.639999389648438,400.0,30.17015266418457
2017-07-03,30.639999389648438,30.639999389648438,30.639999389648438,30.639999389648438,0.0,30.17015266418457
2017-07-05,31.232999801635742,30.482999801635742,30.760000228881836,30.618999481201172,900.0,30.14947509765625
2017-07-06,30.469999313354492,30.33300018310547,30.469999313354492,30.3700008392334,7300.0,29.904293060302734
2017-07-07,30.65999984741211,30.424999237060547,30.469999313354492,30.65999984741211,2000.0,30.18984603881836
2017-07-10,30.959999084472656,30.54199981689453,30.959999084472656,30.56999969482422,8700.0,30.101224899291992
2017-07-11,30.56999969482422,30.509000778198242,30.56999969482422,30.530000686645508,800.0,30.061840057373047
2017-07-12,31.43000030517578,30.677000045776367,31.43000030517578,30.860000610351562,4100.0,30.38677978515625
2017-07-13,30.860000610351562,30.801000595092773,30.844999313354492,30.860000610351562,1200.0,30.38677978515625
2017-07-14,30.985000610351562,30.885000228881836,30.895999908447266,30.940000534057617,2800.0,30.465551376342773
2017-07-17,31.09000015258789,30.993000030517578,31.09000015258789,31.009000778198242,1600.0,30.53349494934082
2017-07-18,30.989999771118164,30.8799991607666,30.989999771118164,30.989999771118164,1300.0,30.514781951904297
2017-07-19,31.208999633789062,30.81999969482422,30.81999969482422,31.200000762939453,2400.0,30.721569061279297
2017-07-20,31.290000915527344,31.110000610351562,31.270000457763672,31.270000457763672,2100.0,30.79049301147461
2017-07-21,31.299999237060547,31.149999618530273,31.299999237060547,31.219999313354492,6700.0,30.741256713867188
2017-07-24,31.239999771118164,31.208999633789062,31.239999771118164,31.208999633789062,400.0,30.730426788330078
2017-07-25,31.520000457763672,31.270000457763672,31.520000457763672,31.34000015258789,2100.0,30.859418869018555
2017-07-26,31.649999618530273,31.329999923706055,31.649999618530273,31.329999923706055,6300.0,30.84956932067871
2017-07-27,31.350000381469727,31.25,31.350000381469727,31.280000686645508,600.0,30.800338745117188
2017-07-28,31.2189998626709,31.15999984741211,31.15999984741211,31.18000030517578,2100.0,30.701873779296875
2017-07-31,31.690000534057617,31.170000076293945,31.690000534057617,31.229999542236328,4200.0,30.7511043548584
2017-08-01,31.399999618530273,31.22800064086914,31.3700008392334,31.30900001525879,2900.0,30.828893661499023
2017-08-02,31.420000076293945,31.17300033569336,31.420000076293945,31.17300033569336,2600.0,30.69498062133789
2017-08-03,31.260000228881836,31.049999237060547,31.260000228881836,31.049999237060547,3400.0,30.573862075805664
2017-08-04,31.229999542236328,31.150999069213867,31.229999542236328,31.180999755859375,6700.0,30.702857971191406
2017-08-07,31.30900001525879,31.225000381469727,31.270000457763672,31.30900001525879,1500.0,30.828893661499023
2017-08-08,31.399999618530273,31.170000076293945,31.389999389648438,31.170000076293945,5600.0,30.69202423095703
2017-08-09,31.15999984741211,31.1200008392334,31.1200008392334,31.15999984741211,1900.0,30.682178497314453
2017-08-10,31.0,30.649999618530273,31.0,30.680999755859375,5800.0,30.21052360534668
2017-08-11,30.68000030517578,30.68000030517578,30.68000030517578,30.68000030517578,300.0,30.20953941345215
2017-08-14,31.06999969482422,30.899999618530273,30.899999618530273,31.06999969482422,3400.0,30.59355926513672
2017-08-15,31.399999618530273,30.93000030517578,31.399999618530273,30.979999542236328,16200.0,30.50493812561035
2017-08-16,31.100000381469727,31.014999389648438,31.059999465942383,31.014999389648438,600.0,30.53940200805664
2017-08-17,31.010000228881836,30.709999084472656,31.010000228881836,30.75,1300.0,30.278467178344727
2017-08-18,30.538999557495117,30.229999542236328,30.489999771118164,30.440000534057617,7300.0,29.97321891784668
2017-08-21,30.389999389648438,30.389999389648438,30.389999389648438,30.389999389648438,500.0,29.923982620239258
2017-08-22,30.670000076293945,30.5,30.5,30.649999618530273,7700.0,30.17999839782715
2017-08-23,30.709999084472656,30.639999389648438,30.709999084472656,30.639999389648438,600.0,30.17015266418457
2017-08-24,30.84000015258789,30.670000076293945,30.84000015258789,30.670000076293945,2900.0,30.19969367980957
2017-08-25,30.70800018310547,30.70800018310547,30.70800018310547,30.70800018310547,200.0,30.237106323242188
2017-08-28,30.729999542236328,30.6299991607666,30.709999084472656,30.729999542236328,3800.0,30.258771896362305
2017-08-29,30.746999740600586,30.610000610351562,30.700000762939453,30.700000762939453,3300.0,30.22923469543457
2017-08-30,30.829999923706055,30.790000915527344,30.790000915527344,30.81999969482422,2300.0,30.347389221191406
2017-08-31,31.170000076293945,30.979999542236328,30.989999771118164,31.170000076293945,3800.0,30.69202423095703
2017-09-01,31.280000686645508,31.18000030517578,31.280000686645508,31.190000534057617,4200.0,30.711719512939453
2017-09-05,31.3799991607666,30.969999313354492,31.3799991607666,31.040000915527344,3200.0,30.56402015686035
2017-09-06,31.170000076293945,31.0,31.0,31.1200008392334,23900.0,30.642791748046875
2017-09-07,31.009000778198242,30.829999923706055,30.93000030517578,31.009000778198242,11600.0,30.53349494934082
2017-09-08,31.125,30.950000762939453,31.030000686645508,30.959999084472656,9600.0,30.48524284362793
2017-09-11,31.429000854492188,31.270000457763672,31.299999237060547,31.405000686645508,2800.0,30.923423767089844
2017-09-12,31.565000534057617,31.444000244140625,31.530000686645508,31.535999298095703,3500.0,31.052412033081055
2017-09-13,31.649999618530273,31.52199935913086,31.649999618530273,31.575000762939453,1900.0,31.0908145904541
2017-09-14,31.54199981689453,31.53499984741211,31.540000915527344,31.54199981689453,800.0,31.058319091796875
2017-09-15,31.649999618530273,31.54400062561035,31.649999618530273,31.6299991607666,1500.0,31.144969940185547
2017-09-18,31.72100067138672,31.690000534057617,31.719999313354492,31.690000534057617,400.0,31.20404815673828
2017-09-19,31.68000030517578,31.600000381469727,31.68000030517578,31.600000381469727,1900.0,31.174457550048828
2017-09-20,31.667999267578125,31.579999923706055,31.59000015258789,31.667999267578125,1000.0,31.24153709411621
2017-09-21,31.700000762939453,31.584999084472656,31.700000762939453,31.61400032043457,2400.0,31.188270568847656
2017-09-22,31.631999969482422,31.43000030517578,31.43000030517578,31.59000015258789,1000.0,31.16459083557129
2017-09-25,31.6299991607666,31.479999542236328,31.6299991607666,31.542999267578125,900.0,31.118223190307617
2017-09-26,31.700000762939453,31.68000030517578,31.700000762939453,31.68000030517578,500.0,31.253376007080078
2017-09-27,31.94499969482422,31.690000534057617,31.80900001525879,31.94499969482422,2000.0,31.514808654785156
2017-09-28,32.15999984741211,31.763999938964844,32.15999984741211,31.93000030517578,3200.0,31.500011444091797
2017-09-29,32.22999954223633,31.975000381469727,32.22999954223633,32.03799819946289,700.0,31.606552124023438
2017-10-02,32.36000061035156,32.15999984741211,32.36000061035156,32.15999984741211,1500.0,31.726917266845703
2017-10-03,32.310001373291016,32.11000061035156,32.11000061035156,32.27000045776367,9000.0,31.835433959960938
2017-10-04,32.44900131225586,32.34000015258789,32.369998931884766,32.34000015258789,1300.0,31.90448760986328
2017-10-05,32.52000045776367,32.4739990234375,32.52000045776367,32.486000061035156,2500.0,32.04853057861328
2017-10-06,32.529998779296875,32.400001525878906,32.40700149536133,32.529998779296875,3800.0,32.09193420410156
2017-10-09,32.54999923706055,32.400001525878906,32.54999923706055,32.400001525878906,2700.0,31.963682174682617
2017-10-10,32.470001220703125,32.387001037597656,32.39500045776367,32.46799850463867,6700.0,32.03076934814453
2017-10-11,32.52000045776367,32.459999084472656,32.5,32.4900016784668,2600.0,32.052467346191406
2017-10-12,32.61000061035156,32.4900016784668,32.4900016784668,32.529998779296875,1000.0,32.09193420410156
2017-10-13,32.68000030517578,32.55500030517578,32.55500030517578,32.56999969482422,3300.0,32.13139343261719
2017-10-16,32.88999938964844,32.5,32.88999938964844,32.5989990234375,2600.0,32.15999984741211
2017-10-17,32.630001068115234,32.54999923706055,32.599998474121094,32.555999755859375,5600.0,32.11758041381836
2017-10-18,32.63999938964844,32.595001220703125,32.595001220703125,32.63999938964844,1500.0,32.20045471191406
2017-10-19,32.62300109863281,32.5,32.5,32.62300109863281,700.0,32.18368148803711
2017-10-20,32.92599868774414,32.84000015258789,32.84000015258789,32.88999938964844,6900.0,32.447086334228516
2017-10-23,33.16999816894531,32.77000045776367,33.16999816894531,32.77000045776367,3400.0,32.328697204589844
2017-10-24,32.849998474121094,32.79800033569336,32.845001220703125,32.849998474121094,1800.0,32.40761947631836
2017-10-25,32.86000061035156,32.42499923706055,32.86000061035156,32.70000076293945,1200.0,32.259639739990234
2017-10-26,32.84000015258789,32.68000030517578,32.68000030517578,32.84000015258789,2500.0,32.39775085449219
2017-10-27,33.0,32.84000015258789,33.0,32.948001861572266,800.0,32.504302978515625
2017-10-30,32.90999984741211,32.70000076293945,32.90999984741211,32.70000076293945,5700.0,32.259639739990234
2017-10-31,32.959999084472656,32.709999084472656,32.709999084472656,32.904998779296875,2900.0,32.461875915527344
2017-11-01,32.9900016784668,32.75699996948242,32.9900016784668,32.79999923706055,4300.0,32.3582878112793
2017-11-02,32.84000015258789,32.79999923706055,32.82600021362305,32.83599853515625,2600.0,32.39381408691406
2017-11-03,32.95000076293945,32.904998779296875,32.904998779296875,32.95000076293945,1400.0,32.50627899169922
2017-11-06,33.15999984741211,32.965999603271484,33.15999984741211,33.05500030517578,1900.0,32.60985565185547
2017-11-07,33.099998474121094,32.82600021362305,33.099998474121094,32.900001525878906,7300.0,32.45695114135742
2017-11-08,33.150001525878906,32.84000015258789,33.150001525878906,32.970001220703125,6400.0,32.52600860595703
2017-11-09,32.900001525878906,32.58000183105469,32.900001525878906,32.665000915527344,1400.0,32.22511291503906
2017-11-10,32.84000015258789,32.81999969482422,32.84000015258789,32.81999969482422,500.0,32.37802505493164
2017-11-13,32.91999816894531,32.7130012512207,32.81999969482422,32.91999816894531,3500.0,32.47667694091797
2017-11-14,32.90999984741211,32.79999923706055,32.849998474121094,32.90999984741211,700.0,32.46681213378906
2017-11-15,32.790000915527344,32.75,32.790000915527344,32.77000045776367,2600.0,32.328697204589844
2017-11-16,33.130001068115234,33.02000045776367,33.130001068115234,33.02000045776367,300.0,32.57533264160156
2017-11-17,33.18000030517578,32.9900016784668,33.150001525878906,33.15999984741211,800.0,32.713443756103516
2017-11-20,33.279998779296875,33.22600173950195,33.279998779296875,33.27399826049805,2200.0,32.82590866088867
2017-11-21,33.45500183105469,33.400001525878906,33.400001525878906,33.44900131225586,1300.0,32.99855422973633
2017-11-22,33.900001525878906,33.41699981689453,33.900001525878906,33.41699981689453,2200.0,32.96699142456055
2017-11-24,33.48699951171875,33.38999938964844,33.45899963378906,33.48699951171875,3100.0,33.036041259765625
2017-11-27,33.59000015258789,33.46200180053711,33.59000015258789,33.54999923706055,1200.0,33.09819030761719
2017-11-28,33.861000061035156,33.54999923706055,33.54999923706055,33.861000061035156,1100.0,33.40501022338867
2017-11-29,33.91400146484375,33.83000183105469,33.91400146484375,33.83000183105469,800.0,33.37442398071289
2017-11-30,34.17599868774414,33.849998474121094,33.849998474121094,33.99700164794922,4300.0,33.5391731262207
2017-12-01,34.18000030517578,33.5099983215332,34.130001068115234,33.79399871826172,6200.0,33.33890914916992
2017-12-04,34.13999938964844,33.7760009765625,34.13999938964844,33.7760009765625,6000.0,33.32115173339844
2017-12-05,33.81999969482422,33.525001525878906,33.81999969482422,33.540000915527344,1500.0,33.08832931518555
2017-12-06,33.542999267578125,33.474998474121094,33.529998779296875,33.5,3700.0,33.048866271972656
2017-12-07,33.75199890136719,33.099998474121094,33.58000183105469,33.70000076293945,6000.0,33.246177673339844
2017-12-08,33.90399932861328,33.81999969482422,33.849998474121094,33.83599853515625,800.0,33.380340576171875
2017-12-11,33.87900161743164,33.83000183105469,33.84000015258789,33.84000015258789,3100.0,33.38429260253906
2017-12-12,34.25,33.79499816894531,34.25,33.849998474121094,3800.0,33.39414978027344
2017-12-13,33.959999084472656,33.79999923706055,33.959999084472656,33.79999923706055,3700.0,33.34482955932617
2017-12-14,34.0,33.59600067138672,34.0,33.59600067138672,1800.0,33.14357376098633
2017-12-15,34.01900100708008,33.81800079345703,33.81800079345703,34.01900100708008,2100.0,33.56087875366211
2017-12-18,34.34000015258789,34.165000915527344,34.34000015258789,34.22999954223633,4600.0,33.769039154052734
2017-12-19,34.13399887084961,34.099998474121094,34.13399887084961,34.099998474121094,900.0,33.640785217285156
2017-12-20,34.40999984741211,33.95100021362305,34.40999984741211,34.1150016784668,2500.0,33.65559005737305
2017-12-21,34.34000015258789,33.99300003051758,34.34000015258789,33.99300003051758,18300.0,33.53522872924805
2017-12-22,33.994998931884766,33.90999984741211,33.90999984741211,33.994998931884766,500.0,33.53719711303711
2017-12-26,34.220001220703125,33.93000030517578,34.220001220703125,33.939998626708984,600.0,33.59857940673828
2017-12-27,33.970001220703125,33.900001525878906,33.939998626708984,33.900001525878906,2800.0,33.55898666381836
2017-12-28,34.069000244140625,33.88999938964844,34.029998779296875,34.069000244140625,2500.0,33.726280212402344
2017-12-29,34.47999954223633,33.91999816894531,34.47999954223633,33.9900016784668,2400.0,33.648075103759766
2018-01-02,34.119998931884766,34.0,34.099998474121094,34.02000045776367,4500.0,33.67777633666992
2018-01-03,34.380001068115234,33.97999954223633,33.97999954223633,34.35900115966797,2100.0,34.013362884521484
2018-01-04,34.70000076293945,34.34000015258789,34.599998474121094,34.43000030517578,15200.0,34.083648681640625
2018-01-05,34.67499923706055,34.494998931884766,34.650001525878906,34.67499923706055,6700.0,34.32617950439453
2018-01-08,34.85900115966797,34.564998626708984,34.75,34.85900115966797,36400.0,34.50833511352539
2018-01-09,34.90999984741211,34.79999923706055,34.900001525878906,34.89400100708008,3200.0,34.5429801940918
2018-01-10,34.7599983215332,34.619998931884766,34.63999938964844,34.70000076293945,4900.0,34.35093307495117
2018-01-11,35.15999984741211,34.869998931884766,34.95000076293945,35.119998931884766,3500.0,34.7667121887207
2018-01-12,35.380001068115234,35.19499969482422,35.380001068115234,35.29199981689453,5700.0,34.93697738647461
2018-01-16,37.25,35.0,36.70000076293945,35.099998474121094,9700.0,34.74691390991211
2018-01-17,35.459999084472656,35.220001220703125,35.459999084472656,35.36000061035156,2800.0,35.00429916381836
2018-01-18,35.439998626708984,35.27000045776367,35.439998626708984,35.369998931884766,2700.0,35.01419448852539
2018-01-19,35.560001373291016,35.220001220703125,35.220001220703125,35.560001373291016,1700.0,35.20228576660156
2018-01-22,35.75,35.61000061035156,35.720001220703125,35.71500015258789,4300.0,35.3557243347168
2018-01-23,35.944000244140625,35.80500030517578,35.900001525878906,35.87099838256836,4600.0,35.51015090942383
2018-01-24,36.055999755859375,35.75,36.055999755859375,35.88999938964844,1900.0,35.528961181640625
2018-01-25,36.0,35.76499938964844,36.0,35.76499938964844,3100.0,35.40522003173828
2018-01-26,36.178001403808594,35.790000915527344,35.790000915527344,36.178001403808594,8300.0,35.814064025878906
2018-01-29,36.25,35.93000030517578,36.25,36.034000396728516,3800.0,35.671512603759766
2018-01-30,35.95000076293945,35.534000396728516,35.95000076293945,35.630001068115234,3400.0,35.271583557128906
2018-01-31,35.70000076293945,35.400001525878906,35.70000076293945,35.441001892089844,2700.0,35.08448028564453
2018-02-01,35.619998931884766,35.356998443603516,35.400001525878906,35.44599914550781,6000.0,35.08942794799805
2018-02-02,35.20000076293945,34.91999816894531,35.20000076293945,34.91999816894531,17200.0,34.56871795654297
2018-02-05,34.88999938964844,33.599998474121094,34.88999938964844,33.599998474121094,24700.0,33.26199722290039
2018-02-06,33.91999816894531,32.560001373291016,32.560001373291016,33.91999816894531,8400.0,33.57877731323242
2018-02-07,34.290000915527344,33.97999954223633,33.97999954223633,34.19599914550781,5900.0,33.85200119018555
2018-02-08,34.470001220703125,32.900001525878906,34.470001220703125,32.900001525878906,2400.0,32.56904220581055
2018-02-09,33.22999954223633,32.33000183105469,33.22999954223633,32.33000183105469,3700.0,32.00477600097656
2018-02-12,33.5890007019043,33.2400016784668,33.2400016784668,33.54999923706055,2300.0,33.212501525878906
2018-02-13,33.849998474121094,33.51499938964844,33.51499938964844,33.71500015258789,9300.0,33.37583923339844
2018-02-14,34.0,33.90599822998047,34.0,34.0,900.0,33.65797805786133
2018-02-15,34.630001068115234,34.31999969482422,34.540000915527344,34.630001068115234,5300.0,34.281639099121094
2018-02-16,34.869998931884766,34.70000076293945,34.84000015258789,34.81999969482422,5700.0,34.4697265625
2018-02-20,34.909000396728516,34.470001220703125,34.84000015258789,34.619998931884766,2600.0,34.27173614501953
2018-02-21,34.959999084472656,34.720001220703125,34.720001220703125,34.805999755859375,5000.0,34.455867767333984
2018-02-22,34.7400016784668,34.529998779296875,34.58100128173828,34.5359992980957,3100.0,34.18858337402344
2018-02-23,35.040000915527344,34.571998596191406,35.040000915527344,34.80500030517578,2800.0,34.45487594604492
2018-02-26,35.22999954223633,34.994998931884766,35.0,35.1879997253418,5800.0,34.83402633666992
2018-02-27,35.5,34.83100128173828,35.5,34.900001525878906,6000.0,34.548919677734375
2018-02-28,35.33000183105469,34.599998474121094,35.33000183105469,34.599998474121094,2200.0,34.25193786621094
2018-03-01,34.44499969482422,34.09700012207031,34.33000183105469,34.119998931884766,13200.0,33.776763916015625
2018-03-02,34.279998779296875,34.0,34.279998779296875,34.16999816894531,2800.0,33.82626724243164
2018-03-05,34.76499938964844,34.29999923706055,34.56999969482422,34.73400115966797,7200.0,34.38459396362305
2018-03-06,35.33000183105469,34.79999923706055,35.33000183105469,34.959999084472656,2800.0,34.608314514160156
2018-03-07,35.10200119018555,35.064998626708984,35.069000244140625,35.10200119018555,500.0,34.74889373779297
2018-03-08,35.099998474121094,35.060001373291016,35.099998474121094,35.095001220703125,1100.0,34.74196243286133
2018-03-09,35.095001220703125,35.095001220703125,35.095001220703125,35.095001220703125,0.0,34.74196243286133
2018-03-12,35.9900016784668,35.880001068115234,35.9900016784668,35.880001068115234,800.0,35.519065856933594
2018-03-13,36.189998626708984,35.880001068115234,36.189998626708984,35.89099884033203,1400.0,35.52995300292969
2018-03-14,35.722999572753906,35.48899841308594,35.722999572753906,35.51900100708008,2300.0,35.16169738769531
2018-03-15,36.29999923706055,35.0099983215332,36.29999923706055,35.56999969482422,6100.0,35.212181091308594
2018-03-16,35.724998474121094,35.724998474121094,35.724998474121094,35.724998474121094,200.0,35.36561965942383
2018-03-19,35.16999816894531,35.099998474121094,35.16999816894531,35.099998474121094,400.0,34.74691390991211
2018-03-20,35.38999938964844,35.29999923706055,35.38999938964844,35.327999114990234,2600.0,35.01251983642578
2018-03-21,35.5,35.39500045776367,35.5,35.459999084472656,1000.0,35.143341064453125
2018-03-22,35.12200164794922,34.790000915527344,34.81100082397461,34.83000183105469,1600.0,34.51896286010742
2018-03-23,34.9900016784668,33.922000885009766,34.9900016784668,33.959999084472656,6300.0,33.65673065185547
2018-03-26,34.31999969482422,34.1349983215332,34.31999969482422,34.29999923706055,10500.0,33.99369430541992
2018-03-27,34.58000183105469,34.0,34.58000183105469,34.0,1500.0,33.696380615234375
2018-03-28,34.25,33.779998779296875,34.25,33.779998779296875,800.0,33.478336334228516
2018-03-29,34.29999923706055,34.29999923706055,34.29999923706055,34.29999923706055,400.0,33.99369430541992
2018-04-02,34.5,33.31800079345703,34.5,33.540000915527344,5300.0,33.24048614501953
2018-04-03,33.66999816894531,33.652000427246094,33.66999816894531,33.652000427246094,400.0,33.351478576660156
2018-04-04,34.16899871826172,33.650001525878906,33.650001525878906,34.16899871826172,1600.0,33.86386489868164
2018-04-05,34.16899871826172,34.16899871826172,34.16899871826172,34.16899871826172,0.0,33.86386489868164
2018-04-06,34.849998474121094,33.909000396728516,34.849998474121094,33.909000396728516,2500.0,33.6061897277832
2018-04-09,34.18000030517578,33.849998474121094,34.02000045776367,33.849998474121094,1500.0,33.54771041870117
2018-04-10,34.38999938964844,34.29999923706055,34.314998626708984,34.354000091552734,2800.0,34.04721450805664
2018-04-11,34.400001525878906,34.209999084472656,34.290000915527344,34.279998779296875,1000.0,33.973873138427734
2018-04-12,34.439998626708984,34.2599983215332,34.2599983215332,34.36000061035156,3900.0,34.05316162109375
2018-04-13,34.5,34.22999954223633,34.5,34.349998474121094,1900.0,34.04324722290039
2018-04-16,34.63999938964844,34.5,34.619998931884766,34.625,1300.0,34.3157958984375
2018-04-17,34.625,34.625,34.625,34.625,0.0,34.3157958984375
2018-04-18,35.20000076293945,35.06999969482422,35.13999938964844,35.06999969482422,1400.0,34.75682067871094
2018-04-19,35.57699966430664,34.7599983215332,35.0,34.779998779296875,1900.0,34.46940612792969
2018-04-20,34.55099868774414,34.39099884033203,34.439998626708984,34.45899963378906,2300.0,34.15127182006836
2018-04-23,34.5880012512207,34.44499969482422,34.5880012512207,34.44499969482422,1100.0,34.13739776611328
2018-04-24,34.44499969482422,34.44499969482422,34.44499969482422,34.44499969482422,0.0,34.13739776611328
2018-04-25,34.380001068115234,33.99800109863281,34.380001068115234,34.02000045776367,700.0,33.71619415283203
2018-04-26,34.02000045776367,34.02000045776367,34.02000045776367,34.02000045776367,0.0,33.71619415283203
2018-04-27,34.02000045776367,34.02000045776367,34.02000045776367,34.02000045776367,0.0,33.71619415283203
2018-04-30,34.630001068115234,34.09000015258789,34.630001068115234,34.09000015258789,4100.0,33.78557205200195
2018-05-01,34.130001068115234,33.689998626708984,34.0,34.130001068115234,4800.0,33.82521438598633
2018-05-02,34.150001525878906,33.91999816894531,34.150001525878906,33.97999954223633,2300.0,33.676551818847656
2018-05-03,33.972999572753906,33.5,33.50600051879883,33.972999572753906,3600.0,33.66961669921875
2018-05-04,34.4900016784668,33.88999938964844,33.900001525878906,34.40999984741211,4100.0,34.10271072387695
2018-05-07,34.599998474121094,34.400001525878906,34.400001525878906,34.5,1600.0,34.19190979003906
2018-05-08,34.630001068115234,34.529998779296875,34.529998779296875,34.58000183105469,3300.0,34.27119445800781
2018-05-09,34.86000061035156,33.63999938964844,33.63999938964844,34.7400016784668,2900.0,34.429771423339844
2018-05-10,35.13999938964844,35.0,35.13999938964844,35.005001068115234,2900.0,34.69240188598633
2018-05-11,35.229000091552734,35.130001068115234,35.220001220703125,35.229000091552734,6600.0,34.91440200805664
2018-05-14,35.5,35.130001068115234,35.5,35.15999984741211,4700.0,34.84601593017578
2018-05-15,35.00899887084961,34.80099868774414,34.93000030517578,34.87200164794922,1400.0,34.56058883666992
2018-05-16,35.310001373291016,35.058998107910156,35.058998107910156,35.21200180053711,1500.0,34.89755630493164
2018-05-17,35.17100143432617,35.17100143432617,35.17100143432617,35.17100143432617,300.0,34.8569221496582
2018-05-18,35.27000045776367,35.21200180053711,35.25,35.263999938964844,1500.0,34.94908905029297
2018-05-21,35.472999572753906,35.439998626708984,35.439998626708984,35.472999572753906,800.0,35.156219482421875
2018-05-22,35.529998779296875,35.38999938964844,35.45500183105469,35.395999908447266,6100.0,35.07990646362305
2018-05-23,35.29999923706055,35.25,35.25,35.29999923706055,600.0,34.98476791381836
2018-05-24,35.470001220703125,35.29999923706055,35.29999923706055,35.470001220703125,1300.0,35.15325164794922
2018-05-25,35.470001220703125,35.38999938964844,35.470001220703125,35.38999938964844,600.0,35.07396697998047
2018-05-29,35.279998779296875,35.0,35.279998779296875,35.047000885009766,3800.0,34.73402786254883
2018-05-30,35.689998626708984,35.28200149536133,35.28200149536133,35.54999923706055,10400.0,35.2325325012207
2018-05-31,35.41999816894531,35.27000045776367,35.41999816894531,35.34000015258789,1500.0,35.02440643310547
2018-06-01,35.5890007019043,35.45199966430664,35.45199966430664,35.5890007019043,1100.0,35.27118682861328
2018-06-04,35.724998474121094,35.61800003051758,35.69599914550781,35.724998474121094,1400.0,35.405967712402344
2018-06-05,35.93000030517578,35.92399978637695,35.93000030517578,35.92399978637695,900.0,35.60319137573242
2018-06-06,36.20000076293945,36.05099868774414,36.08000183105469,36.20000076293945,1500.0,35.876731872558594
2018-06-07,36.61000061035156,36.16999816894531,36.61000061035156,36.18299865722656,2400.0,35.85987854003906
2018-06-08,36.15999984741211,36.09600067138672,36.15999984741211,36.09600067138672,400.0,35.77365493774414
2018-06-11,36.43000030517578,36.380001068115234,36.380001068115234,36.40999984741211,2900.0,36.08485412597656
2018-06-12,36.540000915527344,36.47999954223633,36.540000915527344,36.47999954223633,1500.0,36.15422821044922
2018-06-13,36.66999816894531,36.400001525878906,36.66999816894531,36.404998779296875,3700.0,36.07989501953125
2018-06-14,36.472999572753906,36.439998626708984,36.439998626708984,36.472999572753906,1200.0,36.14728927612305
2018-06-15,37.0,36.28799819946289,37.0,36.619998931884766,3400.0,36.29297637939453
2018-06-18,37.0,36.310001373291016,36.310001373291016,36.459999084472656,1600.0,36.13440704345703
2018-06-19,36.79999923706055,36.0099983215332,36.79999923706055,36.21500015258789,3200.0,35.97052001953125
2018-06-20,36.39400100708008,36.38999938964844,36.38999938964844,36.39400100708008,600.0,36.1483154296875
2018-06-21,36.209999084472656,36.209999084472656,36.209999084472656,36.209999084472656,1000.0,35.965553283691406
2018-06-22,36.22999954223633,36.0,36.04800033569336,36.0,8200.0,35.75697326660156
2018-06-25,35.9900016784668,35.30799865722656,35.5,35.30799865722656,6300.0,35.06964111328125
2018-06-26,35.61600112915039,35.439998626708984,35.439998626708984,35.61600112915039,3500.0,35.37556457519531
2018-06-27,35.72999954223633,35.19900131225586,35.72999954223633,35.19900131225586,2100.0,34.96138000488281
2018-06-28,35.41999816894531,35.020999908447266,35.020999908447266,35.41999816894531,1100.0,35.180885314941406
2018-06-29,35.58000183105469,35.45600128173828,35.58000183105469,35.45600128173828,400.0,35.21664810180664
2018-07-02,35.400001525878906,35.159000396728516,35.400001525878906,35.29999923706055,1600.0,35.06169891357422
2018-07-03,35.56999969482422,35.54999923706055,35.54999923706055,35.56800079345703,1700.0,35.327884674072266
2018-07-05,35.68000030517578,35.4010009765625,35.68000030517578,35.604000091552734,1900.0,35.3636474609375
2018-07-06,35.93299865722656,35.7599983215332,35.83000183105469,35.93299865722656,2400.0,35.69042205810547
2018-07-09,36.194000244140625,36.16999816894531,36.16999816894531,36.194000244140625,600.0,35.94966125488281
2018-07-10,36.308998107910156,36.308998107910156,36.308998107910156,36.308998107910156,1100.0,36.06388473510742
2018-07-11,36.439998626708984,36.04999923706055,36.439998626708984,36.09000015258789,3100.0,35.84636306762695
2018-07-12,36.279998779296875,36.279998779296875,36.279998779296875,36.279998779296875,300.0,36.03507995605469
2018-07-13,36.31999969482422,36.31999969482422,36.31999969482422,36.31999969482422,11300.0,36.07481384277344
2018-07-16,36.70000076293945,36.20899963378906,36.70000076293945,36.20899963378906,800.0,35.964561462402344
2018-07-17,36.400001525878906,36.380001068115234,36.400001525878906,36.380001068115234,1000.0,36.13440704345703
2018-07-18,36.63999938964844,36.459999084472656,36.459999084472656,36.63999938964844,1500.0,36.39264678955078
2018-07-19,36.7599983215332,36.57099914550781,36.650001525878906,36.650001525878906,6000.0,36.402584075927734
2018-07-20,36.47200012207031,36.47200012207031,36.47200012207031,36.47200012207031,1100.0,36.22578811645508
2018-07-23,36.4900016784668,36.34000015258789,36.34000015258789,36.4900016784668,2700.0,36.24366760253906
2018-07-24,36.5,36.435001373291016,36.5,36.435001373291016,800.0,36.18904113769531
2018-07-25,36.435001373291016,36.435001373291016,36.435001373291016,36.435001373291016,0.0,36.18904113769531
2018-07-26,36.79999923706055,36.709999084472656,36.709999084472656,36.79999923706055,1300.0,36.55157470703125
2018-07-27,36.439998626708984,36.43000030517578,36.43000030517578,36.439998626708984,1300.0,36.19399642944336
2018-07-30,36.439998626708984,36.439998626708984,36.439998626708984,36.439998626708984,0.0,36.19399642944336
2018-07-31,36.41999816894531,36.33000183105469,36.33000183105469,36.388999938964844,800.0,36.14334487915039
2018-08-01,36.38999938964844,36.13999938964844,36.38999938964844,36.13999938964844,1300.0,35.896026611328125
2018-08-02,36.29399871826172,36.15999984741211,36.15999984741211,36.29399871826172,1400.0,36.04898452758789
2018-08-03,36.59000015258789,36.4900016784668,36.59000015258789,36.513999938964844,500.0,36.26750183105469
2018-08-06,36.81999969482422,36.7599983215332,36.77000045776367,36.784000396728516,3000.0,36.535675048828125
2018-08-07,37.0099983215332,37.0,37.0,37.0099983215332,800.0,36.76015090942383
2018-08-08,37.09000015258789,36.81999969482422,36.95600128173828,37.06999969482422,13000.0,36.81974792480469
2018-08-09,37.31999969482422,37.04100036621094,37.31999969482422,37.04100036621094,900.0,36.79094696044922
2018-08-10,36.849998474121094,36.650001525878906,36.68000030517578,36.75,12000.0,36.50190734863281
2018-08-13,36.617000579833984,36.617000579833984,36.617000579833984,36.617000579833984,800.0,36.36980438232422
2018-08-14,36.858001708984375,36.619998931884766,36.68000030517578,36.858001708984375,1000.0,36.60918426513672
2018-08-15,37.0099983215332,36.46200180053711,37.0099983215332,36.57500076293945,2800.0,36.32809066772461
2018-08-16,36.68000030517578,36.68000030517578,36.68000030517578,36.68000030517578,1000.0,36.43238067626953
2018-08-17,36.68000030517578,36.68000030517578,36.68000030517578,36.68000030517578,0.0,36.43238067626953
2018-08-20,37.08000183105469,36.86000061035156,36.86000061035156,37.08000183105469,1100.0,36.829681396484375
2018-08-21,37.3390007019043,37.09000015258789,37.09000015258789,37.3390007019043,700.0,37.08693313598633
2018-08-22,37.59000015258789,37.31999969482422,37.59000015258789,37.34000015258789,900.0,37.08792495727539
2018-08-23,37.61000061035156,37.189998626708984,37.61000061035156,37.29899978637695,8100.0,37.047203063964844
2018-08-24,37.5,37.290000915527344,37.290000915527344,37.38999938964844,4200.0,37.13758850097656
2018-08-27,37.91999816894531,37.689998626708984,37.91999816894531,37.709999084472656,2900.0,37.45542526245117
2018-08-28,37.72999954223633,37.630001068115234,37.630001068115234,37.720001220703125,3300.0,37.465362548828125
2018-08-29,37.900001525878906,37.68000030517578,37.68000030517578,37.900001525878906,6000.0,37.644142150878906
2018-08-30,38.04999923706055,37.599998474121094,38.04999923706055,37.61000061035156,2200.0,37.356101989746094
2018-08-31,37.7400016784668,37.66899871826172,37.720001220703125,37.7400016784668,1800.0,37.485225677490234
2018-09-04,37.81999969482422,37.60499954223633,37.81999969482422,37.7400016784668,6600.0,37.485225677490234
2018-09-05,37.689998626708984,37.57099914550781,37.59000015258789,37.68000030517578,4100.0,37.425628662109375
2018-09-06,37.619998931884766,37.4900016784668,37.61000061035156,37.619998931884766,5200.0,37.36603546142578
2018-09-07,37.630001068115234,37.400001525878906,37.459999084472656,37.400001525878906,4400.0,37.14752197265625
2018-09-10,37.630001068115234,37.5099983215332,37.5099983215332,37.619998931884766,3500.0,37.36603546142578
2018-09-11,37.7599983215332,37.470001220703125,37.470001220703125,37.720001220703125,2100.0,37.465362548828125
2018-09-12,38.060001373291016,37.45000076293945,38.060001373291016,37.720001220703125,4300.0,37.465362548828125
2018-09-13,37.90999984741211,37.849998474121094,37.90999984741211,37.849998474121094,1100.0,37.594482421875
2018-09-14,38.220001220703125,37.86000061035156,38.220001220703125,37.86000061035156,500.0,37.60441970825195
2018-09-17,38.040000915527344,37.650001525878906,38.040000915527344,37.650001525878906,3300.0,37.395835876464844
2018-09-18,37.83000183105469,37.650001525878906,37.650001525878906,37.81999969482422,3500.0,37.5646858215332
2018-09-19,37.810001373291016,37.729000091552734,37.810001373291016,37.74599838256836,1900.0,37.49118423461914
2018-09-20,38.27000045776367,38.02000045776367,38.27000045776367,38.029998779296875,1800.0,37.77326583862305
2018-09-21,38.43000030517578,38.09000015258789,38.43000030517578,38.09000015258789,3900.0,37.832862854003906
2018-09-24,38.060001373291016,37.72100067138672,38.060001373291016,37.777000427246094,7100.0,37.521976470947266
2018-09-25,38.04999923706055,37.689998626708984,38.04999923706055,37.707000732421875,3900.0,37.521976470947266
2018-09-26,37.970001220703125,37.4900016784668,37.970001220703125,37.5,7900.0,37.31599044799805
2018-09-27,37.68000030517578,37.47100067138672,37.66999816894531,37.55500030517578,9600.0,37.370723724365234
2018-09-28,37.595001220703125,37.483001708984375,37.5,37.54999923706055,2200.0,37.365745544433594
2018-10-01,38.09000015258789,37.34000015258789,38.09000015258789,37.34000015258789,3500.0,37.156776428222656
2018-10-02,37.369998931884766,37.16999816894531,37.369998931884766,37.16999816894531,2200.0,36.987606048583984
2018-10-03,37.540000915527344,37.23099899291992,37.540000915527344,37.31999969482422,5800.0,37.13687515258789
2018-10-04,37.59000015258789,36.808998107910156,37.59000015258789,36.808998107910156,3200.0,36.628379821777344
2018-10-05,36.63999938964844,36.308998107910156,36.63999938964844,36.52000045776367,9400.0,36.34080123901367
2018-10-08,36.56999969482422,36.349998474121094,36.56999969482422,36.400001525878906,2800.0,36.22139358520508
2018-10-09,36.290000915527344,36.20000076293945,36.209999084472656,36.20000076293945,3900.0,36.02237319946289
2018-10-10,35.619998931884766,35.1150016784668,35.4640007019043,35.1150016784668,1900.0,34.94269561767578
2018-10-11,35.27000045776367,34.41999816894531,35.18000030517578,34.59000015258789,17300.0,34.42026901245117
2018-10-12,34.849998474121094,34.400001525878906,34.66999816894531,34.5099983215332,2600.0,34.340660095214844
2018-10-15,35.720001220703125,34.47999954223633,34.47999954223633,34.68000030517578,28200.0,34.50982666015625
2018-10-16,35.400001525878906,34.86000061035156,34.86000061035156,35.3650016784668,5600.0,35.191471099853516
2018-10-17,35.345001220703125,34.652000427246094,34.652000427246094,35.30400085449219,2600.0,35.130767822265625
2018-10-18,35.68000030517578,34.650001525878906,35.619998931884766,34.779998779296875,2700.0,34.609336853027344
2018-10-19,35.119998931884766,34.5099983215332,35.119998931884766,34.619998931884766,7000.0,34.45012283325195
2018-10-22,35.0,34.33000183105469,34.869998931884766,34.6150016784668,6700.0,34.44514846801758
2018-10-23,34.060001373291016,33.7599983215332,34.029998779296875,34.060001373291016,2900.0,33.89287185668945
2018-10-24,33.777000427246094,33.60499954223633,33.777000427246094,33.60499954223633,3200.0,33.44010543823242
2018-10-25,33.83000183105469,33.439998626708984,33.439998626708984,33.78099822998047,1900.0,33.615238189697266
2018-10-26,33.41299819946289,33.15999984741211,33.189998626708984,33.209999084472656,37900.0,33.04704284667969
2018-10-29,33.689998626708984,32.95399856567383,33.25,32.95399856567383,4800.0,32.79229736328125
2018-10-30,33.55500030517578,33.38399887084961,33.5099983215332,33.55500030517578,1200.0,33.390350341796875
2018-10-31,34.400001525878906,34.0,34.0,34.400001525878906,3200.0,34.231204986572266
2018-11-01,34.849998474121094,34.33000183105469,34.400001525878906,34.849998474121094,7300.0,34.678993225097656
2018-11-02,35.404998779296875,34.915000915527344,34.994998931884766,35.404998779296875,3600.0,35.23127365112305
2018-11-05,35.20000076293945,34.7599983215332,35.20000076293945,34.869998931884766,2400.0,34.69889831542969
2018-11-06,35.48500061035156,34.970001220703125,35.0,35.48500061035156,5400.0,35.31087875366211
2018-11-07,35.9900016784668,35.2599983215332,35.9900016784668,35.707000732421875,6600.0,35.53179168701172
2018-11-08,36.630001068115234,35.619998931884766,36.0,35.665000915527344,20200.0,35.48999786376953
2018-11-09,35.25,35.130001068115234,35.130001068115234,35.18000030517578,1300.0,35.00737380981445
2018-11-12,35.43000030517578,34.70000076293945,35.43000030517578,34.849998474121094,8100.0,34.678993225097656
2018-11-13,34.97999954223633,34.58000183105469,34.97999954223633,34.58000183105469,2800.0,34.41032028198242
2018-11-14,34.540000915527344,34.540000915527344,34.540000915527344,34.540000915527344,31800.0,34.37051773071289
2018-11-15,34.91999816894531,34.18000030517578,34.81999969482422,34.83000183105469,2700.0,34.659095764160156
2018-11-16,35.0099983215332,34.68000030517578,34.68000030517578,35.0099983215332,6000.0,34.83820724487305
2018-11-19,35.04999923706055,34.224998474121094,35.04999923706055,34.224998474121094,5900.0,34.05706024169922
2018-11-20,34.02299880981445,33.71799850463867,34.0,33.75199890136719,3000.0,33.58638000488281
2018-11-21,34.27000045776367,33.77000045776367,33.77000045776367,34.150001525878906,5200.0,33.98242950439453
2018-11-23,34.130001068115234,33.97999954223633,34.029998779296875,34.01300048828125,6600.0,33.846099853515625
2018-11-26,34.5,34.29999923706055,34.41999816894531,34.5,9700.0,34.330711364746094
2018-11-27,34.5,34.189998626708984,34.439998626708984,34.39500045776367,5800.0,34.226226806640625
2018-11-28,35.08399963378906,34.52299880981445,34.61000061035156,35.08399963378906,3800.0,34.91184616088867
2018-11-29,35.22999954223633,35.03499984741211,35.16999816894531,35.060001373291016,2100.0,34.88796615600586
2018-11-30,35.33000183105469,35.189998626708984,35.33000183105469,35.31800079345703,3500.0,35.14469909667969
2018-12-03,35.93000030517578,35.56800079345703,35.93000030517578,35.75,36800.0,35.57457733154297
2018-12-04,35.560001373291016,34.79999923706055,35.560001373291016,34.849998474121094,10800.0,34.678993225097656
2018-12-06,34.2599983215332,33.957000732421875,34.0,34.22999954223633,11300.0,34.06203842163086
2018-12-07,34.59000015258789,33.60499954223633,34.59000015258789,33.810001373291016,2000.0,33.644100189208984
2018-12-10,33.74700164794922,33.29999923706055,33.650001525878906,33.71900177001953,11600.0,33.55354690551758
2018-12-11,35.189998626708984,33.66400146484375,35.189998626708984,33.66400146484375,2000.0,33.49881362915039
2018-12-12,35.130001068115234,33.974998474121094,35.130001068115234,33.974998474121094,2600.0,33.80828857421875
2018-12-13,34.400001525878906,33.65999984741211,34.400001525878906,33.71500015258789,900.0,33.549564361572266
2018-12-14,35.542999267578125,33.143001556396484,35.542999267578125,33.207000732421875,10000.0,33.04405975341797
2018-12-17,33.16999816894531,32.38199996948242,33.09000015258789,32.43199920654297,6500.0,32.272857666015625
2018-12-18,32.880001068115234,32.513999938964844,32.880001068115234,32.513999938964844,1900.0,32.35445785522461
2018-12-19,32.85100173950195,31.91699981689453,32.72999954223633,31.992000579833984,4400.0,31.835020065307617
2018-12-20,32.029998779296875,31.145000457763672,32.029998779296875,31.416000366210938,5000.0,31.261844635009766
2018-12-21,31.950000762939453,30.871999740600586,31.5,30.871999740600586,14600.0,30.72051429748535
2018-12-24,31.139999389648438,30.104999542236328,31.139999389648438,30.104999542236328,2700.0,30.055606842041016
2018-12-26,31.416000366210938,30.049999237060547,30.479999542236328,31.416000366210938,6800.0,31.364456176757812
2018-12-27,31.610000610351562,29.989999771118164,29.989999771118164,31.610000610351562,12400.0,31.558137893676758
2018-12-28,32.10499954223633,31.632999420166016,31.91200065612793,31.70800018310547,6700.0,31.655977249145508
2018-12-31,32.130001068115234,31.75,32.130001068115234,32.0099983215332,3300.0,31.95747947692871
2019-01-02,32.2400016784668,31.510000228881836,32.2400016784668,31.92300033569336,600.0,31.870624542236328
2019-01-03,31.6200008392334,31.229999542236328,31.6200008392334,31.229999542236328,13000.0,31.178760528564453
2019-01-04,32.2599983215332,31.649999618530273,31.790000915527344,32.2599983215332,8800.0,32.207069396972656
2019-01-07,32.7599983215332,32.25,32.25,32.62799835205078,15900.0,32.574466705322266
2019-01-08,33.007999420166016,32.689998626708984,32.77000045776367,33.0,5800.0,32.945858001708984
2019-01-09,33.409000396728516,32.724998474121094,33.150001525878906,33.2599983215332,7900.0,33.20542907714844
2019-01-10,33.45899963378906,32.88999938964844,32.88999938964844,33.448001861572266,7700.0,33.393123626708984
2019-01-11,33.57899856567383,33.255001068115234,33.36000061035156,33.53300094604492,6400.0,33.47798538208008
2019-01-14,33.5,33.35900115966797,33.5,33.369998931884766,8600.0,33.315250396728516
2019-01-15,33.560001373291016,33.380001068115234,33.529998779296875,33.560001373291016,11800.0,33.504940032958984
2019-01-16,33.82500076293945,33.729000091552734,33.797000885009766,33.77000045776367,2200.0,33.714595794677734
2019-01-17,34.099998474121094,33.779998779296875,33.779998779296875,33.98099899291992,1000.0,33.92524719238281
2019-01-18,34.599998474121094,34.275001525878906,34.31999969482422,34.566001892089844,3600.0,34.5092887878418
2019-01-22,34.47999954223633,33.93199920654297,34.47999954223633,33.933998107910156,4400.0,33.87832260131836
2019-01-23,34.2130012512207,33.720001220703125,34.2130012512207,33.972999572753906,4600.0,33.917259216308594
2019-01-24,34.279998779296875,34.06999969482422,34.06999969482422,34.25400161743164,2400.0,34.19780349731445
2019-01-25,34.599998474121094,34.59000015258789,34.599998474121094,34.59000015258789,200.0,34.53324890136719
2019-01-28,34.439998626708984,34.31999969482422,34.33000183105469,34.362998962402344,2700.0,34.30662155151367
2019-01-29,34.41999816894531,34.354000091552734,34.388999938964844,34.354000091552734,10900.0,34.297637939453125
2019-01-30,34.84000015258789,34.18000030517578,34.18000030517578,34.7859992980957,15200.0,34.72892761230469
2019-01-31,35.10599899291992,34.900001525878906,34.900001525878906,35.10599899291992,9300.0,35.04840087890625
2019-02-01,35.38999938964844,35.04999923706055,35.36000061035156,35.38999938964844,7800.0,35.33193588256836
2019-02-04,35.44900131225586,35.16999816894531,35.29999923706055,35.44900131225586,8400.0,35.39084243774414
2019-02-05,35.650001525878906,35.58000183105469,35.650001525878906,35.641998291015625,22300.0,35.58352279663086
2019-02-06,35.84000015258789,35.68899917602539,35.75,35.72600173950195,4300.0,35.66738510131836
2019-02-07,35.59000015258789,35.279998779296875,35.56999969482422,35.49700164794922,7900.0,35.43876266479492
2019-02-08,35.52299880981445,35.33000183105469,35.380001068115234,35.52299880981445,3700.0,35.464717864990234
2019-02-11,35.78200149536133,35.529998779296875,35.529998779296875,35.7599983215332,2500.0,35.70132827758789
2019-02-12,36.2599983215332,36.11000061035156,36.130001068115234,36.18899917602539,17400.0,36.12962341308594
2019-02-13,36.650001525878906,36.20000076293945,36.650001525878906,36.2859992980957,8000.0,36.22646713256836
2019-02-14,36.332000732421875,36.23500061035156,36.310001373291016,36.25400161743164,5800.0,36.19451904296875
2019-02-15,36.599998474121094,36.499000549316406,36.58000183105469,36.599998474121094,3400.0,36.53995132446289
2019-02-19,36.72999954223633,36.2400016784668,36.599998474121094,36.66699981689453,22800.0,36.606842041015625
2019-02-20,37.040000915527344,36.74700164794922,37.040000915527344,36.79199981689453,5900.0,36.73163604736328
2019-02-21,36.810001373291016,36.60100173950195,36.720001220703125,36.74100112915039,5400.0,36.680721282958984
2019-02-22,37.04999923706055,36.86600112915039,37.04999923706055,37.03099822998047,5700.0,36.97024154663086
2019-02-25,37.470001220703125,37.10499954223633,37.33000183105469,37.10499954223633,3900.0,37.04412078857422
2019-02-26,37.09000015258789,36.880001068115234,36.880001068115234,36.9370002746582,2400.0,36.876399993896484
2019-02-27,37.06700134277344,36.81700134277344,36.81700134277344,37.058998107910156,2300.0,36.99819564819336
2019-02-28,37.02000045776367,36.981998443603516,37.000999450683594,36.981998443603516,600.0,36.921321868896484
2019-03-01,37.18899917602539,37.06999969482422,37.06999969482422,37.18899917602539,1000.0,37.12798309326172
2019-03-04,37.29999923706055,36.85499954223633,37.13999938964844,36.93199920654297,3700.0,36.87140655517578
2019-03-05,36.970001220703125,36.869998931884766,36.95000076293945,36.89500045776367,4900.0,36.834468841552734
2019-03-06,36.89899826049805,36.529998779296875,36.86000061035156,36.551998138427734,2300.0,36.492027282714844
2019-03-07,36.86000061035156,36.16999816894531,36.86000061035156,36.24300003051758,6500.0,36.183536529541016
2019-03-08,36.22999954223633,35.98500061035156,36.0099983215332,36.22999954223633,16700.0,36.17055892944336
2019-03-11,36.72800064086914,36.42499923706055,36.42499923706055,36.72800064086914,6100.0,36.66774368286133
2019-03-12,36.90999984741211,36.709999084472656,36.84000015258789,36.814998626708984,2300.0,36.75459671020508
2019-03-13,37.13999938964844,36.98400115966797,37.02000045776367,36.98400115966797,1700.0,36.92332077026367
2019-03-14,36.957000732421875,36.88999938964844,36.88999938964844,36.91899871826172,6600.0,36.85842514038086
2019-03-15,37.09400177001953,37.06100082397461,37.09000015258789,37.06100082397461,1000.0,37.00019454956055
2019-03-18,37.22999954223633,36.83000183105469,36.83000183105469,37.220001220703125,4100.0,37.158935546875
2019-03-19,37.52000045776367,37.137001037597656,37.52000045776367,37.191001892089844,4700.0,37.129981994628906
2019-03-20,37.16999816894531,36.779998779296875,37.0,36.99800109863281,8400.0,36.93729782104492
2019-03-21,37.59000015258789,37.189998626708984,37.189998626708984,37.529998779296875,6800.0,37.46842575073242
2019-03-22,37.369998931884766,36.599998474121094,37.369998931884766,36.599998474121094,2700.0,36.53995132446289
2019-03-25,36.619998931884766,36.3489990234375,36.599998474121094,36.56999969482422,3600.0,36.5099983215332
2019-03-26,36.91999816894531,36.66600036621094,36.869998931884766,36.78099822998047,3300.0,36.78099822998047
2019-03-27,36.70000076293945,36.69499969482422,36.69900131225586,36.69499969482422,600.0,36.69499969482422
2019-03-28,36.9739990234375,36.72100067138672,36.9739990234375,36.93000030517578,1100.0,36.93000030517578
2019-03-29,37.14099884033203,37.02000045776367,37.02000045776367,37.14099884033203,1400.0,37.14099884033203
2019-04-01,37.86000061035156,37.45000076293945,37.86000061035156,37.676998138427734,4500.0,37.676998138427734
2019-04-02,37.869998931884766,37.59000015258789,37.869998931884766,37.65999984741211,8400.0,37.65999984741211
2019-04-03,38.029998779296875,37.88999938964844,37.88999938964844,37.928001403808594,1900.0,37.928001403808594
2019-04-04,38.0,37.95600128173828,38.0,37.97200012207031,2000.0,37.97200012207031
2019-04-05,38.310001373291016,38.0,38.0,38.20199966430664,5700.0,38.20199966430664
2019-04-08,38.250999450683594,38.06999969482422,38.20000076293945,38.250999450683594,8400.0,38.250999450683594
2019-04-09,38.2599983215332,37.869998931884766,38.2599983215332,37.95100021362305,2500.0,37.95100021362305
2019-04-10,38.242000579833984,38.029998779296875,38.029998779296875,38.242000579833984,3400.0,38.242000579833984
2019-04-11,38.45000076293945,38.198001861572266,38.45000076293945,38.23099899291992,70300.0,38.23099899291992
2019-04-12,38.45000076293945,38.310001373291016,38.439998626708984,38.422000885009766,31600.0,38.422000885009766
2019-04-15,38.54999923706055,38.310001373291016,38.54999923706055,38.38399887084961,14800.0,38.38399887084961
2019-04-16,38.59000015258789,38.32400131225586,38.59000015258789,38.32400131225586,5200.0,38.32400131225586
2019-04-17,38.29999923706055,38.0099983215332,38.29999923706055,38.04999923706055,1400.0,38.04999923706055
2019-04-18,38.15999984741211,37.959999084472656,37.959999084472656,38.11899948120117,1000.0,38.11899948120117
2019-04-22,38.15999984741211,37.93000030517578,38.15999984741211,37.96900177001953,13100.0,37.96900177001953
2019-04-23,38.48500061035156,37.970001220703125,38.15999984741211,38.41699981689453,17500.0,38.41699981689453
2019-04-24,39.0,38.41400146484375,39.0,38.5989990234375,12700.0,38.5989990234375
2019-04-25,38.540000915527344,38.25,38.540000915527344,38.37300109863281,4400.0,38.37300109863281
2019-04-26,38.64799880981445,38.290000915527344,38.439998626708984,38.630001068115234,4700.0,38.630001068115234
2019-04-29,38.720001220703125,38.62300109863281,38.709999084472656,38.62300109863281,8000.0,38.62300109863281
2019-04-30,38.70800018310547,38.54999923706055,38.63399887084961,38.70800018310547,8100.0,38.70800018310547
2019-05-01,38.88999938964844,38.375,38.88999938964844,38.375,20100.0,38.375
2019-05-02,38.560001373291016,38.279998779296875,38.560001373291016,38.50199890136719,3300.0,38.50199890136719
2019-05-03,38.922000885009766,38.70100021362305,38.70100021362305,38.922000885009766,2300.0,38.922000885009766
2019-05-06,38.810001373291016,38.400001525878906,38.47999954223633,38.71900177001953,2500.0,38.71900177001953
2019-05-07,38.709999084472656,37.849998474121094,38.709999084472656,38.0880012512207,20600.0,38.0880012512207
2019-05-08,39.15999984741211,38.0,39.15999984741211,38.0,3300.0,38.0
2019-05-09,37.957000732421875,37.4900016784668,37.7400016784668,37.957000732421875,29100.0,37.957000732421875
2019-05-10,38.470001220703125,37.470001220703125,37.880001068115234,38.470001220703125,6400.0,38.470001220703125
2019-05-13,37.849998474121094,36.95000076293945,37.849998474121094,37.042999267578125,8200.0,37.042999267578125
2019-05-14,37.540000915527344,37.15999984741211,37.15999984741211,37.439998626708984,4800.0,37.439998626708984
2019-05-15,37.630001068115234,37.23500061035156,37.2599983215332,37.53799819946289,6500.0,37.53799819946289
2019-05-16,37.95500183105469,37.63999938964844,37.650001525878906,37.766998291015625,4600.0,37.766998291015625
2019-05-17,37.72999954223633,37.43899917602539,37.505001068115234,37.43899917602539,3000.0,37.43899917602539
2019-05-20,37.68000030517578,37.029998779296875,37.68000030517578,37.47999954223633,8100.0,37.47999954223633
2019-05-21,37.70000076293945,37.5,37.70000076293945,37.59000015258789,30900.0,37.59000015258789
2019-05-22,37.4900016784668,37.380001068115234,37.47999954223633,37.39500045776367,3800.0,37.39500045776367
2019-05-23,37.13999938964844,36.66999816894531,37.13999938964844,36.880001068115234,5300.0,36.880001068115234
2019-05-24,37.06999969482422,37.0,37.04999923706055,37.0,400.0,37.0
