Date,High,Low,Open,Close,Volume,Adj Close
2015-10-27,19.360000610351562,18.0,19.020000457763672,18.0,1100,18.0
2015-10-28,18.0,18.0,18.0,18.0,0,18.0
2015-10-29,18.0,18.0,18.0,18.0,0,18.0
2015-10-30,18.0,18.0,18.0,18.0,0,18.0
2015-11-02,18.670000076293945,18.010000228881836,18.670000076293945,18.010000228881836,500,18.010000228881836
2015-11-03,19.0,18.200000762939453,18.8700008392334,18.200000762939453,15500,18.200000762939453
2015-11-04,18.200000762939453,14.649999618530273,18.0,15.369999885559082,1774900,15.369999885559082
2015-11-05,15.220000267028809,13.6899995803833,14.90999984741211,13.90999984741211,1404500,13.90999984741211
2015-11-06,14.8100004196167,13.899999618530273,13.90999984741211,14.710000038146973,1047700,14.710000038146973
2015-11-09,14.710000038146973,14.710000038146973,14.710000038146973,14.710000038146973,0,14.710000038146973
2015-11-10,17.81999969482422,16.3799991607666,16.450000762939453,16.8799991607666,889900,16.8799991607666
2015-11-11,18.729999542236328,16.799999237060547,16.809999465942383,18.139999389648438,648700,18.139999389648438
2015-11-12,18.270000457763672,17.649999618530273,17.780000686645508,18.209999084472656,255500,18.209999084472656
2015-11-13,18.899999618530273,16.579999923706055,17.81999969482422,17.15999984741211,446000,17.15999984741211
2015-11-16,17.530000686645508,16.969999313354492,17.100000381469727,17.399999618530273,204100,17.399999618530273
2015-11-17,17.649999618530273,16.420000076293945,17.309999465942383,16.56999969482422,268600,16.56999969482422
2015-11-18,16.850000381469727,15.84000015258789,16.760000228881836,16.670000076293945,301100,16.670000076293945
2015-11-19,16.989999771118164,15.0600004196167,16.350000381469727,16.270000457763672,264900,16.270000457763672
2015-11-20,16.68000030517578,15.520000457763672,16.479999542236328,16.25,492700,16.25
2015-11-23,16.549999237060547,15.960000038146973,16.149999618530273,16.309999465942383,154000,16.309999465942383
2015-11-24,16.56999969482422,15.989999771118164,16.290000915527344,16.31999969482422,187800,16.31999969482422
2015-11-25,16.420000076293945,15.84000015258789,16.350000381469727,16.010000228881836,222500,16.010000228881836
2015-11-27,16.31999969482422,15.75,15.75,16.040000915527344,95100,16.040000915527344
2015-11-30,16.6299991607666,15.989999771118164,16.420000076293945,16.3700008392334,341700,16.3700008392334
2015-12-01,16.889999389648438,16.100000381469727,16.479999542236328,16.440000534057617,258100,16.440000534057617
2015-12-02,16.959999084472656,15.770000457763672,16.65999984741211,15.920000076293945,163600,15.920000076293945
2015-12-03,16.520000457763672,15.960000038146973,16.100000381469727,16.389999389648438,93500,16.389999389648438
2015-12-04,16.59000015258789,16.1299991607666,16.15999984741211,16.510000228881836,110400,16.510000228881836
2015-12-07,16.770000457763672,15.180000305175781,16.350000381469727,15.289999961853027,155200,15.289999961853027
2015-12-08,15.720000267028809,15.0,15.510000228881836,15.119999885559082,131500,15.119999885559082
2015-12-09,15.859999656677246,14.989999771118164,15.470000267028809,15.25,131400,15.25
2015-12-10,15.40999984741211,14.75,15.170000076293945,15.180000305175781,140100,15.180000305175781
2015-12-11,14.9399995803833,13.859999656677246,14.5600004196167,13.930000305175781,228300,13.930000305175781
2015-12-14,14.760000228881836,13.289999961853027,13.979999542236328,13.479999542236328,295600,13.479999542236328
2015-12-15,14.170000076293945,13.600000381469727,13.600000381469727,13.819999694824219,312500,13.819999694824219
2015-12-16,14.819999694824219,13.760000228881836,13.899999618530273,14.529999732971191,170300,14.529999732971191
2015-12-17,14.520000457763672,13.65999984741211,14.520000457763672,13.970000267028809,383700,13.970000267028809
2015-12-18,14.489999771118164,13.420000076293945,13.949999809265137,14.130000114440918,856500,14.130000114440918
2015-12-21,14.800000190734863,13.920000076293945,14.239999771118164,14.550000190734863,279300,14.550000190734863
2015-12-22,15.569999694824219,14.350000381469727,14.5,15.539999961853027,145400,15.539999961853027
2015-12-23,16.100000381469727,15.489999771118164,15.699999809265137,16.040000915527344,117100,16.040000915527344
2015-12-24,16.0,15.5600004196167,15.960000038146973,15.789999961853027,34100,15.789999961853027
2015-12-28,16.059999465942383,15.350000381469727,15.770000457763672,15.640000343322754,319700,15.640000343322754
2015-12-29,16.079999923706055,15.65999984741211,15.760000228881836,15.989999771118164,572600,15.989999771118164
2015-12-30,16.25,15.829999923706055,16.049999237060547,16.020000457763672,199700,16.020000457763672
2015-12-31,16.145000457763672,15.579999923706055,15.979999542236328,16.049999237060547,192900,16.049999237060547
2016-01-04,16.479999542236328,15.140000343322754,15.9399995803833,16.40999984741211,222400,16.40999984741211
2016-01-05,16.46500015258789,15.699999809265137,16.459999084472656,16.3700008392334,283700,16.3700008392334
2016-01-06,16.389999389648438,15.850000381469727,16.15999984741211,16.219999313354492,334300,16.219999313354492
2016-01-07,16.989999771118164,15.899999618530273,15.970000267028809,16.329999923706055,260600,16.329999923706055
2016-01-08,16.770000457763672,16.1299991607666,16.510000228881836,16.3700008392334,589200,16.3700008392334
2016-01-11,16.790000915527344,15.220000267028809,16.540000915527344,15.25,168100,15.25
2016-01-12,15.869999885559082,14.420000076293945,15.5,14.75,337000,14.75
2016-01-13,15.114999771118164,14.0,14.75,14.069999694824219,271500,14.069999694824219
2016-01-14,15.539999961853027,13.899999618530273,14.140000343322754,15.100000381469727,312700,15.100000381469727
2016-01-15,15.010000228881836,14.079999923706055,14.65999984741211,14.15999984741211,318100,14.15999984741211
2016-01-19,14.270000457763672,13.100000381469727,14.270000457763672,13.859999656677246,226400,13.859999656677246
2016-01-20,13.75,12.609999656677246,13.600000381469727,13.5,250800,13.5
2016-01-21,14.289999961853027,13.359999656677246,13.380000114440918,14.170000076293945,200300,14.170000076293945
2016-01-22,16.100000381469727,14.460000038146973,14.470000267028809,15.15999984741211,332800,15.15999984741211
2016-01-25,15.539999961853027,14.630000114440918,14.970000267028809,14.800000190734863,269700,14.800000190734863
2016-01-26,15.1899995803833,14.710000038146973,14.9399995803833,15.130000114440918,200800,15.130000114440918
2016-01-27,15.697999954223633,14.930000305175781,14.9399995803833,15.050000190734863,188100,15.050000190734863
2016-01-28,15.869999885559082,14.9399995803833,15.4399995803833,15.140000343322754,99600,15.140000343322754
2016-01-29,16.59000015258789,15.079999923706055,15.079999923706055,16.520000457763672,261300,16.520000457763672
2016-02-01,16.450000762939453,15.380000114440918,16.149999618530273,15.489999771118164,176400,15.489999771118164
2016-02-02,15.270000457763672,14.430000305175781,15.069999694824219,14.529999732971191,164600,14.529999732971191
2016-02-03,15.180000305175781,14.130000114440918,14.920000076293945,14.489999771118164,341400,14.489999771118164
2016-02-04,15.25,14.489999771118164,14.569999694824219,14.880000114440918,174300,14.880000114440918
2016-02-05,15.4399995803833,14.65999984741211,14.65999984741211,14.779999732971191,155700,14.779999732971191
2016-02-08,15.199999809265137,14.399999618530273,14.520000457763672,14.90999984741211,129400,14.90999984741211
2016-02-09,14.770000457763672,13.020000457763672,14.5600004196167,13.960000038146973,181100,13.960000038146973
2016-02-10,14.07800006866455,13.710000038146973,13.829999923706055,13.869999885559082,88500,13.869999885559082
2016-02-11,13.729999542236328,13.1899995803833,13.729999542236328,13.369999885559082,131000,13.369999885559082
2016-02-12,13.880000114440918,13.380000114440918,13.380000114440918,13.59000015258789,96400,13.59000015258789
2016-02-16,14.100000381469727,13.210000038146973,13.819999694824219,14.029999732971191,149300,14.029999732971191
2016-02-17,14.850000381469727,14.1899995803833,14.220000267028809,14.680000305175781,115800,14.680000305175781
2016-02-18,14.800000190734863,14.1899995803833,14.800000190734863,14.579999923706055,73200,14.579999923706055
2016-02-19,14.630000114440918,14.140000343322754,14.390000343322754,14.470000267028809,102000,14.470000267028809
2016-02-22,15.654999732971191,14.010000228881836,14.720000267028809,14.979999542236328,307900,14.979999542236328
2016-02-23,15.470000267028809,14.229999542236328,14.850000381469727,14.449999809265137,370800,14.449999809265137
2016-02-24,14.699999809265137,13.619999885559082,14.100000381469727,14.479999542236328,178300,14.479999542236328
2016-02-25,14.369999885559082,12.069999694824219,14.369999885559082,13.0,508400,13.0
2016-02-26,13.520000457763672,12.871000289916992,12.899999618530273,13.210000038146973,157700,13.210000038146973
2016-02-29,13.800000190734863,12.699999809265137,13.270000457763672,13.640000343322754,411500,13.640000343322754
2016-03-01,14.819999694824219,13.619999885559082,13.829999923706055,14.260000228881836,598800,14.260000228881836
2016-03-02,14.960000038146973,14.109999656677246,14.199999809265137,14.9399995803833,284000,14.9399995803833
2016-03-03,16.139999389648438,14.699999809265137,14.869999885559082,15.600000381469727,511000,15.600000381469727
2016-03-04,16.450000762939453,14.850000381469727,15.649999618530273,15.460000038146973,378300,15.460000038146973
2016-03-07,15.720000267028809,14.510000228881836,15.520000457763672,15.5,813900,15.5
2016-03-08,15.640000343322754,15.069999694824219,15.34000015258789,15.25,278300,15.25
2016-03-09,16.469999313354492,15.0,15.329999923706055,16.0,272700,16.0
2016-03-10,16.34000015258789,15.319999694824219,15.970000267028809,16.010000228881836,298200,16.010000228881836
2016-03-11,16.90999984741211,16.139999389648438,16.139999389648438,16.899999618530273,123100,16.899999618530273
2016-03-14,16.899999618530273,16.3700008392334,16.649999618530273,16.670000076293945,224100,16.670000076293945
2016-03-15,16.469999313354492,15.829999923706055,16.469999313354492,15.949999809265137,160800,15.949999809265137
2016-03-16,16.280000686645508,15.819999694824219,15.920000076293945,16.020000457763672,193700,16.020000457763672
2016-03-17,16.729999542236328,15.859999656677246,16.18000030517578,16.559999465942383,213100,16.559999465942383
2016-03-18,16.690000534057617,16.040000915527344,16.690000534057617,16.219999313354492,636400,16.219999313354492
2016-03-21,16.549999237060547,15.979999542236328,16.040000915527344,16.520000457763672,130400,16.520000457763672
2016-03-22,16.584999084472656,16.110000610351562,16.389999389648438,16.5,193900,16.5
2016-03-23,16.489999771118164,15.4399995803833,16.270000457763672,15.479999542236328,157200,15.479999542236328
2016-03-24,15.739999771118164,14.449999809265137,15.199999809265137,15.710000038146973,165200,15.710000038146973
2016-03-28,15.930000305175781,15.350000381469727,15.5600004196167,15.720000267028809,141500,15.720000267028809
2016-03-29,16.1200008392334,15.300000190734863,15.460000038146973,15.979999542236328,161500,15.979999542236328
2016-03-30,16.229999542236328,15.5,16.06999969482422,15.819999694824219,92400,15.819999694824219
2016-03-31,15.930000305175781,15.229999542236328,15.6899995803833,15.460000038146973,155300,15.460000038146973
2016-04-01,15.260000228881836,14.84000015258789,15.220000267028809,15.079999923706055,169800,15.079999923706055
2016-04-04,15.989999771118164,14.90999984741211,15.010000228881836,15.260000228881836,179000,15.260000228881836
2016-04-05,15.1899995803833,14.300000190734863,15.09000015258789,14.510000228881836,260200,14.510000228881836
2016-04-06,14.670000076293945,13.930000305175781,14.569999694824219,14.4399995803833,161200,14.4399995803833
2016-04-07,14.779999732971191,13.960000038146973,14.380000114440918,14.140000343322754,433500,14.140000343322754
2016-04-08,14.819999694824219,14.194999694824219,14.40999984741211,14.390000343322754,225600,14.390000343322754
2016-04-11,15.239999771118164,14.390000343322754,14.390000343322754,15.119999885559082,147400,15.119999885559082
2016-04-12,15.90999984741211,14.789999961853027,15.100000381469727,15.220000267028809,211300,15.220000267028809
2016-04-13,16.09000015258789,15.25,15.289999961853027,15.640000343322754,130700,15.640000343322754
2016-04-14,15.899999618530273,15.369999885559082,15.65999984741211,15.430000305175781,95700,15.430000305175781
2016-04-15,15.529999732971191,15.0600004196167,15.40999984741211,15.199999809265137,132500,15.199999809265137
2016-04-18,16.389999389648438,14.979999542236328,14.979999542236328,16.049999237060547,115000,16.049999237060547
2016-04-19,16.770000457763672,16.0,16.209999084472656,16.329999923706055,141900,16.329999923706055
2016-04-20,16.950000762939453,16.110000610351562,16.190000534057617,16.459999084472656,89400,16.459999084472656
2016-04-21,16.469999313354492,15.8100004196167,16.469999313354492,16.170000076293945,128300,16.170000076293945
2016-04-22,17.0,16.170000076293945,16.170000076293945,16.959999084472656,147300,16.959999084472656
2016-04-25,16.889999389648438,15.9399995803833,16.850000381469727,16.309999465942383,295800,16.309999465942383
2016-04-26,16.670000076293945,15.8100004196167,16.3799991607666,16.399999618530273,154300,16.399999618530273
2016-04-27,17.1299991607666,16.34000015258789,16.43000030517578,16.360000610351562,126700,16.360000610351562
2016-04-28,16.110000610351562,14.300000190734863,16.110000610351562,15.010000228881836,266800,15.010000228881836
2016-04-29,15.6899995803833,14.789999961853027,14.789999961853027,15.300000190734863,319500,15.300000190734863
2016-05-02,15.84000015258789,15.1899995803833,15.300000190734863,15.380000114440918,296200,15.380000114440918
2016-05-03,15.600000381469727,14.859999656677246,15.220000267028809,15.1899995803833,156200,15.1899995803833
2016-05-04,15.579999923706055,15.03499984741211,15.130000114440918,15.119999885559082,101900,15.119999885559082
2016-05-05,15.630000114440918,14.5600004196167,15.319999694824219,14.619999885559082,131200,14.619999885559082
2016-05-06,15.199999809265137,14.579999923706055,14.579999923706055,15.020000457763672,270600,15.020000457763672
2016-05-09,14.899999618530273,13.90999984741211,14.899999618530273,13.920000076293945,169100,13.920000076293945
2016-05-10,14.329999923706055,13.918000221252441,14.119999885559082,14.279999732971191,85100,14.279999732971191
2016-05-11,14.3100004196167,13.739999771118164,14.279999732971191,13.770000457763672,195700,13.770000457763672
2016-05-12,14.0600004196167,13.609999656677246,13.930000305175781,13.930000305175781,101900,13.930000305175781
2016-05-13,14.329999923706055,13.5600004196167,13.819999694824219,13.760000228881836,161600,13.760000228881836
2016-05-16,14.289999961853027,13.779999732971191,13.9399995803833,13.789999961853027,179600,13.789999961853027
2016-05-17,14.510000228881836,13.770000457763672,13.789999961853027,13.9399995803833,166300,13.9399995803833
2016-05-18,13.930000305175781,13.34000015258789,13.859999656677246,13.479999542236328,116500,13.479999542236328
2016-05-19,13.520000457763672,12.835000038146973,13.329999923706055,12.850000381469727,148800,12.850000381469727
2016-05-20,13.380000114440918,12.789999961853027,12.970000267028809,13.109999656677246,163500,13.109999656677246
2016-05-23,13.1899995803833,12.6899995803833,13.020000457763672,13.010000228881836,183600,13.010000228881836
2016-05-24,13.140000343322754,12.550000190734863,13.029999732971191,12.649999618530273,320700,12.649999618530273
2016-05-25,13.25,12.725000381469727,12.729999542236328,13.199999809265137,181200,13.199999809265137
2016-05-26,13.369999885559082,12.699999809265137,13.260000228881836,12.75,96600,12.75
2016-05-27,12.819999694824219,12.460000038146973,12.739999771118164,12.680000305175781,81200,12.680000305175781
2016-05-31,13.149999618530273,12.373000144958496,12.739999771118164,12.529999732971191,192700,12.529999732971191
2016-06-01,12.489999771118164,11.680000305175781,12.40999984741211,12.329999923706055,259600,12.329999923706055
2016-06-02,12.4399995803833,11.65999984741211,12.239999771118164,12.350000381469727,193800,12.350000381469727
2016-06-03,13.0649995803833,12.38599967956543,12.479999542236328,12.630000114440918,243600,12.630000114440918
2016-06-06,13.199999809265137,12.670000076293945,12.680000305175781,13.020000457763672,252300,13.020000457763672
2016-06-07,13.225000381469727,12.949999809265137,13.050000190734863,13.079999923706055,152500,13.079999923706055
2016-06-08,13.600000381469727,12.819999694824219,13.180000305175781,13.109999656677246,167300,13.109999656677246
2016-06-09,12.977999687194824,12.720000267028809,12.920000076293945,12.789999961853027,87900,12.789999961853027
2016-06-10,12.6899995803833,12.399999618530273,12.550000190734863,12.479999542236328,129400,12.479999542236328
2016-06-13,12.470000267028809,12.050000190734863,12.289999961853027,12.069999694824219,171300,12.069999694824219
2016-06-14,12.270000457763672,11.949999809265137,12.0,12.130000114440918,178700,12.130000114440918
2016-06-15,12.625,11.789999961853027,12.109999656677246,11.979999542236328,170000,11.979999542236328
2016-06-16,11.829999923706055,11.380000114440918,11.829999923706055,11.5600004196167,116200,11.5600004196167
2016-06-17,12.170000076293945,11.479999542236328,11.600000381469727,12.069999694824219,382800,12.069999694824219
2016-06-20,12.569999694824219,11.800000190734863,12.270000457763672,11.850000381469727,187100,11.850000381469727
2016-06-21,12.0,11.380000114440918,11.819999694824219,11.739999771118164,75000,11.739999771118164
2016-06-22,11.8100004196167,11.008000373840332,11.6899995803833,11.350000381469727,247700,11.350000381469727
2016-06-23,11.8100004196167,11.260000228881836,11.5,11.789999961853027,181300,11.789999961853027
2016-06-24,11.470000267028809,10.829999923706055,11.329999923706055,11.470000267028809,483900,11.470000267028809
2016-06-27,11.640000343322754,11.350000381469727,11.470000267028809,11.59000015258789,256900,11.59000015258789
2016-06-28,12.0600004196167,11.649999618530273,11.779999732971191,11.930000305175781,327400,11.930000305175781
2016-06-29,12.670000076293945,12.029999732971191,12.15999984741211,12.229999542236328,291900,12.229999542236328
2016-06-30,12.869999885559082,12.210000038146973,12.3100004196167,12.850000381469727,287600,12.850000381469727
2016-07-01,13.539999961853027,12.789999961853027,12.789999961853027,13.510000228881836,163100,13.510000228881836
2016-07-05,13.274999618530273,12.5,13.229999542236328,12.84000015258789,187100,12.84000015258789
2016-07-06,12.979999542236328,12.40999984741211,12.699999809265137,12.739999771118164,222100,12.739999771118164
2016-07-07,13.119999885559082,12.75,12.75,13.039999961853027,216800,13.039999961853027
2016-07-08,13.819999694824219,13.180000305175781,13.239999771118164,13.579999923706055,162100,13.579999923706055
2016-07-11,13.850000381469727,13.489999771118164,13.720000267028809,13.649999618530273,184800,13.649999618530273
2016-07-12,14.539999961853027,13.779999732971191,13.779999732971191,14.229999542236328,120900,14.229999542236328
2016-07-13,14.289999961853027,13.6899995803833,14.289999961853027,13.899999618530273,185200,13.899999618530273
2016-07-14,14.239999771118164,13.90999984741211,14.050000190734863,13.989999771118164,105900,13.989999771118164
2016-07-15,14.149999618530273,13.779999732971191,14.149999618530273,13.9399995803833,84300,13.9399995803833
2016-07-18,13.949999809265137,13.520000457763672,13.949999809265137,13.800000190734863,65000,13.800000190734863
2016-07-19,13.699999809265137,13.109999656677246,13.699999809265137,13.140000343322754,162100,13.140000343322754
2016-07-20,13.229999542236328,12.670000076293945,13.069999694824219,13.109999656677246,88900,13.109999656677246
2016-07-21,13.460000038146973,13.09000015258789,13.09000015258789,13.199999809265137,90900,13.199999809265137
2016-07-22,13.789999961853027,13.100000381469727,13.25,13.710000038146973,129700,13.710000038146973
2016-07-25,13.770000457763672,13.119999885559082,13.680000305175781,13.170000076293945,121400,13.170000076293945
2016-07-26,13.484999656677246,13.0,13.170000076293945,13.09000015258789,60500,13.09000015258789
2016-07-27,13.239999771118164,12.930000305175781,13.140000343322754,13.180000305175781,111300,13.180000305175781
2016-07-28,13.170000076293945,12.890000343322754,13.170000076293945,12.90999984741211,91600,12.90999984741211
2016-07-29,12.960000038146973,12.569999694824219,12.9399995803833,12.720000267028809,139300,12.720000267028809
2016-08-01,12.760000228881836,12.319999694824219,12.640000343322754,12.369999885559082,113500,12.369999885559082
2016-08-02,12.4399995803833,11.869999885559082,12.4399995803833,12.180000305175781,170800,12.180000305175781
2016-08-03,12.569999694824219,12.029999732971191,12.119999885559082,12.569999694824219,185700,12.569999694824219
2016-08-04,12.800000190734863,12.470000267028809,12.5,12.550000190734863,99000,12.550000190734863
2016-08-05,12.90999984741211,12.300000190734863,12.579999923706055,12.829999923706055,213900,12.829999923706055
2016-08-08,13.5600004196167,12.75,12.949999809265137,13.539999961853027,89000,13.539999961853027
2016-08-09,13.880000114440918,13.430000305175781,13.619999885559082,13.869999885559082,109000,13.869999885559082
2016-08-10,14.4399995803833,13.460000038146973,13.899999618530273,13.520000457763672,78300,13.520000457763672
2016-08-11,14.010000228881836,13.57699966430664,13.65999984741211,13.899999618530273,68800,13.899999618530273
2016-08-12,13.920000076293945,13.390000343322754,13.850000381469727,13.680000305175781,67100,13.680000305175781
2016-08-15,14.010000228881836,13.680000305175781,13.710000038146973,13.979999542236328,56300,13.979999542236328
2016-08-16,14.050000190734863,13.571000099182129,14.050000190734863,13.920000076293945,80400,13.920000076293945
2016-08-17,14.5600004196167,13.90999984741211,13.949999809265137,14.539999961853027,124000,14.539999961853027
2016-08-18,14.880000114440918,14.479999542236328,14.600000381469727,14.819999694824219,70300,14.819999694824219
2016-08-19,14.800000190734863,14.199999809265137,14.800000190734863,14.550000190734863,89500,14.550000190734863
2016-08-22,14.609999656677246,14.116999626159668,14.609999656677246,14.460000038146973,34900,14.460000038146973
2016-08-23,14.960000038146973,14.539999961853027,14.539999961853027,14.779999732971191,43900,14.779999732971191
2016-08-24,14.78499984741211,14.28499984741211,14.649999618530273,14.579999923706055,212000,14.579999923706055
2016-08-25,14.800000190734863,14.119999885559082,14.489999771118164,14.630000114440918,62300,14.630000114440918
2016-08-26,14.949999809265137,14.5,14.65999984741211,14.619999885559082,58600,14.619999885559082
2016-08-29,14.710000038146973,14.289999961853027,14.630000114440918,14.380000114440918,58400,14.380000114440918
2016-08-30,14.659000396728516,14.239999771118164,14.329999923706055,14.25,63800,14.25
2016-08-31,14.640000343322754,13.920000076293945,14.119999885559082,14.130000114440918,148100,14.130000114440918
2016-09-01,14.5,14.0,14.119999885559082,14.34000015258789,69400,14.34000015258789
2016-09-02,14.699999809265137,14.039999961853027,14.380000114440918,14.649999618530273,96900,14.649999618530273
2016-09-06,15.0,14.260000228881836,14.720000267028809,14.979999542236328,90900,14.979999542236328
2016-09-07,15.510000228881836,14.845000267028809,15.0,15.4399995803833,111400,15.4399995803833
2016-09-08,15.569999694824219,15.010000228881836,15.4399995803833,15.270000457763672,98100,15.270000457763672
2016-09-09,15.449999809265137,14.229999542236328,14.970000267028809,14.25,141700,14.25
2016-09-12,14.369999885559082,13.6899995803833,13.880000114440918,13.819999694824219,172400,13.819999694824219
2016-09-13,13.819999694824219,13.09000015258789,13.640000343322754,13.380000114440918,169000,13.380000114440918
2016-09-14,13.579999923706055,12.829999923706055,13.34000015258789,13.029999732971191,157200,13.029999732971191
2016-09-15,13.390000343322754,12.729999542236328,13.069999694824219,13.210000038146973,118100,13.210000038146973
2016-09-16,13.600000381469727,13.130000114440918,13.140000343322754,13.329999923706055,839700,13.329999923706055
2016-09-19,14.130000114440918,13.619999885559082,13.760000228881836,13.640000343322754,94000,13.640000343322754
2016-09-20,13.699999809265137,13.28499984741211,13.699999809265137,13.399999618530273,72800,13.399999618530273
2016-09-21,14.239999771118164,13.5600004196167,13.5600004196167,14.140000343322754,83600,14.140000343322754
2016-09-22,14.899999618530273,14.359999656677246,14.359999656677246,14.880000114440918,87000,14.880000114440918
2016-09-23,14.869999885559082,14.34000015258789,14.800000190734863,14.479999542236328,137900,14.479999542236328
2016-09-26,14.529999732971191,14.199999809265137,14.489999771118164,14.239999771118164,80600,14.239999771118164
2016-09-27,14.260000228881836,13.970000267028809,14.210000038146973,14.15999984741211,94500,14.15999984741211
2016-09-28,15.260000228881836,14.130000114440918,14.130000114440918,15.180000305175781,127300,15.180000305175781
2016-09-29,15.84000015258789,14.930000305175781,15.199999809265137,14.960000038146973,96900,14.960000038146973
2016-09-30,15.899999618530273,14.739999771118164,15.09000015258789,15.680000305175781,137200,15.680000305175781
2016-10-03,16.18000030517578,15.5600004196167,15.729999542236328,16.100000381469727,111700,16.100000381469727
2016-10-04,16.40999984741211,15.944999694824219,16.1200008392334,16.149999618530273,155700,16.149999618530273
2016-10-05,16.889999389648438,15.781000137329102,16.34000015258789,16.31999969482422,100300,16.31999969482422
2016-10-06,16.459999084472656,16.0,16.299999237060547,16.100000381469727,113300,16.100000381469727
2016-10-07,16.389999389648438,15.880000114440918,16.18000030517578,15.979999542236328,73700,15.979999542236328
2016-10-10,16.90999984741211,16.18000030517578,16.18000030517578,16.780000686645508,97700,16.780000686645508
2016-10-11,17.0,16.270000457763672,16.719999313354492,16.540000915527344,149200,16.540000915527344
2016-10-12,16.75,16.260000228881836,16.520000457763672,16.459999084472656,78600,16.459999084472656
2016-10-13,16.760000228881836,16.049999237060547,16.31999969482422,16.540000915527344,129900,16.540000915527344
2016-10-14,16.795000076293945,16.100000381469727,16.670000076293945,16.200000762939453,118500,16.200000762939453
2016-10-17,16.704999923706055,16.079999923706055,16.209999084472656,16.43000030517578,68700,16.43000030517578
2016-10-18,16.81999969482422,16.229999542236328,16.729999542236328,16.600000381469727,234500,16.600000381469727
2016-10-19,17.360000610351562,16.43000030517578,16.6200008392334,17.059999465942383,167100,17.059999465942383
2016-10-20,17.030000686645508,16.559999465942383,16.920000076293945,16.84000015258789,94400,16.84000015258789
2016-10-21,17.25,16.520000457763672,16.520000457763672,16.969999313354492,46000,16.969999313354492
2016-10-24,17.75,16.84000015258789,17.049999237060547,17.229999542236328,110400,17.229999542236328
2016-10-25,17.420000076293945,16.770000457763672,17.270000457763672,16.940000534057617,78400,16.940000534057617
2016-10-26,17.010000228881836,16.270000457763672,16.75,16.309999465942383,55300,16.309999465942383
2016-10-27,16.357999801635742,15.819999694824219,16.329999923706055,15.890000343322754,102400,15.890000343322754
2016-10-28,16.295000076293945,15.760000228881836,15.930000305175781,15.920000076293945,72000,15.920000076293945
2016-10-31,16.020000457763672,15.420000076293945,15.880000114440918,15.8100004196167,126300,15.8100004196167
2016-11-01,15.90999984741211,15.524999618530273,15.729999542236328,15.729999542236328,108700,15.729999542236328
2016-11-02,15.729999542236328,14.579999923706055,15.729999542236328,14.680000305175781,98800,14.680000305175781
2016-11-03,15.069999694824219,14.520000457763672,14.739999771118164,14.779999732971191,84000,14.779999732971191
2016-11-04,14.869999885559082,14.510000228881836,14.739999771118164,14.680000305175781,97700,14.680000305175781
2016-11-07,15.3100004196167,14.84000015258789,15.09000015258789,15.229999542236328,98400,15.229999542236328
2016-11-08,15.369999885559082,14.710000038146973,15.069999694824219,14.960000038146973,118700,14.960000038146973
2016-11-09,16.270000457763672,14.949999809265137,14.949999809265137,16.200000762939453,109500,16.200000762939453
2016-11-10,16.93000030517578,15.75,16.329999923706055,16.59000015258789,196700,16.59000015258789
2016-11-11,17.65999984741211,16.290000915527344,16.56999969482422,17.40999984741211,193600,17.40999984741211
2016-11-14,17.8700008392334,16.450000762939453,17.65999984741211,17.110000610351562,140400,17.110000610351562
2016-11-15,17.780000686645508,16.579999923706055,16.809999465942383,16.6299991607666,132500,16.6299991607666
2016-11-16,16.709999084472656,16.170000076293945,16.6200008392334,16.690000534057617,107300,16.690000534057617
2016-11-17,17.44499969482422,16.690000534057617,16.690000534057617,16.940000534057617,84700,16.940000534057617
2016-11-18,17.350000381469727,16.920000076293945,17.100000381469727,17.190000534057617,89300,17.190000534057617
2016-11-21,18.280000686645508,17.399999618530273,17.399999618530273,18.270000457763672,78500,18.270000457763672
2016-11-22,18.780000686645508,18.049999237060547,18.25,18.760000228881836,84400,18.760000228881836
2016-11-23,18.780000686645508,18.319000244140625,18.420000076293945,18.739999771118164,75900,18.739999771118164
2016-11-25,18.979999542236328,18.459999084472656,18.93000030517578,18.90999984741211,43200,18.90999984741211
2016-11-28,19.200000762939453,18.299999237060547,18.90999984741211,18.790000915527344,117100,18.790000915527344
2016-11-29,18.889999389648438,18.06999969482422,18.799999237060547,18.670000076293945,170800,18.670000076293945
2016-11-30,20.295000076293945,18.979999542236328,19.110000610351562,20.100000381469727,194100,20.100000381469727
2016-12-01,20.75,19.510000228881836,20.09000015258789,20.389999389648438,141500,20.389999389648438
2016-12-02,20.75,19.950000762939453,20.420000076293945,20.639999389648438,100000,20.639999389648438
2016-12-05,22.09000015258789,20.639999389648438,20.68000030517578,22.040000915527344,152800,22.040000915527344
2016-12-06,22.959999084472656,21.524999618530273,22.049999237060547,22.799999237060547,166400,22.799999237060547
2016-12-07,23.170000076293945,22.5,22.84000015258789,22.969999313354492,110900,22.969999313354492
2016-12-08,24.1299991607666,22.924999237060547,23.139999389648438,24.110000610351562,124300,24.110000610351562
2016-12-09,24.729999542236328,23.899999618530273,24.40999984741211,24.5,141700,24.5
2016-12-12,24.844999313354492,24.09000015258789,24.790000915527344,24.350000381469727,187300,24.350000381469727
2016-12-13,24.73699951171875,23.239999771118164,24.670000076293945,23.979999542236328,141800,23.979999542236328
2016-12-14,24.280000686645508,23.399999618530273,23.959999084472656,23.549999237060547,125600,23.549999237060547
2016-12-15,23.780000686645508,22.34000015258789,22.93000030517578,23.68000030517578,180300,23.68000030517578
2016-12-16,24.049999237060547,23.139999389648438,23.90999984741211,23.450000762939453,476700,23.450000762939453
2016-12-19,23.670000076293945,22.905000686645508,23.3700008392334,23.6200008392334,125500,23.6200008392334
2016-12-20,24.524999618530273,23.850000381469727,23.959999084472656,24.229999542236328,152600,24.229999542236328
2016-12-21,24.719999313354492,24.06999969482422,24.43000030517578,24.40999984741211,85600,24.40999984741211
2016-12-22,24.584999084472656,24.020000457763672,24.350000381469727,24.149999618530273,97100,24.149999618530273
2016-12-23,24.260000228881836,23.391000747680664,24.260000228881836,23.989999771118164,80100,23.989999771118164
2016-12-27,24.3799991607666,23.799999237060547,24.0,24.170000076293945,66600,24.170000076293945
2016-12-28,24.530000686645508,23.260000228881836,24.260000228881836,23.3700008392334,99600,23.3700008392334
2016-12-29,23.799999237060547,23.30500030517578,23.43000030517578,23.770000457763672,84200,23.770000457763672
2016-12-30,24.209999084472656,22.891000747680664,23.790000915527344,23.899999618530273,156700,23.899999618530273
2017-01-03,25.18000030517578,24.1299991607666,24.1299991607666,24.760000228881836,170400,24.760000228881836
2017-01-04,26.350000381469727,24.540000915527344,24.84000015258789,26.18000030517578,144700,26.18000030517578
2017-01-05,26.209999084472656,24.350000381469727,26.209999084472656,24.809999465942383,191100,24.809999465942383
2017-01-06,27.729999542236328,24.719999313354492,25.229999542236328,27.549999237060547,327100,27.549999237060547
2017-01-09,28.31999969482422,26.8799991607666,27.489999771118164,28.0,317900,28.0
2017-01-10,29.479999542236328,28.274999618530273,29.0,29.200000762939453,321700,29.200000762939453
2017-01-11,30.600000381469727,28.450000762939453,28.989999771118164,30.110000610351562,335400,30.110000610351562
2017-01-12,31.43000030517578,30.049999237060547,30.110000610351562,31.030000686645508,313200,31.030000686645508
2017-01-13,32.130001068115234,30.610000610351562,30.729999542236328,31.290000915527344,236300,31.290000915527344
2017-01-17,31.610000610351562,30.899999618530273,31.270000457763672,31.290000915527344,147800,31.290000915527344
2017-01-18,32.02000045776367,30.8799991607666,31.5,31.34000015258789,182600,31.34000015258789
2017-01-19,31.729999542236328,30.829999923706055,31.43000030517578,30.8700008392334,142200,30.8700008392334
2017-01-20,31.309999465942383,30.049999237060547,31.110000610351562,30.260000228881836,185200,30.260000228881836
2017-01-23,30.600000381469727,29.700000762939453,30.190000534057617,30.309999465942383,186800,30.309999465942383
2017-01-24,30.649999618530273,30.075000762939453,30.5,30.420000076293945,239700,30.420000076293945
2017-01-25,30.809999465942383,29.700000762939453,30.489999771118164,30.1299991607666,227000,30.1299991607666
2017-01-26,30.399999618530273,29.579999923706055,30.260000228881836,30.3799991607666,442800,30.3799991607666
2017-01-27,30.790000915527344,29.920000076293945,30.34000015258789,30.43000030517578,284000,30.43000030517578
2017-01-30,30.1200008392334,28.68000030517578,30.1200008392334,29.530000686645508,193600,29.530000686645508
2017-01-31,31.25,29.25,29.530000686645508,31.020000457763672,305200,31.020000457763672
2017-02-01,31.764999389648438,30.549999237060547,31.25,30.829999923706055,258700,30.829999923706055
2017-02-02,31.049999237060547,30.170000076293945,31.049999237060547,30.489999771118164,203700,30.489999771118164
2017-02-03,31.850000381469727,30.299999237060547,30.700000762939453,31.700000762939453,222000,31.700000762939453
2017-02-06,31.940000534057617,30.459999084472656,31.940000534057617,30.989999771118164,151000,30.989999771118164
2017-02-07,31.334999084472656,30.260000228881836,30.989999771118164,30.260000228881836,192200,30.260000228881836
2017-02-08,31.010000228881836,29.34000015258789,30.100000381469727,30.8700008392334,259100,30.8700008392334
2017-02-09,32.11000061035156,30.950000762939453,31.059999465942383,31.81999969482422,301900,31.81999969482422
2017-02-10,33.06999969482422,32.0099983215332,32.0099983215332,32.4900016784668,273400,32.4900016784668
2017-02-13,32.72999954223633,31.799999237060547,32.560001373291016,32.18000030517578,203700,32.18000030517578
2017-02-14,34.04999923706055,32.029998779296875,32.20000076293945,33.88999938964844,163800,33.88999938964844
2017-02-15,33.79999923706055,32.68000030517578,33.79999923706055,33.47999954223633,205900,33.47999954223633
2017-02-16,33.34000015258789,32.630001068115234,33.189998626708984,32.810001373291016,231000,32.810001373291016
2017-02-17,32.93000030517578,32.0,32.66999816894531,32.22999954223633,236100,32.22999954223633
2017-02-21,32.68000030517578,31.65999984741211,32.68000030517578,31.790000915527344,278700,31.790000915527344
2017-02-22,31.739999771118164,30.959999084472656,31.520000457763672,31.219999313354492,239300,31.219999313354492
2017-02-23,31.700000762939453,30.770000457763672,31.649999618530273,31.290000915527344,266300,31.290000915527344
2017-02-24,31.139999389648438,30.020000457763672,30.90999984741211,30.149999618530273,178300,30.149999618530273
2017-02-27,31.299999237060547,29.899999618530273,29.989999771118164,30.920000076293945,200700,30.920000076293945
2017-02-28,30.959999084472656,30.149999618530273,30.690000534057617,30.440000534057617,258600,30.440000534057617
2017-03-01,32.29999923706055,31.020000457763672,31.059999465942383,31.790000915527344,227900,31.790000915527344
2017-03-02,31.75,29.8799991607666,31.59000015258789,30.040000915527344,269900,30.040000915527344
2017-03-03,31.010000228881836,30.030000686645508,30.15999984741211,30.8700008392334,217200,30.8700008392334
2017-03-06,30.940000534057617,29.079999923706055,30.270000457763672,29.850000381469727,329600,29.850000381469727
2017-03-07,30.0,29.350000381469727,29.850000381469727,29.440000534057617,106900,29.440000534057617
2017-03-08,29.725000381469727,28.34000015258789,29.5,28.420000076293945,203200,28.420000076293945
2017-03-09,28.200000762939453,26.290000915527344,27.100000381469727,28.030000686645508,376400,28.030000686645508
2017-03-10,28.530000686645508,27.190000534057617,28.010000228881836,28.09000015258789,278800,28.09000015258789
2017-03-13,28.780000686645508,28.1299991607666,28.1299991607666,28.280000686645508,239600,28.280000686645508
2017-03-14,28.110000610351562,26.1299991607666,28.110000610351562,27.190000534057617,438300,27.190000534057617
2017-03-15,27.760000228881836,26.889999389648438,27.440000534057617,27.510000228881836,284900,27.510000228881836
2017-03-16,27.780000686645508,26.8700008392334,27.780000686645508,27.1200008392334,300200,27.1200008392334
2017-03-17,28.56999969482422,27.200000762939453,27.209999084472656,28.229999542236328,624100,28.229999542236328
2017-03-20,28.05500030517578,27.270000457763672,28.010000228881836,27.530000686645508,244600,27.530000686645508
2017-03-21,27.93000030517578,27.010000228881836,27.8799991607666,27.450000762939453,216100,27.450000762939453
2017-03-22,27.780000686645508,26.959999084472656,27.1299991607666,27.530000686645508,260500,27.530000686645508
2017-03-23,27.860000610351562,27.170000076293945,27.299999237060547,27.729999542236328,166300,27.729999542236328
2017-03-24,28.540000915527344,27.8700008392334,28.049999237060547,28.15999984741211,200500,28.15999984741211
2017-03-27,28.93000030517578,27.170000076293945,27.700000762939453,28.8799991607666,232300,28.8799991607666
2017-03-28,30.889999389648438,29.0,29.0,30.700000762939453,212900,30.700000762939453
2017-03-29,31.25,30.110000610351562,30.280000686645508,31.200000762939453,183600,31.200000762939453
2017-03-30,31.65999984741211,30.84000015258789,31.43000030517578,30.93000030517578,199100,30.93000030517578
2017-03-31,31.670000076293945,30.690000534057617,30.690000534057617,31.450000762939453,372200,31.450000762939453
2017-04-03,31.850000381469727,30.040000915527344,31.3799991607666,30.170000076293945,270800,30.170000076293945
2017-04-04,30.68000030517578,29.729999542236328,30.1299991607666,29.799999237060547,260400,29.799999237060547
2017-04-05,30.489999771118164,29.3700008392334,30.209999084472656,29.5,270200,29.5
2017-04-06,31.239999771118164,29.6200008392334,29.649999618530273,31.239999771118164,206500,31.239999771118164
2017-04-07,31.690000534057617,30.90999984741211,31.149999618530273,31.049999237060547,359200,31.049999237060547
2017-04-10,31.65999984741211,30.790000915527344,31.1200008392334,30.989999771118164,232400,30.989999771118164
2017-04-11,31.93000030517578,30.75,31.219999313354492,31.489999771118164,412500,31.489999771118164
2017-04-12,31.6299991607666,29.549999237060547,31.329999923706055,29.760000228881836,181400,29.760000228881836
2017-04-13,29.950000762939453,28.309999465942383,29.790000915527344,28.350000381469727,212900,28.350000381469727
2017-04-17,28.829999923706055,28.0,28.459999084472656,28.719999313354492,149800,28.719999313354492
2017-04-18,28.760000228881836,28.030000686645508,28.520000457763672,28.549999237060547,114700,28.549999237060547
2017-04-19,28.719999313354492,27.530000686645508,28.719999313354492,27.729999542236328,156200,27.729999542236328
2017-04-20,28.190000534057617,27.649999618530273,27.93000030517578,28.049999237060547,115400,28.049999237060547
2017-04-21,27.959999084472656,27.3700008392334,27.739999771118164,27.6299991607666,155200,27.6299991607666
2017-04-24,28.5,27.670000076293945,28.200000762939453,28.479999542236328,212700,28.479999542236328
2017-04-25,29.899999618530273,28.780000686645508,28.950000762939453,29.709999084472656,309100,29.709999084472656
2017-04-26,30.450000762939453,29.100000381469727,29.450000762939453,29.860000610351562,219400,29.860000610351562
2017-04-27,29.56999969482422,28.59000015258789,29.56999969482422,29.209999084472656,155100,29.209999084472656
2017-04-28,29.299999237060547,27.31999969482422,29.299999237060547,27.3700008392334,165600,27.3700008392334
2017-05-01,27.790000915527344,27.190000534057617,27.420000076293945,27.399999618530273,223800,27.399999618530273
2017-05-02,27.799999237060547,27.110000610351562,27.40999984741211,27.350000381469727,341200,27.350000381469727
2017-05-03,27.690000534057617,26.739999771118164,27.170000076293945,27.270000457763672,239000,27.270000457763672
2017-05-04,28.639999389648438,26.1200008392334,28.25,26.350000381469727,581800,26.350000381469727
2017-05-05,28.479999542236328,26.65999984741211,26.68000030517578,28.440000534057617,305800,28.440000534057617
2017-05-08,28.59000015258789,27.68000030517578,28.270000457763672,28.43000030517578,195500,28.43000030517578
2017-05-09,29.030000686645508,28.15999984741211,28.59000015258789,28.850000381469727,202900,28.850000381469727
2017-05-10,30.68000030517578,29.100000381469727,29.100000381469727,30.15999984741211,459000,30.15999984741211
2017-05-11,30.760000228881836,29.729999542236328,30.389999389648438,29.829999923706055,391900,29.829999923706055
2017-05-12,29.889999389648438,29.329999923706055,29.760000228881836,29.479999542236328,248900,29.479999542236328
2017-05-15,30.260000228881836,29.259000778198242,29.979999542236328,29.68000030517578,274700,29.68000030517578
2017-05-16,30.09000015258789,29.520000457763672,29.860000610351562,30.0,243200,30.0
2017-05-17,30.0,29.200000762939453,30.0,29.229999542236328,195200,29.229999542236328
2017-05-18,29.540000915527344,28.93000030517578,28.93000030517578,29.25,159500,29.25
2017-05-19,29.84000015258789,29.139999389648438,29.3799991607666,29.270000457763672,156100,29.270000457763672
2017-05-22,30.200000762939453,29.299999237060547,29.520000457763672,30.06999969482422,403300,30.06999969482422
2017-05-23,30.149999618530273,28.780000686645508,30.149999618530273,29.469999313354492,163200,29.469999313354492
2017-05-24,29.94499969482422,28.549999237060547,29.450000762939453,28.790000915527344,184100,28.790000915527344
2017-05-25,29.299999237060547,27.520000457763672,28.729999542236328,27.549999237060547,283600,27.549999237060547
2017-05-26,28.889999389648438,27.299999237060547,27.760000228881836,28.690000534057617,230400,28.690000534057617
2017-05-30,28.40999984741211,27.639999389648438,28.389999389648438,27.8700008392334,120200,27.8700008392334
2017-05-31,28.3799991607666,27.25,27.469999313354492,28.200000762939453,223300,28.200000762939453
2017-06-01,28.6299991607666,27.969999313354492,28.399999618530273,28.43000030517578,181700,28.43000030517578
2017-06-02,28.34000015258789,27.670000076293945,28.18000030517578,27.940000534057617,144900,27.940000534057617
2017-06-05,28.110000610351562,27.329999923706055,27.760000228881836,27.8700008392334,171400,27.8700008392334
2017-06-06,27.809999465942383,26.700000762939453,27.809999465942383,27.520000457763672,211700,27.520000457763672
2017-06-07,27.860000610351562,26.579999923706055,27.350000381469727,26.84000015258789,150100,26.84000015258789
2017-06-08,27.40999984741211,26.6299991607666,26.649999618530273,27.280000686645508,206100,27.280000686645508
2017-06-09,28.170000076293945,27.209999084472656,27.420000076293945,27.920000076293945,230500,27.920000076293945
2017-06-12,28.309999465942383,27.329999923706055,28.18000030517578,27.6299991607666,140100,27.6299991607666
2017-06-13,28.399999618530273,27.30500030517578,27.68000030517578,28.260000228881836,156000,28.260000228881836
2017-06-14,28.100000381469727,26.80500030517578,28.100000381469727,27.09000015258789,201300,27.09000015258789
2017-06-15,27.350000381469727,26.764999389648438,26.84000015258789,27.020000457763672,131000,27.020000457763672
2017-06-16,27.5,26.56999969482422,26.969999313354492,27.469999313354492,246200,27.469999313354492
2017-06-19,27.520000457763672,26.8799991607666,27.520000457763672,26.989999771118164,157400,26.989999771118164
2017-06-20,26.760000228881836,25.290000915527344,26.360000610351562,25.979999542236328,135200,25.979999542236328
2017-06-21,26.100000381469727,24.829999923706055,25.6200008392334,25.170000076293945,198400,25.170000076293945
2017-06-22,26.299999237060547,25.200000762939453,25.350000381469727,26.139999389648438,266200,26.139999389648438
2017-06-23,26.739999771118164,25.799999237060547,26.290000915527344,26.700000762939453,359100,26.700000762939453
2017-06-26,27.290000915527344,26.389999389648438,26.860000610351562,27.079999923706055,180400,27.079999923706055
2017-06-27,27.6299991607666,26.3700008392334,27.31999969482422,26.389999389648438,236300,26.389999389648438
2017-06-28,28.239999771118164,26.389999389648438,26.399999618530273,27.81999969482422,249400,27.81999969482422
2017-06-29,28.440000534057617,27.579999923706055,28.1200008392334,27.760000228881836,198000,27.760000228881836
2017-06-30,27.969999313354492,26.6200008392334,27.969999313354492,26.700000762939453,616200,26.700000762939453
2017-07-03,28.030000686645508,26.84000015258789,26.84000015258789,27.68000030517578,161600,27.68000030517578
2017-07-05,27.5,25.6299991607666,27.5,25.809999465942383,221800,25.809999465942383
2017-07-06,26.520000457763672,25.540000915527344,26.139999389648438,25.600000381469727,208200,25.600000381469727
2017-07-07,26.049999237060547,25.1200008392334,25.520000457763672,25.969999313354492,273300,25.969999313354492
2017-07-10,26.979999542236328,25.75,25.780000686645508,26.639999389648438,239800,26.639999389648438
2017-07-11,27.3700008392334,26.149999618530273,26.579999923706055,27.100000381469727,220700,27.100000381469727
2017-07-12,27.850000381469727,27.059999465942383,27.809999465942383,27.139999389648438,218600,27.139999389648438
2017-07-13,27.559999465942383,26.700000762939453,27.079999923706055,27.469999313354492,258100,27.469999313354492
2017-07-14,27.969999313354492,27.350000381469727,27.520000457763672,27.760000228881836,177000,27.760000228881836
2017-07-17,28.290000915527344,27.6299991607666,27.649999618530273,28.280000686645508,226100,28.280000686645508
2017-07-18,28.440000534057617,27.725000381469727,28.420000076293945,27.8700008392334,119300,27.8700008392334
2017-07-19,29.06999969482422,28.049999237060547,28.059999465942383,28.989999771118164,322700,28.989999771118164
2017-07-20,29.079999923706055,28.200000762939453,29.079999923706055,28.489999771118164,211200,28.489999771118164
2017-07-21,28.81999969482422,27.809999465942383,28.81999969482422,27.90999984741211,150100,27.90999984741211
2017-07-24,28.725000381469727,27.170000076293945,28.09000015258789,27.280000686645508,162800,27.280000686645508
2017-07-25,28.540000915527344,27.167999267578125,27.760000228881836,28.020000457763672,254500,28.020000457763672
2017-07-26,28.360000610351562,27.43000030517578,28.360000610351562,27.68000030517578,160700,27.68000030517578
2017-07-27,28.06999969482422,27.290000915527344,27.770000457763672,27.790000915527344,168600,27.790000915527344
2017-07-28,28.709999084472656,27.709999084472656,27.709999084472656,28.18000030517578,203200,28.18000030517578
2017-07-31,28.399999618530273,27.584999084472656,28.100000381469727,27.690000534057617,215900,27.690000534057617
2017-08-01,27.84000015258789,27.149999618530273,27.799999237060547,27.18000030517578,180800,27.18000030517578
2017-08-02,27.360000610351562,26.614999771118164,27.040000915527344,27.079999923706055,137200,27.079999923706055
2017-08-03,27.579999923706055,26.479999542236328,27.200000762939453,26.59000015258789,138700,26.59000015258789
2017-08-04,27.200000762939453,26.770000457763672,26.780000686645508,27.170000076293945,187200,27.170000076293945
2017-08-07,27.059999465942383,26.15999984741211,27.059999465942383,26.219999313354492,161500,26.219999313354492
2017-08-08,27.459999084472656,26.149999618530273,26.149999618530273,27.170000076293945,290800,27.170000076293945
2017-08-09,27.239999771118164,25.850000381469727,27.079999923706055,26.100000381469727,246100,26.100000381469727
2017-08-10,26.770000457763672,26.049999237060547,26.200000762939453,26.079999923706055,219500,26.079999923706055
2017-08-11,26.559999465942383,25.059999465942383,25.059999465942383,25.729999542236328,218200,25.729999542236328
2017-08-14,26.219999313354492,24.479999542236328,25.889999389648438,24.5,176600,24.5
2017-08-15,24.540000915527344,23.84000015258789,24.540000915527344,24.350000381469727,165100,24.350000381469727
2017-08-16,24.600000381469727,23.3700008392334,24.459999084472656,23.510000228881836,127400,23.510000228881836
2017-08-17,24.540000915527344,23.290000915527344,23.290000915527344,24.209999084472656,376000,24.209999084472656
2017-08-18,24.520000457763672,23.59000015258789,24.0,24.010000228881836,312400,24.010000228881836
2017-08-21,24.149999618530273,23.420000076293945,23.959999084472656,23.8799991607666,270000,23.8799991607666
2017-08-22,25.530000686645508,24.010000228881836,24.190000534057617,25.440000534057617,344700,25.440000534057617
2017-08-23,26.229999542236328,25.200000762939453,25.299999237060547,26.020000457763672,137100,26.020000457763672
2017-08-24,26.31999969482422,25.65999984741211,25.979999542236328,26.280000686645508,84400,26.280000686645508
2017-08-25,26.90999984741211,26.270000457763672,26.389999389648438,26.860000610351562,122000,26.860000610351562
2017-08-28,27.399999618530273,26.600000381469727,26.940000534057617,27.3700008392334,124300,27.3700008392334
2017-08-29,27.639999389648438,26.90999984741211,27.020000457763672,27.5,164300,27.5
2017-08-30,27.40999984741211,27.079999923706055,27.360000610351562,27.31999969482422,124600,27.31999969482422
2017-08-31,27.90999984741211,27.280000686645508,27.600000381469727,27.739999771118164,142400,27.739999771118164
2017-09-01,27.940000534057617,27.190000534057617,27.829999923706055,27.489999771118164,152500,27.489999771118164
2017-09-05,28.0,27.559999465942383,27.709999084472656,27.81999969482422,195800,27.81999969482422
2017-09-06,28.363000869750977,27.90999984741211,28.030000686645508,27.969999313354492,152900,27.969999313354492
2017-09-07,28.65999984741211,27.600000381469727,27.959999084472656,28.649999618530273,331900,28.649999618530273
2017-09-08,28.709999084472656,27.969999313354492,28.600000381469727,28.239999771118164,161300,28.239999771118164
2017-09-11,28.81999969482422,28.139999389648438,28.479999542236328,28.690000534057617,165500,28.690000534057617
2017-09-12,28.950000762939453,28.59000015258789,28.65999984741211,28.670000076293945,89400,28.670000076293945
2017-09-13,29.684999465942383,27.6560001373291,28.309999465942383,29.190000534057617,273100,29.190000534057617
2017-09-14,29.350000381469727,28.575000762939453,29.209999084472656,29.079999923706055,230300,29.079999923706055
2017-09-15,29.40999984741211,28.799999237060547,29.149999618530273,29.25,495400,29.25
2017-09-18,29.899999618530273,29.06999969482422,29.25,29.780000686645508,590200,29.780000686645508
2017-09-19,30.1200008392334,29.600000381469727,29.719999313354492,29.670000076293945,253000,29.670000076293945
2017-09-20,30.690000534057617,29.739999771118164,29.899999618530273,30.399999618530273,356300,30.399999618530273
2017-09-21,30.540000915527344,29.790000915527344,30.31999969482422,29.8700008392334,174000,29.8700008392334
2017-09-22,30.799999237060547,29.780000686645508,29.860000610351562,30.329999923706055,181700,30.329999923706055
2017-09-25,31.139999389648438,30.469999313354492,30.469999313354492,30.829999923706055,271700,30.829999923706055
2017-09-26,31.790000915527344,30.709999084472656,30.809999465942383,31.139999389648438,249700,31.139999389648438
2017-09-27,32.65999984741211,31.049999237060547,31.399999618530273,32.63999938964844,425100,32.63999938964844
2017-09-28,32.779998779296875,31.350000381469727,32.720001220703125,31.59000015258789,204400,31.59000015258789
2017-09-29,31.68000030517578,31.0,31.489999771118164,31.610000610351562,281900,31.610000610351562
2017-10-02,32.57500076293945,31.270000457763672,31.280000686645508,32.54999923706055,255300,32.54999923706055
2017-10-03,32.59000015258789,31.729999542236328,32.59000015258789,32.4900016784668,247000,32.4900016784668
2017-10-04,32.70000076293945,32.04999923706055,32.439998626708984,32.27000045776367,167100,32.27000045776367
2017-10-05,32.61000061035156,32.13800048828125,32.47999954223633,32.369998931884766,183700,32.369998931884766
2017-10-06,32.040000915527344,31.649999618530273,32.0,32.0,126300,32.0
2017-10-09,32.11000061035156,31.59000015258789,32.0,31.889999389648438,130700,31.889999389648438
2017-10-10,32.31999969482422,31.690000534057617,32.31999969482422,31.760000228881836,148400,31.760000228881836
2017-10-11,32.13999938964844,31.700000762939453,31.760000228881836,31.979999542236328,161100,31.979999542236328
2017-10-12,32.07500076293945,31.34000015258789,31.700000762939453,31.65999984741211,175000,31.65999984741211
2017-10-13,32.20000076293945,31.690000534057617,31.979999542236328,31.829999923706055,97100,31.829999923706055
2017-10-16,32.22999954223633,31.75,32.0099983215332,31.940000534057617,138800,31.940000534057617
2017-10-17,32.01499938964844,31.440000534057617,31.90999984741211,31.489999771118164,148100,31.489999771118164
2017-10-18,31.6200008392334,30.780000686645508,31.6200008392334,30.799999237060547,108100,30.799999237060547
2017-10-19,30.90999984741211,30.309999465942383,30.610000610351562,30.43000030517578,98700,30.43000030517578
2017-10-20,30.770000457763672,30.315000534057617,30.700000762939453,30.440000534057617,129700,30.440000534057617
2017-10-23,30.90999984741211,30.020999908447266,30.600000381469727,30.079999923706055,59500,30.079999923706055
2017-10-24,30.700000762939453,30.1299991607666,30.1299991607666,30.3700008392334,88900,30.3700008392334
2017-10-25,30.540000915527344,29.93000030517578,30.440000534057617,30.459999084472656,86600,30.459999084472656
2017-10-26,30.809999465942383,30.040000915527344,30.510000228881836,30.420000076293945,70900,30.420000076293945
2017-10-27,31.329999923706055,30.239999771118164,30.350000381469727,30.799999237060547,141400,30.799999237060547
2017-10-30,31.0049991607666,30.3799991607666,30.850000381469727,30.520000457763672,112000,30.520000457763672
2017-10-31,32.439998626708984,30.530000686645508,30.6200008392334,32.27000045776367,197500,32.27000045776367
2017-11-01,32.71500015258789,31.93000030517578,32.599998474121094,32.29999923706055,180800,32.29999923706055
2017-11-02,32.584999084472656,31.959999084472656,32.150001525878906,32.0099983215332,181300,32.0099983215332
2017-11-03,32.04999923706055,31.389999389648438,31.93000030517578,31.899999618530273,102900,31.899999618530273
2017-11-06,32.45000076293945,31.649999618530273,31.969999313354492,32.380001068115234,165000,32.380001068115234
2017-11-07,33.691001892089844,30.709999084472656,33.0,31.219999313354492,256000,31.219999313354492
2017-11-08,33.152000427246094,31.25,31.360000610351562,32.97999954223633,267100,32.97999954223633
2017-11-09,32.86000061035156,32.16999816894531,32.369998931884766,32.439998626708984,217500,32.439998626708984
2017-11-10,32.77000045776367,31.600000381469727,32.27000045776367,31.600000381469727,96200,31.600000381469727
2017-11-13,31.6299991607666,30.84000015258789,31.31999969482422,31.5,104600,31.5
2017-11-14,31.399999618530273,30.43000030517578,31.15999984741211,30.700000762939453,123200,30.700000762939453
2017-11-15,30.299999237060547,29.440000534057617,30.299999237060547,29.489999771118164,125800,29.489999771118164
2017-11-16,30.15999984741211,29.1299991607666,29.510000228881836,29.93000030517578,129500,29.93000030517578
2017-11-17,30.1299991607666,29.40999984741211,29.959999084472656,30.0,107000,30.0
2017-11-20,30.399999618530273,29.399999618530273,29.969999313354492,29.90999984741211,401900,29.90999984741211
2017-11-21,30.84000015258789,30.09000015258789,30.139999389648438,30.6200008392334,174000,30.6200008392334
2017-11-22,31.270000457763672,30.510000228881836,30.8700008392334,30.790000915527344,113700,30.790000915527344
2017-11-24,31.04800033569336,30.530000686645508,31.010000228881836,30.600000381469727,38300,30.600000381469727
2017-11-27,30.489999771118164,29.700000762939453,30.489999771118164,29.709999084472656,104200,29.709999084472656
2017-11-28,30.190000534057617,29.540000915527344,29.770000457763672,29.90999984741211,113600,29.90999984741211
2017-11-29,30.639999389648438,29.850000381469727,29.940000534057617,30.219999313354492,88100,30.219999313354492
2017-11-30,31.1200008392334,30.229999542236328,30.450000762939453,30.639999389648438,141600,30.639999389648438
2017-12-01,31.1200008392334,30.170000076293945,30.760000228881836,30.989999771118164,108400,30.989999771118164
2017-12-04,31.739999771118164,30.719999313354492,31.110000610351562,30.799999237060547,154100,30.799999237060547
2017-12-05,31.06999969482422,30.049999237060547,30.8799991607666,30.1200008392334,85000,30.1200008392334
2017-12-06,30.3799991607666,29.25,29.940000534057617,29.65999984741211,184700,29.65999984741211
2017-12-07,30.1299991607666,29.709999084472656,29.709999084472656,30.059999465942383,121200,30.059999465942383
2017-12-08,30.780000686645508,29.93000030517578,30.479999542236328,30.1299991607666,112300,30.1299991607666
2017-12-11,30.459999084472656,29.860000610351562,30.219999313354492,29.979999542236328,124800,29.979999542236328
2017-12-12,30.43000030517578,29.309999465942383,30.1299991607666,29.360000610351562,108000,29.360000610351562
2017-12-13,29.420000076293945,28.34000015258789,29.420000076293945,28.420000076293945,214900,28.420000076293945
2017-12-14,29.440000534057617,28.360000610351562,28.360000610351562,28.709999084472656,319200,28.709999084472656
2017-12-15,29.479999542236328,28.8700008392334,28.8700008392334,29.34000015258789,605500,29.34000015258789
2017-12-18,30.950000762939453,29.639999389648438,29.649999618530273,30.760000228881836,139900,30.760000228881836
2017-12-19,30.969999313354492,29.899999618530273,30.940000534057617,30.170000076293945,117000,30.170000076293945
2017-12-20,31.1299991607666,29.844999313354492,30.34000015258789,30.8799991607666,110800,30.8799991607666
2017-12-21,31.700000762939453,30.90999984741211,30.90999984741211,31.530000686645508,175800,31.530000686645508
2017-12-22,31.540000915527344,31.010000228881836,31.540000915527344,31.020000457763672,81900,31.020000457763672
2017-12-26,31.25,30.780000686645508,30.959999084472656,31.100000381469727,134700,31.100000381469727
2017-12-27,31.420000076293945,31.07699966430664,31.09000015258789,31.280000686645508,143900,31.280000686645508
2017-12-28,31.709999084472656,31.139999389648438,31.440000534057617,31.520000457763672,79500,31.520000457763672
2017-12-29,31.68000030517578,31.049999237060547,31.530000686645508,31.440000534057617,236100,31.440000534057617
2018-01-02,32.310001373291016,31.239999771118164,31.600000381469727,32.060001373291016,178900,32.060001373291016
2018-01-03,32.65999984741211,31.510000228881836,32.02000045776367,32.439998626708984,219900,32.439998626708984
2018-01-04,33.150001525878906,32.119998931884766,32.52000045776367,33.099998474121094,127900,33.099998474121094
2018-01-05,33.06999969482422,32.27000045776367,33.06999969482422,32.849998474121094,112200,32.849998474121094
2018-01-08,32.970001220703125,32.2400016784668,32.68000030517578,32.810001373291016,106300,32.810001373291016
2018-01-09,33.040000915527344,32.15999984741211,32.77000045776367,32.16999816894531,132000,32.16999816894531
2018-01-10,32.40999984741211,31.75,32.15999984741211,32.369998931884766,102400,32.369998931884766
2018-01-11,33.25,32.459999084472656,32.5,32.939998626708984,99400,32.939998626708984
2018-01-12,33.319000244140625,32.47999954223633,33.0,32.599998474121094,85500,32.599998474121094
2018-01-16,33.08000183105469,31.709999084472656,32.77000045776367,31.809999465942383,117300,31.809999465942383
2018-01-17,32.224998474121094,31.75,32.0,31.8700008392334,92300,31.8700008392334
2018-01-18,31.940000534057617,31.06999969482422,31.84000015258789,31.219999313354492,125600,31.219999313354492
2018-01-19,31.84000015258789,30.899999618530273,30.899999618530273,31.829999923706055,118900,31.829999923706055
2018-01-22,31.93000030517578,31.3799991607666,31.829999923706055,31.8700008392334,96200,31.8700008392334
2018-01-23,31.920000076293945,31.15999984741211,31.799999237060547,31.649999618530273,116300,31.649999618530273
2018-01-24,31.864999771118164,31.219999313354492,31.760000228881836,31.59000015258789,137100,31.59000015258789
2018-01-25,32.185001373291016,31.350000381469727,31.829999923706055,31.889999389648438,263300,31.889999389648438
2018-01-26,32.040000915527344,31.110000610351562,32.040000915527344,31.190000534057617,173300,31.190000534057617
2018-01-29,31.165000915527344,29.459999084472656,30.969999313354492,29.469999313354492,129800,29.469999313354492
2018-01-30,29.389999389648438,28.520000457763672,29.09000015258789,28.6299991607666,138500,28.6299991607666
2018-01-31,29.09000015258789,28.549999237060547,28.68000030517578,28.8799991607666,176200,28.8799991607666
2018-02-01,29.280000686645508,28.549999237060547,28.81999969482422,28.950000762939453,105100,28.950000762939453
2018-02-02,28.56999969482422,27.020000457763672,28.56999969482422,27.030000686645508,136900,27.030000686645508
2018-02-05,27.59000015258789,26.75,26.75,27.049999237060547,178900,27.049999237060547
2018-02-06,28.020000457763672,26.35300064086914,26.459999084472656,27.90999984741211,186600,27.90999984741211
2018-02-07,28.054000854492188,27.034000396728516,27.829999923706055,27.3799991607666,252500,27.3799991607666
2018-02-08,27.649999618530273,26.690000534057617,27.309999465942383,26.700000762939453,196700,26.700000762939453
2018-02-09,27.149999618530273,26.1299991607666,27.09000015258789,26.940000534057617,245000,26.940000534057617
2018-02-12,27.329999923706055,26.440000534057617,27.200000762939453,26.75,153100,26.75
2018-02-13,26.959999084472656,26.26799964904785,26.610000610351562,26.889999389648438,194900,26.889999389648438
2018-02-14,27.385000228881836,26.5,26.540000915527344,27.100000381469727,133800,27.100000381469727
2018-02-15,27.299999237060547,26.350000381469727,27.299999237060547,27.100000381469727,110100,27.100000381469727
2018-02-16,27.829999923706055,26.989999771118164,26.989999771118164,27.549999237060547,112500,27.549999237060547
2018-02-20,27.850000381469727,26.979999542236328,27.399999618530273,27.06999969482422,157300,27.06999969482422
2018-02-21,28.1299991607666,27.049999237060547,27.170000076293945,27.690000534057617,185700,27.690000534057617
2018-02-22,29.139999389648438,27.760000228881836,27.770000457763672,27.8799991607666,198700,27.8799991607666
2018-02-23,28.450000762939453,27.69499969482422,28.040000915527344,28.399999618530273,89100,28.399999618530273
2018-02-26,28.809999465942383,27.860000610351562,28.56999969482422,28.219999313354492,105900,28.219999313354492
2018-02-27,28.270000457763672,27.049999237060547,28.190000534057617,27.059999465942383,210700,27.059999465942383
2018-02-28,27.559999465942383,25.8700008392334,27.209999084472656,25.8700008392334,256800,25.8700008392334
2018-03-01,26.549999237060547,25.610000610351562,25.690000534057617,26.25,179300,26.25
2018-03-02,26.290000915527344,25.700000762939453,26.0,26.239999771118164,209600,26.239999771118164
2018-03-05,26.959999084472656,26.059999465942383,26.059999465942383,26.700000762939453,104000,26.700000762939453
2018-03-06,27.270000457763672,26.219999313354492,26.829999923706055,26.360000610351562,196400,26.360000610351562
2018-03-07,27.405000686645508,26.270000457763672,26.270000457763672,27.31999969482422,395400,27.31999969482422
2018-03-08,27.780000686645508,27.049999237060547,27.309999465942383,27.700000762939453,273800,27.700000762939453
2018-03-09,28.309999465942383,27.799999237060547,27.950000762939453,28.030000686645508,213800,28.030000686645508
2018-03-12,28.540000915527344,28.020000457763672,28.020000457763672,28.450000762939453,163800,28.450000762939453
2018-03-13,28.899999618530273,28.489999771118164,28.610000610351562,28.709999084472656,182500,28.709999084472656
2018-03-14,29.190000534057617,28.450000762939453,28.850000381469727,28.639999389648438,152900,28.639999389648438
2018-03-15,28.979999542236328,28.079999923706055,28.690000534057617,28.1200008392334,115500,28.1200008392334
2018-03-16,29.020000457763672,28.010000228881836,28.15999984741211,28.979999542236328,377400,28.979999542236328
2018-03-19,29.0,28.040000915527344,28.850000381469727,28.3700008392334,124400,28.3700008392334
2018-03-20,28.729999542236328,27.989999771118164,28.40999984741211,28.079999923706055,99400,28.079999923706055
2018-03-21,29.1299991607666,28.110000610351562,28.110000610351562,28.850000381469727,90600,28.850000381469727
2018-03-22,29.360000610351562,27.649999618530273,28.530000686645508,27.739999771118164,139400,27.739999771118164
2018-03-23,28.704999923706055,27.81999969482422,27.860000610351562,27.829999923706055,146800,27.829999923706055
2018-03-26,28.360000610351562,27.68000030517578,28.229999542236328,28.31999969482422,113900,28.31999969482422
2018-03-27,28.450000762939453,26.780000686645508,28.31999969482422,26.979999542236328,145100,26.979999542236328
2018-03-28,27.68000030517578,26.579999923706055,27.020000457763672,26.739999771118164,180300,26.739999771118164
2018-03-29,26.93000030517578,26.639999389648438,26.84000015258789,26.700000762939453,328100,26.700000762939453
2018-04-02,26.809999465942383,25.610000610351562,26.6200008392334,26.1200008392334,122700,26.1200008392334
2018-04-03,27.31999969482422,25.8799991607666,26.219999313354492,27.170000076293945,153300,27.170000076293945
2018-04-04,27.3799991607666,26.719999313354492,26.719999313354492,27.309999465942383,99000,27.309999465942383
2018-04-05,28.329999923706055,27.489999771118164,27.489999771118164,28.309999465942383,90300,28.309999465942383
2018-04-06,28.360000610351562,27.049999237060547,28.049999237060547,27.299999237060547,136400,27.299999237060547
2018-04-09,27.670000076293945,27.06999969482422,27.540000915527344,27.100000381469727,58300,27.100000381469727
2018-04-10,28.100000381469727,27.5,27.5,27.90999984741211,128200,27.90999984741211
2018-04-11,28.65999984741211,27.780000686645508,27.780000686645508,28.239999771118164,137200,28.239999771118164
2018-04-12,28.940000534057617,27.829999923706055,28.3700008392334,28.780000686645508,131000,28.780000686645508
2018-04-13,29.0,28.55500030517578,28.979999542236328,28.799999237060547,89700,28.799999237060547
2018-04-16,29.350000381469727,28.3799991607666,28.93000030517578,29.219999313354492,82200,29.219999313354492
2018-04-17,30.110000610351562,29.18000030517578,29.350000381469727,30.030000686645508,150100,30.030000686645508
2018-04-18,31.389999389648438,30.280000686645508,30.280000686645508,30.719999313354492,145500,30.719999313354492
2018-04-19,31.0,29.719999313354492,30.690000534057617,29.829999923706055,116600,29.829999923706055
2018-04-20,29.739999771118164,28.979999542236328,29.639999389648438,29.489999771118164,75800,29.489999771118164
2018-04-23,29.670000076293945,28.790000915527344,29.510000228881836,29.579999923706055,79100,29.579999923706055
2018-04-24,30.149999618530273,29.43000030517578,29.690000534057617,30.030000686645508,86900,30.030000686645508
2018-04-25,30.43899917602539,29.610000610351562,29.850000381469727,29.899999618530273,76500,29.899999618530273
2018-04-26,30.274999618530273,29.649999618530273,30.040000915527344,30.030000686645508,64700,30.030000686645508
2018-04-27,30.059999465942383,29.299999237060547,30.059999465942383,29.360000610351562,123200,29.360000610351562
2018-04-30,29.860000610351562,29.260000228881836,29.5,29.290000915527344,93200,29.290000915527344
2018-05-01,29.65999984741211,28.6200008392334,29.239999771118164,29.6299991607666,91000,29.6299991607666
2018-05-02,30.360000610351562,29.450000762939453,29.559999465942383,30.110000610351562,95000,30.110000610351562
2018-05-03,30.940000534057617,29.40999984741211,30.940000534057617,30.270000457763672,113700,30.270000457763672
2018-05-04,30.030000686645508,28.100000381469727,30.030000686645508,28.850000381469727,367500,28.850000381469727
2018-05-07,29.84000015258789,28.610000610351562,28.8700008392334,28.700000762939453,251600,28.700000762939453
2018-05-08,28.829999923706055,27.709999084472656,28.700000762939453,28.260000228881836,182500,28.260000228881836
2018-05-09,28.729999542236328,28.09000015258789,28.43000030517578,28.1200008392334,205400,28.1200008392334
2018-05-10,28.34000015258789,27.780000686645508,28.15999984741211,28.030000686645508,168300,28.030000686645508
2018-05-11,28.34000015258789,27.700000762939453,28.059999465942383,28.139999389648438,173500,28.139999389648438
2018-05-14,28.399999618530273,27.860000610351562,28.149999618530273,28.200000762939453,194100,28.200000762939453
2018-05-15,29.280000686645508,28.110000610351562,28.1200008392334,29.209999084472656,129100,29.209999084472656
2018-05-16,29.579999923706055,28.84000015258789,29.260000228881836,29.25,200600,29.25
2018-05-17,30.1299991607666,29.25,29.280000686645508,29.75,118800,29.75
2018-05-18,29.950000762939453,29.1200008392334,29.940000534057617,29.270000457763672,112200,29.270000457763672
2018-05-21,29.6299991607666,29.165000915527344,29.360000610351562,29.459999084472656,150400,29.459999084472656
2018-05-22,29.6200008392334,28.7450008392334,29.479999542236328,28.8799991607666,106800,28.8799991607666
2018-05-23,29.030000686645508,28.575000762939453,28.75,28.780000686645508,115200,28.780000686645508
2018-05-24,28.719999313354492,28.059999465942383,28.450000762939453,28.200000762939453,262800,28.200000762939453
2018-05-25,28.040000915527344,27.270999908447266,27.84000015258789,27.950000762939453,162000,27.950000762939453
2018-05-29,28.329999923706055,27.610000610351562,27.610000610351562,28.15999984741211,121600,28.15999984741211
2018-05-30,28.889999389648438,28.34000015258789,28.34000015258789,28.389999389648438,151800,28.389999389648438
2018-05-31,28.360000610351562,27.510000228881836,28.280000686645508,27.559999465942383,193300,27.559999465942383
2018-06-01,27.94499969482422,27.030000686645508,27.729999542236328,27.18000030517578,152200,27.18000030517578
2018-06-04,27.530000686645508,26.8700008392334,27.280000686645508,26.969999313354492,321900,26.969999313354492
2018-06-05,27.290000915527344,26.815000534057617,26.950000762939453,27.280000686645508,245800,27.280000686645508
2018-06-06,28.260000228881836,27.139999389648438,27.190000534057617,28.149999618530273,205100,28.149999618530273
2018-06-07,28.889999389648438,28.200000762939453,28.200000762939453,28.329999923706055,259500,28.329999923706055
2018-06-08,28.389999389648438,27.454999923706055,28.389999389648438,27.510000228881836,248800,27.510000228881836
2018-06-11,27.815000534057617,27.260000228881836,27.40999984741211,27.649999618530273,115800,27.649999618530273
2018-06-12,27.989999771118164,27.309999465942383,27.739999771118164,27.6299991607666,118400,27.6299991607666
2018-06-13,27.884000778198242,27.3799991607666,27.6299991607666,27.469999313354492,120400,27.469999313354492
2018-06-14,27.690000534057617,27.219999313354492,27.690000534057617,27.299999237060547,87600,27.299999237060547
2018-06-15,27.100000381469727,26.110000610351562,27.100000381469727,26.229999542236328,284300,26.229999542236328
2018-06-18,26.709999084472656,26.229999542236328,26.229999542236328,26.549999237060547,117100,26.549999237060547
2018-06-19,26.920000076293945,25.8700008392334,26.270000457763672,26.170000076293945,118000,26.170000076293945
2018-06-20,26.56999969482422,25.81999969482422,26.270000457763672,26.5,117800,26.5
2018-06-21,26.43000030517578,25.709999084472656,26.43000030517578,25.979999542236328,141800,25.979999542236328
2018-06-22,26.809999465942383,26.170000076293945,26.520000457763672,26.329999923706055,202500,26.329999923706055
2018-06-25,26.25,25.700000762939453,26.25,25.93000030517578,99700,25.93000030517578
2018-06-26,26.270000457763672,25.68000030517578,25.940000534057617,26.110000610351562,73100,26.110000610351562
2018-06-27,26.809999465942383,26.270000457763672,26.299999237060547,26.31999969482422,96900,26.31999969482422
2018-06-28,26.280000686645508,25.43000030517578,26.280000686645508,25.5,104300,25.5
2018-06-29,25.709999084472656,25.010000228881836,25.59000015258789,25.040000915527344,107000,25.040000915527344
2018-07-02,25.229999542236328,24.520000457763672,24.850000381469727,25.219999313354492,93900,25.219999313354492
2018-07-03,25.739999771118164,25.3799991607666,25.3799991607666,25.700000762939453,38200,25.700000762939453
2018-07-05,25.899999618530273,25.469999313354492,25.829999923706055,25.889999389648438,80700,25.889999389648438
2018-07-06,26.510000228881836,25.84000015258789,25.8700008392334,26.469999313354492,105900,26.469999313354492
2018-07-09,27.18000030517578,26.5,26.5,26.760000228881836,132500,26.760000228881836
2018-07-10,27.610000610351562,26.760000228881836,26.979999542236328,27.540000915527344,182800,27.540000915527344
2018-07-11,28.05500030517578,26.864999771118164,27.290000915527344,27.420000076293945,187300,27.420000076293945
2018-07-12,27.600000381469727,26.690000534057617,27.600000381469727,27.399999618530273,127000,27.399999618530273
2018-07-13,28.350000381469727,27.479999542236328,27.479999542236328,28.030000686645508,81100,28.030000686645508
2018-07-16,27.81999969482422,27.34000015258789,27.809999465942383,27.790000915527344,86000,27.790000915527344
2018-07-17,27.739999771118164,27.440000534057617,27.719999313354492,27.59000015258789,115700,27.59000015258789
2018-07-18,27.600000381469727,27.134000778198242,27.520000457763672,27.3799991607666,66700,27.3799991607666
2018-07-19,27.670000076293945,27.170000076293945,27.350000381469727,27.260000228881836,94400,27.260000228881836
2018-07-20,27.31999969482422,26.8799991607666,27.31999969482422,27.049999237060547,52400,27.049999237060547
2018-07-23,27.040000915527344,26.469999313354492,27.040000915527344,26.799999237060547,62200,26.799999237060547
2018-07-24,27.219999313354492,26.68000030517578,26.989999771118164,26.709999084472656,61900,26.709999084472656
2018-07-25,26.700000762939453,26.1299991607666,26.670000076293945,26.329999923706055,101700,26.329999923706055
2018-07-26,27.190000534057617,26.020000457763672,26.420000076293945,27.049999237060547,84500,27.049999237060547
2018-07-27,27.270000457763672,26.790000915527344,26.790000915527344,27.0,87800,27.0
2018-07-30,27.719999313354492,27.100000381469727,27.100000381469727,27.579999923706055,58800,27.579999923706055
2018-07-31,27.829999923706055,27.139999389648438,27.6200008392334,27.719999313354492,87500,27.719999313354492
2018-08-01,27.65999984741211,26.84000015258789,27.65999984741211,27.350000381469727,88000,27.350000381469727
2018-08-02,27.540000915527344,26.975000381469727,27.229999542236328,27.239999771118164,61300,27.239999771118164
2018-08-03,27.450000762939453,26.610000610351562,27.34000015258789,26.709999084472656,59100,26.709999084472656
2018-08-06,27.170000076293945,26.399999618530273,26.75,27.010000228881836,64800,27.010000228881836
2018-08-07,27.344999313354492,25.386999130249023,25.93000030517578,26.84000015258789,166600,26.84000015258789
2018-08-08,27.190000534057617,26.65999984741211,26.770000457763672,26.65999984741211,243200,26.65999984741211
2018-08-09,27.780000686645508,26.729999542236328,26.8700008392334,27.780000686645508,130800,27.780000686645508
2018-08-10,28.440000534057617,27.559999465942383,27.68000030517578,28.389999389648438,94800,28.389999389648438
2018-08-13,28.440000534057617,27.200000762939453,28.399999618530273,27.360000610351562,206600,27.360000610351562
2018-08-14,28.809999465942383,27.520000457763672,27.520000457763672,28.799999237060547,121300,28.799999237060547
2018-08-15,28.600000381469727,27.43000030517578,28.600000381469727,27.739999771118164,127600,27.739999771118164
2018-08-16,28.040000915527344,27.329999923706055,27.729999542236328,27.40999984741211,98000,27.40999984741211
2018-08-17,27.719999313354492,27.15999984741211,27.389999389648438,27.3700008392334,127800,27.3700008392334
2018-08-20,27.790000915527344,27.149999618530273,27.3700008392334,27.709999084472656,120700,27.709999084472656
2018-08-21,28.43000030517578,27.899999618530273,27.899999618530273,27.93000030517578,102900,27.93000030517578
2018-08-22,28.68000030517578,28.0,28.079999923706055,28.6299991607666,146500,28.6299991607666
2018-08-23,28.649999618530273,28.270000457763672,28.649999618530273,28.43000030517578,56100,28.43000030517578
2018-08-24,29.0,28.5,28.5,28.90999984741211,140300,28.90999984741211
2018-08-27,29.309999465942383,28.610000610351562,28.959999084472656,28.84000015258789,74000,28.84000015258789
2018-08-28,29.135000228881836,28.440000534057617,28.959999084472656,28.440000534057617,43300,28.440000534057617
2018-08-29,28.479999542236328,28.100000381469727,28.450000762939453,28.260000228881836,56800,28.260000228881836
2018-08-30,28.290000915527344,27.440000534057617,28.290000915527344,27.780000686645508,64300,27.780000686645508
2018-08-31,27.649999618530273,27.049999237060547,27.649999618530273,27.389999389648438,125700,27.389999389648438
2018-09-04,27.43000030517578,26.614999771118164,27.43000030517578,26.940000534057617,77800,26.940000534057617
2018-09-05,26.829999923706055,25.934999465942383,26.829999923706055,26.229999542236328,182900,26.229999542236328
2018-09-06,26.209999084472656,24.959999084472656,26.209999084472656,25.1200008392334,143500,25.1200008392334
2018-09-07,25.489999771118164,24.645000457763672,24.979999542236328,25.450000762939453,134000,25.450000762939453
2018-09-10,25.549999237060547,25.0,25.530000686645508,25.100000381469727,132500,25.100000381469727
2018-09-11,26.219999313354492,24.93000030517578,25.06999969482422,25.979999542236328,176100,25.979999542236328
2018-09-12,26.280000686645508,25.5,26.0,25.809999465942383,144500,25.809999465942383
2018-09-13,25.8799991607666,25.489999771118164,25.8799991607666,25.549999237060547,90300,25.549999237060547
2018-09-14,25.68000030517578,25.239999771118164,25.530000686645508,25.239999771118164,101400,25.239999771118164
2018-09-17,25.3700008392334,24.329999923706055,25.260000228881836,24.350000381469727,90900,24.350000381469727
2018-09-18,25.1299991607666,24.149999618530273,24.450000762939453,24.889999389648438,88800,24.889999389648438
2018-09-19,25.1200008392334,24.540000915527344,24.829999923706055,24.600000381469727,180700,24.600000381469727
2018-09-20,25.010000228881836,24.3799991607666,24.81999969482422,24.770000457763672,126300,24.770000457763672
2018-09-21,25.149999618530273,24.719999313354492,24.850000381469727,25.139999389648438,585200,25.139999389648438
2018-09-24,25.719999313354492,24.959999084472656,25.190000534057617,25.469999313354492,119000,25.469999313354492
2018-09-25,26.309999465942383,25.530000686645508,25.56999969482422,26.200000762939453,126800,26.200000762939453
2018-09-26,26.31999969482422,25.739999771118164,26.1299991607666,25.899999618530273,113000,25.899999618530273
2018-09-27,26.969999313354492,25.690000534057617,25.979999542236328,26.790000915527344,206500,26.790000915527344
2018-09-28,27.239999771118164,26.489999771118164,26.75,26.530000686645508,181200,26.530000686645508
2018-10-01,27.170000076293945,26.420000076293945,26.770000457763672,26.520000457763672,183600,26.520000457763672
2018-10-02,26.8700008392334,26.350000381469727,26.530000686645508,26.6299991607666,125400,26.6299991607666
2018-10-03,27.3799991607666,26.56999969482422,26.829999923706055,27.309999465942383,194500,27.309999465942383
2018-10-04,27.549999237060547,26.729999542236328,27.260000228881836,26.850000381469727,160600,26.850000381469727
2018-10-05,26.760000228881836,25.969999313354492,26.760000228881836,26.510000228881836,223200,26.510000228881836
2018-10-08,26.989999771118164,26.1200008392334,26.200000762939453,26.670000076293945,104800,26.670000076293945
2018-10-09,27.799999237060547,25.93000030517578,26.700000762939453,27.68000030517578,179300,27.68000030517578
2018-10-10,27.600000381469727,26.8700008392334,27.579999923706055,26.8700008392334,206200,26.8700008392334
2018-10-11,26.959999084472656,25.889999389648438,26.65999984741211,26.010000228881836,152000,26.010000228881836
2018-10-12,26.670000076293945,25.469999313354492,26.469999313354492,25.75,138700,25.75
2018-10-15,25.829999923706055,25.100000381469727,25.68000030517578,25.479999542236328,115800,25.479999542236328
2018-10-16,26.1200008392334,25.5,25.6200008392334,26.06999969482422,75300,26.06999969482422
2018-10-17,26.020000457763672,25.05500030517578,25.950000762939453,25.219999313354492,89600,25.219999313354492
2018-10-18,24.9950008392334,24.1200008392334,24.770000457763672,24.18000030517578,102200,24.18000030517578
2018-10-19,24.65999984741211,23.440000534057617,24.1200008392334,23.559999465942383,108300,23.559999465942383
2018-10-22,24.010000228881836,23.3799991607666,23.6299991607666,23.799999237060547,196800,23.799999237060547
2018-10-23,23.450000762939453,22.309999465942383,23.299999237060547,22.309999465942383,195700,22.309999465942383
2018-10-24,22.280000686645508,21.110000610351562,22.280000686645508,21.1200008392334,177700,21.1200008392334
2018-10-25,22.15999984741211,21.020000457763672,21.260000228881836,21.760000228881836,165300,21.760000228881836
2018-10-26,22.0,21.110000610351562,21.40999984741211,21.700000762939453,90700,21.700000762939453
2018-10-29,21.950000762939453,20.799999237060547,21.950000762939453,21.0,209300,21.0
2018-10-30,21.600000381469727,20.920000076293945,20.93000030517578,21.559999465942383,206100,21.559999465942383
2018-10-31,21.860000610351562,20.760000228881836,21.860000610351562,20.889999389648438,149700,20.889999389648438
2018-11-01,21.5,20.860000610351562,21.059999465942383,21.010000228881836,137500,21.010000228881836
2018-11-02,21.56999969482422,21.09000015258789,21.15999984741211,21.3799991607666,108100,21.3799991607666
2018-11-05,22.030000686645508,21.190000534057617,21.979999542236328,21.899999618530273,216600,21.899999618530273
2018-11-06,22.8700008392334,21.200000762939453,21.3799991607666,21.649999618530273,212900,21.649999618530273
2018-11-07,22.579999923706055,21.69499969482422,21.84000015258789,22.510000228881836,140600,22.510000228881836
2018-11-08,22.799999237060547,22.170000076293945,22.450000762939453,22.770000457763672,146000,22.770000457763672
2018-11-09,23.18000030517578,22.350000381469727,22.639999389648438,22.969999313354492,305400,22.969999313354492
2018-11-12,23.209999084472656,22.68000030517578,23.209999084472656,23.200000762939453,409300,23.200000762939453
2018-11-13,23.68000030517578,23.010000228881836,23.25,23.3799991607666,579000,23.3799991607666
2018-11-14,23.920000076293945,23.305999755859375,23.809999465942383,23.899999618530273,300100,23.899999618530273
2018-11-15,24.389999389648438,23.780000686645508,24.0,24.260000228881836,140200,24.260000228881836
2018-11-16,24.399999618530273,22.850000381469727,24.25,23.280000686645508,208200,23.280000686645508
2018-11-19,23.8799991607666,22.799999237060547,23.200000762939453,23.709999084472656,102000,23.709999084472656
2018-11-20,23.329999923706055,22.309999465942383,23.329999923706055,22.3700008392334,116500,22.3700008392334
2018-11-21,23.25,22.405000686645508,22.549999237060547,22.450000762939453,85700,22.450000762939453
2018-11-23,22.06999969482422,21.420000076293945,21.6200008392334,22.020000457763672,113500,22.020000457763672
2018-11-26,22.6299991607666,22.190000534057617,22.209999084472656,22.530000686645508,141300,22.530000686645508
2018-11-27,22.780000686645508,22.40999984741211,22.5,22.5,164600,22.5
2018-11-28,23.030000686645508,22.280000686645508,22.739999771118164,22.75,157000,22.75
2018-11-29,23.1200008392334,22.469999313354492,22.68000030517578,22.520000457763672,142000,22.520000457763672
2018-11-30,22.8799991607666,22.200000762939453,22.5,22.5,241600,22.5
2018-12-03,23.399999618530273,22.790000915527344,23.25,23.219999313354492,159100,23.219999313354492
2018-12-04,23.084999084472656,21.725000381469727,23.030000686645508,21.760000228881836,163200,21.760000228881836
2018-12-06,21.610000610351562,20.719999313354492,21.290000915527344,20.770000457763672,268200,20.770000457763672
2018-12-07,22.149999618530273,21.209999084472656,21.600000381469727,21.5,195200,21.5
2018-12-10,21.309999465942383,20.600000381469727,21.299999237060547,20.860000610351562,242000,20.860000610351562
2018-12-11,21.434999465942383,20.5,21.3799991607666,20.729999542236328,158400,20.729999542236328
2018-12-12,21.350000381469727,20.7549991607666,21.06999969482422,20.950000762939453,249600,20.950000762939453
2018-12-13,21.1299991607666,20.639999389648438,20.950000762939453,21.020000457763672,142100,21.020000457763672
2018-12-14,20.889999389648438,19.729999542236328,20.739999771118164,19.829999923706055,227500,19.829999923706055
2018-12-17,20.200000762939453,19.450000762939453,19.770000457763672,19.510000228881836,256400,19.510000228881836
2018-12-18,20.149999618530273,19.540000915527344,19.56999969482422,19.81999969482422,198600,19.81999969482422
2018-12-19,20.059999465942383,18.690000534057617,19.860000610351562,18.889999389648438,206200,18.889999389648438
2018-12-20,19.010000228881836,18.299999237060547,18.65999984741211,18.399999618530273,221400,18.399999618530273
2018-12-21,18.479999542236328,17.18000030517578,18.360000610351562,17.299999237060547,511900,17.299999237060547
2018-12-24,17.459999084472656,16.844999313354492,17.270000457763672,17.0,90300,17.0
2018-12-26,17.739999771118164,16.670000076293945,17.200000762939453,17.729999542236328,162700,17.729999542236328
2018-12-27,17.690000534057617,16.979999542236328,17.219999313354492,17.40999984741211,111800,17.40999984741211
2018-12-28,17.700000762939453,17.218000411987305,17.5,17.510000228881836,136800,17.510000228881836
2018-12-31,17.739999771118164,17.270000457763672,17.649999618530273,17.700000762939453,112800,17.700000762939453
2019-01-02,18.290000915527344,17.209999084472656,17.280000686645508,18.1299991607666,102200,18.1299991607666
2019-01-03,18.5,17.6299991607666,18.09000015258789,18.290000915527344,95000,18.290000915527344
2019-01-04,19.31999969482422,18.59000015258789,18.6200008392334,19.309999465942383,222900,19.309999465942383
2019-01-07,19.780000686645508,19.1299991607666,19.309999465942383,19.59000015258789,189400,19.59000015258789
2019-01-08,19.920000076293945,19.5049991607666,19.920000076293945,19.670000076293945,82400,19.670000076293945
2019-01-09,20.114999771118164,19.510000228881836,19.899999618530273,19.700000762939453,192100,19.700000762939453
2019-01-10,19.68000030517578,19.225000381469727,19.440000534057617,19.65999984741211,97900,19.65999984741211
2019-01-11,19.510000228881836,19.18000030517578,19.40999984741211,19.420000076293945,81000,19.420000076293945
2019-01-14,19.450000762939453,18.850000381469727,19.239999771118164,18.8700008392334,94900,18.8700008392334
2019-01-15,19.270000457763672,18.65999984741211,18.959999084472656,18.8799991607666,103400,18.8799991607666
2019-01-16,19.329999923706055,18.75,18.8700008392334,18.809999465942383,194200,18.809999465942383
2019-01-17,19.260000228881836,18.610000610351562,18.729999542236328,19.020000457763672,162600,19.020000457763672
2019-01-18,19.56999969482422,19.1200008392334,19.280000686645508,19.3700008392334,102900,19.3700008392334
2019-01-22,19.170000076293945,17.950000762939453,19.030000686645508,18.020000457763672,141400,18.020000457763672
2019-01-23,18.139999389648438,17.40999984741211,18.139999389648438,17.510000228881836,101500,17.510000228881836
2019-01-24,17.84000015258789,17.270000457763672,17.520000457763672,17.690000534057617,98600,17.690000534057617
2019-01-25,18.200000762939453,17.59000015258789,17.940000534057617,17.649999618530273,91600,17.649999618530273
2019-01-28,17.399999618530273,16.780000686645508,17.399999618530273,17.059999465942383,89700,17.059999465942383
2019-01-29,17.549999237060547,17.1200008392334,17.190000534057617,17.1299991607666,63900,17.1299991607666
2019-01-30,17.350000381469727,16.93000030517578,17.290000915527344,17.239999771118164,77300,17.239999771118164
2019-01-31,17.459999084472656,17.06999969482422,17.239999771118164,17.360000610351562,118600,17.360000610351562
2019-02-01,17.670000076293945,17.18000030517578,17.329999923706055,17.399999618530273,94200,17.399999618530273
2019-02-04,17.93000030517578,17.149999618530273,17.3700008392334,17.920000076293945,167500,17.920000076293945
2019-02-05,18.277000427246094,17.739999771118164,17.93000030517578,17.829999923706055,61500,17.829999923706055
2019-02-06,17.790000915527344,17.5049991607666,17.790000915527344,17.559999465942383,61000,17.559999465942383
2019-02-07,17.520000457763672,16.420000076293945,17.440000534057617,16.6299991607666,94600,16.6299991607666
2019-02-08,16.600000381469727,16.209999084472656,16.600000381469727,16.489999771118164,112000,16.489999771118164
2019-02-11,16.860000610351562,16.260000228881836,16.5,16.850000381469727,66500,16.850000381469727
2019-02-12,17.6200008392334,16.889999389648438,17.1200008392334,17.389999389648438,97600,17.389999389648438
2019-02-13,17.739999771118164,17.219999313354492,17.489999771118164,17.3700008392334,128500,17.3700008392334
2019-02-14,17.670000076293945,17.049999237060547,17.3700008392334,17.530000686645508,236000,17.530000686645508
2019-02-15,18.190000534057617,17.690000534057617,17.690000534057617,18.15999984741211,152900,18.15999984741211
2019-02-19,18.469999313354492,17.950000762939453,18.1200008392334,18.290000915527344,191600,18.290000915527344
2019-02-20,18.81999969482422,18.270000457763672,18.270000457763672,18.729999542236328,183600,18.729999542236328
2019-02-21,18.68000030517578,17.84000015258789,18.6200008392334,17.889999389648438,182100,17.889999389648438
2019-02-22,18.170000076293945,17.829999923706055,18.079999923706055,17.93000030517578,116500,17.93000030517578
2019-02-25,18.350000381469727,17.739999771118164,17.940000534057617,17.899999618530273,94700,17.899999618530273
2019-02-26,18.510000228881836,17.719999313354492,17.790000915527344,18.06999969482422,215700,18.06999969482422
2019-02-27,18.43000030517578,17.229999542236328,18.09000015258789,17.25,162000,17.25
2019-02-28,17.280000686645508,16.700000762939453,17.280000686645508,17.06999969482422,102700,17.06999969482422
2019-03-01,17.40999984741211,17.049999237060547,17.219999313354492,17.239999771118164,124300,17.239999771118164
2019-03-04,17.450000762939453,16.850000381469727,17.299999237060547,17.010000228881836,152900,17.010000228881836
2019-03-05,17.329999923706055,16.540000915527344,17.049999237060547,16.719999313354492,96500,16.719999313354492
2019-03-06,16.649999618530273,15.579999923706055,16.649999618530273,16.040000915527344,201200,16.040000915527344
2019-03-07,16.510000228881836,15.949999809265137,16.15999984741211,16.389999389648438,146000,16.389999389648438
2019-03-08,16.84000015258789,16.030000686645508,16.100000381469727,16.540000915527344,178400,16.540000915527344
2019-03-11,16.93000030517578,16.389999389648438,16.639999389648438,16.790000915527344,199600,16.790000915527344
2019-03-12,17.469999313354492,16.809999465942383,16.809999465942383,17.360000610351562,303700,17.360000610351562
2019-03-13,18.450000762939453,17.469999313354492,17.469999313354492,18.15999984741211,234600,18.15999984741211
2019-03-14,18.290000915527344,17.84000015258789,18.139999389648438,17.84000015258789,154500,17.84000015258789
2019-03-15,18.094999313354492,17.790000915527344,17.790000915527344,17.889999389648438,327700,17.889999389648438
2019-03-18,18.3700008392334,17.8799991607666,17.950000762939453,18.299999237060547,185400,18.299999237060547
2019-03-19,18.56999969482422,18.1200008392334,18.440000534057617,18.1200008392334,149900,18.1200008392334
2019-03-20,18.584999084472656,17.979999542236328,18.06999969482422,18.290000915527344,126700,18.290000915527344
2019-03-21,18.31999969482422,17.899999618530273,18.18000030517578,17.93000030517578,285100,17.93000030517578
2019-03-22,17.809999465942383,17.329999923706055,17.770000457763672,17.34000015258789,203400,17.34000015258789
2019-03-25,17.43000030517578,16.920000076293945,17.309999465942383,17.049999237060547,441300,17.049999237060547
2019-03-26,17.729999542236328,17.219999313354492,17.260000228881836,17.389999389648438,142800,17.389999389648438
2019-03-27,17.34000015258789,16.8799991607666,17.309999465942383,17.0,306400,17.0
2019-03-28,17.18000030517578,16.719999313354492,16.860000610351562,16.8799991607666,164300,16.8799991607666
2019-03-29,17.190000534057617,16.729999542236328,16.950000762939453,16.850000381469727,364100,16.850000381469727
2019-04-01,17.68000030517578,16.950000762939453,17.049999237060547,17.610000610351562,226300,17.610000610351562
2019-04-02,17.690000534057617,17.1200008392334,17.59000015258789,17.280000686645508,263900,17.280000686645508
2019-04-03,17.520000457763672,17.059999465942383,17.399999618530273,17.1200008392334,92000,17.1200008392334
2019-04-04,17.530000686645508,17.049999237060547,17.149999618530273,17.489999771118164,137000,17.489999771118164
2019-04-05,17.860000610351562,17.43000030517578,17.5,17.729999542236328,109600,17.729999542236328
2019-04-08,18.200000762939453,17.6299991607666,17.729999542236328,17.84000015258789,69900,17.84000015258789
2019-04-09,17.729999542236328,17.229999542236328,17.729999542236328,17.280000686645508,128800,17.280000686645508
2019-04-10,17.68000030517578,17.3700008392334,17.3700008392334,17.43000030517578,159300,17.43000030517578
2019-04-11,17.540000915527344,17.239999771118164,17.440000534057617,17.420000076293945,80200,17.420000076293945
2019-04-12,17.790000915527344,17.149999618530273,17.780000686645508,17.209999084472656,84200,17.209999084472656
2019-04-15,17.280000686645508,17.020000457763672,17.149999618530273,17.049999237060547,77900,17.049999237060547
2019-04-16,17.229999542236328,16.850000381469727,17.200000762939453,17.200000762939453,81700,17.200000762939453
2019-04-17,17.3700008392334,17.209999084472656,17.3700008392334,17.270000457763672,105900,17.270000457763672
2019-04-18,17.459999084472656,16.950000762939453,17.270000457763672,17.059999465942383,63600,17.059999465942383
2019-04-22,17.200000762939453,16.674999237060547,17.200000762939453,17.09000015258789,116400,17.09000015258789
2019-04-23,17.239999771118164,16.850000381469727,17.079999923706055,16.93000030517578,216100,16.93000030517578
2019-04-24,16.959999084472656,16.18000030517578,16.940000534057617,16.260000228881836,164400,16.260000228881836
2019-04-25,16.18000030517578,15.25,16.18000030517578,15.40999984741211,286600,15.40999984741211
2019-04-26,15.520000457763672,14.949999809265137,15.380000114440918,14.989999771118164,208700,14.989999771118164
2019-04-29,15.609999656677246,14.979999542236328,15.0600004196167,15.25,194900,15.25
2019-04-30,15.329999923706055,13.949999809265137,15.329999923706055,14.220000267028809,789700,14.220000267028809
2019-05-01,14.800000190734863,14.119999885559082,14.239999771118164,14.220000267028809,461800,14.220000267028809
2019-05-02,14.112000465393066,13.40999984741211,13.680000305175781,13.760000228881836,366400,13.760000228881836
2019-05-03,14.039999961853027,13.579999923706055,13.869999885559082,13.739999771118164,543700,13.739999771118164
2019-05-06,14.319999694824219,13.359999656677246,13.520000457763672,14.270000457763672,212200,14.270000457763672
2019-05-07,14.239999771118164,13.550000190734863,14.050000190734863,13.869999885559082,378300,13.869999885559082
2019-05-08,13.979999542236328,13.710000038146973,13.84000015258789,13.710000038146973,241100,13.710000038146973
2019-05-09,14.050000190734863,13.640000343322754,13.640000343322754,13.84000015258789,249600,13.84000015258789
2019-05-10,13.970000267028809,13.199999809265137,13.760000228881836,13.380000114440918,521300,13.380000114440918
2019-05-13,13.4399995803833,13.09000015258789,13.239999771118164,13.109999656677246,243500,13.109999656677246
2019-05-14,13.59000015258789,13.130000114440918,13.130000114440918,13.4399995803833,459100,13.4399995803833
2019-05-15,14.0600004196167,13.260000228881836,13.279999732971191,13.920000076293945,430100,13.920000076293945
2019-05-16,14.239999771118164,13.920000076293945,14.0,14.180000305175781,221200,14.180000305175781
2019-05-17,14.09000015258789,13.600000381469727,13.979999542236328,13.649999618530273,242700,13.649999618530273
2019-05-20,13.78499984741211,13.40999984741211,13.609999656677246,13.640000343322754,464200,13.640000343322754
2019-05-21,14.420000076293945,13.699999809265137,13.699999809265137,14.260000228881836,393300,14.260000228881836
2019-05-22,14.399999618530273,13.829999923706055,14.079999923706055,14.069999694824219,255200,14.069999694824219
2019-05-23,13.779999732971191,13.260000228881836,13.699999809265137,13.5,237200,13.5
2019-05-24,14.0,13.40999984741211,13.6899995803833,13.720000267028809,232000,13.720000267028809
