Date,High,Low,Open,Close,Volume,Adj Close
2017-10-26,9.970000267028809,9.970000267028809,9.970000267028809,9.970000267028809,0,9.970000267028809
2017-10-27,28.3700008392334,27.3799991607666,27.690000534057617,28.149999618530273,954400,28.149999618530273
2017-10-30,28.899999618530273,27.489999771118164,28.06999969482422,28.040000915527344,760500,28.040000915527344
2017-10-31,29.389999389648438,27.680999755859375,28.0,28.799999237060547,436200,28.799999237060547
2017-11-01,30.979999542236328,28.270000457763672,29.049999237060547,30.3700008392334,1781300,30.3700008392334
2017-11-02,30.709999084472656,29.940000534057617,30.43000030517578,29.989999771118164,204500,29.989999771118164
2017-11-03,30.125,29.18000030517578,30.0,29.700000762939453,138400,29.700000762939453
2017-11-06,30.84000015258789,29.760000228881836,29.760000228881836,30.06999969482422,133500,30.06999969482422
2017-11-07,30.399999618530273,29.959999084472656,30.25,30.049999237060547,170900,30.049999237060547
2017-11-08,30.420000076293945,30.0,30.1299991607666,30.209999084472656,364300,30.209999084472656
2017-11-09,30.399999618530273,29.549999237060547,30.200000762939453,30.209999084472656,359600,30.209999084472656
2017-11-10,30.360000610351562,29.93000030517578,30.149999618530273,30.139999389648438,231100,30.139999389648438
2017-11-13,30.34000015258789,29.829999923706055,30.200000762939453,29.989999771118164,247100,29.989999771118164
2017-11-14,30.149999618530273,29.68000030517578,29.989999771118164,30.1200008392334,332700,30.1200008392334
2017-11-15,30.1200008392334,29.899999618530273,30.020000457763672,29.959999084472656,256700,29.959999084472656
2017-11-16,30.40999984741211,29.510000228881836,30.020000457763672,30.1299991607666,525000,30.1299991607666
2017-11-17,30.270000457763672,29.8700008392334,30.040000915527344,29.979999542236328,248800,29.979999542236328
2017-11-20,30.895000457763672,29.690000534057617,30.729999542236328,30.190000534057617,308200,30.190000534057617
2017-11-21,30.280000686645508,29.954999923706055,30.059999465942383,30.100000381469727,174700,30.100000381469727
2017-11-22,30.25,29.649999618530273,30.110000610351562,29.979999542236328,194100,29.979999542236328
2017-11-24,30.200000762939453,29.700000762939453,30.1299991607666,29.989999771118164,240000,29.989999771118164
2017-11-27,32.18000030517578,30.010000228881836,30.149999618530273,31.81999969482422,540700,31.81999969482422
2017-11-28,32.88999938964844,30.489999771118164,31.920000076293945,31.530000686645508,581400,31.530000686645508
2017-11-29,32.380001068115234,31.530000686645508,31.530000686645508,31.799999237060547,401700,31.799999237060547
2017-11-30,33.0,31.735000610351562,31.790000915527344,32.59000015258789,416800,32.59000015258789
2017-12-01,33.7400016784668,31.641000747680664,32.61000061035156,32.84000015258789,562900,32.84000015258789
2017-12-04,33.880001068115234,32.59000015258789,33.06999969482422,32.63999938964844,266200,32.63999938964844
2017-12-05,33.59000015258789,31.56999969482422,32.58000183105469,32.849998474121094,481600,32.849998474121094
2017-12-06,33.189998626708984,32.04999923706055,32.61000061035156,32.58000183105469,213900,32.58000183105469
2017-12-07,33.810001373291016,32.52000045776367,32.599998474121094,32.900001525878906,232800,32.900001525878906
2017-12-08,33.279998779296875,32.9900016784668,33.02000045776367,33.18000030517578,221000,33.18000030517578
2017-12-11,35.029998779296875,33.25,33.25,35.0,337900,35.0
2017-12-12,35.81999969482422,34.86000061035156,35.45000076293945,35.15999984741211,319300,35.15999984741211
2017-12-13,35.56999969482422,34.3650016784668,35.22999954223633,34.95000076293945,341800,34.95000076293945
2017-12-14,36.650001525878906,35.060001373291016,35.060001373291016,35.58000183105469,390600,35.58000183105469
2017-12-15,36.334999084472656,35.2400016784668,35.41999816894531,35.75,2742100,35.75
2017-12-18,37.564998626708984,35.83000183105469,36.290000915527344,37.41999816894531,286300,37.41999816894531
2017-12-19,37.845001220703125,36.935001373291016,37.40999984741211,37.310001373291016,232500,37.310001373291016
2017-12-20,39.220001220703125,37.38999938964844,37.38999938964844,38.75,703900,38.75
2017-12-21,38.970001220703125,37.619998931884766,38.7599983215332,38.5,257700,38.5
2017-12-22,39.939998626708984,38.25,38.5,39.25,572600,39.25
2017-12-26,39.849998474121094,38.90999984741211,39.119998931884766,39.68000030517578,216700,39.68000030517578
2017-12-27,40.459999084472656,39.400001525878906,39.709999084472656,39.689998626708984,278400,39.689998626708984
2017-12-28,40.58000183105469,39.63999938964844,39.880001068115234,40.470001220703125,255000,40.470001220703125
2017-12-29,40.7599983215332,40.029998779296875,40.529998779296875,40.61000061035156,255100,40.61000061035156
2018-01-02,40.54999923706055,39.54999923706055,40.54999923706055,40.27000045776367,449700,40.27000045776367
2018-01-03,40.279998779296875,39.2400016784668,40.279998779296875,39.90999984741211,371800,39.90999984741211
2018-01-04,40.040000915527344,39.47999954223633,39.900001525878906,39.59000015258789,279600,39.59000015258789
2018-01-05,39.849998474121094,38.79999923706055,39.5,38.900001525878906,261900,38.900001525878906
2018-01-08,39.244998931884766,38.04999923706055,38.88999938964844,38.90999984741211,250200,38.90999984741211
2018-01-09,39.0,37.72999954223633,39.0,37.959999084472656,216100,37.959999084472656
2018-01-10,38.13999938964844,36.349998474121094,37.90999984741211,38.06999969482422,429300,38.06999969482422
2018-01-11,40.06999969482422,37.849998474121094,38.06999969482422,39.81999969482422,148600,39.81999969482422
2018-01-12,41.36000061035156,39.58000183105469,40.099998474121094,40.91999816894531,139500,40.91999816894531
2018-01-16,41.68000030517578,40.459999084472656,40.93000030517578,41.20000076293945,600800,41.20000076293945
2018-01-17,41.71500015258789,39.040000915527344,41.5,41.040000915527344,462400,41.040000915527344
2018-01-18,42.5,41.119998931884766,41.29999923706055,42.0099983215332,252000,42.0099983215332
2018-01-19,43.79999923706055,42.104000091552734,42.13999938964844,43.130001068115234,215700,43.130001068115234
2018-01-22,43.630001068115234,42.29999923706055,43.310001373291016,42.31999969482422,131400,42.31999969482422
2018-01-23,42.630001068115234,40.84000015258789,42.630001068115234,40.97999954223633,244400,40.97999954223633
2018-01-24,41.729000091552734,39.470001220703125,41.22999954223633,39.59000015258789,254000,39.59000015258789
2018-01-25,39.994998931884766,36.779998779296875,39.59000015258789,38.150001525878906,266300,38.150001525878906
2018-01-26,39.7400016784668,37.90399932861328,38.20000076293945,38.86000061035156,144000,38.86000061035156
2018-01-29,39.349998474121094,38.20000076293945,38.869998931884766,38.349998474121094,164700,38.349998474121094
2018-01-30,38.25,36.849998474121094,38.06999969482422,37.27000045776367,182300,37.27000045776367
2018-01-31,39.5,37.279998779296875,37.91999816894531,39.119998931884766,150100,39.119998931884766
2018-02-01,39.400001525878906,37.720001220703125,39.0,39.34000015258789,177900,39.34000015258789
2018-02-02,39.650001525878906,36.79999923706055,39.18000030517578,38.0,187300,38.0
2018-02-05,38.939998626708984,37.130001068115234,37.959999084472656,38.15999984741211,259100,38.15999984741211
2018-02-06,38.40999984741211,36.88100051879883,37.7400016784668,38.08000183105469,209900,38.08000183105469
2018-02-07,38.630001068115234,37.61000061035156,38.099998474121094,37.79999923706055,147800,37.79999923706055
2018-02-08,38.130001068115234,35.5,37.900001525878906,35.619998931884766,153200,35.619998931884766
2018-02-09,36.15999984741211,33.04499816894531,36.15999984741211,35.790000915527344,327000,35.790000915527344
2018-02-12,36.68000030517578,34.54999923706055,36.150001525878906,35.09000015258789,234900,35.09000015258789
2018-02-13,35.959999084472656,34.099998474121094,35.0,34.56999969482422,200700,34.56999969482422
2018-02-14,35.9900016784668,34.189998626708984,34.33000183105469,35.29999923706055,168400,35.29999923706055
2018-02-15,36.04999923706055,34.948001861572266,35.68000030517578,35.040000915527344,191900,35.040000915527344
2018-02-16,36.040000915527344,35.08000183105469,35.08000183105469,35.970001220703125,106800,35.970001220703125
2018-02-20,36.13999938964844,35.380001068115234,35.97999954223633,35.880001068115234,99400,35.880001068115234
2018-02-21,36.81999969482422,35.470001220703125,35.83000183105469,36.119998931884766,205300,36.119998931884766
2018-02-22,36.400001525878906,35.58000183105469,36.16999816894531,35.65999984741211,65500,35.65999984741211
2018-02-23,36.459999084472656,35.310001373291016,35.77000045776367,35.5099983215332,77800,35.5099983215332
2018-02-26,35.83000183105469,34.52000045776367,35.540000915527344,34.90999984741211,123600,34.90999984741211
2018-02-27,35.50899887084961,34.7400016784668,34.900001525878906,34.95000076293945,115100,34.95000076293945
2018-02-28,35.59299850463867,34.310001373291016,34.959999084472656,34.560001373291016,102200,34.560001373291016
2018-03-01,34.810001373291016,32.619998931884766,34.54999923706055,33.86000061035156,149700,33.86000061035156
2018-03-02,35.939998626708984,32.9900016784668,33.560001373291016,35.72999954223633,156700,35.72999954223633
2018-03-05,36.529998779296875,35.10100173950195,35.56999969482422,36.43000030517578,161900,36.43000030517578
2018-03-06,36.79999923706055,35.27000045776367,36.650001525878906,35.45000076293945,204100,35.45000076293945
2018-03-07,35.439998626708984,34.189998626708984,35.290000915527344,34.88999938964844,165000,34.88999938964844
2018-03-08,36.880001068115234,33.619998931884766,35.65999984741211,34.189998626708984,202500,34.189998626708984
2018-03-09,34.85900115966797,33.48099899291992,34.5099983215332,34.11000061035156,148800,34.11000061035156
2018-03-12,34.59000015258789,33.5099983215332,33.84000015258789,34.400001525878906,197300,34.400001525878906
2018-03-13,34.04999923706055,32.86000061035156,33.599998474121094,33.79999923706055,524500,33.79999923706055
2018-03-14,34.689998626708984,33.220001220703125,33.9900016784668,33.56999969482422,608000,33.56999969482422
2018-03-15,33.79999923706055,31.850000381469727,33.70000076293945,32.060001373291016,4698200,32.060001373291016
2018-03-16,32.720001220703125,31.5,32.25,31.56999969482422,1841800,31.56999969482422
2018-03-19,33.400001525878906,31.489999771118164,31.5,32.58000183105469,3134500,32.58000183105469
2018-03-20,33.459999084472656,32.0,32.75,33.09000015258789,772000,33.09000015258789
2018-03-21,34.099998474121094,32.064998626708984,32.83000183105469,33.61000061035156,810100,33.61000061035156
2018-03-22,33.95000076293945,31.860000610351562,33.0099983215332,32.52000045776367,876200,32.52000045776367
2018-03-23,32.5,31.610000610351562,32.5,31.959999084472656,1308900,31.959999084472656
2018-03-26,32.82899856567383,31.770000457763672,32.16999816894531,32.779998779296875,527500,32.779998779296875
2018-03-27,32.959999084472656,31.864999771118164,32.72999954223633,32.02000045776367,400000,32.02000045776367
2018-03-28,32.8650016784668,31.860000610351562,32.0,32.400001525878906,349200,32.400001525878906
2018-03-29,33.060001373291016,32.06399917602539,32.40999984741211,32.310001373291016,220600,32.310001373291016
2018-04-02,32.619998931884766,31.530000686645508,32.13999938964844,31.760000228881836,411800,31.760000228881836
2018-04-03,32.61000061035156,31.96500015258789,32.040000915527344,32.36000061035156,279500,32.36000061035156
2018-04-04,33.220001220703125,31.850000381469727,31.889999389648438,33.060001373291016,360400,33.060001373291016
2018-04-05,33.25,31.5,33.060001373291016,33.0099983215332,286700,33.0099983215332
2018-04-06,33.5,32.2400016784668,32.91999816894531,32.4900016784668,202400,32.4900016784668
2018-04-09,33.400001525878906,32.40999984741211,32.63999938964844,33.040000915527344,437800,33.040000915527344
2018-04-10,33.40999984741211,32.78499984741211,33.369998931884766,33.150001525878906,479000,33.150001525878906
2018-04-11,33.560001373291016,32.06999969482422,32.91999816894531,33.16999816894531,234800,33.16999816894531
2018-04-12,33.56999969482422,32.650001525878906,33.380001068115234,33.18000030517578,173100,33.18000030517578
2018-04-13,33.310001373291016,32.15999984741211,33.310001373291016,32.599998474121094,198600,32.599998474121094
2018-04-16,33.02000045776367,32.029998779296875,32.77000045776367,32.34000015258789,235000,32.34000015258789
2018-04-17,33.0099983215332,32.029998779296875,32.5,32.40999984741211,195400,32.40999984741211
2018-04-18,32.599998474121094,31.8799991607666,32.599998474121094,32.0099983215332,361200,32.0099983215332
2018-04-19,32.540000915527344,31.190000534057617,31.8799991607666,31.6299991607666,319600,31.6299991607666
2018-04-20,31.979999542236328,31.01099967956543,31.600000381469727,31.610000610351562,271700,31.610000610351562
2018-04-23,32.05500030517578,31.389999389648438,31.65999984741211,31.540000915527344,559700,31.540000915527344
2018-04-24,32.47999954223633,31.510000228881836,31.860000610351562,31.940000534057617,246200,31.940000534057617
2018-04-25,32.099998474121094,31.6299991607666,31.940000534057617,31.950000762939453,111200,31.950000762939453
2018-04-26,32.91999816894531,32.040000915527344,32.040000915527344,32.68000030517578,163700,32.68000030517578
2018-04-27,33.099998474121094,31.979999542236328,32.91999816894531,32.88999938964844,202300,32.88999938964844
2018-04-30,33.77000045776367,32.880001068115234,32.880001068115234,33.279998779296875,413200,33.279998779296875
2018-05-01,33.63999938964844,32.709999084472656,33.119998931884766,33.439998626708984,356200,33.439998626708984
2018-05-02,33.66999816894531,33.0,33.2400016784668,33.63999938964844,275500,33.63999938964844
2018-05-03,33.779998779296875,33.0099983215332,33.4900016784668,33.150001525878906,288100,33.150001525878906
2018-05-04,33.40999984741211,31.559999465942383,32.97999954223633,32.810001373291016,241000,32.810001373291016
2018-05-07,33.220001220703125,32.25,32.970001220703125,32.33000183105469,115200,32.33000183105469
2018-05-08,33.220001220703125,32.439998626708984,32.59000015258789,32.970001220703125,184000,32.970001220703125
2018-05-09,33.25,32.599998474121094,33.16999816894531,32.93000030517578,197900,32.93000030517578
2018-05-10,33.380001068115234,32.790000915527344,32.970001220703125,33.369998931884766,242600,33.369998931884766
2018-05-11,33.79999923706055,32.75,33.369998931884766,33.04999923706055,162100,33.04999923706055
2018-05-14,33.31999969482422,32.619998931884766,33.06999969482422,33.0,198600,33.0
2018-05-15,32.29999923706055,29.545000076293945,32.0,31.969999313354492,825800,31.969999313354492
2018-05-16,34.060001373291016,31.825000762939453,32.189998626708984,33.7599983215332,665400,33.7599983215332
2018-05-17,34.81999969482422,33.130001068115234,33.5,34.61000061035156,519900,34.61000061035156
2018-05-18,35.58000183105469,34.27000045776367,34.7400016784668,35.099998474121094,461500,35.099998474121094
2018-05-21,36.099998474121094,35.2599983215332,35.2599983215332,35.88999938964844,346200,35.88999938964844
2018-05-22,36.220001220703125,35.380001068115234,35.849998474121094,35.720001220703125,310500,35.720001220703125
2018-05-23,36.209999084472656,34.959999084472656,35.65999984741211,35.97999954223633,293500,35.97999954223633
2018-05-24,36.290000915527344,35.779998779296875,36.0,36.150001525878906,328400,36.150001525878906
2018-05-25,36.5099983215332,35.599998474121094,35.970001220703125,36.29999923706055,220000,36.29999923706055
2018-05-29,36.41999816894531,35.529998779296875,35.9900016784668,36.08000183105469,316400,36.08000183105469
2018-05-30,36.5099983215332,36.0099983215332,36.209999084472656,36.119998931884766,435400,36.119998931884766
2018-05-31,36.70000076293945,35.689998626708984,36.25,36.400001525878906,623100,36.400001525878906
2018-06-01,36.70000076293945,35.95000076293945,36.61000061035156,36.56999969482422,254100,36.56999969482422
2018-06-04,37.47999954223633,36.16999816894531,36.599998474121094,37.38999938964844,368700,37.38999938964844
2018-06-05,38.22999954223633,37.4010009765625,37.6349983215332,38.09000015258789,543400,38.09000015258789
2018-06-06,38.33000183105469,37.82500076293945,38.290000915527344,37.869998931884766,271000,37.869998931884766
2018-06-07,38.65999984741211,37.505001068115234,37.849998474121094,37.97999954223633,188200,37.97999954223633
2018-06-08,38.5,37.709999084472656,37.93000030517578,37.7400016784668,290400,37.7400016784668
2018-06-11,39.0,37.599998474121094,37.75,38.970001220703125,265000,38.970001220703125
2018-06-12,39.18000030517578,38.22999954223633,38.880001068115234,38.45000076293945,328500,38.45000076293945
2018-06-13,38.65999984741211,36.981998443603516,38.38999938964844,37.20000076293945,405500,37.20000076293945
2018-06-14,37.619998931884766,36.13999938964844,37.209999084472656,36.41999816894531,351000,36.41999816894531
2018-06-15,37.02000045776367,36.38999938964844,36.38999938964844,36.97999954223633,416400,36.97999954223633
2018-06-18,38.119998931884766,36.130001068115234,36.66999816894531,38.0,319100,38.0
2018-06-19,39.130001068115234,36.22999954223633,37.93000030517578,38.91999816894531,452900,38.91999816894531
2018-06-20,39.4900016784668,36.22999954223633,38.939998626708984,38.83000183105469,376100,38.83000183105469
2018-06-21,39.303001403808594,38.13999938964844,38.61000061035156,38.86000061035156,228500,38.86000061035156
2018-06-22,39.20000076293945,37.69499969482422,38.97999954223633,38.279998779296875,1197400,38.279998779296875
2018-06-25,38.560001373291016,37.51499938964844,38.0099983215332,38.54999923706055,275800,38.54999923706055
2018-06-26,39.17499923706055,37.939998626708984,38.529998779296875,38.939998626708984,201700,38.939998626708984
2018-06-27,39.38999938964844,37.720001220703125,38.84000015258789,37.72999954223633,398200,37.72999954223633
2018-06-28,38.220001220703125,36.58000183105469,37.7400016784668,36.65999984741211,394000,36.65999984741211
2018-06-29,37.150001525878906,36.04999923706055,36.81999969482422,36.56999969482422,333100,36.56999969482422
2018-07-02,37.5,35.869998931884766,36.279998779296875,37.45000076293945,166800,37.45000076293945
2018-07-03,38.540000915527344,37.2599983215332,37.459999084472656,38.459999084472656,255200,38.459999084472656
2018-07-05,38.7599983215332,37.439998626708984,38.689998626708984,38.5099983215332,216400,38.5099983215332
2018-07-06,39.11000061035156,38.29999923706055,38.41999816894531,38.84000015258789,226000,38.84000015258789
2018-07-09,39.29999923706055,38.84000015258789,38.9900016784668,38.959999084472656,357400,38.959999084472656
2018-07-10,39.90999984741211,39.060001373291016,39.06999969482422,39.779998779296875,361000,39.779998779296875
2018-07-11,39.86000061035156,39.06999969482422,39.689998626708984,39.560001373291016,288200,39.560001373291016
2018-07-12,39.9900016784668,38.64500045776367,39.779998779296875,39.29999923706055,241600,39.29999923706055
2018-07-13,40.29999923706055,39.22999954223633,39.22999954223633,39.91999816894531,296700,39.91999816894531
2018-07-16,40.599998474121094,39.63999938964844,39.869998931884766,40.2599983215332,341500,40.2599983215332
2018-07-17,40.75,40.13999938964844,40.13999938964844,40.29999923706055,282800,40.29999923706055
2018-07-18,40.779998779296875,39.7599983215332,40.29999923706055,40.68000030517578,290800,40.68000030517578
2018-07-19,41.209999084472656,40.25,40.5,40.470001220703125,294800,40.470001220703125
2018-07-20,40.95000076293945,40.130001068115234,40.47999954223633,40.4900016784668,191600,40.4900016784668
2018-07-23,41.459999084472656,39.970001220703125,40.34000015258789,40.91999816894531,250600,40.91999816894531
2018-07-24,40.84199905395508,38.709999084472656,39.90999984741211,39.81999969482422,745000,39.81999969482422
2018-07-25,40.70000076293945,38.959999084472656,39.7400016784668,40.59000015258789,775100,40.59000015258789
2018-07-26,40.029998779296875,39.45000076293945,39.5,39.4900016784668,5896500,39.4900016784668
2018-07-27,39.75,39.13999938964844,39.5,39.29999923706055,2438300,39.29999923706055
2018-07-30,40.380001068115234,39.599998474121094,39.779998779296875,40.13999938964844,3985400,40.13999938964844
2018-07-31,40.72999954223633,39.900001525878906,40.45000076293945,40.65999984741211,927800,40.65999984741211
2018-08-01,40.849998474121094,40.2599983215332,40.45000076293945,40.650001525878906,623600,40.650001525878906
2018-08-02,41.005001068115234,39.88999938964844,39.90999984741211,40.599998474121094,691000,40.599998474121094
2018-08-03,41.209999084472656,39.90999984741211,39.90999984741211,41.029998779296875,1351300,41.029998779296875
2018-08-06,42.224998474121094,40.97999954223633,41.2400016784668,42.06999969482422,635900,42.06999969482422
2018-08-07,42.93000030517578,41.724998474121094,42.119998931884766,42.79999923706055,854200,42.79999923706055
2018-08-08,43.51499938964844,42.494998931884766,42.68000030517578,43.22999954223633,596000,43.22999954223633
2018-08-09,44.79999923706055,42.70100021362305,43.41999816894531,44.790000915527344,582200,44.790000915527344
2018-08-10,45.16999816894531,43.029998779296875,43.41999816894531,44.900001525878906,433200,44.900001525878906
2018-08-13,45.560001373291016,42.66999816894531,45.0,43.75,739800,43.75
2018-08-14,46.0,41.290000915527344,45.939998626708984,43.630001068115234,1437000,43.630001068115234
2018-08-15,43.83000183105469,39.20000076293945,43.83000183105469,40.08000183105469,2190900,40.08000183105469
2018-08-16,41.119998931884766,39.66999816894531,40.540000915527344,39.67499923706055,702100,39.67499923706055
2018-08-17,40.709999084472656,39.06999969482422,39.54999923706055,40.459999084472656,549400,40.459999084472656
2018-08-20,42.810001373291016,40.529998779296875,40.529998779296875,41.810001373291016,1339300,41.810001373291016
2018-08-21,42.93000030517578,41.435001373291016,42.150001525878906,42.630001068115234,637400,42.630001068115234
2018-08-22,43.33000183105469,42.08000183105469,42.63999938964844,42.95000076293945,630500,42.95000076293945
2018-08-23,43.88999938964844,42.220001220703125,42.939998626708984,43.31999969482422,549000,43.31999969482422
2018-08-24,43.2400016784668,42.380001068115234,43.040000915527344,42.540000915527344,358700,42.540000915527344
2018-08-27,43.650001525878906,42.2400016784668,42.5,42.970001220703125,712400,42.970001220703125
2018-08-28,43.31999969482422,42.63999938964844,43.220001220703125,42.959999084472656,480100,42.959999084472656
2018-08-29,43.27000045776367,42.2599983215332,43.0,43.099998474121094,381800,43.099998474121094
2018-08-30,43.77299880981445,42.79999923706055,43.0,43.33000183105469,210700,43.33000183105469
2018-08-31,44.36000061035156,43.07699966430664,43.16999816894531,44.25,295200,44.25
2018-09-04,45.209999084472656,43.869998931884766,44.2400016784668,44.880001068115234,478700,44.880001068115234
2018-09-05,45.79999923706055,43.90999984741211,44.65999984741211,45.540000915527344,544800,45.540000915527344
2018-09-06,46.189998626708984,44.81999969482422,45.869998931884766,45.04999923706055,261500,45.04999923706055
2018-09-07,46.630001068115234,44.93000030517578,44.93000030517578,45.720001220703125,484700,45.720001220703125
2018-09-10,46.45000076293945,45.34000015258789,45.970001220703125,45.529998779296875,219400,45.529998779296875
2018-09-11,45.709999084472656,44.56999969482422,45.279998779296875,45.119998931884766,210400,45.119998931884766
2018-09-12,45.79999923706055,44.56999969482422,45.16999816894531,44.869998931884766,236200,44.869998931884766
2018-09-13,45.65999984741211,44.77000045776367,45.119998931884766,44.88999938964844,232300,44.88999938964844
2018-09-14,45.22999954223633,44.4900016784668,44.84000015258789,44.68000030517578,454000,44.68000030517578
2018-09-17,44.650001525878906,43.2400016784668,44.599998474121094,43.40999984741211,222700,43.40999984741211
2018-09-18,43.847999572753906,43.04999923706055,43.40999984741211,43.54999923706055,502000,43.54999923706055
2018-09-19,43.86000061035156,42.70000076293945,43.400001525878906,43.15999984741211,278700,43.15999984741211
2018-09-20,44.33000183105469,42.849998474121094,43.41999816894531,43.689998626708984,278800,43.689998626708984
2018-09-21,45.11000061035156,42.63999938964844,43.72999954223633,43.34000015258789,793900,43.34000015258789
2018-09-24,44.939998626708984,41.77000045776367,42.400001525878906,43.27000045776367,436400,43.27000045776367
2018-09-25,44.04999923706055,42.59000015258789,43.34000015258789,44.0,295000,44.0
2018-09-26,44.91999816894531,43.86000061035156,44.63999938964844,44.150001525878906,313700,44.150001525878906
2018-09-27,45.150001525878906,44.0,44.13999938964844,45.099998474121094,215900,45.099998474121094
2018-09-28,46.369998931884766,44.540000915527344,44.959999084472656,45.13999938964844,499800,45.13999938964844
2018-10-01,45.540000915527344,44.029998779296875,45.369998931884766,44.5099983215332,366000,44.5099983215332
2018-10-02,44.900001525878906,43.28499984741211,44.290000915527344,43.68000030517578,658400,43.68000030517578
2018-10-03,44.869998931884766,43.3380012512207,43.93000030517578,44.84000015258789,271500,44.84000015258789
2018-10-04,45.4900016784668,43.599998474121094,45.4900016784668,44.0,852400,44.0
2018-10-05,44.36000061035156,43.5,44.06999969482422,43.849998474121094,467500,43.849998474121094
2018-10-08,44.619998931884766,42.2400016784668,43.650001525878906,42.72999954223633,353800,42.72999954223633
2018-10-09,43.4900016784668,42.09000015258789,42.58000183105469,42.439998626708984,328500,42.439998626708984
2018-10-10,43.2400016784668,39.959999084472656,42.439998626708984,40.15999984741211,673500,40.15999984741211
2018-10-11,40.76499938964844,38.599998474121094,40.459999084472656,39.93000030517578,463300,39.93000030517578
2018-10-12,42.439998626708984,40.2400016784668,40.56999969482422,42.220001220703125,556700,42.220001220703125
2018-10-15,42.779998779296875,41.5099983215332,42.02000045776367,42.18000030517578,447500,42.18000030517578
2018-10-16,42.71500015258789,41.709999084472656,42.2599983215332,42.5,303600,42.5
2018-10-17,42.5,41.20000076293945,42.5,42.40999984741211,209100,42.40999984741211
2018-10-18,42.65999984741211,41.310001373291016,42.15999984741211,41.7599983215332,414700,41.7599983215332
2018-10-19,42.93000030517578,41.36000061035156,41.75,41.56999969482422,270400,41.56999969482422
2018-10-22,42.970001220703125,41.54499816894531,41.7400016784668,42.33000183105469,237300,42.33000183105469
2018-10-23,42.560001373291016,41.06999969482422,41.650001525878906,42.20000076293945,358400,42.20000076293945
2018-10-24,42.939998626708984,41.290000915527344,42.09000015258789,41.58000183105469,490600,41.58000183105469
2018-10-25,42.7400016784668,40.2400016784668,42.09000015258789,41.029998779296875,645300,41.029998779296875
2018-10-26,41.68000030517578,38.93000030517578,40.61000061035156,41.15999984741211,378500,41.15999984741211
2018-10-29,42.119998931884766,40.84000015258789,41.5,41.31999969482422,304500,41.31999969482422
2018-10-30,42.834999084472656,41.279998779296875,41.310001373291016,42.290000915527344,366000,42.290000915527344
2018-10-31,43.189998626708984,41.34000015258789,42.7400016784668,41.43000030517578,503400,41.43000030517578
2018-11-01,43.189998626708984,41.35499954223633,41.47999954223633,42.790000915527344,378500,42.790000915527344
2018-11-02,43.63999938964844,42.45399856567383,42.869998931884766,43.220001220703125,349400,43.220001220703125
2018-11-05,44.45000076293945,42.689998626708984,43.22999954223633,44.20000076293945,378800,44.20000076293945
2018-11-06,45.02000045776367,43.86000061035156,44.060001373291016,44.529998779296875,447500,44.529998779296875
2018-11-07,45.0,43.689998626708984,44.529998779296875,44.77000045776367,447700,44.77000045776367
2018-11-08,45.880001068115234,44.63999938964844,44.880001068115234,45.0,323900,45.0
2018-11-09,45.380001068115234,43.77000045776367,45.0,43.849998474121094,253600,43.849998474121094
2018-11-12,44.79499816894531,42.04999923706055,43.86000061035156,42.4900016784668,719800,42.4900016784668
2018-11-13,43.5,38.52000045776367,43.5,41.09000015258789,856700,41.09000015258789
2018-11-14,42.67499923706055,40.27000045776367,40.27000045776367,41.779998779296875,945400,41.779998779296875
2018-11-15,40.790000915527344,39.54999923706055,39.84000015258789,40.0,4219000,40.0
2018-11-16,40.060001373291016,38.84000015258789,39.95000076293945,39.189998626708984,1321000,39.189998626708984
2018-11-19,39.599998474121094,37.02000045776367,39.18000030517578,37.209999084472656,1585900,37.209999084472656
2018-11-20,37.20000076293945,35.65999984741211,36.650001525878906,36.060001373291016,1639300,36.060001373291016
2018-11-21,37.349998474121094,35.775001525878906,36.5,36.959999084472656,3005100,36.959999084472656
2018-11-23,37.119998931884766,36.119998931884766,36.47999954223633,36.779998779296875,510200,36.779998779296875
2018-11-26,37.560001373291016,36.15999984741211,37.0099983215332,36.189998626708984,818900,36.189998626708984
2018-11-27,36.689998626708984,34.72999954223633,35.84000015258789,36.689998626708984,613600,36.689998626708984
2018-11-28,37.75,36.053001403808594,36.68000030517578,37.75,1081700,37.75
2018-11-29,37.75,36.26499938964844,37.630001068115234,37.470001220703125,889700,37.470001220703125
2018-11-30,37.349998474121094,36.040000915527344,37.2400016784668,36.77000045776367,1639700,36.77000045776367
2018-12-03,38.400001525878906,37.064998626708984,37.5,38.33000183105469,1201600,38.33000183105469
2018-12-04,38.529998779296875,36.27000045776367,38.31999969482422,36.34000015258789,603300,36.34000015258789
2018-12-06,37.53499984741211,34.310001373291016,35.83000183105469,35.52000045776367,1095700,35.52000045776367
2018-12-07,35.66999816894531,32.349998474121094,35.40999984741211,32.36000061035156,1445000,32.36000061035156
2018-12-10,34.060001373291016,31.549999237060547,32.5099983215332,31.899999618530273,1095200,31.899999618530273
2018-12-11,32.88199996948242,31.81999969482422,32.40999984741211,32.36000061035156,834600,32.36000061035156
2018-12-12,32.970001220703125,31.84000015258789,32.599998474121094,31.860000610351562,484800,31.860000610351562
2018-12-13,32.65999984741211,30.440000534057617,32.0,30.690000534057617,783300,30.690000534057617
2018-12-14,30.950000762939453,29.600000381469727,30.420000076293945,29.84000015258789,719600,29.84000015258789
2018-12-17,30.299999237060547,28.920000076293945,29.469999313354492,29.229999542236328,1218700,29.229999542236328
2018-12-18,29.670000076293945,28.579999923706055,29.670000076293945,29.06999969482422,697500,29.06999969482422
2018-12-19,29.780000686645508,28.920000076293945,29.139999389648438,29.079999923706055,1189800,29.079999923706055
2018-12-20,29.100000381469727,26.719999313354492,29.100000381469727,27.020000457763672,1188200,27.020000457763672
2018-12-21,27.959999084472656,26.1200008392334,27.40999984741211,26.40999984741211,2134100,26.40999984741211
2018-12-24,26.969999313354492,25.599000930786133,26.0,26.479999542236328,386900,26.479999542236328
2018-12-26,28.280000686645508,26.59000015258789,26.59000015258789,28.260000228881836,656700,28.260000228881836
2018-12-27,29.93000030517578,27.31999969482422,27.889999389648438,29.059999465942383,1009900,29.059999465942383
2018-12-28,29.530000686645508,28.6299991607666,29.0,28.979999542236328,898300,28.979999542236328
2018-12-31,29.25,27.889999389648438,29.25,28.170000076293945,994700,28.170000076293945
2019-01-02,28.25,27.440000534057617,27.700000762939453,27.940000534057617,509200,27.940000534057617
2019-01-03,28.860000610351562,27.110000610351562,27.639999389648438,27.190000534057617,571900,27.190000534057617
2019-01-04,28.270000457763672,27.020000457763672,27.34000015258789,27.729999542236328,765500,27.729999542236328
2019-01-07,28.68000030517578,27.790000915527344,27.790000915527344,28.6299991607666,997100,28.6299991607666
2019-01-08,29.350000381469727,28.520000457763672,28.84000015258789,29.1299991607666,829700,29.1299991607666
2019-01-09,29.799999237060547,28.950000762939453,29.059999465942383,29.56999969482422,525100,29.56999969482422
2019-01-10,29.59000015258789,28.5,29.200000762939453,29.350000381469727,783700,29.350000381469727
2019-01-11,31.450000762939453,28.889999389648438,29.350000381469727,30.920000076293945,1586400,30.920000076293945
2019-01-14,31.7810001373291,29.940000534057617,30.84000015258789,30.420000076293945,684700,30.420000076293945
2019-01-15,30.700000762939453,30.030000686645508,30.270000457763672,30.600000381469727,439500,30.600000381469727
2019-01-16,31.959999084472656,30.59000015258789,30.600000381469727,31.90999984741211,950900,31.90999984741211
2019-01-17,32.619998931884766,31.06999969482422,31.65999984741211,32.540000915527344,807800,32.540000915527344
2019-01-18,33.65999984741211,32.1150016784668,32.54999923706055,33.25,972700,33.25
2019-01-22,33.33000183105469,31.670000076293945,33.11000061035156,31.969999313354492,679700,31.969999313354492
2019-01-23,32.97999954223633,31.3700008392334,31.8799991607666,31.8700008392334,538200,31.8700008392334
2019-01-24,32.47999954223633,31.43000030517578,31.8700008392334,32.45000076293945,338700,32.45000076293945
2019-01-25,33.2400016784668,31.81999969482422,32.91999816894531,32.849998474121094,397800,32.849998474121094
2019-01-28,32.93299865722656,31.489999771118164,32.31999969482422,31.739999771118164,490100,31.739999771118164
2019-01-29,32.150001525878906,31.450000762939453,31.850000381469727,31.59000015258789,359100,31.59000015258789
2019-01-30,31.90999984741211,31.1299991607666,31.90999984741211,31.3700008392334,331700,31.3700008392334
2019-01-31,31.809999465942383,30.858999252319336,31.270000457763672,31.760000228881836,492800,31.760000228881836
2019-02-01,32.060001373291016,31.309999465942383,31.940000534057617,31.860000610351562,330500,31.860000610351562
2019-02-04,31.889999389648438,31.399999618530273,31.790000915527344,31.549999237060547,503500,31.549999237060547
2019-02-05,32.66999816894531,31.530000686645508,31.600000381469727,32.5099983215332,416200,32.5099983215332
2019-02-06,32.6349983215332,31.290000915527344,32.41999816894531,31.3799991607666,362700,31.3799991607666
2019-02-07,31.799999237060547,30.690000534057617,31.100000381469727,31.719999313354492,458100,31.719999313354492
2019-02-08,31.899999618530273,31.079999923706055,31.559999465942383,31.770000457763672,286100,31.770000457763672
2019-02-11,32.189998626708984,31.530000686645508,31.729999542236328,31.780000686645508,470500,31.780000686645508
2019-02-12,32.95000076293945,31.920000076293945,32.08000183105469,32.939998626708984,363500,32.939998626708984
2019-02-13,33.619998931884766,32.560001373291016,33.13999938964844,33.41999816894531,402600,33.41999816894531
2019-02-14,33.75,32.744998931884766,33.22999954223633,33.310001373291016,515200,33.310001373291016
2019-02-15,34.380001068115234,33.06399917602539,33.56999969482422,34.0,504400,34.0
2019-02-19,34.040000915527344,33.209999084472656,33.79999923706055,33.47999954223633,429200,33.47999954223633
2019-02-20,34.20000076293945,33.380001068115234,33.43000030517578,34.18000030517578,469400,34.18000030517578
2019-02-21,34.209999084472656,33.15999984741211,33.9900016784668,33.40999984741211,419900,33.40999984741211
2019-02-22,33.70000076293945,33.119998931884766,33.66999816894531,33.689998626708984,372000,33.689998626708984
2019-02-25,34.02199935913086,32.900001525878906,33.689998626708984,32.970001220703125,524800,32.970001220703125
2019-02-26,34.16999816894531,32.83000183105469,33.040000915527344,34.060001373291016,929500,34.060001373291016
2019-02-27,35.65999984741211,31.0,32.34000015258789,32.95000076293945,1236200,32.95000076293945
2019-02-28,33.84000015258789,31.290000915527344,32.029998779296875,33.599998474121094,1085800,33.599998474121094
2019-03-01,35.470001220703125,33.599998474121094,33.97999954223633,35.189998626708984,562300,35.189998626708984
2019-03-04,35.380001068115234,32.76499938964844,35.380001068115234,33.0099983215332,731600,33.0099983215332
2019-03-05,33.189998626708984,32.029998779296875,32.66999816894531,32.099998474121094,672800,32.099998474121094
2019-03-06,32.35499954223633,30.799999237060547,32.189998626708984,31.40999984741211,725700,31.40999984741211
2019-03-07,31.40999984741211,30.600000381469727,31.309999465942383,31.18000030517578,633400,31.18000030517578
2019-03-08,31.309999465942383,30.25,30.84000015258789,30.440000534057617,903800,30.440000534057617
2019-03-11,31.530000686645508,30.280000686645508,30.280000686645508,31.299999237060547,539900,31.299999237060547
2019-03-12,31.3799991607666,30.34000015258789,31.3799991607666,30.719999313354492,431500,30.719999313354492
2019-03-13,31.639999389648438,30.5,30.829999923706055,31.6200008392334,1028000,31.6200008392334
2019-03-14,31.885000228881836,30.8700008392334,31.579999923706055,31.09000015258789,557800,31.09000015258789
2019-03-15,30.959999084472656,29.829999923706055,30.959999084472656,30.5,1283100,30.5
2019-03-18,30.68000030517578,29.979999542236328,30.540000915527344,30.170000076293945,714200,30.170000076293945
2019-03-19,30.559999465942383,29.6299991607666,30.329999923706055,29.829999923706055,608400,29.829999923706055
2019-03-20,30.030000686645508,28.579999923706055,29.8700008392334,28.93000030517578,694200,28.93000030517578
2019-03-21,29.899999618530273,28.459999084472656,28.889999389648438,29.75,641700,29.75
2019-03-22,29.69499969482422,28.649999618530273,29.510000228881836,29.06999969482422,458100,29.06999969482422
2019-03-25,29.780000686645508,28.530000686645508,29.020000457763672,29.3799991607666,406200,29.3799991607666
2019-03-26,30.670000076293945,29.329999923706055,29.600000381469727,30.049999237060547,661200,30.049999237060547
2019-03-27,31.75,30.059999465942383,30.059999465942383,31.280000686645508,923900,31.280000686645508
2019-03-28,31.985000610351562,30.969999313354492,31.420000076293945,31.239999771118164,504800,31.239999771118164
2019-03-29,31.6299991607666,30.989999771118164,31.3799991607666,31.43000030517578,414600,31.43000030517578
2019-04-01,32.06999969482422,31.209999084472656,31.540000915527344,31.979999542236328,578700,31.979999542236328
2019-04-02,31.969999313354492,29.84000015258789,31.969999313354492,30.450000762939453,1068900,30.450000762939453
2019-04-03,30.864999771118164,29.81999969482422,30.75,30.170000076293945,652100,30.170000076293945
2019-04-04,30.90999984741211,29.854999542236328,30.309999465942383,30.510000228881836,467200,30.510000228881836
2019-04-05,30.639999389648438,30.239999771118164,30.600000381469727,30.399999618530273,511500,30.399999618530273
2019-04-08,30.469999313354492,29.75,30.31999969482422,29.93000030517578,611200,29.93000030517578
2019-04-09,29.969999313354492,29.469999313354492,29.75,29.489999771118164,423200,29.489999771118164
2019-04-10,30.514999389648438,29.389999389648438,29.489999771118164,29.579999923706055,1025400,29.579999923706055
2019-04-11,30.049999237060547,29.1299991607666,29.729999542236328,29.559999465942383,713600,29.559999465942383
2019-04-12,29.989999771118164,29.100000381469727,29.770000457763672,29.1200008392334,586300,29.1200008392334
2019-04-15,29.5,28.610000610351562,29.18000030517578,29.25,1117500,29.25
2019-04-16,29.459999084472656,28.75,29.270000457763672,29.200000762939453,470500,29.200000762939453
2019-04-17,29.565000534057617,28.360000610351562,29.290000915527344,28.6299991607666,675300,28.6299991607666
2019-04-18,28.770000457763672,27.979999542236328,28.56999969482422,28.3799991607666,827300,28.3799991607666
2019-04-22,29.040000915527344,27.90999984741211,28.260000228881836,28.549999237060547,2719200,28.549999237060547
2019-04-23,29.40999984741211,28.5,28.700000762939453,29.100000381469727,569800,29.100000381469727
2019-04-24,29.652000427246094,29.0,29.059999465942383,29.209999084472656,690100,29.209999084472656
2019-04-25,29.34000015258789,28.440000534057617,29.049999237060547,29.15999984741211,312200,29.15999984741211
2019-04-26,29.06999969482422,27.68000030517578,29.06999969482422,28.139999389648438,1527500,28.139999389648438
2019-04-29,28.545000076293945,27.399999618530273,28.260000228881836,27.780000686645508,904300,27.780000686645508
2019-04-30,27.899999618530273,26.065000534057617,27.75,27.0,1433200,27.0
2019-05-01,27.475000381469727,26.43000030517578,26.979999542236328,26.799999237060547,888000,26.799999237060547
2019-05-02,27.100000381469727,26.024999618530273,26.729999542236328,27.049999237060547,856000,27.049999237060547
2019-05-03,27.90999984741211,27.040000915527344,27.229999542236328,27.719999313354492,750800,27.719999313354492
2019-05-06,27.78499984741211,26.899999618530273,27.170000076293945,27.450000762939453,735200,27.450000762939453
2019-05-07,27.360000610351562,26.170000076293945,27.1200008392334,26.239999771118164,952600,26.239999771118164
2019-05-08,26.75,25.790000915527344,26.290000915527344,26.59000015258789,815100,26.59000015258789
2019-05-09,29.43000030517578,26.989999771118164,27.15999984741211,27.489999771118164,1553000,27.489999771118164
2019-05-10,27.559999465942383,26.459999084472656,27.209999084472656,27.459999084472656,878300,27.459999084472656
2019-05-13,27.15999984741211,26.1299991607666,26.940000534057617,26.5,902600,26.5
2019-05-14,27.260000228881836,26.549999237060547,26.59000015258789,27.200000762939453,632500,27.200000762939453
2019-05-15,27.81999969482422,26.780000686645508,26.899999618530273,27.700000762939453,1222100,27.700000762939453
2019-05-16,28.43000030517578,27.360000610351562,27.770000457763672,27.559999465942383,826300,27.559999465942383
2019-05-17,27.770000457763672,26.5,27.209999084472656,27.110000610351562,1062300,27.110000610351562
2019-05-20,27.05500030517578,26.420000076293945,26.799999237060547,26.6299991607666,610700,26.6299991607666
2019-05-21,27.584999084472656,26.459999084472656,26.760000228881836,27.459999084472656,898900,27.459999084472656
2019-05-22,28.170000076293945,27.229999542236328,27.31999969482422,27.84000015258789,581200,27.84000015258789
2019-05-23,28.469999313354492,27.280000686645508,27.559999465942383,28.34000015258789,640700,28.34000015258789
2019-05-24,29.049999237060547,27.780000686645508,28.510000228881836,28.860000610351562,1011200,28.860000610351562
