Date,High,Low,Open,Close,Volume,Adj Close
2016-09-29,20.200000762939453,20.100000381469727,20.200000762939453,20.100000381469727,1500.0,17.45844268798828
2016-09-30,20.100000381469727,20.100000381469727,20.100000381469727,20.100000381469727,0.0,17.45844268798828
2016-10-03,20.200000762939453,20.200000762939453,20.200000762939453,20.200000762939453,1000.0,17.545299530029297
2016-10-04,20.200000762939453,20.200000762939453,20.200000762939453,20.200000762939453,0.0,17.545299530029297
2016-10-05,20.15999984741211,20.15999984741211,20.15999984741211,20.15999984741211,2500.0,17.510555267333984
2016-10-06,20.200000762939453,20.200000762939453,20.200000762939453,20.200000762939453,300.0,17.545299530029297
2016-10-07,20.200000762939453,20.200000762939453,20.200000762939453,20.200000762939453,0.0,17.545299530029297
2016-10-10,20.950000762939453,20.280000686645508,20.280000686645508,20.479999542236328,5000.0,17.788503646850586
2016-10-11,20.079999923706055,20.079999923706055,20.079999923706055,20.079999923706055,500.0,17.441072463989258
2016-10-12,20.099000930786133,19.954999923706055,20.099000930786133,19.95599937438965,5000.0,17.333364486694336
2016-10-13,19.959999084472656,19.891000747680664,19.940000534057617,19.899999618530273,1300.0,17.28472328186035
2016-10-14,19.920000076293945,19.899999618530273,19.899999618530273,19.920000076293945,3200.0,17.30209732055664
2016-10-17,19.829999923706055,19.829999923706055,19.829999923706055,19.829999923706055,800.0,17.223926544189453
2016-10-18,19.780000686645508,19.729999542236328,19.780000686645508,19.780000686645508,3900.0,17.180498123168945
2016-10-19,19.780000686645508,19.780000686645508,19.780000686645508,19.780000686645508,0.0,17.180498123168945
2016-10-20,19.889999389648438,19.788000106811523,19.788000106811523,19.860000610351562,1900.0,17.24998664855957
2016-10-21,19.809999465942383,19.784000396728516,19.809999465942383,19.784000396728516,800.0,17.270936965942383
2016-10-24,19.784000396728516,19.784000396728516,19.784000396728516,19.784000396728516,0.0,17.270936965942383
2016-10-25,19.889999389648438,19.850000381469727,19.889999389648438,19.850000381469727,2100.0,17.328554153442383
2016-10-26,21.5049991607666,19.773000717163086,19.799999237060547,19.780000686645508,10200.0,17.26744270324707
2016-10-27,19.809999465942383,19.670000076293945,19.809999465942383,19.670000076293945,4400.0,17.171417236328125
2016-10-28,19.670000076293945,19.670000076293945,19.670000076293945,19.670000076293945,0.0,17.171417236328125
2016-10-31,19.56999969482422,19.475000381469727,19.56999969482422,19.545000076293945,900.0,17.062292098999023
2016-11-01,19.545000076293945,19.545000076293945,19.545000076293945,19.545000076293945,0.0,17.062292098999023
2016-11-02,19.260000228881836,19.260000228881836,19.260000228881836,19.260000228881836,2000.0,16.81349754333496
2016-11-03,19.06399917602539,19.009000778198242,19.009000778198242,19.016000747680664,2200.0,16.600486755371094
2016-11-04,19.030000686645508,18.945999145507812,18.945999145507812,18.961999893188477,1500.0,16.553346633911133
2016-11-07,19.200000762939453,19.030000686645508,19.075000762939453,19.030000686645508,3000.0,16.612712860107422
2016-11-08,19.260000228881836,19.260000228881836,19.260000228881836,19.260000228881836,300.0,16.81349754333496
2016-11-09,19.39900016784668,19.340999603271484,19.340999603271484,19.39900016784668,600.0,16.93483543395996
2016-11-10,19.43000030517578,19.290000915527344,19.43000030517578,19.360000610351562,7100.0,16.900793075561523
2016-11-11,19.222000122070312,19.222000122070312,19.222000122070312,19.222000122070312,600.0,16.780324935913086
2016-11-14,19.219999313354492,19.149999618530273,19.209999084472656,19.149999618530273,13800.0,16.71747398376465
2016-11-15,22.979999542236328,19.309999465942383,22.979999542236328,19.309999465942383,1800.0,16.857147216796875
2016-11-16,19.420000076293945,19.420000076293945,19.420000076293945,19.420000076293945,1000.0,16.95317268371582
2016-11-17,21.360000610351562,19.430999755859375,19.459999084472656,19.469999313354492,8000.0,16.996826171875
2016-11-18,19.469999313354492,19.450000762939453,19.450000762939453,19.469999313354492,12900.0,16.996826171875
2016-11-21,19.600000381469727,19.600000381469727,19.600000381469727,19.600000381469727,800.0,17.110307693481445
2016-11-22,19.59000015258789,19.562000274658203,19.562000274658203,19.59000015258789,4500.0,17.198095321655273
2016-11-23,19.579999923706055,19.56999969482422,19.56999969482422,19.579999923706055,300.0,17.189321517944336
2016-11-25,19.709999084472656,19.68000030517578,19.68000030517578,19.700000762939453,7400.0,17.294666290283203
2016-11-28,19.700000762939453,19.65999984741211,19.700000762939453,19.68000030517578,2100.0,17.27711296081543
2016-11-29,19.59000015258789,19.59000015258789,19.59000015258789,19.59000015258789,200.0,17.198095321655273
2016-11-30,19.61400032043457,19.61400032043457,19.61400032043457,19.61400032043457,600.0,17.219165802001953
2016-12-01,19.57900047302246,19.503999710083008,19.57900047302246,19.503999710083008,1500.0,17.122591018676758
2016-12-02,19.540000915527344,19.533000946044922,19.533000946044922,19.540000915527344,1000.0,17.15420150756836
2016-12-05,19.600000381469727,19.600000381469727,19.600000381469727,19.600000381469727,1000.0,17.206878662109375
2016-12-06,21.559999465942383,19.591999053955078,19.591999053955078,19.739999771118164,120800.0,17.329790115356445
2016-12-07,19.860000610351562,19.704999923706055,19.75,19.860000610351562,1800.0,17.43513298034668
2016-12-08,19.979999542236328,19.753999710083008,19.84000015258789,19.840999603271484,10300.0,17.418453216552734
2016-12-09,19.90999984741211,19.8700008392334,19.90999984741211,19.90999984741211,74300.0,17.47903060913086
2016-12-12,19.8799991607666,19.780000686645508,19.780000686645508,19.829999923706055,17500.0,17.40880012512207
2016-12-13,20.075000762939453,19.864999771118164,19.899999618530273,19.959999084472656,9300.0,17.52292251586914
2016-12-14,19.951000213623047,19.850000381469727,19.850000381469727,19.889999389648438,6400.0,17.46146583557129
2016-12-15,19.889999389648438,19.85300064086914,19.889999389648438,19.889999389648438,2400.0,17.46146583557129
2016-12-16,19.950000762939453,19.920000076293945,19.948999404907227,19.940000534057617,15200.0,17.505367279052734
2016-12-19,20.020000457763672,19.95400047302246,20.010000228881836,19.95400047302246,57000.0,17.517658233642578
2016-12-20,20.030000686645508,19.940000534057617,20.030000686645508,20.030000686645508,30800.0,17.58437728881836
2016-12-21,19.940000534057617,19.920000076293945,19.940000534057617,19.924999237060547,8700.0,17.572908401489258
2016-12-22,19.979999542236328,19.920000076293945,19.979999542236328,19.93000030517578,400300.0,17.57731819152832
2016-12-23,20.024999618530273,19.950000762939453,19.950000762939453,20.020000457763672,2600.0,17.656702041625977
2016-12-27,20.079999923706055,20.030000686645508,20.06999969482422,20.030000686645508,1700.0,17.665517807006836
2016-12-28,20.020000457763672,20.020000457763672,20.020000457763672,20.020000457763672,300.0,17.656702041625977
2016-12-29,20.027000427246094,19.9950008392334,19.9950008392334,20.027000427246094,700.0,17.662872314453125
2016-12-30,20.1299991607666,20.027000427246094,20.110000610351562,20.027000427246094,1300.0,17.662872314453125
2017-01-03,20.15999984741211,20.1200008392334,20.1200008392334,20.15999984741211,600.0,17.780166625976562
2017-01-04,20.350000381469727,20.1299991607666,20.32900047302246,20.149999618530273,12800.0,17.77134895324707
2017-01-05,20.25,20.198999404907227,20.25,20.219999313354492,4400.0,17.833086013793945
2017-01-06,20.329999923706055,20.270000457763672,20.270000457763672,20.329999923706055,700.0,17.930103302001953
2017-01-09,20.350000381469727,20.31999969482422,20.34000015258789,20.350000381469727,3300.0,17.947738647460938
2017-01-10,20.389999389648438,20.360000610351562,20.360000610351562,20.389999389648438,1400.0,17.983016967773438
2017-01-11,20.399999618530273,20.398000717163086,20.398000717163086,20.399999618530273,1400.0,17.99183464050293
2017-01-12,20.489999771118164,20.325000762939453,20.489999771118164,20.3799991607666,15300.0,17.974199295043945
2017-01-13,20.43000030517578,20.3700008392334,20.39299964904785,20.409000396728516,7800.0,17.999773025512695
2017-01-17,20.459999084472656,20.400999069213867,20.400999069213867,20.450000762939453,2300.0,18.035938262939453
2017-01-18,20.459999084472656,20.209999084472656,20.459999084472656,20.415000915527344,27500.0,18.005064010620117
2017-01-19,20.450000762939453,20.309999465942383,20.450000762939453,20.344999313354492,7600.0,17.943326950073242
2017-01-20,20.329999923706055,20.229999542236328,20.229999542236328,20.28499984741211,10800.0,17.987667083740234
2017-01-23,20.32200050354004,20.229999542236328,20.229999542236328,20.32200050354004,2100.0,18.020475387573242
2017-01-24,20.41900062561035,20.3799991607666,20.3799991607666,20.415000915527344,2200.0,18.102941513061523
2017-01-25,20.559999465942383,20.479999542236328,20.541000366210938,20.559999465942383,4800.0,18.231517791748047
2017-01-26,20.59000015258789,20.489999771118164,20.562000274658203,20.59000015258789,14700.0,18.25812530517578
2017-01-27,20.59000015258789,20.59000015258789,20.59000015258789,20.59000015258789,0.0,18.25812530517578
2017-01-30,20.4689998626709,20.461000442504883,20.461000442504883,20.4689998626709,700.0,18.150829315185547
2017-01-31,20.520000457763672,20.459999084472656,20.520000457763672,20.520000457763672,5500.0,18.19605255126953
2017-02-01,20.6299991607666,20.577999114990234,20.586000442504883,20.6299991607666,3900.0,18.293590545654297
2017-02-02,20.649999618530273,20.559999465942383,20.6200008392334,20.649999618530273,7200.0,18.311330795288086
2017-02-03,20.75,20.650999069213867,20.674999237060547,20.75,21700.0,18.400007247924805
2017-02-06,20.841999053955078,20.7189998626709,20.7189998626709,20.841999053955078,3400.0,18.481590270996094
2017-02-07,20.760000228881836,20.75,20.760000228881836,20.75,1000.0,18.400007247924805
2017-02-08,20.679000854492188,20.679000854492188,20.679000854492188,20.679000854492188,300.0,18.337047576904297
2017-02-09,20.756000518798828,20.700000762939453,20.756000518798828,20.700000762939453,4500.0,18.35566520690918
2017-02-10,20.860000610351562,20.809999465942383,20.84000015258789,20.82900047302246,13100.0,18.470056533813477
2017-02-13,20.920000076293945,20.83300018310547,20.920000076293945,20.899999618530273,4300.0,18.533018112182617
2017-02-14,20.899999618530273,20.850000381469727,20.8799991607666,20.899999618530273,6300.0,18.533018112182617
2017-02-15,20.93000030517578,20.874000549316406,20.93000030517578,20.874000549316406,3300.0,18.509960174560547
2017-02-16,20.8799991607666,20.770000457763672,20.878000259399414,20.770000457763672,1400.0,18.417739868164062
2017-02-17,20.84600067138672,20.729999542236328,20.84600067138672,20.829999923706055,13800.0,18.470945358276367
2017-02-21,20.920000076293945,20.889999389648438,20.889999389648438,20.920000076293945,5300.0,18.550756454467773
2017-02-22,20.829999923706055,20.770000457763672,20.81999969482422,20.829999923706055,4200.0,18.559659957885742
2017-02-23,20.90999984741211,20.868999481201172,20.90999984741211,20.899999618530273,5300.0,18.622032165527344
2017-02-24,20.889999389648438,20.850000381469727,20.8799991607666,20.8799991607666,2700.0,18.604215621948242
2017-02-27,20.969999313354492,20.90999984741211,20.969999313354492,20.924999237060547,4700.0,18.64430809020996
2017-02-28,20.969999313354492,20.780000686645508,20.969999313354492,20.8700008392334,56200.0,18.59530258178711
2017-03-01,21.06999969482422,20.979999542236328,20.979999542236328,21.04199981689453,3900.0,18.748554229736328
2017-03-02,21.010000228881836,20.899999618530273,21.010000228881836,20.950000762939453,8900.0,18.666582107543945
2017-03-03,20.930999755859375,20.92799949645996,20.930999755859375,20.929000854492188,1700.0,18.647871017456055
2017-03-06,20.93000030517578,20.893999099731445,20.93000030517578,20.92099952697754,1400.0,18.640743255615234
2017-03-07,20.93000030517578,20.850000381469727,20.865999221801758,20.899999618530273,5500.0,18.622032165527344
2017-03-08,20.840999603271484,20.75,20.840999603271484,20.75,4500.0,18.488380432128906
2017-03-09,20.549999237060547,20.5,20.503999710083008,20.5,2300.0,18.2656307220459
2017-03-10,20.59000015258789,20.51300048828125,20.559999465942383,20.520000457763672,3500.0,18.28345489501953
2017-03-13,20.6200008392334,20.559999465942383,20.6200008392334,20.59000015258789,3800.0,18.345821380615234
2017-03-14,20.510000228881836,20.459999084472656,20.5,20.5,3000.0,18.2656307220459
2017-03-15,20.65999984741211,20.534000396728516,20.549999237060547,20.65999984741211,10800.0,18.408191680908203
2017-03-16,20.729999542236328,20.643999099731445,20.65999984741211,20.70400047302246,3400.0,18.447397232055664
2017-03-17,20.792999267578125,20.7450008392334,20.756000518798828,20.770999908447266,4400.0,18.50709342956543
2017-03-20,20.8799991607666,20.79199981689453,20.8799991607666,20.850000381469727,5900.0,18.57748031616211
2017-03-21,20.889999389648438,20.700000762939453,20.889999389648438,20.700000762939453,3700.0,18.44383430480957
2017-03-22,20.729999542236328,20.636999130249023,20.638999938964844,20.729999542236328,4200.0,18.470556259155273
2017-03-23,20.670000076293945,20.62700080871582,20.670000076293945,20.649999618530273,900.0,18.497432708740234
2017-03-24,20.631000518798828,20.600000381469727,20.631000518798828,20.600000381469727,1300.0,18.45265007019043
2017-03-27,20.610000610351562,20.56999969482422,20.56999969482422,20.610000610351562,2300.0,18.46160125732422
2017-03-28,20.739999771118164,20.649999618530273,20.739999771118164,20.649999618530273,19700.0,18.497432708740234
2017-03-29,20.780000686645508,20.73200035095215,20.766000747680664,20.73200035095215,3600.0,18.570886611938477
2017-03-30,20.81999969482422,20.729999542236328,20.77899932861328,20.790000915527344,9300.0,18.62283706665039
2017-03-31,20.84000015258789,20.799999237060547,20.799999237060547,20.816999435424805,2000.0,18.647022247314453
2017-04-03,20.857999801635742,20.825000762939453,20.857999801635742,20.825000762939453,1500.0,18.654186248779297
2017-04-04,20.81599998474121,20.75,20.783000946044922,20.809999465942383,5900.0,18.640750885009766
2017-04-05,20.90999984741211,20.84000015258789,20.84000015258789,20.84000015258789,8300.0,18.66762924194336
2017-04-06,20.8799991607666,20.83799934387207,20.8700008392334,20.850000381469727,1300.0,18.676584243774414
2017-04-07,20.90999984741211,20.8700008392334,20.8700008392334,20.90999984741211,800.0,18.730329513549805
2017-04-10,20.95599937438965,20.95599937438965,20.95599937438965,20.95599937438965,400.0,18.771535873413086
2017-04-11,21.06999969482422,21.023000717163086,21.023000717163086,21.06999969482422,4800.0,18.873653411865234
2017-04-12,21.06999969482422,21.011999130249023,21.027999877929688,21.06999969482422,11900.0,18.873653411865234
2017-04-13,21.079999923706055,20.97100067138672,21.06999969482422,20.97100067138672,3000.0,18.784975051879883
2017-04-17,21.049999237060547,20.950000762939453,21.040000915527344,21.040000915527344,182700.0,18.84678077697754
2017-04-18,21.042999267578125,21.016000747680664,21.016000747680664,21.018999099731445,2600.0,18.827970504760742
2017-04-19,21.149999618530273,20.989999771118164,21.052000045776367,21.06999969482422,5800.0,18.873653411865234
2017-04-20,21.149999618530273,21.07900047302246,21.110000610351562,21.149999618530273,14200.0,18.9453125
2017-04-21,21.079999923706055,21.034000396728516,21.079999923706055,21.048999786376953,48300.0,18.94441032409668
2017-04-24,21.190000534057617,21.079999923706055,21.110000610351562,21.170000076293945,4800.0,19.05331802368164
2017-04-25,21.239999771118164,21.149999618530273,21.149999618530273,21.229999542236328,7000.0,19.107322692871094
2017-04-26,21.268999099731445,21.18600082397461,21.18600082397461,21.209999084472656,3400.0,19.089319229125977
2017-04-27,21.280000686645508,21.18000030517578,21.18000030517578,21.25,8300.0,19.125316619873047
2017-04-28,21.327999114990234,21.1200008392334,21.1200008392334,21.31999969482422,26200.0,19.188318252563477
2017-05-01,21.3700008392334,21.280000686645508,21.30900001525879,21.299999237060547,5600.0,19.170312881469727
2017-05-02,21.389999389648438,21.309999465942383,21.3799991607666,21.309999465942383,32300.0,19.179317474365234
2017-05-03,21.389999389648438,21.329999923706055,21.3700008392334,21.34000015258789,30600.0,19.20631980895996
2017-05-04,21.309999465942383,21.214000701904297,21.309999465942383,21.270000457763672,5700.0,19.14331817626953
2017-05-05,21.350000381469727,21.31999969482422,21.31999969482422,21.3439998626709,15800.0,19.209915161132812
2017-05-08,21.469999313354492,21.229999542236328,21.229999542236328,21.40999984741211,30800.0,19.269319534301758
2017-05-09,21.43000030517578,21.368999481201172,21.43000030517578,21.386999130249023,14300.0,19.24861717224121
2017-05-10,21.450000762939453,21.399999618530273,21.4060001373291,21.450000762939453,18000.0,19.305316925048828
2017-05-11,21.389999389648438,21.34000015258789,21.34000015258789,21.3799991607666,700.0,19.2423152923584
2017-05-12,21.420000076293945,21.31800079345703,21.420000076293945,21.31800079345703,11600.0,19.18651580810547
2017-05-15,21.459999084472656,21.399999618530273,21.440000534057617,21.399999618530273,17200.0,19.260316848754883
2017-05-16,21.450000762939453,21.3799991607666,21.450000762939453,21.420000076293945,28900.0,19.2783203125
2017-05-17,21.31999969482422,21.139999389648438,21.299999237060547,21.180999755859375,5100.0,19.06321144104004
2017-05-18,21.200000762939453,21.145000457763672,21.190000534057617,21.18000030517578,4300.0,19.06231117248535
2017-05-19,21.350000381469727,21.30900001525879,21.350000381469727,21.34000015258789,6300.0,19.20631980895996
2017-05-22,21.43000030517578,21.31999969482422,21.40999984741211,21.371999740600586,5400.0,19.235116958618164
2017-05-23,21.40999984741211,21.329999923706055,21.364999771118164,21.36199951171875,11500.0,19.302888870239258
2017-05-24,21.469999313354492,21.34000015258789,21.34000015258789,21.4689998626709,15600.0,19.39957618713379
2017-05-25,21.510000228881836,21.399999618530273,21.469999313354492,21.489999771118164,7500.0,19.41855239868164
2017-05-26,21.481000900268555,21.422000885009766,21.46500015258789,21.447999954223633,2700.0,19.380603790283203
2017-05-30,21.459999084472656,21.409000396728516,21.459999084472656,21.409000396728516,1300.0,19.345359802246094
2017-05-31,21.437000274658203,21.386999130249023,21.437000274658203,21.43199920654297,2700.0,19.36614227294922
2017-06-01,21.540000915527344,21.450000762939453,21.47100067138672,21.509000778198242,2100.0,19.435718536376953
2017-06-02,21.59000015258789,21.5049991607666,21.559999465942383,21.56999969482422,12500.0,19.490835189819336
2017-06-05,21.59000015258789,21.489999771118164,21.559999465942383,21.54800033569336,7900.0,19.470956802368164
2017-06-06,21.56999969482422,21.469999313354492,21.558000564575195,21.56999969482422,14800.0,19.490835189819336
2017-06-07,21.59000015258789,21.448999404907227,21.56999969482422,21.448999404907227,34200.0,19.381507873535156
2017-06-08,21.479999542236328,21.451000213623047,21.451000213623047,21.458999633789062,2500.0,19.390535354614258
2017-06-09,21.54400062561035,21.489999771118164,21.5,21.520000457763672,6800.0,19.445663452148438
2017-06-12,21.489999771118164,21.489999771118164,21.489999771118164,21.489999771118164,900.0,19.41855239868164
2017-06-13,21.559999465942383,21.514999389648438,21.535999298095703,21.53499984741211,2900.0,19.459211349487305
2017-06-14,21.549999237060547,21.5049991607666,21.5049991607666,21.538999557495117,600.0,19.46282386779785
2017-06-15,21.469999313354492,21.400999069213867,21.440000534057617,21.400999069213867,3000.0,19.338130950927734
2017-06-16,21.520000457763672,21.429000854492188,21.479999542236328,21.520000457763672,3800.0,19.445663452148438
2017-06-19,21.610000610351562,21.55299949645996,21.56999969482422,21.58799934387207,5700.0,19.507108688354492
2017-06-20,21.59000015258789,21.530000686645508,21.548999786376953,21.54599952697754,11400.0,19.469154357910156
2017-06-21,21.520000457763672,21.520000457763672,21.520000457763672,21.520000457763672,6200.0,19.445663452148438
2017-06-22,21.440000534057617,21.34000015258789,21.391000747680664,21.368999481201172,22800.0,19.37674331665039
2017-06-23,21.420000076293945,21.309999465942383,21.389999389648438,21.393999099731445,14400.0,19.3994140625
2017-06-26,21.486000061035156,21.368000030517578,21.420000076293945,21.40399932861328,23300.0,19.408479690551758
2017-06-27,21.459999084472656,21.299999237060547,21.45400047302246,21.3700008392334,97100.0,19.377649307250977
2017-06-28,21.489999771118164,21.420000076293945,21.420000076293945,21.489999771118164,14700.0,19.486469268798828
2017-06-29,21.43000030517578,21.31999969482422,21.43000030517578,21.344999313354492,11300.0,19.35498046875
2017-06-30,21.46299934387207,21.40999984741211,21.450000762939453,21.43899917602539,6200.0,19.440217971801758
2017-07-03,21.610000610351562,21.513999938964844,21.56999969482422,21.551000595092773,3900.0,19.541778564453125
2017-07-05,21.610000610351562,21.510000228881836,21.610000610351562,21.549999237060547,17300.0,19.540868759155273
2017-07-06,21.514999389648438,21.415000915527344,21.510000228881836,21.415000915527344,23100.0,19.4184627532959
2017-07-07,21.479999542236328,21.42099952697754,21.42099952697754,21.43199920654297,3300.0,19.43387222290039
2017-07-10,21.510000228881836,21.43400001525879,21.468000411987305,21.493999481201172,6700.0,19.49009132385254
2017-07-11,21.559999465942383,21.440000534057617,21.520000457763672,21.523000717163086,8500.0,19.516386032104492
2017-07-12,21.649999618530273,21.56999969482422,21.6200008392334,21.624000549316406,7000.0,19.60797119140625
2017-07-13,21.700000762939453,21.600000381469727,21.6560001373291,21.700000762939453,17300.0,19.676883697509766
2017-07-14,21.780000686645508,21.68000030517578,21.729999542236328,21.718000411987305,7000.0,19.693208694458008
2017-07-17,21.790000915527344,21.690000534057617,21.790000915527344,21.756999969482422,12400.0,19.728572845458984
2017-07-18,21.829999923706055,21.709999084472656,21.73699951171875,21.825000762939453,4700.0,19.790231704711914
2017-07-19,21.899999618530273,21.825000762939453,21.8700008392334,21.875999450683594,3300.0,19.83647918701172
2017-07-20,21.940000534057617,21.871000289916992,21.871000289916992,21.885000228881836,3600.0,19.844636917114258
2017-07-21,21.8799991607666,21.871000289916992,21.8799991607666,21.871000289916992,4600.0,19.895584106445312
2017-07-24,21.889999389648438,21.805999755859375,21.861000061035156,21.861000061035156,1200.0,19.88648223876953
2017-07-25,21.850000381469727,21.815000534057617,21.850000381469727,21.84600067138672,5900.0,19.872838973999023
2017-07-26,21.93899917602539,21.829999923706055,21.829999923706055,21.849000930786133,2700.0,19.875568389892578
2017-07-27,21.874000549316406,21.84000015258789,21.850000381469727,21.84000015258789,5300.0,19.867382049560547
2017-07-28,21.850000381469727,21.808000564575195,21.808000564575195,21.826000213623047,2100.0,19.85464859008789
2017-07-31,21.920000076293945,21.861000061035156,21.920000076293945,21.861000061035156,1500.0,19.88648223876953
2017-08-01,21.940000534057617,21.899999618530273,21.902999877929688,21.940000534057617,3200.0,19.95834732055664
2017-08-02,21.927000045776367,21.854000091552734,21.927000045776367,21.854000091552734,900.0,19.88011360168457
2017-08-03,21.860000610351562,21.81999969482422,21.81999969482422,21.85300064086914,3300.0,19.87921142578125
2017-08-04,21.8799991607666,21.780000686645508,21.8799991607666,21.82699966430664,8600.0,19.855554580688477
2017-08-07,21.899999618530273,21.799999237060547,21.860000610351562,21.8799991607666,14400.0,19.903770446777344
2017-08-08,21.87299919128418,21.756999969482422,21.863000869750977,21.790000915527344,5600.0,19.821895599365234
2017-08-09,21.700000762939453,21.600000381469727,21.68899917602539,21.617000579833984,5500.0,19.66452407836914
2017-08-10,21.406999588012695,21.15999984741211,21.406999588012695,21.15999984741211,2800.0,19.248798370361328
2017-08-11,21.347000122070312,21.097999572753906,21.097999572753906,21.280000686645508,8100.0,19.357961654663086
2017-08-14,21.5,21.290000915527344,21.290000915527344,21.5,3600.0,19.558088302612305
2017-08-15,21.43600082397461,21.3799991607666,21.43600082397461,21.42099952697754,4300.0,19.486225128173828
2017-08-16,21.510000228881836,21.43000030517578,21.510000228881836,21.450000762939453,1200.0,19.512605667114258
2017-08-17,21.5,21.450000762939453,21.482999801635742,21.450000762939453,2600.0,19.512605667114258
2017-08-18,21.34600067138672,21.299999237060547,21.34600067138672,21.305999755859375,2900.0,19.381614685058594
2017-08-21,21.360000610351562,21.299999237060547,21.34000015258789,21.31800079345703,1600.0,19.392526626586914
2017-08-22,21.4060001373291,21.308000564575195,21.308000564575195,21.388999938964844,7700.0,19.521215438842773
2017-08-23,21.459999084472656,21.459999084472656,21.459999084472656,21.459999084472656,800.0,19.586015701293945
2017-08-24,21.530000686645508,21.530000686645508,21.530000686645508,21.530000686645508,1100.0,19.6499080657959
2017-08-25,21.527999877929688,21.459999084472656,21.492000579833984,21.516000747680664,5800.0,19.637126922607422
2017-08-28,21.559999465942383,21.469999313354492,21.540000915527344,21.51300048828125,18300.0,19.63438606262207
2017-08-29,21.549999237060547,21.454999923706055,21.454999923706055,21.509000778198242,1800.0,19.630739212036133
2017-08-30,21.639999389648438,21.59000015258789,21.6200008392334,21.59000015258789,6200.0,19.704662322998047
2017-08-31,21.719999313354492,21.652000427246094,21.691999435424805,21.670000076293945,5400.0,19.77767562866211
2017-09-01,21.81999969482422,21.738000869750977,21.760000228881836,21.809999465942383,5400.0,19.905452728271484
2017-09-05,21.739999771118164,21.559999465942383,21.709999084472656,21.559999465942383,7200.0,19.67728614807129
2017-09-06,21.719999313354492,21.600000381469727,21.709999084472656,21.621000289916992,12600.0,19.73295783996582
2017-09-07,21.790000915527344,21.579999923706055,21.579999923706055,21.770000457763672,6400.0,19.86894416809082
2017-09-08,21.739999771118164,21.670000076293945,21.739999771118164,21.729999542236328,4100.0,19.832439422607422
2017-09-11,21.81999969482422,21.75200080871582,21.770000457763672,21.781999588012695,9300.0,19.87989616394043
2017-09-12,21.8700008392334,21.81599998474121,21.81599998474121,21.832000732421875,3500.0,19.925535202026367
2017-09-13,21.850000381469727,21.850000381469727,21.850000381469727,21.850000381469727,900.0,19.941959381103516
2017-09-14,21.84000015258789,21.739999771118164,21.829999923706055,21.84000015258789,4300.0,19.932832717895508
2017-09-15,21.860000610351562,21.729999542236328,21.729999542236328,21.844999313354492,6100.0,19.937395095825195
2017-09-18,21.920000076293945,21.780000686645508,21.780000686645508,21.899999618530273,13900.0,19.987586975097656
2017-09-19,21.947999954223633,21.899999618530273,21.899999618530273,21.947999954223633,1000.0,20.03139877319336
2017-09-20,21.98699951171875,21.954999923706055,21.954999923706055,21.979999542236328,9700.0,20.060606002807617
2017-09-21,21.8700008392334,21.8439998626709,21.851999282836914,21.8700008392334,2100.0,20.04227638244629
2017-09-22,21.959999084472656,21.847999572753906,21.8799991607666,21.90999984741211,18000.0,20.078941345214844
2017-09-25,21.940000534057617,21.868999481201172,21.920000076293945,21.889999389648438,4500.0,20.060609817504883
2017-09-26,21.940000534057617,21.895999908447266,21.92300033569336,21.89699935913086,4800.0,20.06702423095703
2017-09-27,21.94499969482422,21.8700008392334,21.940000534057617,21.93000030517578,22900.0,20.09726905822754
2017-09-28,21.934999465942383,21.882999420166016,21.920000076293945,21.934999465942383,1900.0,20.101844787597656
2017-09-29,22.049999237060547,21.975000381469727,21.975000381469727,22.049999237060547,2500.0,20.207237243652344
2017-10-02,22.139999389648438,22.08300018310547,22.099000930786133,22.100000381469727,5800.0,20.2530574798584
2017-10-03,22.15999984741211,22.090999603271484,22.117000579833984,22.149999618530273,11300.0,20.298879623413086
2017-10-04,22.14900016784668,22.031999588012695,22.14900016784668,22.111000061035156,11100.0,20.26313591003418
2017-10-05,22.170000076293945,22.06999969482422,22.1200008392334,22.09000015258789,3200.0,20.243894577026367
2017-10-06,22.170000076293945,22.117000579833984,22.170000076293945,22.12299919128418,2200.0,20.274133682250977
2017-10-09,22.195999145507812,22.139999389648438,22.139999389648438,22.195999145507812,4100.0,20.34103012084961
2017-10-10,22.253999710083008,22.225000381469727,22.229999542236328,22.235000610351562,2500.0,20.37677764892578
2017-10-11,22.280000686645508,22.214000701904297,22.280000686645508,22.280000686645508,9400.0,20.418012619018555
2017-10-12,22.277000427246094,22.239999771118164,22.26099967956543,22.277000427246094,1500.0,20.415266036987305
2017-10-13,22.32900047302246,22.260000228881836,22.284000396728516,22.309999465942383,5300.0,20.445505142211914
2017-10-16,22.33099937438965,22.218000411987305,22.33099937438965,22.243000030517578,4700.0,20.38410758972168
2017-10-17,22.260000228881836,22.187999725341797,22.25,22.249000549316406,7000.0,20.389604568481445
2017-10-18,22.290000915527344,22.200000762939453,22.290000915527344,22.229000091552734,14500.0,20.371278762817383
2017-10-19,22.229999542236328,22.170000076293945,22.219999313354492,22.20800018310547,4300.0,20.352035522460938
2017-10-20,22.18000030517578,22.13599967956543,22.170000076293945,22.18000030517578,4600.0,20.409080505371094
2017-10-23,22.200000762939453,22.020000457763672,22.190000534057617,22.020000457763672,4900.0,20.261856079101562
2017-10-24,22.15999984741211,22.079999923706055,22.1200008392334,22.079999923706055,5400.0,20.317066192626953
2017-10-25,22.1299991607666,21.88800048828125,22.1299991607666,21.920000076293945,11200.0,20.169837951660156
2017-10-26,21.924999237060547,21.850000381469727,21.860000610351562,21.924999237060547,1300.0,20.174440383911133
2017-10-27,21.989999771118164,21.881000518798828,21.920000076293945,21.964000701904297,19900.0,20.210323333740234
2017-10-30,23.93000030517578,21.90999984741211,23.93000030517578,21.937000274658203,7400.0,20.18548583984375
2017-10-31,22.05500030517578,21.950000762939453,22.010000228881836,22.030000686645508,7600.0,20.271055221557617
2017-11-01,22.09000015258789,21.985000610351562,22.09000015258789,21.985000610351562,5600.0,20.229650497436523
2017-11-02,22.1299991607666,21.889999389648438,21.90999984741211,21.940000534057617,6000.0,20.188241958618164
2017-11-03,21.989999771118164,21.8799991607666,21.969999313354492,21.989999771118164,1900.0,20.2342529296875
2017-11-06,22.049999237060547,21.940000534057617,21.97599983215332,22.049999237060547,6200.0,20.289461135864258
2017-11-07,22.079999923706055,21.93000030517578,22.079999923706055,22.003000259399414,6600.0,20.246212005615234
2017-11-08,22.018999099731445,21.8799991607666,22.018999099731445,21.913999557495117,2700.0,20.164318084716797
2017-11-09,21.899999618530273,21.760000228881836,21.899999618530273,21.766000747680664,2300.0,20.028135299682617
2017-11-10,21.860000610351562,21.799999237060547,21.84000015258789,21.815000534057617,25200.0,20.073223114013672
2017-11-13,21.84000015258789,21.63599967956543,21.84000015258789,21.70800018310547,8600.0,19.974767684936523
2017-11-14,21.535999298095703,21.43600082397461,21.535999298095703,21.46500015258789,2300.0,19.751171112060547
2017-11-15,21.475000381469727,21.347999572753906,21.347999572753906,21.427000045776367,3300.0,19.716201782226562
2017-11-16,21.649999618530273,21.56999969482422,21.56999969482422,21.6200008392334,3800.0,19.893795013427734
2017-11-17,21.709999084472656,21.63599967956543,21.670000076293945,21.690000534057617,14800.0,19.95820426940918
2017-11-20,21.71500015258789,21.649999618530273,21.649999618530273,21.700000762939453,6800.0,19.967405319213867
2017-11-21,21.729999542236328,21.610000610351562,21.670000076293945,21.709999084472656,6100.0,20.05980110168457
2017-11-22,21.75,21.718000411987305,21.719999313354492,21.75,15500.0,20.096763610839844
2017-11-24,21.8799991607666,21.70199966430664,21.70199966430664,21.860000610351562,11400.0,20.198400497436523
2017-11-27,21.81999969482422,21.780000686645508,21.81999969482422,21.780000686645508,400.0,20.124483108520508
2017-11-28,21.829999923706055,21.770000457763672,21.829999923706055,21.81999969482422,19700.0,20.16144561767578
2017-11-29,21.829999923706055,21.670000076293945,21.739999771118164,21.709999084472656,5400.0,20.05980110168457
2017-11-30,21.844999313354492,21.78700065612793,21.78700065612793,21.809999465942383,18500.0,20.152204513549805
2017-12-01,21.808000564575195,21.709999084472656,21.767000198364258,21.746000289916992,1100.0,20.09307098388672
2017-12-04,21.8799991607666,21.75,21.75,21.839000701904297,12400.0,20.179000854492188
2017-12-05,21.829999923706055,21.770000457763672,21.770000457763672,21.829999923706055,27300.0,20.170682907104492
2017-12-06,21.809999465942383,21.739999771118164,21.809999465942383,21.767000198364258,5200.0,20.112472534179688
2017-12-07,21.860000610351562,21.719999313354492,21.860000610351562,21.790000915527344,179100.0,20.133724212646484
2017-12-08,21.81999969482422,21.709999084472656,21.81999969482422,21.788999557495117,5400.0,20.132797241210938
2017-12-11,21.8799991607666,21.81999969482422,21.8799991607666,21.854999542236328,6600.0,20.193784713745117
2017-12-12,21.899999618530273,21.770000457763672,21.770000457763672,21.860000610351562,1200.0,20.198400497436523
2017-12-13,21.913000106811523,21.85099983215332,21.85099983215332,21.89699935913086,4900.0,20.232593536376953
2017-12-14,21.91900062561035,21.860000610351562,21.860000610351562,21.91900062561035,700.0,20.252918243408203
2017-12-15,21.959999084472656,21.893999099731445,21.899999618530273,21.959999084472656,10900.0,20.290800094604492
2017-12-18,22.065000534057617,22.040000915527344,22.048999786376953,22.040000915527344,2900.0,20.364723205566406
2017-12-19,21.996999740600586,21.934999465942383,21.934999465942383,21.964000701904297,5200.0,20.29449462890625
2017-12-20,22.02899932861328,21.937000274658203,21.944000244140625,21.996000289916992,12200.0,20.32406234741211
2017-12-21,21.920000076293945,21.850000381469727,21.861000061035156,21.895999908447266,8200.0,20.307369232177734
2017-12-22,21.989999771118164,21.889999389648438,21.90999984741211,21.989999771118164,5200.0,20.394554138183594
2017-12-26,21.968000411987305,21.889999389648438,21.899999618530273,21.961000442504883,5500.0,20.367652893066406
2017-12-27,22.024999618530273,21.999000549316406,22.0,22.018999099731445,3800.0,20.421449661254883
2017-12-28,22.048999786376953,22.01799964904785,22.01799964904785,22.040000915527344,1500.0,20.440929412841797
2017-12-29,22.139999389648438,21.989999771118164,21.989999771118164,22.030000686645508,10800.0,20.43165397644043
2018-01-02,22.200000762939453,22.100000381469727,22.170000076293945,22.15999984741211,18700.0,20.552217483520508
2018-01-03,22.270999908447266,22.149999618530273,22.174999237060547,22.239999771118164,8600.0,20.62641143798828
2018-01-04,22.43000030517578,22.299999237060547,22.299999237060547,22.3799991607666,6200.0,20.756256103515625
2018-01-05,22.399999618530273,22.334999084472656,22.334999084472656,22.344999313354492,1500.0,20.723796844482422
2018-01-08,22.440000534057617,22.3799991607666,22.3799991607666,22.420000076293945,6100.0,20.793352127075195
2018-01-09,22.479999542236328,22.329999923706055,22.43899917602539,22.329999923706055,9500.0,20.709880828857422
2018-01-10,22.3799991607666,22.25,22.315000534057617,22.350000381469727,13600.0,20.72843360900879
2018-01-11,22.3799991607666,22.275999069213867,22.312999725341797,22.329999923706055,12700.0,20.79361915588379
2018-01-12,22.440000534057617,22.31999969482422,22.40399932861328,22.381000518798828,16300.0,20.841108322143555
2018-01-16,22.492000579833984,22.29599952697754,22.479999542236328,22.29599952697754,8200.0,20.761953353881836
2018-01-17,22.40999984741211,22.260000228881836,22.40999984741211,22.36199951171875,23300.0,20.823415756225586
2018-01-18,22.31800079345703,22.288000106811523,22.31800079345703,22.309999465942383,3400.0,20.774988174438477
2018-01-19,22.34000015258789,22.190000534057617,22.295000076293945,22.34000015258789,6100.0,20.802928924560547
2018-01-22,22.43000030517578,22.239999771118164,22.239999771118164,22.409000396728516,10500.0,20.8671817779541
2018-01-23,22.520000457763672,22.420000076293945,22.434999465942383,22.496999740600586,8700.0,20.949125289916992
2018-01-24,22.6200008392334,22.520000457763672,22.520000457763672,22.545000076293945,9800.0,20.993825912475586
2018-01-25,22.600000381469727,22.450000762939453,22.565000534057617,22.506000518798828,8900.0,20.957508087158203
2018-01-26,22.610000610351562,22.499000549316406,22.499000549316406,22.55500030517578,13800.0,21.003137588500977
2018-01-29,22.52199935913086,22.420000076293945,22.510000228881836,22.489999771118164,4200.0,20.942607879638672
2018-01-30,22.420000076293945,22.09000015258789,22.420000076293945,22.170000076293945,11000.0,20.64462661743164
2018-01-31,22.34000015258789,22.190000534057617,22.290000915527344,22.23200035095215,28200.0,20.70235824584961
2018-02-01,22.270000457763672,22.163000106811523,22.163000106811523,22.177000045776367,22000.0,20.651140213012695
2018-02-02,22.051000595092773,21.770000457763672,22.051000595092773,21.780000686645508,69900.0,20.28145980834961
2018-02-05,21.760000228881836,21.049999237060547,21.760000228881836,21.049999237060547,44700.0,19.601680755615234
2018-02-06,21.43199920654297,21.079999923706055,21.229999542236328,21.43199920654297,34900.0,19.957401275634766
2018-02-07,21.67300033569336,21.3799991607666,21.3799991607666,21.579999923706055,5400.0,20.095218658447266
2018-02-08,23.0,20.040000915527344,21.5,21.229999542236328,13600.0,19.769298553466797
2018-02-09,21.17300033569336,20.999000549316406,21.17300033569336,20.999000549316406,2000.0,19.55419158935547
2018-02-12,21.385000228881836,21.149999618530273,21.209999084472656,21.385000228881836,31600.0,19.913633346557617
2018-02-13,21.354999542236328,21.229000091552734,21.299999237060547,21.354999542236328,800.0,19.969743728637695
2018-02-14,21.3799991607666,21.299999237060547,21.299999237060547,21.3700008392334,4700.0,19.983774185180664
2018-02-15,21.599000930786133,21.399999618530273,21.399999618530273,21.530000686645508,45100.0,20.133394241333008
2018-02-16,21.709999084472656,21.56999969482422,21.68000030517578,21.639999389648438,19800.0,20.236255645751953
2018-02-20,21.625999450683594,21.579999923706055,21.6200008392334,21.579999923706055,1400.0,20.180150985717773
2018-02-21,21.690000534057617,21.59000015258789,21.670000076293945,21.690000534057617,7600.0,20.283018112182617
2018-02-22,21.628000259399414,21.450000762939453,21.628000259399414,21.450000762939453,4800.0,20.05858039855957
2018-02-23,21.658000946044922,21.56999969482422,21.56999969482422,21.658000946044922,2400.0,20.253089904785156
2018-02-26,21.815000534057617,21.700000762939453,21.780000686645508,21.790000915527344,2100.0,20.37652587890625
2018-02-27,21.757999420166016,21.614999771118164,21.757999420166016,21.690000534057617,1800.0,20.283018112182617
2018-02-28,21.66699981689453,21.6299991607666,21.66699981689453,21.665000915527344,1900.0,20.25963592529297
2018-03-01,21.600000381469727,21.420000076293945,21.600000381469727,21.440000534057617,5800.0,20.049230575561523
2018-03-02,21.440000534057617,21.440000534057617,21.440000534057617,21.440000534057617,0.0,20.049230575561523
2018-03-05,21.48200035095215,21.459999084472656,21.459999084472656,21.472999572753906,2800.0,20.08009147644043
2018-03-06,21.608999252319336,21.5,21.54400062561035,21.554000854492188,7500.0,20.155838012695312
2018-03-07,21.632999420166016,21.51099967956543,21.538999557495117,21.632999420166016,3300.0,20.22970962524414
2018-03-08,21.74799919128418,21.639999389648438,21.639999389648438,21.74799919128418,2300.0,20.337251663208008
2018-03-09,21.895000457763672,21.893999099731445,21.895000457763672,21.893999099731445,1200.0,20.47377586364746
2018-03-12,21.959999084472656,21.924999237060547,21.959999084472656,21.924999237060547,1100.0,20.502765655517578
2018-03-13,21.934999465942383,21.770000457763672,21.934999465942383,21.797000885009766,3200.0,20.467090606689453
2018-03-14,21.81999969482422,21.670000076293945,21.81999969482422,21.738000869750977,3100.0,20.41168785095215
2018-03-15,21.774999618530273,21.679000854492188,21.700000762939453,21.69700050354004,3600.0,20.373188018798828
2018-03-16,21.790000915527344,21.672000885009766,21.790000915527344,21.68000030517578,5400.0,20.357227325439453
2018-03-19,21.610000610351562,21.45400047302246,21.610000610351562,21.5049991607666,4400.0,20.192903518676758
2018-03-20,21.589000701904297,21.479999542236328,21.5,21.524999618530273,1700.0,20.211681365966797
2018-03-21,21.516000747680664,21.472999572753906,21.482999801635742,21.510000228881836,3200.0,20.197599411010742
2018-03-22,21.41699981689453,21.260000228881836,21.41699981689453,21.332000732421875,89000.0,20.03046226501465
2018-03-23,21.21500015258789,21.1299991607666,21.21500015258789,21.1299991607666,3600.0,19.84078598022461
2018-03-26,21.219999313354492,21.09000015258789,21.139999389648438,21.09000015258789,3600.0,19.803226470947266
2018-03-27,21.3799991607666,21.121999740600586,21.229999542236328,21.121999740600586,4700.0,19.833271026611328
2018-03-28,21.209999084472656,21.040000915527344,21.040000915527344,21.18199920654297,1200.0,19.88961410522461
2018-03-29,21.360000610351562,21.219999313354492,21.219999313354492,21.360000610351562,600.0,20.056751251220703
2018-04-02,21.295000076293945,21.1200008392334,21.295000076293945,21.16699981689453,500.0,19.875530242919922
2018-04-03,21.26099967956543,21.1200008392334,21.1200008392334,21.2450008392334,3600.0,19.94876480102539
2018-04-04,21.280000686645508,21.15999984741211,21.15999984741211,21.280000686645508,3900.0,19.98163414001465
2018-04-05,21.408000946044922,21.309999465942383,21.309999465942383,21.408000946044922,2800.0,20.101823806762695
2018-04-06,21.31999969482422,21.309999465942383,21.31999969482422,21.309999465942383,600.0,20.009798049926758
2018-04-09,21.517000198364258,21.40999984741211,21.427000045776367,21.40999984741211,4500.0,20.103700637817383
2018-04-10,21.549999237060547,21.3700008392334,21.3700008392334,21.482999801635742,2300.0,20.172245025634766
2018-04-11,21.503000259399414,21.399999618530273,21.420000076293945,21.399999618530273,2700.0,20.183561325073242
2018-04-12,21.520999908447266,21.520999908447266,21.520999908447266,21.520999908447266,300.0,20.29768943786621
2018-04-13,21.510000228881836,21.399999618530273,21.399999618530273,21.440000534057617,3800.0,20.221294403076172
2018-04-16,21.500999450683594,21.440000534057617,21.47100067138672,21.496000289916992,3900.0,20.27410888671875
2018-04-17,21.632999420166016,21.56999969482422,21.604999542236328,21.632999420166016,3300.0,20.403318405151367
2018-04-18,21.656999588012695,21.549999237060547,21.570999145507812,21.549999237060547,7300.0,20.32503890991211
2018-04-19,21.610000610351562,20.219999313354492,21.3700008392334,21.483999252319336,1800.0,20.262788772583008
2018-04-20,21.540000915527344,21.360000610351562,21.482999801635742,21.360000610351562,4100.0,20.145835876464844
2018-04-23,21.459999084472656,21.360000610351562,21.459999084472656,21.43000030517578,9600.0,20.21186065673828
2018-04-24,21.479999542236328,21.290000915527344,21.479999542236328,21.322999954223633,1800.0,20.11094093322754
2018-04-25,21.280000686645508,21.209999084472656,21.268999099731445,21.280000686645508,2800.0,20.070388793945312
2018-04-26,21.413000106811523,21.34000015258789,21.34000015258789,21.413000106811523,2000.0,20.19582748413086
2018-04-27,21.520000457763672,21.420000076293945,21.43000030517578,21.482999801635742,23700.0,20.2618465423584
2018-04-30,21.562999725341797,21.530000686645508,21.562999725341797,21.530000686645508,1400.0,20.306175231933594
2018-05-01,21.520000457763672,21.5049991607666,21.520000457763672,21.5049991607666,400.0,20.2825984954834
2018-05-02,21.56999969482422,21.469999313354492,21.559999465942383,21.540000915527344,5900.0,20.31560707092285
2018-05-03,21.3700008392334,21.36400032043457,21.3700008392334,21.36400032043457,1700.0,20.149608612060547
2018-05-04,21.43000030517578,21.40999984741211,21.43000030517578,21.40999984741211,700.0,20.192995071411133
2018-05-07,21.649999618530273,21.608999252319336,21.649999618530273,21.628999710083008,3400.0,20.39954948425293
2018-05-08,21.56999969482422,21.493000030517578,21.559999465942383,21.540000915527344,9000.0,20.31560707092285
2018-05-09,21.610000610351562,21.549999237060547,21.600000381469727,21.549999237060547,1300.0,20.32503890991211
2018-05-10,21.770000457763672,21.739999771118164,21.75,21.760000228881836,2300.0,20.52310562133789
2018-05-11,21.700000762939453,21.700000762939453,21.700000762939453,21.700000762939453,700.0,20.556255340576172
2018-05-14,21.799999237060547,21.65999984741211,21.731000900268555,21.65999984741211,3600.0,20.51836585998535
2018-05-15,21.639999389648438,21.549999237060547,21.549999237060547,21.639999389648438,8700.0,20.499414443969727
2018-05-16,21.690000534057617,21.56999969482422,21.583999633789062,21.62700080871582,416600.0,20.487104415893555
2018-05-17,21.6200008392334,21.559999465942383,21.559999465942383,21.600000381469727,5900.0,20.461523056030273
2018-05-18,21.639999389648438,21.530000686645508,21.582000732421875,21.600000381469727,9900.0,20.461523056030273
2018-05-21,21.729999542236328,21.6299991607666,21.67300033569336,21.729999542236328,6600.0,20.584674835205078
2018-05-22,21.729999542236328,21.670000076293945,21.729999542236328,21.670000076293945,900.0,20.5278377532959
2018-05-23,21.645999908447266,21.645999908447266,21.645999908447266,21.645999908447266,300.0,20.505102157592773
2018-05-24,21.70199966430664,21.649999618530273,21.70199966430664,21.649999618530273,700.0,20.50889015197754
2018-05-25,21.69300079345703,21.6200008392334,21.649999618530273,21.6200008392334,3100.0,20.480470657348633
2018-05-29,21.600000381469727,21.600000381469727,21.600000381469727,21.600000381469727,400.0,20.461523056030273
2018-05-30,21.719999313354492,21.670000076293945,21.674999237060547,21.694000244140625,800.0,20.55057144165039
2018-05-31,21.725000381469727,21.670000076293945,21.725000381469727,21.68000030517578,2000.0,20.537309646606445
2018-06-01,21.799999237060547,21.670000076293945,21.670000076293945,21.799999237060547,1500.0,20.650983810424805
2018-06-04,21.81999969482422,21.790000915527344,21.799999237060547,21.809999465942383,1100.0,20.660457611083984
2018-06-05,21.950000762939453,21.83099937438965,21.865999221801758,21.840999603271484,209900.0,20.6898250579834
2018-06-06,21.975000381469727,21.94300079345703,21.975000381469727,21.950000762939453,2300.0,20.79308319091797
2018-06-07,22.0,21.8799991607666,21.8799991607666,21.90999984741211,10600.0,20.755191802978516
2018-06-08,21.93199920654297,21.860000610351562,21.860000610351562,21.8799991607666,2000.0,20.72677230834961
2018-06-11,21.969999313354492,21.889999389648438,21.969999313354492,21.899999618530273,3100.0,20.745716094970703
2018-06-12,21.881999969482422,21.86400032043457,21.881999969482422,21.86400032043457,1800.0,20.801849365234375
2018-06-13,21.952999114990234,21.937000274658203,21.937000274658203,21.952999114990234,800.0,20.886524200439453
2018-06-14,21.924999237060547,21.863000869750977,21.8799991607666,21.863000869750977,6100.0,20.8008975982666
2018-06-15,21.854999542236328,21.840999603271484,21.840999603271484,21.854999542236328,600.0,20.793285369873047
2018-06-18,21.899999618530273,21.774999618530273,21.899999618530273,21.774999618530273,1200.0,20.717172622680664
2018-06-19,21.829999923706055,21.774999618530273,21.790000915527344,21.829999923706055,5800.0,20.769498825073242
2018-06-20,21.899999618530273,21.868000030517578,21.868000030517578,21.899999618530273,300.0,20.836095809936523
2018-06-21,21.81999969482422,21.790000915527344,21.790000915527344,21.81599998474121,2200.0,20.75617790222168
2018-06-22,21.905000686645508,21.839000701904297,21.905000686645508,21.889999389648438,2500.0,20.826583862304688
2018-06-25,21.760000228881836,21.631000518798828,21.760000228881836,21.631000518798828,8300.0,20.580167770385742
2018-06-26,21.704999923706055,21.631999969482422,21.631999969482422,21.663999557495117,3200.0,20.611562728881836
2018-06-27,21.742000579833984,21.606000900268555,21.742000579833984,21.606000900268555,1700.0,20.556385040283203
2018-06-28,21.610000610351562,21.518999099731445,21.518999099731445,21.610000610351562,2600.0,20.560192108154297
2018-06-29,21.739999771118164,21.639999389648438,21.719999313354492,21.65999984741211,9400.0,20.607755661010742
2018-07-02,21.68899917602539,21.59000015258789,21.68899917602539,21.645999908447266,5300.0,20.594436645507812
2018-07-03,21.760000228881836,21.68000030517578,21.707000732421875,21.68000030517578,1800.0,20.626787185668945
2018-07-05,21.770000457763672,21.725000381469727,21.725000381469727,21.770000457763672,1900.0,20.71241569519043
2018-07-06,21.847999572753906,21.770999908447266,21.799999237060547,21.82699966430664,2500.0,20.766645431518555
2018-07-09,21.954999923706055,21.861000061035156,21.954999923706055,21.940000534057617,1700.0,20.874156951904297
2018-07-10,21.959999084472656,21.8700008392334,21.959999084472656,21.8700008392334,3100.0,20.80755615234375
2018-07-11,21.81999969482422,21.773000717163086,21.773000717163086,21.809999465942383,2400.0,20.841001510620117
2018-07-12,21.860000610351562,21.84600067138672,21.860000610351562,21.860000610351562,1000.0,20.888782501220703
2018-07-13,21.90999984741211,21.809999465942383,21.809999465942383,21.909000396728516,4000.0,20.935604095458984
2018-07-16,21.90999984741211,21.836000442504883,21.90999984741211,21.836000442504883,2300.0,20.865848541259766
2018-07-17,21.920000076293945,21.861000061035156,21.908000946044922,21.861000061035156,1600.0,20.889738082885742
2018-07-18,21.950000762939453,21.891000747680664,21.89900016784668,21.950000762939453,4200.0,20.97478485107422
2018-07-19,21.979999542236328,21.847999572753906,21.969999313354492,21.979999542236328,6500.0,21.003450393676758
2018-07-20,21.959999084472656,21.8700008392334,21.8700008392334,21.899999618530273,6500.0,20.927001953125
2018-07-23,21.959999084472656,21.850000381469727,21.950000762939453,21.905000686645508,11300.0,20.931781768798828
2018-07-24,22.05900001525879,21.950000762939453,21.950000762939453,22.01300048828125,6300.0,21.034982681274414
2018-07-25,22.079999923706055,21.97100067138672,22.06999969482422,22.079999923706055,7800.0,21.0990047454834
2018-07-26,22.072999954223633,21.989999771118164,22.0,22.069000244140625,2200.0,21.0884952545166
2018-07-27,22.101999282836914,22.0,22.101999282836914,22.0,4700.0,21.02256202697754
2018-07-30,22.0,21.89900016784668,22.0,21.89900016784668,2600.0,20.92604637145996
2018-07-31,22.04800033569336,21.976999282836914,22.0,21.976999282836914,2700.0,21.00058364868164
2018-08-01,22.040000915527344,21.986000061035156,22.040000915527344,21.999000549316406,1100.0,21.021602630615234
2018-08-02,21.959999084472656,21.889999389648438,21.889999389648438,21.959999084472656,1400.0,20.984338760375977
2018-08-03,22.049999237060547,22.010000228881836,22.020000457763672,22.023000717163086,6900.0,21.044540405273438
2018-08-06,22.170000076293945,22.049999237060547,22.049999237060547,22.06999969482422,4100.0,21.08945083618164
2018-08-07,22.238000869750977,22.152999877929688,22.229999542236328,22.152999877929688,1500.0,21.168760299682617
2018-08-08,22.18899917602539,22.149999618530273,22.18899917602539,22.149999618530273,700.0,21.165895462036133
2018-08-09,22.15999984741211,22.15999984741211,22.15999984741211,22.15999984741211,400.0,21.175453186035156
2018-08-10,22.089000701904297,22.018999099731445,22.08300018310547,22.045000076293945,2500.0,21.15625762939453
2018-08-13,22.510000228881836,21.91699981689453,22.510000228881836,21.992000579833984,5000.0,21.105396270751953
2018-08-14,21.93000030517578,21.93000030517578,21.93000030517578,21.93000030517578,300.0,21.045894622802734
2018-08-15,21.934999465942383,21.81999969482422,21.934999465942383,21.81999969482422,3400.0,20.940324783325195
2018-08-16,22.059999465942383,21.899999618530273,21.899999618530273,22.018999099731445,4700.0,21.13130760192871
2018-08-17,22.06999969482422,22.02400016784668,22.049999237060547,22.02400016784668,4300.0,21.136106491088867
2018-08-20,22.149999618530273,22.06599998474121,22.06599998474121,22.139999389648438,33800.0,21.24742889404297
2018-08-21,22.209999084472656,22.06999969482422,22.190000534057617,22.079999923706055,71800.0,21.189847946166992
2018-08-22,22.200000762939453,22.059999465942383,22.15999984741211,22.200000762939453,35200.0,21.305009841918945
2018-08-23,22.280000686645508,22.094999313354492,22.280000686645508,22.148000717163086,1300.0,21.25510597229004
2018-08-24,22.239999771118164,22.139999389648438,22.170000076293945,22.177000045776367,8000.0,21.28293800354004
2018-08-27,22.309999465942383,22.200000762939453,22.200000762939453,22.226999282836914,22900.0,21.330923080444336
2018-08-28,22.450000762939453,22.277999877929688,22.450000762939453,22.28499984741211,5200.0,21.38658332824707
2018-08-29,22.399999618530273,22.26099967956543,22.29199981689453,22.3799991607666,5600.0,21.477752685546875
2018-08-30,22.360000610351562,22.229999542236328,22.350000381469727,22.329999923706055,17100.0,21.429771423339844
2018-08-31,22.31999969482422,22.246000289916992,22.31999969482422,22.246000289916992,1800.0,21.349153518676758
2018-09-04,22.360000610351562,22.18000030517578,22.360000610351562,22.238000869750977,9800.0,21.34147834777832
2018-09-05,22.290000915527344,22.1299991607666,22.290000915527344,22.19099998474121,14500.0,21.296375274658203
2018-09-06,22.174999237060547,22.05900001525879,22.174999237060547,22.10700035095215,8200.0,21.215757369995117
2018-09-07,22.1299991607666,22.0049991607666,22.1299991607666,22.059999465942383,5400.0,21.170654296875
2018-09-10,22.1200008392334,22.05500030517578,22.10099983215332,22.075000762939453,13600.0,21.18505096435547
2018-09-11,22.110000610351562,21.920000076293945,22.030000686645508,22.110000610351562,5000.0,21.310348510742188
2018-09-12,22.15999984741211,22.065000534057617,22.110000610351562,22.149999618530273,4400.0,21.348899841308594
2018-09-13,22.219999313354492,22.131999969482422,22.149999618530273,22.131999969482422,11400.0,21.3315486907959
2018-09-14,22.184999465942383,22.049999237060547,22.049999237060547,22.094999313354492,3000.0,21.295888900756836
2018-09-17,22.094999313354492,22.094999313354492,22.094999313354492,22.094999313354492,0.0,21.295888900756836
2018-09-18,22.11199951171875,22.06100082397461,22.083999633789062,22.06100082397461,5600.0,21.263118743896484
2018-09-19,22.077999114990234,22.077999114990234,22.077999114990234,22.077999114990234,800.0,21.27950096130371
2018-09-20,22.200000762939453,22.138999938964844,22.138999938964844,22.200000762939453,3800.0,21.397092819213867
2018-09-21,22.229999542236328,22.200000762939453,22.21500015258789,22.229999542236328,6700.0,21.426008224487305
2018-09-24,22.260000228881836,22.097000122070312,22.260000228881836,22.1299991607666,7100.0,21.32962417602539
2018-09-25,22.139999389648438,22.06999969482422,22.139999389648438,22.084999084472656,4200.0,21.2862491607666
2018-09-26,22.11400032043457,22.107999801635742,22.11400032043457,22.107999801635742,900.0,21.308420181274414
2018-09-27,22.055999755859375,22.049999237060547,22.049999237060547,22.049999237060547,700.0,21.252517700195312
2018-09-28,22.1299991607666,22.030000686645508,22.1299991607666,22.030000686645508,1800.0,21.23324203491211
2018-10-01,22.229000091552734,22.141000747680664,22.15999984741211,22.229000091552734,2800.0,21.425045013427734
2018-10-02,22.17799949645996,22.139999389648438,22.150999069213867,22.17799949645996,1500.0,21.375886917114258
2018-10-03,22.219999313354492,22.148000717163086,22.163000106811523,22.148000717163086,2600.0,21.346973419189453
2018-10-04,21.986000061035156,21.8439998626709,21.96299934387207,21.889999389648438,7500.0,21.098302841186523
2018-10-05,21.84000015258789,21.608999252319336,21.84000015258789,21.608999252319336,3600.0,20.82746696472168
2018-10-08,21.597999572753906,21.440000534057617,21.597999572753906,21.440000534057617,1100.0,20.664581298828125
2018-10-09,21.56999969482422,21.48900032043457,21.48900032043457,21.56999969482422,6700.0,20.78987693786621
2018-10-10,21.5,21.16900062561035,21.5,21.16900062561035,15800.0,20.403383255004883
2018-10-11,21.030000686645508,20.75,21.030000686645508,20.75,10100.0,20.089691162109375
2018-10-12,20.8700008392334,20.690000534057617,20.868999481201172,20.774999618530273,21100.0,20.113895416259766
2018-10-15,20.889999389648438,20.773000717163086,20.773000717163086,20.847999572753906,2800.0,20.184572219848633
2018-10-16,21.149999618530273,21.0049991607666,21.0049991607666,21.149999618530273,3100.0,20.47696304321289
2018-10-17,21.18400001525879,21.100000381469727,21.100000381469727,21.110000610351562,3800.0,20.438236236572266
2018-10-18,21.170000076293945,20.97100067138672,21.139999389648438,20.97100067138672,4100.0,20.30365562438965
2018-10-19,21.1200008392334,20.941999435424805,20.969999313354492,20.969999313354492,11700.0,20.302690505981445
2018-10-22,20.993999481201172,20.908000946044922,20.993999481201172,20.979999542236328,32800.0,20.3123722076416
2018-10-23,20.850000381469727,20.66900062561035,20.799999237060547,20.81800079345703,3600.0,20.155527114868164
2018-10-24,20.850000381469727,20.459999084472656,20.850000381469727,20.459999084472656,45900.0,19.808917999267578
2018-10-25,20.56999969482422,20.420000076293945,20.420000076293945,20.489999771118164,4000.0,19.83796501159668
2018-10-26,20.40999984741211,20.170000076293945,20.40999984741211,20.327999114990234,4600.0,19.68111801147461
2018-10-29,20.47599983215332,20.09000015258789,20.399999618530273,20.110000610351562,25400.0,19.470056533813477
2018-10-30,20.173999786376953,20.09000015258789,20.09000015258789,20.173999786376953,2800.0,19.532018661499023
2018-10-31,20.406999588012695,20.325000762939453,20.389999389648438,20.406999588012695,2000.0,19.757604598999023
2018-11-01,20.614999771118164,20.466999053955078,20.5,20.60300064086914,2000.0,19.947370529174805
2018-11-02,20.729999542236328,20.510000228881836,20.729999542236328,20.510000228881836,7600.0,19.857328414916992
2018-11-05,20.68000030517578,20.540000915527344,20.540000915527344,20.615999221801758,4400.0,19.9599552154541
2018-11-06,20.790000915527344,20.6200008392334,20.6200008392334,20.73900032043457,12100.0,20.079038619995117
2018-11-07,21.020999908447266,20.84600067138672,20.913000106811523,21.020999908447266,13200.0,20.352066040039062
2018-11-08,21.139999389648438,21.104000091552734,21.139999389648438,21.104000091552734,800.0,20.432424545288086
2018-11-09,20.902000427246094,20.805999755859375,20.902000427246094,20.895000457763672,2100.0,20.321556091308594
2018-11-12,20.851999282836914,20.780000686645508,20.851999282836914,20.780000686645508,1000.0,20.209712982177734
2018-11-13,20.68000030517578,20.68000030517578,20.68000030517578,20.68000030517578,200.0,20.112455368041992
2018-11-14,20.700000762939453,20.474000930786133,20.700000762939453,20.531999588012695,53600.0,19.968515396118164
2018-11-15,20.55699920654297,20.399999618530273,20.399999618530273,20.534000396728516,13500.0,19.970462799072266
2018-11-16,20.540000915527344,20.389999389648438,20.540000915527344,20.445999145507812,7700.0,19.884876251220703
2018-11-19,20.43899917602539,20.190000534057617,20.40999984741211,20.22800064086914,6600.0,19.67285919189453
2018-11-20,20.035999298095703,19.940000534057617,19.968000411987305,19.98900032043457,7600.0,19.440420150756836
2018-11-21,20.05699920654297,19.969999313354492,20.049999237060547,19.985000610351562,4500.0,19.4365291595459
2018-11-23,20.0,19.969999313354492,20.0,19.969999313354492,3500.0,19.421939849853516
2018-11-26,20.155000686645508,20.06999969482422,20.150999069213867,20.14299964904785,16800.0,19.590194702148438
2018-11-27,20.100000381469727,20.051000595092773,20.059999465942383,20.100000381469727,2200.0,19.54837417602539
2018-11-28,20.29800033569336,20.049999237060547,20.049999237060547,20.290000915527344,6000.0,19.733156204223633
2018-11-29,20.440000534057617,20.270000457763672,20.270000457763672,20.43199920654297,7600.0,19.871259689331055
2018-11-30,20.450000762939453,20.350000381469727,20.389999389648438,20.450000762939453,4600.0,19.88876724243164
2018-12-03,20.75,20.549999237060547,20.549999237060547,20.739999771118164,8800.0,20.170806884765625
2018-12-04,20.559999465942383,20.499000549316406,20.559999465942383,20.499000549316406,400.0,19.936424255371094
2018-12-06,20.360000610351562,20.010000228881836,20.360000610351562,20.1299991607666,7800.0,19.57754898071289
2018-12-07,20.170000076293945,20.170000076293945,20.170000076293945,20.170000076293945,1700.0,19.616453170776367
2018-12-10,20.1299991607666,19.84000015258789,20.1299991607666,19.889999389648438,55000.0,19.344135284423828
2018-12-11,19.969999313354492,19.75,19.950000762939453,19.75,327800.0,19.300159454345703
2018-12-12,20.017000198364258,19.84000015258789,19.90999984741211,19.950000762939453,156900.0,19.495607376098633
2018-12-13,19.922000885009766,19.84000015258789,19.922000885009766,19.84000015258789,1400.0,19.388111114501953
2018-12-14,19.690000534057617,19.600000381469727,19.645000457763672,19.600000381469727,2600.0,19.15357780456543
2018-12-17,19.43000030517578,19.06999969482422,19.40999984741211,19.139999389648438,35100.0,18.70405387878418
2018-12-18,19.1299991607666,19.035999298095703,19.05699920654297,19.035999298095703,4600.0,18.6024227142334
2018-12-19,19.139999389648438,18.97800064086914,18.98200035095215,18.979999542236328,7200.0,18.547700881958008
2018-12-20,18.75,17.84000015258789,18.75,18.350000381469727,202600.0,17.932048797607422
2018-12-21,18.3700008392334,18.121999740600586,18.290000915527344,18.18000030517578,125900.0,17.765920639038086
2018-12-24,18.084999084472656,17.95800018310547,18.035999298095703,18.06999969482422,85300.0,17.658428192138672
2018-12-26,18.540000915527344,18.020000457763672,18.020000457763672,18.510000228881836,232000.0,18.088403701782227
2018-12-27,18.525999069213867,18.34000015258789,18.36199951171875,18.525999069213867,23600.0,18.10403823852539
2018-12-28,18.940000534057617,18.600000381469727,18.600000381469727,18.82200050354004,48500.0,18.393299102783203
2018-12-31,19.059999465942383,18.8799991607666,19.059999465942383,18.889999389648438,33100.0,18.459749221801758
2019-01-02,18.979999542236328,18.83799934387207,18.959999084472656,18.979999542236328,2800.0,18.547700881958008
2019-01-03,19.091999053955078,19.05299949645996,19.091999053955078,19.05299949645996,400.0,18.619035720825195
2019-01-04,19.367000579833984,19.20800018310547,19.20800018310547,19.367000579833984,1800.0,18.925884246826172
2019-01-07,19.687000274658203,19.482999801635742,19.482999801635742,19.687000274658203,2300.0,19.238595962524414
2019-01-08,19.93000030517578,19.729999542236328,19.729999542236328,19.850000381469727,9300.0,19.397884368896484
2019-01-09,20.10300064086914,19.940000534057617,20.0,20.09000015258789,4100.0,19.632417678833008
2019-01-10,20.114999771118164,20.010000228881836,20.049999237060547,20.100000381469727,6600.0,19.64219093322754
2019-01-11,20.030000686645508,19.920000076293945,19.97100067138672,20.030000686645508,3500.0,19.666736602783203
2019-01-14,19.989999771118164,19.8700008392334,19.8700008392334,19.979999542236328,9800.0,19.617643356323242
2019-01-15,20.110000610351562,20.05900001525879,20.059999465942383,20.07200050354004,9200.0,19.707975387573242
2019-01-16,20.229999542236328,20.15399932861328,20.15399932861328,20.219999313354492,3000.0,19.853290557861328
2019-01-17,20.298999786376953,20.21299934387207,20.21299934387207,20.23200035095215,2300.0,19.865074157714844
2019-01-18,20.459999084472656,20.34000015258789,20.3700008392334,20.40999984741211,13300.0,20.03984260559082
2019-01-22,20.329999923706055,20.160999298095703,20.285999298095703,20.160999298095703,4300.0,19.795358657836914
2019-01-23,20.270000457763672,20.149999618530273,20.209999084472656,20.225000381469727,23300.0,19.858200073242188
2019-01-24,20.28499984741211,20.240999221801758,20.270999908447266,20.240999221801758,4000.0,19.8739070892334
2019-01-25,20.389999389648438,20.295000076293945,20.295000076293945,20.340999603271484,4700.0,19.972095489501953
2019-01-28,20.34000015258789,20.25,20.270000457763672,20.34000015258789,6100.0,19.971115112304688
2019-01-29,20.43000030517578,20.299999237060547,20.3700008392334,20.415000915527344,309400.0,20.044755935668945
2019-01-30,20.559999465942383,20.506000518798828,20.510000228881836,20.538000106811523,1400.0,20.165523529052734
2019-01-31,20.799999237060547,20.530000686645508,20.530000686645508,20.799999237060547,13700.0,20.42276954650879
2019-02-01,20.899999618530273,20.82200050354004,20.8799991607666,20.834999084472656,3000.0,20.457134246826172
2019-02-04,20.909000396728516,20.843000411987305,20.909000396728516,20.847999572753906,2700.0,20.469900131225586
2019-02-05,21.0,20.899999618530273,21.0,20.93000030517578,4800.0,20.550413131713867
2019-02-06,20.999000549316406,20.899999618530273,20.9060001373291,20.989999771118164,1600.0,20.609323501586914
2019-02-07,20.888999938964844,20.75,20.888999938964844,20.860000610351562,19400.0,20.48168182373047
2019-02-08,20.829999923706055,20.743000030517578,20.743000030517578,20.809999465942383,6000.0,20.432588577270508
2019-02-11,20.889999389648438,20.825000762939453,20.84000015258789,20.847999572753906,5000.0,20.469900131225586
2019-02-12,20.93000030517578,20.799999237060547,20.920000076293945,20.90999984741211,11000.0,20.624757766723633
2019-02-13,20.959999084472656,20.871000289916992,20.958999633789062,20.959999084472656,7800.0,20.674074172973633
2019-02-14,21.020000457763672,20.829999923706055,20.829999923706055,21.020000457763672,6700.0,20.733261108398438
2019-02-15,21.05500030517578,21.0,21.0310001373291,21.0,1300.0,20.713529586791992
2019-02-19,21.06999969482422,21.0,21.0,21.06999969482422,500.0,20.782577514648438
2019-02-20,21.170000076293945,21.059999465942383,21.170000076293945,21.149999618530273,45400.0,20.861486434936523
2019-02-21,21.06800079345703,21.000999450683594,21.062999725341797,21.000999450683594,2200.0,20.714515686035156
2019-02-22,21.229999542236328,21.1299991607666,21.1299991607666,21.229999542236328,4800.0,20.940393447875977
2019-02-25,21.229999542236328,21.229999542236328,21.229999542236328,21.229999542236328,100.0,20.940393447875977
2019-02-26,21.309999465942383,21.059999465942383,21.059999465942383,21.299999237060547,6600.0,21.00943946838379
2019-02-27,21.350000381469727,21.190000534057617,21.350000381469727,21.299999237060547,3500.0,21.00943946838379
2019-02-28,21.268999099731445,21.201000213623047,21.201000213623047,21.225000381469727,1000.0,20.935462951660156
2019-03-01,21.347999572753906,21.30900001525879,21.347999572753906,21.30900001525879,2100.0,21.018314361572266
2019-03-04,21.350000381469727,21.170000076293945,21.260000228881836,21.290000915527344,15900.0,20.999576568603516
2019-03-05,21.360000610351562,21.209999084472656,21.209999084472656,21.30500030517578,16800.0,21.014371871948242
2019-03-06,21.218000411987305,21.202999114990234,21.21299934387207,21.216999053955078,4600.0,20.927570343017578
2019-03-07,21.101999282836914,21.084999084472656,21.101999282836914,21.086000442504883,2500.0,20.798358917236328
2019-03-08,21.100000381469727,20.979999542236328,20.999000549316406,21.100000381469727,8500.0,20.81216812133789
2019-03-11,21.280000686645508,21.030000686645508,21.030000686645508,21.280000686645508,7500.0,20.989713668823242
2019-03-12,21.239999771118164,21.141000747680664,21.141000747680664,21.239999771118164,4300.0,21.047183990478516
2019-03-13,21.325000762939453,21.229999542236328,21.264999389648438,21.243000030517578,2500.0,21.05015754699707
2019-03-14,21.243000030517578,21.243000030517578,21.243000030517578,21.243000030517578,100.0,21.05015754699707
2019-03-15,21.35700035095215,21.2810001373291,21.326000213623047,21.30900001525879,6200.0,21.115556716918945
2019-03-18,21.445999145507812,21.350000381469727,21.424999237060547,21.445999145507812,4200.0,21.251312255859375
2019-03-19,21.518999099731445,21.360000610351562,21.465999603271484,21.440000534057617,19000.0,21.24536895751953
2019-03-20,21.44099998474121,21.360000610351562,21.430999755859375,21.3799991607666,3800.0,21.1859130859375
2019-03-21,21.518999099731445,21.45599937438965,21.45599937438965,21.5,5500.0,21.304824829101562
2019-03-22,21.600000381469727,21.309999465942383,21.600000381469727,21.347999572753906,16300.0,21.154203414916992
2019-03-25,21.29599952697754,21.209999084472656,21.29599952697754,21.209999084472656,2100.0,21.0174560546875
2019-03-26,21.388999938964844,21.209999084472656,21.350000381469727,21.209999084472656,2100.0,21.0174560546875
2019-03-27,21.32200050354004,21.18000030517578,21.260000228881836,21.27400016784668,7900.0,21.080875396728516
2019-03-28,21.350000381469727,21.229999542236328,21.34600067138672,21.270000457763672,9200.0,21.07691192626953
2019-03-29,21.424999237060547,21.350000381469727,21.399999618530273,21.399999618530273,9600.0,21.205732345581055
2019-04-01,21.60099983215332,21.46299934387207,21.540000915527344,21.520000457763672,11800.0,21.324642181396484
2019-04-02,21.65999984741211,21.540000915527344,21.65999984741211,21.62299919128418,3700.0,21.426706314086914
2019-04-03,21.636999130249023,21.56999969482422,21.611000061035156,21.636999130249023,7100.0,21.44057846069336
2019-04-04,21.670000076293945,21.611000061035156,21.611000061035156,21.670000076293945,3200.0,21.47327995300293
2019-04-05,21.735000610351562,21.69499969482422,21.729999542236328,21.735000610351562,2100.0,21.537691116333008
2019-04-08,21.73200035095215,21.690000534057617,21.73200035095215,21.690000534057617,2200.0,21.493099212646484
2019-04-09,21.73900032043457,21.649999618530273,21.73900032043457,21.649999618530273,2100.0,21.453462600708008
2019-04-10,21.788999557495117,21.68000030517578,21.68000030517578,21.76799964904785,9700.0,21.570390701293945
2019-04-11,21.700000762939453,21.649999618530273,21.666000366210938,21.690000534057617,10500.0,21.590299606323242
2019-04-12,21.76099967956543,21.700000762939453,21.746000289916992,21.700000762939453,6100.0,21.60025405883789
2019-04-15,21.73900032043457,21.68600082397461,21.73900032043457,21.68600082397461,2700.0,21.58631706237793
2019-04-16,21.775999069213867,21.719999313354492,21.756000518798828,21.743000030517578,4200.0,21.643054962158203
2019-04-17,21.729999542236328,21.6560001373291,21.719999313354492,21.656999588012695,47500.0,21.557449340820312
2019-04-18,21.594999313354492,21.594999313354492,21.594999313354492,21.594999313354492,500.0,21.49573516845703
2019-04-22,21.639999389648438,21.558000564575195,21.639999389648438,21.56599998474121,1400.0,21.466869354248047
2019-04-23,21.680999755859375,21.625,21.63800048828125,21.652999877929688,4300.0,21.553468704223633
2019-04-24,21.74799919128418,21.69499969482422,21.718000411987305,21.74799919128418,3600.0,21.64803123474121
2019-04-25,21.679000854492188,21.63800048828125,21.679000854492188,21.677000045776367,1100.0,21.57735824584961
2019-04-26,21.729999542236328,21.649999618530273,21.69300079345703,21.68000030517578,8100.0,21.580345153808594
2019-04-29,21.719999313354492,21.68000030517578,21.68000030517578,21.719999313354492,600.0,21.620159149169922
2019-04-30,21.850000381469727,21.729999542236328,21.829999923706055,21.836999893188477,16100.0,21.736623764038086
2019-05-01,21.940000534057617,21.860000610351562,21.882999420166016,21.920000076293945,18000.0,21.81924057006836
2019-05-02,21.8799991607666,21.770000457763672,21.8799991607666,21.84000015258789,2500.0,21.739608764648438
2019-05-03,21.96500015258789,21.809999465942383,21.809999465942383,21.96500015258789,4000.0,21.86403465270996
2019-05-06,21.9689998626709,21.756999969482422,21.756999969482422,21.9689998626709,2500.0,21.86801528930664
2019-05-07,21.812999725341797,21.659000396728516,21.795000076293945,21.659000396728516,2000.0,21.55944061279297
2019-05-08,21.697999954223633,21.659000396728516,21.697999954223633,21.690000534057617,7600.0,21.590299606323242
2019-05-09,21.597999572753906,21.53700065612793,21.57900047302246,21.597999572753906,1000.0,21.498720169067383
2019-05-10,21.579999923706055,21.509000778198242,21.56999969482422,21.579999923706055,5200.0,21.480804443359375
2019-05-13,21.489999771118164,21.31999969482422,21.489999771118164,21.31999969482422,2800.0,21.22199821472168
2019-05-14,21.465999603271484,21.40999984741211,21.465999603271484,21.40999984741211,1800.0,21.40999984741211
2019-05-15,21.4950008392334,21.3799991607666,21.3799991607666,21.4950008392334,2800.0,21.4950008392334
2019-05-16,21.4950008392334,21.4950008392334,21.4950008392334,21.4950008392334,100.0,21.4950008392334
2019-05-17,21.576000213623047,21.479999542236328,21.489999771118164,21.479999542236328,3200.0,21.479999542236328
2019-05-20,21.520000457763672,21.447999954223633,21.520000457763672,21.486000061035156,2900.0,21.486000061035156
2019-05-21,21.586999893188477,21.51300048828125,21.579999923706055,21.53700065612793,6000.0,21.53700065612793
2019-05-22,21.59000015258789,21.52400016784668,21.59000015258789,21.52400016784668,6900.0,21.52400016784668
2019-05-23,21.43000030517578,21.3700008392334,21.43000030517578,21.3799991607666,6600.0,21.3799991607666
2019-05-24,21.5,21.395000457763672,21.5,21.40999984741211,2100.0,21.40999984741211
