Date,High,Low,Open,Close,Volume,Adj Close
2018-06-27,9.75,9.739999771118164,9.75,9.744999885559082,7300,9.744999885559082
2018-06-28,9.75,9.694999694824219,9.75,9.739999771118164,2700,9.739999771118164
2018-06-29,9.800000190734863,9.720999717712402,9.800000190734863,9.75,11800,9.75
2018-07-02,9.800000190734863,9.739999771118164,9.800000190734863,9.75,1500,9.75
2018-07-03,9.75,9.720000267028809,9.739999771118164,9.75,73000,9.75
2018-07-05,9.789999961853027,9.729999542236328,9.75,9.789999961853027,101000,9.789999961853027
2018-07-06,9.779999732971191,9.699999809265137,9.779999732971191,9.75,33500,9.75
2018-07-09,9.75,9.75,9.75,9.75,15000,9.75
2018-07-10,9.75,9.680000305175781,9.75,9.680000305175781,12200,9.680000305175781
2018-07-11,9.65999984741211,9.630000114440918,9.65999984741211,9.630000114440918,1755300,9.630000114440918
2018-07-12,9.720000267028809,9.64799976348877,9.720000267028809,9.6899995803833,13200,9.6899995803833
2018-07-13,9.6899995803833,9.6899995803833,9.6899995803833,9.6899995803833,13100,9.6899995803833
2018-07-16,9.6899995803833,9.6899995803833,9.6899995803833,9.6899995803833,0,9.6899995803833
2018-07-17,9.699999809265137,9.670000076293945,9.680000305175781,9.680000305175781,4900,9.680000305175781
2018-07-18,9.680000305175781,9.680000305175781,9.680000305175781,9.680000305175781,0,9.680000305175781
2018-07-19,9.680000305175781,9.680000305175781,9.680000305175781,9.680000305175781,50000,9.680000305175781
2018-07-20,9.699999809265137,9.670000076293945,9.680000305175781,9.670000076293945,6900,9.670000076293945
2018-07-23,9.720000267028809,9.670000076293945,9.699999809265137,9.670000076293945,9500,9.670000076293945
2018-07-24,9.699999809265137,9.670000076293945,9.687000274658203,9.699999809265137,39300,9.699999809265137
2018-07-25,9.779999732971191,9.675000190734863,9.6850004196167,9.760000228881836,109700,9.760000228881836
2018-07-26,9.760000228881836,9.699999809265137,9.760000228881836,9.739999771118164,191500,9.739999771118164
2018-07-27,9.739999771118164,9.739999771118164,9.739999771118164,9.739999771118164,0,9.739999771118164
2018-07-30,9.739999771118164,9.739999771118164,9.739999771118164,9.739999771118164,0,9.739999771118164
2018-07-31,9.75,9.699999809265137,9.75,9.699999809265137,4100,9.699999809265137
2018-08-01,9.739999771118164,9.739999771118164,9.739999771118164,9.739999771118164,500,9.739999771118164
2018-08-02,9.739999771118164,9.720999717712402,9.739999771118164,9.739999771118164,5800,9.739999771118164
2018-08-03,9.739999771118164,9.739999771118164,9.739999771118164,9.739999771118164,0,9.739999771118164
2018-08-06,9.729999542236328,9.72700023651123,9.72700023651123,9.729999542236328,2100,9.729999542236328
2018-08-07,9.739999771118164,9.718999862670898,9.739999771118164,9.718999862670898,1300,9.718999862670898
2018-08-08,9.720000267028809,9.6899995803833,9.699999809265137,9.6899995803833,53000,9.6899995803833
2018-08-09,9.699999809265137,9.694999694824219,9.699999809265137,9.694999694824219,1500,9.694999694824219
2018-08-10,9.710000038146973,9.6899995803833,9.710000038146973,9.6899995803833,6200,9.6899995803833
2018-08-13,9.6899995803833,9.630000114440918,9.6899995803833,9.630000114440918,284200,9.630000114440918
2018-08-14,9.654999732971191,9.569999694824219,9.654999732971191,9.619999885559082,20600,9.619999885559082
2018-08-15,9.649999618530273,9.569999694824219,9.600000381469727,9.635000228881836,605500,9.635000228881836
2018-08-16,9.621000289916992,9.609999656677246,9.619999885559082,9.614999771118164,2900,9.614999771118164
2018-08-17,9.670000076293945,9.640000343322754,9.640000343322754,9.670000076293945,45300,9.670000076293945
2018-08-20,9.670000076293945,9.649999618530273,9.670000076293945,9.649999618530273,300,9.649999618530273
2018-08-21,9.670000076293945,9.649999618530273,9.670000076293945,9.649999618530273,1700,9.649999618530273
2018-08-22,9.670000076293945,9.65999984741211,9.670000076293945,9.65999984741211,8000,9.65999984741211
2018-08-23,9.729999542236328,9.649999618530273,9.65999984741211,9.670000076293945,60000,9.670000076293945
2018-08-24,9.670000076293945,9.649999618530273,9.670000076293945,9.670000076293945,8000,9.670000076293945
2018-08-27,9.720000267028809,9.600000381469727,9.649999618530273,9.720000267028809,28700,9.720000267028809
2018-08-28,9.720000267028809,9.720000267028809,9.720000267028809,9.720000267028809,7300,9.720000267028809
2018-08-29,9.720000267028809,9.65999984741211,9.720000267028809,9.699999809265137,33000,9.699999809265137
2018-08-30,9.699999809265137,9.6899995803833,9.699999809265137,9.699999809265137,23500,9.699999809265137
2018-08-31,9.720000267028809,9.699999809265137,9.710000038146973,9.699999809265137,17200,9.699999809265137
2018-09-04,9.720000267028809,9.670000076293945,9.720000267028809,9.6899995803833,12500,9.6899995803833
2018-09-05,9.720000267028809,9.680000305175781,9.720000267028809,9.699999809265137,719600,9.699999809265137
2018-09-06,9.720000267028809,9.689000129699707,9.699999809265137,9.710000038146973,160200,9.710000038146973
2018-09-07,9.720000267028809,9.699999809265137,9.720000267028809,9.699999809265137,207100,9.699999809265137
2018-09-10,9.729999542236328,9.699999809265137,9.729999542236328,9.729999542236328,302300,9.729999542236328
2018-09-11,9.710000038146973,9.699999809265137,9.699999809265137,9.710000038146973,2900,9.710000038146973
2018-09-12,9.720000267028809,9.699999809265137,9.720000267028809,9.720000267028809,102800,9.720000267028809
2018-09-13,9.720000267028809,9.720000267028809,9.720000267028809,9.720000267028809,300,9.720000267028809
2018-09-14,9.710000038146973,9.600000381469727,9.710000038146973,9.65999984741211,4000,9.65999984741211
2018-09-17,9.720000267028809,9.649999618530273,9.699999809265137,9.649999618530273,7600,9.649999618530273
2018-09-18,9.649999618530273,9.550000190734863,9.600000381469727,9.649999618530273,47400,9.649999618530273
2018-09-19,9.720000267028809,9.550000190734863,9.579999923706055,9.595000267028809,34800,9.595000267028809
2018-09-20,9.720000267028809,9.65999984741211,9.720000267028809,9.65999984741211,14600,9.65999984741211
2018-09-21,9.600000381469727,9.600000381469727,9.600000381469727,9.600000381469727,1200,9.600000381469727
2018-09-24,9.630000114440918,9.619999885559082,9.630000114440918,9.630000114440918,400,9.630000114440918
2018-09-25,9.699999809265137,9.600000381469727,9.699999809265137,9.609999656677246,3000,9.609999656677246
2018-09-26,9.640000343322754,9.600000381469727,9.600000381469727,9.600000381469727,8200,9.600000381469727
2018-09-27,9.600000381469727,9.600000381469727,9.600000381469727,9.600000381469727,9000,9.600000381469727
2018-09-28,9.633000373840332,9.633000373840332,9.633000373840332,9.633000373840332,100,9.633000373840332
2018-10-01,9.699999809265137,9.699999809265137,9.699999809265137,9.699999809265137,100,9.699999809265137
2018-10-02,9.699999809265137,9.699999809265137,9.699999809265137,9.699999809265137,0,9.699999809265137
2018-10-03,9.720000267028809,9.6899995803833,9.699999809265137,9.699999809265137,824000,9.699999809265137
2018-10-04,9.699999809265137,9.645000457763672,9.65999984741211,9.680000305175781,18800,9.680000305175781
2018-10-05,9.75,9.6899995803833,9.729999542236328,9.6899995803833,2600,9.6899995803833
2018-10-08,9.6899995803833,9.6899995803833,9.6899995803833,9.6899995803833,0,9.6899995803833
2018-10-09,9.699999809265137,9.550000190734863,9.579999923706055,9.699999809265137,1500,9.699999809265137
2018-10-10,9.680000305175781,9.609999656677246,9.609999656677246,9.649999618530273,448900,9.649999618530273
2018-10-11,9.649999618530273,9.600000381469727,9.642999649047852,9.649999618530273,317000,9.649999618530273
2018-10-12,9.649999618530273,9.619999885559082,9.625,9.619999885559082,600,9.619999885559082
2018-10-15,9.65999984741211,9.65999984741211,9.65999984741211,9.65999984741211,100,9.65999984741211
2018-10-16,9.670000076293945,9.579999923706055,9.579999923706055,9.649999618530273,3700,9.649999618530273
2018-10-17,9.65999984741211,9.579999923706055,9.579999923706055,9.65999984741211,2300,9.65999984741211
2018-10-18,9.649999618530273,9.60200023651123,9.628000259399414,9.649999618530273,100500,9.649999618530273
2018-10-19,9.649999618530273,9.649999618530273,9.649999618530273,9.649999618530273,100,9.649999618530273
2018-10-22,9.649999618530273,9.649999618530273,9.649999618530273,9.649999618530273,100,9.649999618530273
2018-10-23,9.649999618530273,9.550000190734863,9.550000190734863,9.609999656677246,500,9.609999656677246
2018-10-24,9.640000343322754,9.579999923706055,9.579999923706055,9.640000343322754,300,9.640000343322754
2018-10-25,9.649999618530273,9.619999885559082,9.649999618530273,9.63599967956543,7600,9.63599967956543
2018-10-26,9.649999618530273,9.550000190734863,9.550000190734863,9.649999618530273,2000,9.649999618530273
2018-10-29,9.649999618530273,9.649999618530273,9.649999618530273,9.649999618530273,100,9.649999618530273
2018-10-30,9.649999618530273,9.649999618530273,9.649999618530273,9.649999618530273,100,9.649999618530273
2018-10-31,9.649999618530273,9.600000381469727,9.62399959564209,9.630000114440918,14000,9.630000114440918
2018-11-01,9.649999618530273,9.640000343322754,9.640000343322754,9.649999618530273,5000,9.649999618530273
2018-11-02,9.649999618530273,9.649999618530273,9.649999618530273,9.649999618530273,0,9.649999618530273
2018-11-05,9.649999618530273,9.649999618530273,9.649999618530273,9.649999618530273,0,9.649999618530273
2018-11-06,9.649999618530273,9.600000381469727,9.600000381469727,9.609999656677246,600300,9.609999656677246
2018-11-07,9.609999656677246,9.609999656677246,9.609999656677246,9.609999656677246,0,9.609999656677246
2018-11-08,9.649999618530273,9.619999885559082,9.640000343322754,9.640000343322754,657600,9.640000343322754
2018-11-09,9.649999618530273,9.630000114440918,9.649999618530273,9.640000343322754,2900,9.640000343322754
2018-11-12,9.6850004196167,9.630000114440918,9.630000114440918,9.630000114440918,34800,9.630000114440918
2018-11-13,9.699999809265137,9.600000381469727,9.640000343322754,9.630000114440918,31100,9.630000114440918
2018-11-14,9.630000114440918,9.630000114440918,9.630000114440918,9.630000114440918,100,9.630000114440918
2018-11-15,9.630000114440918,9.630000114440918,9.630000114440918,9.630000114440918,0,9.630000114440918
2018-11-16,9.74899959564209,9.630000114440918,9.74899959564209,9.640000343322754,118300,9.640000343322754
2018-11-19,9.640000343322754,9.619999885559082,9.630000114440918,9.640000343322754,4000,9.640000343322754
2018-11-20,9.640000343322754,9.640000343322754,9.640000343322754,9.640000343322754,0,9.640000343322754
2018-11-21,9.640000343322754,9.640000343322754,9.640000343322754,9.640000343322754,0,9.640000343322754
2018-11-23,9.619999885559082,9.609999656677246,9.609999656677246,9.619999885559082,100400,9.619999885559082
2018-11-26,9.649999618530273,9.649999618530273,9.649999618530273,9.649999618530273,1000,9.649999618530273
2018-11-27,9.649999618530273,9.649999618530273,9.649999618530273,9.649999618530273,0,9.649999618530273
2018-11-28,9.649999618530273,9.649999618530273,9.649999618530273,9.649999618530273,0,9.649999618530273
2018-11-29,9.666000366210938,9.609999656677246,9.666000366210938,9.649999618530273,153300,9.649999618530273
2018-11-30,9.65999984741211,9.619999885559082,9.619999885559082,9.619999885559082,1200,9.619999885559082
2018-12-03,9.718999862670898,9.630000114440918,9.718999862670898,9.640000343322754,8900,9.640000343322754
2018-12-04,9.699999809265137,9.649999618530273,9.6899995803833,9.649999618530273,5700,9.649999618530273
2018-12-06,9.6899995803833,9.6899995803833,9.6899995803833,9.6899995803833,300,9.6899995803833
2018-12-07,9.6899995803833,9.6899995803833,9.6899995803833,9.6899995803833,0,9.6899995803833
2018-12-10,9.65999984741211,9.65999984741211,9.65999984741211,9.65999984741211,100100,9.65999984741211
2018-12-11,9.649999618530273,9.649999618530273,9.649999618530273,9.649999618530273,66100,9.649999618530273
2018-12-12,9.65999984741211,9.640000343322754,9.640000343322754,9.65999984741211,51400,9.65999984741211
2018-12-13,9.720000267028809,9.649999618530273,9.65999984741211,9.649999618530273,4400,9.649999618530273
2018-12-14,9.649999618530273,9.649999618530273,9.649999618530273,9.649999618530273,100,9.649999618530273
2018-12-17,9.694999694824219,9.649999618530273,9.649999618530273,9.694999694824219,1300,9.694999694824219
2018-12-18,9.670000076293945,9.649999618530273,9.649999618530273,9.649999618530273,310500,9.649999618530273
2018-12-19,9.670000076293945,9.65999984741211,9.65999984741211,9.670000076293945,1100,9.670000076293945
2018-12-20,9.649999618530273,9.649999618530273,9.649999618530273,9.649999618530273,100,9.649999618530273
2018-12-21,9.680000305175781,9.649999618530273,9.649999618530273,9.649999618530273,160300,9.649999618530273
2018-12-24,9.649999618530273,9.649999618530273,9.649999618530273,9.649999618530273,200,9.649999618530273
2018-12-26,9.680000305175781,9.65999984741211,9.680000305175781,9.680000305175781,1400,9.680000305175781
2018-12-27,9.649999618530273,9.649999618530273,9.649999618530273,9.649999618530273,200,9.649999618530273
2018-12-28,9.680000305175781,9.649999618530273,9.680000305175781,9.649999618530273,200,9.649999618530273
2018-12-31,9.680000305175781,9.649999618530273,9.680000305175781,9.649999618530273,7400,9.649999618530273
2019-01-02,9.649999618530273,9.649999618530273,9.649999618530273,9.649999618530273,100,9.649999618530273
2019-01-03,9.649999618530273,9.649999618530273,9.649999618530273,9.649999618530273,100,9.649999618530273
2019-01-04,9.649999618530273,9.649999618530273,9.649999618530273,9.649999618530273,100,9.649999618530273
2019-01-07,9.680000305175781,9.680000305175781,9.680000305175781,9.680000305175781,3100,9.680000305175781
2019-01-08,9.680000305175781,9.65999984741211,9.680000305175781,9.670000076293945,1200600,9.670000076293945
2019-01-09,9.699999809265137,9.65999984741211,9.670000076293945,9.678999900817871,77000,9.678999900817871
2019-01-10,9.699999809265137,9.670000076293945,9.670000076293945,9.699999809265137,10200,9.699999809265137
2019-01-11,9.706999778747559,9.699999809265137,9.699999809265137,9.706999778747559,2100,9.706999778747559
2019-01-14,9.699999809265137,9.670000076293945,9.670000076293945,9.680000305175781,80700,9.680000305175781
2019-01-15,9.720000267028809,9.699999809265137,9.699999809265137,9.710000038146973,100700,9.710000038146973
2019-01-16,9.720000267028809,9.670000076293945,9.720000267028809,9.670000076293945,251500,9.670000076293945
2019-01-17,9.739999771118164,9.699999809265137,9.699999809265137,9.739999771118164,209500,9.739999771118164
2019-01-18,9.75,9.699999809265137,9.729999542236328,9.75,163500,9.75
2019-01-22,9.770000457763672,9.720000267028809,9.720000267028809,9.770000457763672,139400,9.770000457763672
2019-01-23,9.770000457763672,9.770000457763672,9.770000457763672,9.770000457763672,0,9.770000457763672
2019-01-24,9.770000457763672,9.720000267028809,9.729999542236328,9.770000457763672,135700,9.770000457763672
2019-01-25,9.800000190734863,9.75,9.789999961853027,9.75,261300,9.75
2019-01-28,9.76099967956543,9.76099967956543,9.76099967956543,9.76099967956543,200,9.76099967956543
2019-01-29,9.729999542236328,9.729999542236328,9.729999542236328,9.729999542236328,100,9.729999542236328
2019-01-30,9.789999961853027,9.760000228881836,9.779999732971191,9.760000228881836,256100,9.760000228881836
2019-01-31,9.779999732971191,9.75,9.760000228881836,9.765000343322754,15300,9.765000343322754
2019-02-01,9.779999732971191,9.760000228881836,9.760000228881836,9.770000457763672,25300,9.770000457763672
2019-02-04,9.770000457763672,9.770000457763672,9.770000457763672,9.770000457763672,5000,9.770000457763672
2019-02-05,9.770000457763672,9.720000267028809,9.720000267028809,9.770000457763672,50300,9.770000457763672
2019-02-06,9.819999694824219,9.770000457763672,9.770000457763672,9.819999694824219,300100,9.819999694824219
2019-02-07,9.819999694824219,9.819999694824219,9.819999694824219,9.819999694824219,0,9.819999694824219
2019-02-08,9.819999694824219,9.807999610900879,9.819999694824219,9.819999694824219,2100,9.819999694824219
2019-02-11,9.819999694824219,9.789999961853027,9.819999694824219,9.789999961853027,71800,9.789999961853027
2019-02-12,9.819999694824219,9.789999961853027,9.789999961853027,9.8100004196167,55100,9.8100004196167
2019-02-13,9.800000190734863,9.800000190734863,9.800000190734863,9.800000190734863,500,9.800000190734863
2019-02-14,9.84000015258789,9.819999694824219,9.819999694824219,9.84000015258789,17300,9.84000015258789
2019-02-15,9.859999656677246,9.800000190734863,9.850000381469727,9.800000190734863,33500,9.800000190734863
2019-02-19,9.859999656677246,9.8100004196167,9.859999656677246,9.8100004196167,1100,9.8100004196167
2019-02-20,9.850000381469727,9.809000015258789,9.819999694824219,9.850000381469727,15500,9.850000381469727
2019-02-21,9.850000381469727,9.850000381469727,9.850000381469727,9.850000381469727,7400,9.850000381469727
2019-02-22,9.890000343322754,9.859999656677246,9.869999885559082,9.859999656677246,3000,9.859999656677246
2019-02-25,9.899999618530273,9.829999923706055,9.899999618530273,9.859999656677246,5600,9.859999656677246
2019-02-26,9.859999656677246,9.859999656677246,9.859999656677246,9.859999656677246,100,9.859999656677246
2019-02-27,9.859999656677246,9.819999694824219,9.819999694824219,9.859999656677246,2900,9.859999656677246
2019-02-28,9.859999656677246,9.859999656677246,9.859999656677246,9.859999656677246,100,9.859999656677246
2019-03-01,9.869999885559082,9.789999961853027,9.789999961853027,9.869999885559082,400,9.869999885559082
2019-03-04,9.869999885559082,9.869999885559082,9.869999885559082,9.869999885559082,100,9.869999885559082
2019-03-05,9.869999885559082,9.869999885559082,9.869999885559082,9.869999885559082,0,9.869999885559082
2019-03-06,9.819999694824219,9.819999694824219,9.819999694824219,9.819999694824219,500,9.819999694824219
2019-03-07,9.869999885559082,9.850000381469727,9.869999885559082,9.850000381469727,56000,9.850000381469727
2019-03-08,9.850000381469727,9.850000381469727,9.850000381469727,9.850000381469727,0,9.850000381469727
2019-03-11,9.954999923706055,9.890000343322754,9.899999618530273,9.920000076293945,441100,9.920000076293945
2019-03-12,9.960000038146973,9.930000305175781,9.930000305175781,9.949999809265137,13400,9.949999809265137
2019-03-13,9.970000267028809,9.970000267028809,9.970000267028809,9.970000267028809,200,9.970000267028809
2019-03-14,9.970000267028809,9.890000343322754,9.970000267028809,9.899999618530273,6000,9.899999618530273
2019-03-15,9.930000305175781,9.890000343322754,9.930000305175781,9.890000343322754,1700,9.890000343322754
2019-03-18,9.9399995803833,9.880000114440918,9.920000076293945,9.899999618530273,116700,9.899999618530273
2019-03-19,9.9399995803833,9.899999618530273,9.9399995803833,9.899999618530273,33300,9.899999618530273
2019-03-20,9.942999839782715,9.930000305175781,9.930000305175781,9.942999839782715,124100,9.942999839782715
2019-03-21,9.960000038146973,9.920000076293945,9.930000305175781,9.960000038146973,173200,9.960000038146973
2019-03-22,9.960000038146973,9.960000038146973,9.960000038146973,9.960000038146973,0,9.960000038146973
2019-03-25,9.9399995803833,9.920000076293945,9.920000076293945,9.930000305175781,76200,9.930000305175781
2019-03-26,9.970000267028809,9.920000076293945,9.970000267028809,9.930000305175781,20600,9.930000305175781
2019-03-27,9.949999809265137,9.920000076293945,9.949999809265137,9.9399995803833,69800,9.9399995803833
2019-03-28,9.9399995803833,9.9399995803833,9.9399995803833,9.9399995803833,50000,9.9399995803833
2019-03-29,9.949999809265137,9.949999809265137,9.949999809265137,9.949999809265137,2000,9.949999809265137
2019-04-01,9.989999771118164,9.9399995803833,9.9399995803833,9.989999771118164,309300,9.989999771118164
2019-04-02,9.989999771118164,9.949999809265137,9.989999771118164,9.989999771118164,27200,9.989999771118164
2019-04-03,9.989999771118164,9.960000038146973,9.989999771118164,9.960000038146973,55000,9.960000038146973
2019-04-04,9.960000038146973,9.960000038146973,9.960000038146973,9.960000038146973,100,9.960000038146973
2019-04-05,9.970000267028809,9.9399995803833,9.970000267028809,9.9399995803833,17500,9.9399995803833
2019-04-08,9.989999771118164,9.989999771118164,9.989999771118164,9.989999771118164,100,9.989999771118164
2019-04-09,9.989999771118164,9.989999771118164,9.989999771118164,9.989999771118164,100,9.989999771118164
2019-04-10,9.989999771118164,9.970000267028809,9.970000267028809,9.970000267028809,206700,9.970000267028809
2019-04-11,9.979999542236328,9.923999786376953,9.923999786376953,9.979999542236328,7600,9.979999542236328
2019-04-12,10.029999732971191,9.930000305175781,9.989999771118164,10.029999732971191,1867500,10.029999732971191
2019-04-15,10.029999732971191,9.979999542236328,10.029999732971191,9.979999542236328,1100,9.979999542236328
2019-04-16,10.024999618530273,9.930000305175781,9.930000305175781,9.979999542236328,1000,9.979999542236328
2019-04-17,9.989999771118164,9.989999771118164,9.989999771118164,9.989999771118164,100,9.989999771118164
2019-04-18,10.020000457763672,9.930000305175781,10.020000457763672,9.930000305175781,1900,9.930000305175781
2019-04-22,9.970000267028809,9.970000267028809,9.970000267028809,9.970000267028809,500,9.970000267028809
2019-04-23,10.010000228881836,10.0,10.010000228881836,10.010000228881836,312400,10.010000228881836
2019-04-24,10.029999732971191,10.010000228881836,10.020000457763672,10.029999732971191,452700,10.029999732971191
2019-04-25,10.029999732971191,10.029999732971191,10.029999732971191,10.029999732971191,0,10.029999732971191
2019-04-26,10.020000457763672,10.020000457763672,10.020000457763672,10.020000457763672,100,10.020000457763672
2019-04-29,9.960000038146973,9.960000038146973,9.960000038146973,9.960000038146973,600,9.960000038146973
2019-04-30,10.050000190734863,10.0,10.029999732971191,10.0,1400,10.0
2019-05-01,10.0,9.960000038146973,9.960000038146973,10.0,1700,10.0
2019-05-02,10.031999588012695,9.989999771118164,9.989999771118164,10.031999588012695,500,10.031999588012695
2019-05-03,10.031999588012695,10.031999588012695,10.031999588012695,10.031999588012695,0,10.031999588012695
2019-05-06,10.031999588012695,10.031999588012695,10.031999588012695,10.031999588012695,0,10.031999588012695
2019-05-07,10.010000228881836,10.010000228881836,10.010000228881836,10.010000228881836,1000,10.010000228881836
2019-05-08,10.0,10.0,10.0,10.0,200,10.0
2019-05-09,10.029999732971191,10.005000114440918,10.010000228881836,10.015000343322754,334400,10.015000343322754
2019-05-10,10.050000190734863,10.010000228881836,10.050000190734863,10.029999732971191,100600,10.029999732971191
2019-05-13,10.020000457763672,10.0,10.020000457763672,10.010000228881836,177300,10.010000228881836
2019-05-14,10.029999732971191,10.010000228881836,10.029999732971191,10.029999732971191,85800,10.029999732971191
2019-05-15,10.039999961853027,10.029999732971191,10.029999732971191,10.039999961853027,101100,10.039999961853027
2019-05-16,10.050000190734863,10.039999961853027,10.039999961853027,10.04699993133545,1400,10.04699993133545
2019-05-17,10.050000190734863,10.03499984741211,10.050000190734863,10.03499984741211,101100,10.03499984741211
2019-05-20,10.050000190734863,10.020000457763672,10.020000457763672,10.050000190734863,6800,10.050000190734863
2019-05-21,10.050000190734863,10.050000190734863,10.050000190734863,10.050000190734863,100,10.050000190734863
2019-05-22,10.050000190734863,9.920000076293945,9.920000076293945,10.029999732971191,21100,10.029999732971191
2019-05-23,10.029999732971191,10.029999732971191,10.029999732971191,10.029999732971191,0,10.029999732971191
2019-05-24,10.039999961853027,10.029999732971191,10.039999961853027,10.029999732971191,53400,10.029999732971191
