Date,High,Low,Open,Close,Volume,Adj Close
2016-07-05,54.34000015258789,48.39500045776367,49.400001525878906,48.599998474121094,6230700.0,47.98576354980469
2016-07-06,48.599998474121094,46.290000915527344,47.06999969482422,47.75,6706500.0,47.146507263183594
2016-07-07,48.0,47.345001220703125,47.619998931884766,47.7400016784668,5486800.0,47.136634826660156
2016-07-08,50.61000061035156,47.529998779296875,47.959999084472656,50.20000076293945,4243500.0,49.5655403137207
2016-07-11,51.22999954223633,48.97999954223633,49.209999084472656,51.119998931884766,6042300.0,50.473907470703125
2016-07-12,51.060001373291016,50.2599983215332,51.0,50.56999969482422,5552900.0,49.93086242675781
2016-07-13,51.099998474121094,49.83000183105469,50.56999969482422,50.619998931884766,4864700.0,49.9802360534668
2016-07-14,51.7400016784668,49.95000076293945,50.33000183105469,51.56999969482422,3481600.0,50.9182243347168
2016-07-15,51.90999984741211,50.61000061035156,51.779998779296875,51.22999954223633,3689800.0,50.582523345947266
2016-07-18,51.58000183105469,50.5099983215332,50.77000045776367,51.290000915527344,1557500.0,50.64176559448242
2016-07-19,51.560001373291016,50.439998626708984,51.040000915527344,51.54999923706055,1954700.0,50.89847946166992
2016-07-20,51.91999816894531,50.0099983215332,51.84000015258789,50.34000015258789,3351700.0,49.703773498535156
2016-07-21,50.619998931884766,49.9900016784668,50.400001525878906,50.2400016784668,3029900.0,49.605037689208984
2016-07-22,50.290000915527344,49.290000915527344,50.0,49.400001525878906,2450600.0,48.77565002441406
2016-07-25,49.45000076293945,47.86000061035156,49.220001220703125,48.97999954223633,3044800.0,48.360965728759766
2016-07-26,49.41999816894531,48.279998779296875,48.560001373291016,49.279998779296875,1571400.0,48.65717315673828
2016-07-27,49.5,48.71500015258789,49.08000183105469,48.91999816894531,1628600.0,48.301719665527344
2016-07-28,49.09000015258789,48.345001220703125,48.7400016784668,48.650001525878906,2923100.0,48.03512954711914
2016-07-29,48.79999923706055,48.0099983215332,48.459999084472656,48.209999084472656,4484100.0,47.60069274902344
2016-08-01,48.5099983215332,47.59000015258789,48.11000061035156,47.79999923706055,2981000.0,47.19586944580078
2016-08-02,48.02000045776367,47.18000030517578,47.5,47.5,3267300.0,46.899662017822266
2016-08-03,49.47999954223633,47.349998474121094,47.5,49.279998779296875,4709900.0,48.65717315673828
2016-08-04,50.11000061035156,49.47999954223633,49.59000015258789,50.029998779296875,2946600.0,49.39768600463867
2016-08-05,50.97999954223633,50.2599983215332,50.2599983215332,50.58000183105469,2665900.0,49.94074249267578
2016-08-08,50.869998931884766,49.939998626708984,50.630001068115234,50.04999923706055,2116500.0,49.41743469238281
2016-08-09,50.529998779296875,48.42100143432617,48.72999954223633,50.459999084472656,1077900.0,49.82225799560547
2016-08-10,50.79999923706055,50.099998474121094,50.470001220703125,50.45000076293945,1182400.0,49.81238555908203
2016-08-11,52.709999084472656,50.70000076293945,50.72999954223633,52.54999923706055,1988600.0,51.88583755493164
2016-08-12,52.869998931884766,51.79999923706055,52.0,52.709999084472656,1287800.0,52.043819427490234
2016-08-15,53.77000045776367,52.86000061035156,52.95000076293945,53.65999984741211,1457900.0,52.9818115234375
2016-08-16,53.95000076293945,53.27000045776367,53.58000183105469,53.54999923706055,1002300.0,52.87319564819336
2016-08-17,53.72999954223633,53.34000015258789,53.66999816894531,53.40999984741211,1032100.0,52.7349739074707
2016-08-18,53.52000045776367,52.93000030517578,53.220001220703125,53.15999984741211,874700.0,52.48813247680664
2016-08-19,52.95000076293945,51.709999084472656,52.95000076293945,51.91999816894531,1196100.0,51.26380157470703
2016-08-22,52.040000915527344,51.08000183105469,51.91999816894531,51.2599983215332,1081700.0,50.61214828491211
2016-08-23,52.099998474121094,51.13999938964844,51.36000061035156,51.900001525878906,2513600.0,51.24406051635742
2016-08-24,51.779998779296875,50.604000091552734,51.2599983215332,51.369998931884766,692800.0,50.78926086425781
2016-08-25,51.88999938964844,50.97999954223633,51.18000030517578,51.619998931884766,1384900.0,51.03642654418945
2016-08-26,52.34000015258789,51.529998779296875,51.63999938964844,51.869998931884766,937600.0,51.283599853515625
2016-08-29,52.790000915527344,51.560001373291016,51.779998779296875,52.40999984741211,980300.0,51.817501068115234
2016-08-30,53.470001220703125,52.189998626708984,52.189998626708984,52.61000061035156,952100.0,52.01523971557617
2016-08-31,52.81999969482422,52.0,52.470001220703125,52.66999816894531,1653600.0,52.07455825805664
2016-09-01,53.11000061035156,52.13999938964844,52.959999084472656,52.630001068115234,959400.0,52.03500747680664
2016-09-02,53.470001220703125,52.810001373291016,53.02000045776367,53.380001068115234,840800.0,52.77653503417969
2016-09-06,53.54999923706055,52.290000915527344,53.5,52.72999954223633,1293800.0,52.133880615234375
2016-09-07,53.119998931884766,52.02000045776367,52.43000030517578,52.939998626708984,1743200.0,52.34149932861328
2016-09-08,52.959999084472656,52.27000045776367,52.68000030517578,52.33000183105469,1040600.0,51.738407135009766
2016-09-09,52.0099983215332,50.54999923706055,51.77000045776367,50.54999923706055,2170700.0,49.97852325439453
2016-09-12,51.439998626708984,49.86000061035156,50.02000045776367,51.209999084472656,1862400.0,50.63106155395508
2016-09-13,51.400001525878906,49.970001220703125,50.86000061035156,50.040000915527344,1607100.0,49.47429275512695
2016-09-14,50.5,49.63999938964844,50.04999923706055,50.02000045776367,1152300.0,49.45451736450195
2016-09-15,50.599998474121094,49.5,49.97999954223633,50.4900016784668,1410100.0,49.91920471191406
2016-09-16,50.38999938964844,49.41999816894531,50.11000061035156,50.2599983215332,2351900.0,49.691795349121094
2016-09-19,51.404998779296875,50.380001068115234,50.40999984741211,50.779998779296875,968800.0,50.2059211730957
2016-09-20,51.08000183105469,50.209999084472656,50.779998779296875,50.25,1070400.0,49.681922912597656
2016-09-21,51.0099983215332,50.220001220703125,50.470001220703125,50.97999954223633,850800.0,50.403663635253906
2016-09-22,51.9900016784668,51.290000915527344,51.349998474121094,51.63999938964844,1649200.0,51.05620193481445
2016-09-23,51.58000183105469,50.650001525878906,51.29999923706055,50.880001068115234,807200.0,50.30479431152344
2016-09-26,51.4900016784668,50.29999923706055,50.65999984741211,51.220001220703125,1066300.0,50.640953063964844
2016-09-27,51.779998779296875,51.04999923706055,51.099998474121094,51.61000061035156,1196400.0,51.02654266357422
2016-09-28,51.77000045776367,51.349998474121094,51.7400016784668,51.720001220703125,905700.0,51.13530349731445
2016-09-29,51.61000061035156,50.630001068115234,51.09000015258789,50.70000076293945,1458100.0,50.126834869384766
2016-09-30,51.27000045776367,50.279998779296875,51.119998931884766,50.900001525878906,1952400.0,50.3245735168457
2016-10-03,51.65999984741211,50.61000061035156,50.61000061035156,51.38999938964844,1360700.0,50.80903244018555
2016-10-04,51.45000076293945,50.560001373291016,51.2599983215332,50.810001373291016,1212800.0,50.23558807373047
2016-10-05,51.29499816894531,50.599998474121094,51.02000045776367,50.939998626708984,884500.0,50.36411666870117
2016-10-06,50.970001220703125,50.5,50.83000183105469,50.70000076293945,764000.0,50.126834869384766
2016-10-07,50.810001373291016,49.869998931884766,50.5,49.93000030517578,1055600.0,49.365535736083984
2016-10-10,50.31999969482422,49.900001525878906,50.22999954223633,49.95000076293945,1021200.0,49.38530731201172
2016-10-11,50.15999984741211,49.02000045776367,49.91999816894531,49.220001220703125,1401900.0,48.66356658935547
2016-10-12,49.400001525878906,48.650001525878906,49.400001525878906,48.9900016784668,1620000.0,48.436161041259766
2016-10-13,49.68000030517578,48.0,48.630001068115234,48.81999969482422,1209600.0,48.26808547973633
2016-10-14,49.935001373291016,48.810001373291016,49.06999969482422,49.459999084472656,872300.0,48.90084457397461
2016-10-17,49.59000015258789,48.90999984741211,49.560001373291016,49.060001373291016,1116500.0,48.50537109375
2016-10-18,50.31999969482422,49.0,49.650001525878906,49.09000015258789,1119800.0,48.535037994384766
2016-10-19,49.79600143432617,48.459999084472656,49.27000045776367,49.38999938964844,759900.0,48.83163833618164
2016-10-20,49.18000030517578,48.439998626708984,49.13999938964844,48.70000076293945,1419300.0,48.14944076538086
2016-10-21,48.88999938964844,48.130001068115234,48.220001220703125,48.66999816894531,1707000.0,48.119781494140625
2016-10-24,49.2599983215332,48.36000061035156,48.869998931884766,48.54999923706055,1269600.0,48.00114059448242
2016-10-25,48.5,47.86000061035156,48.5,47.91999816894531,1279400.0,47.37826156616211
2016-10-26,48.119998931884766,47.540000915527344,47.79999923706055,47.77000045776367,1574700.0,47.22995376586914
2016-10-27,47.689998626708984,46.810001373291016,47.689998626708984,47.4900016784668,3144200.0,46.953121185302734
2016-10-28,51.689998626708984,49.72999954223633,50.22999954223633,50.209999084472656,3978800.0,49.64236831665039
2016-10-31,51.349998474121094,50.040000915527344,50.209999084472656,51.04999923706055,1561700.0,50.472877502441406
2016-11-01,51.02000045776367,49.9900016784668,50.939998626708984,50.4900016784668,1775800.0,49.91920471191406
2016-11-02,51.150001525878906,50.279998779296875,50.45000076293945,50.31999969482422,866600.0,49.751129150390625
2016-11-03,51.20000076293945,49.9900016784668,50.290000915527344,50.97999954223633,1145700.0,50.403663635253906
2016-11-04,51.65999984741211,50.540000915527344,51.02000045776367,51.11000061035156,1568200.0,50.53219223022461
2016-11-07,52.06999969482422,51.03499984741211,51.56999969482422,51.790000915527344,1413900.0,51.20451354980469
2016-11-08,52.79999923706055,51.369998931884766,51.880001068115234,52.650001525878906,1088700.0,52.05478286743164
2016-11-09,53.93000030517578,51.90399932861328,51.9900016784668,53.459999084472656,1673900.0,52.855628967285156
2016-11-10,55.34000015258789,53.69499969482422,53.95000076293945,54.20000076293945,1796200.0,53.58726119995117
2016-11-11,54.7400016784668,53.279998779296875,54.09000015258789,53.400001525878906,1431400.0,52.79631042480469
2016-11-14,54.060001373291016,53.4900016784668,53.65999984741211,53.81999969482422,2402200.0,53.2115592956543
2016-11-15,54.45000076293945,53.689998626708984,53.939998626708984,54.119998931884766,1703400.0,53.50816345214844
2016-11-16,54.45500183105469,53.709999084472656,53.790000915527344,54.439998626708984,1491600.0,53.82454299926758
2016-11-17,54.65999984741211,53.91999816894531,54.380001068115234,54.5,932400.0,53.883880615234375
2016-11-18,54.75,54.09000015258789,54.47999954223633,54.630001068115234,1214900.0,54.01239776611328
2016-11-21,55.15999984741211,54.0,54.25,54.83000183105469,1391300.0,54.21014404296875
2016-11-22,55.77000045776367,54.560001373291016,54.7400016784668,55.369998931884766,1333200.0,54.81401443481445
2016-11-23,55.93000030517578,55.27000045776367,55.61000061035156,55.79999923706055,985100.0,55.30962371826172
2016-11-25,56.150001525878906,55.45000076293945,56.08000183105469,55.970001220703125,489300.0,55.478126525878906
2016-11-28,56.2400016784668,55.31999969482422,56.08000183105469,55.59000015258789,1054100.0,55.10145950317383
2016-11-29,55.97999954223633,55.209999084472656,55.36000061035156,55.279998779296875,1078000.0,54.794189453125
2016-11-30,56.154998779296875,54.79999923706055,55.650001525878906,54.9900016784668,4718900.0,54.50674057006836
2016-12-01,55.209999084472656,54.0,55.13999938964844,54.189998626708984,3325300.0,53.713768005371094
2016-12-02,55.029998779296875,54.0099983215332,54.290000915527344,54.47999954223633,2545400.0,54.001220703125
2016-12-05,54.88999938964844,53.56999969482422,54.77000045776367,53.90999984741211,1420800.0,53.43622970581055
2016-12-06,54.119998931884766,53.540000915527344,53.970001220703125,54.0,2281300.0,53.52543258666992
2016-12-07,54.404998779296875,53.40999984741211,54.0,54.2400016784668,3285700.0,53.76333236694336
2016-12-08,54.459999084472656,53.435001373291016,54.369998931884766,53.68000030517578,2203200.0,53.208251953125
2016-12-09,54.15999984741211,53.31999969482422,53.5099983215332,54.0,1441400.0,53.52543258666992
2016-12-12,54.369998931884766,53.7400016784668,53.880001068115234,53.9900016784668,1533200.0,53.51552963256836
2016-12-13,54.45000076293945,53.25,54.279998779296875,53.849998474121094,2752000.0,53.37675857543945
2016-12-14,55.334999084472656,53.869998931884766,53.88999938964844,54.25,1559700.0,53.77323913574219
2016-12-15,55.290000915527344,53.93000030517578,54.209999084472656,54.810001373291016,1578100.0,54.32831573486328
2016-12-16,55.02000045776367,54.400001525878906,54.86000061035156,54.83000183105469,2413200.0,54.34814453125
2016-12-19,55.029998779296875,54.38999938964844,54.810001373291016,54.959999084472656,1169300.0,54.47700119018555
2016-12-20,55.459999084472656,54.810001373291016,55.2400016784668,55.04999923706055,1187900.0,54.56620788574219
2016-12-21,54.970001220703125,53.91999816894531,54.970001220703125,54.119998931884766,1469800.0,53.64438247680664
2016-12-22,54.97999954223633,53.689998626708984,54.119998931884766,54.09000015258789,1543300.0,53.61465072631836
2016-12-23,54.7599983215332,53.77000045776367,54.33000183105469,54.5099983215332,511900.0,54.03095245361328
2016-12-27,54.84000015258789,54.11000061035156,54.75,54.459999084472656,915400.0,53.981388092041016
2016-12-28,54.65999984741211,53.470001220703125,54.65999984741211,53.75,602700.0,53.27764129638672
2016-12-29,54.13999938964844,53.59000015258789,53.9900016784668,54.0099983215332,479500.0,53.53534698486328
2016-12-30,54.47999954223633,53.38999938964844,54.20000076293945,53.630001068115234,705100.0,53.158695220947266
2017-01-03,54.183998107910156,52.9900016784668,53.88999938964844,53.72999954223633,1615100.0,53.2578125
2017-01-04,54.529998779296875,53.970001220703125,54.119998931884766,54.25,1487100.0,53.77323913574219
2017-01-05,54.70000076293945,53.709999084472656,54.33000183105469,53.939998626708984,1430000.0,53.46596908569336
2017-01-06,54.20000076293945,53.38999938964844,53.900001525878906,53.869998931884766,1260000.0,53.396583557128906
2017-01-09,54.20000076293945,53.59000015258789,54.02000045776367,53.72999954223633,743300.0,53.2578125
2017-01-10,54.08000183105469,53.47999954223633,53.72999954223633,53.79999923706055,1311600.0,53.32719802856445
2017-01-11,53.880001068115234,53.2599983215332,53.779998779296875,53.65999984741211,3691700.0,53.18842315673828
2017-01-12,53.88999938964844,53.36000061035156,53.470001220703125,53.66999816894531,2030200.0,53.19833755493164
2017-01-13,55.15999984741211,54.400001525878906,54.400001525878906,54.7599983215332,1439400.0,54.27875900268555
2017-01-17,54.529998779296875,53.66999816894531,54.439998626708984,54.130001068115234,1234900.0,53.654293060302734
2017-01-18,54.400001525878906,53.849998474121094,54.11000061035156,54.13999938964844,1346100.0,53.66421127319336
2017-01-19,54.68000030517578,54.0,54.22999954223633,54.27000045776367,821100.0,53.793067932128906
2017-01-20,54.68000030517578,54.209999084472656,54.41999816894531,54.52000045776367,1822900.0,54.040870666503906
2017-01-23,54.810001373291016,53.59000015258789,54.31999969482422,54.11000061035156,1372800.0,53.63447189331055
2017-01-24,54.9900016784668,54.0890007019043,54.310001373291016,54.70000076293945,1710500.0,54.21929168701172
2017-01-25,55.34000015258789,54.70000076293945,54.939998626708984,55.16999816894531,1755900.0,54.685157775878906
2017-01-26,55.97999954223633,54.7599983215332,55.0,55.689998626708984,2298600.0,55.20058822631836
2017-01-27,56.0,55.54999923706055,55.72999954223633,55.93000030517578,1568700.0,55.4384765625
2017-01-30,55.93000030517578,54.75,55.93000030517578,55.439998626708984,1570600.0,54.95278549194336
2017-01-31,55.540000915527344,54.90999984741211,55.2400016784668,55.310001373291016,1792800.0,54.82392883300781
2017-02-01,55.650001525878906,54.80500030517578,55.470001220703125,55.130001068115234,1159700.0,54.645511627197266
2017-02-02,55.5,54.5,54.79999923706055,55.209999084472656,1895200.0,54.72480392456055
2017-02-03,56.650001525878906,55.06999969482422,55.560001373291016,56.02000045776367,1447400.0,55.52769088745117
2017-02-06,55.939998626708984,55.5099983215332,55.70000076293945,55.810001373291016,879600.0,55.31953048706055
2017-02-07,56.119998931884766,55.560001373291016,56.0,55.63999938964844,1898000.0,55.151031494140625
2017-02-08,56.38999938964844,54.88399887084961,54.970001220703125,56.18000030517578,4628200.0,55.686283111572266
2017-02-09,57.150001525878906,56.15999984741211,56.15999984741211,57.02000045776367,1128300.0,56.518898010253906
2017-02-10,57.41999816894531,56.68000030517578,57.189998626708984,57.150001525878906,1250800.0,56.64775848388672
2017-02-13,58.040000915527344,57.380001068115234,57.459999084472656,57.529998779296875,1187800.0,57.024417877197266
2017-02-14,57.529998779296875,56.91999816894531,57.5,57.290000915527344,1008600.0,56.786521911621094
2017-02-15,57.75,57.08100128173828,57.2400016784668,57.58000183105469,1022000.0,57.073978424072266
2017-02-16,58.2400016784668,56.79999923706055,57.65999984741211,57.38999938964844,1120400.0,56.885643005371094
2017-02-17,57.720001220703125,57.130001068115234,57.40999984741211,57.689998626708984,902000.0,57.18301010131836
2017-02-21,58.25,57.529998779296875,57.689998626708984,58.130001068115234,1553200.0,57.619140625
2017-02-22,58.16999816894531,57.54999923706055,57.77000045776367,57.689998626708984,939600.0,57.251953125
2017-02-23,58.150001525878906,57.119998931884766,58.0099983215332,57.2599983215332,1019300.0,56.82521438598633
2017-02-24,57.900001525878906,56.72999954223633,57.09000015258789,57.790000915527344,1846700.0,57.3511962890625
2017-02-27,57.880001068115234,57.470001220703125,57.63999938964844,57.650001525878906,891600.0,57.21226119995117
2017-02-28,57.88999938964844,57.310001373291016,57.66999816894531,57.650001525878906,1648700.0,57.21226119995117
2017-03-01,59.2400016784668,58.08000183105469,58.220001220703125,58.90999984741211,1436200.0,58.46268844604492
2017-03-02,59.0099983215332,58.31999969482422,58.90999984741211,58.630001068115234,1943600.0,58.18482208251953
2017-03-03,58.880001068115234,58.369998931884766,58.61000061035156,58.72999954223633,1438400.0,58.284061431884766
2017-03-06,58.65999984741211,58.005001068115234,58.31999969482422,58.33000183105469,1567200.0,57.88709259033203
2017-03-07,58.54999923706055,58.0099983215332,58.369998931884766,58.20000076293945,1664600.0,57.758079528808594
2017-03-08,58.470001220703125,58.02000045776367,58.209999084472656,58.16999816894531,1290500.0,57.72830581665039
2017-03-09,58.470001220703125,57.83000183105469,58.08000183105469,58.02000045776367,1308100.0,57.579444885253906
2017-03-10,58.54999923706055,57.97999954223633,58.279998779296875,58.310001373291016,1219100.0,57.867244720458984
2017-03-13,58.970001220703125,58.09000015258789,58.45000076293945,58.77000045776367,1573600.0,58.32375717163086
2017-03-14,58.650001525878906,58.25,58.47999954223633,58.54999923706055,951000.0,58.10542678833008
2017-03-15,59.880001068115234,58.779998779296875,58.779998779296875,59.70000076293945,1783900.0,59.24668884277344
2017-03-16,59.91999816894531,59.400001525878906,59.72999954223633,59.5099983215332,1428100.0,59.058128356933594
2017-03-17,59.814998626708984,59.439998626708984,59.72999954223633,59.58000183105469,1928500.0,59.12761306762695
2017-03-20,59.849998474121094,58.959999084472656,59.599998474121094,59.0,1467800.0,58.5520133972168
2017-03-21,59.470001220703125,58.34000015258789,59.279998779296875,58.5099983215332,1856500.0,58.06572341918945
2017-03-22,58.81999969482422,58.290000915527344,58.5099983215332,58.4900016784668,1661100.0,58.04587936401367
2017-03-23,58.84000015258789,58.290000915527344,58.310001373291016,58.529998779296875,1054500.0,58.08557891845703
2017-03-24,60.18000030517578,58.939998626708984,60.18000030517578,59.310001373291016,1811200.0,58.85966491699219
2017-03-27,59.29999923706055,58.150001525878906,58.720001220703125,59.08000183105469,943200.0,58.631404876708984
2017-03-28,59.77000045776367,58.75,59.040000915527344,59.59000015258789,817900.0,59.13752365112305
2017-03-29,60.40999984741211,59.5099983215332,59.86000061035156,59.650001525878906,1376300.0,59.19707107543945
2017-03-30,59.9900016784668,59.45000076293945,59.720001220703125,59.619998931884766,1155400.0,59.16729736328125
2017-03-31,60.400001525878906,59.380001068115234,59.56999969482422,60.220001220703125,1220700.0,59.76274490356445
2017-04-03,60.650001525878906,59.540000915527344,60.220001220703125,60.130001068115234,1918000.0,59.67342758178711
2017-04-04,60.29999923706055,59.80500030517578,60.119998931884766,60.02000045776367,1514400.0,59.56425857543945
2017-04-05,60.790000915527344,60.060001373291016,60.2599983215332,60.25,1389900.0,59.79251480102539
2017-04-06,60.779998779296875,60.150001525878906,60.27000045776367,60.56999969482422,719900.0,60.110084533691406
2017-04-07,60.70000076293945,60.349998474121094,60.58000183105469,60.470001220703125,521400.0,60.010841369628906
2017-04-10,61.11000061035156,60.470001220703125,60.5,61.0,1224600.0,60.53681945800781
2017-04-11,60.970001220703125,60.40999984741211,60.65999984741211,60.77000045776367,2477400.0,60.308563232421875
2017-04-12,60.939998626708984,60.22999954223633,60.790000915527344,60.5,1546100.0,60.040618896484375
2017-04-13,60.91999816894531,60.290000915527344,60.5,60.33000183105469,1215400.0,59.871910095214844
2017-04-17,60.56999969482422,60.064998626708984,60.5,60.47999954223633,978300.0,60.02076721191406
2017-04-18,60.48400115966797,59.994998931884766,60.119998931884766,60.27000045776367,1563000.0,59.8123664855957
2017-04-19,60.689998626708984,59.880001068115234,60.290000915527344,60.0099983215332,1963300.0,59.55432891845703
2017-04-20,60.849998474121094,59.880001068115234,60.2599983215332,60.61000061035156,1502700.0,60.149784088134766
2017-04-21,60.70000076293945,59.974998474121094,60.59000015258789,60.0099983215332,1389900.0,59.55432891845703
2017-04-24,61.540000915527344,60.68000030517578,60.790000915527344,61.43000030517578,1269300.0,60.963558197021484
2017-04-25,62.540000915527344,61.70000076293945,61.790000915527344,62.33000183105469,1472000.0,61.856719970703125
2017-04-26,62.72999954223633,62.11000061035156,62.29999923706055,62.25,1303600.0,61.7773323059082
2017-04-27,63.0099983215332,62.06999969482422,62.2400016784668,62.31999969482422,1945700.0,61.84679412841797
2017-04-28,64.2699966430664,62.5,62.959999084472656,63.2599983215332,2401500.0,62.77965545654297
2017-05-01,63.650001525878906,62.11000061035156,63.61000061035156,62.34000015258789,1759100.0,61.86664581298828
2017-05-02,62.31999969482422,61.099998474121094,61.83000183105469,62.18000030517578,1505200.0,61.707855224609375
2017-05-03,62.720001220703125,61.779998779296875,61.95000076293945,62.66999816894531,976800.0,62.19413375854492
2017-05-04,63.11000061035156,62.560001373291016,62.630001068115234,62.81999969482422,819900.0,62.342994689941406
2017-05-05,63.15999984741211,62.47999954223633,62.86000061035156,63.13999938964844,595400.0,62.66056442260742
2017-05-08,63.36000061035156,62.73500061035156,63.09000015258789,62.88999938964844,1791500.0,62.412471771240234
2017-05-09,63.43000030517578,62.459999084472656,62.939998626708984,62.70000076293945,826000.0,62.223915100097656
2017-05-10,62.810001373291016,62.2400016784668,62.529998779296875,62.56999969482422,1048500.0,62.09489822387695
2017-05-11,62.70000076293945,62.08000183105469,62.18000030517578,62.619998931884766,591300.0,62.14452362060547
2017-05-12,62.52799987792969,62.0,62.439998626708984,62.18000030517578,1005100.0,61.707855224609375
2017-05-15,62.63999938964844,62.189998626708984,62.29999923706055,62.220001220703125,981500.0,61.74755859375
2017-05-16,62.45000076293945,62.04999923706055,62.45000076293945,62.33000183105469,889400.0,61.856719970703125
2017-05-17,62.33000183105469,61.130001068115234,62.33000183105469,61.20000076293945,1235900.0,60.73530197143555
2017-05-18,61.59000015258789,60.400001525878906,60.75,61.15999984741211,1377800.0,60.69560623168945
2017-05-19,62.02000045776367,60.994998931884766,61.47999954223633,61.84000015258789,1867600.0,61.370445251464844
2017-05-22,62.5,61.900001525878906,62.09000015258789,62.400001525878906,771700.0,61.92619323730469
2017-05-23,62.70000076293945,62.130001068115234,62.38999938964844,62.61000061035156,769500.0,62.13459777832031
2017-05-24,63.220001220703125,62.630001068115234,62.7400016784668,63.08000183105469,1357900.0,62.67109298706055
2017-05-25,63.869998931884766,62.75,63.119998931884766,63.63999938964844,1039100.0,63.227455139160156
2017-05-26,63.900001525878906,63.380001068115234,63.68000030517578,63.5099983215332,1176200.0,63.09831237792969
2017-05-30,63.790000915527344,63.029998779296875,63.2400016784668,63.349998474121094,1775800.0,62.9393424987793
2017-05-31,63.560001373291016,61.79999923706055,63.41999816894531,62.45000076293945,3926600.0,62.0451774597168
2017-06-01,63.43000030517578,62.474998474121094,62.72999954223633,62.9900016784668,1105500.0,62.5816764831543
2017-06-02,63.83000183105469,62.845001220703125,62.900001525878906,63.40999984741211,1187700.0,62.99894714355469
2017-06-05,63.560001373291016,63.220001220703125,63.2400016784668,63.31999969482422,839500.0,62.9095344543457
2017-06-06,63.45000076293945,63.040000915527344,63.2400016784668,63.20000076293945,1376800.0,62.79031753540039
2017-06-07,63.7599983215332,63.06999969482422,63.25,63.36000061035156,786000.0,62.949275970458984
2017-06-08,63.75,62.810001373291016,63.36000061035156,63.70000076293945,982400.0,63.28707504272461
2017-06-09,64.0,62.560001373291016,64.0,63.09000015258789,1027100.0,62.681026458740234
2017-06-12,63.345001220703125,62.198001861572266,63.040000915527344,62.459999084472656,1138200.0,62.05510711669922
2017-06-13,63.290000915527344,62.43000030517578,62.68000030517578,63.27000045776367,1013700.0,62.859859466552734
2017-06-14,63.47999954223633,62.93000030517578,63.279998779296875,62.95000076293945,1378800.0,62.54193878173828
2017-06-15,63.2599983215332,62.380001068115234,62.65999984741211,63.040000915527344,1172000.0,62.631351470947266
2017-06-16,64.05999755859375,62.869998931884766,63.16999816894531,64.05000305175781,1676700.0,63.63481140136719
2017-06-19,64.83000183105469,64.19000244140625,64.30999755859375,64.79000091552734,1373600.0,64.37000274658203
2017-06-20,65.20999908447266,64.30000305175781,64.5,64.47000122070312,1760800.0,64.05208587646484
2017-06-21,64.69999694824219,64.27999877929688,64.5199966430664,64.37000274658203,1462500.0,63.952735900878906
2017-06-22,64.52999877929688,63.90999984741211,64.33999633789062,64.0999984741211,1043500.0,63.68447494506836
2017-06-23,64.16000366210938,63.66999816894531,63.95000076293945,64.0999984741211,7313000.0,63.68447494506836
2017-06-26,64.72000122070312,63.939998626708984,64.30000305175781,64.11000061035156,1009500.0,63.694419860839844
2017-06-27,64.08999633789062,63.369998931884766,63.790000915527344,63.369998931884766,697800.0,62.959205627441406
2017-06-28,64.55000305175781,63.595001220703125,63.790000915527344,64.41000366210938,830200.0,63.992462158203125
2017-06-29,64.37000274658203,62.75,64.37000274658203,62.86000061035156,1291200.0,62.4525146484375
2017-06-30,63.68000030517578,62.900001525878906,62.91999816894531,63.349998474121094,1176900.0,62.9393424987793
2017-07-03,63.72999954223633,63.189998626708984,63.650001525878906,63.33000183105469,652600.0,62.91947555541992
2017-07-05,63.97999954223633,63.185001373291016,63.630001068115234,63.61000061035156,892200.0,63.19765853881836
2017-07-06,63.779998779296875,63.220001220703125,63.400001525878906,63.33000183105469,1475700.0,62.91947555541992
2017-07-07,64.0,63.459999084472656,63.61000061035156,63.849998474121094,1114100.0,63.43610382080078
2017-07-10,64.94499969482422,63.7599983215332,63.81999969482422,64.5999984741211,1975100.0,64.18124389648438
2017-07-11,64.68000030517578,63.380001068115234,64.68000030517578,63.970001220703125,1104800.0,63.55532455444336
2017-07-12,64.9000015258789,64.19999694824219,64.23999786376953,64.69999694824219,1118500.0,64.28059387207031
2017-07-13,64.86000061035156,64.30999755859375,64.75,64.38999938964844,869400.0,63.972599029541016
2017-07-14,64.79000091552734,64.31999969482422,64.41999816894531,64.55999755859375,1113400.0,64.14148712158203
2017-07-17,64.56999969482422,63.779998779296875,64.56999969482422,64.13999938964844,1388200.0,63.72421646118164
2017-07-18,64.22000122070312,63.630001068115234,64.02999877929688,63.75,1029900.0,63.33674621582031
2017-07-19,63.9900016784668,63.58000183105469,63.939998626708984,63.970001220703125,1400600.0,63.55532455444336
2017-07-20,64.1500015258789,62.83000183105469,64.01000213623047,63.5,1558100.0,63.0883674621582
2017-07-21,63.4900016784668,63.08000183105469,63.2400016784668,63.25,1284200.0,62.839988708496094
2017-07-24,63.400001525878906,63.04999923706055,63.33000183105469,63.290000915527344,1203500.0,62.87973403930664
2017-07-25,63.72999954223633,62.970001220703125,63.56999969482422,63.06999969482422,1716700.0,62.661163330078125
2017-07-26,63.220001220703125,62.13999938964844,63.11000061035156,62.18000030517578,1740900.0,61.77692413330078
2017-07-27,62.790000915527344,62.04999923706055,62.15999984741211,62.58000183105469,1840200.0,62.17433166503906
2017-07-28,64.81999969482422,62.638999938964844,63.5,64.47000122070312,2210700.0,64.05208587646484
2017-07-31,64.91000366210938,64.20999908447266,64.76000213623047,64.73999786376953,1986000.0,64.32032775878906
2017-08-01,65.7300033569336,64.26000213623047,64.79000091552734,65.19999694824219,1849700.0,64.77735137939453
2017-08-02,66.54000091552734,65.30000305175781,65.30999755859375,66.27999877929688,1813300.0,65.85034942626953
2017-08-03,66.54000091552734,66.05999755859375,66.3499984741211,66.52999877929688,1102800.0,66.0987319946289
2017-08-04,67.19999694824219,66.5199966430664,66.68000030517578,67.16999816894531,1117700.0,66.73457336425781
2017-08-07,67.4800033569336,66.72000122070312,67.0,67.22000122070312,1466500.0,66.78425598144531
2017-08-08,67.19999694824219,66.8499984741211,66.97000122070312,66.91999816894531,1172700.0,66.4862060546875
2017-08-09,66.9800033569336,66.54499816894531,66.86000061035156,66.81999969482422,949900.0,66.38684844970703
2017-08-10,66.72000122070312,65.51000213623047,66.55000305175781,65.52999877929688,1037700.0,65.10520935058594
2017-08-11,66.08000183105469,65.4000015258789,65.62000274658203,65.5999984741211,705300.0,65.17476654052734
2017-08-14,66.37999725341797,65.9800033569336,66.0999984741211,66.25,494600.0,65.82054138183594
2017-08-15,66.37999725341797,65.91999816894531,66.19999694824219,66.12000274658203,595500.0,65.69139099121094
2017-08-16,66.62999725341797,66.0,66.30999755859375,66.1500015258789,645200.0,65.72119903564453
2017-08-17,66.0479965209961,65.11000061035156,65.87000274658203,65.16000366210938,545700.0,64.73761749267578
2017-08-18,65.38999938964844,64.68000030517578,64.94999694824219,65.02999877929688,963500.0,64.60844421386719
2017-08-21,65.5199966430664,64.63999938964844,65.0,65.41999816894531,710600.0,64.99591827392578
2017-08-22,66.0,65.58999633789062,65.58999633789062,65.86000061035156,777900.0,65.43307495117188
2017-08-23,65.69999694824219,64.9800033569336,65.63999938964844,65.02999877929688,641200.0,64.67718505859375
2017-08-24,65.33999633789062,64.62999725341797,65.12000274658203,64.87999725341797,1167300.0,64.52801513671875
2017-08-25,65.25,64.0999984741211,65.05000305175781,64.69000244140625,1407800.0,64.33903503417969
2017-08-28,65.05999755859375,64.24500274658203,64.94999694824219,64.48999786376953,697200.0,64.14012908935547
2017-08-29,64.56999969482422,63.97100067138672,64.26000213623047,64.45999908447266,1812800.0,64.11027526855469
2017-08-30,64.94000244140625,64.3499984741211,64.41999816894531,64.80000305175781,1586100.0,64.44844055175781
2017-08-31,65.13999938964844,64.69000244140625,64.8499984741211,64.97000122070312,1293300.0,64.6175308227539
2017-09-01,65.4000015258789,64.91999816894531,65.25,65.0999984741211,814200.0,64.74681091308594
2017-09-05,65.73999786376953,64.8499984741211,64.98999786376953,65.08999633789062,1043000.0,64.73686981201172
2017-09-06,65.98999786376953,64.64399719238281,65.5,64.7300033569336,1907800.0,64.37882995605469
2017-09-07,65.63999938964844,64.62000274658203,64.94000244140625,65.56999969482422,816600.0,65.2142562866211
2017-09-08,67.08999633789062,65.4800033569336,65.52999877929688,66.4800033569336,1115100.0,66.11933898925781
2017-09-11,67.61000061035156,66.62000274658203,66.9800033569336,67.5199966430664,1462200.0,67.1536865234375
2017-09-12,68.08000183105469,67.61000061035156,67.61000061035156,67.87000274658203,845900.0,67.50178527832031
2017-09-13,68.70999908447266,67.52999877929688,67.7300033569336,68.69000244140625,1895200.0,68.31734466552734
2017-09-14,69.19999694824219,67.94999694824219,68.3499984741211,69.19000244140625,1816100.0,68.81462097167969
2017-09-15,70.20999908447266,69.05000305175781,70.06999969482422,69.36000061035156,2711700.0,68.98370361328125
2017-09-18,70.4800033569336,69.31999969482422,69.48999786376953,70.30999755859375,1321600.0,69.92855072021484
2017-09-19,70.52999877929688,70.01000213623047,70.30999755859375,70.08000183105469,961900.0,69.6998062133789
2017-09-20,70.66000366210938,69.94000244140625,70.22000122070312,70.16999816894531,2028300.0,69.789306640625
2017-09-21,70.41000366210938,69.80999755859375,70.19999694824219,69.93000030517578,1067200.0,69.55062103271484
2017-09-22,70.125,69.58999633789062,69.86000061035156,70.02999877929688,2310300.0,69.65007781982422
2017-09-25,70.25,69.58999633789062,70.08000183105469,70.02999877929688,982700.0,69.65007781982422
2017-09-26,70.36000061035156,69.80000305175781,70.04000091552734,69.8499984741211,1183700.0,69.4710464477539
2017-09-27,70.2699966430664,69.68000030517578,69.8499984741211,70.20999908447266,906400.0,69.82909393310547
2017-09-28,70.27999877929688,69.69999694824219,69.97000122070312,69.91999816894531,1324500.0,69.5406723022461
2017-09-29,71.06999969482422,69.75,69.88999938964844,70.79000091552734,1060900.0,70.40594482421875
2017-10-02,71.55000305175781,70.9000015258789,71.02999877929688,71.55000305175781,893800.0,71.16181945800781
2017-10-03,71.91000366210938,71.27999877929688,71.73999786376953,71.4800033569336,905700.0,71.09220886230469
2017-10-04,71.94000244140625,71.33999633789062,71.43000030517578,71.91000366210938,1057600.0,71.51988220214844
2017-10-05,72.01000213623047,71.13999938964844,72.01000213623047,71.56999969482422,1268900.0,71.18171691894531
2017-10-06,71.87999725341797,71.29000091552734,71.45999908447266,71.55000305175781,1050800.0,71.16181945800781
2017-10-09,72.0999984741211,71.4800033569336,71.76000213623047,71.9000015258789,649100.0,71.50992584228516
2017-10-10,72.30999755859375,71.4000015258789,72.25,71.91999816894531,976700.0,71.52982330322266
2017-10-11,72.55000305175781,71.8499984741211,72.05999755859375,72.3499984741211,989000.0,71.95748138427734
2017-10-12,73.01000213623047,72.2699966430664,72.48999786376953,72.88999938964844,978400.0,72.49455261230469
2017-10-13,73.20999908447266,72.19000244140625,73.18000030517578,72.3499984741211,721200.0,71.95748138427734
2017-10-16,72.69999694824219,71.9000015258789,72.44000244140625,72.0199966430664,1097200.0,71.6292724609375
2017-10-17,72.27999877929688,71.4800033569336,72.08000183105469,71.48999786376953,1318200.0,71.10213470458984
2017-10-18,71.94999694824219,71.37999725341797,71.5,71.62000274658203,855800.0,71.2314453125
2017-10-19,71.58499908447266,71.00499725341797,71.37999725341797,71.0999984741211,1111600.0,70.7142562866211
2017-10-20,72.0719985961914,71.26000213623047,71.5,72.01000213623047,1564800.0,71.61932373046875
2017-10-23,72.30999755859375,71.44000244140625,72.01000213623047,72.08999633789062,1030200.0,71.69888305664062
2017-10-24,73.33999633789062,72.30999755859375,72.30999755859375,73.30999755859375,1287800.0,72.91226959228516
2017-10-25,73.37000274658203,72.05000305175781,72.94999694824219,72.47000122070312,1730700.0,72.07683563232422
2017-10-26,73.76000213623047,72.56999969482422,73.0999984741211,73.47000122070312,1765700.0,73.0714111328125
2017-10-27,74.37999725341797,70.01000213623047,72.19999694824219,74.0999984741211,2011600.0,73.69799041748047
2017-10-30,73.88999938964844,72.37999725341797,73.75,72.45999908447266,1583400.0,72.06688690185547
2017-10-31,72.7699966430664,72.21499633789062,72.61000061035156,72.26000213623047,1234900.0,71.86797332763672
2017-11-01,73.06999969482422,72.25,72.7300033569336,72.86000061035156,1221700.0,72.46470642089844
2017-11-02,73.49500274658203,72.63999938964844,72.9000015258789,73.30999755859375,987200.0,72.91226959228516
2017-11-03,73.9800033569336,73.30000305175781,73.30000305175781,73.63999938964844,1009800.0,73.240478515625
2017-11-06,73.58999633789062,72.76000213623047,73.5,72.86000061035156,831600.0,72.46470642089844
2017-11-07,73.47000122070312,72.66999816894531,72.80000305175781,73.47000122070312,1072500.0,73.0714111328125
2017-11-08,73.25,72.68000030517578,73.20999908447266,72.7699966430664,1130300.0,72.37519836425781
2017-11-09,72.8499984741211,72.10099792480469,72.44999694824219,72.62999725341797,1015700.0,72.2359619140625
2017-11-10,72.79499816894531,71.9000015258789,72.27999877929688,72.6500015258789,1825200.0,72.255859375
2017-11-13,72.69999694824219,72.05000305175781,72.26000213623047,72.5999984741211,833400.0,72.20612335205078
2017-11-14,72.69499969482422,72.13999938964844,72.2300033569336,72.66999816894531,1224000.0,72.27574920654297
2017-11-15,72.70999908447266,71.66999816894531,72.58999633789062,71.8499984741211,1726000.0,71.46018981933594
2017-11-16,72.93000030517578,72.02999877929688,72.19000244140625,72.44000244140625,982700.0,72.0469970703125
2017-11-17,72.70899963378906,71.75,72.08999633789062,72.25,2945400.0,71.85802459716797
2017-11-20,73.16000366210938,72.25,72.37999725341797,72.80999755859375,873300.0,72.41497802734375
2017-11-21,73.16000366210938,72.41000366210938,72.88999938964844,72.44999694824219,1263600.0,72.05694580078125
2017-11-22,72.52999877929688,71.75599670410156,72.37999725341797,72.0,1932800.0,71.67864227294922
2017-11-24,72.4000015258789,72.05999755859375,72.06999969482422,72.12999725341797,363000.0,71.80805969238281
2017-11-27,73.03500366210938,72.21499633789062,72.33000183105469,72.76000213623047,958900.0,72.43524932861328
2017-11-28,73.83000183105469,72.58999633789062,73.05999755859375,73.29000091552734,1304600.0,72.96287536621094
2017-11-29,73.4800033569336,72.66999816894531,73.37999725341797,73.41999816894531,920000.0,73.09230041503906
2017-11-30,74.75,73.43000030517578,73.48999786376953,74.6500015258789,1571000.0,74.31680297851562
2017-12-01,75.69000244140625,73.55000305175781,75.55000305175781,74.58000183105469,1322300.0,74.24712371826172
2017-12-04,75.54000091552734,74.2300033569336,75.06999969482422,74.2300033569336,1074800.0,73.89869689941406
2017-12-05,74.54000091552734,72.87999725341797,74.43000030517578,72.94999694824219,1140300.0,72.62438201904297
2017-12-06,73.66000366210938,72.68499755859375,72.98999786376953,73.29000091552734,1119600.0,72.96287536621094
2017-12-07,74.2300033569336,73.19999694824219,73.55000305175781,73.5999984741211,899100.0,73.27149200439453
2017-12-08,74.23999786376953,73.27999877929688,73.95999908447266,73.69000244140625,1000600.0,73.36109161376953
2017-12-11,73.98999786376953,72.86000061035156,73.83000183105469,73.01000213623047,960900.0,72.68412780761719
2017-12-12,72.94999694824219,72.26000213623047,72.94999694824219,72.5199966430664,767100.0,72.1963119506836
2017-12-13,73.02999877929688,72.18000030517578,72.47000122070312,72.41000366210938,943400.0,72.08680725097656
2017-12-14,72.79000091552734,71.37000274658203,72.62999725341797,71.4000015258789,1094400.0,71.08130645751953
2017-12-15,72.31999969482422,71.70999908447266,71.83000183105469,72.05999755859375,2613500.0,71.73836517333984
2017-12-18,73.12000274658203,72.0999984741211,72.37999725341797,72.7300033569336,1083700.0,72.40538024902344
2017-12-19,73.0999984741211,72.01000213623047,72.93000030517578,72.7300033569336,944200.0,72.40538024902344
2017-12-20,73.44000244140625,72.9000015258789,73.2300033569336,72.98999786376953,767200.0,72.66422271728516
2017-12-21,73.30999755859375,72.62000274658203,73.2699966430664,72.80000305175781,830800.0,72.47506713867188
2017-12-22,72.83999633789062,72.1500015258789,72.83999633789062,72.47000122070312,981700.0,72.14654541015625
2017-12-26,72.76000213623047,72.23999786376953,72.69000244140625,72.62000274658203,417300.0,72.2958755493164
2017-12-27,72.88999938964844,72.2300033569336,72.52999877929688,72.37000274658203,780600.0,72.04698181152344
2017-12-28,72.66000366210938,72.04000091552734,72.5,72.5,798100.0,72.17640686035156
2017-12-29,73.0,72.3499984741211,72.7699966430664,72.3499984741211,843000.0,72.0270767211914
2018-01-02,73.18000030517578,71.83499908447266,72.98999786376953,72.37999725341797,1088500.0,72.05693817138672
2018-01-03,72.56999969482422,71.2699966430664,72.23999786376953,72.41999816894531,1566900.0,72.09675598144531
2018-01-04,74.3499984741211,72.43000030517578,72.72000122070312,74.25,1528200.0,73.91858673095703
2018-01-05,74.61000061035156,72.87000274658203,74.41999816894531,73.4000015258789,2134300.0,73.07238006591797
2018-01-08,73.5,73.05999755859375,73.16000366210938,73.25,1010400.0,72.92304992675781
2018-01-09,74.47000122070312,73.19999694824219,73.22000122070312,73.77999877929688,1139100.0,73.45069885253906
2018-01-10,73.83000183105469,72.52999877929688,73.41000366210938,73.0199966430664,889100.0,72.69408416748047
2018-01-11,73.80999755859375,73.01000213623047,73.12999725341797,73.70999908447266,1179500.0,73.38099670410156
2018-01-12,74.77999877929688,73.76000213623047,73.94000244140625,74.47000122070312,1283200.0,74.13761138916016
2018-01-16,75.62999725341797,73.72000122070312,74.81999969482422,73.98999786376953,1339400.0,73.65975189208984
2018-01-17,75.23999786376953,74.0199966430664,74.47000122070312,74.73999786376953,1525100.0,74.4063949584961
2018-01-18,75.23999786376953,74.25,74.86000061035156,74.45999908447266,864300.0,74.12765502929688
2018-01-19,74.94499969482422,74.0,74.62999725341797,74.55999755859375,1811700.0,74.22720336914062
2018-01-22,75.06999969482422,73.8499984741211,74.55000305175781,74.19999694824219,1364800.0,73.86882019042969
2018-01-23,75.25,73.77999877929688,74.44000244140625,75.05999755859375,1591000.0,74.7249755859375
2018-01-24,76.68000030517578,75.05999755859375,75.4800033569336,75.36000061035156,1576800.0,75.02364349365234
2018-01-25,75.8949966430664,74.55999755859375,75.79000091552734,74.80999755859375,1440600.0,74.47608947753906
2018-01-26,76.58999633789062,74.56999969482422,75.20999908447266,76.56999969482422,2205200.0,76.22824096679688
2018-01-29,76.66999816894531,76.0,76.19999694824219,76.37999725341797,1625600.0,76.03909301757812
2018-01-30,76.43000030517578,75.62999725341797,75.9000015258789,76.02999877929688,1333500.0,75.6906509399414
2018-01-31,76.52999877929688,75.62000274658203,76.33000183105469,76.0199966430664,1287200.0,75.6806869506836
2018-02-01,76.56999969482422,75.20500183105469,75.5199966430664,75.55000305175781,1440500.0,75.21279907226562
2018-02-02,76.29000091552734,75.0,75.33999633789062,75.3499984741211,1406300.0,75.01367950439453
2018-02-05,75.41500091552734,71.6500015258789,75.04000091552734,71.66000366210938,1982100.0,71.34015655517578
2018-02-06,72.58999633789062,69.44999694824219,70.33000183105469,72.11000061035156,2852900.0,71.78814697265625
2018-02-07,73.05000305175781,71.68000030517578,71.91999816894531,71.69000244140625,2533300.0,71.37002563476562
2018-02-08,72.30000305175781,69.02999877929688,71.70999908447266,69.13999938964844,2367700.0,68.83140563964844
2018-02-09,75.80999755859375,69.51000213623047,75.80999755859375,72.44999694824219,4139700.0,72.12663269042969
2018-02-12,74.9800033569336,72.80000305175781,72.80000305175781,74.30000305175781,3466900.0,73.96837615966797
2018-02-13,74.75,73.80000305175781,74.08999633789062,74.13999938964844,3148600.0,73.80908203125
2018-02-14,74.41999816894531,73.4749984741211,73.75,74.19000244140625,1788700.0,73.8588638305664
2018-02-15,75.08999633789062,74.0999984741211,74.86000061035156,75.08000183105469,1765100.0,74.7448959350586
2018-02-16,75.9800033569336,74.80999755859375,75.08000183105469,75.6500015258789,2116600.0,75.31234741210938
2018-02-20,76.20999908447266,75.26499938964844,75.33999633789062,75.8499984741211,1647200.0,75.51145935058594
2018-02-21,77.22000122070312,75.98999786376953,76.11000061035156,76.01000213623047,1269700.0,75.67073822021484
2018-02-22,77.18000030517578,76.11000061035156,76.33999633789062,76.68000030517578,1058100.0,76.40811920166016
2018-02-23,77.2300033569336,76.43299865722656,77.1500015258789,77.13999938964844,1298100.0,76.86648559570312
2018-02-26,78.12999725341797,76.9749984741211,77.29000091552734,77.95999908447266,1461500.0,77.6835708618164
2018-02-27,78.83000183105469,77.73999786376953,78.08000183105469,77.76000213623047,1013200.0,77.48429107666016
2018-02-28,78.26000213623047,76.79000091552734,78.04000091552734,76.80000305175781,1799300.0,76.5276870727539
2018-03-01,77.12999725341797,74.22000122070312,77.05999755859375,74.69999694824219,1623200.0,74.43513488769531
2018-03-02,74.4800033569336,73.29000091552734,74.01000213623047,73.98999786376953,1936200.0,73.72764587402344
2018-03-05,74.61000061035156,73.11000061035156,73.52999877929688,74.26000213623047,1280300.0,73.9967041015625
2018-03-06,75.48999786376953,74.11000061035156,74.66999816894531,75.12000274658203,1404400.0,74.85365295410156
2018-03-07,78.08999633789062,73.41000366210938,74.9000015258789,77.95999908447266,2932600.0,77.6835708618164
2018-03-08,78.45999908447266,77.37999725341797,78.2300033569336,78.36000061035156,2252900.0,78.08216094970703
2018-03-09,80.30999755859375,78.12999725341797,78.81999969482422,80.2699966430664,2108300.0,79.98538970947266
2018-03-12,80.21499633789062,77.98999786376953,80.19999694824219,78.52999877929688,1216300.0,78.2515640258789
2018-03-13,79.21499633789062,77.80999755859375,78.73999786376953,77.98999786376953,1618900.0,77.7134780883789
2018-03-14,78.9000015258789,77.41999816894531,78.44999694824219,77.61000061035156,1180200.0,77.3348159790039
2018-03-15,78.41999816894531,77.22000122070312,77.7699966430664,78.0999984741211,724800.0,77.82308197021484
2018-03-16,78.43000030517578,77.61000061035156,78.0199966430664,78.2300033569336,2018000.0,77.95262145996094
2018-03-19,78.19000244140625,77.01000213623047,78.19000244140625,77.77999877929688,937000.0,77.50420379638672
2018-03-20,78.4800033569336,77.77999877929688,78.0999984741211,78.16000366210938,1295000.0,77.88287353515625
2018-03-21,79.2020034790039,77.52999877929688,78.20999908447266,78.3499984741211,1149000.0,78.07219696044922
2018-03-22,78.2300033569336,76.5199966430664,77.55999755859375,76.69000244140625,1542300.0,76.41808319091797
2018-03-23,77.68000030517578,75.97000122070312,76.75,76.0199966430664,2109000.0,75.75045776367188
2018-03-26,78.19000244140625,76.6449966430664,77.30999755859375,78.08999633789062,1729900.0,77.81311798095703
2018-03-27,78.47000122070312,76.47000122070312,78.12000274658203,76.80000305175781,1570600.0,76.5276870727539
2018-03-28,77.0999984741211,75.77999877929688,76.98999786376953,76.6500015258789,1813600.0,76.37822723388672
2018-03-29,77.95999908447266,76.5999984741211,77.0199966430664,77.5199966430664,1374900.0,77.24513244628906
2018-04-02,77.39399719238281,74.55999755859375,77.19000244140625,75.44000244140625,1681700.0,75.17251586914062
2018-04-03,76.3499984741211,74.83999633789062,75.66999816894531,76.30000305175781,1604700.0,76.02947235107422
2018-04-04,76.66999816894531,74.4000015258789,75.01000213623047,76.62999725341797,1794600.0,76.35829162597656
2018-04-05,78.08000183105469,76.87999725341797,77.33000183105469,77.41999816894531,1310800.0,77.14549255371094
2018-04-06,77.01000213623047,73.87999725341797,76.69000244140625,74.72000122070312,1619100.0,74.455078125
2018-04-09,75.58000183105469,73.94000244140625,74.94000244140625,74.11000061035156,2083500.0,73.84723663330078
2018-04-10,75.97000122070312,74.97000122070312,75.13999938964844,75.80000305175781,1590600.0,75.53124237060547
2018-04-11,75.37000274658203,74.36000061035156,75.12999725341797,74.44999694824219,1128100.0,74.18601989746094
2018-04-12,75.37999725341797,74.62999725341797,75.0,74.75,1329300.0,74.48495483398438
2018-04-13,75.82499694824219,74.16000366210938,75.36000061035156,74.69999694824219,2477000.0,74.43513488769531
2018-04-16,75.58000183105469,74.88999938964844,75.4000015258789,75.26000213623047,1432100.0,74.99315643310547
2018-04-17,77.55500030517578,75.70999908447266,75.80999755859375,76.7300033569336,2105600.0,76.45793914794922
2018-04-18,77.79000091552734,76.66500091552734,77.2300033569336,77.13999938964844,954700.0,76.86648559570312
2018-04-19,77.44999694824219,76.36000061035156,77.12000274658203,76.7699966430664,1087300.0,76.49779510498047
2018-04-20,77.08999633789062,76.16999816894531,76.94999694824219,76.73999786376953,1323400.0,76.46790313720703
2018-04-23,77.0,76.08000183105469,76.94999694824219,76.30000305175781,1133500.0,76.02947235107422
2018-04-24,76.92900085449219,72.26000213623047,76.66999816894531,73.05000305175781,1818500.0,72.79098510742188
2018-04-25,73.10600280761719,71.98999786376953,72.81999969482422,72.19999694824219,1756400.0,71.9439926147461
2018-04-26,72.71499633789062,71.69999694824219,72.44999694824219,72.2699966430664,2671100.0,72.01375579833984
2018-04-27,71.82499694824219,69.08000183105469,71.6500015258789,71.30999755859375,3691800.0,71.0571517944336
2018-04-30,71.91000366210938,70.30999755859375,71.6500015258789,70.30999755859375,1668700.0,70.0606918334961
2018-05-01,72.05999755859375,69.86000061035156,70.33000183105469,72.04000091552734,1975700.0,71.7845687866211
2018-05-02,72.36000061035156,71.20500183105469,72.0,71.5199966430664,1990000.0,71.26640319824219
2018-05-03,72.73999786376953,70.58999633789062,70.88999938964844,72.51000213623047,1898000.0,72.25289916992188
2018-05-04,73.38999938964844,71.77999877929688,71.98999786376953,73.29000091552734,1253400.0,73.03013610839844
2018-05-07,73.9000015258789,73.16000366210938,73.38999938964844,73.54000091552734,1316400.0,73.27924346923828
2018-05-08,74.2699966430664,73.3499984741211,73.54000091552734,74.25,1129200.0,73.98673248291016
2018-05-09,75.30999755859375,74.0,74.26000213623047,75.22000122070312,1251200.0,74.95330047607422
2018-05-10,75.63999938964844,75.11000061035156,75.48999786376953,75.54000091552734,919600.0,75.27216339111328
2018-05-11,75.97000122070312,75.19999694824219,75.62000274658203,75.62000274658203,1009400.0,75.35187530517578
2018-05-14,76.72000122070312,75.70999908447266,75.75,76.30000305175781,1753100.0,76.02947235107422
2018-05-15,76.2699966430664,75.51000213623047,76.0199966430664,76.25,1144100.0,75.97965240478516
2018-05-16,76.91000366210938,76.12999725341797,76.16000366210938,76.77999877929688,987500.0,76.50776672363281
2018-05-17,77.48999786376953,76.4000015258789,76.72000122070312,77.3499984741211,1246800.0,77.07573699951172
2018-05-18,77.95999908447266,77.02999877929688,77.33999633789062,77.87000274658203,2049300.0,77.5938949584961
2018-05-21,78.61499786376953,77.30000305175781,78.13999938964844,77.61000061035156,1185300.0,77.3348159790039
2018-05-22,77.75,76.08999633789062,77.61000061035156,76.11000061035156,1555000.0,75.84014129638672
2018-05-23,76.29000091552734,75.20999908447266,75.73999786376953,76.18000030517578,1222200.0,75.90988159179688
2018-05-24,76.52999877929688,75.51000213623047,75.72000122070312,76.16000366210938,1459500.0,75.95976257324219
2018-05-25,76.44999694824219,74.98999786376953,76.0199966430664,75.51000213623047,817600.0,75.31146240234375
2018-05-29,75.20999908447266,73.5199966430664,74.91999816894531,74.0199966430664,1511100.0,73.82538604736328
2018-05-30,74.66999816894531,73.86000061035156,74.02999877929688,74.19000244140625,1310600.0,73.99493408203125
2018-05-31,74.15899658203125,72.48999786376953,74.13999938964844,72.69000244140625,2277000.0,72.4988784790039
2018-06-01,74.2699966430664,73.02999877929688,73.41999816894531,73.80999755859375,1183300.0,73.61592864990234
2018-06-04,74.80000305175781,73.68000030517578,74.2300033569336,74.25,1600300.0,74.05477905273438
2018-06-05,74.7300033569336,74.01000213623047,74.47000122070312,74.30000305175781,856700.0,74.10464477539062
2018-06-06,74.95999908447266,74.12999725341797,74.45999908447266,74.95999908447266,1345700.0,74.76290893554688
2018-06-07,78.16999816894531,76.97000122070312,77.31999969482422,77.9800033569336,2649400.0,77.77497863769531
2018-06-08,78.4000015258789,77.52999877929688,77.95999908447266,78.19999694824219,1447800.0,77.99439239501953
2018-06-11,78.55000305175781,77.94000244140625,78.19999694824219,78.37000274658203,1100400.0,78.16394805908203
2018-06-12,78.66999816894531,77.94000244140625,78.37999725341797,78.29000091552734,1080800.0,78.08415985107422
2018-06-13,78.97000122070312,78.05000305175781,78.44000244140625,78.08999633789062,1153700.0,77.88468170166016
2018-06-14,80.44999694824219,78.30000305175781,78.30000305175781,80.12999725341797,2548400.0,79.91931915283203
2018-06-15,81.51000213623047,79.36000061035156,79.6500015258789,81.06999969482422,3365100.0,80.85684204101562
2018-06-18,80.6500015258789,79.44000244140625,80.37999725341797,80.37000274658203,1939000.0,80.15869903564453
2018-06-19,79.58999633789062,78.33000183105469,79.48999786376953,79.01000213623047,1870800.0,78.80226135253906
2018-06-20,79.20999908447266,78.38999938964844,79.0999984741211,78.80000305175781,1123100.0,78.59281921386719
2018-06-21,78.80000305175781,77.47000122070312,78.51000213623047,78.0999984741211,1268100.0,77.8946533203125
2018-06-22,78.8499984741211,77.7699966430664,78.83000183105469,77.83999633789062,2094100.0,77.63533782958984
2018-06-25,77.8499984741211,76.76000213623047,77.43000030517578,77.62999725341797,1902100.0,77.42588806152344
2018-06-26,77.25,75.12999725341797,77.25,75.19999694824219,6011400.0,75.00227355957031
2018-06-27,76.01499938964844,74.7300033569336,75.5,74.79000091552734,5353700.0,74.5933609008789
2018-06-28,76.16000366210938,74.19999694824219,75.06999969482422,75.80000305175781,3478300.0,75.6007080078125
2018-06-29,77.61000061035156,76.22000122070312,76.22000122070312,77.11000061035156,3437000.0,76.90725708007812
2018-07-02,76.79000091552734,75.66999816894531,76.51000213623047,76.76000213623047,1477100.0,76.55818176269531
2018-07-03,77.77999877929688,76.44999694824219,77.11000061035156,76.54000091552734,797300.0,76.33876037597656
2018-07-05,77.30999755859375,76.5999984741211,77.04000091552734,77.13999938964844,1343600.0,76.93717956542969
2018-07-06,77.66999816894531,76.8499984741211,77.19999694824219,77.22000122070312,920400.0,77.01697540283203
2018-07-09,78.0999984741211,77.12000274658203,77.1500015258789,77.9000015258789,1723300.0,77.69518280029297
2018-07-10,78.05999755859375,76.63999938964844,77.79000091552734,77.05999755859375,1227900.0,76.85739135742188
2018-07-11,77.05999755859375,76.19999694824219,76.80999755859375,76.23999786376953,1286500.0,76.03955078125
2018-07-12,77.19999694824219,76.12999725341797,76.58999633789062,76.94999694824219,1589000.0,76.74767303466797
2018-07-13,77.4000015258789,76.79000091552734,77.05999755859375,77.22000122070312,1003100.0,77.01697540283203
2018-07-16,77.08000183105469,76.22000122070312,77.02999877929688,76.45999908447266,1069600.0,76.25897216796875
2018-07-17,77.68000030517578,76.4000015258789,76.56999969482422,77.56999969482422,963500.0,77.36604309082031
2018-07-18,78.0,77.26000213623047,78.0,77.5199966430664,1381700.0,77.31617736816406
2018-07-19,77.8499984741211,76.87000274658203,77.48999786376953,77.62000274658203,1307500.0,77.41592407226562
2018-07-20,78.19999694824219,76.95999908447266,77.12000274658203,77.63999938964844,1872600.0,77.43586730957031
2018-07-23,77.55999755859375,76.12000274658203,77.43000030517578,76.18000030517578,1443200.0,75.97969818115234
2018-07-24,77.45999908447266,76.5,76.5,77.41000366210938,2075400.0,77.20647430419922
2018-07-25,79.08999633789062,77.25,77.48999786376953,79.02999877929688,2122100.0,78.82221221923828
2018-07-26,81.30999755859375,78.75,79.5,81.20999908447266,2990400.0,80.9964828491211
2018-07-27,80.97000122070312,78.76000213623047,80.75,79.80999755859375,2233300.0,79.60015869140625
2018-07-30,81.66000366210938,79.51499938964844,80.0,79.75,2577600.0,79.54031372070312
2018-07-31,82.25,80.1500015258789,80.52999877929688,82.08000183105469,2756900.0,81.86418914794922
2018-08-01,82.62999725341797,80.87999725341797,82.27999877929688,80.94000244140625,2233300.0,80.72718811035156
2018-08-02,81.13999938964844,79.9800033569336,80.5,80.93000030517578,1486400.0,80.71721649169922
2018-08-03,81.4800033569336,80.5,80.5,81.20999908447266,1010500.0,80.9964828491211
2018-08-06,81.25,80.80999755859375,81.08000183105469,80.95999908447266,1286100.0,80.74713134765625
2018-08-07,81.63999938964844,81.0,81.16999816894531,81.27999877929688,832800.0,81.06629180908203
2018-08-08,81.27999877929688,80.37000274658203,81.16999816894531,80.77999877929688,893400.0,80.5676040649414
2018-08-09,81.05000305175781,80.19999694824219,80.72000122070312,80.23999786376953,746500.0,80.0290298461914
2018-08-10,80.2300033569336,79.43000030517578,80.04000091552734,79.69999694824219,1980300.0,79.49044799804688
2018-08-13,80.41000366210938,79.01000213623047,79.61000061035156,79.30999755859375,1494500.0,79.1014633178711
2018-08-14,79.9739990234375,79.01200103759766,79.18000030517578,79.55999755859375,1089100.0,79.35081481933594
2018-08-15,79.80999755859375,78.80999755859375,79.37999725341797,79.69000244140625,1307800.0,79.48048400878906
2018-08-16,81.0199966430664,79.93000030517578,80.16000366210938,80.33999633789062,1277300.0,80.1287612915039
2018-08-17,80.58000183105469,80.16999816894531,80.58000183105469,80.25,2439400.0,80.03900146484375
2018-08-20,80.98999786376953,80.22000122070312,80.58999633789062,80.5999984741211,1815400.0,80.3880844116211
2018-08-21,80.79000091552734,80.0999984741211,80.66000366210938,80.38999938964844,1625400.0,80.17863464355469
2018-08-22,80.38999938964844,79.7300033569336,80.38999938964844,79.91999816894531,1029700.0,79.70986938476562
2018-08-23,80.13999938964844,79.62000274658203,80.05999755859375,80.0199966430664,1317600.0,79.80960083007812
2018-08-24,80.2699966430664,79.9000015258789,80.22000122070312,80.12999725341797,678000.0,79.91931915283203
2018-08-27,81.79000091552734,80.52999877929688,80.52999877929688,81.68000030517578,2082800.0,81.46524047851562
2018-08-28,82.38999938964844,81.70999908447266,82.0,82.06999969482422,3927600.0,81.85421752929688
2018-08-29,84.20999908447266,82.01000213623047,82.19999694824219,83.87999725341797,4702000.0,83.65945434570312
2018-08-30,85.12000274658203,83.48999786376953,84.0,83.73999786376953,3470100.0,83.58958435058594
2018-08-31,84.45999908447266,83.5,83.54000091552734,83.9800033569336,3626500.0,83.82915496826172
2018-09-04,83.80000305175781,82.50499725341797,83.5,83.45999908447266,4994200.0,83.31008911132812
2018-09-05,84.76000213623047,83.02999877929688,83.16000366210938,84.33999633789062,6595500.0,84.18850708007812
2018-09-06,84.69999694824219,83.7300033569336,84.36000061035156,84.16000366210938,4013900.0,84.00883483886719
2018-09-07,84.9800033569336,83.66999816894531,84.04000091552734,84.58999633789062,3740100.0,84.43804931640625
2018-09-10,85.2699966430664,84.5199966430664,85.0,84.69000244140625,5034200.0,84.53787994384766
2018-09-11,85.12000274658203,84.37000274658203,84.77999877929688,85.0199966430664,6983800.0,84.8672866821289
2018-09-12,85.62000274658203,84.66999816894531,85.08000183105469,85.30999755859375,6033800.0,85.1567611694336
2018-09-13,86.73999786376953,85.5999984741211,85.83999633789062,86.5,5916900.0,86.3446273803711
2018-09-14,87.63999938964844,86.30000305175781,86.37000274658203,86.9800033569336,11724300.0,86.82376861572266
2018-09-17,87.72000122070312,86.63999938964844,87.0,87.12000274658203,13341000.0,86.96351623535156
2018-09-18,87.86000061035156,86.30000305175781,87.12000274658203,87.37999725341797,13247400.0,87.2230453491211
2018-09-19,87.77999877929688,85.58999633789062,87.56999969482422,85.98999786376953,15628200.0,85.83554077148438
2018-09-20,87.76000213623047,86.23999786376953,86.73999786376953,87.37000274658203,16821600.0,87.21306610107422
2018-09-21,88.33999633789062,86.75,87.94999694824219,86.9800033569336,39671800.0,86.82376861572266
2018-09-24,87.33000183105469,86.11000061035156,86.79000091552734,86.33000183105469,17764100.0,86.17493438720703
2018-09-25,86.9000015258789,85.52999877929688,86.47000122070312,86.0,15940900.0,85.84552764892578
2018-09-26,86.62999725341797,84.5,85.83000183105469,85.02999877929688,36147700.0,84.87726593017578
2018-09-27,85.51000213623047,84.4000015258789,85.30999755859375,84.63999938964844,3841900.0,84.48796844482422
2018-09-28,84.69999694824219,83.68000030517578,84.66000366210938,84.19999694824219,5018100.0,84.04875946044922
2018-10-01,84.98999786376953,84.13999938964844,84.72000122070312,84.43000030517578,18123300.0,84.2783432006836
2018-10-02,84.33000183105469,83.5999984741211,84.33000183105469,83.62000274658203,25991800.0,83.46980285644531
2018-10-03,84.43000030517578,83.62000274658203,84.20999908447266,83.73999786376953,5831600.0,83.58958435058594
2018-10-04,84.30000305175781,83.38999938964844,83.7300033569336,83.94999694824219,6543900.0,83.79920959472656
2018-10-05,84.41000366210938,83.05999755859375,83.80999755859375,83.9800033569336,5873800.0,83.82915496826172
2018-10-08,84.22000122070312,83.15499877929688,83.69000244140625,83.6500015258789,4388100.0,83.49974822998047
2018-10-09,83.2699966430664,82.12999725341797,83.26000213623047,82.19999694824219,5700700.0,82.05235290527344
2018-10-10,82.11000061035156,80.22000122070312,81.83999633789062,80.22000122070312,5049300.0,80.07591247558594
2018-10-11,80.43000030517578,78.41999816894531,80.02999877929688,78.58000183105469,5227500.0,78.43885803222656
2018-10-12,80.08000183105469,78.19000244140625,79.83000183105469,79.19999694824219,2263900.0,79.0577392578125
2018-10-15,79.5999984741211,78.19999694824219,78.9800033569336,78.94000244140625,1949000.0,78.79821014404297
2018-10-16,80.06999969482422,79.0,79.54000091552734,79.77999877929688,2516400.0,79.6366958618164
2018-10-17,80.30999755859375,79.02999877929688,79.66999816894531,80.22000122070312,2620800.0,80.07591247558594
2018-10-18,80.8499984741211,79.73999786376953,79.91999816894531,80.02999877929688,2618000.0,79.88624572753906
2018-10-19,80.9000015258789,79.3499984741211,80.05000305175781,79.79000091552734,3728900.0,79.64668273925781
2018-10-22,80.17500305175781,77.6500015258789,80.06999969482422,77.69000244140625,3557600.0,77.55046081542969
2018-10-23,77.24500274658203,75.52999877929688,76.33000183105469,77.05000305175781,2836000.0,76.91160583496094
2018-10-24,77.37000274658203,74.0,77.20999908447266,74.08000183105469,2804400.0,73.94693756103516
2018-10-25,76.69499969482422,74.51000213623047,74.5199966430664,76.33000183105469,4050500.0,76.1928939819336
2018-10-26,75.48999786376953,69.16000366210938,73.22000122070312,73.05999755859375,10320200.0,72.92876434326172
2018-10-29,74.20999908447266,71.55999755859375,73.8499984741211,72.19999694824219,5514500.0,72.07030487060547
2018-10-30,72.5999984741211,70.80000305175781,72.19999694824219,71.68000030517578,5129500.0,71.5512466430664
2018-10-31,75.13999938964844,72.48999786376953,72.62000274658203,74.25,3466400.0,74.11663055419922
2018-11-01,75.16000366210938,73.72000122070312,74.54000091552734,74.80999755859375,2094900.0,74.67562103271484
2018-11-02,76.27999877929688,74.5,75.55999755859375,74.86000061035156,1791400.0,74.72554016113281
2018-11-05,75.37000274658203,74.0999984741211,74.9800033569336,75.0999984741211,1436300.0,74.96510314941406
2018-11-06,76.08999633789062,74.04000091552734,75.08999633789062,75.87999725341797,1274900.0,75.74369812011719
2018-11-07,76.61000061035156,75.44999694824219,76.61000061035156,76.12999725341797,1394900.0,75.99324798583984
2018-11-08,77.79000091552734,75.81999969482422,76.11000061035156,76.88999938964844,1735800.0,76.75188446044922
2018-11-09,76.66999816894531,74.86000061035156,76.47000122070312,75.22000122070312,1468700.0,75.08489227294922
2018-11-12,75.58000183105469,74.6050033569336,75.19000244140625,74.95999908447266,1523400.0,74.82535552978516
2018-11-13,76.91999816894531,74.88999938964844,74.88999938964844,75.20999908447266,2033400.0,75.07490539550781
2018-11-14,75.87000274658203,73.38999938964844,75.37000274658203,73.5999984741211,2338300.0,73.4677963256836
2018-11-15,75.80999755859375,72.73999786376953,73.18000030517578,75.7300033569336,2344400.0,75.5939712524414
2018-11-16,76.37999725341797,75.125,75.26000213623047,75.44999694824219,1918800.0,75.3144760131836
2018-11-19,75.56999969482422,73.41999816894531,75.51000213623047,73.76000213623047,1381500.0,73.62751007080078
2018-11-20,73.56999969482422,72.30000305175781,73.06999969482422,72.58999633789062,1400900.0,72.45960998535156
2018-11-21,74.30999755859375,72.87000274658203,73.13999938964844,73.86000061035156,1378900.0,73.72733306884766
2018-11-23,73.52999877929688,72.73999786376953,73.12000274658203,72.80000305175781,907100.0,72.66924285888672
2018-11-26,74.0,72.3499984741211,73.47000122070312,73.19999694824219,2016200.0,73.06851196289062
2018-11-27,73.94999694824219,71.9000015258789,72.73999786376953,73.76000213623047,1945700.0,73.62751007080078
2018-11-28,75.0199966430664,72.66000366210938,74.0,74.98999786376953,1772500.0,74.85530090332031
2018-11-29,75.01499938964844,73.41999816894531,74.83999633789062,74.12999725341797,1980100.0,74.06597900390625
2018-11-30,76.44999694824219,73.83000183105469,73.9800033569336,76.06999969482422,3020100.0,76.00431060791016
2018-12-03,77.5199966430664,75.52999877929688,77.08999633789062,75.95999908447266,2061300.0,75.89440155029297
2018-12-04,76.12000274658203,72.69000244140625,75.94999694824219,72.8499984741211,3309800.0,72.7870864868164
2018-12-06,72.30000305175781,70.44999694824219,71.72000122070312,72.13999938964844,2980600.0,72.07770538330078
2018-12-07,72.75,69.55999755859375,72.16999816894531,69.94000244140625,2329700.0,69.87960815429688
2018-12-10,71.0,69.20999908447266,69.72000122070312,70.72000122070312,2044200.0,70.65892791748047
2018-12-11,72.08000183105469,69.72000122070312,71.76000213623047,70.05999755859375,1299700.0,69.99949645996094
2018-12-12,72.30000305175781,70.72000122070312,71.16999816894531,70.7699966430664,1398300.0,70.7088851928711
2018-12-13,71.19999694824219,69.75,70.97000122070312,69.94999694824219,1575200.0,69.88959503173828
2018-12-14,70.02999877929688,68.55999755859375,69.38999938964844,68.86000061035156,1531900.0,68.800537109375
2018-12-17,69.12999725341797,67.44999694824219,68.37999725341797,67.94999694824219,3170200.0,67.89131927490234
2018-12-18,68.75,67.31999969482422,68.75,68.0999984741211,2502000.0,68.04119110107422
2018-12-19,68.9800033569336,66.20999908447266,68.0,66.58000183105469,1990900.0,66.52250671386719
2018-12-20,66.58999633789062,63.70000076293945,65.94999694824219,65.16000366210938,2955100.0,65.1037368774414
2018-12-21,66.62000274658203,64.5,65.16000366210938,65.5,6031400.0,65.44343566894531
2018-12-24,64.95999908447266,62.970001220703125,64.83000183105469,63.63999938964844,1527800.0,63.58504104614258
2018-12-26,65.76000213623047,62.88999938964844,63.84000015258789,65.69999694824219,1574800.0,65.64326477050781
2018-12-27,66.88999938964844,64.36000061035156,64.9000015258789,66.88999938964844,1288400.0,66.83223724365234
2018-12-28,67.4800033569336,65.80000305175781,67.19000244140625,66.69999694824219,1450400.0,66.64239501953125
2018-12-31,67.70999908447266,66.77999877929688,66.91000366210938,67.66000366210938,1222000.0,67.60157775878906
2019-01-02,67.44999694824219,66.31999969482422,66.62000274658203,67.3499984741211,1161200.0,67.29183959960938
2019-01-03,66.43000030517578,64.38999938964844,66.23999786376953,64.62999725341797,1938400.0,64.57418823242188
2019-01-04,67.47000122070312,65.45999908447266,65.73999786376953,67.45999908447266,1651900.0,67.40174102783203
2019-01-07,68.2300033569336,67.23500061035156,67.3499984741211,67.80000305175781,1556400.0,67.741455078125
2019-01-08,68.75,67.2699966430664,68.66999816894531,68.11000061035156,1521700.0,68.05118560791016
2019-01-09,69.44999694824219,68.08000183105469,68.11000061035156,69.2300033569336,1400600.0,69.17021942138672
2019-01-10,69.9800033569336,68.5199966430664,68.75,69.87999725341797,1203700.0,69.81964874267578
2019-01-11,69.56999969482422,68.87000274658203,69.2300033569336,69.51000213623047,1102700.0,69.4499740600586
2019-01-14,69.88999938964844,69.0199966430664,69.0999984741211,69.62999725341797,1123900.0,69.56986999511719
2019-01-15,70.0,69.0,69.72000122070312,69.98999786376953,1225600.0,69.92955780029297
2019-01-16,70.47000122070312,69.70999908447266,69.87000274658203,70.0199966430664,1137000.0,69.95953369140625
2019-01-17,71.55000305175781,69.66000366210938,69.66000366210938,71.37999725341797,1151700.0,71.318359375
2019-01-18,73.2300033569336,71.80000305175781,71.80000305175781,73.02999877929688,1811700.0,72.96693420410156
2019-01-22,72.44000244140625,71.19499969482422,72.44000244140625,71.66999816894531,1195000.0,71.60810852050781
2019-01-23,72.63999938964844,70.66000366210938,71.95999908447266,71.13999938964844,1046300.0,71.07856750488281
2019-01-24,71.61000061035156,70.91000366210938,71.16999816894531,70.98999786376953,1179200.0,70.92869567871094
2019-01-25,72.33999633789062,71.47000122070312,71.77999877929688,72.25,1464200.0,72.18760681152344
2019-01-28,71.91000366210938,70.7699966430664,71.20999908447266,71.88999938964844,840900.0,71.82791900634766
2019-01-29,74.08000183105469,72.06999969482422,72.06999969482422,73.69000244140625,1788500.0,73.6263656616211
2019-01-30,75.19000244140625,73.25,74.19000244140625,74.7300033569336,1047600.0,74.66546630859375
2019-01-31,75.19000244140625,73.91999816894531,74.70999908447266,74.98999786376953,1102900.0,74.92523956298828
2019-02-01,75.47000122070312,74.12000274658203,75.11000061035156,74.33000183105469,1285300.0,74.26581573486328
2019-02-04,74.55000305175781,73.69999694824219,74.55000305175781,74.30000305175781,1686600.0,74.23583984375
2019-02-05,74.97000122070312,74.05000305175781,74.47000122070312,74.52999877929688,2240900.0,74.46563720703125
2019-02-06,75.20500183105469,74.18000030517578,74.25,74.94999694824219,1699400.0,74.8852767944336
2019-02-07,74.56999969482422,73.56999969482422,74.19999694824219,74.41999816894531,1939500.0,74.3557357788086
2019-02-08,77.48999786376953,74.4000015258789,75.4000015258789,76.81999969482422,3042100.0,76.753662109375
2019-02-11,77.2699966430664,75.9000015258789,76.76000213623047,77.16000366210938,2031900.0,77.09336853027344
2019-02-12,79.11000061035156,77.30000305175781,77.69000244140625,78.81999969482422,2188400.0,78.75193786621094
2019-02-13,80.48999786376953,78.87999725341797,79.0999984741211,80.44000244140625,2688500.0,80.37053680419922
2019-02-14,80.98999786376953,79.69999694824219,80.18000030517578,80.44999694824219,2127900.0,80.38052368164062
2019-02-15,81.83000183105469,80.94999694824219,81.30000305175781,81.80000305175781,1852200.0,81.72936248779297
2019-02-19,81.52999877929688,80.12999725341797,81.16999816894531,80.4800033569336,2222500.0,80.41050720214844
2019-02-20,81.72000122070312,80.66000366210938,80.66000366210938,81.05999755859375,2979300.0,80.98999786376953
2019-02-21,81.18000030517578,80.05500030517578,80.8499984741211,80.61000061035156,1783300.0,80.61000061035156
2019-02-22,81.41000366210938,80.69000244140625,81.05999755859375,81.37000274658203,901400.0,81.37000274658203
2019-02-25,82.2699966430664,81.13999938964844,81.87000274658203,81.5999984741211,1765000.0,81.5999984741211
2019-02-26,82.02999877929688,81.27999877929688,81.37999725341797,81.73999786376953,1816200.0,81.73999786376953
2019-02-27,81.80999755859375,81.11499786376953,81.63999938964844,81.70999908447266,1207400.0,81.70999908447266
2019-02-28,82.06999969482422,81.06999969482422,81.58999633789062,81.56999969482422,1909100.0,81.56999969482422
2019-03-01,82.79000091552734,81.88500213623047,82.05999755859375,82.55999755859375,1306500.0,82.55999755859375
2019-03-04,83.52999877929688,81.94999694824219,82.88999938964844,82.58000183105469,1760000.0,82.58000183105469
2019-03-05,83.04000091552734,82.25,82.70999908447266,82.25,1083400.0,82.25
2019-03-06,82.71499633789062,81.94999694824219,82.29000091552734,82.04000091552734,1051100.0,82.04000091552734
2019-03-07,81.98999786376953,80.68000030517578,81.98999786376953,81.05999755859375,1539600.0,81.05999755859375
2019-03-08,81.01000213623047,79.58999633789062,80.23999786376953,80.4000015258789,1544200.0,80.4000015258789
2019-03-11,82.20999908447266,80.52999877929688,80.52999877929688,82.18000030517578,1472700.0,82.18000030517578
2019-03-12,82.60099792480469,81.79000091552734,82.33999633789062,82.12000274658203,1397300.0,82.12000274658203
2019-03-13,83.69999694824219,82.43000030517578,82.62000274658203,83.18000030517578,1540400.0,83.18000030517578
2019-03-14,83.34500122070312,82.54000091552734,82.88999938964844,82.63999938964844,1339300.0,82.63999938964844
2019-03-15,83.1500015258789,82.43000030517578,82.58000183105469,82.54000091552734,1849400.0,82.54000091552734
2019-03-18,83.66000366210938,82.5199966430664,82.61000061035156,83.41000366210938,1032300.0,83.41000366210938
2019-03-19,83.78500366210938,82.75,83.56999969482422,83.05000305175781,1689900.0,83.05000305175781
2019-03-20,83.56999969482422,82.29000091552734,83.16999816894531,82.98999786376953,1380200.0,82.98999786376953
2019-03-21,84.44999694824219,82.77999877929688,82.87000274658203,84.22000122070312,908300.0,84.22000122070312
2019-03-22,83.97000122070312,82.20999908447266,83.80000305175781,82.2300033569336,1137300.0,82.2300033569336
2019-03-25,82.94000244140625,82.0,82.2300033569336,82.5999984741211,661200.0,82.5999984741211
2019-03-26,83.94999694824219,82.80000305175781,83.01000213623047,83.58000183105469,1422500.0,83.58000183105469
2019-03-27,83.94000244140625,82.22000122070312,83.83999633789062,82.33999633789062,1293900.0,82.33999633789062
2019-03-28,83.41999816894531,82.38999938964844,82.55999755859375,82.94000244140625,1205000.0,82.94000244140625
2019-03-29,84.05000305175781,83.27999877929688,83.5999984741211,83.88999938964844,1248200.0,83.88999938964844
2019-04-01,85.19999694824219,84.30000305175781,84.63999938964844,85.06999969482422,1166900.0,85.06999969482422
2019-04-02,85.80999755859375,85.0,85.38999938964844,85.68000030517578,755800.0,85.68000030517578
2019-04-03,86.94999694824219,86.06999969482422,86.27999877929688,86.5199966430664,896800.0,86.5199966430664
2019-04-04,87.1500015258789,86.19999694824219,86.6500015258789,86.30000305175781,909000.0,86.30000305175781
2019-04-05,86.94000244140625,86.31999969482422,86.62000274658203,86.7300033569336,1583400.0,86.7300033569336
2019-04-08,86.94499969482422,85.91999816894531,86.48999786376953,86.93000030517578,1325300.0,86.93000030517578
2019-04-09,86.62000274658203,85.83000183105469,86.33999633789062,86.12000274658203,748700.0,86.12000274658203
2019-04-10,86.27999877929688,85.80999755859375,86.25,86.02999877929688,1445300.0,86.02999877929688
2019-04-11,87.06999969482422,85.80999755859375,86.29000091552734,86.8499984741211,1925700.0,86.8499984741211
2019-04-12,87.83000183105469,87.19999694824219,87.31999969482422,87.66000366210938,905900.0,87.66000366210938
2019-04-15,88.36000061035156,87.2300033569336,87.83999633789062,87.81999969482422,726300.0,87.81999969482422
2019-04-16,88.19999694824219,87.37000274658203,88.0,87.63999938964844,1040300.0,87.63999938964844
2019-04-17,88.62000274658203,87.5999984741211,88.37000274658203,87.61000061035156,1012900.0,87.61000061035156
2019-04-18,88.69999694824219,87.75,88.04000091552734,88.5,1468100.0,88.5
2019-04-22,88.51499938964844,87.5999984741211,87.93000030517578,88.36000061035156,1229600.0,88.36000061035156
2019-04-23,89.23999786376953,88.16999816894531,88.37000274658203,88.95999908447266,1030300.0,88.95999908447266
2019-04-24,89.4800033569336,88.81999969482422,89.25,89.05999755859375,1038100.0,89.05999755859375
2019-04-25,89.01000213623047,87.2300033569336,88.44999694824219,87.79000091552734,2097600.0,87.79000091552734
2019-04-26,85.58200073242188,80.91000366210938,81.36000061035156,85.2300033569336,3262900.0,85.2300033569336
2019-04-29,86.43299865722656,85.33000183105469,85.58000183105469,85.8499984741211,2122300.0,85.8499984741211
2019-04-30,86.52999877929688,85.44999694824219,85.87999725341797,86.33999633789062,1667100.0,86.33999633789062
2019-05-01,86.7699966430664,85.27999877929688,86.41999816894531,85.37999725341797,998300.0,85.37999725341797
2019-05-02,85.9800033569336,84.80999755859375,85.36000061035156,85.83000183105469,823700.0,85.83000183105469
2019-05-03,86.66000366210938,85.93000030517578,86.1500015258789,86.56999969482422,684100.0,86.56999969482422
2019-05-06,85.19000244140625,84.36000061035156,85.0999984741211,84.94000244140625,981800.0,84.94000244140625
2019-05-07,84.0999984741211,83.12000274658203,83.87000274658203,83.4800033569336,1557800.0,83.4800033569336
2019-05-08,83.04000091552734,82.0999984741211,82.58999633789062,82.4800033569336,2002600.0,82.4800033569336
2019-05-09,82.31999969482422,81.26000213623047,81.66000366210938,82.26000213623047,998800.0,82.26000213623047
2019-05-10,82.70999908447266,80.66000366210938,81.75,82.62999725341797,938100.0,82.62999725341797
2019-05-13,80.9800033569336,79.97000122070312,80.7699966430664,80.5,2065200.0,80.5
2019-05-14,81.80000305175781,80.47000122070312,80.73999786376953,80.51000213623047,1372700.0,80.51000213623047
2019-05-15,81.80000305175781,79.89299774169922,80.19999694824219,81.36000061035156,1013800.0,81.36000061035156
2019-05-16,82.2300033569336,81.29000091552734,82.1500015258789,81.3499984741211,1042100.0,81.3499984741211
2019-05-17,81.31999969482422,79.94000244140625,80.55000305175781,80.5199966430664,1335100.0,80.5199966430664
2019-05-20,79.95999908447266,79.12999725341797,79.76000213623047,79.33999633789062,1278700.0,79.33999633789062
2019-05-21,80.23999786376953,79.75,79.91000366210938,79.9000015258789,1108400.0,79.9000015258789
2019-05-22,80.24500274658203,79.48999786376953,79.81999969482422,79.58999633789062,1725300.0,79.58999633789062
2019-05-23,79.2300033569336,78.16999816894531,78.7699966430664,78.5,1777500.0,78.5
2019-05-24,79.26000213623047,78.01000213623047,78.97000122070312,78.04000091552734,1154800.0,78.04000091552734
