Date,High,Low,Open,Close,Volume,Adj Close
2016-09-22,20.440000534057617,20.440000534057617,20.440000534057617,20.440000534057617,100.0,19.747793197631836
2016-09-23,20.440000534057617,20.440000534057617,20.440000534057617,20.440000534057617,0.0,19.747793197631836
2016-09-26,20.440000534057617,20.440000534057617,20.440000534057617,20.440000534057617,0.0,19.747793197631836
2016-09-27,20.31999969482422,20.31999969482422,20.31999969482422,20.31999969482422,400.0,19.63185691833496
2016-09-28,20.299999237060547,20.299999237060547,20.299999237060547,20.299999237060547,100.0,19.61253547668457
2016-09-29,19.719999313354492,19.719999313354492,19.719999313354492,19.719999313354492,200.0,19.052175521850586
2016-09-30,19.719999313354492,19.719999313354492,19.719999313354492,19.719999313354492,0.0,19.052175521850586
2016-10-03,19.969999313354492,19.940000534057617,19.940000534057617,19.969999313354492,500.0,19.293712615966797
2016-10-04,19.969999313354492,19.969999313354492,19.969999313354492,19.969999313354492,0.0,19.293712615966797
2016-10-05,19.969999313354492,19.969999313354492,19.969999313354492,19.969999313354492,10000.0,19.293712615966797
2016-10-06,19.780000686645508,19.76099967956543,19.780000686645508,19.76099967956543,1000.0,19.0917911529541
2016-10-07,19.76099967956543,19.76099967956543,19.76099967956543,19.76099967956543,0.0,19.0917911529541
2016-10-10,19.76099967956543,19.76099967956543,19.76099967956543,19.76099967956543,0.0,19.0917911529541
2016-10-11,19.610000610351562,19.518999099731445,19.610000610351562,19.518999099731445,1100.0,18.857982635498047
2016-10-12,19.518999099731445,19.518999099731445,19.518999099731445,19.518999099731445,0.0,18.857982635498047
2016-10-13,19.518999099731445,19.518999099731445,19.518999099731445,19.518999099731445,0.0,18.857982635498047
2016-10-14,19.079999923706055,19.079999923706055,19.079999923706055,19.079999923706055,500.0,18.433847427368164
2016-10-17,19.079999923706055,19.079999923706055,19.079999923706055,19.079999923706055,0.0,18.433847427368164
2016-10-18,19.079999923706055,19.079999923706055,19.079999923706055,19.079999923706055,0.0,18.433847427368164
2016-10-19,19.079999923706055,19.079999923706055,19.079999923706055,19.079999923706055,0.0,18.433847427368164
2016-10-20,19.100000381469727,19.099000930786133,19.100000381469727,19.099000930786133,2200.0,18.45220947265625
2016-10-21,19.190000534057617,19.190000534057617,19.190000534057617,19.190000534057617,1000.0,18.540128707885742
2016-10-24,19.190000534057617,19.190000534057617,19.190000534057617,19.190000534057617,0.0,18.540128707885742
2016-10-25,19.190000534057617,19.190000534057617,19.190000534057617,19.190000534057617,0.0,18.540128707885742
2016-10-26,19.190000534057617,19.190000534057617,19.190000534057617,19.190000534057617,0.0,18.540128707885742
2016-10-27,19.190000534057617,19.190000534057617,19.190000534057617,19.190000534057617,0.0,18.540128707885742
2016-10-28,19.190000534057617,19.190000534057617,19.190000534057617,19.190000534057617,0.0,18.540128707885742
2016-10-31,18.100000381469727,18.100000381469727,18.100000381469727,18.100000381469727,300.0,17.48703956604004
2016-11-01,18.100000381469727,18.077999114990234,18.100000381469727,18.077999114990234,200.0,17.465784072875977
2016-11-02,18.190000534057617,18.030000686645508,18.190000534057617,18.05299949645996,400.0,17.44162940979004
2016-11-03,18.05299949645996,18.05299949645996,18.05299949645996,18.05299949645996,0.0,17.44162940979004
2016-11-04,18.05299949645996,18.05299949645996,18.05299949645996,18.05299949645996,0.0,17.44162940979004
2016-11-07,18.05299949645996,18.05299949645996,18.05299949645996,18.05299949645996,0.0,17.44162940979004
2016-11-08,18.05299949645996,18.05299949645996,18.05299949645996,18.05299949645996,0.0,17.44162940979004
2016-11-09,18.979999542236328,18.5,18.5,18.940000534057617,3100.0,18.29859161376953
2016-11-10,19.280000686645508,19.211999893188477,19.239999771118164,19.25,500.0,18.598094940185547
2016-11-11,19.280000686645508,19.239999771118164,19.280000686645508,19.25,3100.0,18.598094940185547
2016-11-14,19.25,19.25,19.25,19.25,0.0,18.598094940185547
2016-11-15,19.364999771118164,19.364999771118164,19.364999771118164,19.364999771118164,1100.0,18.70920181274414
2016-11-16,19.260000228881836,19.097999572753906,19.260000228881836,19.097999572753906,900.0,18.45124053955078
2016-11-17,19.097999572753906,19.097999572753906,19.097999572753906,19.097999572753906,0.0,18.45124053955078
2016-11-18,19.1299991607666,19.118999481201172,19.1200008392334,19.1299991607666,6100.0,18.48215675354004
2016-11-21,19.083999633789062,19.083999633789062,19.083999633789062,19.083999633789062,700.0,18.437715530395508
2016-11-22,19.0,19.0,19.0,19.0,700.0,18.3565616607666
2016-11-23,18.889999389648438,18.420000076293945,18.420000076293945,18.889999389648438,1000.0,18.250286102294922
2016-11-25,18.889999389648438,18.889999389648438,18.889999389648438,18.889999389648438,0.0,18.250286102294922
2016-11-28,18.81999969482422,18.809999465942383,18.81999969482422,18.809999465942383,3100.0,18.172992706298828
2016-11-29,18.709999084472656,18.709999084472656,18.709999084472656,18.709999084472656,400.0,18.07638168334961
2016-11-30,18.639999389648438,18.639999389648438,18.639999389648438,18.639999389648438,200.0,18.008750915527344
2016-12-01,18.639999389648438,18.639999389648438,18.639999389648438,18.639999389648438,0.0,18.008750915527344
2016-12-02,18.27899932861328,18.27899932861328,18.27899932861328,18.27899932861328,100.0,17.659975051879883
2016-12-05,18.549999237060547,18.440000534057617,18.549999237060547,18.440000534057617,2000.0,17.815523147583008
2016-12-06,18.440000534057617,18.440000534057617,18.440000534057617,18.440000534057617,0.0,17.815523147583008
2016-12-07,18.280000686645508,18.059999465942383,18.280000686645508,18.059999465942383,1500.0,17.448392868041992
2016-12-08,19.229999542236328,18.132999420166016,19.229999542236328,18.239999771118164,8500.0,17.622297286987305
2016-12-09,18.969999313354492,18.40999984741211,18.969999313354492,18.40999984741211,7700.0,17.786540985107422
2016-12-12,18.84000015258789,18.43000030517578,18.84000015258789,18.43000030517578,300.0,17.805862426757812
2016-12-13,18.56999969482422,18.56999969482422,18.56999969482422,18.56999969482422,400.0,17.941120147705078
2016-12-14,18.510000228881836,18.350000381469727,18.510000228881836,18.350000381469727,1600.0,17.728572845458984
2016-12-15,18.709999084472656,18.600000381469727,18.610000610351562,18.709999084472656,2100.0,18.07638168334961
2016-12-16,18.709999084472656,18.709999084472656,18.709999084472656,18.709999084472656,0.0,18.07638168334961
2016-12-19,18.610000610351562,18.610000610351562,18.610000610351562,18.610000610351562,100.0,17.979766845703125
2016-12-20,18.610000610351562,18.610000610351562,18.610000610351562,18.610000610351562,0.0,17.979766845703125
2016-12-21,18.610000610351562,18.610000610351562,18.610000610351562,18.610000610351562,0.0,18.012678146362305
2016-12-22,18.3799991607666,18.3700008392334,18.3799991607666,18.3700008392334,600.0,17.78038215637207
2016-12-23,18.3700008392334,18.3700008392334,18.3700008392334,18.3700008392334,0.0,17.78038215637207
2016-12-27,18.3700008392334,18.3700008392334,18.3700008392334,18.3700008392334,0.0,17.78038215637207
2016-12-28,18.3700008392334,18.3700008392334,18.3700008392334,18.3700008392334,0.0,17.78038215637207
2016-12-29,18.3700008392334,18.3700008392334,18.3700008392334,18.3700008392334,0.0,17.78038215637207
2016-12-30,18.3700008392334,18.34000015258789,18.3700008392334,18.34000015258789,500.0,17.751340866088867
2017-01-03,18.34000015258789,18.34000015258789,18.34000015258789,18.34000015258789,0.0,17.751340866088867
2017-01-04,19.200000762939453,18.850000381469727,19.200000762939453,19.010000228881836,1300.0,18.399839401245117
2017-01-05,19.010000228881836,19.010000228881836,19.010000228881836,19.010000228881836,0.0,18.399839401245117
2017-01-06,19.149999618530273,19.100000381469727,19.149999618530273,19.100000381469727,3100.0,18.48695182800293
2017-01-09,19.440000534057617,19.209999084472656,19.209999084472656,19.440000534057617,6700.0,18.816036224365234
2017-01-10,19.360000610351562,19.209999084472656,19.360000610351562,19.308000564575195,6100.0,18.688274383544922
2017-01-11,19.312999725341797,18.718000411987305,19.250999450683594,18.718000411987305,2900.0,18.117212295532227
2017-01-12,19.209999084472656,18.7450008392334,19.209999084472656,18.7450008392334,5400.0,18.143342971801758
2017-01-13,19.18000030517578,19.150999069213867,19.18000030517578,19.150999069213867,200.0,18.53631019592285
2017-01-17,19.150999069213867,19.150999069213867,19.150999069213867,19.150999069213867,0.0,18.53631019592285
2017-01-18,18.959999084472656,18.84000015258789,18.950000762939453,18.959999084472656,7600.0,18.351442337036133
2017-01-19,19.079999923706055,18.829999923706055,19.079999923706055,18.829999923706055,2100.0,18.225618362426758
2017-01-20,18.766000747680664,18.766000747680664,18.766000747680664,18.766000747680664,300.0,18.163673400878906
2017-01-23,18.600000381469727,18.496000289916992,18.600000381469727,18.496000289916992,300.0,17.90233612060547
2017-01-24,18.496000289916992,18.496000289916992,18.496000289916992,18.496000289916992,0.0,17.90233612060547
2017-01-25,18.496000289916992,18.496000289916992,18.496000289916992,18.496000289916992,0.0,17.90233612060547
2017-01-26,18.457000732421875,18.457000732421875,18.457000732421875,18.457000732421875,100.0,17.864587783813477
2017-01-27,18.457000732421875,18.457000732421875,18.457000732421875,18.457000732421875,0.0,17.864587783813477
2017-01-30,18.3700008392334,18.34000015258789,18.3700008392334,18.34000015258789,300.0,17.751340866088867
2017-01-31,18.760000228881836,18.422000885009766,18.422000885009766,18.760000228881836,500.0,18.15786361694336
2017-02-01,18.760000228881836,18.760000228881836,18.760000228881836,18.760000228881836,0.0,18.15786361694336
2017-02-02,18.760000228881836,18.760000228881836,18.760000228881836,18.760000228881836,0.0,18.15786361694336
2017-02-03,19.15999984741211,19.0,19.0,19.15999984741211,2300.0,18.545021057128906
2017-02-06,19.19700050354004,19.160999298095703,19.160999298095703,19.18000030517578,1800.0,18.564380645751953
2017-02-07,19.229999542236328,19.0939998626709,19.209999084472656,19.09600067138672,2200.0,18.483076095581055
2017-02-08,19.200000762939453,19.084999084472656,19.09000015258789,19.200000762939453,1400.0,18.583742141723633
2017-02-09,19.315000534057617,19.315000534057617,19.315000534057617,19.315000534057617,200.0,18.695051193237305
2017-02-10,19.315000534057617,19.315000534057617,19.315000534057617,19.315000534057617,0.0,18.695051193237305
2017-02-13,19.410999298095703,19.361000061035156,19.361000061035156,19.410999298095703,200.0,18.787967681884766
2017-02-14,19.299999237060547,19.299999237060547,19.299999237060547,19.299999237060547,300.0,18.680526733398438
2017-02-15,19.961999893188477,19.40999984741211,19.40999984741211,19.961999893188477,2300.0,19.32128143310547
2017-02-16,20.1200008392334,19.760000228881836,20.1200008392334,19.799999237060547,1800.0,19.164478302001953
2017-02-17,19.799999237060547,19.799999237060547,19.799999237060547,19.799999237060547,0.0,19.164478302001953
2017-02-21,19.8700008392334,19.84000015258789,19.8700008392334,19.84000015258789,300.0,19.203195571899414
2017-02-22,19.84000015258789,19.84000015258789,19.84000015258789,19.84000015258789,0.0,19.203195571899414
2017-02-23,19.84000015258789,19.84000015258789,19.84000015258789,19.84000015258789,0.0,19.203195571899414
2017-02-24,19.84000015258789,19.84000015258789,19.84000015258789,19.84000015258789,0.0,19.203195571899414
2017-02-27,19.84000015258789,19.84000015258789,19.84000015258789,19.84000015258789,0.0,19.203195571899414
2017-02-28,20.08799934387207,19.979999542236328,20.040000915527344,20.020000457763672,1800.0,19.37742042541504
2017-03-01,20.229999542236328,20.023000717163086,20.023000717163086,20.229000091552734,2800.0,19.579713821411133
2017-03-02,20.229000091552734,20.229000091552734,20.229000091552734,20.229000091552734,0.0,19.579713821411133
2017-03-03,20.163000106811523,20.163000106811523,20.163000106811523,20.163000106811523,600.0,19.51582908630371
2017-03-06,20.163000106811523,20.163000106811523,20.163000106811523,20.163000106811523,0.0,19.51582908630371
2017-03-07,20.163000106811523,20.163000106811523,20.163000106811523,20.163000106811523,0.0,19.51582908630371
2017-03-08,20.139999389648438,19.950000762939453,19.950000762939453,20.079999923706055,1700.0,19.43549156188965
2017-03-09,20.079999923706055,20.079999923706055,20.079999923706055,20.079999923706055,0.0,19.43549156188965
2017-03-10,20.048999786376953,20.040000915527344,20.040000915527344,20.048999786376953,500.0,19.405488967895508
2017-03-13,20.01300048828125,20.0,20.0,20.0,1700.0,19.358060836791992
2017-03-14,19.969999313354492,19.969999313354492,19.969999313354492,19.969999313354492,300.0,19.329023361206055
2017-03-15,20.25,20.010000228881836,20.010000228881836,20.232999801635742,3800.0,19.583585739135742
2017-03-16,20.131000518798828,20.079999923706055,20.09600067138672,20.1200008392334,6100.0,19.47420883178711
2017-03-17,19.940000534057617,19.940000534057617,19.940000534057617,19.940000534057617,200.0,19.29998779296875
2017-03-20,20.158000946044922,20.158000946044922,20.158000946044922,20.158000946044922,200.0,19.510990142822266
2017-03-21,20.158000946044922,20.158000946044922,20.158000946044922,20.158000946044922,0.0,19.510990142822266
2017-03-22,20.158000946044922,20.158000946044922,20.158000946044922,20.158000946044922,0.0,19.510990142822266
2017-03-23,20.158000946044922,20.158000946044922,20.158000946044922,20.158000946044922,0.0,19.54104232788086
2017-03-24,19.809999465942383,19.798999786376953,19.809999465942383,19.798999786376953,400.0,19.193031311035156
2017-03-27,20.540000915527344,19.952999114990234,20.540000915527344,20.100000381469727,700.0,19.484817504882812
2017-03-28,20.100000381469727,20.100000381469727,20.100000381469727,20.100000381469727,0.0,19.484817504882812
2017-03-29,20.100000381469727,20.100000381469727,20.100000381469727,20.100000381469727,1000.0,19.484817504882812
2017-03-30,19.90999984741211,19.84000015258789,19.906999588012695,19.899999618530273,3700.0,19.290939331054688
2017-03-31,19.920000076293945,19.84000015258789,19.889999389648438,19.84600067138672,4300.0,19.238590240478516
2017-04-03,19.84600067138672,19.84600067138672,19.84600067138672,19.84600067138672,0.0,19.238590240478516
2017-04-04,19.690000534057617,19.690000534057617,19.690000534057617,19.690000534057617,400.0,19.08736228942871
2017-04-05,19.690000534057617,19.690000534057617,19.690000534057617,19.690000534057617,0.0,19.08736228942871
2017-04-06,19.71299934387207,19.709999084472656,19.71299934387207,19.709999084472656,900.0,19.10675048828125
2017-04-07,19.805999755859375,19.805999755859375,19.805999755859375,19.805999755859375,400.0,19.19981575012207
2017-04-10,19.805999755859375,19.805999755859375,19.805999755859375,19.805999755859375,0.0,19.19981575012207
2017-04-11,19.90999984741211,19.520000457763672,19.520000457763672,19.90999984741211,2000.0,19.30063247680664
2017-04-12,19.93000030517578,19.93000030517578,19.93000030517578,19.93000030517578,500.0,19.320018768310547
2017-04-13,19.93000030517578,19.93000030517578,19.93000030517578,19.93000030517578,0.0,19.320018768310547
2017-04-17,19.93000030517578,19.93000030517578,19.93000030517578,19.93000030517578,0.0,19.320018768310547
2017-04-18,19.601999282836914,19.601999282836914,19.601999282836914,19.601999282836914,500.0,19.002059936523438
2017-04-19,19.829999923706055,19.80500030517578,19.829999923706055,19.80500030517578,1000.0,19.19884490966797
2017-04-20,19.80500030517578,19.80500030517578,19.80500030517578,19.80500030517578,0.0,19.19884490966797
2017-04-21,19.80500030517578,19.80500030517578,19.80500030517578,19.80500030517578,0.0,19.19884490966797
2017-04-24,19.80500030517578,19.80500030517578,19.80500030517578,19.80500030517578,0.0,19.19884490966797
2017-04-25,20.059999465942383,20.049999237060547,20.049999237060547,20.049999237060547,1600.0,19.43634796142578
2017-04-26,20.049999237060547,20.049999237060547,20.049999237060547,20.049999237060547,0.0,19.43634796142578
2017-04-27,19.90999984741211,19.90999984741211,19.90999984741211,19.90999984741211,300.0,19.30063247680664
2017-04-28,19.90999984741211,19.90999984741211,19.90999984741211,19.90999984741211,0.0,19.30063247680664
2017-05-01,19.90999984741211,19.90999984741211,19.90999984741211,19.90999984741211,0.0,19.30063247680664
2017-05-02,19.90999984741211,19.90999984741211,19.90999984741211,19.90999984741211,0.0,19.30063247680664
2017-05-03,19.940000534057617,19.940000534057617,19.940000534057617,19.940000534057617,500.0,19.329713821411133
2017-05-04,20.479999542236328,20.1299991607666,20.479999542236328,20.1299991607666,1200.0,19.513898849487305
2017-05-05,19.979999542236328,19.959999084472656,19.979999542236328,19.959999084472656,20100.0,19.34910011291504
2017-05-08,19.959999084472656,19.959999084472656,19.959999084472656,19.959999084472656,0.0,19.34910011291504
2017-05-09,19.959999084472656,19.959999084472656,19.959999084472656,19.959999084472656,0.0,19.34910011291504
2017-05-10,19.860000610351562,19.860000610351562,19.860000610351562,19.860000610351562,200.0,19.252161026000977
2017-05-11,20.139999389648438,20.139999389648438,20.139999389648438,20.139999389648438,500.0,19.523591995239258
2017-05-12,20.139999389648438,20.139999389648438,20.139999389648438,20.139999389648438,0.0,19.523591995239258
2017-05-15,20.139999389648438,20.139999389648438,20.139999389648438,20.139999389648438,0.0,19.523591995239258
2017-05-16,20.110000610351562,20.110000610351562,20.110000610351562,20.110000610351562,200.0,19.4945125579834
2017-05-17,19.89299964904785,19.865999221801758,19.89299964904785,19.865999221801758,300.0,19.257976531982422
2017-05-18,19.860000610351562,19.760000228881836,19.809999465942383,19.860000610351562,1000.0,19.252161026000977
2017-05-19,19.860000610351562,19.860000610351562,19.860000610351562,19.860000610351562,0.0,19.252161026000977
2017-05-22,19.860000610351562,19.860000610351562,19.860000610351562,19.860000610351562,0.0,19.252161026000977
2017-05-23,19.860000610351562,19.860000610351562,19.860000610351562,19.860000610351562,0.0,19.252161026000977
2017-05-24,19.860000610351562,19.860000610351562,19.860000610351562,19.860000610351562,0.0,19.252161026000977
2017-05-25,19.950000762939453,19.920000076293945,19.920000076293945,19.950000762939453,600.0,19.33940887451172
2017-05-26,19.950000762939453,19.950000762939453,19.950000762939453,19.950000762939453,0.0,19.33940887451172
2017-05-30,19.950000762939453,19.950000762939453,19.950000762939453,19.950000762939453,0.0,19.33940887451172
2017-05-31,19.809999465942383,19.809999465942383,19.809999465942383,19.809999465942383,300.0,19.203691482543945
2017-06-01,19.913000106811523,19.913000106811523,19.913000106811523,19.913000106811523,200.0,19.303539276123047
2017-06-02,20.149999618530273,20.110000610351562,20.149999618530273,20.139999389648438,1300.0,19.523591995239258
2017-06-05,20.059999465942383,20.04199981689453,20.059999465942383,20.059999465942383,1300.0,19.44603729248047
2017-06-06,20.059999465942383,20.059999465942383,20.059999465942383,20.059999465942383,0.0,19.44603729248047
2017-06-07,20.059999465942383,20.059999465942383,20.059999465942383,20.059999465942383,0.0,19.44603729248047
2017-06-08,20.079999923706055,20.079999923706055,20.079999923706055,20.079999923706055,300.0,19.465429306030273
2017-06-09,20.299999237060547,20.299999237060547,20.299999237060547,20.299999237060547,900.0,19.678691864013672
2017-06-12,20.1299991607666,20.06999969482422,20.1299991607666,20.079999923706055,400.0,19.465429306030273
2017-06-13,20.104999542236328,20.040000915527344,20.040000915527344,20.104999542236328,3300.0,19.48966407775879
2017-06-14,20.104999542236328,20.104999542236328,20.104999542236328,20.104999542236328,0.0,19.48966407775879
2017-06-15,20.104999542236328,20.104999542236328,20.104999542236328,20.104999542236328,0.0,19.48966407775879
2017-06-16,20.104999542236328,20.104999542236328,20.104999542236328,20.104999542236328,0.0,19.48966407775879
2017-06-19,20.104999542236328,20.104999542236328,20.104999542236328,20.104999542236328,0.0,19.48966407775879
2017-06-20,20.538999557495117,20.538999557495117,20.538999557495117,20.538999557495117,100.0,19.910381317138672
2017-06-21,20.538999557495117,20.538999557495117,20.538999557495117,20.538999557495117,0.0,19.910381317138672
2017-06-22,21.304000854492188,21.179000854492188,21.219999313354492,21.179000854492188,2400.0,20.585920333862305
2017-06-23,21.014999389648438,20.979999542236328,20.979999542236328,21.014999389648438,400.0,20.426513671875
2017-06-26,21.360000610351562,21.094999313354492,21.360000610351562,21.187999725341797,900.0,20.59466552734375
2017-06-27,21.024999618530273,20.82200050354004,21.024999618530273,20.82200050354004,500.0,20.238916397094727
2017-06-28,20.82200050354004,20.82200050354004,20.82200050354004,20.82200050354004,0.0,20.238916397094727
2017-06-29,20.799999237060547,20.70199966430664,20.774999618530273,20.70199966430664,2500.0,20.122276306152344
2017-06-30,20.70199966430664,20.70199966430664,20.70199966430664,20.70199966430664,0.0,20.122276306152344
2017-07-03,20.820999145507812,20.65999984741211,20.65999984741211,20.81999969482422,1400.0,20.23697280883789
2017-07-05,20.969999313354492,20.913000106811523,20.969999313354492,20.913000106811523,1800.0,20.327369689941406
2017-07-06,20.860000610351562,20.83099937438965,20.860000610351562,20.83099937438965,700.0,20.247663497924805
2017-07-07,20.767000198364258,20.729999542236328,20.729999542236328,20.767000198364258,1000.0,20.18545913696289
2017-07-10,20.767000198364258,20.767000198364258,20.767000198364258,20.767000198364258,0.0,20.18545913696289
2017-07-11,20.767000198364258,20.767000198364258,20.767000198364258,20.767000198364258,0.0,20.18545913696289
2017-07-12,20.760000228881836,20.760000228881836,20.760000228881836,20.760000228881836,1000.0,20.178651809692383
2017-07-13,20.81999969482422,20.809999465942383,20.809999465942383,20.81999969482422,8900.0,20.23697280883789
2017-07-14,21.0,21.0,21.0,21.0,3300.0,20.411930084228516
2017-07-17,21.0,21.0,21.0,21.0,0.0,20.411930084228516
2017-07-18,20.850000381469727,20.850000381469727,20.850000381469727,20.850000381469727,200.0,20.266132354736328
2017-07-19,20.860000610351562,20.858999252319336,20.858999252319336,20.860000610351562,2000.0,20.275854110717773
2017-07-20,21.09000015258789,21.010000228881836,21.09000015258789,21.010000228881836,4000.0,20.421655654907227
2017-07-21,21.31999969482422,21.0,21.31999969482422,21.0,1500.0,20.411930084228516
2017-07-24,21.0,21.0,21.0,21.0,0.0,20.411930084228516
2017-07-25,20.90999984741211,20.8700008392334,20.8700008392334,20.8700008392334,700.0,20.285573959350586
2017-07-26,20.760000228881836,20.610000610351562,20.690000534057617,20.610000610351562,3600.0,20.032854080200195
2017-07-27,20.493000030517578,20.309999465942383,20.489999771118164,20.309999465942383,800.0,19.741254806518555
2017-07-28,20.35099983215332,20.290000915527344,20.290000915527344,20.35099983215332,7700.0,19.78110694885254
2017-07-31,20.35099983215332,20.35099983215332,20.35099983215332,20.35099983215332,0.0,19.78110694885254
2017-08-01,20.219999313354492,20.184999465942383,20.200000762939453,20.195999145507812,2500.0,19.63044548034668
2017-08-02,20.059999465942383,20.059999465942383,20.059999465942383,20.059999465942383,4000.0,19.498252868652344
2017-08-03,19.940000534057617,19.920000076293945,19.920000076293945,19.940000534057617,2300.0,19.381616592407227
2017-08-04,19.959999084472656,19.950000762939453,19.950000762939453,19.959999084472656,300.0,19.401052474975586
2017-08-07,19.959999084472656,19.959999084472656,19.959999084472656,19.959999084472656,0.0,19.401052474975586
2017-08-08,19.770000457763672,19.68000030517578,19.739999771118164,19.690000534057617,3200.0,19.13861656188965
2017-08-09,19.520000457763672,19.402999877929688,19.402999877929688,19.520000457763672,2600.0,18.97337532043457
2017-08-10,19.399999618530273,19.381999969482422,19.389999389648438,19.399999618530273,1600.0,18.856739044189453
2017-08-11,19.399999618530273,19.399999618530273,19.399999618530273,19.399999618530273,0.0,18.856739044189453
2017-08-14,19.399999618530273,19.399999618530273,19.399999618530273,19.399999618530273,0.0,18.856739044189453
2017-08-15,19.479999542236328,19.479999542236328,19.479999542236328,19.479999542236328,2400.0,18.93449592590332
2017-08-16,19.540000915527344,19.540000915527344,19.540000915527344,19.540000915527344,200.0,18.99281883239746
2017-08-17,19.520000457763672,19.34000015258789,19.520000457763672,19.3700008392334,2300.0,18.827577590942383
2017-08-18,19.3700008392334,19.3700008392334,19.3700008392334,19.3700008392334,0.0,18.827577590942383
2017-08-21,19.229000091552734,19.19499969482422,19.229000091552734,19.19499969482422,900.0,18.65747833251953
2017-08-22,19.19499969482422,19.19499969482422,19.19499969482422,19.19499969482422,0.0,18.65747833251953
2017-08-23,19.3799991607666,19.059999465942383,19.059999465942383,19.34000015258789,3200.0,18.798418045043945
2017-08-24,19.34000015258789,19.34000015258789,19.34000015258789,19.34000015258789,0.0,18.798418045043945
2017-08-25,19.540000915527344,19.260000228881836,19.260000228881836,19.540000915527344,1700.0,18.99281883239746
2017-08-28,19.59000015258789,19.59000015258789,19.59000015258789,19.59000015258789,200.0,19.04141616821289
2017-08-29,19.600000381469727,19.56999969482422,19.56999969482422,19.600000381469727,2700.0,19.051136016845703
2017-08-30,19.639999389648438,19.618000030517578,19.639999389648438,19.618000030517578,500.0,19.068632125854492
2017-08-31,19.618000030517578,19.618000030517578,19.618000030517578,19.618000030517578,0.0,19.068632125854492
2017-09-01,20.049999237060547,20.049999237060547,20.049999237060547,20.049999237060547,100.0,19.48853302001953
2017-09-05,20.09000015258789,20.09000015258789,20.09000015258789,20.09000015258789,200.0,19.527416229248047
2017-09-06,20.09000015258789,20.09000015258789,20.09000015258789,20.09000015258789,0.0,19.527416229248047
2017-09-07,20.190000534057617,20.190000534057617,20.190000534057617,20.190000534057617,100.0,19.624614715576172
2017-09-08,20.190000534057617,20.190000534057617,20.190000534057617,20.190000534057617,0.0,19.624614715576172
2017-09-11,20.190000534057617,20.190000534057617,20.190000534057617,20.190000534057617,0.0,19.624614715576172
2017-09-12,20.190000534057617,20.190000534057617,20.190000534057617,20.190000534057617,0.0,19.624614715576172
2017-09-13,20.190000534057617,20.190000534057617,20.190000534057617,20.190000534057617,0.0,19.624614715576172
2017-09-14,20.190000534057617,20.190000534057617,20.190000534057617,20.190000534057617,0.0,19.624614715576172
2017-09-15,20.34000015258789,20.329999923706055,20.34000015258789,20.329999923706055,500.0,19.76069450378418
2017-09-18,20.329999923706055,20.329999923706055,20.329999923706055,20.329999923706055,0.0,19.76069450378418
2017-09-19,20.170000076293945,20.170000076293945,20.170000076293945,20.170000076293945,100.0,19.605173110961914
2017-09-20,20.06999969482422,20.06999969482422,20.06999969482422,20.06999969482422,100.0,19.507976531982422
2017-09-21,20.1200008392334,19.959999084472656,20.020000457763672,20.0049991607666,24900.0,19.82006072998047
2017-09-22,19.84000015258789,19.84000015258789,19.84000015258789,19.84000015258789,200.0,19.65658950805664
2017-09-25,20.1299991607666,20.1299991607666,20.1299991607666,20.1299991607666,300.0,19.943906784057617
2017-09-26,20.1299991607666,20.1299991607666,20.1299991607666,20.1299991607666,0.0,19.943906784057617
2017-09-27,20.1299991607666,20.1299991607666,20.1299991607666,20.1299991607666,0.0,19.943906784057617
2017-09-28,20.1299991607666,20.1299991607666,20.1299991607666,20.1299991607666,0.0,19.943906784057617
2017-09-29,20.0,19.944000244140625,19.944000244140625,20.0,300.0,19.815107345581055
2017-10-02,20.0,20.0,20.0,20.0,0.0,19.815107345581055
2017-10-03,20.440000534057617,20.270000457763672,20.440000534057617,20.270000457763672,3600.0,20.082612991333008
2017-10-04,20.719999313354492,20.399999618530273,20.399999618530273,20.58300018310547,3400.0,20.392719268798828
2017-10-05,20.58300018310547,20.58300018310547,20.58300018310547,20.58300018310547,0.0,20.392719268798828
2017-10-06,20.58300018310547,20.58300018310547,20.58300018310547,20.58300018310547,0.0,20.392719268798828
2017-10-09,20.50200080871582,20.50200080871582,20.50200080871582,20.50200080871582,100.0,20.312469482421875
2017-10-10,20.489999771118164,20.249000549316406,20.249000549316406,20.395000457763672,900.0,20.206457138061523
2017-10-11,20.417999267578125,20.417999267578125,20.417999267578125,20.417999267578125,500.0,20.229246139526367
2017-10-12,20.3799991607666,20.3799991607666,20.3799991607666,20.3799991607666,100.0,20.19159507751465
2017-10-13,20.34000015258789,20.34000015258789,20.34000015258789,20.34000015258789,200.0,20.15196418762207
2017-10-16,20.2189998626709,20.1200008392334,20.2189998626709,20.1200008392334,400.0,19.93400001525879
2017-10-17,20.31999969482422,20.31999969482422,20.31999969482422,20.31999969482422,200.0,20.132150650024414
2017-10-18,20.34000015258789,20.06100082397461,20.34000015258789,20.06100082397461,700.0,19.875545501708984
2017-10-19,20.06100082397461,20.06100082397461,20.06100082397461,20.06100082397461,0.0,19.875545501708984
2017-10-20,20.420000076293945,20.27199935913086,20.40999984741211,20.420000076293945,1300.0,20.23122787475586
2017-10-23,20.25,20.25,20.25,20.25,200.0,20.06279754638672
2017-10-24,20.25,20.25,20.25,20.25,0.0,20.06279754638672
2017-10-25,20.010000228881836,20.010000228881836,20.010000228881836,20.010000228881836,100.0,19.825016021728516
2017-10-26,19.75,19.64299964904785,19.75,19.64299964904785,500.0,19.461410522460938
2017-10-27,19.506999969482422,19.506999969482422,19.506999969482422,19.506999969482422,300.0,19.3266658782959
2017-10-30,19.280000686645508,19.280000686645508,19.280000686645508,19.280000686645508,300.0,19.101764678955078
2017-10-31,19.280000686645508,19.280000686645508,19.280000686645508,19.280000686645508,0.0,19.101764678955078
2017-11-01,19.280000686645508,19.280000686645508,19.280000686645508,19.280000686645508,0.0,19.101764678955078
2017-11-02,19.290000915527344,19.280000686645508,19.290000915527344,19.280000686645508,400.0,19.101764678955078
2017-11-03,19.280000686645508,19.280000686645508,19.280000686645508,19.280000686645508,0.0,19.101764678955078
2017-11-06,19.280000686645508,19.280000686645508,19.280000686645508,19.280000686645508,0.0,19.101764678955078
2017-11-07,19.280000686645508,19.280000686645508,19.280000686645508,19.280000686645508,0.0,19.101764678955078
2017-11-08,19.280000686645508,19.280000686645508,19.280000686645508,19.280000686645508,0.0,19.101764678955078
2017-11-09,20.118000030517578,20.118000030517578,20.118000030517578,20.118000030517578,300.0,19.932016372680664
2017-11-10,20.209999084472656,20.209999084472656,20.209999084472656,20.209999084472656,100.0,20.02316665649414
2017-11-13,20.1200008392334,20.1200008392334,20.1200008392334,20.1200008392334,200.0,19.93400001525879
2017-11-14,20.010000228881836,19.93899917602539,19.93899917602539,19.954999923706055,500.0,19.770524978637695
2017-11-15,19.954999923706055,19.954999923706055,19.954999923706055,19.954999923706055,0.0,19.770524978637695
2017-11-16,19.954999923706055,19.954999923706055,19.954999923706055,19.954999923706055,0.0,19.770524978637695
2017-11-17,19.954999923706055,19.954999923706055,19.954999923706055,19.954999923706055,0.0,19.770524978637695
2017-11-20,19.954999923706055,19.954999923706055,19.954999923706055,19.954999923706055,0.0,19.770524978637695
2017-11-21,20.1200008392334,20.1200008392334,20.1200008392334,20.1200008392334,200.0,19.93400001525879
2017-11-22,20.1200008392334,20.1200008392334,20.1200008392334,20.1200008392334,0.0,19.93400001525879
2017-11-24,20.1200008392334,20.1200008392334,20.1200008392334,20.1200008392334,0.0,19.93400001525879
2017-11-27,20.1200008392334,20.1200008392334,20.1200008392334,20.1200008392334,0.0,19.93400001525879
2017-11-28,20.1200008392334,20.1200008392334,20.1200008392334,20.1200008392334,0.0,19.93400001525879
2017-11-29,20.1200008392334,20.1200008392334,20.1200008392334,20.1200008392334,0.0,19.93400001525879
2017-11-30,20.790000915527344,20.790000915527344,20.790000915527344,20.790000915527344,1300.0,20.59780502319336
2017-12-01,20.836000442504883,20.719999313354492,20.836000442504883,20.719999313354492,400.0,20.528453826904297
2017-12-04,20.84000015258789,20.700000762939453,20.729999542236328,20.700000762939453,1400.0,20.508638381958008
2017-12-05,20.700000762939453,20.700000762939453,20.700000762939453,20.700000762939453,0.0,20.508638381958008
2017-12-06,20.329999923706055,20.274999618530273,20.274999618530273,20.329999923706055,500.0,20.142059326171875
2017-12-07,20.969999313354492,20.799999237060547,20.799999237060547,20.969999313354492,1100.0,20.776142120361328
2017-12-08,21.260000228881836,21.100000381469727,21.100000381469727,21.260000228881836,6900.0,21.063461303710938
2017-12-11,21.81999969482422,21.270000457763672,21.81999969482422,21.34600067138672,1100.0,21.148666381835938
2017-12-12,21.391000747680664,21.391000747680664,21.391000747680664,21.391000747680664,300.0,21.19325065612793
2017-12-13,21.530000686645508,21.479999542236328,21.520000457763672,21.530000686645508,800.0,21.330963134765625
2017-12-14,21.559999465942383,21.43000030517578,21.540000915527344,21.43000030517578,2600.0,21.231887817382812
2017-12-15,21.341999053955078,21.239999771118164,21.30699920654297,21.270000457763672,1100.0,21.0733699798584
2017-12-18,21.579999923706055,21.579999923706055,21.579999923706055,21.579999923706055,600.0,21.380502700805664
2017-12-19,21.579999923706055,21.579999923706055,21.579999923706055,21.579999923706055,0.0,21.380502700805664
2017-12-20,21.579999923706055,21.579999923706055,21.579999923706055,21.579999923706055,100.0,21.380502700805664
2017-12-21,21.510000228881836,21.489999771118164,21.510000228881836,21.510000228881836,800.0,21.31114959716797
2017-12-22,21.461999893188477,21.441999435424805,21.461999893188477,21.441999435424805,1500.0,21.243778228759766
2017-12-26,21.445999145507812,21.39699935913086,21.39699935913086,21.40399932861328,1100.0,21.20612907409668
2017-12-27,21.40399932861328,21.40399932861328,21.40399932861328,21.40399932861328,0.0,21.20612907409668
2017-12-28,21.43000030517578,21.399999618530273,21.43000030517578,21.399999618530273,900.0,21.202165603637695
2017-12-29,21.6200008392334,21.399999618530273,21.613000869750977,21.399999618530273,1100.0,21.202165603637695
2018-01-02,21.690000534057617,21.549999237060547,21.56800079345703,21.690000534057617,6200.0,21.489486694335938
2018-01-03,21.954999923706055,21.8700008392334,21.8700008392334,21.954999923706055,400.0,21.752037048339844
2018-01-04,22.100000381469727,21.739999771118164,22.100000381469727,21.881000518798828,3200.0,21.67871856689453
2018-01-05,21.905000686645508,21.82200050354004,21.860000610351562,21.905000686645508,1200.0,21.702499389648438
2018-01-08,22.02899932861328,21.625999450683594,22.02899932861328,21.733999252319336,1200.0,21.533079147338867
2018-01-09,22.059999465942383,22.059999465942383,22.059999465942383,22.059999465942383,200.0,21.856063842773438
2018-01-10,22.079999923706055,21.940000534057617,22.079999923706055,21.959999084472656,900.0,21.756988525390625
2018-01-11,22.360000610351562,22.209999084472656,22.209999084472656,22.31599998474121,2300.0,22.109697341918945
2018-01-12,22.540000915527344,22.459999084472656,22.540000915527344,22.459999084472656,1400.0,22.25236701965332
2018-01-16,22.579999923706055,22.225000381469727,22.579999923706055,22.225000381469727,2000.0,22.019540786743164
2018-01-17,22.329999923706055,22.239999771118164,22.264999389648438,22.325000762939453,2200.0,22.118616104125977
2018-01-18,22.190000534057617,22.170000076293945,22.170000076293945,22.190000534057617,800.0,21.984865188598633
2018-01-19,22.43000030517578,22.350000381469727,22.43000030517578,22.350000381469727,1300.0,22.143383026123047
2018-01-22,22.724000930786133,22.5,22.5,22.545000076293945,2900.0,22.33658218383789
2018-01-23,22.860000610351562,22.75,22.860000610351562,22.760000228881836,700.0,22.549592971801758
2018-01-24,22.920000076293945,22.84000015258789,22.84000015258789,22.90999984741211,1200.0,22.698205947875977
2018-01-25,23.09000015258789,22.900999069213867,23.030000686645508,23.09000015258789,1700.0,22.876543045043945
2018-01-26,23.43000030517578,23.399999618530273,23.399999618530273,23.413000106811523,700.0,23.196556091308594
2018-01-29,23.56999969482422,23.43000030517578,23.520000457763672,23.450000762939453,4100.0,23.23321533203125
2018-01-30,23.290000915527344,22.850000381469727,23.290000915527344,22.850000381469727,1400.0,22.638761520385742
2018-01-31,23.1299991607666,22.48699951171875,22.950000762939453,22.48699951171875,3800.0,22.27911949157715
2018-02-01,22.670000076293945,22.371999740600586,22.371999740600586,22.670000076293945,800.0,22.460426330566406
2018-02-02,22.520000457763672,22.420000076293945,22.520000457763672,22.420000076293945,1200.0,22.212736129760742
2018-02-05,22.190000534057617,21.260000228881836,22.190000534057617,21.3799991607666,9400.0,21.182350158691406
2018-02-06,21.139999389648438,20.660999298095703,20.93000030517578,21.1200008392334,4500.0,20.924755096435547
2018-02-07,21.655000686645508,21.655000686645508,21.655000686645508,21.655000686645508,200.0,21.454811096191406
2018-02-08,21.610000610351562,20.75,21.610000610351562,20.75,2600.0,20.55817413330078
2018-02-09,20.739999771118164,20.25200080871582,20.739999771118164,20.708999633789062,1800.0,20.517553329467773
2018-02-12,20.849000930786133,20.770000457763672,20.770000457763672,20.849000930786133,400.0,20.656261444091797
2018-02-13,21.062000274658203,21.062000274658203,21.062000274658203,21.062000274658203,200.0,20.867292404174805
2018-02-14,21.062000274658203,21.062000274658203,21.062000274658203,21.062000274658203,0.0,20.867292404174805
2018-02-15,21.989999771118164,21.725000381469727,21.738000869750977,21.881000518798828,2700.0,21.67871856689453
2018-02-16,22.13599967956543,22.10099983215332,22.10099983215332,22.13599967956543,500.0,21.93136215209961
2018-02-20,22.049999237060547,21.899999618530273,22.049999237060547,21.899999618530273,2000.0,21.69754409790039
2018-02-21,22.18000030517578,22.016000747680664,22.016000747680664,22.124000549316406,1600.0,21.919475555419922
2018-02-22,21.780000686645508,21.68000030517578,21.780000686645508,21.68000030517578,7200.0,21.47957992553711
2018-02-23,21.799999237060547,21.799999237060547,21.799999237060547,21.799999237060547,1200.0,21.598466873168945
2018-02-26,22.31999969482422,22.2549991607666,22.2549991607666,22.31999969482422,2300.0,22.11366081237793
2018-02-27,22.059999465942383,22.059999465942383,22.059999465942383,22.059999465942383,200.0,21.856063842773438
2018-02-28,21.825000762939453,21.60300064086914,21.825000762939453,21.60300064086914,1500.0,21.403291702270508
2018-03-01,21.6200008392334,21.6200008392334,21.6200008392334,21.6200008392334,2300.0,21.420133590698242
2018-03-02,21.610000610351562,21.507999420166016,21.540000915527344,21.610000610351562,1900.0,21.410226821899414
2018-03-05,21.600000381469727,21.5,21.600000381469727,21.5,700.0,21.30124282836914
2018-03-06,21.812999725341797,21.760000228881836,21.760000228881836,21.812999725341797,1500.0,21.611347198486328
2018-03-07,21.834999084472656,21.799999237060547,21.799999237060547,21.834999084472656,600.0,21.63314437866211
2018-03-08,22.011999130249023,21.90399932861328,22.011999130249023,21.90399932861328,600.0,21.701505661010742
2018-03-09,21.90399932861328,21.90399932861328,21.90399932861328,21.90399932861328,0.0,21.701505661010742
2018-03-12,22.459999084472656,22.360000610351562,22.360000610351562,22.459999084472656,200.0,22.25236701965332
2018-03-13,22.459999084472656,22.450000762939453,22.459999084472656,22.459999084472656,1500.0,22.25236701965332
2018-03-14,22.344999313354492,22.25,22.344999313354492,22.25,400.0,22.044309616088867
2018-03-15,22.68000030517578,22.260000228881836,22.68000030517578,22.280000686645508,2900.0,22.074031829833984
2018-03-16,22.389999389648438,22.1299991607666,22.329999923706055,22.235000610351562,5600.0,22.029447555541992
2018-03-19,21.96500015258789,21.790000915527344,21.96500015258789,21.790000915527344,600.0,21.588563919067383
2018-03-20,21.93000030517578,21.93000030517578,21.93000030517578,21.93000030517578,100.0,21.727266311645508
2018-03-21,22.1299991607666,21.90999984741211,22.1299991607666,22.030000686645508,900.0,21.826345443725586
2018-03-22,21.635000228881836,21.635000228881836,21.635000228881836,21.635000228881836,400.0,21.51115608215332
2018-03-23,21.6299991607666,20.920000076293945,21.6299991607666,20.920000076293945,19900.0,20.800251007080078
2018-03-26,21.190000534057617,20.739999771118164,20.739999771118164,20.790000915527344,14200.0,20.67099380493164
2018-03-27,21.229999542236328,21.139999389648438,21.18000030517578,21.139999389648438,1000.0,21.018991470336914
2018-03-28,21.1560001373291,21.149999618530273,21.149999618530273,21.1560001373291,300.0,21.03489875793457
2018-03-29,20.969999313354492,20.969999313354492,20.969999313354492,20.969999313354492,400.0,20.84996223449707
2018-04-02,20.989999771118164,20.350000381469727,20.989999771118164,20.469999313354492,4200.0,20.35282325744629
2018-04-03,20.469999313354492,20.469999313354492,20.469999313354492,20.469999313354492,0.0,20.35282325744629
2018-04-04,20.799999237060547,20.500999450683594,20.500999450683594,20.799999237060547,400.0,20.680936813354492
2018-04-05,20.799999237060547,20.799999237060547,20.799999237060547,20.799999237060547,0.0,20.680936813354492
2018-04-06,20.672000885009766,20.6299991607666,20.6299991607666,20.670000076293945,1400.0,20.551681518554688
2018-04-09,20.670000076293945,20.670000076293945,20.670000076293945,20.670000076293945,0.0,20.551681518554688
2018-04-10,21.170000076293945,20.979999542236328,21.118000030517578,21.170000076293945,27400.0,21.048818588256836
2018-04-11,21.170000076293945,21.170000076293945,21.170000076293945,21.170000076293945,0.0,21.048818588256836
2018-04-12,21.277999877929688,21.190000534057617,21.270000457763672,21.200000762939453,2800.0,21.07864761352539
2018-04-13,21.360000610351562,21.31999969482422,21.360000610351562,21.329999923706055,600.0,21.207902908325195
2018-04-16,21.450000762939453,21.104999542236328,21.450000762939453,21.104999542236328,5500.0,20.984189987182617
2018-04-17,21.239999771118164,21.104999542236328,21.170000076293945,21.239999771118164,1200.0,21.11841583251953
2018-04-18,21.3799991607666,21.3799991607666,21.3799991607666,21.3799991607666,200.0,21.25761604309082
2018-04-19,21.3799991607666,21.3799991607666,21.3799991607666,21.3799991607666,200.0,21.25761604309082
2018-04-20,21.3799991607666,21.3799991607666,21.3799991607666,21.3799991607666,0.0,21.25761604309082
2018-04-23,21.0,20.79800033569336,21.0,20.79800033569336,400.0,20.67894744873047
2018-04-24,20.809999465942383,20.579999923706055,20.799999237060547,20.68899917602539,19300.0,20.570571899414062
2018-04-25,20.44499969482422,20.44499969482422,20.44499969482422,20.44499969482422,400.0,20.32796859741211
2018-04-26,20.739999771118164,20.715999603271484,20.715999603271484,20.739999771118164,600.0,20.621280670166016
2018-04-27,20.84000015258789,20.81999969482422,20.81999969482422,20.84000015258789,300.0,20.7207088470459
2018-04-30,21.02899932861328,21.020000457763672,21.02899932861328,21.020000457763672,400.0,20.899677276611328
2018-05-01,20.649999618530273,20.479999542236328,20.479999542236328,20.649999618530273,500.0,20.531795501708984
2018-05-02,20.729000091552734,20.40999984741211,20.729000091552734,20.40999984741211,600.0,20.293167114257812
2018-05-03,20.211999893188477,19.950000762939453,20.211999893188477,19.950000762939453,900.0,19.835803985595703
2018-05-04,20.010000228881836,19.87700080871582,20.010000228881836,20.0,800.0,19.885515213012695
2018-05-07,20.309999465942383,20.309999465942383,20.309999465942383,20.309999465942383,800.0,20.193740844726562
2018-05-08,20.239999771118164,20.14900016784668,20.239999771118164,20.14900016784668,800.0,20.03366470336914
2018-05-09,20.530000686645508,20.399999618530273,20.399999618530273,20.530000686645508,1300.0,20.4124813079834
2018-05-10,20.79199981689453,20.65999984741211,20.65999984741211,20.79199981689453,900.0,20.67298126220703
2018-05-11,21.309999465942383,20.950000762939453,20.950000762939453,21.309999465942383,600.0,21.188018798828125
2018-05-14,21.586000442504883,21.479999542236328,21.586000442504883,21.479999542236328,700.0,21.357044219970703
2018-05-15,21.479999542236328,21.479999542236328,21.479999542236328,21.479999542236328,0.0,21.357044219970703
2018-05-16,21.670000076293945,21.670000076293945,21.670000076293945,21.670000076293945,200.0,21.545957565307617
2018-05-17,21.739999771118164,21.739999771118164,21.739999771118164,21.739999771118164,400.0,21.615554809570312
2018-05-18,21.68000030517578,21.638999938964844,21.638999938964844,21.68000030517578,200.0,21.555898666381836
2018-05-21,21.799999237060547,21.649999618530273,21.799999237060547,21.672000885009766,900.0,21.547945022583008
2018-05-22,21.530000686645508,21.450000762939453,21.530000686645508,21.469999313354492,600.0,21.34709930419922
2018-05-23,21.575000762939453,21.440000534057617,21.440000534057617,21.575000762939453,700.0,21.451501846313477
2018-05-24,21.575000762939453,21.575000762939453,21.575000762939453,21.575000762939453,0.0,21.451501846313477
2018-05-25,21.336000442504883,21.329999923706055,21.336000442504883,21.329999923706055,800.0,21.207902908325195
2018-05-29,21.329999923706055,21.329999923706055,21.329999923706055,21.329999923706055,0.0,21.207902908325195
2018-05-30,21.6299991607666,21.433000564575195,21.520000457763672,21.56599998474121,12000.0,21.442550659179688
2018-05-31,21.496999740600586,21.386999130249023,21.496999740600586,21.386999130249023,300.0,21.264575958251953
2018-06-01,21.600000381469727,21.4950008392334,21.600000381469727,21.4950008392334,300.0,21.371959686279297
2018-06-04,21.40399932861328,21.40399932861328,21.40399932861328,21.40399932861328,600.0,21.281478881835938
2018-06-05,21.5,21.440000534057617,21.440000534057617,21.5,1100.0,21.376928329467773
2018-06-06,21.674999237060547,21.670000076293945,21.674999237060547,21.670000076293945,300.0,21.545957565307617
2018-06-07,21.6299991607666,21.5,21.6299991607666,21.5,800.0,21.376928329467773
2018-06-08,21.799999237060547,21.799999237060547,21.799999237060547,21.799999237060547,400.0,21.67521095275879
2018-06-11,21.81999969482422,21.75,21.81999969482422,21.75,1900.0,21.625499725341797
2018-06-12,22.110000610351562,21.736000061035156,21.8799991607666,21.868000030517578,3300.0,21.742822647094727
2018-06-13,22.010000228881836,22.010000228881836,22.010000228881836,22.010000228881836,500.0,21.884010314941406
2018-06-14,22.239999771118164,22.239999771118164,22.239999771118164,22.239999771118164,600.0,22.11269187927246
2018-06-15,22.047000885009766,21.950000762939453,21.950000762939453,22.047000885009766,1500.0,21.920799255371094
2018-06-18,21.983999252319336,21.827999114990234,21.983999252319336,21.827999114990234,400.0,21.70305061340332
2018-06-19,21.81999969482422,21.65999984741211,21.65999984741211,21.81999969482422,800.0,21.695096969604492
2018-06-20,22.229999542236328,22.100000381469727,22.229999542236328,22.100000381469727,600.0,21.973495483398438
2018-06-21,22.083999633789062,22.083999633789062,22.083999633789062,22.083999633789062,1100.0,21.992414474487305
2018-06-22,22.083999633789062,22.083999633789062,22.083999633789062,22.083999633789062,0.0,21.992414474487305
2018-06-25,21.87700080871582,21.78499984741211,21.87700080871582,21.78499984741211,800.0,21.694658279418945
2018-06-26,21.969999313354492,21.760000228881836,21.969999313354492,21.799999237060547,1800.0,21.709592819213867
2018-06-27,21.69499969482422,21.69499969482422,21.69499969482422,21.69499969482422,200.0,21.605030059814453
2018-06-28,21.69499969482422,21.69499969482422,21.69499969482422,21.69499969482422,100.0,21.605030059814453
2018-06-29,21.69499969482422,21.69499969482422,21.69499969482422,21.69499969482422,100.0,21.605030059814453
2018-07-02,21.69499969482422,21.69499969482422,21.69499969482422,21.69499969482422,100.0,21.605030059814453
2018-07-03,22.020000457763672,21.979999542236328,21.979999542236328,22.020000457763672,500.0,21.928682327270508
2018-07-05,22.020000457763672,22.020000457763672,22.020000457763672,22.020000457763672,100.0,21.928682327270508
2018-07-06,22.020000457763672,22.020000457763672,22.020000457763672,22.020000457763672,0.0,21.928682327270508
2018-07-09,22.020000457763672,22.020000457763672,22.020000457763672,22.020000457763672,0.0,21.928682327270508
2018-07-10,22.398000717163086,22.18000030517578,22.18000030517578,22.34000015258789,1800.0,22.247352600097656
2018-07-11,22.34000015258789,22.34000015258789,22.34000015258789,22.34000015258789,0.0,22.247352600097656
2018-07-12,22.648000717163086,22.3799991607666,22.413000106811523,22.639999389648438,3200.0,22.54610824584961
2018-07-13,22.639999389648438,22.639999389648438,22.639999389648438,22.639999389648438,0.0,22.54610824584961
2018-07-16,22.639999389648438,22.639999389648438,22.639999389648438,22.639999389648438,0.0,22.54610824584961
2018-07-17,22.579999923706055,22.45599937438965,22.579999923706055,22.475000381469727,1000.0,22.381793975830078
2018-07-18,22.54400062561035,22.52899932861328,22.52899932861328,22.54400062561035,600.0,22.45050811767578
2018-07-19,22.75,22.639999389648438,22.75,22.639999389648438,1100.0,22.54610824584961
2018-07-20,22.600000381469727,22.5,22.534000396728516,22.559999465942383,9600.0,22.466442108154297
2018-07-23,22.6200008392334,22.6200008392334,22.6200008392334,22.6200008392334,300.0,22.526195526123047
2018-07-24,22.565000534057617,22.54599952697754,22.565000534057617,22.54599952697754,700.0,22.452499389648438
2018-07-25,22.729999542236328,22.611000061035156,22.729999542236328,22.611000061035156,1400.0,22.517229080200195
2018-07-26,22.940000534057617,22.83300018310547,22.940000534057617,22.83300018310547,1300.0,22.738309860229492
2018-07-27,22.718000411987305,22.61400032043457,22.690000534057617,22.61400032043457,1700.0,22.520217895507812
2018-07-30,22.760000228881836,22.55500030517578,22.760000228881836,22.55500030517578,300.0,22.461462020874023
2018-07-31,22.920000076293945,22.90999984741211,22.90999984741211,22.920000076293945,400.0,22.824949264526367
2018-08-01,23.040000915527344,22.770000457763672,22.770000457763672,22.992000579833984,1200.0,22.896652221679688
2018-08-02,23.270000457763672,23.0,23.1200008392334,23.0,112600.0,22.904617309570312
2018-08-03,23.270000457763672,23.1200008392334,23.1200008392334,23.1200008392334,3000.0,23.024120330810547
2018-08-06,23.268999099731445,23.222999572753906,23.233999252319336,23.222999572753906,700.0,23.126691818237305
2018-08-07,23.350000381469727,23.34000015258789,23.350000381469727,23.34000015258789,400.0,23.243207931518555
2018-08-08,23.56999969482422,23.375,23.440000534057617,23.56999969482422,1700.0,23.472253799438477
2018-08-09,23.600000381469727,23.309999465942383,23.600000381469727,23.31999969482422,7600.0,23.223289489746094
2018-08-10,23.399999618530273,23.222999572753906,23.399999618530273,23.222999572753906,2800.0,23.126691818237305
2018-08-13,23.350000381469727,23.149999618530273,23.350000381469727,23.149999618530273,2500.0,23.05399513244629
2018-08-14,23.288000106811523,23.132999420166016,23.132999420166016,23.257999420166016,3100.0,23.16154670715332
2018-08-15,23.099000930786133,23.058000564575195,23.058000564575195,23.099000930786133,1200.0,23.00320816040039
2018-08-16,23.459999084472656,23.302000045776367,23.350000381469727,23.450000762939453,5700.0,23.352750778198242
2018-08-17,23.43199920654297,23.358999252319336,23.43199920654297,23.358999252319336,500.0,23.262126922607422
2018-08-20,23.75,23.606000900268555,23.75,23.670000076293945,1500.0,23.57183837890625
2018-08-21,23.670000076293945,23.670000076293945,23.670000076293945,23.670000076293945,0.0,23.57183837890625
2018-08-22,23.770000457763672,23.70400047302246,23.70400047302246,23.732999801635742,1000.0,23.63457679748535
2018-08-23,23.899999618530273,23.610000610351562,23.899999618530273,23.71299934387207,1900.0,23.614660263061523
2018-08-24,23.70199966430664,23.670000076293945,23.670000076293945,23.70199966430664,400.0,23.60370445251465
2018-08-27,23.829999923706055,23.56999969482422,23.829999923706055,23.56999969482422,2000.0,23.472253799438477
2018-08-28,23.899999618530273,23.899999618530273,23.899999618530273,23.899999618530273,500.0,23.800886154174805
2018-08-29,23.770000457763672,23.700000762939453,23.700000762939453,23.770000457763672,1200.0,23.671424865722656
2018-08-30,23.940000534057617,23.700000762939453,23.940000534057617,23.71500015258789,3700.0,23.61665153503418
2018-08-31,23.719999313354492,23.700000762939453,23.719999313354492,23.719999313354492,900.0,23.62162971496582
2018-09-04,23.860000610351562,23.483999252319336,23.860000610351562,23.541000366210938,3100.0,23.443374633789062
2018-09-05,23.540000915527344,23.5,23.530000686645508,23.5,1000.0,23.402544021606445
2018-09-06,23.760000228881836,23.25,23.760000228881836,23.34000015258789,900.0,23.243207931518555
2018-09-07,23.363000869750977,23.363000869750977,23.363000869750977,23.363000869750977,200.0,23.26611328125
2018-09-10,23.6299991607666,23.280000686645508,23.6299991607666,23.299999237060547,1000.0,23.203371047973633
2018-09-11,23.3700008392334,23.149999618530273,23.15999984741211,23.26799964904785,3000.0,23.171504974365234
2018-09-12,23.277000427246094,23.190000534057617,23.277000427246094,23.260000228881836,1700.0,23.16353988647461
2018-09-13,23.3799991607666,23.3799991607666,23.3799991607666,23.3799991607666,11600.0,23.28304100036621
2018-09-14,23.452999114990234,23.309999465942383,23.427000045776367,23.309999465942383,1300.0,23.239173889160156
2018-09-17,23.145999908447266,23.145999908447266,23.145999908447266,23.145999908447266,300.0,23.075674057006836
2018-09-18,23.170000076293945,23.0,23.1200008392334,23.170000076293945,3500.0,23.099599838256836
2018-09-19,23.23699951171875,23.030000686645508,23.030000686645508,23.100000381469727,800.0,23.029813766479492
2018-09-20,23.450000762939453,23.327999114990234,23.327999114990234,23.450000762939453,1500.0,23.37874984741211
2018-09-21,23.489999771118164,23.389999389648438,23.389999389648438,23.420000076293945,2000.0,23.348840713500977
2018-09-24,23.386999130249023,23.350000381469727,23.350000381469727,23.386999130249023,89700.0,23.31593894958496
2018-09-25,23.600000381469727,23.420000076293945,23.600000381469727,23.510000228881836,5100.0,23.438568115234375
2018-09-26,23.549999237060547,23.399999618530273,23.413000106811523,23.437999725341797,8300.0,23.36678695678711
2018-09-27,23.559999465942383,23.417999267578125,23.417999267578125,23.440000534057617,7400.0,23.3687801361084
2018-09-28,23.479999542236328,23.479999542236328,23.479999542236328,23.479999542236328,1100.0,23.40865707397461
2018-10-01,23.670000076293945,23.51300048828125,23.670000076293945,23.51300048828125,1200.0,23.441558837890625
2018-10-02,23.5,23.489999771118164,23.5,23.489999771118164,1100.0,23.41862678527832
2018-10-03,23.76099967956543,23.65999984741211,23.690000534057617,23.694000244140625,1000.0,23.62200927734375
2018-10-04,23.329999923706055,23.27199935913086,23.27199935913086,23.329999923706055,1200.0,23.259113311767578
2018-10-05,23.290000915527344,23.170000076293945,23.260000228881836,23.280000686645508,1600.0,23.209266662597656
2018-10-08,23.280000686645508,23.280000686645508,23.280000686645508,23.280000686645508,0.0,23.209266662597656
2018-10-09,23.225000381469727,23.225000381469727,23.225000381469727,23.225000381469727,700.0,23.154434204101562
2018-10-10,23.09000015258789,23.040000915527344,23.09000015258789,23.040000915527344,700.0,22.969995498657227
2018-10-11,22.5,22.0,22.5,22.079999923706055,1200.0,22.012910842895508
2018-10-12,22.5,22.329999923706055,22.469999313354492,22.450000762939453,1900.0,22.38178825378418
2018-10-15,22.450000762939453,22.450000762939453,22.450000762939453,22.450000762939453,0.0,22.38178825378418
2018-10-16,22.766000747680664,22.766000747680664,22.766000747680664,22.766000747680664,500.0,22.696828842163086
2018-10-17,22.969999313354492,22.709999084472656,22.90999984741211,22.969999313354492,1800.0,22.90020751953125
2018-10-18,23.209999084472656,22.639999389648438,23.209999084472656,22.639999389648438,800.0,22.571210861206055
2018-10-19,22.600000381469727,22.459999084472656,22.600000381469727,22.459999084472656,1700.0,22.391756057739258
2018-10-22,22.489999771118164,22.350000381469727,22.399999618530273,22.489999771118164,800.0,22.42166519165039
2018-10-23,22.389999389648438,22.0,22.049999237060547,22.389999389648438,1400.0,22.321969985961914
2018-10-24,22.003000259399414,21.469999313354492,21.815000534057617,21.469999313354492,1800.0,21.40476417541504
2018-10-25,21.850000381469727,21.195999145507812,21.299999237060547,21.850000381469727,2100.0,21.783611297607422
2018-10-26,21.770000457763672,21.40999984741211,21.65999984741211,21.68000030517578,1500.0,21.61412811279297
2018-10-29,21.920000076293945,21.719999313354492,21.920000076293945,21.799999237060547,900.0,21.733762741088867
2018-10-30,21.618000030517578,21.361000061035156,21.600000381469727,21.618000030517578,1800.0,21.552316665649414
2018-10-31,21.90999984741211,21.780000686645508,21.860000610351562,21.780000686645508,3100.0,21.713825225830078
2018-11-01,22.218000411987305,22.218000411987305,22.218000411987305,22.218000411987305,2500.0,22.150493621826172
2018-11-02,22.2450008392334,22.2450008392334,22.2450008392334,22.2450008392334,300.0,22.177410125732422
2018-11-05,22.56999969482422,22.424999237060547,22.56999969482422,22.510000228881836,1200.0,22.441606521606445
2018-11-06,22.604999542236328,22.3700008392334,22.604999542236328,22.3700008392334,500.0,22.302030563354492
2018-11-07,22.899999618530273,22.799999237060547,22.829999923706055,22.898000717163086,2900.0,22.828428268432617
2018-11-08,23.040000915527344,22.510000228881836,23.040000915527344,22.700000762939453,6000.0,22.63102912902832
2018-11-09,22.290000915527344,22.27899932861328,22.27899932861328,22.290000915527344,600.0,22.222274780273438
2018-11-12,22.1299991607666,21.93000030517578,22.1299991607666,21.93000030517578,600.0,21.86336898803711
2018-11-13,22.170000076293945,21.680999755859375,22.170000076293945,21.700000762939453,1600.0,21.634065628051758
2018-11-14,21.56800079345703,21.56800079345703,21.56800079345703,21.56800079345703,100.0,21.50246810913086
2018-11-15,21.238000869750977,21.1200008392334,21.1200008392334,21.238000869750977,900.0,21.173471450805664
2018-11-16,21.238000869750977,21.238000869750977,21.238000869750977,21.238000869750977,100.0,21.173471450805664
2018-11-19,21.579999923706055,21.219999313354492,21.51799964904785,21.270999908447266,3300.0,21.206369400024414
2018-11-20,21.118000030517578,21.0,21.118000030517578,21.06999969482422,2400.0,21.0059814453125
2018-11-21,20.985000610351562,20.90999984741211,20.985000610351562,20.90999984741211,500.0,20.846467971801758
2018-11-23,21.135000228881836,20.82900047302246,20.82900047302246,21.135000228881836,800.0,21.070783615112305
2018-11-26,21.219999313354492,21.128999710083008,21.194000244140625,21.128999710083008,1300.0,21.064802169799805
2018-11-27,21.128999710083008,21.128999710083008,21.128999710083008,21.128999710083008,100.0,21.064802169799805
2018-11-28,21.38800048828125,21.1200008392334,21.360000610351562,21.3799991607666,2000.0,21.31503677368164
2018-11-29,21.65999984741211,21.56399917602539,21.56399917602539,21.65999984741211,900.0,21.594186782836914
2018-11-30,21.691999435424805,21.209999084472656,21.209999084472656,21.691999435424805,700.0,21.626089096069336
2018-12-03,22.059999465942383,22.049999237060547,22.049999237060547,22.052000045776367,2300.0,21.984996795654297
2018-12-04,22.094999313354492,21.56100082397461,22.049999237060547,21.565000534057617,1700.0,21.49947738647461
2018-12-06,21.399999618530273,21.18000030517578,21.399999618530273,21.18000030517578,1100.0,21.115646362304688
2018-12-07,21.00200080871582,20.940000534057617,21.00200080871582,20.940000534057617,500.0,20.87637710571289
2018-12-10,20.854000091552734,20.804000854492188,20.854000091552734,20.829999923706055,1300.0,20.76671028137207
2018-12-11,21.059999465942383,20.8799991607666,21.059999465942383,20.8799991607666,3000.0,20.816556930541992
2018-12-12,20.8799991607666,20.8799991607666,20.8799991607666,20.8799991607666,100.0,20.816556930541992
2018-12-13,21.079999923706055,21.079999923706055,21.079999923706055,21.079999923706055,200.0,21.015949249267578
2018-12-14,20.690000534057617,20.299999237060547,20.690000534057617,20.299999237060547,2100.0,20.238319396972656
2018-12-17,20.309999465942383,20.0,20.12700080871582,20.0,2100.0,19.939231872558594
2018-12-18,20.1200008392334,20.010000228881836,20.1200008392334,20.010000228881836,800.0,19.986175537109375
2018-12-19,19.90999984741211,19.15999984741211,19.90999984741211,19.15999984741211,2300.0,19.137187957763672
2018-12-20,19.1299991607666,18.729999542236328,19.06999969482422,18.729999542236328,3700.0,18.707698822021484
2018-12-21,18.610000610351562,18.40999984741211,18.610000610351562,18.40999984741211,1400.0,18.388080596923828
2018-12-24,18.43000030517578,17.940000534057617,18.43000030517578,18.25,1900.0,18.228271484375
2018-12-26,18.700000762939453,18.06100082397461,18.06100082397461,18.700000762939453,1400.0,18.677736282348633
2018-12-27,18.57200050354004,18.32200050354004,18.57200050354004,18.5,2400.0,18.47797393798828
2018-12-28,19.040000915527344,18.889999389648438,18.889999389648438,19.040000915527344,4900.0,19.017332077026367
2018-12-31,19.243000030517578,19.139999389648438,19.243000030517578,19.209999084472656,1400.0,19.1871280670166
2019-01-02,19.350000381469727,19.110000610351562,19.110000610351562,19.209999084472656,3400.0,19.1871280670166
2019-01-03,19.209999084472656,19.209999084472656,19.209999084472656,19.209999084472656,100.0,19.1871280670166
2019-01-04,19.222999572753906,19.222999572753906,19.222999572753906,19.222999572753906,300.0,19.20011329650879
2019-01-07,19.75,19.75,19.75,19.75,100.0,19.726486206054688
2019-01-08,19.95199966430664,19.770000457763672,19.770000457763672,19.950000762939453,1900.0,19.92624855041504
2019-01-09,20.041000366210938,19.959999084472656,19.959999084472656,20.041000366210938,1400.0,20.017139434814453
2019-01-10,20.15999984741211,19.920000076293945,20.15999984741211,20.049999237060547,1500.0,20.026126861572266
2019-01-11,20.049999237060547,20.049999237060547,20.049999237060547,20.049999237060547,600.0,20.026126861572266
2019-01-14,20.260000228881836,19.833999633789062,20.260000228881836,19.891000747680664,3500.0,19.867319107055664
2019-01-15,20.014999389648438,20.010000228881836,20.014999389648438,20.010000228881836,400.0,19.986175537109375
2019-01-16,20.260000228881836,20.1200008392334,20.1200008392334,20.208999633789062,2400.0,20.184938430786133
2019-01-17,20.415000915527344,20.149999618530273,20.149999618530273,20.299999237060547,4500.0,20.275829315185547
2019-01-18,20.469999313354492,20.33099937438965,20.33300018310547,20.469999313354492,1100.0,20.445627212524414
2019-01-22,20.5,20.18000030517578,20.5,20.18000030517578,1500.0,20.155973434448242
2019-01-23,20.489999771118164,20.059999465942383,20.489999771118164,20.059999465942383,3100.0,20.036115646362305
2019-01-24,20.059999465942383,20.059999465942383,20.059999465942383,20.059999465942383,100.0,20.036115646362305
2019-01-25,20.0,19.89699935913086,19.910999298095703,20.0,3800.0,19.97618865966797
2019-01-28,20.0,20.0,20.0,20.0,100.0,19.97618865966797
2019-01-29,19.825000762939453,19.732999801635742,19.775999069213867,19.795000076293945,5800.0,19.771432876586914
2019-01-30,19.934999465942383,19.934999465942383,19.934999465942383,19.934999465942383,400.0,19.911264419555664
2019-01-31,20.450000762939453,20.357999801635742,20.450000762939453,20.375,2000.0,20.35074234008789
2019-02-01,20.469999313354492,20.469999313354492,20.469999313354492,20.469999313354492,500.0,20.445627212524414
2019-02-04,20.559999465942383,20.408000946044922,20.450000762939453,20.559999465942383,1900.0,20.535520553588867
2019-02-05,20.87299919128418,20.799999237060547,20.87299919128418,20.799999237060547,700.0,20.77523422241211
2019-02-06,20.698999404907227,20.634000778198242,20.65999984741211,20.698999404907227,2600.0,20.674354553222656
2019-02-07,20.459999084472656,20.389999389648438,20.402999877929688,20.389999389648438,800.0,20.36572265625
2019-02-08,20.520000457763672,20.47599983215332,20.47599983215332,20.520000457763672,600.0,20.495569229125977
2019-02-11,20.450000762939453,20.450000762939453,20.450000762939453,20.450000762939453,300.0,20.4256534576416
2019-02-12,20.8799991607666,20.735000610351562,20.780000686645508,20.826000213623047,2500.0,20.801204681396484
2019-02-13,20.90999984741211,20.790000915527344,20.90999984741211,20.805999755859375,2600.0,20.78122901916504
2019-02-14,21.058000564575195,20.825000762939453,20.825000762939453,21.058000564575195,1800.0,21.032928466796875
2019-02-15,21.242000579833984,21.165000915527344,21.165000915527344,21.242000579833984,500.0,21.21670913696289
2019-02-19,21.469999313354492,21.1200008392334,21.469999313354492,21.1200008392334,500.0,21.0948543548584
2019-02-20,21.086999893188477,20.985000610351562,20.985000610351562,21.040000915527344,600.0,21.014949798583984
2019-02-21,20.940000534057617,20.884000778198242,20.920000076293945,20.884000778198242,1000.0,20.8591365814209
2019-02-22,21.139999389648438,21.139999389648438,21.139999389648438,21.139999389648438,400.0,21.114830017089844
2019-02-25,21.780000686645508,21.780000686645508,21.780000686645508,21.780000686645508,1100.0,21.754070281982422
2019-02-26,21.440000534057617,21.222000122070312,21.440000534057617,21.222000122070312,500.0,21.196733474731445
2019-02-27,21.3799991607666,21.320999145507812,21.34000015258789,21.3799991607666,6900.0,21.354543685913086
2019-02-28,21.860000610351562,21.75,21.860000610351562,21.829999923706055,1200.0,21.80400848388672
2019-03-01,22.030000686645508,21.799999237060547,21.799999237060547,21.992000579833984,3000.0,21.965816497802734
2019-03-04,22.799999237060547,21.679000854492188,22.799999237060547,21.719999313354492,11200.0,21.69413948059082
2019-03-05,21.815000534057617,21.735000610351562,21.815000534057617,21.75,900.0,21.724103927612305
2019-03-06,21.520000457763672,21.3700008392334,21.520000457763672,21.389999389648438,300.0,21.364532470703125
2019-03-07,21.15999984741211,21.149999618530273,21.152000427246094,21.15999984741211,1100.0,21.134807586669922
2019-03-08,20.940000534057617,20.93000030517578,20.940000534057617,20.93000030517578,1400.0,20.905080795288086
2019-03-11,20.93000030517578,20.93000030517578,20.93000030517578,20.93000030517578,100.0,20.905080795288086
2019-03-12,21.489999771118164,21.47100067138672,21.486000061035156,21.47100067138672,1200.0,21.445436477661133
2019-03-13,21.47100067138672,21.47100067138672,21.47100067138672,21.47100067138672,100.0,21.445436477661133
2019-03-14,21.790000915527344,21.490999221801758,21.790000915527344,21.490999221801758,18300.0,21.465412139892578
2019-03-15,21.577999114990234,21.500999450683594,21.577999114990234,21.500999450683594,400.0,21.475400924682617
2019-03-18,21.610000610351562,21.530000686645508,21.594999313354492,21.604000091552734,2200.0,21.578277587890625
2019-03-19,22.010000228881836,21.66200065612793,22.010000228881836,21.83799934387207,1900.0,21.81199836730957
2019-03-20,21.83799934387207,21.83799934387207,21.83799934387207,21.83799934387207,200.0,21.81199836730957
2019-03-21,21.799999237060547,21.729999542236328,21.799999237060547,21.78700065612793,900.0,21.78700065612793
2019-03-22,21.78700065612793,21.78700065612793,21.78700065612793,21.78700065612793,100.0,21.78700065612793
2019-03-25,21.78700065612793,21.78700065612793,21.78700065612793,21.78700065612793,300.0,21.78700065612793
2019-03-26,21.440000534057617,21.420000076293945,21.440000534057617,21.420000076293945,1300.0,21.420000076293945
2019-03-27,21.309999465942383,21.100000381469727,21.309999465942383,21.190000534057617,3700.0,21.190000534057617
2019-03-28,21.31399917602539,21.20800018310547,21.25,21.31399917602539,1700.0,21.31399917602539
2019-03-29,21.3700008392334,21.3700008392334,21.3700008392334,21.3700008392334,300.0,21.3700008392334
2019-04-01,21.579999923706055,21.489999771118164,21.579999923706055,21.489999771118164,1000.0,21.489999771118164
2019-04-02,21.524999618530273,21.476999282836914,21.476999282836914,21.524999618530273,200.0,21.524999618530273
2019-04-03,21.56999969482422,21.489999771118164,21.56999969482422,21.489999771118164,600.0,21.489999771118164
2019-04-04,21.489999771118164,21.40999984741211,21.489999771118164,21.40999984741211,1200.0,21.40999984741211
2019-04-05,21.79599952697754,21.700000762939453,21.709999084472656,21.76799964904785,1800.0,21.76799964904785
2019-04-08,21.719999313354492,21.6299991607666,21.6299991607666,21.719999313354492,1600.0,21.719999313354492
2019-04-09,21.600000381469727,21.43000030517578,21.600000381469727,21.43000030517578,2800.0,21.43000030517578
2019-04-10,21.43000030517578,21.43000030517578,21.43000030517578,21.43000030517578,100.0,21.43000030517578
2019-04-11,21.280000686645508,21.139999389648438,21.280000686645508,21.209999084472656,1600.0,21.209999084472656
2019-04-12,21.184999465942383,21.049999237060547,21.184999465942383,21.049999237060547,900.0,21.049999237060547
2019-04-15,20.989999771118164,20.899999618530273,20.959999084472656,20.979999542236328,13100.0,20.979999542236328
2019-04-16,20.985000610351562,20.760000228881836,20.985000610351562,20.760000228881836,400.0,20.760000228881836
2019-04-17,20.433000564575195,19.930999755859375,20.40999984741211,20.040000915527344,12300.0,20.040000915527344
2019-04-18,20.184999465942383,19.854999542236328,20.18000030517578,20.084999084472656,2400.0,20.084999084472656
2019-04-22,20.209999084472656,20.059999465942383,20.209999084472656,20.059999465942383,3500.0,20.059999465942383
2019-04-23,20.559999465942383,20.290000915527344,20.290000915527344,20.559999465942383,2000.0,20.559999465942383
2019-04-24,21.059999465942383,20.42799949645996,20.45800018310547,20.6299991607666,100900.0,20.6299991607666
2019-04-25,21.020000457763672,20.320999145507812,21.020000457763672,20.697999954223633,4300.0,20.697999954223633
2019-04-26,20.898000717163086,20.75,20.81999969482422,20.898000717163086,5600.0,20.898000717163086
2019-04-29,21.149999618530273,20.94499969482422,21.149999618530273,21.04599952697754,1400.0,21.04599952697754
2019-04-30,21.110000610351562,20.788000106811523,20.889999389648438,20.940000534057617,21800.0,20.940000534057617
2019-05-01,20.996000289916992,20.996000289916992,20.996000289916992,20.996000289916992,200.0,20.996000289916992
2019-05-02,20.77400016784668,20.77400016784668,20.77400016784668,20.77400016784668,400.0,20.77400016784668
2019-05-03,21.149999618530273,20.947999954223633,20.999000549316406,21.0939998626709,10700.0,21.0939998626709
2019-05-06,21.079999923706055,21.079999923706055,21.079999923706055,21.079999923706055,1300.0,21.079999923706055
2019-05-07,20.920000076293945,20.75,20.920000076293945,20.75,2700.0,20.75
2019-05-08,20.75,20.75,20.75,20.75,100.0,20.75
2019-05-09,21.020999908447266,20.719999313354492,20.719999313354492,21.020999908447266,1500.0,21.020999908447266
2019-05-10,20.961000442504883,20.819000244140625,20.940000534057617,20.961000442504883,900.0,20.961000442504883
2019-05-13,20.5,20.325000762939453,20.5,20.325000762939453,800.0,20.325000762939453
2019-05-14,20.729999542236328,20.479999542236328,20.729999542236328,20.559999465942383,800.0,20.559999465942383
2019-05-15,20.518999099731445,20.469999313354492,20.469999313354492,20.509000778198242,1600.0,20.509000778198242
2019-05-16,20.892000198364258,20.8799991607666,20.8799991607666,20.8799991607666,1400.0,20.8799991607666
2019-05-17,20.829999923706055,20.790000915527344,20.790000915527344,20.80900001525879,2600.0,20.80900001525879
2019-05-20,20.468000411987305,20.437000274658203,20.437000274658203,20.468000411987305,800.0,20.468000411987305
2019-05-21,20.766000747680664,20.735000610351562,20.766000747680664,20.735000610351562,600.0,20.735000610351562
2019-05-22,20.670000076293945,20.670000076293945,20.670000076293945,20.670000076293945,500.0,20.670000076293945
2019-05-23,20.649999618530273,20.520000457763672,20.639999389648438,20.649999618530273,900.0,20.649999618530273
2019-05-24,20.69700050354004,20.66699981689453,20.66699981689453,20.69700050354004,800.0,20.69700050354004
