Date,High,Low,Open,Close,Volume,Adj Close
2015-01-02,2.140000104904175,2.140000104904175,2.140000104904175,2.140000104904175,0.0,2.1042802333831787
2015-01-05,2.380000114440918,2.2799999713897705,2.380000114440918,2.3399999141693115,3199700.0,2.3009417057037354
2015-01-06,2.3399999141693115,2.240000009536743,2.319999933242798,2.3399999141693115,1460900.0,2.3009417057037354
2015-01-07,2.4800000190734863,2.3399999141693115,2.3399999141693115,2.359999895095825,5858100.0,2.320608139038086
2015-01-08,2.4200000762939453,2.319999933242798,2.380000114440918,2.319999933242798,2738900.0,2.281275510787964
2015-01-09,2.559999942779541,2.3399999141693115,2.3399999141693115,2.359999895095825,15401500.0,2.320608139038086
2015-01-12,2.4600000381469727,2.3399999141693115,2.4000000953674316,2.359999895095825,4108000.0,2.320608139038086
2015-01-13,2.5,2.3399999141693115,2.380000114440918,2.4000000953674316,13200200.0,2.359940767288208
2015-01-14,2.5399999618530273,2.4000000953674316,2.4200000762939453,2.440000057220459,13846700.0,2.399272918701172
2015-01-15,2.4800000190734863,2.4200000762939453,2.4600000381469727,2.4200000762939453,4776400.0,2.3796064853668213
2015-01-16,2.4800000190734863,2.4000000953674316,2.4200000762939453,2.4600000381469727,5820500.0,2.4189391136169434
2015-01-20,2.700000047683716,2.5199999809265137,2.5199999809265137,2.680000066757202,46548900.0,2.6352667808532715
2015-01-21,2.880000114440918,2.680000066757202,2.819999933242798,2.7200000286102295,42072600.0,2.6745986938476562
2015-01-22,2.799999952316284,2.6600000858306885,2.740000009536743,2.7799999713897705,21872600.0,2.733597755432129
2015-01-23,3.2200000286102295,2.819999933242798,2.9000000953674316,2.9000000953674316,112907800.0,2.851595163345337
2015-01-26,3.059999942779541,2.9000000953674316,2.9000000953674316,2.9600000381469727,32153600.0,2.910593032836914
2015-01-27,3.359999895095825,2.819999933242798,2.940000057220459,3.299999952316284,88503100.0,3.244917631149292
2015-01-28,3.5199999809265137,3.119999885559082,3.2200000286102295,3.200000047683716,74436700.0,3.1465868949890137
2015-01-29,3.5199999809265137,3.200000047683716,3.4800000190734863,3.200000047683716,34407200.0,3.1465868949890137
2015-01-30,3.3399999141693115,3.1600000858306885,3.299999952316284,3.180000066757202,10143500.0,3.1269211769104004
2015-02-02,3.140000104904175,3.0,3.0999999046325684,3.0799999237060547,3156700.0,3.028590202331543
2015-02-03,3.119999885559082,3.0,3.0399999618530273,3.119999885559082,1821400.0,3.067922592163086
2015-02-04,3.4200000762939453,3.0999999046325684,3.140000104904175,3.259999990463257,11329700.0,3.2055857181549072
2015-02-05,3.259999990463257,3.0399999618530273,3.240000009536743,3.119999885559082,5266000.0,3.067922592163086
2015-02-06,3.140000104904175,3.059999942779541,3.0999999046325684,3.0999999046325684,1673000.0,3.0482559204101562
2015-02-09,3.0799999237060547,3.0,3.059999942779541,3.0,1805000.0,2.949925422668457
2015-02-10,3.0399999618530273,2.819999933242798,2.9000000953674316,2.9600000381469727,3080900.0,2.910593032836914
2015-02-11,3.059999942779541,2.880000114440918,2.880000114440918,3.059999942779541,2089500.0,3.0089237689971924
2015-02-12,3.140000104904175,3.0399999618530273,3.119999885559082,3.059999942779541,1467000.0,3.0089237689971924
2015-02-13,3.1600000858306885,3.0399999618530273,3.0399999618530273,3.119999885559082,1601600.0,3.067922592163086
2015-02-17,3.0399999618530273,2.9600000381469727,3.0399999618530273,2.9600000381469727,2094600.0,2.910593032836914
2015-02-18,3.0,2.9200000762939453,2.9200000762939453,2.9600000381469727,798800.0,2.910593032836914
2015-02-19,3.0999999046325684,2.9600000381469727,2.9600000381469727,3.0199999809265137,1840300.0,2.9695918560028076
2015-02-20,3.0999999046325684,3.0399999618530273,3.0999999046325684,3.059999942779541,770100.0,3.0089237689971924
2015-02-23,3.059999942779541,3.0199999809265137,3.0399999618530273,3.059999942779541,1180100.0,3.0089237689971924
2015-02-24,3.200000047683716,3.0399999618530273,3.0399999618530273,3.200000047683716,7520700.0,3.1465868949890137
2015-02-25,3.2200000286102295,3.059999942779541,3.2200000286102295,3.140000104904175,3647900.0,3.0875887870788574
2015-02-26,3.240000009536743,3.0199999809265137,3.140000104904175,3.0999999046325684,5063700.0,3.0482559204101562
2015-02-27,3.1600000858306885,3.059999942779541,3.0799999237060547,3.140000104904175,2204500.0,3.0875887870788574
2015-03-02,3.119999885559082,2.9800000190734863,3.119999885559082,3.059999942779541,5468700.0,3.0089237689971924
2015-03-03,3.059999942779541,2.940000057220459,3.059999942779541,2.9600000381469727,3696400.0,2.910593032836914
2015-03-04,2.9600000381469727,2.9600000381469727,2.9600000381469727,2.9600000381469727,0.0,2.910593032836914
2015-03-05,2.9000000953674316,2.740000009536743,2.9000000953674316,2.859999895095825,2057800.0,2.8122622966766357
2015-03-06,2.819999933242798,2.7200000286102295,2.7799999713897705,2.819999933242798,2077300.0,2.7729296684265137
2015-03-09,3.0,2.819999933242798,2.859999895095825,2.9800000190734863,2318200.0,2.9302592277526855
2015-03-10,2.9800000190734863,2.880000114440918,2.940000057220459,2.880000114440918,851500.0,2.8319289684295654
2015-03-11,2.9000000953674316,2.7799999713897705,2.819999933242798,2.9000000953674316,933700.0,2.851595163345337
2015-03-12,2.9600000381469727,2.8399999141693115,2.9000000953674316,2.9600000381469727,595800.0,2.910593032836914
2015-03-13,2.9800000190734863,2.859999895095825,2.9000000953674316,2.940000057220459,946600.0,2.8909270763397217
2015-03-16,2.9800000190734863,2.799999952316284,2.9600000381469727,2.9000000953674316,1949500.0,2.851595163345337
2015-03-17,2.9200000762939453,2.700000047683716,2.9200000762939453,2.700000047683716,3426400.0,2.654933214187622
2015-03-18,2.740000009536743,2.5999999046325684,2.640000104904175,2.700000047683716,2180100.0,2.654933214187622
2015-03-19,2.740000009536743,2.640000104904175,2.700000047683716,2.6600000858306885,860200.0,2.615600824356079
2015-03-20,2.700000047683716,2.619999885559082,2.619999885559082,2.680000066757202,407500.0,2.6352667808532715
2015-03-23,2.6600000858306885,2.559999942779541,2.640000104904175,2.559999942779541,2585800.0,2.5172696113586426
2015-03-24,2.5399999618530273,2.299999952316284,2.5399999618530273,2.4200000762939453,1597200.0,2.3796064853668213
2015-03-25,2.5199999809265137,2.4000000953674316,2.4800000190734863,2.4000000953674316,414500.0,2.359940767288208
2015-03-26,2.759999990463257,2.4000000953674316,2.440000057220459,2.5799999237060547,7575800.0,2.536935567855835
2016-03-18,20.1200008392334,20.079999923706055,20.09000015258789,20.09000015258789,12300.0,19.754669189453125
2016-03-22,20.1299991607666,20.049999237060547,20.100000381469727,20.100000381469727,14800.0,19.764501571655273
2016-03-23,20.06999969482422,20.03700065612793,20.06999969482422,20.03700065612793,39100.0,19.702550888061523
2016-03-24,20.030000686645508,19.959999084472656,19.979999542236328,20.030000686645508,75600.0,19.695667266845703
2016-03-28,20.059999465942383,20.013999938964844,20.040000915527344,20.040000915527344,26100.0,19.705503463745117
2016-03-29,20.239999771118164,19.979000091552734,20.239999771118164,20.200000762939453,66300.0,19.86283302307129
2016-03-30,20.360000610351562,20.18000030517578,20.360000610351562,20.200000762939453,294300.0,19.86283302307129
2016-03-31,20.290000915527344,20.200000762939453,20.290000915527344,20.239999771118164,243100.0,19.902162551879883
2016-04-01,20.260000228881836,20.1200008392334,20.260000228881836,20.239999771118164,296100.0,19.902162551879883
2016-04-04,20.31999969482422,20.1299991607666,20.31999969482422,20.1299991607666,281200.0,19.793996810913086
2016-04-05,20.09000015258789,20.000999450683594,20.09000015258789,20.010000228881836,85500.0,19.67600440979004
2016-04-06,20.149999618530273,19.969999313354492,20.149999618530273,20.149999618530273,112800.0,19.81366539001465
2016-04-07,20.239999771118164,19.969999313354492,20.239999771118164,20.030000686645508,43100.0,19.695667266845703
2016-04-08,20.149999618530273,20.059999465942383,20.1299991607666,20.09000015258789,44200.0,19.754669189453125
2016-04-11,20.329999923706055,20.0,20.329999923706055,20.0,76500.0,19.66617202758789
2016-04-12,20.32699966430664,19.979999542236328,20.1299991607666,20.299999237060547,43100.0,19.96116065979004
2016-04-13,20.520000457763672,20.31800079345703,20.520000457763672,20.440000534057617,136000.0,20.098825454711914
2016-04-14,20.559999465942383,20.336999893188477,20.559999465942383,20.360000610351562,295500.0,20.020164489746094
2016-04-15,20.360000610351562,20.200000762939453,20.270000457763672,20.350000381469727,119000.0,20.01032829284668
2016-04-18,20.5,20.280000686645508,20.329999923706055,20.450000762939453,63400.0,20.108659744262695
2016-04-19,20.6200008392334,20.479999542236328,20.6200008392334,20.559999465942383,95600.0,20.21682357788086
2016-04-20,20.709999084472656,20.5,20.709999084472656,20.579999923706055,76000.0,20.23649024963379
2016-04-21,20.700000762939453,20.3799991607666,20.700000762939453,20.399999618530273,62000.0,20.059494018554688
2016-04-22,20.53700065612793,20.440000534057617,20.489999771118164,20.520000457763672,60900.0,20.177488327026367
2016-04-25,20.59000015258789,20.35700035095215,20.59000015258789,20.420000076293945,168500.0,20.079160690307617
2016-04-26,20.549999237060547,20.440000534057617,20.549999237060547,20.540000915527344,137600.0,20.19715690612793
2016-04-27,20.799999237060547,20.610000610351562,20.687999725341797,20.743999481201172,92600.0,20.39775276184082
2016-04-28,20.889999389648438,20.600000381469727,20.600000381469727,20.6200008392334,77200.0,20.27582359313965
2016-04-29,20.709999084472656,20.459999084472656,20.687000274658203,20.639999389648438,241400.0,20.29548454284668
2016-05-02,20.75,20.597999572753906,20.65999984741211,20.739999771118164,39000.0,20.393817901611328
2016-05-03,20.559999465942383,20.389999389648438,20.559999465942383,20.440000534057617,68100.0,20.098825454711914
2016-05-04,20.469999313354492,20.270000457763672,20.420000076293945,20.34000015258789,44900.0,20.0004940032959
2016-05-05,20.440000534057617,20.207000732421875,20.420000076293945,20.25,31900.0,19.91199493408203
2016-05-06,20.360000610351562,20.200000762939453,20.200000762939453,20.34000015258789,17200.0,20.0004940032959
2016-05-09,20.450000762939453,20.239999771118164,20.450000762939453,20.280000686645508,51300.0,19.941497802734375
2016-05-10,20.59000015258789,20.360000610351562,20.5,20.59000015258789,68300.0,20.246322631835938
2016-05-11,20.6299991607666,20.40999984741211,20.6299991607666,20.450000762939453,55300.0,20.108659744262695
2016-05-12,20.559999465942383,20.30699920654297,20.559999465942383,20.420000076293945,95100.0,20.079160690307617
2016-05-13,20.5,20.200000762939453,20.5,20.209999084472656,237300.0,19.872661590576172
2016-05-16,20.360000610351562,20.280000686645508,20.360000610351562,20.31999969482422,37200.0,19.980825424194336
2016-05-17,20.350000381469727,20.172000885009766,20.34000015258789,20.202999114990234,246500.0,19.865779876708984
2016-05-18,20.229999542236328,20.020000457763672,20.170000076293945,20.09000015258789,76800.0,19.754669189453125
2016-05-19,20.108999252319336,19.959999084472656,20.04400062561035,20.100000381469727,77000.0,19.764501571655273
2016-05-20,20.229999542236328,20.13800048828125,20.229999542236328,20.190000534057617,70200.0,19.85300064086914
2016-05-23,20.209999084472656,20.1299991607666,20.200000762939453,20.139999389648438,58300.0,19.803831100463867
2016-05-24,20.290000915527344,20.19700050354004,20.229000091552734,20.290000915527344,26300.0,19.951330184936523
2016-05-25,20.40999984741211,20.29199981689453,20.399999618530273,20.399999618530273,234700.0,20.059494018554688
2016-05-26,20.5,20.399999618530273,20.5,20.399999618530273,1269400.0,20.059494018554688
2016-05-27,20.5,20.399999618530273,20.5,20.479999542236328,238700.0,20.13815689086914
2016-05-31,20.559999465942383,20.452999114990234,20.545000076293945,20.510000228881836,33900.0,20.16765785217285
2016-06-01,20.690000534057617,20.450000762939453,20.690000534057617,20.559999465942383,67000.0,20.21682357788086
2016-06-02,20.600000381469727,20.5,20.520000457763672,20.600000381469727,69300.0,20.256155014038086
2016-06-03,20.649999618530273,20.520000457763672,20.59000015258789,20.579999923706055,248200.0,20.23649024963379
2016-06-06,20.739999771118164,20.6299991607666,20.739999771118164,20.709999084472656,37400.0,20.364316940307617
2016-06-07,20.809999465942383,20.549999237060547,20.549999237060547,20.780000686645508,89100.0,20.433151245117188
2016-06-08,20.850000381469727,20.760000228881836,20.850000381469727,20.799999237060547,1057000.0,20.452816009521484
2016-06-09,20.799999237060547,20.709999084472656,20.799999237060547,20.790000915527344,194700.0,20.442983627319336
2016-06-10,20.799999237060547,20.489999771118164,20.799999237060547,20.510000228881836,99200.0,20.16765785217285
2016-06-13,20.600000381469727,20.389999389648438,20.499000549316406,20.389999389648438,57800.0,20.04965591430664
2016-06-14,20.43000030517578,20.239999771118164,20.420000076293945,20.37299919128418,41000.0,20.032941818237305
2016-06-15,20.597999572753906,20.384000778198242,20.385000228881836,20.40999984741211,136800.0,20.069326400756836
2016-06-16,20.389999389648438,20.145000457763672,20.25,20.389999389648438,152300.0,20.04965591430664
2016-06-17,20.540000915527344,20.389999389648438,20.540000915527344,20.459999084472656,333100.0,20.118488311767578
2016-06-20,20.75,20.639999389648438,20.68000030517578,20.639999389648438,46500.0,20.29548454284668
2016-06-21,20.760000228881836,20.559999465942383,20.56399917602539,20.719999313354492,56100.0,20.374149322509766
2016-06-22,20.84000015258789,20.610000610351562,20.84000015258789,20.610000610351562,113800.0,20.265987396240234
2016-06-23,20.899999618530273,20.739999771118164,20.850000381469727,20.889999389648438,41000.0,20.54131317138672
2016-06-24,20.525999069213867,20.190000534057617,20.190000534057617,20.270000457763672,103800.0,19.931665420532227
2016-06-27,20.260000228881836,19.700000762939453,20.260000228881836,19.799999237060547,365900.0,19.469507217407227
2016-06-28,20.14299964904785,20.0,20.0,20.139999389648438,42100.0,19.803831100463867
2016-06-29,20.549999237060547,20.350000381469727,20.389999389648438,20.510000228881836,60600.0,20.16765785217285
2016-06-30,20.770000457763672,20.459999084472656,20.459999084472656,20.770000457763672,486400.0,20.423320770263672
2016-07-01,20.952999114990234,20.860000610351562,20.899999618530273,20.940000534057617,50100.0,20.590482711791992
2016-07-05,20.690000534057617,20.549999237060547,20.63800048828125,20.670000076293945,65200.0,20.324987411499023
2016-07-06,20.790000915527344,20.527000427246094,20.56999969482422,20.780000686645508,115600.0,20.433151245117188
2016-07-07,20.950000762939453,20.625999450683594,20.940000534057617,20.719999313354492,268000.0,20.374149322509766
2016-07-08,21.09000015258789,20.809999465942383,20.809999465942383,21.049999237060547,23600.0,20.698640823364258
2016-07-11,21.15999984741211,21.049999237060547,21.131999969482422,21.1200008392334,252900.0,20.76747703552246
2016-07-12,21.43000030517578,21.270000457763672,21.43000030517578,21.31999969482422,354800.0,20.964136123657227
2016-07-13,21.450000762939453,21.18000030517578,21.450000762939453,21.239999771118164,61100.0,20.885473251342773
2016-07-14,21.479999542236328,21.280000686645508,21.479999542236328,21.329999923706055,72600.0,20.973966598510742
2016-07-15,21.378999710083008,21.280000686645508,21.336999893188477,21.299999237060547,737300.0,20.944473266601562
2016-07-18,21.3799991607666,21.219999313354492,21.219999313354492,21.3700008392334,107900.0,21.013301849365234
2016-07-19,21.280000686645508,21.197999954223633,21.280000686645508,21.25,48200.0,20.895301818847656
2016-07-20,21.3700008392334,21.170000076293945,21.200000762939453,21.299999237060547,189100.0,20.944473266601562
2016-07-21,21.40999984741211,21.208999633789062,21.349000930786133,21.260000228881836,70300.0,20.905134201049805
2016-07-22,21.367000579833984,21.190000534057617,21.190000534057617,21.350000381469727,45300.0,20.99363899230957
2016-07-25,21.459999084472656,21.26300048828125,21.459999084472656,21.309999465942383,9900.0,20.95430564880371
2016-07-26,21.440000534057617,21.260000228881836,21.3700008392334,21.3700008392334,21600.0,21.013301849365234
2016-07-27,21.3700008392334,21.070999145507812,21.3700008392334,21.139999389648438,68500.0,20.787141799926758
2016-07-28,21.280000686645508,21.128000259399414,21.200000762939453,21.260000228881836,84300.0,20.905134201049805
2016-07-29,21.43000030517578,21.215999603271484,21.31999969482422,21.40999984741211,56000.0,21.05263328552246
2016-08-01,21.360000610351562,21.209999084472656,21.360000610351562,21.209999084472656,61400.0,20.855974197387695
2016-08-02,21.25,20.899999618530273,21.25,21.010000228881836,30300.0,20.65930938720703
2016-08-03,21.18000030517578,20.981000900268555,20.981000900268555,21.18000030517578,127400.0,20.82647132873535
2016-08-04,21.290000915527344,21.1200008392334,21.1200008392334,21.200000762939453,19100.0,20.846141815185547
2016-08-05,21.39699935913086,21.299999237060547,21.360000610351562,21.360000610351562,77100.0,21.00347137451172
2016-08-08,21.479999542236328,21.309999465942383,21.309999465942383,21.420000076293945,47300.0,21.062467575073242
2016-08-09,21.5,21.33099937438965,21.5,21.3700008392334,53100.0,21.013301849365234
2016-08-10,21.413999557495117,21.270000457763672,21.40999984741211,21.299999237060547,38800.0,20.944473266601562
2016-08-11,21.5,21.399999618530273,21.479999542236328,21.469999313354492,142600.0,21.111631393432617
2016-08-12,21.540000915527344,21.43000030517578,21.540000915527344,21.479999542236328,27600.0,21.121463775634766
2016-08-15,21.59000015258789,21.510000228881836,21.549999237060547,21.510000228881836,18600.0,21.150964736938477
2016-08-16,21.420000076293945,21.31999969482422,21.399999618530273,21.31999969482422,944700.0,20.964136123657227
2016-08-17,21.35099983215332,21.170000076293945,21.25,21.329999923706055,38600.0,20.973966598510742
2016-08-18,21.520000457763672,21.37299919128418,21.3799991607666,21.489999771118164,20400.0,21.131301879882812
2016-08-19,21.47800064086914,21.399999618530273,21.43000030517578,21.459999084472656,48900.0,21.10179901123047
2016-08-22,21.459999084472656,21.299999237060547,21.459999084472656,21.350000381469727,62300.0,20.99363899230957
2016-08-23,21.549999237060547,21.440000534057617,21.479999542236328,21.489999771118164,52400.0,21.131301879882812
2016-08-24,21.469999313354492,21.34000015258789,21.459999084472656,21.360000610351562,126000.0,21.00347137451172
2016-08-25,21.420000076293945,21.309999465942383,21.3799991607666,21.350000381469727,53000.0,20.99363899230957
2016-08-26,21.493999481201172,21.149999618530273,21.469999313354492,21.25,86200.0,20.895301818847656
2016-08-29,21.389999389648438,21.209999084472656,21.209999084472656,21.329999923706055,69000.0,20.973966598510742
2016-08-30,21.36400032043457,21.19499969482422,21.357999801635742,21.256999969482422,44100.0,20.90218734741211
2016-08-31,21.268999099731445,21.100000381469727,21.239999771118164,21.19300079345703,53500.0,20.839256286621094
2016-09-01,21.290000915527344,21.049999237060547,21.290000915527344,21.149999618530273,28900.0,20.796974182128906
2016-09-02,21.34600067138672,21.290000915527344,21.329999923706055,21.309999465942383,267600.0,20.95430564880371
2016-09-06,21.479999542236328,21.322999954223633,21.399999618530273,21.469999313354492,59300.0,21.111631393432617
2016-09-07,21.579999923706055,21.40999984741211,21.579999923706055,21.5,93600.0,21.141132354736328
2016-09-08,21.59000015258789,21.420000076293945,21.5,21.549999237060547,228600.0,21.190296173095703
2016-09-09,21.530000686645508,20.90999984741211,21.530000686645508,20.90999984741211,74400.0,20.56097984313965
2016-09-12,21.2189998626709,20.799999237060547,20.799999237060547,21.16699981689453,78800.0,20.813692092895508
2016-09-13,21.1299991607666,20.68000030517578,21.1299991607666,20.799999237060547,286400.0,20.452816009521484
2016-09-14,20.899999618530273,20.68000030517578,20.770000457763672,20.700000762939453,90100.0,20.3544864654541
2016-09-15,20.969999313354492,20.700000762939453,20.729999542236328,20.90999984741211,25800.0,20.56097984313965
2016-09-16,20.920000076293945,20.777000427246094,20.799999237060547,20.920000076293945,22000.0,20.57081413269043
2016-09-19,21.040000915527344,20.874000549316406,21.0,20.920000076293945,17500.0,20.57081413269043
2016-09-20,21.079999923706055,20.799999237060547,21.079999923706055,20.81999969482422,36200.0,20.47248077392578
2016-09-21,21.100000381469727,20.823999404907227,20.833999633789062,21.079999923706055,108000.0,20.765047073364258
2016-09-22,21.309999465942383,21.200000762939453,21.260000228881836,21.299999237060547,59500.0,20.98175621032715
2016-09-23,21.360000610351562,21.12700080871582,21.360000610351562,21.167999267578125,32400.0,20.851730346679688
2016-09-26,21.309999465942383,21.025999069213867,21.309999465942383,21.030000686645508,71600.0,20.71579360961914
2016-09-27,21.100000381469727,20.96299934387207,21.03700065612793,21.040000915527344,29500.0,20.725645065307617
2016-09-28,21.299999237060547,20.94099998474121,21.084999084472656,21.290000915527344,136500.0,20.971908569335938
2016-09-29,21.3700008392334,21.118000030517578,21.309999465942383,21.18600082397461,37200.0,20.869462966918945
2016-09-30,21.399999618530273,21.23900032043457,21.360000610351562,21.34000015258789,35900.0,21.021160125732422
2016-10-03,21.299999237060547,21.15999984741211,21.290000915527344,21.260000228881836,147400.0,20.94235610961914
2016-10-04,21.329999923706055,21.06999969482422,21.309999465942383,21.110000610351562,18900.0,20.794599533081055
2016-10-05,21.349000930786133,21.239999771118164,21.260000228881836,21.299999237060547,22900.0,20.98175621032715
2016-10-06,21.299999237060547,21.166000366210938,21.18000030517578,21.239999771118164,16800.0,20.92265510559082
2016-10-07,21.261999130249023,21.051000595092773,21.239999771118164,21.1299991607666,21700.0,20.814294815063477
2016-10-10,21.350000381469727,21.25,21.25,21.309999465942383,30200.0,20.991609573364258
2016-10-11,21.239999771118164,20.940000534057617,21.229999542236328,21.030000686645508,29900.0,20.71579360961914
2016-10-12,21.059999465942383,20.954999923706055,20.969999313354492,21.040000915527344,20900.0,20.725645065307617
2016-10-13,21.040000915527344,20.764999389648438,20.902999877929688,20.969999313354492,49900.0,20.656688690185547
2016-10-14,21.09000015258789,20.90999984741211,21.031999588012695,20.90999984741211,256400.0,20.597583770751953
2016-10-17,20.923999786376953,20.809999465942383,20.90999984741211,20.829999923706055,43600.0,20.51877784729004
2016-10-18,21.084999084472656,20.989999771118164,20.989999771118164,21.040000915527344,32900.0,20.725645065307617
2016-10-19,21.209999084472656,21.027999877929688,21.059999465942383,21.15999984741211,46300.0,20.843849182128906
2016-10-20,21.239999771118164,20.996000289916992,21.239999771118164,21.051000595092773,40100.0,20.73647689819336
2016-10-21,21.170000076293945,21.006999969482422,21.110000610351562,21.170000076293945,61800.0,20.853700637817383
2016-10-24,21.309999465942383,21.1200008392334,21.309999465942383,21.229999542236328,24900.0,20.91280174255371
2016-10-25,21.219999313354492,21.059999465942383,21.219999313354492,21.079999923706055,71400.0,20.765047073364258
2016-10-26,21.100000381469727,20.989999771118164,21.049999237060547,21.06999969482422,76200.0,20.755191802978516
2016-10-27,21.09000015258789,20.922000885009766,21.09000015258789,20.959999084472656,34100.0,20.64683723449707
2016-10-28,21.10099983215332,20.93000030517578,21.06999969482422,20.950000762939453,32700.0,20.636987686157227
2016-10-31,20.996999740600586,20.910999298095703,20.93000030517578,20.920000076293945,43000.0,20.607433319091797
2016-11-01,20.969999313354492,20.65999984741211,20.899999618530273,20.770000457763672,63900.0,20.459678649902344
2016-11-02,20.649999618530273,20.459999084472656,20.641000747680664,20.5,123700.0,20.19371223449707
2016-11-03,20.579999923706055,20.332000732421875,20.579999923706055,20.350000381469727,53000.0,20.045955657958984
2016-11-04,20.450000762939453,20.239999771118164,20.420000076293945,20.280000686645508,210900.0,19.97699737548828
2016-11-07,20.639999389648438,20.51099967956543,20.534000396728516,20.6200008392334,342700.0,20.311918258666992
2016-11-08,20.790000915527344,20.572999954223633,20.649999618530273,20.700000762939453,39400.0,20.390724182128906
2016-11-09,20.81999969482422,20.32200050354004,20.40999984741211,20.739999771118164,476100.0,20.430124282836914
2016-11-10,20.822999954223633,20.440000534057617,20.822999954223633,20.549999237060547,170400.0,20.242963790893555
2016-11-11,20.549999237060547,20.350000381469727,20.510000228881836,20.540000915527344,243900.0,20.233112335205078
2016-11-14,20.600000381469727,20.420000076293945,20.469999313354492,20.530000686645508,494200.0,20.223262786865234
2016-11-15,20.959999084472656,20.56999969482422,20.56999969482422,20.93000030517578,555500.0,20.617284774780273
2016-11-16,20.969999313354492,20.860000610351562,20.93000030517578,20.950000762939453,98300.0,20.636987686157227
2016-11-17,21.06999969482422,20.950000762939453,21.010000228881836,20.979999542236328,165000.0,20.66653823852539
2016-11-18,21.079999923706055,20.979000091552734,21.079999923706055,21.020000457763672,195300.0,20.705942153930664
2016-11-21,21.299999237060547,21.020000457763672,21.020000457763672,21.280000686645508,84800.0,20.96205711364746
2016-11-22,21.39299964904785,21.246000289916992,21.270000457763672,21.350000381469727,52000.0,21.03101348876953
2016-11-23,21.299999237060547,21.214000701904297,21.266000747680664,21.260000228881836,116100.0,20.94235610961914
2016-11-25,21.440000534057617,21.290000915527344,21.440000534057617,21.31999969482422,32900.0,21.0014591217041
2016-11-28,21.399999618530273,21.280000686645508,21.280000686645508,21.299999237060547,39100.0,20.98175621032715
2016-11-29,21.31599998474121,21.18000030517578,21.219999313354492,21.209999084472656,221400.0,20.893098831176758
2016-11-30,21.5,21.34000015258789,21.420000076293945,21.34000015258789,136900.0,21.021160125732422
2016-12-01,21.579999923706055,21.086000442504883,21.579999923706055,21.149999618530273,52800.0,20.833999633789062
2016-12-02,21.290000915527344,21.149999618530273,21.200000762939453,21.260000228881836,31100.0,20.94235610961914
2016-12-05,21.530000686645508,21.389999389648438,21.530000686645508,21.479999542236328,118500.0,21.159067153930664
2016-12-06,21.639999389648438,21.437000274658203,21.559999465942383,21.639999389648438,100500.0,21.316679000854492
2016-12-07,21.969999313354492,21.579999923706055,21.68000030517578,21.950000762939453,252000.0,21.62204933166504
2016-12-08,22.1200008392334,21.937999725341797,21.937999725341797,22.06999969482422,230000.0,21.740251541137695
2016-12-09,22.170000076293945,22.040000915527344,22.049999237060547,22.1299991607666,54100.0,21.799354553222656
2016-12-12,22.190000534057617,21.940000534057617,22.18000030517578,21.969999313354492,62700.0,21.641748428344727
2016-12-13,22.21299934387207,21.969999313354492,21.969999313354492,22.110000610351562,80500.0,21.7796573638916
2016-12-14,22.15999984741211,21.809999465942383,22.15999984741211,21.809999465942383,72100.0,21.484140396118164
2016-12-15,22.049999237060547,21.7810001373291,21.790000915527344,21.950000762939453,60400.0,21.62204933166504
2016-12-16,22.030000686645508,21.899999618530273,21.969999313354492,21.899999618530273,19900.0,21.572792053222656
2016-12-19,22.059999465942383,21.951000213623047,21.969999313354492,22.020000457763672,58100.0,21.691001892089844
2016-12-20,22.15999984741211,22.020000457763672,22.121000289916992,22.06999969482422,44300.0,21.740251541137695
2016-12-21,22.059999465942383,21.860000610351562,22.059999465942383,21.90999984741211,75900.0,21.68976402282715
2016-12-22,21.90999984741211,21.770000457763672,21.770000457763672,21.799999237060547,123000.0,21.580869674682617
2016-12-23,21.93000030517578,21.770000457763672,21.93000030517578,21.850000381469727,64100.0,21.63037109375
2016-12-27,22.030000686645508,21.700000762939453,21.700000762939453,21.969999313354492,73000.0,21.749164581298828
2016-12-28,22.09000015258789,21.719999313354492,22.09000015258789,21.760000228881836,58200.0,21.54127311706543
2016-12-29,21.79400062561035,21.656999588012695,21.79400062561035,21.75,39300.0,21.5313720703125
2016-12-30,21.84000015258789,21.531999588012695,21.84000015258789,21.579999923706055,87200.0,21.36308479309082
2017-01-03,21.950000762939453,21.690000534057617,21.950000762939453,21.829999923706055,234700.0,21.61056900024414
2017-01-04,22.040000915527344,21.799999237060547,21.799999237060547,21.979999542236328,270700.0,21.759063720703125
2017-01-05,22.170000076293945,21.8799991607666,22.170000076293945,22.049999237060547,166800.0,21.828359603881836
2017-01-06,22.170000076293945,21.979999542236328,22.09000015258789,22.08799934387207,269700.0,21.865978240966797
2017-01-09,22.1200008392334,21.93000030517578,22.1200008392334,21.93000030517578,88400.0,21.70956039428711
2017-01-10,22.09000015258789,21.940000534057617,22.030000686645508,21.979999542236328,83900.0,21.759063720703125
2017-01-11,22.15999984741211,21.90999984741211,21.90999984741211,22.149999618530273,62000.0,21.927350997924805
2017-01-12,22.13800048828125,21.899999618530273,22.115999221801758,22.110000610351562,40200.0,21.887758255004883
2017-01-13,22.219999313354492,21.902000427246094,22.06999969482422,22.15999984741211,47900.0,21.937253952026367
2017-01-17,22.18000030517578,22.01099967956543,22.1299991607666,22.06999969482422,59200.0,21.848155975341797
2017-01-18,22.149999618530273,22.040000915527344,22.149999618530273,22.1299991607666,95700.0,21.90755271911621
2017-01-19,22.17099952697754,21.981000900268555,22.06999969482422,22.045000076293945,89800.0,21.823410034179688
2017-01-20,22.260000228881836,22.099000930786133,22.200000762939453,22.1299991607666,108900.0,21.90755271911621
2017-01-23,22.18000030517578,21.979999542236328,22.170000076293945,22.100000381469727,183500.0,21.877857208251953
2017-01-24,22.3700008392334,22.15999984741211,22.18000030517578,22.329999923706055,73500.0,22.105545043945312
2017-01-25,22.549999237060547,22.43899917602539,22.489999771118164,22.549999237060547,149500.0,22.32332992553711
2017-01-26,22.709999084472656,22.459999084472656,22.600000381469727,22.510000228881836,228600.0,22.283737182617188
2017-01-27,22.739999771118164,22.389999389648438,22.739999771118164,22.415000915527344,110200.0,22.189693450927734
2017-01-30,22.25200080871582,22.0,22.25200080871582,22.15999984741211,46400.0,21.937253952026367
2017-01-31,22.219999313354492,21.959999084472656,22.149999618530273,22.219999313354492,68000.0,21.99664878845215
2017-02-01,22.329999923706055,22.040000915527344,22.25,22.139999389648438,228000.0,21.917451858520508
2017-02-02,22.200000762939453,22.047000885009766,22.047000885009766,22.18000030517578,100400.0,21.95705223083496
2017-02-03,22.3799991607666,22.253000259399414,22.253000259399414,22.34000015258789,111200.0,22.115442276000977
2017-02-06,22.59000015258789,22.18899917602539,22.59000015258789,22.239999771118164,60000.0,22.016447067260742
2017-02-07,22.329999923706055,22.139999389648438,22.329999923706055,22.200000762939453,70400.0,21.976850509643555
2017-02-08,22.25,22.05699920654297,22.100000381469727,22.25,26900.0,22.026348114013672
2017-02-09,22.37700080871582,22.2549991607666,22.309999465942383,22.309999465942383,58400.0,22.085742950439453
2017-02-10,22.479999542236328,22.309999465942383,22.309999465942383,22.459999084472656,68400.0,22.234237670898438
2017-02-13,22.549999237060547,22.493999481201172,22.540000915527344,22.540000915527344,70800.0,22.313434600830078
2017-02-14,22.549999237060547,22.395000457763672,22.549999237060547,22.540000915527344,32400.0,22.313434600830078
2017-02-15,22.59600067138672,22.459999084472656,22.490999221801758,22.579999923706055,36900.0,22.353031158447266
2017-02-16,22.6299991607666,22.489999771118164,22.5,22.510000228881836,32800.0,22.283737182617188
2017-02-17,22.700000762939453,22.469999313354492,22.700000762939453,22.59000015258789,27200.0,22.36292839050293
2017-02-21,22.799999237060547,22.549999237060547,22.549999237060547,22.790000915527344,89400.0,22.560922622680664
2017-02-22,22.729999542236328,22.65999984741211,22.65999984741211,22.700000762939453,26600.0,22.471824645996094
2017-02-23,22.756999969482422,22.56999969482422,22.709999084472656,22.649999618530273,53400.0,22.422327041625977
2017-02-24,22.65999984741211,22.479999542236328,22.6200008392334,22.639999389648438,122600.0,22.41242790222168
2017-02-27,22.760000228881836,22.631000518798828,22.68000030517578,22.75,55500.0,22.521320343017578
2017-02-28,22.68000030517578,22.489999771118164,22.5,22.520000457763672,66900.0,22.293636322021484
2017-03-01,22.875,22.530000686645508,22.530000686645508,22.81999969482422,56200.0,22.590618133544922
2017-03-02,22.790000915527344,22.600000381469727,22.790000915527344,22.60700035095215,33200.0,22.379758834838867
2017-03-03,22.68000030517578,22.56100082397461,22.58099937438965,22.639999389648438,39000.0,22.41242790222168
2017-03-06,22.59000015258789,22.450000762939453,22.520000457763672,22.56999969482422,50800.0,22.34313201904297
2017-03-07,22.527999877929688,22.389999389648438,22.51300048828125,22.40999984741211,25900.0,22.18474006652832
2017-03-08,22.459999084472656,22.219999313354492,22.459999084472656,22.260000228881836,43700.0,22.0362491607666
2017-03-09,22.290000915527344,22.073999404907227,22.233999252319336,22.239999771118164,57700.0,22.016447067260742
2017-03-10,22.371000289916992,22.229999542236328,22.368000030517578,22.360000610351562,43300.0,22.13524627685547
2017-03-13,22.469999313354492,22.290000915527344,22.290000915527344,22.420000076293945,32000.0,22.194639205932617
2017-03-14,22.420000076293945,22.139999389648438,22.420000076293945,22.260000228881836,47900.0,22.0362491607666
2017-03-15,22.639999389648438,22.322999954223633,22.389999389648438,22.6200008392334,197600.0,22.392627716064453
2017-03-16,22.590999603271484,22.493000030517578,22.579999923706055,22.510000228881836,29200.0,22.283737182617188
2017-03-17,22.610000610351562,22.540000915527344,22.58300018310547,22.540000915527344,22100.0,22.313434600830078
2017-03-20,22.540000915527344,22.408000946044922,22.540000915527344,22.5,23400.0,22.273836135864258
2017-03-21,22.649999618530273,22.13599967956543,22.649999618530273,22.15999984741211,37100.0,21.937253952026367
2017-03-22,22.219999313354492,22.079999923706055,22.09000015258789,22.209999084472656,137000.0,21.98674774169922
2017-03-23,22.290000915527344,22.11199951171875,22.11199951171875,22.18000030517578,196800.0,21.95705223083496
2017-03-24,22.31999969482422,22.141000747680664,22.170000076293945,22.209999084472656,69000.0,21.98674774169922
2017-03-27,22.184999465942383,21.93000030517578,22.040000915527344,22.15999984741211,112500.0,21.937253952026367
2017-03-28,22.341999053955078,22.106000900268555,22.15999984741211,22.329999923706055,39100.0,22.105545043945312
2017-03-29,22.41699981689453,22.20800018310547,22.3700008392334,22.350000381469727,47700.0,22.125343322753906
2017-03-30,22.5,22.3700008392334,22.3700008392334,22.450000762939453,62200.0,22.22433853149414
2017-03-31,22.510000228881836,22.3799991607666,22.389999389648438,22.43000030517578,70800.0,22.204540252685547
2017-04-03,22.440000534057617,22.170000076293945,22.424999237060547,22.329999923706055,152800.0,22.105545043945312
2017-04-04,22.350000381469727,22.25,22.30500030517578,22.31999969482422,91600.0,22.095643997192383
2017-04-05,22.5,22.15999984741211,22.34000015258789,22.22599983215332,31400.0,22.00259017944336
2017-04-06,22.360000610351562,22.1200008392334,22.15999984741211,22.270000457763672,54300.0,22.04615020751953
2017-04-07,22.309999465942383,22.219999313354492,22.219999313354492,22.239999771118164,19100.0,22.016447067260742
2017-04-10,22.3700008392334,22.20400047302246,22.3700008392334,22.25,20800.0,22.026348114013672
2017-04-11,22.239999771118164,22.055999755859375,22.18600082397461,22.239999771118164,16800.0,22.016447067260742
2017-04-12,22.270000457763672,22.069000244140625,22.270000457763672,22.079999923706055,13900.0,21.858057022094727
2017-04-13,22.124000549316406,21.8799991607666,22.124000549316406,21.889999389648438,62900.0,21.669965744018555
2017-04-17,22.149999618530273,21.899999618530273,21.899999618530273,22.149999618530273,53200.0,21.927350997924805
2017-04-18,22.1299991607666,21.979999542236328,22.12299919128418,22.06999969482422,38600.0,21.848155975341797
2017-04-19,22.25,22.093000411987305,22.238000869750977,22.100000381469727,46300.0,21.877857208251953
2017-04-20,22.3700008392334,22.131000518798828,22.270000457763672,22.309999465942383,29400.0,22.085742950439453
2017-04-21,22.360000610351562,22.260000228881836,22.360000610351562,22.299999237060547,40500.0,22.075843811035156
2017-04-24,22.649999618530273,22.510000228881836,22.510000228881836,22.600000381469727,32600.0,22.37282943725586
2017-04-25,22.809999465942383,22.65999984741211,22.770000457763672,22.780000686645508,35700.0,22.551025390625
2017-04-26,22.84000015258789,22.711000442504883,22.711000442504883,22.719999313354492,30600.0,22.49162483215332
2017-04-27,22.809999465942383,22.709999084472656,22.75,22.790000915527344,27500.0,22.560922622680664
2017-04-28,22.785999298095703,22.670000076293945,22.760000228881836,22.670000076293945,35900.0,22.44212532043457
2017-05-01,22.860000610351562,22.677000045776367,22.799999237060547,22.81999969482422,79500.0,22.590618133544922
2017-05-02,22.84600067138672,22.760000228881836,22.799999237060547,22.84000015258789,70500.0,22.610416412353516
2017-05-03,22.809999465942383,22.68000030517578,22.729999542236328,22.770000457763672,199900.0,22.541122436523438
2017-05-04,22.82900047302246,22.71299934387207,22.780000686645508,22.790000915527344,37400.0,22.560922622680664
2017-05-05,22.8700008392334,22.760000228881836,22.770000457763672,22.8700008392334,135000.0,22.640119552612305
2017-05-08,22.889999389648438,22.780000686645508,22.81999969482422,22.84000015258789,50700.0,22.610416412353516
2017-05-09,23.049999237060547,22.819000244140625,23.049999237060547,22.860000610351562,45700.0,22.630218505859375
2017-05-10,22.959999084472656,22.840999603271484,22.860000610351562,22.959999084472656,338000.0,22.729211807250977
2017-05-11,22.920000076293945,22.701000213623047,22.920000076293945,22.8700008392334,28400.0,22.640119552612305
2017-05-12,22.84000015258789,22.756999969482422,22.84000015258789,22.829999923706055,21400.0,22.60051727294922
2017-05-15,23.027000427246094,22.891000747680664,22.90999984741211,23.010000228881836,25600.0,22.77870750427246
2017-05-16,23.239999771118164,22.95599937438965,23.239999771118164,23.06999969482422,46700.0,22.838106155395508
2017-05-17,22.829999923706055,22.43199920654297,22.81999969482422,22.440000534057617,54700.0,22.214439392089844
2017-05-18,22.639999389648438,22.190000534057617,22.190000534057617,22.59000015258789,151300.0,22.36292839050293
2017-05-19,22.8700008392334,22.656999588012695,22.65999984741211,22.790000915527344,33300.0,22.560922622680664
2017-05-22,22.959999084472656,22.81999969482422,22.88599967956543,22.920000076293945,47800.0,22.689613342285156
2017-05-23,23.040000915527344,22.899999618530273,22.950000762939453,22.989999771118164,25500.0,22.758909225463867
2017-05-24,23.079999923706055,22.993000030517578,23.06100082397461,23.079999923706055,59000.0,22.848005294799805
2017-05-25,23.229999542236328,23.156999588012695,23.15999984741211,23.209999084472656,39900.0,22.976699829101562
2017-05-26,23.229999542236328,23.145999908447266,23.229999542236328,23.190000534057617,37000.0,22.95690155029297
2017-05-30,23.18000030517578,23.084999084472656,23.17799949645996,23.15999984741211,63900.0,22.927202224731445
2017-05-31,23.25,22.989999771118164,23.25,23.082000732421875,12600.0,22.849987030029297
2017-06-01,23.329999923706055,23.139999389648438,23.200000762939453,23.329999923706055,59100.0,23.09549331665039
2017-06-02,23.444000244140625,23.274999618530273,23.290000915527344,23.399999618530273,15700.0,23.1647891998291
2017-06-05,23.459999084472656,23.357999801635742,23.40999984741211,23.3799991607666,46200.0,23.144989013671875
2017-06-06,23.360000610351562,23.260000228881836,23.299999237060547,23.260000228881836,35800.0,23.02619743347168
2017-06-07,23.399999618530273,23.280000686645508,23.399999618530273,23.360000610351562,20100.0,23.125192642211914
2017-06-08,23.56999969482422,23.34000015258789,23.389999389648438,23.530000686645508,40200.0,23.293485641479492
2017-06-09,23.75,23.149999618530273,23.5,23.31999969482422,62800.0,23.08559226989746
2017-06-12,23.329999923706055,23.18600082397461,23.280000686645508,23.31999969482422,49000.0,23.08559226989746
2017-06-13,23.469999313354492,23.299999237060547,23.299999237060547,23.440000534057617,28300.0,23.20438575744629
2017-06-14,23.454999923706055,23.260000228881836,23.434999465942383,23.389999389648438,52900.0,23.154888153076172
2017-06-15,23.329999923706055,23.18400001525879,23.264999389648438,23.31999969482422,26000.0,23.08559226989746
2017-06-16,23.459999084472656,23.239999771118164,23.459999084472656,23.260000228881836,18700.0,23.02619743347168
2017-06-19,23.540000915527344,23.270000457763672,23.270000457763672,23.479999542236328,31900.0,23.24398422241211
2017-06-20,23.43600082397461,23.260000228881836,23.329999923706055,23.260000228881836,66200.0,23.02619743347168
2017-06-21,23.3700008392334,23.25,23.299999237060547,23.299999237060547,41100.0,23.065792083740234
2017-06-22,23.290000915527344,23.139999389648438,23.18000030517578,23.239999771118164,23800.0,23.023195266723633
2017-06-23,23.350000381469727,23.2450008392334,23.290000915527344,23.299999237060547,13000.0,23.082632064819336
2017-06-26,23.440000534057617,23.260000228881836,23.329999923706055,23.260000228881836,29200.0,23.043006896972656
2017-06-27,23.31999969482422,23.049999237060547,23.18000030517578,23.049999237060547,48300.0,22.834970474243164
2017-06-28,23.329999923706055,23.1299991607666,23.15999984741211,23.31999969482422,42100.0,23.102447509765625
2017-06-29,23.40999984741211,22.959999084472656,23.40999984741211,23.09000015258789,137500.0,22.87459373474121
2017-06-30,23.209999084472656,23.09000015258789,23.209999084472656,23.1200008392334,20800.0,22.90431785583496
2017-07-03,23.360000610351562,23.1200008392334,23.360000610351562,23.1200008392334,20700.0,22.90431785583496
2017-07-05,23.298999786376953,23.110000610351562,23.1200008392334,23.253999710083008,53800.0,23.037065505981445
2017-07-06,23.229999542236328,23.059999465942383,23.09600067138672,23.09000015258789,16300.0,22.87459373474121
2017-07-07,23.31999969482422,23.010000228881836,23.010000228881836,23.25,33500.0,23.03310203552246
2017-07-10,23.389999389648438,23.260000228881836,23.290000915527344,23.309999465942383,65200.0,23.092540740966797
2017-07-11,23.40999984741211,23.270000457763672,23.270000457763672,23.399999618530273,37300.0,23.181703567504883
2017-07-12,23.600000381469727,23.520000457763672,23.56999969482422,23.549999237060547,53600.0,23.330305099487305
2017-07-13,23.610000610351562,23.51300048828125,23.610000610351562,23.59000015258789,286700.0,23.36992835998535
2017-07-14,23.700000762939453,23.549999237060547,23.639999389648438,23.65999984741211,32200.0,23.439279556274414
2017-07-17,23.700000762939453,23.600000381469727,23.600000381469727,23.639999389648438,49500.0,23.419462203979492
2017-07-18,23.729999542236328,23.59000015258789,23.670000076293945,23.729999542236328,65900.0,23.508625030517578
2017-07-19,23.84000015258789,23.760000228881836,23.82900047302246,23.84000015258789,19600.0,23.617599487304688
2017-07-20,23.850000381469727,23.76300048828125,23.809999465942383,23.790000915527344,20700.0,23.568063735961914
2017-07-21,23.790000915527344,23.700000762939453,23.75,23.780000686645508,34600.0,23.558156967163086
2017-07-24,23.829999923706055,23.676000595092773,23.700000762939453,23.780000686645508,25900.0,23.558156967163086
2017-07-25,23.90999984741211,23.81999969482422,23.860000610351562,23.81999969482422,161300.0,23.597787857055664
2017-07-26,23.93000030517578,23.75,23.93000030517578,23.799999237060547,29100.0,23.577972412109375
2017-07-27,23.8700008392334,23.533000946044922,23.823999404907227,23.6299991607666,112700.0,23.409555435180664
2017-07-28,23.65999984741211,23.5310001373291,23.65999984741211,23.579999923706055,48900.0,23.360023498535156
2017-07-31,23.709999084472656,23.540000915527344,23.709999084472656,23.540000915527344,9600.0,23.320398330688477
2017-08-01,23.68000030517578,23.6200008392334,23.68000030517578,23.670000076293945,22100.0,23.449182510375977
2017-08-02,23.674999237060547,23.5,23.65999984741211,23.600000381469727,29800.0,23.379837036132812
2017-08-03,23.649999618530273,23.540000915527344,23.600000381469727,23.579999923706055,32400.0,23.360023498535156
2017-08-04,23.756999969482422,23.670000076293945,23.68000030517578,23.729999542236328,32100.0,23.508625030517578
2017-08-07,23.809999465942383,23.670000076293945,23.670000076293945,23.780000686645508,20800.0,23.558156967163086
2017-08-08,23.950000762939453,23.700000762939453,23.700000762939453,23.780000686645508,70000.0,23.558156967163086
2017-08-09,23.799999237060547,23.549999237060547,23.799999237060547,23.586000442504883,138900.0,23.365968704223633
2017-08-10,23.600000381469727,23.190000534057617,23.600000381469727,23.200000762939453,44900.0,22.983572006225586
2017-08-11,23.274999618530273,23.190000534057617,23.219999313354492,23.229999542236328,26700.0,23.013286590576172
2017-08-14,23.610000610351562,23.3799991607666,23.3799991607666,23.610000610351562,24500.0,23.38974380493164
2017-08-15,23.659000396728516,23.549999237060547,23.6200008392334,23.55699920654297,24300.0,23.337236404418945
2017-08-16,23.690000534057617,23.579999923706055,23.639999389648438,23.617000579833984,29000.0,23.396677017211914
2017-08-17,23.65999984741211,23.170000076293945,23.65999984741211,23.170000076293945,44300.0,22.953845977783203
2017-08-18,23.280000686645508,23.06999969482422,23.06999969482422,23.18000030517578,17900.0,22.963756561279297
2017-08-21,23.18000030517578,23.055999755859375,23.079999923706055,23.139999389648438,61000.0,22.92412757873535
2017-08-22,23.450000762939453,23.270999908447266,23.27199935913086,23.417999267578125,20100.0,23.19953155517578
2017-08-23,23.450000762939453,23.365999221801758,23.365999221801758,23.399999618530273,14500.0,23.181703567504883
2017-08-24,23.429000854492188,23.350000381469727,23.40999984741211,23.40999984741211,15700.0,23.19161033630371
2017-08-25,23.493999481201172,23.399999618530273,23.475000381469727,23.420000076293945,12400.0,23.20151710510254
2017-08-28,23.48900032043457,23.344999313354492,23.48900032043457,23.399999618530273,184500.0,23.181703567504883
2017-08-29,23.45800018310547,22.930999755859375,23.299999237060547,23.420000076293945,51300.0,23.20151710510254
2017-08-30,23.608999252319336,23.459999084472656,23.459999084472656,23.549999237060547,23100.0,23.330305099487305
2017-08-31,23.700000762939453,23.645000457763672,23.660999298095703,23.68000030517578,46600.0,23.459089279174805
2017-09-01,23.79599952697754,23.670000076293945,23.670000076293945,23.739999771118164,18100.0,23.518529891967773
2017-09-05,23.655000686645508,23.3700008392334,23.649999618530273,23.440000534057617,61400.0,23.221330642700195
2017-09-06,23.549999237060547,23.43000030517578,23.479999542236328,23.459999084472656,13000.0,23.24114227294922
2017-09-07,23.469999313354492,23.371000289916992,23.41200065612793,23.40999984741211,11200.0,23.19161033630371
2017-09-08,23.479999542236328,23.389999389648438,23.40999984741211,23.40999984741211,12700.0,23.19161033630371
2017-09-11,23.770000457763672,23.66699981689453,23.70599937438965,23.729999542236328,16800.0,23.508625030517578
2017-09-12,23.8799991607666,23.788000106811523,23.82699966430664,23.850000381469727,31800.0,23.627504348754883
2017-09-13,23.969999313354492,23.79599952697754,23.969999313354492,23.850000381469727,36700.0,23.627504348754883
2017-09-14,23.899999618530273,23.75,23.75,23.8700008392334,14200.0,23.647321701049805
2017-09-15,23.940000534057617,23.829999923706055,23.8700008392334,23.93000030517578,14900.0,23.706758499145508
2017-09-18,24.09000015258789,23.959999084472656,23.959999084472656,24.04199981689453,33800.0,23.817712783813477
2017-09-19,24.34000015258789,24.04599952697754,24.34000015258789,24.124000549316406,22500.0,23.898950576782227
2017-09-20,24.1200008392334,24.059999465942383,24.06999969482422,24.110000610351562,23900.0,23.885080337524414
2017-09-21,24.111000061035156,23.969999313354492,23.969999313354492,24.059999465942383,38400.0,23.8811092376709
2017-09-22,24.100000381469727,24.030000686645508,24.030000686645508,24.09000015258789,14900.0,23.910886764526367
2017-09-25,24.15999984741211,23.843000411987305,24.15999984741211,23.93000030517578,20200.0,23.752077102661133
2017-09-26,24.040000915527344,23.93199920654297,23.940000534057617,23.950000762939453,24300.0,23.771930694580078
2017-09-27,24.270000457763672,24.059999465942383,24.059999465942383,24.21299934387207,292800.0,24.032970428466797
2017-09-28,24.239999771118164,24.139999389648438,24.139999389648438,24.219999313354492,12500.0,24.039918899536133
2017-09-29,24.389999389648438,24.270999908447266,24.280000686645508,24.350000381469727,16300.0,24.168954849243164
2017-10-02,24.499000549316406,24.389999389648438,24.450000762939453,24.450000762939453,33900.0,24.26820945739746
2017-10-03,24.56999969482422,24.472000122070312,24.47800064086914,24.56999969482422,69900.0,24.387317657470703
2017-10-04,24.6200008392334,24.520000457763672,24.6200008392334,24.579999923706055,39600.0,24.39724349975586
2017-10-05,24.739999771118164,24.607999801635742,24.649999618530273,24.739999771118164,15600.0,24.556053161621094
2017-10-06,24.780000686645508,24.68000030517578,24.780000686645508,24.739999771118164,34500.0,24.556053161621094
2017-10-09,24.860000610351562,24.65999984741211,24.860000610351562,24.726999282836914,15900.0,24.543149948120117
2017-10-10,24.84000015258789,24.725000381469727,24.84000015258789,24.770000457763672,121800.0,24.585830688476562
2017-10-11,24.84000015258789,24.770000457763672,24.770000457763672,24.812000274658203,14200.0,24.627519607543945
2017-10-12,24.899999618530273,24.65999984741211,24.65999984741211,24.790000915527344,41700.0,24.605684280395508
2017-10-13,24.899999618530273,24.812000274658203,24.815000534057617,24.81999969482422,23400.0,24.635459899902344
2017-10-16,24.884000778198242,24.75,24.799999237060547,24.799999237060547,18100.0,24.6156063079834
2017-10-17,24.979999542236328,24.729999542236328,24.979999542236328,24.75,61500.0,24.56597900390625
2017-10-18,24.860000610351562,24.729999542236328,24.799999237060547,24.850000381469727,112600.0,24.665233612060547
2017-10-19,24.84000015258789,24.639999389648438,24.68000030517578,24.799999237060547,63300.0,24.6156063079834
2017-10-20,25.059999465942383,24.940000534057617,24.940000534057617,25.010000228881836,16600.0,24.824045181274414
2017-10-23,25.15999984741211,24.92099952697754,25.15999984741211,24.950000762939453,17900.0,24.764493942260742
2017-10-24,25.110000610351562,25.006999969482422,25.049999237060547,25.070999145507812,12100.0,24.88459014892578
2017-10-25,25.030000686645508,24.799999237060547,25.0,24.889999389648438,43700.0,24.704938888549805
2017-10-26,25.100000381469727,25.020000457763672,25.059999465942383,25.059999465942383,30300.0,24.873672485351562
2017-10-27,25.25,25.100000381469727,25.110000610351562,25.229999542236328,37000.0,25.04241180419922
2017-10-30,25.239999771118164,25.070999145507812,25.209999084472656,25.15999984741211,29400.0,24.972930908203125
2017-10-31,25.290000915527344,25.139999389648438,25.149999618530273,25.209999084472656,34000.0,25.022558212280273
2017-11-01,25.334999084472656,25.094999313354492,25.280000686645508,25.149999618530273,28000.0,24.96300506591797
2017-11-02,25.200000762939453,25.030000686645508,25.030000686645508,25.184999465942383,81900.0,24.997745513916016
2017-11-03,25.27899932861328,25.099000930786133,25.115999221801758,25.260000228881836,81300.0,25.072187423706055
2017-11-06,25.309999465942383,25.18000030517578,25.18000030517578,25.270000457763672,59000.0,25.08211326599121
2017-11-07,25.31999969482422,25.06999969482422,25.309999465942383,25.06999969482422,43700.0,24.88359832763672
2017-11-08,25.15999984741211,24.992000579833984,25.15999984741211,25.1200008392334,38900.0,24.933231353759766
2017-11-09,25.040000915527344,24.739999771118164,25.040000915527344,24.850000381469727,22000.0,24.665233612060547
2017-11-10,24.899999618530273,24.799999237060547,24.799999237060547,24.8799991607666,104400.0,24.69501304626465
2017-11-13,24.950000762939453,24.790000915527344,24.829999923706055,24.93000030517578,15200.0,24.744640350341797
2017-11-14,24.989999771118164,24.850000381469727,24.860000610351562,24.989999771118164,28700.0,24.8041934967041
2017-11-15,24.95800018310547,24.690000534057617,24.742000579833984,24.86199951171875,54700.0,24.677143096923828
2017-11-16,25.25,25.030000686645508,25.030000686645508,25.195999145507812,23200.0,25.0086612701416
2017-11-17,25.229999542236328,25.128999710083008,25.132999420166016,25.149999618530273,12300.0,24.96300506591797
2017-11-20,25.31999969482422,25.170000076293945,25.170000076293945,25.309999465942383,17200.0,25.121814727783203
2017-11-21,25.520000457763672,25.3799991607666,25.3799991607666,25.4950008392334,126800.0,25.305442810058594
2017-11-22,25.549999237060547,25.459999084472656,25.549999237060547,25.486000061035156,22900.0,25.296506881713867
2017-11-24,25.579999923706055,25.469999313354492,25.56999969482422,25.540000915527344,11800.0,25.350107192993164
2017-11-27,25.56999969482422,25.427000045776367,25.56999969482422,25.440000534057617,23600.0,25.2508487701416
2017-11-28,25.77400016784668,25.469999313354492,25.5,25.770000457763672,25100.0,25.57839584350586
2017-11-29,26.069000244140625,25.329999923706055,25.780000686645508,25.45400047302246,25100.0,25.264745712280273
2017-11-30,25.7450008392334,25.549999237060547,25.600000381469727,25.656999588012695,31000.0,25.466236114501953
2017-12-01,25.65999984741211,25.035999298095703,25.65999984741211,25.4950008392334,29800.0,25.305442810058594
2017-12-04,25.809999465942383,25.28700065612793,25.809999465942383,25.28700065612793,26400.0,25.098987579345703
2017-12-05,25.509000778198242,25.18000030517578,25.270000457763672,25.18000030517578,27600.0,24.992780685424805
2017-12-06,25.30900001525879,25.110000610351562,25.110000610351562,25.229999542236328,28200.0,25.04241180419922
2017-12-07,25.5,25.290000915527344,25.290000915527344,25.469999313354492,18100.0,25.280624389648438
2017-12-08,25.68000030517578,25.520000457763672,25.68000030517578,25.520000457763672,35500.0,25.330251693725586
2017-12-11,25.639999389648438,25.531999588012695,25.639999389648438,25.600000381469727,29100.0,25.409656524658203
2017-12-12,25.66900062561035,25.510000228881836,25.510000228881836,25.530000686645508,36500.0,25.340179443359375
2017-12-13,25.719999313354492,25.530000686645508,25.530000686645508,25.61199951171875,24300.0,25.421567916870117
2017-12-14,25.670000076293945,25.40999984741211,25.60700035095215,25.420000076293945,55300.0,25.23099708557129
2017-12-15,25.81999969482422,25.531999588012695,25.531999588012695,25.739999771118164,37100.0,25.548620223999023
2017-12-18,26.100000381469727,25.899999618530273,25.899999618530273,26.09000015258789,39500.0,25.896015167236328
2017-12-19,26.209999084472656,25.950000762939453,26.209999084472656,26.030000686645508,148900.0,25.836463928222656
2017-12-20,26.163000106811523,25.895000457763672,26.163000106811523,26.01799964904785,33000.0,25.824552536010742
2017-12-21,25.989999771118164,25.90999984741211,25.93000030517578,25.920000076293945,26300.0,25.8265438079834
2017-12-22,26.020000457763672,25.780000686645508,26.020000457763672,25.860000610351562,93000.0,25.76676368713379
2017-12-26,25.860000610351562,25.708999633789062,25.860000610351562,25.72599983215332,15700.0,25.633243560791016
2017-12-27,25.850000381469727,25.759000778198242,25.81999969482422,25.780000686645508,28600.0,25.687049865722656
2017-12-28,25.8700008392334,25.788999557495117,25.81999969482422,25.8700008392334,18600.0,25.77672576904297
2017-12-29,25.959999084472656,25.670000076293945,25.959999084472656,25.67300033569336,12900.0,25.580434799194336
2018-01-02,25.969999313354492,25.780000686645508,25.780000686645508,25.969999313354492,61400.0,25.876361846923828
2018-01-03,26.239999771118164,26.065000534057617,26.079999923706055,26.239999771118164,29900.0,26.145389556884766
2018-01-04,26.420000076293945,26.25,26.25,26.329999923706055,151800.0,26.23506736755371
2018-01-05,26.514999389648438,26.416000366210938,26.5,26.506000518798828,195800.0,26.410432815551758
2018-01-08,26.670000076293945,26.457000732421875,26.520999908447266,26.655000686645508,114800.0,26.558895111083984
2018-01-09,26.760000228881836,26.6299991607666,26.649999618530273,26.639999389648438,97900.0,26.543947219848633
2018-01-10,26.719999313354492,26.56999969482422,26.610000610351562,26.639999389648438,64000.0,26.543947219848633
2018-01-11,26.969999313354492,26.739999771118164,26.790000915527344,26.969999313354492,107200.0,26.872756958007812
2018-01-12,27.16699981689453,26.89699935913086,27.0,27.16699981689453,34500.0,27.069046020507812
2018-01-16,27.43000030517578,26.889999389648438,27.43000030517578,26.989999771118164,81400.0,26.892684936523438
2018-01-17,27.31999969482422,27.023000717163086,27.077999114990234,27.270000457763672,39400.0,27.171676635742188
2018-01-18,27.3700008392334,27.211000442504883,27.299999237060547,27.290000915527344,35600.0,27.191606521606445
2018-01-19,27.459999084472656,27.315000534057617,27.350000381469727,27.459999084472656,36300.0,27.360990524291992
2018-01-22,27.572999954223633,27.381000518798828,27.520000457763672,27.572999954223633,30300.0,27.47358512878418
2018-01-23,27.799999237060547,27.62299919128418,27.780000686645508,27.799999237060547,32200.0,27.699764251708984
2018-01-24,27.8700008392334,27.489999771118164,27.81999969482422,27.64299964904785,53500.0,27.543333053588867
2018-01-25,27.829999923706055,27.479999542236328,27.829999923706055,27.530000686645508,148900.0,27.43073844909668
2018-01-26,27.950000762939453,27.690000534057617,27.770000457763672,27.950000762939453,62300.0,27.849224090576172
2018-01-29,28.0,27.760000228881836,27.959999084472656,27.83300018310547,47400.0,27.732646942138672
2018-01-30,27.649999618530273,27.451000213623047,27.530000686645508,27.510000228881836,310500.0,27.410810470581055
2018-01-31,27.770000457763672,27.5,27.770000457763672,27.579999923706055,44500.0,27.480558395385742
2018-02-01,27.780000686645508,27.40999984741211,27.40999984741211,27.600000381469727,49500.0,27.500486373901367
2018-02-02,27.59000015258789,27.079999923706055,27.59000015258789,27.079999923706055,184600.0,26.98236083984375
2018-02-05,27.17799949645996,26.010000228881836,26.729999542236328,26.010000228881836,91500.0,25.91621971130371
2018-02-06,26.618999481201172,25.5,25.799999237060547,26.530000686645508,108600.0,26.43434715270996
2018-02-07,26.8700008392334,26.40999984741211,26.610000610351562,26.459999084472656,98200.0,26.36459732055664
2018-02-08,26.600000381469727,25.457000732421875,26.59000015258789,25.457000732421875,91900.0,25.365215301513672
2018-02-09,25.969999313354492,24.920000076293945,25.6200008392334,25.790000915527344,151100.0,25.6970157623291
2018-02-12,26.450000762939453,25.920000076293945,26.25,26.260000228881836,62400.0,26.165319442749023
2018-02-13,26.420000076293945,26.10300064086914,26.10300064086914,26.389999389648438,114700.0,26.294849395751953
2018-02-14,27.010000228881836,26.110000610351562,26.110000610351562,26.989999771118164,103800.0,26.892684936523438
2018-02-15,27.329999923706055,26.895000457763672,27.239999771118164,27.299999237060547,92100.0,27.201568603515625
2018-02-16,27.450000762939453,27.19099998474121,27.219999313354492,27.239999771118164,52000.0,27.14178466796875
2018-02-20,27.44300079345703,27.110000610351562,27.110000610351562,27.290000915527344,28000.0,27.191606521606445
2018-02-21,27.670000076293945,27.25,27.25,27.260000228881836,40100.0,27.161712646484375
2018-02-22,27.399999618530273,27.059999465942383,27.399999618530273,27.09000015258789,32400.0,26.992324829101562
2018-02-23,27.489999771118164,27.14699935913086,27.170000076293945,27.46500015258789,28000.0,27.3659725189209
2018-02-26,27.809999465942383,27.53700065612793,27.690000534057617,27.75,115900.0,27.649944305419922
2018-02-27,27.93000030517578,27.469999313354492,27.881000518798828,27.469999313354492,76000.0,27.370954513549805
2018-02-28,27.749000549316406,27.34000015258789,27.65999984741211,27.3799991607666,70100.0,27.281280517578125
2018-03-01,27.385000228881836,26.860000610351562,27.290000915527344,27.010000228881836,65900.0,26.912612915039062
2018-03-02,27.3700008392334,26.649999618530273,26.850000381469727,27.3700008392334,80400.0,27.271318435668945
2018-03-05,27.700000762939453,27.110000610351562,27.110000610351562,27.65999984741211,47600.0,27.560270309448242
2018-03-06,27.969999313354492,27.660999298095703,27.700000762939453,27.860000610351562,67400.0,27.759550094604492
2018-03-07,28.099000930786133,27.690000534057617,27.690000534057617,28.089000701904297,22200.0,27.98772430419922
2018-03-08,28.31999969482422,27.96500015258789,28.31999969482422,28.15999984741211,139000.0,28.0584659576416
2018-03-09,28.700000762939453,28.3700008392334,28.3700008392334,28.700000762939453,47300.0,28.596521377563477
2018-03-12,28.799999237060547,28.631999969482422,28.760000228881836,28.739999771118164,44000.0,28.636377334594727
2018-03-13,28.959999084472656,28.3700008392334,28.959999084472656,28.43000030517578,60900.0,28.32749366760254
2018-03-14,28.579999923706055,28.280000686645508,28.579999923706055,28.309999465942383,207100.0,28.207927703857422
2018-03-15,28.469999313354492,28.219999313354492,28.459999084472656,28.31999969482422,110800.0,28.2178897857666
2018-03-16,28.520000457763672,28.34000015258789,28.34000015258789,28.43000030517578,27900.0,28.32749366760254
2018-03-19,28.209999084472656,27.72599983215332,28.209999084472656,27.969999313354492,55100.0,27.869152069091797
2018-03-20,28.14900016784668,28.0,28.059999465942383,28.100000381469727,25400.0,27.99868392944336
2018-03-21,28.367000579833984,28.02899932861328,28.229999542236328,28.209999084472656,77200.0,28.108287811279297
2018-03-22,27.950000762939453,27.239999771118164,27.950000762939453,27.260000228881836,60100.0,27.168453216552734
2018-03-23,27.280000686645508,26.47100067138672,27.280000686645508,26.540000915527344,39900.0,26.45087242126465
2018-03-26,27.329999923706055,26.639999389648438,26.981000900268555,27.299999237060547,333200.0,27.20831871032715
2018-03-27,27.43000030517578,26.336999893188477,27.43000030517578,26.493999481201172,63300.0,26.405027389526367
2018-03-28,26.535999298095703,26.1200008392334,26.3799991607666,26.284000396728516,36700.0,26.19573211669922
2018-03-29,26.889999389648438,26.273000717163086,26.309999465942383,26.719999313354492,45600.0,26.630266189575195
2018-04-02,26.700000762939453,25.80299949645996,26.700000762939453,26.06999969482422,144400.0,25.982450485229492
2018-04-03,26.360000610351562,25.979999542236328,26.09000015258789,26.350000381469727,39700.0,26.26150894165039
2018-04-04,26.709999084472656,25.729999542236328,25.729999542236328,26.683000564575195,58500.0,26.593393325805664
2018-04-05,26.989999771118164,26.639999389648438,26.989999771118164,26.760000228881836,34300.0,26.670133590698242
2018-04-06,26.590999603271484,25.90999984741211,26.590999603271484,26.149999618530273,64400.0,26.06218147277832
2018-04-09,26.65999984741211,26.204999923706055,26.329999923706055,26.219999313354492,27300.0,26.131946563720703
2018-04-10,26.834999084472656,26.475000381469727,26.600000381469727,26.770000457763672,65900.0,26.680099487304688
2018-04-11,26.868999481201172,26.540000915527344,26.540000915527344,26.670000076293945,27700.0,26.580434799194336
2018-04-12,27.069000244140625,26.780000686645508,26.780000686645508,27.010000228881836,27200.0,26.919292449951172
2018-04-13,27.030000686645508,26.700000762939453,27.030000686645508,26.799999237060547,9700.0,26.709997177124023
2018-04-16,27.040000915527344,26.809999465942383,26.809999465942383,27.0,854500.0,26.909326553344727
2018-04-17,27.3799991607666,27.1299991607666,27.229999542236328,27.34000015258789,134600.0,27.248184204101562
2018-04-18,27.41900062561035,27.2189998626709,27.280000686645508,27.350000381469727,45900.0,27.258150100708008
2018-04-19,27.299999237060547,27.125999450683594,27.295000076293945,27.219999313354492,33600.0,27.12858772277832
2018-04-20,27.290000915527344,26.950000762939453,27.290000915527344,27.049999237060547,81900.0,26.959157943725586
2018-04-23,27.280000686645508,26.88599967956543,27.280000686645508,27.0,45800.0,26.909326553344727
2018-04-24,27.229999542236328,26.37700080871582,27.15999984741211,26.56999969482422,64200.0,26.480770111083984
2018-04-25,26.601999282836914,26.25,26.600000381469727,26.43199920654297,35200.0,26.34323501586914
2018-04-26,26.88800048828125,26.610000610351562,26.6200008392334,26.780000686645508,641300.0,26.690065383911133
2018-04-27,27.030000686645508,26.659000396728516,27.030000686645508,26.799999237060547,86700.0,26.709997177124023
2018-04-30,26.8799991607666,26.579999923706055,26.860000610351562,26.6200008392334,52600.0,26.53060531616211
2018-05-01,26.690000534057617,26.389999389648438,26.56999969482422,26.690000534057617,26700.0,26.60036849975586
2018-05-02,26.780000686645508,26.549999237060547,26.6200008392334,26.549999237060547,52100.0,26.460838317871094
2018-05-03,26.6299991607666,26.170000076293945,26.43600082397461,26.549999237060547,33800.0,26.460838317871094
2018-05-04,26.97800064086914,26.386999130249023,26.386999130249023,26.920000076293945,23600.0,26.829593658447266
2018-05-07,27.229999542236328,26.975000381469727,27.040000915527344,27.149999618530273,101900.0,27.058822631835938
2018-05-08,27.420000076293945,27.1299991607666,27.149999618530273,27.34000015258789,49100.0,27.248184204101562
2018-05-09,27.790000915527344,27.440000534057617,27.540000915527344,27.719999313354492,38400.0,27.626909255981445
2018-05-10,28.054000854492188,27.808000564575195,27.889999389648438,28.030000686645508,52800.0,27.935867309570312
2018-05-11,28.059999465942383,27.850000381469727,27.934999465942383,27.899999618530273,50400.0,27.806303024291992
2018-05-14,28.115999221801758,27.809999465942383,28.06999969482422,27.8700008392334,61600.0,27.776405334472656
2018-05-15,27.809999465942383,27.649999618530273,27.809999465942383,27.780000686645508,107200.0,27.68670654296875
2018-05-16,28.0,27.791000366210938,27.8799991607666,27.899999618530273,105500.0,27.806303024291992
2018-05-17,28.020000457763672,27.760000228881836,28.020000457763672,27.8799991607666,151800.0,27.7863712310791
2018-05-18,27.93000030517578,27.75,27.93000030517578,27.780000686645508,98800.0,27.68670654296875
2018-05-21,28.014999389648438,27.829999923706055,27.950000762939453,27.8700008392334,97700.0,27.776405334472656
2018-05-22,28.049999237060547,27.81999969482422,27.93000030517578,27.8700008392334,64100.0,27.776405334472656
2018-05-23,27.920000076293945,27.639999389648438,27.809999465942383,27.920000076293945,96300.0,27.826236724853516
2018-05-24,27.989999771118164,27.639999389648438,27.979999542236328,27.950000762939453,54100.0,27.856136322021484
2018-05-25,27.989999771118164,27.850000381469727,27.93000030517578,27.93000030517578,29700.0,27.836204528808594
2018-05-29,27.899999618530273,27.459999084472656,27.899999618530273,27.6200008392334,38100.0,27.527246475219727
2018-05-30,27.969999313354492,27.780000686645508,27.816999435424805,27.920000076293945,29900.0,27.826236724853516
2018-05-31,27.969999313354492,27.719999313354492,27.889999389648438,27.790000915527344,48100.0,27.69667625427246
2018-06-01,28.2189998626709,27.81999969482422,27.81999969482422,28.200000762939453,43900.0,28.10529899597168
2018-06-04,28.399999618530273,28.172000885009766,28.3799991607666,28.399999618530273,65000.0,28.304624557495117
2018-06-05,28.548999786376953,28.3799991607666,28.3799991607666,28.520000457763672,55400.0,28.42422103881836
2018-06-06,28.739999771118164,28.510000228881836,28.649999618530273,28.739999771118164,39900.0,28.643484115600586
2018-06-07,28.850000381469727,28.239999771118164,28.850000381469727,28.489999771118164,157800.0,28.39432144165039
2018-06-08,28.56999969482422,28.336999893188477,28.459999084472656,28.56999969482422,41600.0,28.47405242919922
2018-06-11,28.700000762939453,28.459999084472656,28.459999084472656,28.530000686645508,39700.0,28.434188842773438
2018-06-12,28.780000686645508,28.607999801635742,28.729999542236328,28.719999313354492,91600.0,28.623550415039062
2018-06-13,28.829999923706055,28.670000076293945,28.760000228881836,28.700000762939453,44400.0,28.603618621826172
2018-06-14,28.8799991607666,28.68000030517578,28.8799991607666,28.790000915527344,66900.0,28.693317413330078
2018-06-15,28.760000228881836,28.520999908447266,28.709999084472656,28.760000228881836,52000.0,28.663414001464844
2018-06-18,28.809999465942383,28.506999969482422,28.670000076293945,28.809999465942383,47600.0,28.71324920654297
2018-06-19,28.6299991607666,28.219999313354492,28.579999923706055,28.6299991607666,46800.0,28.533851623535156
2018-06-20,28.8700008392334,28.68000030517578,28.860000610351562,28.760000228881836,46700.0,28.663414001464844
2018-06-21,28.860000610351562,28.399999618530273,28.860000610351562,28.489999771118164,59400.0,28.416059494018555
2018-06-22,28.639999389648438,28.239999771118164,28.639999389648438,28.239999771118164,34500.0,28.166709899902344
2018-06-25,27.940000534057617,27.391000747680664,27.940000534057617,27.59000015258789,67300.0,27.518396377563477
2018-06-26,27.764999389648438,27.559999465942383,27.709999084472656,27.670000076293945,26000.0,27.598188400268555
2018-06-27,27.80900001525879,27.139999389648438,27.600000381469727,27.139999389648438,55000.0,27.069562911987305
2018-06-28,27.5,27.079999923706055,27.149999618530273,27.40999984741211,46000.0,27.338863372802734
2018-06-29,27.700000762939453,27.40999984741211,27.43000030517578,27.40999984741211,44800.0,27.338863372802734
2018-07-02,27.729999542236328,27.270000457763672,27.3700008392334,27.729999542236328,97700.0,27.65803337097168
2018-07-03,27.783000946044922,27.469999313354492,27.760000228881836,27.469999313354492,32100.0,27.398706436157227
2018-07-05,27.770000457763672,27.489999771118164,27.549999237060547,27.75,72400.0,27.677980422973633
2018-07-06,28.100000381469727,27.709999084472656,27.81999969482422,28.05699920654297,167000.0,27.98418426513672
2018-07-09,28.40999984741211,28.1299991607666,28.309999465942383,28.40999984741211,114400.0,28.33626937866211
2018-07-10,28.489999771118164,28.253999710083008,28.489999771118164,28.3799991607666,134200.0,28.306344985961914
2018-07-11,28.309999465942383,28.040000915527344,28.06999969482422,28.170000076293945,49200.0,28.096891403198242
2018-07-12,28.559999465942383,28.239999771118164,28.420000076293945,28.559999465942383,41800.0,28.485877990722656
2018-07-13,28.6299991607666,28.420000076293945,28.6299991607666,28.450000762939453,23200.0,28.37616539001465
2018-07-16,28.56999969482422,28.391000747680664,28.56999969482422,28.469999313354492,44900.0,28.3961124420166
2018-07-17,28.69099998474121,28.34000015258789,28.3799991607666,28.68000030517578,56200.0,28.605567932128906
2018-07-18,28.84000015258789,28.639999389648438,28.780000686645508,28.84000015258789,99800.0,28.765151977539062
2018-07-19,28.739999771118164,28.579999923706055,28.739999771118164,28.59000015258789,153700.0,28.51580047607422
2018-07-20,28.708999633789062,28.600000381469727,28.610000610351562,28.610000610351562,36500.0,28.535749435424805
2018-07-23,28.729999542236328,28.445999145507812,28.59000015258789,28.709999084472656,51500.0,28.635488510131836
2018-07-24,28.891000747680664,28.40999984741211,28.809999465942383,28.450000762939453,107700.0,28.37616539001465
2018-07-25,28.805999755859375,28.459999084472656,28.579999923706055,28.799999237060547,59700.0,28.725255966186523
2018-07-26,28.86199951171875,28.649999618530273,28.729999542236328,28.81999969482422,105400.0,28.74520492553711
2018-07-27,28.889999389648438,28.209999084472656,28.889999389648438,28.389999389648438,106500.0,28.316320419311523
2018-07-30,28.420000076293945,27.809999465942383,28.420000076293945,27.865999221801758,68200.0,27.79368019104004
2018-07-31,28.10300064086914,27.808000564575195,27.989999771118164,27.899999618530273,111500.0,27.827590942382812
2018-08-01,28.200000762939453,27.950000762939453,28.06999969482422,28.058000564575195,70900.0,27.985183715820312
2018-08-02,28.399999618530273,27.850000381469727,27.850000381469727,28.34000015258789,58100.0,28.266450881958008
2018-08-03,28.469999313354492,28.200000762939453,28.469999313354492,28.34000015258789,75100.0,28.266450881958008
2018-08-06,28.579999923706055,28.298999786376953,28.34000015258789,28.579999923706055,186400.0,28.505826950073242
2018-08-07,28.783000946044922,28.649999618530273,28.729999542236328,28.739999771118164,119700.0,28.66541290283203
2018-08-08,28.827999114990234,28.670000076293945,28.75,28.799999237060547,255300.0,28.725255966186523
2018-08-09,28.864999771118164,28.639999389648438,28.639999389648438,28.68000030517578,121500.0,28.605567932128906
2018-08-10,28.589000701904297,28.416000366210938,28.420000076293945,28.459999084472656,20300.0,28.386138916015625
2018-08-13,28.639999389648438,28.309999465942383,28.59000015258789,28.360000610351562,53400.0,28.28639793395996
2018-08-14,28.610000610351562,28.34600067138672,28.510000228881836,28.59000015258789,48100.0,28.51580047607422
2018-08-15,28.459999084472656,28.09000015258789,28.450000762939453,28.280000686645508,55800.0,28.20660400390625
2018-08-16,28.59000015258789,28.329999923706055,28.329999923706055,28.440000534057617,68600.0,28.36618995666504
2018-08-17,28.489999771118164,28.25,28.299999237060547,28.479999542236328,50600.0,28.40608787536621
2018-08-20,28.610000610351562,28.3700008392334,28.389999389648438,28.59000015258789,48700.0,28.51580047607422
2018-08-21,28.8799991607666,28.6200008392334,28.6200008392334,28.770000457763672,53200.0,28.69533348083496
2018-08-22,28.860000610351562,28.610000610351562,28.719999313354492,28.860000610351562,56800.0,28.78510093688965
2018-08-23,28.941999435424805,28.750999450683594,28.90999984741211,28.81800079345703,68400.0,28.743209838867188
2018-08-24,29.15999984741211,28.899999618530273,28.899999618530273,29.15999984741211,70500.0,29.084321975708008
2018-08-27,29.479999542236328,29.299999237060547,29.43000030517578,29.420000076293945,111200.0,29.343647003173828
2018-08-28,29.780000686645508,29.361000061035156,29.780000686645508,29.469999313354492,243100.0,29.393516540527344
2018-08-29,29.6200008392334,29.454999923706055,29.520000457763672,29.600000381469727,88100.0,29.52318000793457
2018-08-30,29.559999465942383,29.329999923706055,29.540000915527344,29.40999984741211,52400.0,29.33367347717285
2018-08-31,29.540000915527344,29.3439998626709,29.540000915527344,29.450000762939453,70200.0,29.373567581176758
2018-09-04,29.469999313354492,29.170000076293945,29.309999465942383,29.40999984741211,126000.0,29.33367347717285
2018-09-05,29.350000381469727,28.93000030517578,29.329999923706055,29.110000610351562,355900.0,29.03445053100586
2018-09-06,29.209999084472656,28.799999237060547,29.209999084472656,28.940000534057617,92000.0,28.864892959594727
2018-09-07,29.139999389648438,28.788000106811523,28.90999984741211,28.950000762939453,49400.0,28.874866485595703
2018-09-10,29.110000610351562,28.920000076293945,29.059999465942383,29.030000686645508,60500.0,28.954660415649414
2018-09-11,29.270000457763672,28.93000030517578,28.93000030517578,29.170000076293945,61800.0,29.094297409057617
2018-09-12,29.09000015258789,28.7549991607666,29.06999969482422,29.09000015258789,71200.0,29.014503479003906
2018-09-13,29.350000381469727,29.079999923706055,29.239999771118164,29.079999923706055,81700.0,29.00452995300293
2018-09-14,29.329999923706055,29.097000122070312,29.260000228881836,29.229999542236328,64100.0,29.177215576171875
2018-09-17,29.25,28.75,29.25,28.799999237060547,58400.0,28.74799346923828
2018-09-18,29.066999435424805,28.860000610351562,28.950000762939453,28.950000762939453,71500.0,28.897722244262695
2018-09-19,29.020000457763672,28.822999954223633,29.020000457763672,28.959999084472656,57800.0,28.907703399658203
2018-09-20,29.246000289916992,29.100000381469727,29.15999984741211,29.219999313354492,49600.0,29.167234420776367
2018-09-21,29.299999237060547,29.00200080871582,29.299999237060547,29.040000915527344,51300.0,28.987560272216797
2018-09-24,29.0,28.899999618530273,29.0,28.979999542236328,86000.0,28.92766761779785
2018-09-25,29.040000915527344,28.899999618530273,28.90999984741211,29.0,51600.0,28.9476318359375
2018-09-26,29.11400032043457,28.815000534057617,28.969999313354492,28.850000381469727,67900.0,28.797903060913086
2018-09-27,28.989999771118164,28.850000381469727,28.850000381469727,28.864999771118164,59100.0,28.812875747680664
2018-09-28,28.92099952697754,28.790000915527344,28.799999237060547,28.81999969482422,37000.0,28.767955780029297
2018-10-01,29.030000686645508,28.621999740600586,29.030000686645508,28.700000762939453,139600.0,28.648174285888672
2018-10-02,28.64699935913086,28.3799991607666,28.56999969482422,28.399999618530273,89000.0,28.34871482849121
2018-10-03,28.69499969482422,28.399999618530273,28.5,28.610000610351562,53500.0,28.55833625793457
2018-10-04,28.559999465942383,27.84000015258789,28.559999465942383,28.06999969482422,63500.0,28.019309997558594
2018-10-05,28.18000030517578,27.450000762939453,28.1200008392334,27.739999771118164,761900.0,27.68990707397461
2018-10-08,27.64699935913086,27.040000915527344,27.520000457763672,27.350000381469727,121100.0,27.30061149597168
2018-10-09,27.440000534057617,27.1299991607666,27.31999969482422,27.190000534057617,94900.0,27.140899658203125
2018-10-10,27.0,26.045000076293945,27.0,26.06999969482422,139100.0,26.02292251586914
2018-10-11,26.34000015258789,25.56999969482422,26.020000457763672,25.725000381469727,128900.0,25.678544998168945
2018-10-12,26.371000289916992,25.81999969482422,26.329999923706055,26.309999465942383,85900.0,26.262489318847656
2018-10-15,26.290000915527344,25.969999313354492,26.239999771118164,26.149999618530273,68800.0,26.1027774810791
2018-10-16,26.959999084472656,26.280000686645508,26.329999923706055,26.90999984741211,34200.0,26.861406326293945
2018-10-17,27.04199981689453,26.610000610351562,26.93000030517578,26.878999710083008,66800.0,26.830461502075195
2018-10-18,26.81999969482422,26.143999099731445,26.81999969482422,26.280000686645508,92200.0,26.232545852661133
2018-10-19,26.55699920654297,25.860000610351562,26.5,25.969999313354492,94200.0,25.92310333251953
2018-10-22,26.049999237060547,25.739999771118164,25.989999771118164,25.979999542236328,52400.0,25.93308448791504
2018-10-23,25.950000762939453,25.160999298095703,25.5,25.81999969482422,146500.0,25.773374557495117
2018-10-24,25.780000686645508,24.399999618530273,25.729999542236328,24.399999618530273,55500.0,24.355937957763672
2018-10-25,25.280000686645508,24.59000015258789,24.59000015258789,25.079999923706055,188700.0,25.034709930419922
2018-10-26,24.940000534057617,24.195999145507812,24.360000610351562,24.56999969482422,87300.0,24.525630950927734
2018-10-29,25.072999954223633,23.822999954223633,24.979999542236328,24.200000762939453,143800.0,24.156301498413086
2018-10-30,24.709999084472656,24.138999938964844,24.200000762939453,24.709999084472656,144600.0,24.66537857055664
2018-10-31,25.437000274658203,25.0,25.0,25.170000076293945,41300.0,25.124547958374023
2018-11-01,25.934999465942383,25.209999084472656,25.209999084472656,25.860000610351562,82400.0,25.813302993774414
2018-11-02,26.25,25.697999954223633,26.219999313354492,25.850000381469727,48600.0,25.803319931030273
2018-11-05,25.81999969482422,25.489999771118164,25.81999969482422,25.700000762939453,77600.0,25.653593063354492
2018-11-06,25.94499969482422,25.709999084472656,25.729999542236328,25.90999984741211,44700.0,25.863210678100586
2018-11-07,26.549999237060547,26.086000442504883,26.239999771118164,26.549999237060547,128600.0,26.502056121826172
2018-11-08,26.55299949645996,26.239999771118164,26.540000915527344,26.3799991607666,119500.0,26.33236312866211
2018-11-09,26.229999542236328,25.600000381469727,26.229999542236328,25.8799991607666,98500.0,25.83326530456543
2018-11-12,25.670000076293945,24.93000030517578,25.670000076293945,24.950000762939453,59900.0,24.90494728088379
2018-11-13,25.43000030517578,24.926000595092773,25.020000457763672,25.048999786376953,153600.0,25.003767013549805
2018-11-14,25.329999923706055,24.639999389648438,25.329999923706055,24.75,432900.0,24.705305099487305
2018-11-15,25.378999710083008,24.600000381469727,24.6200008392334,25.280000686645508,38400.0,25.234350204467773
2018-11-16,25.466999053955078,25.059999465942383,25.059999465942383,25.357999801635742,66900.0,25.31220817565918
2018-11-19,25.229999542236328,24.280000686645508,25.229999542236328,24.299999237060547,73100.0,24.256118774414062
2018-11-20,24.399999618530273,23.68000030517578,23.729999542236328,24.18000030517578,188900.0,24.136335372924805
2018-11-21,24.60300064086914,24.329999923706055,24.34000015258789,24.420000076293945,53000.0,24.37590217590332
2018-11-23,24.701000213623047,24.43199920654297,24.43199920654297,24.530000686645508,12000.0,24.48570442199707
2018-11-26,25.020000457763672,24.700000762939453,24.84000015258789,25.0,141100.0,24.95485496520996
2018-11-27,25.003999710083008,24.739999771118164,24.790000915527344,24.93000030517578,64400.0,24.884981155395508
2018-11-28,25.75,24.993000030517578,25.1299991607666,25.729999542236328,190400.0,25.683536529541016
2018-11-29,25.920000076293945,25.520000457763672,25.700000762939453,25.695999145507812,285800.0,25.64959716796875
2018-11-30,25.966999053955078,25.600000381469727,25.649999618530273,25.90999984741211,53300.0,25.863210678100586
2018-12-03,26.520000457763672,26.173999786376953,26.520000457763672,26.31999969482422,54500.0,26.272470474243164
2018-12-04,26.3700008392334,25.299999237060547,26.260000228881836,25.299999237060547,83500.0,25.25431251525879
2018-12-06,25.489999771118164,24.829999923706055,24.920000076293945,25.474000930786133,80700.0,25.42799949645996
2018-12-07,25.450000762939453,24.510000228881836,25.360000610351562,24.610000610351562,104700.0,24.565561294555664
2018-12-10,24.934999465942383,24.299999237060547,24.540000915527344,24.81999969482422,335300.0,24.775178909301758
2018-12-11,25.31999969482422,24.746000289916992,25.31999969482422,24.959999084472656,267100.0,24.914926528930664
2018-12-12,25.579999923706055,25.139999389648438,25.299999237060547,25.260000228881836,73800.0,25.214384078979492
2018-12-13,25.399999618530273,24.93000030517578,25.280000686645508,25.030000686645508,66100.0,24.98480224609375
2018-12-14,24.90999984741211,24.492000579833984,24.719999313354492,24.5,83200.0,24.45575714111328
2018-12-17,24.524999618530273,23.743000030517578,24.309999465942383,23.81999969482422,201600.0,23.77698516845703
2018-12-18,24.22100067138672,23.719999313354492,24.15999984741211,23.889999389648438,151300.0,23.850862503051758
2018-12-19,24.216999053955078,23.239999771118164,23.790000915527344,23.43000030517578,164600.0,23.391618728637695
2018-12-20,23.440000534057617,22.584999084472656,23.25,22.950000762939453,587700.0,22.912405014038086
2018-12-21,23.049999237060547,22.09000015258789,22.90999984741211,22.170000076293945,324300.0,22.133682250976562
2018-12-24,22.219999313354492,21.709999084472656,22.062999725341797,21.739999771118164,204100.0,21.70438575744629
2018-12-26,23.0,21.85700035095215,21.860000610351562,23.0,136000.0,22.962322235107422
2018-12-27,23.239999771118164,22.329999923706055,22.764999389648438,23.239999771118164,192000.0,23.201929092407227
2018-12-28,23.6299991607666,23.020000457763672,23.270000457763672,23.200000762939453,256200.0,23.16199493408203
2018-12-31,23.530000686645508,23.1200008392334,23.1200008392334,23.420000076293945,165100.0,23.381633758544922
2019-01-02,23.6299991607666,23.1200008392334,23.139999389648438,23.459999084472656,192600.0,23.421567916870117
2019-01-03,23.40999984741211,22.760000228881836,23.40999984741211,22.760000228881836,91900.0,22.722715377807617
2019-01-04,23.915000915527344,23.030000686645508,23.030000686645508,23.809999465942383,47200.0,23.770994186401367
2019-01-07,24.5,23.8700008392334,23.8700008392334,24.309999465942383,191900.0,24.27017593383789
2019-01-08,24.670000076293945,24.256000518798828,24.469999313354492,24.649999618530273,104500.0,24.609619140625
2019-01-09,25.110000610351562,24.81999969482422,24.84000015258789,24.8799991607666,139900.0,24.83924102783203
2019-01-10,25.170000076293945,24.68000030517578,24.860000610351562,25.110000610351562,58100.0,25.068866729736328
2019-01-11,25.190000534057617,24.988000869750977,25.15999984741211,25.1299991607666,103100.0,25.088830947875977
2019-01-14,25.059999465942383,24.90999984741211,24.979999542236328,25.0,42700.0,24.95904541015625
2019-01-15,25.31999969482422,25.09000015258789,25.09000015258789,25.28499984741211,310600.0,25.24357795715332
2019-01-16,25.41900062561035,25.25,25.329999923706055,25.299999237060547,137800.0,25.25855255126953
2019-01-17,25.503999710083008,25.15999984741211,25.15999984741211,25.420000076293945,81100.0,25.37835693359375
2019-01-18,25.709999084472656,25.424999237060547,25.59000015258789,25.65999984741211,79200.0,25.617963790893555
2019-01-22,25.51300048828125,25.22100067138672,25.459999084472656,25.329999923706055,121200.0,25.28850555419922
2019-01-23,25.511999130249023,25.18000030517578,25.511999130249023,25.280000686645508,60800.0,25.238588333129883
2019-01-24,25.530000686645508,25.3700008392334,25.389999389648438,25.530000686645508,547300.0,25.488178253173828
2019-01-25,25.840999603271484,25.559999465942383,25.559999465942383,25.825000762939453,264700.0,25.782695770263672
2019-01-28,25.702999114990234,25.56999969482422,25.56999969482422,25.6200008392334,192400.0,25.578031539916992
2019-01-29,25.690000534057617,25.520000457763672,25.6299991607666,25.59000015258789,198100.0,25.548078536987305
2019-01-30,25.83799934387207,25.56999969482422,25.639999389648438,25.760000228881836,373900.0,25.71780014038086
2019-01-31,26.020000457763672,25.770000457763672,25.770000457763672,25.976999282836914,134700.0,25.934444427490234
2019-02-01,26.104999542236328,25.96299934387207,26.059999465942383,26.09000015258789,127300.0,26.047260284423828
2019-02-04,26.200000762939453,26.051000595092773,26.139999389648438,26.18000030517578,87200.0,26.137113571166992
2019-02-05,26.31999969482422,26.197999954223633,26.239999771118164,26.280000686645508,155600.0,26.236949920654297
2019-02-06,26.3700008392334,26.219999313354492,26.219999313354492,26.34000015258789,80600.0,26.296850204467773
2019-02-07,26.195999145507812,26.0,26.100000381469727,26.100000381469727,53200.0,26.05724334716797
2019-02-08,26.139999389648438,25.920000076293945,25.920000076293945,26.079999923706055,22700.0,26.037277221679688
2019-02-11,26.219999313354492,26.090999603271484,26.1299991607666,26.190000534057617,67400.0,26.147096633911133
2019-02-12,26.40999984741211,26.240999221801758,26.25,26.40999984741211,47900.0,26.366735458374023
2019-02-13,26.459999084472656,26.350000381469727,26.45199966430664,26.3700008392334,54200.0,26.326801300048828
2019-02-14,26.5,26.280000686645508,26.280000686645508,26.459999084472656,51600.0,26.41665267944336
2019-02-15,26.547000885009766,26.45800018310547,26.5,26.535999298095703,45400.0,26.492528915405273
2019-02-19,26.579999923706055,26.469999313354492,26.469999313354492,26.555999755859375,32000.0,26.512496948242188
2019-02-20,26.6200008392334,26.40999984741211,26.459999084472656,26.540000915527344,33800.0,26.496522903442383
2019-02-21,26.559999465942383,26.339000701904297,26.440000534057617,26.389999389648438,52700.0,26.34676742553711
2019-02-22,26.579999923706055,26.399999618530273,26.399999618530273,26.530000686645508,74200.0,26.486539840698242
2019-02-25,26.790000915527344,26.6299991607666,26.6299991607666,26.670000076293945,55000.0,26.626310348510742
2019-02-26,26.700000762939453,26.600000381469727,26.639999389648438,26.6200008392334,61400.0,26.576393127441406
2019-02-27,26.719999313354492,26.510000228881836,26.540000915527344,26.676000595092773,54100.0,26.632301330566406
2019-02-28,26.709999084472656,26.610000610351562,26.709999084472656,26.6299991607666,32400.0,26.586374282836914
2019-03-01,26.799999237060547,26.6299991607666,26.68000030517578,26.764999389648438,77900.0,26.721153259277344
2019-03-04,26.77199935913086,26.399999618530273,26.75,26.520000457763672,71700.0,26.4765567779541
2019-03-05,26.610000610351562,26.469999313354492,26.479999542236328,26.610000610351562,106800.0,26.566408157348633
2019-03-06,26.549999237060547,26.312000274658203,26.549999237060547,26.334999084472656,53900.0,26.291858673095703
2019-03-07,26.34000015258789,26.139999389648438,26.34000015258789,26.18000030517578,106100.0,26.137113571166992
2019-03-08,26.184999465942383,26.0,26.0,26.152000427246094,37700.0,26.109159469604492
2019-03-11,26.48699951171875,26.18000030517578,26.18000030517578,26.452999114990234,52600.0,26.409664154052734
2019-03-12,26.613000869750977,26.459999084472656,26.559999465942383,26.562000274658203,163200.0,26.51848793029785
2019-03-13,26.760000228881836,26.579999923706055,26.579999923706055,26.719999313354492,40600.0,26.676227569580078
2019-03-14,26.740999221801758,26.639999389648438,26.725000381469727,26.65999984741211,53500.0,26.61632537841797
2019-03-15,26.84600067138672,26.742000579833984,26.742000579833984,26.81399917602539,29500.0,26.77007293701172
2019-03-18,26.89699935913086,26.690000534057617,26.860000610351562,26.78499984741211,37700.0,26.741121292114258
2019-03-19,26.93899917602539,26.829999923706055,26.829999923706055,26.860000610351562,61000.0,26.81599998474121
2019-03-20,26.944000244140625,26.711000442504883,26.829999923706055,26.858999252319336,67200.0,26.814998626708984
2019-03-21,27.09000015258789,26.677000045776367,26.677000045776367,27.020000457763672,45000.0,27.020000457763672
2019-03-22,27.040000915527344,26.600000381469727,27.0,26.65999984741211,56600.0,26.65999984741211
2019-03-25,26.600000381469727,26.440000534057617,26.520000457763672,26.559999465942383,49900.0,26.559999465942383
2019-03-26,26.749000549316406,26.600000381469727,26.739999771118164,26.690000534057617,68300.0,26.690000534057617
2019-03-27,26.66699981689453,26.385000228881836,26.6200008392334,26.479999542236328,103000.0,26.479999542236328
2019-03-28,26.60700035095215,26.469999313354492,26.579999923706055,26.579999923706055,36200.0,26.579999923706055
2019-03-29,26.780000686645508,26.649999618530273,26.719999313354492,26.729999542236328,57200.0,26.729999542236328
2019-04-01,26.979999542236328,26.850000381469727,26.850000381469727,26.950000762939453,37100.0,26.950000762939453
2019-04-02,27.045000076293945,26.92300033569336,26.93000030517578,27.0,51200.0,27.0
2019-04-03,27.229999542236328,27.079999923706055,27.18000030517578,27.18000030517578,45800.0,27.18000030517578
2019-04-04,27.229999542236328,26.906999588012695,27.229999542236328,27.031999588012695,55500.0,27.031999588012695
2019-04-05,27.200000762939453,27.020000457763672,27.020000457763672,27.1299991607666,71600.0,27.1299991607666
2019-04-08,27.190000534057617,27.0,27.110000610351562,27.139999389648438,53500.0,27.139999389648438
2019-04-09,27.190000534057617,27.06999969482422,27.190000534057617,27.06999969482422,39800.0,27.06999969482422
2019-04-10,27.239999771118164,27.06999969482422,27.06999969482422,27.149999618530273,36300.0,27.149999618530273
2019-04-11,27.200000762939453,27.09000015258789,27.200000762939453,27.139999389648438,92400.0,27.139999389648438
2019-04-12,27.200000762939453,27.079999923706055,27.15999984741211,27.1200008392334,37900.0,27.1200008392334
2019-04-15,27.121000289916992,27.040000915527344,27.1200008392334,27.1200008392334,48300.0,27.1200008392334
2019-04-16,27.200000762939453,27.040000915527344,27.09000015258789,27.09000015258789,63000.0,27.09000015258789
2019-04-17,27.200000762939453,26.757999420166016,27.200000762939453,26.829999923706055,55300.0,26.829999923706055
2019-04-18,26.81100082397461,26.639999389648438,26.760000228881836,26.7450008392334,46700.0,26.7450008392334
2019-04-22,26.833999633789062,26.700000762939453,26.700000762939453,26.780000686645508,27700.0,26.780000686645508
2019-04-23,27.110000610351562,26.790000915527344,26.790000915527344,27.030000686645508,48500.0,27.030000686645508
2019-04-24,27.1200008392334,27.0,27.0,27.058000564575195,52500.0,27.058000564575195
2019-04-25,27.07900047302246,26.927000045776367,27.049999237060547,27.07900047302246,183800.0,27.07900047302246
2019-04-26,27.1299991607666,26.927000045776367,26.93000030517578,27.06999969482422,35100.0,27.06999969482422
2019-04-29,27.209999084472656,27.020000457763672,27.020000457763672,27.170000076293945,32900.0,27.170000076293945
2019-04-30,27.18000030517578,26.979999542236328,27.18000030517578,27.110000610351562,25700.0,27.110000610351562
2019-05-01,27.260000228881836,27.0,27.260000228881836,27.030000686645508,232900.0,27.030000686645508
2019-05-02,27.100000381469727,26.8799991607666,26.940000534057617,26.969999313354492,47100.0,26.969999313354492
2019-05-03,27.209999084472656,26.969999313354492,26.969999313354492,27.18000030517578,71700.0,27.18000030517578
2019-05-06,27.229999542236328,26.90999984741211,27.229999542236328,27.139999389648438,47700.0,27.139999389648438
2019-05-07,26.93000030517578,26.621000289916992,26.829999923706055,26.75,66900.0,26.75
2019-05-08,26.763999938964844,26.6299991607666,26.729999542236328,26.690000534057617,666200.0,26.690000534057617
2019-05-09,26.670000076293945,26.360000610351562,26.45800018310547,26.610000610351562,124500.0,26.610000610351562
2019-05-10,26.67099952697754,26.299999237060547,26.489999771118164,26.639999389648438,42200.0,26.639999389648438
2019-05-13,26.344999313354492,26.013999938964844,26.239999771118164,26.020000457763672,42500.0,26.020000457763672
2019-05-14,26.3700008392334,26.15999984741211,26.190000534057617,26.270000457763672,45700.0,26.270000457763672
2019-05-15,26.489999771118164,26.1200008392334,26.1200008392334,26.459999084472656,75300.0,26.459999084472656
2019-05-16,26.719999313354492,26.503000259399414,26.51099967956543,26.549999237060547,315300.0,26.549999237060547
2019-05-17,26.604999542236328,26.360000610351562,26.360000610351562,26.389999389648438,54700.0,26.389999389648438
2019-05-20,26.3799991607666,26.163999557495117,26.239999771118164,26.209999084472656,53300.0,26.209999084472656
2019-05-21,26.479999542236328,26.299999237060547,26.299999237060547,26.43000030517578,62400.0,26.43000030517578
2019-05-22,26.440000534057617,26.290000915527344,26.290000915527344,26.360000610351562,37100.0,26.360000610351562
2019-05-23,26.200000762939453,26.049999237060547,26.15999984741211,26.1200008392334,38100.0,26.1200008392334
2019-05-24,26.319000244140625,26.18000030517578,26.18000030517578,26.219999313354492,27700.0,26.219999313354492
