Date,High,Low,Open,Close,Volume,Adj Close
2017-11-02,59.7599983215332,58.63999938964844,59.130001068115234,59.290000915527344,297000.0,57.93906021118164
2017-11-03,60.15999984741211,58.66999816894531,59.2599983215332,58.709999084472656,255600.0,57.372276306152344
2017-11-06,59.33000183105469,58.41999816894531,58.709999084472656,58.439998626708984,294000.0,57.108428955078125
2018-05-24,73.12999725341797,71.81999969482422,72.62000274658203,72.66999816894531,111600.0,71.01419067382812
2018-05-25,72.76000213623047,72.01000213623047,72.18000030517578,72.48999786376953,103400.0,70.83828735351562
2018-05-29,72.87999725341797,70.9000015258789,72.13999938964844,71.68000030517578,228000.0,70.04674530029297
2018-05-30,74.01000213623047,71.94000244140625,72.13999938964844,73.41999816894531,268300.0,71.74710845947266
2018-05-31,73.43000030517578,71.61000061035156,73.4000015258789,71.9000015258789,209400.0,70.2617416381836
2018-06-01,72.9800033569336,72.26000213623047,72.55999755859375,72.79000091552734,181900.0,71.1314697265625
2018-06-04,73.87999725341797,72.8499984741211,73.0999984741211,73.20999908447266,284400.0,71.54188537597656
2018-06-05,73.4800033569336,71.9800033569336,73.16000366210938,72.98999786376953,258200.0,71.326904296875
2018-06-06,73.51000213623047,71.61000061035156,73.04000091552734,72.0199966430664,206100.0,70.37899780273438
2018-06-07,73.5999984741211,72.12999725341797,72.30000305175781,73.31999969482422,165500.0,71.64938354492188
2018-06-08,73.56999969482422,71.55000305175781,73.18000030517578,72.12000274658203,254700.0,70.47673034667969
2018-06-11,73.16000366210938,72.05999755859375,72.19999694824219,72.41000366210938,218900.0,70.76011657714844
2018-06-12,73.0,71.69999694824219,72.5199966430664,72.37000274658203,145400.0,70.72103881835938
2018-06-13,72.2699966430664,71.05999755859375,72.2699966430664,71.23999786376953,210600.0,69.61677551269531
2018-06-14,71.95999908447266,70.56999969482422,71.16000366210938,71.91000366210938,190500.0,70.7082290649414
2018-06-15,72.1500015258789,69.94000244140625,71.61000061035156,71.66000366210938,357000.0,70.46240997314453
2018-06-18,72.41999816894531,71.19000244140625,71.22000122070312,71.91000366210938,160300.0,70.7082290649414
2018-06-19,71.62000274658203,70.0,70.83000183105469,71.22000122070312,250600.0,70.02975463867188
2018-06-20,72.43000030517578,70.94000244140625,71.62000274658203,72.08000183105469,190300.0,70.8753890991211
2018-06-21,72.08000183105469,70.01000213623047,71.9800033569336,70.3499984741211,200000.0,69.1742935180664
2018-06-22,71.91999816894531,70.41999816894531,71.25,70.54000091552734,493600.0,69.36112213134766
2018-06-25,70.2699966430664,68.95999908447266,70.2699966430664,69.33999633789062,211600.0,68.18116760253906
2018-06-26,70.27999877929688,68.88999938964844,69.68000030517578,69.8499984741211,184300.0,68.68264770507812
2018-06-27,70.83999633789062,68.93000030517578,70.04000091552734,68.97000122070312,115400.0,67.8173599243164
2018-06-28,69.19000244140625,67.91999816894531,68.72000122070312,69.08000183105469,211900.0,67.92552185058594
2018-06-29,75.2300033569336,69.30000305175781,70.44000244140625,74.2300033569336,570700.0,72.98946380615234
2018-07-02,74.13999938964844,72.56999969482422,73.19999694824219,74.13999938964844,383500.0,72.90096282958984
2018-07-03,75.47000122070312,74.19000244140625,74.86000061035156,74.77999877929688,151000.0,73.53025817871094
2018-07-05,75.98999786376953,74.36000061035156,75.16999816894531,75.95999908447266,152500.0,74.69053649902344
2018-07-06,76.87000274658203,75.19000244140625,76.18000030517578,75.31999969482422,206200.0,74.06124114990234
2018-07-09,77.36000061035156,74.97000122070312,75.5,77.04000091552734,219100.0,75.75248718261719
2018-07-10,77.36000061035156,75.3499984741211,77.31999969482422,75.69999694824219,180800.0,74.43489074707031
2018-07-11,76.7300033569336,73.62000274658203,75.1500015258789,75.77999877929688,347800.0,74.5135498046875
2018-07-12,76.5,75.37000274658203,76.5,75.66999816894531,267900.0,74.40538787841797
2018-07-13,77.08999633789062,75.5199966430664,75.5199966430664,76.86000061035156,231700.0,75.57550811767578
2018-07-16,77.45999908447266,76.30000305175781,76.81999969482422,77.0,254500.0,75.7131576538086
2018-07-17,77.31999969482422,76.33999633789062,76.83000183105469,76.9800033569336,206400.0,75.69349670410156
2018-07-18,78.33000183105469,76.33000183105469,77.0199966430664,77.29000091552734,355300.0,75.9983139038086
2018-07-19,86.91000366210938,80.2699966430664,81.30000305175781,84.1500015258789,1161300.0,82.74366760253906
2018-07-20,91.12000274658203,84.66999816894531,85.75,88.27999877929688,975600.0,86.80464172363281
2018-07-23,89.48999786376953,86.45999908447266,88.19999694824219,86.75,490300.0,85.30021667480469
2018-07-24,88.69000244140625,84.5199966430664,87.97000122070312,84.9000015258789,418700.0,83.48113250732422
2018-07-25,86.2699966430664,83.55000305175781,84.9000015258789,86.08000183105469,530700.0,84.64141845703125
2018-07-26,86.33999633789062,84.69999694824219,85.83000183105469,85.18000030517578,260800.0,83.75645446777344
2018-07-27,85.62999725341797,82.4000015258789,85.62999725341797,82.83999633789062,377000.0,81.45555877685547
2018-07-30,83.26000213623047,81.08000183105469,82.83999633789062,81.38999938964844,524400.0,80.02979278564453
2018-07-31,82.88999938964844,81.12999725341797,81.52999877929688,82.33999633789062,269300.0,80.96391296386719
2018-08-01,83.5,81.33000183105469,81.41000366210938,82.93000030517578,333600.0,81.54405212402344
2018-08-02,83.77999877929688,81.83999633789062,82.5199966430664,83.01000213623047,254300.0,81.62272644042969
2018-08-03,83.66999816894531,82.2699966430664,83.02999877929688,83.58000183105469,216000.0,82.18319702148438
2018-08-06,84.55999755859375,83.51000213623047,83.75,84.02999877929688,200200.0,82.62567138671875
2018-08-07,85.69999694824219,83.93000030517578,84.76000213623047,85.37000274658203,236900.0,83.94328308105469
2018-08-08,85.87999725341797,83.66000366210938,84.94000244140625,85.08999633789062,270500.0,83.66795349121094
2018-08-09,85.41999816894531,84.41999816894531,85.05999755859375,84.56999969482422,134000.0,83.15665435791016
2018-08-10,84.75,83.27999877929688,84.05000305175781,84.33999633789062,124600.0,82.93048858642578
2018-08-13,84.69000244140625,82.62000274658203,84.69000244140625,82.7699966430664,225200.0,81.38673400878906
2018-08-14,84.38999938964844,82.69000244140625,82.73999786376953,83.48999786376953,165400.0,82.0947036743164
2018-08-15,83.0199966430664,80.43000030517578,82.72000122070312,81.55999755859375,226000.0,80.19694519042969
2018-08-16,82.37999725341797,81.44000244140625,82.0,82.19000244140625,160700.0,80.8164291381836
2018-08-17,83.37000274658203,82.2300033569336,82.2300033569336,83.01000213623047,86600.0,81.62272644042969
2018-08-20,84.0,82.80000305175781,83.22000122070312,83.76000213623047,110000.0,82.36019134521484
2018-08-21,86.48999786376953,84.20999908447266,84.20999908447266,85.83000183105469,412800.0,84.39559936523438
2018-08-22,86.54000091552734,85.31999969482422,85.80999755859375,85.91000366210938,279000.0,84.47425842285156
2018-08-23,86.4800033569336,84.6500015258789,85.94000244140625,85.27999877929688,180700.0,83.85478210449219
2018-08-24,86.94999694824219,85.30999755859375,85.69000244140625,85.75,136100.0,84.31693267822266
2018-08-27,87.2300033569336,85.83000183105469,86.19999694824219,86.37999725341797,172800.0,84.9364013671875
2018-08-28,87.37999725341797,84.58000183105469,86.55000305175781,85.5199966430664,161800.0,84.09077453613281
2018-08-29,86.01000213623047,84.87999725341797,85.66999816894531,85.27999877929688,154400.0,83.85478210449219
2018-08-30,85.76000213623047,83.9800033569336,85.12000274658203,85.12000274658203,144400.0,83.69745635986328
2018-08-31,85.22000122070312,84.23999786376953,84.62000274658203,84.44999694824219,189300.0,83.03865814208984
2018-09-04,84.9800033569336,82.5199966430664,84.38999938964844,83.41000366210938,203000.0,82.01603698730469
2018-09-05,83.7699966430664,82.48999786376953,83.31999969482422,83.44999694824219,192100.0,82.05536651611328
2018-09-06,83.77999877929688,82.20999908447266,83.51000213623047,83.27999877929688,183900.0,81.8882064819336
2018-09-07,83.4000015258789,82.0999984741211,82.61000061035156,83.08000183105469,161600.0,81.69155883789062
2018-09-10,84.87999725341797,82.70999908447266,83.77999877929688,83.76000213623047,162900.0,82.36019134521484
2018-09-11,83.88999938964844,82.98999786376953,83.43000030517578,83.06999969482422,175700.0,81.68171691894531
2018-09-12,83.55000305175781,81.72000122070312,83.33999633789062,81.9000015258789,246000.0,80.5312728881836
2018-09-13,82.9000015258789,81.41999816894531,81.93000030517578,82.63999938964844,214700.0,81.69781494140625
2018-09-14,84.0199966430664,82.4000015258789,82.7699966430664,83.16999816894531,322000.0,82.22177124023438
2018-09-17,84.41999816894531,81.86000061035156,83.30000305175781,84.25,168600.0,83.28945922851562
2018-09-18,85.47000122070312,84.05999755859375,85.29000091552734,84.86000061035156,209800.0,83.89250946044922
2018-09-19,85.70999908447266,84.5199966430664,84.9000015258789,84.88999938964844,148300.0,83.92216491699219
2018-09-20,86.23999786376953,85.01000213623047,85.76000213623047,85.63999938964844,210300.0,84.66361236572266
2018-09-21,86.0999984741211,84.98999786376953,85.87999725341797,85.69000244140625,400400.0,84.71304321289062
2018-09-24,86.4000015258789,84.5999984741211,85.8499984741211,86.25,222700.0,85.26665496826172
2018-09-25,87.05999755859375,85.63999938964844,86.37999725341797,86.06999969482422,138200.0,85.08871459960938
2018-09-26,87.0,85.47000122070312,86.05000305175781,86.29000091552734,217800.0,85.30620574951172
2018-09-27,87.20999908447266,86.23999786376953,86.31999969482422,86.6500015258789,243200.0,85.66210174560547
2018-09-28,86.91000366210938,85.81999969482422,86.4800033569336,86.58999633789062,167200.0,85.602783203125
2018-10-01,87.0999984741211,86.29000091552734,87.04000091552734,86.5999984741211,211600.0,85.6126708984375
2018-10-02,87.23999786376953,85.5199966430664,86.44000244140625,86.12999725341797,176600.0,85.14802551269531
2018-10-03,88.18000030517578,86.12999725341797,86.66000366210938,87.62000274658203,207000.0,86.62104034423828
2018-10-04,88.58999633789062,86.47000122070312,87.5,88.04000091552734,256200.0,87.0362548828125
2018-10-05,89.2300033569336,87.3499984741211,88.19000244140625,88.73999786376953,199600.0,87.728271484375
2018-10-08,89.44999694824219,88.27999877929688,88.41999816894531,89.08000183105469,198900.0,88.06439208984375
2018-10-09,89.94999694824219,88.45999908447266,88.81999969482422,88.61000061035156,245100.0,87.5997543334961
2018-10-10,88.41000366210938,84.22000122070312,88.12000274658203,84.29000091552734,284400.0,83.32901000976562
2018-10-11,84.54000091552734,81.81999969482422,83.77999877929688,81.9000015258789,280000.0,80.96626281738281
2018-10-12,83.4800033569336,80.70999908447266,83.4800033569336,82.0,228900.0,81.06511688232422
2018-10-15,84.05999755859375,81.61000061035156,82.0199966430664,83.30999755859375,182400.0,82.36017608642578
2018-10-16,85.44999694824219,82.06999969482422,83.48999786376953,85.27999877929688,142800.0,84.3077163696289
2018-10-17,85.72000122070312,83.02999877929688,85.38999938964844,84.2699966430664,183500.0,83.3092269897461
2018-10-18,84.44999694824219,82.11000061035156,83.61000061035156,82.45999908447266,294200.0,81.51986694335938
2018-10-19,83.52999877929688,81.79000091552734,82.30000305175781,82.5999984741211,226600.0,81.65827178955078
2018-10-22,85.06999969482422,82.94000244140625,83.08999633789062,83.83000183105469,333600.0,82.87425231933594
2018-10-23,83.0,76.5,78.0,78.38999938964844,799700.0,77.49627685546875
2018-10-24,78.41000366210938,73.0,78.41000366210938,73.37000274658203,753700.0,72.53350830078125
2018-10-25,73.58000183105469,72.0,73.58000183105469,72.75,413900.0,71.92057800292969
2018-10-26,73.58000183105469,71.19999694824219,71.7699966430664,72.5,236200.0,71.67343139648438
2018-10-29,74.63999938964844,72.08000183105469,73.62999725341797,73.02999877929688,301500.0,72.19738006591797
2018-10-30,74.83000183105469,72.54000091552734,72.95999908447266,73.02999877929688,322700.0,72.19738006591797
2018-10-31,75.26000213623047,73.66999816894531,73.97000122070312,74.93000030517578,356300.0,74.07572174072266
2018-11-01,77.19999694824219,74.87000274658203,75.43000030517578,76.2699966430664,338200.0,75.40043640136719
2018-11-02,77.3499984741211,75.76000213623047,76.55000305175781,76.5199966430664,201600.0,75.64759063720703
2018-11-05,78.12999725341797,75.62999725341797,76.94000244140625,77.48999786376953,211000.0,76.60652923583984
2018-11-06,78.33000183105469,76.26000213623047,77.13999938964844,78.29000091552734,194500.0,77.39740753173828
2018-11-07,80.11000061035156,77.5999984741211,78.41999816894531,79.69000244140625,247100.0,78.78145599365234
2018-11-08,80.91000366210938,78.8499984741211,79.56999969482422,79.87000274658203,198200.0,78.95940399169922
2018-11-09,80.0,77.23999786376953,79.20999908447266,78.70999908447266,169200.0,77.8126220703125
2018-11-12,79.23999786376953,76.43000030517578,79.0199966430664,76.52999877929688,208600.0,75.65747833251953
2018-11-13,80.16000366210938,75.88999938964844,77.12999725341797,78.83999633789062,236800.0,77.9411392211914
2018-11-14,81.08999633789062,78.51000213623047,79.81999969482422,79.41999816894531,162500.0,78.5145263671875
2018-11-15,81.77999877929688,78.62000274658203,78.77999877929688,81.69999694824219,138600.0,80.7685317993164
2018-11-16,83.16000366210938,81.04000091552734,81.2699966430664,82.80999755859375,178500.0,81.86587524414062
2018-11-19,83.33000183105469,79.81999969482422,82.51000213623047,80.44999694824219,191600.0,79.53278350830078
2018-11-20,80.69999694824219,78.16999816894531,79.41999816894531,78.61000061035156,226900.0,77.7137680053711
2018-11-21,80.91999816894531,78.2699966430664,79.19999694824219,79.7300033569336,206100.0,78.82099914550781
2018-11-23,81.01000213623047,78.44000244140625,78.44000244140625,79.41999816894531,89400.0,78.5145263671875
2018-11-26,82.3499984741211,80.3499984741211,80.3499984741211,81.18000030517578,155100.0,80.25446319580078
2018-11-27,81.63999938964844,80.2699966430664,80.5999984741211,81.16000366210938,183600.0,80.23469543457031
2018-11-28,84.29000091552734,80.13999938964844,81.62000274658203,84.1500015258789,167500.0,83.19060516357422
2018-11-29,84.94999694824219,82.5199966430664,83.5999984741211,83.16000366210938,184100.0,82.2118911743164
2018-11-30,84.33000183105469,82.37999725341797,82.68000030517578,83.51000213623047,245600.0,82.55789947509766
2018-12-03,85.05999755859375,81.95999908447266,84.62999725341797,83.9000015258789,185500.0,82.9434585571289
2018-12-04,83.7699966430664,78.86000061035156,83.7699966430664,79.0199966430664,267000.0,78.11908721923828
2018-12-06,78.94000244140625,76.11000061035156,77.63999938964844,78.79000091552734,183400.0,77.89170837402344
2018-12-07,79.68000030517578,76.72000122070312,79.05999755859375,77.2699966430664,133400.0,76.3890380859375
2018-12-10,77.19999694824219,74.38999938964844,77.0,76.70999908447266,142800.0,75.8354263305664
2018-12-11,78.91000366210938,75.69999694824219,78.05000305175781,77.02999877929688,144200.0,76.15177917480469
2018-12-12,78.80000305175781,77.44000244140625,78.36000061035156,77.91000366210938,201500.0,77.0217514038086
2018-12-13,77.86000061035156,75.0,77.86000061035156,75.1500015258789,222100.0,74.71517181396484
2018-12-14,75.31999969482422,73.20999908447266,74.19999694824219,73.68000030517578,202500.0,73.25367736816406
2018-12-17,74.81999969482422,71.80999755859375,73.87000274658203,72.1500015258789,229300.0,71.73252868652344
2018-12-18,73.95999908447266,71.9000015258789,73.0,72.36000061035156,178100.0,71.94131469726562
2018-12-19,74.0199966430664,70.31999969482422,72.55000305175781,70.6500015258789,264700.0,70.2412109375
2018-12-20,71.4800033569336,68.91999816894531,70.16000366210938,69.69000244140625,275700.0,69.2867660522461
2018-12-21,70.69000244140625,68.66999816894531,69.91000366210938,69.11000061035156,860600.0,68.71012115478516
2018-12-24,69.61000061035156,67.47000122070312,68.69999694824219,68.44000244140625,117400.0,68.04399871826172
2018-12-26,71.94999694824219,68.61000061035156,68.61000061035156,71.79000091552734,530900.0,71.3746109008789
2018-12-27,72.75,69.66000366210938,70.41999816894531,72.2300033569336,375400.0,71.81206512451172
2018-12-28,72.98999786376953,70.75,72.47000122070312,71.16999816894531,212300.0,70.75819396972656
2018-12-31,72.12999725341797,70.01000213623047,71.69000244140625,70.80999755859375,370200.0,70.40027618408203
2019-01-02,71.63999938964844,67.63999938964844,69.38999938964844,70.7300033569336,344800.0,70.32074737548828
2019-01-03,70.4800033569336,67.58999633789062,70.37000274658203,67.98999786376953,251800.0,67.59659576416016
2019-01-04,71.83000183105469,69.25,69.25,71.12000274658203,283300.0,70.70848846435547
2019-01-07,71.16000366210938,70.05999755859375,71.12000274658203,70.33999633789062,215100.0,69.93299865722656
2019-01-08,72.13999938964844,70.29000091552734,71.30000305175781,71.91000366210938,236700.0,71.4939193725586
2019-01-09,73.45999908447266,69.94000244140625,72.30999755859375,71.81999969482422,451400.0,71.40443420410156
2019-01-10,73.08000183105469,71.4000015258789,71.47000122070312,72.45999908447266,191500.0,72.04073333740234
2019-01-11,72.8499984741211,71.70999908447266,71.86000061035156,72.18000030517578,180800.0,71.7623519897461
2019-01-14,72.80999755859375,70.93000030517578,71.69000244140625,71.5,185500.0,71.08628845214844
2019-01-15,71.81999969482422,70.51000213623047,71.58000183105469,70.98999786376953,163400.0,70.57923889160156
2019-01-16,71.9000015258789,70.83999633789062,70.83999633789062,71.12999725341797,203400.0,70.71842956542969
2019-01-17,72.75,70.86000061035156,70.86000061035156,72.4000015258789,430500.0,71.9810791015625
2019-01-18,74.2300033569336,72.69999694824219,72.69999694824219,73.44000244140625,355500.0,73.01506805419922
2019-01-22,75.91000366210938,69.61000061035156,75.13999938964844,71.79000091552734,699600.0,71.3746109008789
2019-01-23,72.05999755859375,70.77999877929688,71.33999633789062,71.5199966430664,449600.0,71.10617065429688
2019-01-24,72.0999984741211,70.94999694824219,71.48999786376953,72.04000091552734,219400.0,71.62316131591797
2019-01-25,74.66000366210938,72.4000015258789,72.88999938964844,74.23999786376953,359700.0,73.81043243408203
2019-01-28,76.06999969482422,72.51000213623047,73.12999725341797,75.05999755859375,404700.0,74.62568664550781
2019-01-29,77.66999816894531,74.80000305175781,75.22000122070312,76.41000366210938,459700.0,75.96788024902344
2019-01-30,77.68000030517578,75.52999877929688,76.5999984741211,77.08999633789062,201700.0,76.64393615722656
2019-01-31,77.2699966430664,75.41999816894531,77.16000366210938,75.68000030517578,188200.0,75.24210357666016
2019-02-01,75.88999938964844,74.62000274658203,75.58000183105469,75.37999725341797,182600.0,74.94383239746094
2019-02-04,76.13999938964844,74.66000366210938,75.20999908447266,75.72000122070312,161300.0,75.28186798095703
2019-02-05,76.27999877929688,75.33000183105469,75.48999786376953,75.69999694824219,154200.0,75.2619857788086
2019-02-06,76.0,74.56999969482422,75.47000122070312,74.61000061035156,116300.0,74.17829132080078
2019-02-07,74.47000122070312,72.83000183105469,74.05999755859375,73.83000183105469,201100.0,73.4028091430664
2019-02-08,74.18000030517578,72.5199966430664,73.25,72.87999725341797,205900.0,72.45829772949219
2019-02-11,73.55000305175781,72.69000244140625,73.08000183105469,73.47000122070312,147700.0,73.04489135742188
2019-02-12,74.83000183105469,73.58000183105469,73.97000122070312,74.44000244140625,211900.0,74.00927734375
2019-02-13,75.47000122070312,74.16999816894531,74.5,75.0199966430664,130800.0,74.5859146118164
2019-02-14,76.55999755859375,74.26000213623047,74.31999969482422,76.31999969482422,256200.0,75.8783950805664
2019-02-15,77.94999694824219,76.05000305175781,76.83000183105469,77.66999816894531,290200.0,77.22058868408203
2019-02-19,78.47000122070312,77.12000274658203,77.12000274658203,78.08000183105469,248600.0,77.62821960449219
2019-02-20,79.37999725341797,77.80000305175781,78.1500015258789,79.0999984741211,203300.0,78.6423110961914
2019-02-21,79.16999816894531,76.45999908447266,78.97000122070312,77.05000305175781,234200.0,76.60417938232422
2019-02-22,77.91000366210938,76.91999816894531,77.5,77.5999984741211,197200.0,77.15099334716797
2019-02-25,79.38999938964844,77.77999877929688,77.9000015258789,78.55000305175781,218300.0,78.09549713134766
2019-02-26,78.83000183105469,77.80999755859375,78.12000274658203,78.2300033569336,297600.0,77.77735137939453
2019-02-27,78.69000244140625,77.4000015258789,77.88999938964844,78.52999877929688,164700.0,78.07560729980469
2019-02-28,79.88999938964844,78.12000274658203,78.37000274658203,79.5,306500.0,79.04000091552734
2019-03-01,79.87999725341797,77.52999877929688,79.44999694824219,77.61000061035156,313100.0,77.61000061035156
2019-03-04,78.80999755859375,77.18000030517578,77.62000274658203,77.4800033569336,150100.0,77.4800033569336
2019-03-05,77.58000183105469,76.6500015258789,77.37999725341797,76.68000030517578,113100.0,76.68000030517578
2019-03-06,76.66999816894531,75.16000366210938,76.5999984741211,75.4000015258789,275000.0,75.4000015258789
2019-03-07,75.75,74.19000244140625,75.37999725341797,75.44000244140625,205000.0,75.44000244140625
2019-03-08,75.47000122070312,74.58999633789062,74.88999938964844,75.19999694824219,152500.0,75.19999694824219
2019-03-11,76.05999755859375,74.80999755859375,75.20999908447266,76.0,155900.0,76.0
2019-03-12,76.33000183105469,75.41000366210938,76.04000091552734,76.01000213623047,143700.0,76.01000213623047
2019-03-13,77.2699966430664,76.26000213623047,76.31999969482422,76.62000274658203,216100.0,76.62000274658203
2019-03-14,76.58000183105469,75.16999816894531,76.43000030517578,75.33999633789062,197000.0,75.33999633789062
2019-03-15,76.4000015258789,74.95999908447266,75.76000213623047,75.30000305175781,516900.0,75.30000305175781
2019-03-18,76.9000015258789,75.37999725341797,75.5,76.69999694824219,152900.0,76.69999694824219
2019-03-19,77.5199966430664,76.44000244140625,77.13999938964844,76.55000305175781,202900.0,76.55000305175781
2019-03-20,77.41000366210938,75.29000091552734,76.25,76.29000091552734,217000.0,76.29000091552734
2019-03-21,78.30000305175781,76.11000061035156,76.1500015258789,77.8499984741211,222100.0,77.8499984741211
2019-03-22,76.93000030517578,72.13999938964844,76.93000030517578,72.19999694824219,392100.0,72.19999694824219
2019-03-25,73.18000030517578,71.55000305175781,72.02999877929688,71.94999694824219,447000.0,71.94999694824219
2019-03-26,74.44000244140625,72.6500015258789,72.6500015258789,74.31999969482422,273800.0,74.31999969482422
2019-03-27,75.47000122070312,73.87999725341797,74.12999725341797,75.13999938964844,313100.0,75.13999938964844
2019-03-28,75.9000015258789,74.4000015258789,75.05000305175781,75.33000183105469,198000.0,75.33000183105469
2019-03-29,76.72000122070312,75.30999755859375,76.08999633789062,76.37000274658203,307100.0,76.37000274658203
2019-04-01,78.19999694824219,76.30000305175781,77.05000305175781,77.33000183105469,177900.0,77.33000183105469
2019-04-02,77.62000274658203,76.2699966430664,77.1500015258789,76.94999694824219,174500.0,76.94999694824219
2019-04-03,78.06999969482422,76.94999694824219,77.5999984741211,77.23999786376953,102600.0,77.23999786376953
2019-04-04,78.58999633789062,76.83999633789062,77.38999938964844,78.02999877929688,128400.0,78.02999877929688
2019-04-05,79.6500015258789,78.02999877929688,78.5,78.41999816894531,187000.0,78.41999816894531
2019-04-08,78.26000213623047,77.2699966430664,78.01000213623047,77.47000122070312,117700.0,77.47000122070312
2019-04-09,77.30999755859375,75.75,77.30999755859375,75.94000244140625,140100.0,75.94000244140625
2019-04-10,77.02999877929688,75.38999938964844,75.9800033569336,76.75,148100.0,76.75
2019-04-11,77.95999908447266,76.33000183105469,77.0199966430664,77.33999633789062,149300.0,77.33999633789062
2019-04-12,80.04000091552734,77.6500015258789,77.91999816894531,79.38999938964844,190600.0,79.38999938964844
2019-04-15,80.0,76.68000030517578,79.33000183105469,77.18000030517578,227700.0,77.18000030517578
2019-04-16,78.13999938964844,76.58000183105469,77.58000183105469,78.12000274658203,156000.0,78.12000274658203
2019-04-17,78.83999633789062,77.01000213623047,78.36000061035156,77.4000015258789,127900.0,77.4000015258789
2019-04-18,78.75,77.2300033569336,77.45999908447266,78.26000213623047,157500.0,78.26000213623047
2019-04-22,78.33000183105469,76.55999755859375,78.0,77.2300033569336,130500.0,77.2300033569336
2019-04-23,78.54000091552734,76.87000274658203,77.0999984741211,78.11000061035156,253800.0,78.11000061035156
2019-04-24,82.2699966430664,76.08000183105469,78.19000244140625,78.58999633789062,231600.0,78.58999633789062
2019-04-25,78.23999786376953,75.22000122070312,78.23999786376953,75.41999816894531,228100.0,75.41999816894531
2019-04-26,77.41999816894531,75.05000305175781,75.33999633789062,77.41999816894531,163700.0,77.41999816894531
2019-04-29,77.80999755859375,76.52999877929688,77.11000061035156,77.5999984741211,197900.0,77.5999984741211
2019-04-30,77.9800033569336,76.4000015258789,77.66000366210938,77.12999725341797,217900.0,77.12999725341797
2019-05-01,78.02999877929688,76.44999694824219,77.26000213623047,76.98999786376953,145800.0,76.98999786376953
2019-05-02,76.87999725341797,75.33999633789062,76.76000213623047,76.56999969482422,158700.0,76.56999969482422
2019-05-03,78.97000122070312,77.2699966430664,77.2699966430664,78.27999877929688,184900.0,78.27999877929688
2019-05-06,78.80999755859375,76.47000122070312,76.63999938964844,77.41999816894531,464000.0,77.41999816894531
2019-05-07,77.37000274658203,73.95999908447266,76.30000305175781,75.37000274658203,238400.0,75.37000274658203
2019-05-08,75.88999938964844,74.8499984741211,75.58000183105469,75.08000183105469,127100.0,75.08000183105469
2019-05-09,76.0,73.51000213623047,74.31999969482422,75.63999938964844,175400.0,75.63999938964844
2019-05-10,76.5199966430664,74.30999755859375,75.30000305175781,76.19999694824219,139800.0,76.19999694824219
2019-05-13,75.61000061035156,74.31999969482422,74.66000366210938,75.45999908447266,206400.0,75.45999908447266
2019-05-14,76.97000122070312,75.26000213623047,75.41000366210938,76.6500015258789,149500.0,76.6500015258789
2019-05-15,77.7699966430664,75.72000122070312,75.83000183105469,77.37000274658203,112000.0,77.37000274658203
2019-05-16,78.62999725341797,77.16000366210938,77.69999694824219,77.48999786376953,194800.0,77.48999786376953
2019-05-17,77.45999908447266,76.05000305175781,76.55999755859375,77.0,274300.0,77.0
2019-05-20,77.30000305175781,75.58000183105469,76.27999877929688,75.7699966430664,178200.0,75.7699966430664
2019-05-21,76.76000213623047,75.72000122070312,76.2699966430664,76.62999725341797,107900.0,76.62999725341797
2019-05-22,76.73999786376953,74.83999633789062,76.58999633789062,75.12000274658203,162600.0,75.12000274658203
2019-05-23,74.54000091552734,73.19000244140625,74.16000366210938,73.45999908447266,190400.0,73.45999908447266
2019-05-24,74.11000061035156,72.77999877929688,74.11000061035156,73.27999877929688,183200.0,73.27999877929688
