Date,High,Low,Open,Close,Volume,Adj Close
2016-05-24,24.950000762939453,24.69700050354004,24.69700050354004,24.770000457763672,36900.0,20.10738754272461
2016-05-25,25.0,24.700000762939453,24.799999237060547,24.950000762939453,57300.0,20.253496170043945
2016-05-26,25.010000228881836,24.899999618530273,25.010000228881836,24.899999618530273,40000.0,20.212909698486328
2016-05-27,25.0,25.0,25.0,25.0,500.0,20.294078826904297
2016-05-31,25.0,24.920000076293945,25.0,24.950000762939453,34100.0,20.253496170043945
2016-06-01,25.25,24.950000762939453,24.950000762939453,25.100000381469727,9600.0,20.375261306762695
2016-06-02,24.989999771118164,24.940000534057617,24.989999771118164,24.940000534057617,1100.0,20.24538230895996
2016-06-03,25.100000381469727,24.90999984741211,24.90999984741211,25.100000381469727,1600.0,20.375261306762695
2016-06-06,25.450000762939453,25.200000762939453,25.200000762939453,25.450000762939453,5700.0,20.659381866455078
2016-06-07,26.0,25.25,25.25,25.711999893188477,19200.0,20.87206268310547
2016-06-08,25.700000762939453,25.25,25.280000686645508,25.309999465942383,18500.0,20.545734405517578
2016-06-09,25.5,25.488000869750977,25.488000869750977,25.5,600.0,20.69996452331543
2016-06-10,25.520000457763672,25.350000381469727,25.350000381469727,25.399999618530273,5200.0,20.618789672851562
2016-06-13,25.600000381469727,25.360000610351562,25.43000030517578,25.360000610351562,6400.0,20.586328506469727
2016-06-14,25.520000457763672,25.450000762939453,25.517000198364258,25.450000762939453,3600.0,20.659381866455078
2016-06-15,25.520000457763672,25.450000762939453,25.520000457763672,25.51300048828125,2000.0,20.71052360534668
2016-06-16,25.850000381469727,25.489999771118164,25.520000457763672,25.850000381469727,6400.0,20.98408317565918
2016-06-17,25.850000381469727,25.850000381469727,25.850000381469727,25.850000381469727,400.0,20.98408317565918
2016-06-20,25.850000381469727,25.510000228881836,25.809999465942383,25.510000228881836,1400.0,20.70808219909668
2016-06-21,25.850000381469727,25.510000228881836,25.510000228881836,25.670000076293945,3600.0,20.98501968383789
2016-06-22,25.850000381469727,25.5,25.65999984741211,25.649999618530273,4500.0,20.96866798400879
2016-06-23,25.68000030517578,25.450000762939453,25.674999237060547,25.5,22700.0,20.846044540405273
2016-06-24,25.5,25.399999618530273,25.399999618530273,25.399999618530273,2600.0,20.764297485351562
2016-06-27,25.469999313354492,25.350000381469727,25.350000381469727,25.469999313354492,1700.0,20.821523666381836
2016-06-28,25.5,25.476999282836914,25.5,25.5,3200.0,20.846044540405273
2016-06-29,25.5,25.350000381469727,25.5,25.420000076293945,9000.0,20.7806453704834
2016-06-30,25.5,25.399999618530273,25.481000900268555,25.450000762939453,18100.0,20.80517578125
2016-07-01,26.25,25.5,26.25,26.25,2900.0,21.45917510986328
2016-07-05,26.660999298095703,25.514999389648438,25.670000076293945,25.549999237060547,10100.0,20.886926651000977
2016-07-06,25.950000762939453,25.5,25.950000762939453,25.510000228881836,5100.0,20.854219436645508
2016-07-07,25.729999542236328,25.489999771118164,25.520000457763672,25.729999542236328,6600.0,21.034072875976562
2016-07-08,25.549999237060547,25.399999618530273,25.5,25.450000762939453,7000.0,20.80517578125
2016-07-11,25.790000915527344,25.40999984741211,25.790000915527344,25.450000762939453,8300.0,20.80517578125
2016-07-12,25.8799991607666,25.450000762939453,25.5,25.450000762939453,2100.0,20.80517578125
2016-07-13,25.976999282836914,25.299999237060547,25.976999282836914,25.299999237060547,14400.0,20.682544708251953
2016-07-14,25.389999389648438,25.0,25.350000381469727,25.299999237060547,139200.0,20.682544708251953
2016-07-15,25.200000762939453,25.100000381469727,25.200000762939453,25.149999618530273,59300.0,20.559926986694336
2016-07-18,25.280000686645508,25.149999618530273,25.149999618530273,25.209999084472656,29400.0,20.608978271484375
2016-07-19,25.3799991607666,25.200000762939453,25.209999084472656,25.229999542236328,16500.0,20.625324249267578
2016-07-20,25.23900032043457,25.100000381469727,25.139999389648438,25.100000381469727,28600.0,20.63834571838379
2016-07-21,25.34000015258789,25.1299991607666,25.1299991607666,25.329999923706055,9700.0,20.827457427978516
2016-07-22,25.739999771118164,25.25,25.665000915527344,25.59000015258789,8000.0,21.041250228881836
2016-07-25,25.56999969482422,25.31999969482422,25.56999969482422,25.31999969482422,14200.0,20.819236755371094
2016-07-26,25.520000457763672,25.420000076293945,25.520000457763672,25.489999771118164,1400.0,20.959012985229492
2016-07-27,25.520000457763672,25.46299934387207,25.469999313354492,25.479999542236328,4300.0,20.950796127319336
2016-07-28,25.540000915527344,25.450000762939453,25.479999542236328,25.450000762939453,2700.0,20.92613410949707
2016-07-29,25.540000915527344,25.48900032043457,25.530000686645508,25.48900032043457,900.0,20.958194732666016
2016-08-01,25.530000686645508,25.489999771118164,25.489999771118164,25.510000228881836,2700.0,20.9754581451416
2016-08-02,25.540000915527344,25.469999313354492,25.538000106811523,25.492000579833984,6000.0,20.960664749145508
2016-08-03,25.492000579833984,25.492000579833984,25.492000579833984,25.492000579833984,0.0,20.960664749145508
2016-08-04,25.93000030517578,25.450000762939453,25.549999237060547,25.479999542236328,10700.0,20.950796127319336
2016-08-05,25.5,25.399999618530273,25.5,25.450000762939453,6500.0,20.92613410949707
2016-08-08,25.860000610351562,25.350000381469727,25.420000076293945,25.600000381469727,54900.0,21.049467086791992
2016-08-09,25.700000762939453,25.399999618530273,25.600000381469727,25.399999618530273,3400.0,20.8850154876709
2016-08-10,25.600000381469727,25.319000244140625,25.600000381469727,25.420000076293945,5000.0,20.90146827697754
2016-08-11,25.57699966430664,25.309999465942383,25.57699966430664,25.415000915527344,5900.0,20.8973445892334
2016-08-12,25.399999618530273,25.399999618530273,25.399999618530273,25.399999618530273,500.0,20.8850154876709
2016-08-15,25.621000289916992,25.399999618530273,25.459999084472656,25.40999984741211,26800.0,20.89324188232422
2016-08-16,25.540000915527344,25.45199966430664,25.479999542236328,25.5,15200.0,20.967241287231445
2016-08-17,25.81999969482422,25.559999465942383,25.687999725341797,25.780000686645508,7300.0,21.197471618652344
2016-08-18,26.049999237060547,25.700000762939453,26.049999237060547,25.75,8000.0,21.293256759643555
2016-08-19,26.190000534057617,25.6200008392334,25.709999084472656,26.190000534057617,9500.0,21.657102584838867
2016-08-22,26.39900016784668,26.0,26.39900016784668,26.139999389648438,8900.0,21.615755081176758
2016-08-23,26.399999618530273,25.799999237060547,26.100000381469727,26.110000610351562,5400.0,21.590944290161133
2016-08-24,26.565000534057617,26.09000015258789,26.149999618530273,26.239999771118164,7400.0,21.69845199584961
2016-08-25,26.583999633789062,26.26799964904785,26.583999633789062,26.503999710083008,5100.0,21.91675567626953
2016-08-26,26.395999908447266,26.329999923706055,26.329999923706055,26.395999908447266,300.0,21.827449798583984
2016-08-29,26.600000381469727,26.489999771118164,26.579999923706055,26.510000228881836,1400.0,21.921716690063477
2016-08-30,26.59000015258789,26.219999313354492,26.59000015258789,26.219999313354492,3000.0,21.681907653808594
2016-08-31,26.389999389648438,26.200000762939453,26.200000762939453,26.200000762939453,4100.0,21.665374755859375
2016-09-01,26.288999557495117,26.209999084472656,26.288999557495117,26.229999542236328,600.0,21.690176010131836
2016-09-02,26.989999771118164,26.25,26.56999969482422,26.660999298095703,2100.0,22.04658317565918
2016-09-06,26.950000762939453,26.420000076293945,26.5,26.420000076293945,5800.0,21.847291946411133
2016-09-07,26.399999618530273,26.239999771118164,26.239999771118164,26.323999404907227,1700.0,21.767906188964844
2016-09-08,26.93000030517578,26.200000762939453,26.93000030517578,26.200000762939453,2800.0,21.665374755859375
2016-09-09,26.100000381469727,26.100000381469727,26.100000381469727,26.100000381469727,700.0,21.58267593383789
2016-09-12,26.799999237060547,26.100000381469727,26.139999389648438,26.200000762939453,4100.0,21.665374755859375
2016-09-13,26.1299991607666,25.610000610351562,26.1299991607666,25.65999984741211,5200.0,21.218835830688477
2016-09-14,25.719999313354492,25.40999984741211,25.719999313354492,25.459999084472656,5200.0,21.05344581604004
2016-09-15,25.5049991607666,25.25,25.399999618530273,25.299999237060547,78700.0,20.9211368560791
2016-09-16,25.34000015258789,25.25,25.299999237060547,25.299999237060547,51200.0,20.9211368560791
2016-09-19,25.299999237060547,25.219999313354492,25.280000686645508,25.290000915527344,15500.0,21.03411293029785
2016-09-20,25.420000076293945,25.280000686645508,25.290000915527344,25.389999389648438,57300.0,21.11728858947754
2016-09-21,25.450000762939453,25.25,25.309999465942383,25.299999237060547,104500.0,21.042428970336914
2016-09-22,25.299999237060547,25.25,25.299999237060547,25.280000686645508,40500.0,21.025802612304688
2016-09-23,25.389999389648438,25.260000228881836,25.299999237060547,25.299999237060547,29300.0,21.042428970336914
2016-09-26,25.610000610351562,25.1200008392334,25.299999237060547,25.31999969482422,47800.0,21.05906867980957
2016-09-27,25.5,25.31999969482422,25.5,25.33300018310547,12600.0,21.06987762451172
2016-09-28,25.389999389648438,25.270000457763672,25.329999923706055,25.280000686645508,11200.0,21.025802612304688
2016-09-29,25.399999618530273,25.270000457763672,25.399999618530273,25.290000915527344,28400.0,21.03411293029785
2016-09-30,25.399999618530273,25.270000457763672,25.299999237060547,25.389999389648438,8100.0,21.11728858947754
2016-10-03,25.43000030517578,25.290000915527344,25.420000076293945,25.360000610351562,7200.0,21.092336654663086
2016-10-04,25.399999618530273,25.22100067138672,25.3700008392334,25.299999237060547,7400.0,21.042428970336914
2016-10-05,25.360000610351562,25.280000686645508,25.299999237060547,25.290000915527344,7400.0,21.03411293029785
2016-10-06,25.389999389648438,25.200000762939453,25.290000915527344,25.219999313354492,11700.0,20.975894927978516
2016-10-07,25.299999237060547,25.270000457763672,25.299999237060547,25.299999237060547,11000.0,21.042428970336914
2016-10-10,25.299999237060547,25.27400016784668,25.299999237060547,25.299999237060547,5100.0,21.042428970336914
2016-10-11,25.299999237060547,25.25,25.290000915527344,25.298999786376953,10100.0,21.041597366333008
2016-10-12,25.40999984741211,25.270000457763672,25.315000534057617,25.40999984741211,26200.0,21.133920669555664
2016-10-13,25.360000610351562,25.290000915527344,25.360000610351562,25.290000915527344,13900.0,21.03411293029785
2016-10-14,25.3700008392334,25.25,25.25,25.31599998474121,25600.0,21.055734634399414
2016-10-17,25.3799991607666,25.270000457763672,25.299999237060547,25.3799991607666,43900.0,21.10896873474121
2016-10-18,25.3700008392334,25.290000915527344,25.3700008392334,25.350000381469727,14300.0,21.084020614624023
2016-10-19,25.299999237060547,25.191999435424805,25.299999237060547,25.239999771118164,13300.0,21.113990783691406
2016-10-20,25.25,25.20800018310547,25.20800018310547,25.239999771118164,8700.0,21.113990783691406
2016-10-21,25.239999771118164,25.166000366210938,25.209999084472656,25.236000061035156,9600.0,21.110645294189453
2016-10-24,25.280000686645508,25.18000030517578,25.239999771118164,25.219999313354492,12700.0,21.097259521484375
2016-10-25,25.239999771118164,25.100000381469727,25.225000381469727,25.229999542236328,10400.0,21.105623245239258
2016-10-26,25.350000381469727,25.200000762939453,25.200000762939453,25.350000381469727,25600.0,21.206016540527344
2016-10-27,25.621999740600586,25.298999786376953,25.298999786376953,25.399999618530273,26300.0,21.247835159301758
2016-10-28,25.700000762939453,25.479999542236328,25.5,25.489999771118164,4200.0,21.32312774658203
2016-10-31,25.639999389648438,25.530000686645508,25.549999237060547,25.600000381469727,2000.0,21.415142059326172
2016-11-01,25.760000228881836,25.399999618530273,25.399999618530273,25.43000030517578,5900.0,21.272933959960938
2016-11-02,25.739999771118164,25.40999984741211,25.40999984741211,25.690000534057617,7800.0,21.490434646606445
2016-11-03,25.969999313354492,25.43000030517578,25.969999313354492,25.520000457763672,2100.0,21.348222732543945
2016-11-04,25.700000762939453,25.59000015258789,25.700000762939453,25.59000015258789,1400.0,21.406776428222656
2016-11-07,25.770000457763672,25.329999923706055,25.770000457763672,25.540000915527344,4200.0,21.36495018005371
2016-11-08,25.510000228881836,25.25,25.31999969482422,25.510000228881836,2700.0,21.339860916137695
2016-11-09,25.52899932861328,25.219999313354492,25.3700008392334,25.229999542236328,3800.0,21.105623245239258
2016-11-10,25.75,24.649999618530273,25.299999237060547,24.65999984741211,18700.0,20.62881088256836
2016-11-11,24.809999465942383,23.0,24.770000457763672,24.809999465942383,92000.0,20.754287719726562
2016-11-14,25.610000610351562,24.260000228881836,24.260000228881836,24.93000030517578,21700.0,20.85466957092285
2016-11-15,24.940000534057617,24.610000610351562,24.93000030517578,24.940000534057617,17400.0,20.985797882080078
2016-11-16,25.5,24.899999618530273,24.940000534057617,25.200000762939453,26900.0,21.204574584960938
2016-11-17,25.34000015258789,24.549999237060547,25.34000015258789,24.940000534057617,40100.0,20.985797882080078
2016-11-18,25.014999389648438,24.75,24.78700065612793,24.950000762939453,3600.0,20.99420738220215
2016-11-21,25.18000030517578,24.809999465942383,24.950000762939453,24.809999465942383,4300.0,20.876405715942383
2016-11-22,25.0310001373291,24.940000534057617,24.945999145507812,24.940000534057617,1600.0,20.985797882080078
2016-11-23,25.280000686645508,24.722000122070312,24.722000122070312,25.260000228881836,800.0,21.25506019592285
2016-11-25,25.260000228881836,25.260000228881836,25.260000228881836,25.260000228881836,0.0,21.25506019592285
2016-11-28,25.239999771118164,24.979999542236328,24.979999542236328,25.06999969482422,4400.0,21.095182418823242
2016-11-29,25.139999389648438,24.799999237060547,25.06999969482422,25.139999389648438,3500.0,21.154085159301758
2016-11-30,25.1299991607666,24.510000228881836,24.9689998626709,24.8799991607666,4900.0,20.93531036376953
2016-12-01,24.969999313354492,24.542999267578125,24.542999267578125,24.843000411987305,600.0,20.904170989990234
2016-12-02,25.229999542236328,24.639999389648438,24.850000381469727,25.083999633789062,10300.0,21.106964111328125
2016-12-05,25.357999801635742,24.937999725341797,25.079999923706055,25.350000381469727,8700.0,21.330795288085938
2016-12-06,25.290000915527344,25.0,25.260000228881836,25.290000915527344,4000.0,21.28030014038086
2016-12-07,25.290000915527344,25.290000915527344,25.290000915527344,25.290000915527344,500.0,21.28030014038086
2016-12-08,25.290000915527344,25.04800033569336,25.04800033569336,25.200000762939453,3000.0,21.204574584960938
2016-12-09,25.190000534057617,25.0,25.100000381469727,25.18000030517578,6900.0,21.187746047973633
2016-12-12,25.170000076293945,25.100000381469727,25.100000381469727,25.170000076293945,1300.0,21.17932891845703
2016-12-13,25.280000686645508,25.079999923706055,25.079999923706055,25.149999618530273,10600.0,21.162500381469727
2016-12-14,25.280000686645508,25.079999923706055,25.233999252319336,25.280000686645508,6700.0,21.27189064025879
2016-12-15,25.280000686645508,25.149999618530273,25.15999984741211,25.232999801635742,2800.0,21.23233413696289
2016-12-16,25.239999771118164,25.091999053955078,25.111000061035156,25.100000381469727,3600.0,21.24320411682129
2016-12-19,25.200000762939453,25.0,25.100000381469727,25.190000534057617,4700.0,21.319372177124023
2016-12-20,25.270000457763672,24.989999771118164,24.989999771118164,25.17300033569336,3200.0,21.304990768432617
2016-12-21,25.260000228881836,25.139999389648438,25.25,25.18199920654297,23600.0,21.312599182128906
2016-12-22,25.280000686645508,25.08799934387207,25.280000686645508,25.200000762939453,3200.0,21.327836990356445
2016-12-23,25.280000686645508,25.200000762939453,25.280000686645508,25.200000762939453,1000.0,21.327836990356445
2016-12-27,25.170000076293945,25.040000915527344,25.131999969482422,25.040000915527344,800.0,21.192424774169922
2016-12-28,25.280000686645508,25.08799934387207,25.08799934387207,25.2549991607666,2000.0,21.37438201904297
2016-12-29,25.280000686645508,25.08799934387207,25.27899932861328,25.197999954223633,4100.0,21.326141357421875
2016-12-30,25.25,25.25,25.25,25.25,300.0,21.370153427124023
2017-01-03,25.48200035095215,25.100000381469727,25.280000686645508,25.200000762939453,7300.0,21.327836990356445
2017-01-04,25.270000457763672,24.81999969482422,25.200000762939453,25.079999923706055,18000.0,21.226276397705078
2017-01-05,25.24799919128418,24.8700008392334,24.8700008392334,25.086999893188477,4100.0,21.232202529907227
2017-01-06,25.25,25.059999465942383,25.100000381469727,25.100000381469727,4400.0,21.24320411682129
2017-01-09,25.25,25.100000381469727,25.149999618530273,25.100000381469727,5000.0,21.24320411682129
2017-01-10,25.25,25.049999237060547,25.25,25.179000854492188,3800.0,21.310062408447266
2017-01-11,25.239999771118164,25.08799934387207,25.1299991607666,25.149999618530273,3700.0,21.285518646240234
2017-01-12,25.25,25.020000457763672,25.200000762939453,25.190000534057617,6400.0,21.319372177124023
2017-01-13,25.229999542236328,25.08799934387207,25.190000534057617,25.139999389648438,9900.0,21.277057647705078
2017-01-17,25.200000762939453,25.1200008392334,25.200000762939453,25.18000030517578,8000.0,21.310911178588867
2017-01-18,25.18899917602539,24.950000762939453,25.149999618530273,25.15999984741211,16200.0,21.418027877807617
2017-01-19,25.1200008392334,25.049999237060547,25.08300018310547,25.100000381469727,4800.0,21.366952896118164
2017-01-20,25.1299991607666,25.0,25.0,25.110000610351562,3200.0,21.375463485717773
2017-01-23,25.149999618530273,25.149999618530273,25.149999618530273,25.149999618530273,100.0,21.409509658813477
2017-01-24,25.149999618530273,25.010000228881836,25.010000228881836,25.09000015258789,11100.0,21.358442306518555
2017-01-25,25.1200008392334,25.100000381469727,25.1200008392334,25.11199951171875,2200.0,21.377164840698242
2017-01-26,25.200000762939453,25.100000381469727,25.110000610351562,25.139999389648438,4800.0,21.401002883911133
2017-01-27,25.139999389648438,25.100000381469727,25.100000381469727,25.100000381469727,3200.0,21.366952896118164
2017-01-30,25.18000030517578,25.079999923706055,25.079999923706055,25.1299991607666,5300.0,21.39249038696289
2017-01-31,25.1299991607666,25.100000381469727,25.110000610351562,25.1200008392334,3100.0,21.383974075317383
2017-02-01,25.170000076293945,25.079999923706055,25.110000610351562,25.14900016784668,4500.0,21.408662796020508
2017-02-02,25.149999618530273,25.104999542236328,25.149999618530273,25.1299991607666,4100.0,21.39249038696289
2017-02-03,25.200000762939453,25.100000381469727,25.149999618530273,25.170000076293945,9300.0,21.42654037475586
2017-02-06,25.1299991607666,25.100000381469727,25.1299991607666,25.110000610351562,3400.0,21.375463485717773
2017-02-07,25.1299991607666,25.100000381469727,25.1200008392334,25.1200008392334,8500.0,21.383974075317383
2017-02-08,25.350000381469727,25.100000381469727,25.139999389648438,25.25,6800.0,21.49463653564453
2017-02-09,25.399999618530273,25.25,25.260000228881836,25.280000686645508,8900.0,21.520185470581055
2017-02-10,25.31999969482422,25.15999984741211,25.31999969482422,25.15999984741211,1300.0,21.418027877807617
2017-02-13,25.31999969482422,25.25,25.31999969482422,25.31999969482422,4500.0,21.55423355102539
2017-02-14,25.389999389648438,25.190000534057617,25.190000534057617,25.26099967956543,4000.0,21.628578186035156
2017-02-15,25.26099967956543,25.26099967956543,25.26099967956543,25.26099967956543,0.0,21.628578186035156
2017-02-16,25.375,25.249000549316406,25.25,25.31999969482422,2900.0,21.679096221923828
2017-02-17,25.53499984741211,25.15999984741211,25.31999969482422,25.53499984741211,7100.0,21.863174438476562
2017-02-21,25.364999771118164,25.149999618530273,25.350000381469727,25.149999618530273,5900.0,21.533538818359375
2017-02-22,25.35300064086914,25.200000762939453,25.209999084472656,25.325000762939453,2600.0,21.683374404907227
2017-02-23,25.34600067138672,25.229999542236328,25.34600067138672,25.229999542236328,4100.0,21.602033615112305
2017-02-24,25.450000762939453,25.25,25.25,25.3700008392334,16600.0,21.721906661987305
2017-02-27,25.420000076293945,25.364999771118164,25.4060001373291,25.3799991607666,3200.0,21.730464935302734
2017-02-28,25.46500015258789,25.299999237060547,25.299999237060547,25.46500015258789,2300.0,21.803241729736328
2017-03-01,25.48200035095215,25.200000762939453,25.209999084472656,25.200000762939453,6900.0,21.576351165771484
2017-03-02,25.329999923706055,25.149999618530273,25.329999923706055,25.202999114990234,9500.0,21.578916549682617
2017-03-03,25.239999771118164,25.170000076293945,25.209999084472656,25.170000076293945,4500.0,21.550662994384766
2017-03-06,25.264999389648438,25.149999618530273,25.170000076293945,25.264999389648438,6000.0,21.631999969482422
2017-03-07,25.280000686645508,25.06999969482422,25.149999618530273,25.06999969482422,4400.0,21.465045928955078
2017-03-08,25.195999145507812,24.75,25.059999465942383,25.18899917602539,11800.0,21.56692886352539
2017-03-09,25.111000061035156,25.0,25.111000061035156,25.0,2500.0,21.405101776123047
2017-03-10,25.065000534057617,24.895000457763672,24.895000457763672,24.969999313354492,2700.0,21.37942123413086
2017-03-13,24.969999313354492,24.969999313354492,24.969999313354492,24.969999313354492,0.0,21.37942123413086
2017-03-14,25.200000762939453,25.190000534057617,25.200000762939453,25.190000534057617,600.0,21.56778907775879
2017-03-15,25.152000427246094,25.016000747680664,25.152000427246094,25.09000015258789,15900.0,21.482168197631836
2017-03-16,25.18000030517578,25.100000381469727,25.1299991607666,25.18000030517578,10800.0,21.55922508239746
2017-03-17,25.200000762939453,25.06999969482422,25.110000610351562,25.15999984741211,16100.0,21.54210090637207
2017-03-20,25.18899917602539,24.959999084472656,25.049999237060547,25.049999237060547,9800.0,21.57296371459961
2017-03-21,25.200000762939453,24.969999313354492,25.059999465942383,24.969999313354492,9200.0,21.504064559936523
2017-03-22,25.200000762939453,25.020000457763672,25.020000457763672,25.139999389648438,19800.0,21.650466918945312
2017-03-23,25.198999404907227,25.020000457763672,25.06999969482422,25.110000610351562,10700.0,21.624631881713867
2017-03-24,25.15999984741211,25.1299991607666,25.15999984741211,25.15999984741211,15100.0,21.66769027709961
2017-03-27,25.190000534057617,25.049999237060547,25.15999984741211,25.049999237060547,25700.0,21.57296371459961
2017-03-28,25.170000076293945,25.100000381469727,25.100000381469727,25.149999618530273,22000.0,21.65907859802246
2017-03-29,25.18000030517578,25.059999465942383,25.059999465942383,25.18000030517578,3900.0,21.684919357299805
2017-03-30,25.200000762939453,25.058000564575195,25.15999984741211,25.17799949645996,7000.0,21.68319320678711
2017-03-31,25.200000762939453,25.09000015258789,25.100000381469727,25.170000076293945,126800.0,21.676305770874023
2017-04-03,25.14699935913086,25.100000381469727,25.14699935913086,25.100000381469727,5600.0,21.61602020263672
2017-04-04,25.18000030517578,25.084999084472656,25.084999084472656,25.149999618530273,11300.0,21.65907859802246
2017-04-05,25.170000076293945,25.100000381469727,25.149999618530273,25.170000076293945,12400.0,21.676305770874023
2017-04-06,25.219999313354492,25.145999908447266,25.19700050354004,25.209999084472656,4900.0,21.710756301879883
2017-04-07,25.540000915527344,25.219999313354492,25.219999313354492,25.309999465942383,3800.0,21.796873092651367
2017-04-10,25.267000198364258,25.204999923706055,25.267000198364258,25.204999923706055,3000.0,21.706445693969727
2017-04-11,25.34000015258789,25.170000076293945,25.34000015258789,25.219999313354492,45600.0,21.7193603515625
2017-04-12,25.459999084472656,25.290000915527344,25.290000915527344,25.309999465942383,13600.0,21.796873092651367
2017-04-13,25.549999237060547,25.40399932861328,25.549999237060547,25.413999557495117,4800.0,21.886436462402344
2017-04-17,25.559999465942383,25.41900062561035,25.559999465942383,25.41900062561035,600.0,21.8907413482666
2017-04-18,25.540000915527344,25.450000762939453,25.538999557495117,25.479999542236328,9600.0,21.94327735900879
2017-04-19,25.549999237060547,25.548999786376953,25.549999237060547,25.548999786376953,800.0,22.129348754882812
2017-04-20,25.476999282836914,25.476999282836914,25.476999282836914,25.476999282836914,1000.0,22.066993713378906
2017-04-21,25.658000946044922,25.354999542236328,25.450000762939453,25.56999969482422,3200.0,22.14754295349121
2017-04-24,25.579999923706055,25.441999435424805,25.499000549316406,25.559999465942383,2100.0,22.138879776000977
2017-04-25,25.679000854492188,25.488000869750977,25.631999969482422,25.599000930786133,5300.0,22.172658920288086
2017-04-26,25.68000030517578,25.469999313354492,25.600000381469727,25.590999603271484,1100.0,22.165729522705078
2017-04-27,25.780000686645508,25.600000381469727,25.600000381469727,25.780000686645508,2500.0,22.32943344116211
2017-04-28,25.940000534057617,25.649999618530273,25.75,25.700000762939453,8600.0,22.260143280029297
2017-05-01,25.823999404907227,25.649999618530273,25.797000885009766,25.780000686645508,5100.0,22.32943344116211
2017-05-02,25.850000381469727,25.799999237060547,25.799999237060547,25.850000381469727,400.0,22.390060424804688
2017-05-03,25.850000381469727,25.850000381469727,25.850000381469727,25.850000381469727,0.0,22.390060424804688
2017-05-04,25.75,25.700000762939453,25.709999084472656,25.75,13800.0,22.303451538085938
2017-05-05,25.381000518798828,25.381000518798828,25.381000518798828,25.381000518798828,400.0,21.983840942382812
2017-05-08,25.948999404907227,25.610000610351562,25.610000610351562,25.84000015258789,4500.0,22.381404876708984
2017-05-09,25.93600082397461,25.68899917602539,25.709999084472656,25.68899917602539,2900.0,22.2506160736084
2017-05-10,25.690000534057617,25.6200008392334,25.690000534057617,25.6200008392334,6900.0,22.190847396850586
2017-05-11,25.6299991607666,25.5049991607666,25.5049991607666,25.621999740600586,5200.0,22.19257926940918
2017-05-12,25.690000534057617,25.350000381469727,25.6200008392334,25.3700008392334,13300.0,21.97431182861328
2017-05-15,25.586999893188477,25.399999618530273,25.586999893188477,25.520000457763672,3500.0,22.10423469543457
2017-05-16,25.6299991607666,25.520000457763672,25.59000015258789,25.600000381469727,4400.0,22.17352867126465
2017-05-17,25.75,25.3700008392334,25.75,25.450000762939453,3200.0,22.16990089416504
2017-05-18,25.479000091552734,25.371000289916992,25.450000762939453,25.448999404907227,8600.0,22.16902732849121
2017-05-19,25.59000015258789,25.408000946044922,25.420000076293945,25.59000015258789,3200.0,22.29184913635254
2017-05-22,25.79400062561035,25.520000457763672,25.520999908447266,25.600000381469727,6100.0,22.300561904907227
2017-05-23,25.780000686645508,25.6200008392334,25.75,25.780000686645508,3100.0,22.45736312866211
2017-05-24,25.665000915527344,25.5,25.597000122070312,25.665000915527344,4900.0,22.35719108581543
2017-05-25,25.75,25.5,25.66900062561035,25.739999771118164,66500.0,22.422521591186523
2017-05-26,25.739999771118164,25.739999771118164,25.739999771118164,25.739999771118164,0.0,22.422521591186523
2017-05-30,25.780000686645508,25.75,25.780000686645508,25.75,30200.0,22.431228637695312
2017-05-31,25.645000457763672,25.600000381469727,25.645000457763672,25.600000381469727,2200.0,22.300561904907227
2017-06-01,25.940000534057617,25.75,25.75,25.790000915527344,3500.0,22.466079711914062
2017-06-02,25.93000030517578,25.600000381469727,25.75,25.709999084472656,4200.0,22.39638900756836
2017-06-05,25.75,25.670000076293945,25.700000762939453,25.670000076293945,5600.0,22.361541748046875
2017-06-06,25.709999084472656,25.700000762939453,25.700000762939453,25.709999084472656,200.0,22.39638900756836
2017-06-07,25.709999084472656,25.709999084472656,25.709999084472656,25.709999084472656,0.0,22.39638900756836
2017-06-08,25.739999771118164,25.7189998626709,25.7189998626709,25.739999771118164,2000.0,22.422521591186523
2017-06-09,26.270000457763672,25.799999237060547,25.878000259399414,26.030000686645508,6800.0,22.675140380859375
2017-06-12,26.224000930786133,26.024999618530273,26.049999237060547,26.059999465942383,8400.0,22.701278686523438
2017-06-13,26.233999252319336,25.95400047302246,25.95400047302246,26.180999755859375,1600.0,22.806678771972656
2017-06-14,26.239999771118164,25.889999389648438,26.0,26.239999771118164,900.0,22.858078002929688
2017-06-15,26.25,25.860000610351562,25.860000610351562,26.030000686645508,2100.0,22.675140380859375
2017-06-16,26.149999618530273,26.149999618530273,26.149999618530273,26.149999618530273,1200.0,22.779674530029297
2017-06-19,26.200000762939453,25.854000091552734,26.200000762939453,25.854000091552734,6900.0,22.648128509521484
2017-06-20,26.100000381469727,25.90999984741211,26.100000381469727,25.90999984741211,5200.0,22.697189331054688
2017-06-21,26.246000289916992,25.979000091552734,26.246000289916992,25.979000091552734,3100.0,22.757633209228516
2017-06-22,26.100000381469727,25.850000381469727,25.850000381469727,26.051000595092773,28300.0,22.820697784423828
2017-06-23,25.95800018310547,25.850000381469727,25.8799991607666,25.90999984741211,2400.0,22.697189331054688
2017-06-26,26.100000381469727,25.860000610351562,26.100000381469727,25.860000610351562,14400.0,22.653390884399414
2017-06-27,25.860000610351562,25.860000610351562,25.860000610351562,25.860000610351562,0.0,22.653390884399414
2017-06-28,26.079999923706055,25.850000381469727,25.87299919128418,26.079999923706055,15900.0,22.846107482910156
2017-06-29,26.100000381469727,25.59000015258789,26.100000381469727,25.719999313354492,3800.0,22.530750274658203
2017-06-30,26.049999237060547,25.68000030517578,25.84000015258789,26.049999237060547,1600.0,22.81982421875
2017-07-03,26.049999237060547,26.049999237060547,26.049999237060547,26.049999237060547,0.0,22.81982421875
2017-07-05,26.0,25.6200008392334,26.0,25.67300033569336,1200.0,22.48957633972168
2017-07-06,25.969999313354492,25.950000762939453,25.969999313354492,25.950000762939453,800.0,22.732227325439453
2017-07-07,26.25,25.649999618530273,25.950000762939453,26.09000015258789,10600.0,22.854867935180664
2017-07-10,25.850000381469727,25.79800033569336,25.79800033569336,25.84000015258789,1300.0,22.635868072509766
2017-07-11,25.774999618530273,25.75,25.75,25.774999618530273,500.0,22.578929901123047
2017-07-12,25.9060001373291,25.799999237060547,25.899999618530273,25.799999237060547,2300.0,22.60082244873047
2017-07-13,25.99799919128418,25.756000518798828,25.756000518798828,25.905000686645508,1800.0,22.692808151245117
2017-07-14,25.770000457763672,25.75,25.770000457763672,25.75,19600.0,22.557025909423828
2017-07-17,25.910999298095703,25.75,25.75,25.910999298095703,20100.0,22.69806671142578
2017-07-18,25.82900047302246,25.82900047302246,25.82900047302246,25.82900047302246,1000.0,22.626232147216797
2017-07-19,25.999000549316406,25.83799934387207,25.83799934387207,25.999000549316406,2200.0,22.90447235107422
2017-07-20,25.700000762939453,25.649999618530273,25.65999984741211,25.700000762939453,4300.0,22.641061782836914
2017-07-21,25.83099937438965,25.802000045776367,25.802000045776367,25.83099937438965,1100.0,22.756473541259766
2017-07-24,25.709999084472656,25.489999771118164,25.709999084472656,25.5,5500.0,22.464866638183594
2017-07-25,25.905000686645508,25.549999237060547,25.549999237060547,25.905000686645508,1700.0,22.8216609954834
2017-07-26,25.979999542236328,25.6299991607666,25.6299991607666,25.979999542236328,2100.0,22.88773536682129
2017-07-27,25.979999542236328,25.68000030517578,25.979999542236328,25.68000030517578,2800.0,22.623445510864258
2017-07-28,25.959999084472656,25.908000946044922,25.952999114990234,25.908000946044922,800.0,22.82430648803711
2017-07-31,25.8799991607666,25.75,25.75,25.8799991607666,500.0,22.799636840820312
2017-08-01,25.8799991607666,25.799999237060547,25.8799991607666,25.799999237060547,700.0,22.729154586791992
2017-08-02,25.989999771118164,25.5,25.5,25.989999771118164,6400.0,22.89654541015625
2017-08-03,25.6200008392334,25.6200008392334,25.6200008392334,25.6200008392334,600.0,22.570581436157227
2017-08-04,25.986000061035156,25.711999893188477,25.986000061035156,25.774999618530273,5000.0,22.707138061523438
2017-08-07,25.780000686645508,25.600000381469727,25.6200008392334,25.764999389648438,1800.0,22.698322296142578
2017-08-08,25.799999237060547,25.75,25.799999237060547,25.767000198364258,9100.0,22.70008659362793
2017-08-09,25.792999267578125,25.719999313354492,25.770000457763672,25.729999542236328,7500.0,22.667491912841797
2017-08-10,25.989999771118164,25.489999771118164,25.65999984741211,25.8700008392334,7000.0,22.79082489013672
2017-08-11,25.75,25.548999786376953,25.548999786376953,25.75,1000.0,22.685108184814453
2017-08-14,25.888999938964844,25.649999618530273,25.70400047302246,25.75,3600.0,22.685108184814453
2017-08-15,25.858999252319336,25.75,25.75,25.75,8200.0,22.685108184814453
2017-08-16,26.17300033569336,25.690000534057617,25.75,25.690000534057617,33500.0,22.632251739501953
2017-08-17,25.75,25.450000762939453,25.68000030517578,25.535999298095703,6600.0,22.625015258789062
2017-08-18,25.625999450683594,25.5,25.540000915527344,25.625999450683594,2100.0,22.70475196838379
2017-08-21,25.610000610351562,25.56100082397461,25.610000610351562,25.59000015258789,2100.0,22.672861099243164
2017-08-22,25.829999923706055,25.639999389648438,25.650999069213867,25.670000076293945,3000.0,22.743738174438477
2017-08-23,25.51300048828125,25.51300048828125,25.51300048828125,25.51300048828125,200.0,22.604639053344727
2017-08-24,25.850000381469727,25.649999618530273,25.67799949645996,25.729999542236328,24900.0,22.79690170288086
2017-08-25,25.81100082397461,25.729999542236328,25.790000915527344,25.799999237060547,1800.0,22.85892105102539
2017-08-28,25.760000228881836,25.579999923706055,25.75,25.579999923706055,4400.0,22.66399574279785
2017-08-29,25.760000228881836,25.729999542236328,25.75,25.75,1500.0,22.814620971679688
2017-08-30,25.884000778198242,25.69499969482422,25.75,25.809999465942383,24400.0,22.867780685424805
2017-08-31,25.940000534057617,25.631000518798828,25.649999618530273,25.798999786376953,8600.0,22.858036041259766
2017-09-01,25.799999237060547,25.679000854492188,25.700000762939453,25.799999237060547,5900.0,22.85892105102539
2017-09-05,25.799999237060547,25.729999542236328,25.799999237060547,25.729999542236328,3700.0,22.79690170288086
2017-09-06,25.729999542236328,25.600000381469727,25.690000534057617,25.729999542236328,2500.0,22.79690170288086
2017-09-07,25.700000762939453,25.639999389648438,25.670000076293945,25.639999389648438,1800.0,22.71715545654297
2017-09-08,25.725000381469727,25.5,25.530000686645508,25.725000381469727,1000.0,22.792469024658203
2017-09-11,25.739999771118164,25.729999542236328,25.739999771118164,25.729999542236328,300.0,22.79690170288086
2017-09-12,25.87700080871582,25.6200008392334,25.700000762939453,25.700000762939453,9500.0,22.77031707763672
2017-09-13,25.884000778198242,25.600000381469727,25.649999618530273,25.798999786376953,5600.0,22.858036041259766
2017-09-14,25.66900062561035,25.66900062561035,25.66900062561035,25.66900062561035,1000.0,22.74285316467285
2017-09-15,25.790000915527344,25.700000762939453,25.700000762939453,25.768999099731445,1500.0,22.83145523071289
2017-09-18,25.799999237060547,25.579999923706055,25.700000762939453,25.639999389648438,5100.0,22.71715545654297
2017-09-19,25.690000534057617,25.56399917602539,25.690000534057617,25.6299991607666,17000.0,22.83819580078125
2017-09-20,25.979999542236328,25.649999618530273,25.959999084472656,25.66200065612793,5800.0,22.86671257019043
2017-09-21,25.986000061035156,25.700000762939453,25.760000228881836,25.899999618530273,27200.0,23.07878303527832
2017-09-22,26.239999771118164,25.937999725341797,25.989999771118164,26.190000534057617,8600.0,23.33719825744629
2017-09-25,26.110000610351562,26.0,26.110000610351562,26.030000686645508,6300.0,23.194623947143555
2017-09-26,26.100000381469727,25.860000610351562,26.100000381469727,25.951000213623047,8400.0,23.124231338500977
2017-09-27,26.099000930786133,25.989999771118164,26.06999969482422,26.014999389648438,13600.0,23.181262969970703
2017-09-28,26.010000228881836,25.906999588012695,26.010000228881836,25.90999984741211,700.0,23.087696075439453
2017-09-29,26.0,25.916000366210938,25.950000762939453,26.0,6100.0,23.16789436340332
2017-10-02,26.115999221801758,25.899999618530273,26.0,25.93000030517578,1300.0,23.105518341064453
2017-10-03,26.0,25.850000381469727,25.97100067138672,26.0,10400.0,23.16789436340332
2017-10-04,26.145000457763672,25.969999313354492,26.0,25.989999771118164,1500.0,23.158985137939453
2017-10-05,26.094999313354492,25.799999237060547,26.010000228881836,25.950000762939453,7400.0,23.123336791992188
2017-10-06,26.25,25.9689998626709,26.25,26.010000228881836,5100.0,23.176803588867188
2017-10-09,26.0,25.989999771118164,26.0,25.989999771118164,1800.0,23.158985137939453
2017-10-10,25.989999771118164,25.989999771118164,25.989999771118164,25.989999771118164,0.0,23.158985137939453
2017-10-11,26.145000457763672,25.90999984741211,26.059999465942383,25.90999984741211,19400.0,23.087696075439453
2017-10-12,26.09000015258789,25.950000762939453,26.09000015258789,25.950000762939453,7400.0,23.123336791992188
2017-10-13,26.139999389648438,25.951000213623047,26.139999389648438,26.062000274658203,2300.0,23.223142623901367
2017-10-16,26.033000946044922,25.974000930786133,26.033000946044922,25.98699951171875,1700.0,23.15630531311035
2017-10-17,26.0,25.968000411987305,26.0,26.0,5100.0,23.16789436340332
2017-10-18,26.030000686645508,25.992000579833984,26.030000686645508,26.0,4400.0,23.16789436340332
2017-10-19,25.850000381469727,25.81999969482422,25.850000381469727,25.81999969482422,2500.0,23.137277603149414
2017-10-20,25.950000762939453,25.829999923706055,25.850000381469727,25.84000015258789,1500.0,23.15519905090332
2017-10-23,26.152000427246094,25.84000015258789,25.84000015258789,26.152000427246094,6400.0,23.434782028198242
2017-10-24,26.069000244140625,26.0,26.0,26.0,1100.0,23.29857635498047
2017-10-25,26.05299949645996,25.906999588012695,26.05299949645996,25.98200035095215,1400.0,23.282445907592773
2017-10-26,26.0,25.913000106811523,25.92300033569336,26.0,1700.0,23.29857635498047
2017-10-27,26.139999389648438,25.864999771118164,26.139999389648438,25.864999771118164,2500.0,23.17760467529297
2017-10-30,25.864999771118164,25.864999771118164,25.864999771118164,25.864999771118164,0.0,23.17760467529297
2017-10-31,26.024999618530273,25.850000381469727,25.850000381469727,26.0,3300.0,23.29857635498047
2017-11-01,26.138999938964844,26.024999618530273,26.086999893188477,26.138999938964844,2600.0,23.423131942749023
2017-11-02,25.98699951171875,25.979999542236328,25.981000900268555,25.98699951171875,1500.0,23.286924362182617
2017-11-03,26.0,25.9950008392334,26.0,26.0,2800.0,23.29857635498047
2017-11-06,26.18000030517578,25.983999252319336,26.16699981689453,25.989999771118164,9000.0,23.28961181640625
2017-11-07,26.18000030517578,25.989999771118164,26.010000228881836,26.059999465942383,23400.0,23.35234260559082
2017-11-08,26.059999465942383,25.972999572753906,26.059999465942383,26.049999237060547,7200.0,23.3433780670166
2017-11-09,26.145999908447266,25.989999771118164,26.135000228881836,25.989999771118164,4500.0,23.28961181640625
2017-11-10,26.0,25.98200035095215,25.98200035095215,26.0,1200.0,23.29857635498047
2017-11-13,26.100000381469727,25.940000534057617,25.981000900268555,25.989999771118164,4800.0,23.28961181640625
2017-11-14,26.15399932861328,25.920000076293945,26.0,26.0,6500.0,23.29857635498047
2017-11-15,26.100000381469727,25.950000762939453,26.0,26.0,12200.0,23.29857635498047
2017-11-16,26.21500015258789,25.959999084472656,26.0,26.0,10200.0,23.29857635498047
2017-11-17,25.989999771118164,25.829999923706055,25.829999923706055,25.989999771118164,500.0,23.420982360839844
2017-11-20,25.993999481201172,25.878000259399414,25.969999313354492,25.993999481201172,4200.0,23.424585342407227
2017-11-21,25.989999771118164,25.844999313354492,25.989999771118164,25.966999053955078,3400.0,23.400257110595703
2017-11-22,26.0,25.927000045776367,25.927000045776367,26.0,5300.0,23.429990768432617
2017-11-24,26.0,26.0,26.0,26.0,0.0,23.429990768432617
2017-11-27,26.1299991607666,25.8700008392334,26.1299991607666,25.920000076293945,6700.0,23.35790252685547
2017-11-28,26.118000030517578,25.8799991607666,25.929000854492188,25.8799991607666,3400.0,23.321857452392578
2017-11-29,26.0,25.860000610351562,26.0,25.860000610351562,2800.0,23.303829193115234
2017-11-30,26.020000457763672,25.90999984741211,26.020000457763672,25.90999984741211,600.0,23.348886489868164
2017-12-01,26.0,25.863000869750977,26.0,26.0,2900.0,23.429990768432617
2017-12-04,26.06999969482422,25.902999877929688,26.06999969482422,25.902999877929688,3000.0,23.34258270263672
2017-12-05,25.950000762939453,25.8799991607666,25.950000762939453,25.940000534057617,4800.0,23.375925064086914
2017-12-06,26.011999130249023,26.0,26.0,26.0,1800.0,23.429990768432617
2017-12-07,26.040000915527344,25.981000900268555,26.0,26.040000915527344,2200.0,23.46604347229004
2017-12-08,25.899999618530273,25.8799991607666,25.899999618530273,25.8799991607666,1500.0,23.321857452392578
2017-12-11,25.989999771118164,25.950000762939453,25.989999771118164,25.950000762939453,7900.0,23.38493537902832
2017-12-12,26.0,25.8799991607666,25.8799991607666,25.93000030517578,128700.0,23.366914749145508
2017-12-13,25.989999771118164,25.8799991607666,25.940000534057617,25.989999771118164,8500.0,23.420982360839844
2017-12-14,25.972000122070312,25.916000366210938,25.972000122070312,25.950000762939453,4500.0,23.38493537902832
2017-12-15,26.031999588012695,25.920000076293945,25.920000076293945,25.999000549316406,2900.0,23.429092407226562
2017-12-18,26.0,25.860000610351562,25.91200065612793,26.0,1900.0,23.56215476989746
2017-12-19,25.959999084472656,25.881000518798828,25.899999618530273,25.90999984741211,7100.0,23.48059844970703
2017-12-20,25.989999771118164,25.75200080871582,25.860000610351562,25.850000381469727,17600.0,23.42622184753418
2017-12-21,25.950000762939453,25.729999542236328,25.868000030517578,25.950000762939453,7600.0,23.516847610473633
2017-12-22,25.8700008392334,25.79599952697754,25.8700008392334,25.79599952697754,2200.0,23.37728500366211
2017-12-26,25.95400047302246,25.75,25.75,25.950000762939453,2500.0,23.516847610473633
2017-12-27,25.93000030517578,25.80299949645996,25.920000076293945,25.90999984741211,6000.0,23.48059844970703
2017-12-28,25.899999618530273,25.78700065612793,25.863000869750977,25.8799991607666,10500.0,23.45340919494629
2017-12-29,25.979999542236328,25.839000701904297,25.899999618530273,25.899999618530273,4600.0,23.471534729003906
2018-01-02,25.889999389648438,25.860000610351562,25.86400032043457,25.860000610351562,2400.0,23.435283660888672
2018-01-03,25.860000610351562,25.84000015258789,25.860000610351562,25.84000015258789,700.0,23.417156219482422
2018-01-04,25.850000381469727,25.729999542236328,25.80500030517578,25.729999542236328,10600.0,23.317472457885742
2018-01-05,25.979999542236328,25.861000061035156,25.913000106811523,25.950000762939453,2100.0,23.516847610473633
2018-01-08,25.854000091552734,25.809999465942383,25.83300018310547,25.809999465942383,3000.0,23.389970779418945
2018-01-09,25.99799919128418,25.863000869750977,25.950000762939453,25.979999542236328,4000.0,23.544031143188477
2018-01-10,25.979999542236328,25.850000381469727,25.979999542236328,25.850000381469727,1500.0,23.42622184753418
2018-01-11,25.98900032043457,25.78499984741211,25.899999618530273,25.81999969482422,8100.0,23.399032592773438
2018-01-12,26.006000518798828,25.95800018310547,26.006000518798828,25.979999542236328,1000.0,23.544031143188477
2018-01-16,26.25,25.889999389648438,26.25,25.979999542236328,7900.0,23.544031143188477
2018-01-17,26.15999984741211,25.92799949645996,26.15999984741211,25.92799949645996,1600.0,23.49690818786621
2018-01-18,26.202999114990234,25.770000457763672,25.770000457763672,25.969999313354492,5700.0,23.534969329833984
2018-01-19,26.0,25.87700080871582,26.0,25.945999145507812,1500.0,23.64600372314453
2018-01-22,26.0,25.850000381469727,25.899999618530273,26.0,2000.0,23.695213317871094
2018-01-23,26.136999130249023,25.95199966430664,26.136999130249023,26.09000015258789,3200.0,23.777236938476562
2018-01-24,26.031999588012695,25.75,25.94499969482422,25.94499969482422,4900.0,23.64509391784668
2018-01-25,25.979999542236328,25.889999389648438,25.979999542236328,25.94700050354004,1600.0,23.64691734313965
2018-01-26,25.90999984741211,25.84600067138672,25.84600067138672,25.905000686645508,1400.0,23.6086368560791
2018-01-29,26.048999786376953,25.760000228881836,26.040000915527344,25.760000228881836,3700.0,23.47648811340332
2018-01-30,25.760000228881836,25.308000564575195,25.760000228881836,25.57200050354004,8400.0,23.305158615112305
2018-01-31,25.829999923706055,25.315000534057617,25.315000534057617,25.5,21100.0,23.239538192749023
2018-02-01,25.790000915527344,25.415000915527344,25.415000915527344,25.709999084472656,3800.0,23.430919647216797
2018-02-02,25.780000686645508,25.700000762939453,25.780000686645508,25.770000457763672,2300.0,23.48560333251953
2018-02-05,25.600000381469727,25.059999465942383,25.600000381469727,25.510000228881836,12300.0,23.2486515045166
2018-02-06,25.450000762939453,25.233999252319336,25.434999465942383,25.320999145507812,8700.0,23.076404571533203
2018-02-07,25.56999969482422,25.452999114990234,25.56999969482422,25.540000915527344,1100.0,23.275989532470703
2018-02-08,25.479999542236328,25.299999237060547,25.395000457763672,25.32200050354004,3700.0,23.077316284179688
2018-02-09,25.371999740600586,25.299999237060547,25.301000595092773,25.32200050354004,2300.0,23.077316284179688
2018-02-12,25.360000610351562,25.34000015258789,25.350000381469727,25.360000610351562,1400.0,23.111949920654297
2018-02-13,25.360000610351562,25.309999465942383,25.340999603271484,25.309999465942383,2700.0,23.066377639770508
2018-02-14,25.25,24.559999465942383,25.25,25.25,7700.0,23.011699676513672
2018-02-15,25.18000030517578,25.12700080871582,25.12700080871582,25.18000030517578,700.0,23.081212997436523
2018-02-16,25.309999465942383,25.100000381469727,25.309999465942383,25.152999877929688,6400.0,23.05646324157715
2018-02-20,25.25,25.149999618530273,25.207000732421875,25.25,2700.0,23.145376205444336
2018-02-21,25.229999542236328,25.149999618530273,25.15999984741211,25.229999542236328,2800.0,23.12704086303711
2018-02-22,25.200000762939453,25.020000457763672,25.020000457763672,25.200000762939453,2500.0,23.099546432495117
2018-02-23,25.229999542236328,25.113000869750977,25.219999313354492,25.229999542236328,2200.0,23.12704086303711
2018-02-26,25.108999252319336,24.90999984741211,25.041000366210938,25.030000686645508,8100.0,22.94371795654297
2018-02-27,25.104000091552734,25.0,25.100000381469727,25.104000091552734,2000.0,23.011545181274414
2018-02-28,25.260000228881836,25.020000457763672,25.25,25.1299991607666,15100.0,23.035381317138672
2018-03-01,25.166000366210938,25.010000228881836,25.166000366210938,25.149999618530273,3500.0,23.053712844848633
2018-03-02,25.270000457763672,25.079999923706055,25.100000381469727,25.079999923706055,1300.0,22.989543914794922
2018-03-05,25.20400047302246,24.850000381469727,25.030000686645508,24.899999618530273,9800.0,22.824548721313477
2018-03-06,25.100000381469727,24.965999603271484,25.0,25.100000381469727,2300.0,23.00788116455078
2018-03-07,25.18000030517578,25.0,25.079999923706055,25.051000595092773,5200.0,22.962963104248047
2018-03-08,25.288999557495117,25.030000686645508,25.288999557495117,25.049999237060547,6700.0,22.9620418548584
2018-03-09,25.139999389648438,24.90999984741211,25.049999237060547,24.97100067138672,6800.0,22.889631271362305
2018-03-12,25.049999237060547,24.950000762939453,24.979999542236328,24.98699951171875,5400.0,22.904298782348633
2018-03-13,25.030000686645508,24.92099952697754,24.92099952697754,24.959999084472656,16300.0,22.879549026489258
2018-03-14,24.979999542236328,24.940000534057617,24.950000762939453,24.979999542236328,4500.0,22.89788246154785
2018-03-15,25.1200008392334,24.979999542236328,25.079999923706055,24.989999771118164,26900.0,22.907047271728516
2018-03-16,25.0,24.950000762939453,25.0,24.979999542236328,11200.0,22.89788246154785
2018-03-19,24.969999313354492,24.826000213623047,24.969999313354492,24.899999618530273,2000.0,22.958580017089844
2018-03-20,24.899999618530273,24.8700008392334,24.899999618530273,24.899999618530273,1800.0,22.958580017089844
2018-03-21,24.969999313354492,24.829999923706055,24.899999618530273,24.950000762939453,19300.0,23.004684448242188
2018-03-22,24.950000762939453,24.829999923706055,24.829999923706055,24.950000762939453,6100.0,23.004684448242188
2018-03-23,24.95199966430664,24.829999923706055,24.829999923706055,24.920000076293945,9500.0,22.977020263671875
2018-03-26,24.940000534057617,24.899999618530273,24.899999618530273,24.940000534057617,500.0,22.995464324951172
2018-03-27,24.940000534057617,24.760000228881836,24.760000228881836,24.850000381469727,14300.0,22.9124755859375
2018-03-28,24.989999771118164,24.739999771118164,24.740999221801758,24.850000381469727,18400.0,22.9124755859375
2018-03-29,24.979999542236328,24.790000915527344,24.979999542236328,24.826000213623047,3100.0,22.89035415649414
2018-04-02,24.81999969482422,24.780000686645508,24.790000915527344,24.799999237060547,11900.0,22.86638069152832
2018-04-03,24.940000534057617,24.799999237060547,24.940000534057617,24.93000030517578,5300.0,22.986242294311523
2018-04-04,24.93000030517578,24.850000381469727,24.850000381469727,24.93000030517578,3500.0,22.986242294311523
2018-04-05,24.979999542236328,24.850000381469727,24.93000030517578,24.915000915527344,15800.0,22.972414016723633
2018-04-06,24.966999053955078,24.850000381469727,24.850000381469727,24.944000244140625,2700.0,22.9991512298584
2018-04-09,25.0,24.81399917602539,24.899999618530273,24.979999542236328,6100.0,23.032344818115234
2018-04-10,25.0,24.823999404907227,24.979999542236328,24.899999618530273,14000.0,22.958580017089844
2018-04-11,25.045000076293945,24.951000213623047,24.979999542236328,25.0,7900.0,23.050785064697266
2018-04-12,25.049999237060547,25.0,25.0,25.0,15200.0,23.050785064697266
2018-04-13,25.100000381469727,24.989999771118164,25.100000381469727,24.989999771118164,12400.0,23.041563034057617
2018-04-16,25.09000015258789,24.989999771118164,25.010000228881836,25.09000015258789,3400.0,23.13376808166504
2018-04-17,25.099000930786133,24.989999771118164,25.040000915527344,24.989999771118164,3800.0,23.041563034057617
2018-04-18,25.02899932861328,25.0,25.0,25.02899932861328,2200.0,23.077524185180664
2018-04-19,24.93000030517578,24.760000228881836,24.875999450683594,24.850000381469727,1900.0,23.046762466430664
2018-04-20,24.979000091552734,24.820999145507812,24.820999145507812,24.950000762939453,4300.0,23.139503479003906
2018-04-23,25.024999618530273,24.850000381469727,25.024999618530273,24.969999313354492,4200.0,23.158048629760742
2018-04-24,24.90999984741211,24.719999313354492,24.809999465942383,24.719999313354492,3000.0,22.926193237304688
2018-04-25,25.0,24.6299991607666,25.0,24.832000732421875,7600.0,23.03006935119629
2018-04-26,25.0,25.0,25.0,25.0,100.0,23.185876846313477
2018-04-27,25.0,24.719999313354492,24.979999542236328,24.989999771118164,4500.0,23.17660140991211
2018-04-30,25.0,24.899999618530273,25.0,24.989999771118164,3300.0,23.17660140991211
2018-05-01,25.0,24.950000762939453,24.950000762939453,25.0,1600.0,23.185876846313477
2018-05-02,24.983999252319336,24.975000381469727,24.983999252319336,24.975000381469727,400.0,23.162694931030273
2018-05-03,24.979999542236328,24.950000762939453,24.961999893188477,24.979999542236328,3300.0,23.167325973510742
2018-05-04,25.459999084472656,24.950000762939453,24.950000762939453,24.950000762939453,13300.0,23.139503479003906
2018-05-07,25.086000442504883,24.950000762939453,25.086000442504883,24.950000762939453,4300.0,23.139503479003906
2018-05-08,25.073999404907227,24.899999618530273,24.950000762939453,24.969999313354492,6800.0,23.158048629760742
2018-05-09,25.02899932861328,24.899999618530273,24.989999771118164,24.899999618530273,7400.0,23.093137741088867
2018-05-10,25.08300018310547,25.08300018310547,25.08300018310547,25.08300018310547,300.0,23.26285171508789
2018-05-11,25.09000015258789,25.079999923706055,25.079999923706055,25.09000015258789,800.0,23.269350051879883
2018-05-14,25.2450008392334,25.110000610351562,25.110000610351562,25.2450008392334,4900.0,23.413101196289062
2018-05-15,25.288999557495117,25.110000610351562,25.149999618530273,25.1200008392334,30700.0,23.29717254638672
2018-05-16,25.15999984741211,25.1200008392334,25.156999588012695,25.1200008392334,2400.0,23.29717254638672
2018-05-17,25.159000396728516,24.87700080871582,25.159000396728516,24.9689998626709,3200.0,23.157123565673828
2018-05-18,25.128000259399414,25.006000518798828,25.024999618530273,25.128000259399414,3400.0,23.304588317871094
2018-05-21,25.049999237060547,24.850000381469727,25.049999237060547,24.940000534057617,5300.0,23.265254974365234
2018-05-22,25.016000747680664,24.860000610351562,25.0,24.94499969482422,3700.0,23.269916534423828
2018-05-23,24.989999771118164,24.940000534057617,24.95199966430664,24.940000534057617,6800.0,23.265254974365234
2018-05-24,24.97599983215332,24.85700035095215,24.920000076293945,24.899999618530273,14300.0,23.227941513061523
2018-05-25,24.899999618530273,24.87299919128418,24.895000457763672,24.899999618530273,2300.0,23.227941513061523
2018-05-29,24.889999389648438,24.56999969482422,24.884000778198242,24.670000076293945,17000.0,23.013383865356445
2018-05-30,24.950000762939453,24.670000076293945,24.670000076293945,24.917999267578125,2600.0,23.244731903076172
2018-05-31,25.040000915527344,24.826000213623047,24.934999465942383,24.871000289916992,7500.0,23.200889587402344
2018-06-01,25.0,24.760000228881836,25.0,24.854999542236328,4700.0,23.18596076965332
2018-06-04,25.049999237060547,24.875,25.049999237060547,24.915000915527344,5400.0,23.24193572998047
2018-06-05,25.0,24.780000686645508,25.0,25.0,7600.0,23.321224212646484
2018-06-06,25.020000457763672,24.940000534057617,25.020000457763672,24.979999542236328,2100.0,23.302566528320312
2018-06-07,25.3799991607666,24.969999313354492,25.049999237060547,25.0049991607666,5400.0,23.325889587402344
2018-06-08,25.049999237060547,24.8700008392334,25.049999237060547,24.979999542236328,7600.0,23.302566528320312
2018-06-11,25.299999237060547,24.989999771118164,25.125,25.239999771118164,3200.0,23.545108795166016
2018-06-12,25.229999542236328,25.114999771118164,25.229999542236328,25.200000762939453,4100.0,23.507795333862305
2018-06-13,25.23900032043457,25.170000076293945,25.200000762939453,25.222000122070312,11500.0,23.528316497802734
2018-06-14,25.239999771118164,25.190000534057617,25.23900032043457,25.239999771118164,1900.0,23.545108795166016
2018-06-15,25.378999710083008,25.21500015258789,25.23900032043457,25.3700008392334,5600.0,23.666383743286133
2018-06-18,25.43000030517578,25.219999313354492,25.219999313354492,25.43000030517578,3100.0,23.72235107421875
2018-06-19,25.344999313354492,25.079999923706055,25.31999969482422,25.299999237060547,4700.0,23.73736000061035
2018-06-20,25.27199935913086,25.139999389648438,25.139999389648438,25.209999084472656,3300.0,23.652921676635742
2018-06-21,25.290000915527344,25.149999618530273,25.149999618530273,25.232999801635742,16300.0,23.67449951171875
2018-06-22,25.298999786376953,25.229999542236328,25.229999542236328,25.280000686645508,3900.0,23.71859359741211
2018-06-25,25.63599967956543,25.382999420166016,25.63599967956543,25.479999542236328,1300.0,23.906240463256836
2018-06-26,25.468000411987305,25.399999618530273,25.450000762939453,25.399999618530273,1800.0,23.8311824798584
2018-06-27,25.448999404907227,25.350000381469727,25.420000076293945,25.350000381469727,2600.0,23.784273147583008
2018-06-28,25.43000030517578,25.395000457763672,25.424999237060547,25.395000457763672,1000.0,23.826494216918945
2018-06-29,25.479999542236328,25.378999710083008,25.450000762939453,25.410999298095703,1500.0,23.841503143310547
2018-07-02,25.43000030517578,25.170000076293945,25.43000030517578,25.31999969482422,4200.0,23.756126403808594
2018-07-03,25.43000030517578,25.350000381469727,25.43000030517578,25.350000381469727,4900.0,23.784273147583008
2018-07-05,25.674999237060547,25.219999313354492,25.440000534057617,25.562999725341797,3300.0,23.984119415283203
2018-07-06,25.481000900268555,25.3700008392334,25.481000900268555,25.433000564575195,1300.0,23.862146377563477
2018-07-09,25.4060001373291,25.3799991607666,25.3799991607666,25.4060001373291,1200.0,23.83681297302246
2018-07-10,25.530000686645508,25.4689998626709,25.4689998626709,25.530000686645508,4500.0,23.953153610229492
2018-07-11,25.579999923706055,25.364999771118164,25.579999923706055,25.388999938964844,4300.0,23.820865631103516
2018-07-12,25.3700008392334,25.31999969482422,25.31999969482422,25.3700008392334,25500.0,23.803041458129883
2018-07-13,25.57900047302246,25.459999084472656,25.459999084472656,25.57900047302246,3000.0,23.99913215637207
2018-07-16,25.600000381469727,25.489999771118164,25.489999771118164,25.559999465942383,5500.0,23.981300354003906
2018-07-17,25.559999465942383,25.464000701904297,25.464000701904297,25.469999313354492,1800.0,23.896860122680664
2018-07-18,25.57200050354004,25.5,25.57200050354004,25.510000228881836,3400.0,23.934389114379883
2018-07-19,25.5,25.350000381469727,25.5,25.481000900268555,3300.0,24.044797897338867
2018-07-20,25.4689998626709,25.360000610351562,25.360000610351562,25.4689998626709,700.0,24.033470153808594
2018-07-23,25.639999389648438,25.3700008392334,25.639999389648438,25.38599967956543,2500.0,23.955150604248047
2018-07-24,25.5,25.34000015258789,25.375,25.48900032043457,1600.0,24.052349090576172
2018-07-25,25.479999542236328,25.479999542236328,25.479999542236328,25.479999542236328,1000.0,24.043851852416992
2018-07-26,25.381999969482422,25.270000457763672,25.270000457763672,25.381999969482422,1500.0,23.951379776000977
2018-07-27,25.469999313354492,25.450000762939453,25.45199966430664,25.469999313354492,2400.0,24.03441619873047
2018-07-30,25.469999313354492,25.469999313354492,25.469999313354492,25.469999313354492,100.0,24.03441619873047
2018-07-31,25.540000915527344,25.375,25.540000915527344,25.375,1800.0,23.94476890563965
2018-08-01,25.540000915527344,25.530000686645508,25.540000915527344,25.530000686645508,400.0,24.091033935546875
2018-08-02,25.5,25.39900016784668,25.5,25.39900016784668,700.0,23.967416763305664
2018-08-03,25.459999084472656,25.329999923706055,25.329999923706055,25.441999435424805,4000.0,24.00799560546875
2018-08-06,25.469999313354492,25.42799949645996,25.469999313354492,25.450000762939453,1600.0,24.015544891357422
2018-08-07,25.5,25.399999618530273,25.5,25.405000686645508,400.0,23.973079681396484
2018-08-08,25.405000686645508,25.405000686645508,25.405000686645508,25.405000686645508,0.0,23.973079681396484
2018-08-09,25.450000762939453,25.357999801635742,25.357999801635742,25.450000762939453,2900.0,24.015544891357422
2018-08-10,25.469999313354492,25.3799991607666,25.3799991607666,25.469999313354492,2700.0,24.03441619873047
2018-08-13,25.354999542236328,24.989999771118164,25.329999923706055,25.309999465942383,4900.0,23.883434295654297
2018-08-14,25.399999618530273,25.25,25.25,25.299999237060547,2500.0,23.873998641967773
2018-08-15,25.399999618530273,25.371999740600586,25.3799991607666,25.399999618530273,500.0,23.968360900878906
2018-08-16,25.399999618530273,25.299999237060547,25.399999618530273,25.399999618530273,1000.0,23.968360900878906
2018-08-17,25.399999618530273,25.399999618530273,25.399999618530273,25.399999618530273,0.0,23.968360900878906
2018-08-20,25.389999389648438,25.354999542236328,25.389999389648438,25.354999542236328,1200.0,24.064218521118164
2018-08-21,25.350000381469727,25.25,25.350000381469727,25.25,1300.0,23.964563369750977
2018-08-22,25.389999389648438,25.299999237060547,25.309999465942383,25.299999237060547,2200.0,24.01201629638672
2018-08-23,25.40999984741211,25.299999237060547,25.299999237060547,25.399999618530273,4200.0,24.106929779052734
2018-08-24,25.530000686645508,25.43600082397461,25.523000717163086,25.43600082397461,3200.0,24.14109992980957
2018-08-27,25.43000030517578,25.371000289916992,25.371000289916992,25.417999267578125,1300.0,24.124011993408203
2018-08-28,25.417999267578125,25.417999267578125,25.417999267578125,25.417999267578125,0.0,24.124011993408203
2018-08-29,25.40999984741211,25.406999588012695,25.406999588012695,25.40999984741211,1500.0,24.116418838500977
2018-08-30,25.450000762939453,25.3700008392334,25.3700008392334,25.450000762939453,1700.0,24.154382705688477
2018-08-31,25.459999084472656,25.433000564575195,25.459999084472656,25.450000762939453,900.0,24.154382705688477
2018-09-04,25.459999084472656,25.405000686645508,25.459999084472656,25.429000854492188,6400.0,24.13445281982422
2018-09-05,25.510000228881836,25.3700008392334,25.510000228881836,25.42799949645996,5700.0,24.133501052856445
2018-09-06,25.5,25.422000885009766,25.434999465942383,25.429000854492188,1500.0,24.13445281982422
2018-09-07,25.3700008392334,25.367000579833984,25.3700008392334,25.367000579833984,1000.0,24.075611114501953
2018-09-10,25.5,25.374000549316406,25.374000549316406,25.450000762939453,1000.0,24.154382705688477
2018-09-11,25.549999237060547,25.399999618530273,25.549999237060547,25.40999984741211,3000.0,24.116418838500977
2018-09-12,25.47599983215332,25.450000762939453,25.450000762939453,25.47599983215332,500.0,24.179059982299805
2018-09-13,25.599000930786133,25.486000061035156,25.599000930786133,25.486000061035156,200.0,24.188549041748047
2018-09-14,25.518999099731445,25.367000579833984,25.367000579833984,25.518999099731445,200.0,24.219867706298828
2018-09-17,25.5,25.416000366210938,25.5,25.452999114990234,800.0,24.157228469848633
2018-09-18,25.402999877929688,25.301000595092773,25.31999969482422,25.301000595092773,3600.0,24.151504516601562
2018-09-19,25.292999267578125,25.149999618530273,25.200000762939453,25.149999618530273,6000.0,24.00736427307129
2018-09-20,25.59600067138672,25.104999542236328,25.150999069213867,25.25,8100.0,24.102819442749023
2018-09-21,25.26099967956543,25.079999923706055,25.149999618530273,25.100000381469727,4200.0,23.959636688232422
2018-09-24,25.444000244140625,25.030000686645508,25.049999237060547,25.030000686645508,11600.0,23.8928165435791
2018-09-25,25.639999389648438,25.030000686645508,25.1200008392334,25.040000915527344,24400.0,23.902359008789062
2018-09-26,25.049999237060547,24.860000610351562,25.049999237060547,24.860000610351562,19100.0,23.730539321899414
2018-09-27,25.200000762939453,24.8700008392334,24.959999084472656,24.8700008392334,5200.0,23.740087509155273
2018-09-28,25.24799919128418,24.878000259399414,24.969999313354492,25.24799919128418,1400.0,24.100908279418945
2018-10-01,25.21500015258789,24.950000762939453,25.09000015258789,25.21500015258789,8000.0,24.069412231445312
2018-10-02,25.201000213623047,24.969999313354492,24.969999313354492,24.979999542236328,2200.0,23.845088958740234
2018-10-03,25.09000015258789,24.950000762939453,25.049999237060547,24.950000762939453,8800.0,23.816450119018555
2018-10-04,25.166000366210938,24.950000762939453,24.950000762939453,25.100000381469727,3300.0,23.959636688232422
2018-10-05,25.143999099731445,24.922000885009766,24.951000213623047,24.922000885009766,4400.0,23.789722442626953
2018-10-08,25.040000915527344,24.899999618530273,24.899999618530273,24.950000762939453,9800.0,23.816450119018555
2018-10-09,24.959999084472656,24.899999618530273,24.940000534057617,24.899999618530273,5300.0,23.768722534179688
2018-10-10,25.055999755859375,24.899999618530273,25.055999755859375,25.0,1900.0,23.864179611206055
2018-10-11,25.100000381469727,24.899999618530273,25.100000381469727,24.899999618530273,3700.0,23.768722534179688
2018-10-12,25.02400016784668,24.910999298095703,25.02400016784668,24.954999923706055,2100.0,23.82122230529785
2018-10-15,25.09000015258789,25.0,25.076000213623047,25.09000015258789,2600.0,23.950092315673828
2018-10-16,25.089000701904297,25.0,25.089000701904297,25.0,3700.0,23.864179611206055
2018-10-17,25.0,24.950000762939453,25.0,24.959999084472656,10200.0,23.82599449157715
2018-10-18,24.941999435424805,24.839000701904297,24.899999618530273,24.927000045776367,11700.0,23.93449592590332
2018-10-19,24.989999771118164,24.8799991607666,24.8799991607666,24.959999084472656,6700.0,23.9661808013916
2018-10-22,24.989999771118164,24.8700008392334,24.989999771118164,24.8700008392334,2700.0,23.87976837158203
2018-10-23,24.917999267578125,24.809999465942383,24.917999267578125,24.81399917602539,1700.0,23.82599639892578
2018-10-24,25.15999984741211,24.760000228881836,25.149999618530273,24.770000457763672,1400.0,23.783750534057617
2018-10-25,24.985000610351562,24.610000610351562,24.75,24.850000381469727,6800.0,23.86056137084961
2018-10-26,24.899999618530273,24.695999145507812,24.78700065612793,24.695999145507812,4200.0,23.712692260742188
2018-10-29,24.860000610351562,24.799999237060547,24.860000610351562,24.850000381469727,2900.0,23.86056137084961
2018-10-30,24.950000762939453,24.83099937438965,24.950000762939453,24.83099937438965,1700.0,23.842317581176758
2018-10-31,24.97100067138672,24.79199981689453,24.850000381469727,24.899999618530273,15400.0,23.908571243286133
2018-11-01,24.989999771118164,24.75,24.979999542236328,24.75,8300.0,23.764545440673828
2018-11-02,24.93000030517578,24.81100082397461,24.93000030517578,24.860000610351562,2300.0,23.87016487121582
2018-11-05,25.030000686645508,24.809999465942383,24.809999465942383,24.899999618530273,8100.0,23.908571243286133
2018-11-06,24.972000122070312,24.92099952697754,24.972000122070312,24.969999313354492,1200.0,23.975784301757812
2018-11-07,25.0,24.881999969482422,24.899999618530273,25.0,7800.0,24.004589080810547
2018-11-08,25.075000762939453,24.950000762939453,24.979999542236328,25.040000915527344,4200.0,24.04299545288086
2018-11-09,25.329999923706055,24.979999542236328,25.030000686645508,25.0,4700.0,24.004589080810547
2018-11-12,25.174999237060547,24.99799919128418,24.99799919128418,25.010000228881836,5100.0,24.014190673828125
2018-11-13,25.1200008392334,25.020000457763672,25.020999908447266,25.076000213623047,5500.0,24.077564239501953
2018-11-14,25.198999404907227,25.020000457763672,25.020000457763672,25.198999404907227,900.0,24.19566535949707
2018-11-15,25.20800018310547,25.020000457763672,25.091999053955078,25.200000762939453,2800.0,24.196626663208008
2018-11-16,25.333999633789062,25.200000762939453,25.333999633789062,25.329999923706055,1800.0,24.32145118713379
2018-11-19,25.299999237060547,24.9689998626709,25.149999618530273,25.110000610351562,5400.0,24.249984741210938
2018-11-20,25.219999313354492,24.83099937438965,25.125999450683594,25.079999923706055,8300.0,24.221012115478516
2018-11-21,25.218000411987305,24.709999084472656,24.709999084472656,25.18000030517578,1100.0,24.31758689880371
2018-11-23,25.0,24.979999542236328,24.979999542236328,24.989999771118164,1500.0,24.13409423828125
2018-11-26,25.209999084472656,25.0,25.209999084472656,25.0,1700.0,24.143753051757812
2018-11-27,24.940000534057617,24.75,24.93000030517578,24.888999938964844,6400.0,24.03655433654785
2018-11-28,24.940000534057617,24.80299949645996,24.850000381469727,24.8700008392334,5500.0,24.018205642700195
2018-11-29,24.950000762939453,24.750999450683594,24.93000030517578,24.93000030517578,9900.0,24.076148986816406
2018-11-30,24.950000762939453,24.719999313354492,24.950000762939453,24.854999542236328,2500.0,24.00371742248535
2018-12-03,24.948999404907227,24.799999237060547,24.899999618530273,24.799999237060547,8400.0,23.95060157775879
2018-12-04,24.950000762939453,24.719999313354492,24.950000762939453,24.719999313354492,2600.0,23.873342514038086
2018-12-06,24.850000381469727,24.700000762939453,24.850000381469727,24.785999298095703,4800.0,23.937084197998047
2018-12-07,24.790000915527344,24.68000030517578,24.75,24.75,5500.0,23.902315139770508
2018-12-10,24.795000076293945,24.639999389648438,24.649999618530273,24.639999389648438,5600.0,23.79608154296875
2018-12-11,24.733999252319336,24.549999237060547,24.549999237060547,24.56999969482422,5000.0,23.72848129272461
2018-12-12,24.70400047302246,24.649999618530273,24.70400047302246,24.670000076293945,1800.0,23.825056076049805
2018-12-13,24.670000076293945,24.60700035095215,24.670000076293945,24.60700035095215,900.0,23.764211654663086
2018-12-14,24.618000030517578,24.590999603271484,24.590999603271484,24.618000030517578,600.0,23.77483367919922
2018-12-17,24.667999267578125,24.549999237060547,24.582000732421875,24.549999237060547,4300.0,23.709163665771484
2018-12-18,24.649999618530273,24.315000534057617,24.639999389648438,24.315000534057617,1300.0,23.482213973999023
2018-12-19,24.459999084472656,23.541000366210938,24.459999084472656,24.010000228881836,17800.0,23.327730178833008
2018-12-20,24.100000381469727,23.65999984741211,24.079999923706055,23.959999084472656,4600.0,23.279150009155273
2018-12-21,23.940000534057617,23.799999237060547,23.93000030517578,23.799999237060547,1300.0,23.12369728088379
2018-12-24,23.510000228881836,23.040000915527344,23.5,23.233999252319336,4300.0,22.573780059814453
2018-12-26,23.423999786376953,23.024999618530273,23.100000381469727,23.266000747680664,6200.0,22.604875564575195
2018-12-27,23.299999237060547,23.030000686645508,23.297000885009766,23.030000686645508,6600.0,22.375581741333008
2018-12-28,23.299999237060547,23.030000686645508,23.049999237060547,23.187999725341797,7600.0,22.529088973999023
2018-12-31,23.3700008392334,23.040000915527344,23.299999237060547,23.280000686645508,12400.0,22.61847496032715
2019-01-02,23.77899932861328,23.240999221801758,23.298999786376953,23.77899932861328,3500.0,23.103294372558594
2019-01-03,23.799999237060547,23.68400001525879,23.780000686645508,23.71299934387207,1600.0,23.039169311523438
2019-01-04,23.799999237060547,23.59000015258789,23.763999938964844,23.600000381469727,27600.0,22.92938232421875
2019-01-07,23.799999237060547,23.600000381469727,23.700000762939453,23.649999618530273,14700.0,22.97795867919922
2019-01-08,24.229999542236328,23.700000762939453,23.700000762939453,24.229999542236328,9300.0,23.541479110717773
2019-01-09,24.90999984741211,24.233999252319336,24.233999252319336,24.90999984741211,4100.0,24.202157974243164
2019-01-10,24.5,24.5,24.5,24.5,700.0,23.80380630493164
2019-01-11,25.0,24.559999465942383,24.68000030517578,24.906999588012695,8600.0,24.199241638183594
2019-01-14,25.139999389648438,24.899999618530273,24.899999618530273,25.139999389648438,8000.0,24.425621032714844
2019-01-15,25.31999969482422,24.795000076293945,24.87700080871582,25.31999969482422,4000.0,24.600505828857422
2019-01-16,25.3799991607666,25.100000381469727,25.239999771118164,25.200000762939453,4600.0,24.483915328979492
2019-01-17,25.174999237060547,24.950000762939453,24.969999313354492,25.0,5800.0,24.43114471435547
2019-01-18,24.989999771118164,24.356000900268555,24.989999771118164,24.670000076293945,7200.0,24.108654022216797
2019-01-22,24.924999237060547,24.65999984741211,24.660999298095703,24.663999557495117,4500.0,24.10279083251953
2019-01-23,25.200000762939453,24.7810001373291,25.06999969482422,25.200000762939453,11100.0,24.62659454345703
2019-01-24,25.34000015258789,25.0,25.05900001525879,25.225000381469727,5500.0,24.651023864746094
2019-01-25,25.239999771118164,25.09000015258789,25.239999771118164,25.09000015258789,34400.0,24.51909828186035
2019-01-28,25.239999771118164,25.200000762939453,25.239999771118164,25.219999313354492,14900.0,24.646137237548828
2019-01-29,25.25200080871582,25.2189998626709,25.232999801635742,25.2189998626709,2600.0,24.645160675048828
2019-01-30,25.22599983215332,25.094999313354492,25.22599983215332,25.190000534057617,600.0,24.6168212890625
2019-01-31,25.219999313354492,24.950000762939453,25.219999313354492,25.219999313354492,1200.0,24.646137237548828
2019-02-01,25.350000381469727,25.038999557495117,25.038999557495117,25.25200080871582,3400.0,24.677412033081055
2019-02-04,25.28700065612793,25.200000762939453,25.200000762939453,25.260000228881836,4200.0,24.68522834777832
2019-02-05,25.329999923706055,25.165000915527344,25.165000915527344,25.274999618530273,800.0,24.699886322021484
2019-02-06,25.350000381469727,25.049999237060547,25.049999237060547,25.25,2600.0,24.675457000732422
2019-02-07,25.312999725341797,25.138999938964844,25.138999938964844,25.291000366210938,1100.0,24.71552276611328
2019-02-08,25.319000244140625,25.299999237060547,25.299999237060547,25.299999237060547,11600.0,24.724315643310547
2019-02-11,25.165000915527344,25.165000915527344,25.165000915527344,25.165000915527344,200.0,24.592391967773438
2019-02-12,25.25200080871582,25.049999237060547,25.100000381469727,25.149999618530273,12200.0,24.577730178833008
2019-02-13,25.225000381469727,25.170000076293945,25.19499969482422,25.225000381469727,1300.0,24.651023864746094
2019-02-14,25.320999145507812,25.25,25.25,25.320999145507812,4900.0,24.744840621948242
2019-02-15,25.316999435424805,25.2549991607666,25.259000778198242,25.299999237060547,2600.0,24.724315643310547
2019-02-19,25.2549991607666,25.0,25.239999771118164,25.18000030517578,5200.0,24.7498722076416
2019-02-20,25.139999389648438,25.139999389648438,25.139999389648438,25.139999389648438,1600.0,24.710556030273438
2019-02-21,25.231000900268555,25.149999618530273,25.200000762939453,25.149999618530273,10600.0,24.72038459777832
2019-02-22,25.399999618530273,25.329999923706055,25.329999923706055,25.350000381469727,5400.0,24.916969299316406
2019-02-25,25.450000762939453,25.214000701904297,25.214000701904297,25.43000030517578,3800.0,24.99560546875
2019-02-26,25.799999237060547,25.399999618530273,25.464000701904297,25.799999237060547,4600.0,25.359283447265625
2019-02-27,25.499000549316406,25.350000381469727,25.350000381469727,25.389999389648438,2800.0,24.95628547668457
2019-02-28,25.51300048828125,25.399999618530273,25.5,25.51300048828125,1900.0,25.077184677124023
2019-03-01,25.66699981689453,25.37700080871582,25.37700080871582,25.56599998474121,1200.0,25.12928009033203
2019-03-04,25.530000686645508,25.452999114990234,25.452999114990234,25.530000686645508,1200.0,25.093894958496094
2019-03-05,25.589000701904297,25.500999450683594,25.523000717163086,25.540000915527344,4300.0,25.103723526000977
2019-03-06,25.655000686645508,25.600000381469727,25.600000381469727,25.639999389648438,1600.0,25.202014923095703
2019-03-07,25.64299964904785,25.554000854492188,25.554000854492188,25.639999389648438,3500.0,25.202014923095703
2019-03-08,25.659000396728516,25.639999389648438,25.639999389648438,25.649999618530273,800.0,25.21184539794922
2019-03-11,25.530000686645508,25.5,25.5,25.530000686645508,500.0,25.093894958496094
2019-03-12,25.530000686645508,25.503000259399414,25.530000686645508,25.503000259399414,1000.0,25.06735610961914
2019-03-13,25.6299991607666,25.551000595092773,25.551000595092773,25.6299991607666,800.0,25.19218635559082
2019-03-14,25.690000534057617,25.511999130249023,25.690000534057617,25.600000381469727,12400.0,25.162700653076172
2019-03-15,25.600000381469727,25.534000396728516,25.55299949645996,25.600000381469727,5000.0,25.162700653076172
2019-03-18,25.59600067138672,25.56999969482422,25.59600067138672,25.56999969482422,700.0,25.133211135864258
2019-03-19,25.40999984741211,25.256000518798828,25.256000518798828,25.40999984741211,1300.0,25.11937141418457
2019-03-20,25.548999786376953,25.40999984741211,25.40999984741211,25.548999786376953,2100.0,25.25678253173828
2019-03-21,25.600000381469727,25.399999618530273,25.43000030517578,25.510000228881836,1800.0,25.21822738647461
2019-03-22,25.600000381469727,25.450000762939453,25.457000732421875,25.600000381469727,1600.0,25.307199478149414
2019-03-25,25.472999572753906,25.399999618530273,25.459999084472656,25.399999618530273,3100.0,25.109485626220703
2019-03-26,25.600000381469727,25.329999923706055,25.600000381469727,25.399999618530273,3800.0,25.109485626220703
2019-03-27,25.509000778198242,25.299999237060547,25.329999923706055,25.329999923706055,2900.0,25.040287017822266
2019-03-28,25.538999557495117,25.450000762939453,25.538999557495117,25.450000762939453,700.0,25.158916473388672
2019-03-29,25.6200008392334,25.30299949645996,25.6200008392334,25.600000381469727,1600.0,25.307199478149414
2019-04-01,25.75,25.549999237060547,25.75,25.75,2800.0,25.455482482910156
2019-04-02,25.69499969482422,25.65999984741211,25.674999237060547,25.65999984741211,600.0,25.366514205932617
2019-04-03,25.8799991607666,25.739999771118164,25.739999771118164,25.8799991607666,800.0,25.583993911743164
2019-04-04,25.85300064086914,25.63800048828125,25.85300064086914,25.63800048828125,500.0,25.344764709472656
2019-04-05,25.63800048828125,25.63800048828125,25.63800048828125,25.63800048828125,100.0,25.344764709472656
2019-04-08,25.68199920654297,25.5,25.68199920654297,25.530000686645508,4200.0,25.237998962402344
2019-04-09,25.639999389648438,25.506999969482422,25.606000900268555,25.506999969482422,1700.0,25.215261459350586
2019-04-10,25.649999618530273,25.5,25.5,25.649999618530273,3800.0,25.356626510620117
2019-04-11,25.638999938964844,25.554000854492188,25.638999938964844,25.554000854492188,2400.0,25.26172637939453
2019-04-12,25.562999725341797,25.170000076293945,25.535999298095703,25.299999237060547,6200.0,25.01062774658203
2019-04-15,25.49799919128418,25.239999771118164,25.408000946044922,25.31999969482422,5100.0,25.0304012298584
2019-04-16,25.639999389648438,25.059999465942383,25.639999389648438,25.548999786376953,5800.0,25.25678253173828
2019-04-17,25.59000015258789,25.309999465942383,25.309999465942383,25.59000015258789,7000.0,25.297313690185547
2019-04-18,25.788000106811523,25.600000381469727,25.600000381469727,25.677000045776367,1800.0,25.52897071838379
2019-04-22,25.631999969482422,25.440000534057617,25.440000534057617,25.610000610351562,800.0,25.462356567382812
2019-04-23,25.549999237060547,25.450000762939453,25.450000762939453,25.549999237060547,2900.0,25.40270233154297
2019-04-24,25.545000076293945,25.440000534057617,25.440000534057617,25.440000534057617,1900.0,25.293336868286133
2019-04-25,25.350000381469727,25.219999313354492,25.347999572753906,25.219999313354492,1100.0,25.074604034423828
2019-04-26,25.260000228881836,25.25,25.25,25.25,2700.0,25.10443115234375
2019-04-29,25.25,25.25,25.25,25.25,100.0,25.10443115234375
2019-04-30,25.389999389648438,25.260000228881836,25.389999389648438,25.260000228881836,1300.0,25.1143741607666
2019-05-01,25.65999984741211,25.219999313354492,25.65999984741211,25.28499984741211,1000.0,25.139230728149414
2019-05-02,25.533000946044922,25.533000946044922,25.533000946044922,25.533000946044922,100.0,25.385801315307617
2019-05-03,25.413000106811523,25.260000228881836,25.402000427246094,25.367000579833984,900.0,25.22075843811035
2019-05-06,25.5,25.260000228881836,25.260000228881836,25.489999771118164,3400.0,25.343048095703125
2019-05-07,25.510000228881836,25.45800018310547,25.45800018310547,25.479999542236328,5000.0,25.333105087280273
2019-05-08,25.450000762939453,25.399999618530273,25.4060001373291,25.399999618530273,1000.0,25.25356674194336
2019-05-09,25.350000381469727,25.239999771118164,25.299999237060547,25.299999237060547,4500.0,25.154142379760742
2019-05-10,25.280000686645508,25.280000686645508,25.280000686645508,25.280000686645508,1100.0,25.134260177612305
2019-05-13,25.350000381469727,25.290000915527344,25.350000381469727,25.299999237060547,6000.0,25.154142379760742
2019-05-14,25.437000274658203,25.301000595092773,25.437000274658203,25.408000946044922,1100.0,25.26152229309082
2019-05-15,25.382999420166016,25.299999237060547,25.382999420166016,25.325000762939453,7400.0,25.179000854492188
2019-05-16,25.40999984741211,25.270000457763672,25.40999984741211,25.399999618530273,12500.0,25.25356674194336
2019-05-17,25.360000610351562,25.299999237060547,25.30900001525879,25.339000701904297,1600.0,25.19291877746582
2019-05-20,25.35099983215332,25.325000762939453,25.34000015258789,25.325000762939453,6500.0,25.179000854492188
2019-05-21,25.200000762939453,25.170000076293945,25.200000762939453,25.170000076293945,4100.0,25.170000076293945
2019-05-22,25.18000030517578,24.889999389648438,25.18000030517578,25.0,8300.0,25.0
2019-05-23,25.25,25.06999969482422,25.06999969482422,25.25,5500.0,25.25
2019-05-24,25.299999237060547,25.1299991607666,25.25,25.299999237060547,4400.0,25.299999237060547
