Date,High,Low,Open,Close,Volume,Adj Close
2018-01-04,11.449999809265137,11.0,11.25,11.0,11200.0,10.898383140563965
2018-01-05,11.75,11.0,11.0600004196167,11.0,12600.0,10.898383140563965
2018-01-08,11.479999542236328,11.010000228881836,11.170000076293945,11.449999809265137,3700.0,11.344225883483887
2018-01-09,11.449999809265137,11.449999809265137,11.449999809265137,11.449999809265137,0.0,11.344225883483887
2018-01-10,11.600000381469727,11.449999809265137,11.449999809265137,11.449999809265137,1300.0,11.344225883483887
2018-01-11,11.579999923706055,11.0600004196167,11.449999809265137,11.0600004196167,5900.0,10.957829475402832
2018-01-12,11.109999656677246,10.800000190734863,11.109999656677246,10.869999885559082,1500.0,10.769583702087402
2018-01-16,11.199999809265137,11.039999961853027,11.079999923706055,11.109999656677246,7800.0,11.007367134094238
2018-01-17,11.119999885559082,11.069999694824219,11.119999885559082,11.069999694824219,900.0,10.96773624420166
2018-01-18,11.069999694824219,11.069999694824219,11.069999694824219,11.069999694824219,0.0,10.96773624420166
2018-01-19,11.069999694824219,11.069999694824219,11.069999694824219,11.069999694824219,0.0,10.96773624420166
2018-01-22,11.0,10.050000190734863,10.869999885559082,10.420000076293945,90200.0,10.32374095916748
2018-01-23,10.420000076293945,10.420000076293945,10.420000076293945,10.420000076293945,0.0,10.32374095916748
2018-01-24,10.3100004196167,9.680000305175781,10.25,10.0,5800.0,9.907621383666992
2018-01-25,10.0,10.0,10.0,10.0,0.0,9.907621383666992
2018-01-26,10.0,10.0,10.0,10.0,500.0,9.907621383666992
2018-01-29,10.0,10.0,10.0,10.0,0.0,9.907621383666992
2018-01-30,10.0,10.0,10.0,10.0,0.0,9.907621383666992
2018-01-31,10.430000305175781,9.670000076293945,10.0,10.170000076293945,31500.0,10.076050758361816
2018-02-01,9.760000228881836,9.760000228881836,9.760000228881836,9.760000228881836,500.0,9.669838905334473
2018-02-02,9.989999771118164,9.989999771118164,9.989999771118164,9.989999771118164,400.0,9.897713661193848
2018-02-05,10.0,10.0,10.0,10.0,1100.0,9.907621383666992
2018-02-06,9.819999694824219,9.819999694824219,9.819999694824219,9.819999694824219,300.0,9.729283332824707
2018-02-07,9.539999961853027,9.539999961853027,9.539999961853027,9.539999961853027,1400.0,9.451870918273926
2018-02-08,9.399999618530273,9.399999618530273,9.399999618530273,9.399999618530273,500.0,9.313163757324219
2018-02-09,9.489999771118164,9.199999809265137,9.229999542236328,9.199999809265137,1400.0,9.115011215209961
2018-02-12,9.229999542236328,9.229999542236328,9.229999542236328,9.229999542236328,400.0,9.144733428955078
2018-02-13,9.75,9.5,9.5,9.619999885559082,3400.0,9.531131744384766
2018-02-14,9.619999885559082,9.619999885559082,9.619999885559082,9.619999885559082,0.0,9.531131744384766
2018-02-15,9.8100004196167,9.59000015258789,9.59000015258789,9.8100004196167,400.0,9.719376564025879
2018-02-16,9.949999809265137,9.819999694824219,9.819999694824219,9.949999809265137,800.0,9.85808277130127
2018-02-20,9.510000228881836,9.5,9.510000228881836,9.5,600.0,9.412240028381348
2018-02-21,9.680000305175781,9.5,9.5,9.680000305175781,600.0,9.590577125549316
2018-02-22,9.979999542236328,9.529999732971191,9.979999542236328,9.529999732971191,400.0,9.441962242126465
2018-02-23,9.529999732971191,9.529999732971191,9.529999732971191,9.529999732971191,0.0,9.441962242126465
2018-02-26,9.960000038146973,9.550000190734863,9.550000190734863,9.949999809265137,400.0,9.85808277130127
2018-02-27,9.949999809265137,9.949999809265137,9.949999809265137,9.949999809265137,0.0,9.85808277130127
2018-02-28,9.75,9.600000381469727,9.75,9.600000381469727,600.0,9.511316299438477
2018-03-01,9.600000381469727,9.600000381469727,9.600000381469727,9.600000381469727,0.0,9.511316299438477
2018-03-02,9.539999961853027,9.529999732971191,9.529999732971191,9.539999961853027,500.0,9.451870918273926
2018-03-05,10.0,9.800000190734863,10.0,10.0,2400.0,9.907621383666992
2018-03-06,10.0,9.989999771118164,10.0,9.989999771118164,2900.0,9.897713661193848
2018-03-07,10.0,9.970000267028809,9.979999542236328,9.989999771118164,3000.0,9.897713661193848
2018-03-08,10.0,9.949999809265137,10.0,9.949999809265137,2400.0,9.85808277130127
2018-03-09,10.0,10.0,10.0,10.0,2100.0,9.907621383666992
2018-03-12,10.0,9.729999542236328,10.0,9.949999809265137,2500.0,9.85808277130127
2018-03-13,10.0,9.800000190734863,9.800000190734863,10.0,4400.0,9.907621383666992
2018-03-14,10.0,9.479999542236328,10.0,9.5600004196167,11400.0,9.471686363220215
2018-03-15,9.989999771118164,9.539999961853027,9.8100004196167,9.6899995803833,5000.0,9.600484848022461
2018-03-16,9.760000228881836,9.529999732971191,9.6899995803833,9.529999732971191,6900.0,9.441962242126465
2018-03-19,9.819999694824219,9.5,9.65999984741211,9.5,4500.0,9.412240028381348
2018-03-20,9.720000267028809,9.489999771118164,9.720000267028809,9.680000305175781,7300.0,9.590577125549316
2018-03-21,9.729999542236328,9.479999542236328,9.479999542236328,9.729999542236328,400.0,9.640114784240723
2018-03-22,9.989999771118164,9.800000190734863,9.800000190734863,9.819999694824219,4100.0,9.729283332824707
2018-03-23,9.949999809265137,9.9399995803833,9.949999809265137,9.9399995803833,400.0,9.848175048828125
2018-03-26,9.9399995803833,9.9399995803833,9.9399995803833,9.9399995803833,0.0,9.848175048828125
2018-03-27,10.0,10.0,10.0,10.0,1500.0,9.907621383666992
2018-03-28,10.0,10.0,10.0,10.0,1200.0,9.907621383666992
2018-03-29,10.0,9.829999923706055,9.949999809265137,9.84000015258789,4700.0,9.749099731445312
2018-04-02,10.0,9.5,9.770000457763672,9.579999923706055,1800.0,9.491500854492188
2018-04-03,9.949999809265137,9.75,9.75,9.75,800.0,9.659930229187012
2018-04-04,9.949999809265137,9.949999809265137,9.949999809265137,9.949999809265137,200.0,9.85808277130127
2018-04-05,9.989999771118164,9.979999542236328,9.989999771118164,9.979999542236328,1100.0,9.887804985046387
2018-04-06,9.800000190734863,9.699999809265137,9.75,9.800000190734863,3300.0,9.709468841552734
2018-04-09,9.75,9.300000190734863,9.75,9.300000190734863,3500.0,9.21408748626709
2018-04-10,9.5,9.25,9.399999618530273,9.350000381469727,5000.0,9.263626098632812
2018-04-11,9.319999694824219,9.069999694824219,9.25,9.319999694824219,1200.0,9.233902931213379
2018-04-12,9.5,9.5,9.5,9.5,400.0,9.412240028381348
2018-04-13,9.449999809265137,9.4399995803833,9.449999809265137,9.4399995803833,600.0,9.35279369354248
2018-04-16,9.949999809265137,9.949999809265137,9.949999809265137,9.949999809265137,200.0,9.85808277130127
2018-04-17,9.399999618530273,9.399999618530273,9.399999618530273,9.399999618530273,700.0,9.313163757324219
2018-04-18,9.25,9.199999809265137,9.25,9.199999809265137,700.0,9.115011215209961
2018-04-19,9.329999923706055,9.25,9.25,9.300000190734863,1900.0,9.21408748626709
2018-04-20,9.300000190734863,9.300000190734863,9.300000190734863,9.300000190734863,0.0,9.21408748626709
2018-04-23,9.430000305175781,9.430000305175781,9.430000305175781,9.430000305175781,5000.0,9.342886924743652
2018-04-24,9.430000305175781,9.430000305175781,9.430000305175781,9.430000305175781,0.0,9.342886924743652
2018-04-25,9.119999885559082,9.100000381469727,9.100000381469727,9.119999885559082,300.0,9.035750389099121
2018-04-26,9.199999809265137,8.65999984741211,9.199999809265137,9.069999694824219,8700.0,8.986211776733398
2018-04-27,9.039999961853027,9.0,9.039999961853027,9.0,1100.0,8.916858673095703
2018-04-30,9.050000190734863,8.829999923706055,8.829999923706055,8.880000114440918,2700.0,8.797967910766602
2018-05-01,8.899999618530273,8.670000076293945,8.75,8.800000190734863,15100.0,8.718707084655762
2018-05-02,9.489999771118164,8.800000190734863,9.329999923706055,8.899999618530273,6200.0,8.817782402038574
2018-05-03,8.850000381469727,8.720000267028809,8.800000190734863,8.720000267028809,3200.0,8.639446258544922
2018-05-04,8.720000267028809,8.720000267028809,8.720000267028809,8.720000267028809,0.0,8.639446258544922
2018-05-07,8.5600004196167,8.329999923706055,8.460000038146973,8.5600004196167,6500.0,8.480923652648926
2018-05-08,9.029999732971191,8.779999732971191,8.899999618530273,8.869999885559082,8000.0,8.788060188293457
2018-05-09,8.800000190734863,8.800000190734863,8.800000190734863,8.800000190734863,2300.0,8.718707084655762
2018-05-10,9.25,9.239999771118164,9.239999771118164,9.25,500.0,9.164549827575684
2018-05-11,8.529999732971191,8.180000305175781,8.529999732971191,8.180000305175781,1700.0,8.1044340133667
2018-05-14,8.859999656677246,8.1899995803833,8.220000267028809,8.859999656677246,7500.0,8.778152465820312
2018-05-15,9.229999542236328,8.699999809265137,8.75,8.699999809265137,19700.0,8.619629859924316
2018-05-16,9.0,8.850000381469727,9.0,8.850000381469727,400.0,8.768244743347168
2018-05-17,8.789999961853027,8.5,8.789999961853027,8.510000228881836,4800.0,8.43138599395752
2018-05-18,8.59000015258789,8.25,8.34000015258789,8.380000114440918,12400.0,8.302586555480957
2018-05-21,8.5,8.449999809265137,8.449999809265137,8.5,1800.0,8.421478271484375
2018-05-22,8.5,8.5,8.5,8.5,0.0,8.421478271484375
2018-05-23,8.579999923706055,8.300000190734863,8.470000267028809,8.319999694824219,1300.0,8.24314022064209
2018-05-24,8.300000190734863,8.270000457763672,8.300000190734863,8.300000190734863,1400.0,8.223325729370117
2018-05-25,8.600000381469727,8.449999809265137,8.5,8.449999809265137,1800.0,8.371939659118652
2018-05-29,8.869999885559082,8.300000190734863,8.300000190734863,8.550000190734863,8700.0,8.471015930175781
2018-05-30,8.699999809265137,8.5,8.5,8.5,1200.0,8.421478271484375
2018-05-31,8.84000015258789,8.84000015258789,8.84000015258789,8.84000015258789,200.0,8.758337020874023
2018-06-01,8.75,8.630000114440918,8.649999618530273,8.75,2700.0,8.669168472290039
2018-06-04,8.880000114440918,8.520000457763672,8.75,8.800000190734863,3000.0,8.718707084655762
2018-06-05,8.899999618530273,8.859999656677246,8.859999656677246,8.899999618530273,300.0,8.817782402038574
2018-06-06,8.800000190734863,8.529999732971191,8.800000190734863,8.529999732971191,900.0,8.451200485229492
2018-06-07,8.680000305175781,8.510000228881836,8.510000228881836,8.680000305175781,600.0,8.599815368652344
2018-06-08,8.800000190734863,8.649999618530273,8.789999961853027,8.699999809265137,7500.0,8.619629859924316
2018-06-11,9.109999656677246,8.699999809265137,8.699999809265137,9.050000190734863,13700.0,8.966397285461426
2018-06-12,9.149999618530273,8.550000190734863,9.0600004196167,8.550000190734863,27400.0,8.471015930175781
2018-06-13,8.920000076293945,8.649999618530273,8.6899995803833,8.800000190734863,27400.0,8.718707084655762
2018-06-14,8.800000190734863,8.65999984741211,8.720000267028809,8.800000190734863,3200.0,8.718707084655762
2018-06-15,8.770000457763672,8.699999809265137,8.699999809265137,8.770000457763672,300.0,8.688983917236328
2018-06-18,8.800000190734863,8.779999732971191,8.779999732971191,8.800000190734863,400.0,8.718707084655762
2018-06-19,8.800000190734863,8.5600004196167,8.770000457763672,8.5600004196167,800.0,8.480923652648926
2018-06-20,8.5600004196167,8.5600004196167,8.5600004196167,8.5600004196167,0.0,8.480923652648926
2018-06-21,8.770000457763672,8.770000457763672,8.770000457763672,8.770000457763672,100.0,8.688983917236328
2018-06-22,8.520000457763672,8.180000305175781,8.5,8.350000381469727,26400.0,8.27286434173584
2018-06-25,8.670000076293945,8.479999542236328,8.619999885559082,8.479999542236328,13700.0,8.40166187286377
2018-06-26,8.399999618530273,8.050000190734863,8.350000381469727,8.399999618530273,16500.0,8.32240104675293
2018-06-27,8.399999618530273,8.399999618530273,8.399999618530273,8.399999618530273,0.0,8.32240104675293
2018-06-28,8.600000381469727,8.529999732971191,8.529999732971191,8.59000015258789,14000.0,8.51064682006836
2018-06-29,8.5600004196167,8.5600004196167,8.5600004196167,8.5600004196167,100.0,8.480923652648926
2018-07-02,8.449999809265137,8.25,8.4399995803833,8.449999809265137,2500.0,8.371939659118652
2018-07-03,8.470000267028809,8.020000457763672,8.470000267028809,8.300000190734863,2100.0,8.223325729370117
2018-07-05,8.170000076293945,8.039999961853027,8.170000076293945,8.15999984741211,11400.0,8.08461856842041
2018-07-06,8.350000381469727,8.109999656677246,8.109999656677246,8.199999809265137,7500.0,8.124249458312988
2018-07-09,8.40999984741211,8.029999732971191,8.0600004196167,8.350000381469727,17500.0,8.27286434173584
2018-07-10,8.5,8.329999923706055,8.5,8.329999923706055,2700.0,8.253047943115234
2018-07-11,8.449999809265137,8.350000381469727,8.40999984741211,8.420000076293945,1200.0,8.342217445373535
2018-07-12,8.4399995803833,8.130000114440918,8.4399995803833,8.420000076293945,11000.0,8.342217445373535
2018-07-13,8.680000305175781,8.079999923706055,8.4399995803833,8.510000228881836,9000.0,8.43138599395752
2018-07-16,8.699999809265137,8.300000190734863,8.300000190734863,8.649999618530273,1300.0,8.57009220123291
2018-07-17,8.640000343322754,8.489999771118164,8.489999771118164,8.600000381469727,400.0,8.520554542541504
2018-07-18,8.600000381469727,8.210000038146973,8.25,8.59000015258789,3400.0,8.51064682006836
2018-07-19,8.600000381469727,8.239999771118164,8.239999771118164,8.579999923706055,1600.0,8.500739097595215
2018-07-20,8.579999923706055,8.279999732971191,8.550000190734863,8.550000190734863,1300.0,8.471015930175781
2018-07-23,8.579999923706055,8.550000190734863,8.579999923706055,8.5600004196167,700.0,8.480923652648926
2018-07-24,8.550000190734863,8.279999732971191,8.550000190734863,8.539999961853027,3400.0,8.461108207702637
2018-07-25,8.59000015258789,8.350000381469727,8.430000305175781,8.579999923706055,1400.0,8.500739097595215
2018-07-26,8.59000015258789,8.319999694824219,8.529999732971191,8.489999771118164,1800.0,8.41157054901123
2018-07-27,8.710000038146973,8.25,8.25,8.710000038146973,6800.0,8.629537582397461
2018-07-30,8.59000015258789,8.359999656677246,8.359999656677246,8.579999923706055,2100.0,8.500739097595215
2018-07-31,8.5600004196167,8.149999618530273,8.229999542236328,8.229999542236328,7100.0,8.153971672058105
2018-08-01,8.5,8.399999618530273,8.399999618530273,8.489999771118164,1100.0,8.41157054901123
2018-08-02,8.489999771118164,8.09000015258789,8.489999771118164,8.149999618530273,700.0,8.074710845947266
2018-08-03,8.319999694824219,8.15999984741211,8.15999984741211,8.239999771118164,2000.0,8.16387939453125
2018-08-06,8.390000343322754,8.180000305175781,8.390000343322754,8.180000305175781,4200.0,8.1044340133667
2018-08-07,8.34000015258789,8.020000457763672,8.050000190734863,8.020000457763672,1400.0,7.945912837982178
2018-08-08,8.399999618530273,8.100000381469727,8.399999618530273,8.100000381469727,300.0,8.02517318725586
2018-08-09,8.380000114440918,8.100000381469727,8.100000381469727,8.319999694824219,1800.0,8.24314022064209
2018-08-10,9.210000038146973,8.260000228881836,8.300000190734863,9.050000190734863,34100.0,8.966397285461426
2018-08-13,9.09000015258789,9.0,9.050000190734863,9.0,4100.0,8.916858673095703
2018-08-14,8.600000381469727,8.449999809265137,8.449999809265137,8.600000381469727,1400.0,8.520554542541504
2018-08-15,9.09000015258789,8.460000038146973,9.09000015258789,8.460000038146973,4100.0,8.381847381591797
2018-08-16,8.529999732971191,8.529999732971191,8.529999732971191,8.529999732971191,600.0,8.451200485229492
2018-08-17,8.579999923706055,8.579999923706055,8.579999923706055,8.579999923706055,300.0,8.500739097595215
2018-08-20,8.630000114440918,8.630000114440918,8.630000114440918,8.630000114440918,400.0,8.550276756286621
2018-08-21,8.699999809265137,8.699999809265137,8.699999809265137,8.699999809265137,500.0,8.619629859924316
2018-08-22,8.979999542236328,8.979999542236328,8.979999542236328,8.979999542236328,300.0,8.897043228149414
2018-08-23,8.979999542236328,8.979999542236328,8.979999542236328,8.979999542236328,0.0,8.897043228149414
2018-08-24,8.979999542236328,8.600000381469727,8.600000381469727,8.979999542236328,3000.0,8.897043228149414
2018-08-27,8.979999542236328,8.800000190734863,8.979999542236328,8.800000190734863,1400.0,8.718707084655762
2018-08-28,8.770000457763672,8.770000457763672,8.770000457763672,8.770000457763672,200.0,8.688983917236328
2018-08-29,8.770000457763672,8.770000457763672,8.770000457763672,8.770000457763672,0.0,8.688983917236328
2018-08-30,8.9399995803833,8.600000381469727,8.850000381469727,8.600000381469727,800.0,8.520554542541504
2018-08-31,8.699999809265137,8.699999809265137,8.699999809265137,8.699999809265137,1600.0,8.619629859924316
2018-09-04,8.649999618530273,8.649999618530273,8.649999618530273,8.649999618530273,400.0,8.57009220123291
2018-09-05,8.600000381469727,8.600000381469727,8.600000381469727,8.600000381469727,200.0,8.520554542541504
2018-09-06,8.600000381469727,8.600000381469727,8.600000381469727,8.600000381469727,0.0,8.520554542541504
2018-09-07,8.819999694824219,8.300000190734863,8.819999694824219,8.300000190734863,1300.0,8.223325729370117
2018-09-10,8.869999885559082,8.6899995803833,8.6899995803833,8.869999885559082,2000.0,8.788060188293457
2018-09-11,8.960000038146973,8.960000038146973,8.960000038146973,8.960000038146973,400.0,8.877228736877441
2018-09-12,10.210000038146973,8.729999542236328,8.949999809265137,8.729999542236328,29300.0,8.64935302734375
2018-09-13,9.489999771118164,8.899999618530273,8.899999618530273,9.489999771118164,3000.0,9.402332305908203
2018-09-14,9.289999961853027,9.199999809265137,9.289999961853027,9.199999809265137,600.0,9.115011215209961
2018-09-17,9.859999656677246,8.890000343322754,8.890000343322754,9.489999771118164,22500.0,9.402332305908203
2018-09-18,9.380000114440918,8.890000343322754,9.380000114440918,9.1899995803833,2600.0,9.105103492736816
2018-09-19,9.210000038146973,9.0,9.210000038146973,9.0,2000.0,8.916858673095703
2018-09-20,9.489999771118164,8.9399995803833,8.9399995803833,9.0,2200.0,8.916858673095703
2018-09-21,9.0,8.640000343322754,9.0,8.640000343322754,1400.0,8.560185432434082
2018-09-24,9.119999885559082,8.600000381469727,8.6899995803833,8.600000381469727,29100.0,8.520554542541504
2018-09-25,8.670000076293945,8.609999656677246,8.649999618530273,8.609999656677246,1000.0,8.530461311340332
2018-09-26,8.779999732971191,8.609999656677246,8.609999656677246,8.739999771118164,1900.0,8.659260749816895
2018-09-27,9.0,8.779999732971191,8.850000381469727,8.979999542236328,1300.0,8.897043228149414
2018-09-28,9.329999923706055,9.329999923706055,9.329999923706055,9.329999923706055,400.0,9.243810653686523
2018-10-01,9.220000267028809,9.180000305175781,9.180000305175781,9.199999809265137,2500.0,9.115011215209961
2018-10-02,9.220000267028809,8.800000190734863,9.220000267028809,8.800000190734863,1400.0,8.718707084655762
2018-10-03,8.850000381469727,8.800000190734863,8.800000190734863,8.829999923706055,1100.0,8.748429298400879
2018-10-04,8.829999923706055,8.829999923706055,8.829999923706055,8.829999923706055,0.0,8.748429298400879
2018-10-05,8.829999923706055,8.829999923706055,8.829999923706055,8.829999923706055,0.0,8.748429298400879
2018-10-08,9.6899995803833,9.289999961853027,9.399999618530273,9.449999809265137,5500.0,9.362701416015625
2018-10-09,9.449999809265137,9.130000114440918,9.449999809265137,9.140000343322754,1500.0,9.05556583404541
2018-10-10,9.1899995803833,8.220000267028809,9.119999885559082,9.0,4100.0,8.916858673095703
2018-10-11,8.899999618530273,8.65999984741211,8.899999618530273,8.65999984741211,600.0,8.579999923706055
2018-10-12,9.0,8.850000381469727,8.960000038146973,8.850000381469727,1700.0,8.768244743347168
2018-10-15,8.850000381469727,8.489999771118164,8.489999771118164,8.850000381469727,2500.0,8.768244743347168
2018-10-16,9.0,8.800000190734863,9.0,8.800000190734863,1100.0,8.718707084655762
2018-10-17,8.800000190734863,8.800000190734863,8.800000190734863,8.800000190734863,700.0,8.718707084655762
2018-10-18,8.739999771118164,8.050000190734863,8.25,8.739999771118164,400.0,8.659260749816895
2018-10-19,8.5,8.170000076293945,8.170000076293945,8.5,400.0,8.421478271484375
2018-10-22,8.5,8.5,8.5,8.5,0.0,8.421478271484375
2018-10-23,8.699999809265137,8.300000190734863,8.699999809265137,8.300000190734863,1800.0,8.223325729370117
2018-10-24,8.390000343322754,8.390000343322754,8.390000343322754,8.390000343322754,200.0,8.312494277954102
2018-10-25,8.6899995803833,8.350000381469727,8.6899995803833,8.350000381469727,500.0,8.27286434173584
2018-10-26,8.350000381469727,8.350000381469727,8.350000381469727,8.350000381469727,100.0,8.27286434173584
2018-10-29,8.460000038146973,8.239999771118164,8.239999771118164,8.3100004196167,2900.0,8.233233451843262
2018-10-30,8.949999809265137,8.199999809265137,8.199999809265137,8.369999885559082,900.0,8.292678833007812
2018-10-31,8.819999694824219,8.350000381469727,8.819999694824219,8.350000381469727,700.0,8.27286434173584
2018-11-01,8.420000076293945,8.319999694824219,8.319999694824219,8.420000076293945,600.0,8.342217445373535
2018-11-02,8.970000267028809,8.970000267028809,8.970000267028809,8.970000267028809,1000.0,8.887136459350586
2018-11-05,8.5,8.369999885559082,8.5,8.369999885559082,1300.0,8.292678833007812
2018-11-06,8.350000381469727,8.260000228881836,8.260000228881836,8.300000190734863,800.0,8.223325729370117
2018-11-07,9.0,8.300000190734863,8.300000190734863,9.0,1300.0,8.916858673095703
2018-11-08,9.0,9.0,9.0,9.0,100.0,8.916858673095703
2018-11-09,8.079999923706055,8.079999923706055,8.079999923706055,8.079999923706055,700.0,8.00535774230957
2018-11-12,9.0,8.510000228881836,8.510000228881836,8.510000228881836,2300.0,8.43138599395752
2018-11-13,8.3100004196167,8.260000228881836,8.279999732971191,8.260000228881836,2700.0,8.183694839477539
2018-11-14,8.319999694824219,8.149999618530273,8.149999618530273,8.149999618530273,5900.0,8.074710845947266
2018-11-15,8.239999771118164,8.100000381469727,8.119999885559082,8.100000381469727,3100.0,8.02517318725586
2018-11-16,8.289999961853027,8.0,8.069999694824219,8.289999961853027,3500.0,8.213418006896973
2018-11-19,8.270000457763672,7.849999904632568,8.270000457763672,7.849999904632568,1900.0,7.777482509613037
2018-11-20,8.109999656677246,8.0,8.100000381469727,8.0,4300.0,7.9260969161987305
2018-11-21,8.0,8.0,8.0,8.0,100.0,7.9260969161987305
2018-11-23,8.0,8.0,8.0,8.0,100.0,7.9260969161987305
2018-11-26,8.220000267028809,8.050000190734863,8.100000381469727,8.069999694824219,2300.0,7.995450019836426
2018-11-27,8.050000190734863,7.690000057220459,8.050000190734863,7.690000057220459,25400.0,7.618960857391357
2018-11-28,13.4399995803833,13.0,13.3100004196167,13.130000114440918,157000.0,13.008707046508789
2018-11-29,13.319999694824219,12.949999809265137,13.0,12.979999542236328,74100.0,12.860092163085938
2018-11-30,13.0,12.899999618530273,13.0,12.949999809265137,57300.0,12.830368995666504
2018-12-03,13.0,12.949999809265137,13.0,13.0,29400.0,12.879907608032227
2018-12-04,13.0,12.979999542236328,13.0,13.0,52400.0,12.879907608032227
2018-12-06,13.079999923706055,12.979999542236328,12.979999542236328,12.989999771118164,5000.0,12.869999885559082
2018-12-07,13.0,12.949999809265137,12.949999809265137,13.0,6200.0,13.0
2018-12-10,12.949999809265137,12.829999923706055,12.829999923706055,12.920000076293945,4100.0,12.920000076293945
2018-12-11,13.0,12.920000076293945,13.0,12.949999809265137,1600.0,12.949999809265137
2018-12-12,13.0,12.920000076293945,12.960000038146973,12.920000076293945,12500.0,12.920000076293945
2018-12-13,13.0,12.920000076293945,12.920000076293945,13.0,40400.0,13.0
2018-12-14,12.920000076293945,12.920000076293945,12.920000076293945,12.920000076293945,700.0,12.920000076293945
2018-12-17,13.0,12.9399995803833,12.9399995803833,13.0,16200.0,13.0
2018-12-18,13.039999961853027,12.960000038146973,13.0,13.039999961853027,30900.0,13.039999961853027
2018-12-19,13.0,12.949999809265137,13.0,13.0,19500.0,13.0
2018-12-20,13.0,12.970000267028809,12.989999771118164,13.0,14000.0,13.0
2018-12-21,13.0,12.949999809265137,13.0,13.0,1400.0,13.0
2018-12-24,13.0,12.960000038146973,12.979999542236328,13.0,600.0,13.0
2018-12-26,13.0,12.859999656677246,12.949999809265137,12.960000038146973,13000.0,12.960000038146973
2018-12-27,13.0,12.90999984741211,12.90999984741211,12.9399995803833,1400.0,12.9399995803833
2018-12-28,13.0,12.9399995803833,13.0,13.0,2800.0,13.0
2018-12-31,13.0,12.970000267028809,13.0,13.0,22200.0,13.0
2019-01-02,12.979999542236328,12.979999542236328,12.979999542236328,12.979999542236328,1300.0,12.979999542236328
2019-01-03,13.0,12.960000038146973,13.0,13.0,1000.0,13.0
2019-01-04,13.020000457763672,12.899999618530273,13.020000457763672,12.899999618530273,9200.0,12.899999618530273
2019-01-07,12.979999542236328,12.930000305175781,12.979999542236328,12.949999809265137,3900.0,12.949999809265137
2019-01-08,13.010000228881836,12.949999809265137,12.970000267028809,12.949999809265137,19900.0,12.949999809265137
2019-01-09,13.010000228881836,12.9399995803833,13.010000228881836,12.960000038146973,16300.0,12.960000038146973
2019-01-10,13.0,12.949999809265137,13.0,13.0,700.0,13.0
2019-01-11,13.010000228881836,12.899999618530273,12.979999542236328,13.0,4600.0,13.0
2019-01-14,13.050000190734863,12.949999809265137,13.050000190734863,12.960000038146973,2300.0,12.960000038146973
2019-01-15,13.039999961853027,12.970000267028809,13.0,13.0,1000.0,13.0
2019-01-16,13.050000190734863,13.0,13.050000190734863,13.0,600.0,13.0
2019-01-17,13.0,12.949999809265137,13.0,12.949999809265137,500.0,12.949999809265137
2019-01-18,13.09000015258789,12.949999809265137,13.09000015258789,12.949999809265137,700.0,12.949999809265137
2019-01-22,12.979999542236328,12.930000305175781,12.9399995803833,12.930000305175781,1300.0,12.930000305175781
2019-01-23,12.989999771118164,12.989999771118164,12.989999771118164,12.989999771118164,900.0,12.989999771118164
2019-01-24,13.050000190734863,13.0,13.050000190734863,13.0,2500.0,13.0
2019-01-25,13.0,13.0,13.0,13.0,400.0,13.0
2019-01-28,13.029999732971191,12.90999984741211,12.90999984741211,13.029999732971191,1300.0,13.029999732971191
2019-01-29,13.0,12.979999542236328,13.0,12.979999542236328,2900.0,12.979999542236328
2019-01-30,13.0,13.0,13.0,13.0,1100.0,13.0
2019-01-31,12.970000267028809,12.960000038146973,12.960000038146973,12.970000267028809,200.0,12.970000267028809
2019-02-01,13.050000190734863,12.899999618530273,12.949999809265137,13.050000190734863,11800.0,13.050000190734863
2019-02-04,13.050000190734863,12.960000038146973,13.0,13.050000190734863,1800.0,13.050000190734863
2019-02-05,13.0,12.960000038146973,13.0,12.960000038146973,800.0,12.960000038146973
2019-02-06,12.989999771118164,12.960000038146973,12.960000038146973,12.960000038146973,3500.0,12.960000038146973
2019-02-07,12.90999984741211,12.90999984741211,12.90999984741211,12.90999984741211,200.0,12.90999984741211
2019-02-08,13.050000190734863,12.960000038146973,13.050000190734863,12.960000038146973,6300.0,12.960000038146973
2019-02-11,13.0,12.920000076293945,12.920000076293945,13.0,4300.0,13.0
2019-02-12,13.0,12.90999984741211,13.0,12.90999984741211,12400.0,12.90999984741211
2019-02-13,13.0,12.949999809265137,12.949999809265137,13.0,500.0,13.0
2019-02-14,13.0,12.9399995803833,12.949999809265137,12.9399995803833,16800.0,12.9399995803833
2019-02-15,13.0,12.9399995803833,12.949999809265137,12.9399995803833,3600.0,12.9399995803833
2019-02-19,13.010000228881836,12.9399995803833,12.9399995803833,13.0,2600.0,13.0
2019-02-20,13.020000457763672,12.899999618530273,12.949999809265137,12.949999809265137,25100.0,12.949999809265137
2019-02-21,13.239999771118164,12.9399995803833,12.960000038146973,13.239999771118164,22500.0,13.239999771118164
2019-02-22,13.119999885559082,13.020000457763672,13.119999885559082,13.020000457763672,1000.0,13.020000457763672
2019-02-25,13.09000015258789,12.899999618530273,13.0600004196167,12.960000038146973,30700.0,12.960000038146973
2019-02-26,13.0,12.960000038146973,12.960000038146973,12.960000038146973,2600.0,12.960000038146973
2019-02-27,13.0,12.829999923706055,12.960000038146973,13.0,62200.0,13.0
2019-02-28,13.199999809265137,13.020000457763672,13.199999809265137,13.100000381469727,2000.0,13.100000381469727
2019-03-01,13.170000076293945,13.079999923706055,13.170000076293945,13.100000381469727,13500.0,13.100000381469727
2019-03-04,13.210000038146973,13.130000114440918,13.210000038146973,13.199999809265137,6300.0,13.199999809265137
2019-03-05,13.100000381469727,13.010000228881836,13.010000228881836,13.100000381469727,1200.0,13.100000381469727
2019-03-06,13.0,13.0,13.0,13.0,1200.0,13.0
2019-03-07,13.239999771118164,13.020000457763672,13.220000267028809,13.020000457763672,900.0,13.020000457763672
2019-03-08,13.25,13.180000305175781,13.229999542236328,13.25,8800.0,13.25
2019-03-11,13.270000457763672,13.15999984741211,13.15999984741211,13.25,22900.0,13.25
2019-03-12,13.300000190734863,13.199999809265137,13.220000267028809,13.25,7100.0,13.25
2019-03-13,13.300000190734863,13.229999542236328,13.229999542236328,13.300000190734863,5800.0,13.300000190734863
2019-03-14,13.449999809265137,13.34000015258789,13.34000015258789,13.449999809265137,1900.0,13.449999809265137
2019-03-15,13.399999618530273,13.270000457763672,13.399999618530273,13.270000457763672,6600.0,13.270000457763672
2019-03-18,13.399999618530273,13.270000457763672,13.289999961853027,13.380000114440918,12200.0,13.380000114440918
2019-03-19,13.399999618530273,13.130000114440918,13.380000114440918,13.399999618530273,2800.0,13.399999618530273
2019-03-20,13.390000343322754,13.390000343322754,13.390000343322754,13.390000343322754,200.0,13.390000343322754
2019-03-21,13.399999618530273,13.300000190734863,13.399999618530273,13.300000190734863,2400.0,13.300000190734863
2019-03-22,13.210000038146973,12.989999771118164,13.130000114440918,13.210000038146973,42400.0,13.210000038146973
2019-03-25,13.210000038146973,13.210000038146973,13.210000038146973,13.210000038146973,200.0,13.210000038146973
2019-03-26,13.25,13.149999618530273,13.180000305175781,13.25,1800.0,13.25
2019-03-27,13.15999984741211,13.15999984741211,13.15999984741211,13.15999984741211,300.0,13.15999984741211
2019-03-28,13.180000305175781,13.020000457763672,13.020000457763672,13.0600004196167,13000.0,13.0600004196167
2019-03-29,13.199999809265137,13.020000457763672,13.020000457763672,13.020000457763672,16700.0,13.020000457763672
2019-04-01,13.229999542236328,12.170000076293945,13.149999618530273,13.0600004196167,13600.0,13.0600004196167
2019-04-02,13.050000190734863,12.930000305175781,13.0,12.989999771118164,19400.0,12.989999771118164
2019-04-03,13.050000190734863,12.989999771118164,13.0,13.050000190734863,13500.0,13.050000190734863
2019-04-04,13.220000267028809,12.989999771118164,13.029999732971191,13.220000267028809,23400.0,13.220000267028809
2019-04-05,13.1899995803833,13.180000305175781,13.180000305175781,13.1899995803833,400.0,13.1899995803833
2019-04-08,13.1899995803833,13.149999618530273,13.149999618530273,13.180000305175781,400.0,13.180000305175781
2019-04-09,13.220000267028809,13.220000267028809,13.220000267028809,13.220000267028809,100.0,13.220000267028809
2019-04-10,13.0,13.0,13.0,13.0,200.0,13.0
2019-04-11,13.0,13.0,13.0,13.0,100.0,13.0
2019-04-12,13.039999961853027,13.039999961853027,13.039999961853027,13.039999961853027,100.0,13.039999961853027
2019-04-15,13.039999961853027,13.039999961853027,13.039999961853027,13.039999961853027,100.0,13.039999961853027
2019-04-16,13.039999961853027,13.039999961853027,13.039999961853027,13.039999961853027,100.0,13.039999961853027
2019-04-17,13.210000038146973,13.0,13.149999618530273,13.0,1900.0,13.0
2019-04-18,13.0,13.0,13.0,13.0,100.0,13.0
2019-04-22,13.729999542236328,13.649999618530273,13.649999618530273,13.720000267028809,53100.0,13.720000267028809
2019-04-23,13.720000267028809,13.710000038146973,13.710000038146973,13.710000038146973,47400.0,13.710000038146973
2019-04-24,13.729999542236328,13.710000038146973,13.710000038146973,13.720000267028809,119400.0,13.720000267028809
2019-04-25,13.739999771118164,13.720000267028809,13.720000267028809,13.729999542236328,34700.0,13.729999542236328
2019-04-26,13.729999542236328,13.720000267028809,13.720000267028809,13.729999542236328,76100.0,13.729999542236328
2019-04-29,13.75,13.739999771118164,13.739999771118164,13.75,18700.0,13.75
2019-04-30,13.75,13.739999771118164,13.75,13.739999771118164,1100.0,13.739999771118164
2019-05-01,13.75,13.739999771118164,13.75,13.75,7100.0,13.75
2019-05-03,13.75,13.75,13.75,13.75,0.0,13.75
