Date,High,Low,Open,Close,Volume,Adj Close
2015-02-17,850.0,850.0,850.0,850.0,0.0,771.80322265625
2015-02-18,850.0,850.0,850.0,850.0,0.0,771.80322265625
2015-02-19,850.0,850.0,850.0,850.0,0.0,771.80322265625
2015-02-20,850.0,850.0,850.0,850.0,0.0,771.80322265625
2017-07-10,927.5,927.5,927.5,927.5,0.0,842.1734619140625
2017-07-11,906.0,906.0,906.0,927.5,267.0,842.1734619140625
2017-11-02,4.139999866485596,4.039999961853027,4.139999866485596,4.070000171661377,85200.0,3.69557523727417
2017-11-03,4.070000171661377,4.039999961853027,4.039999961853027,4.039999961853027,106900.0,3.668334722518921
2017-11-06,4.090000152587891,4.019999980926514,4.039999961853027,4.059999942779541,92100.0,3.686494827270508
2018-01-12,3.390000104904175,3.309999942779541,3.3499999046325684,3.319999933242798,214700.0,3.014572858810425
2018-01-16,3.319999933242798,3.0799999237060547,3.299999952316284,3.0799999237060547,481800.0,2.7966511249542236
2018-01-17,3.119999885559082,3.0199999809265137,3.049999952316284,3.0399999618530273,312000.0,2.760331392288208
2018-01-18,3.950000047683716,3.200000047683716,3.5,3.859999895095825,3267800.0,3.5048940181732178
2018-01-19,3.9800000190734863,3.609999895095825,3.9800000190734863,3.609999895095825,676000.0,3.277893304824829
2018-01-22,3.680000066757202,3.549999952316284,3.5999999046325684,3.630000114440918,265200.0,3.296053886413574
2018-01-23,3.7799999713897705,3.630000114440918,3.6600000858306885,3.75,173300.0,3.4050135612487793
2018-01-24,3.75,3.640000104904175,3.7300000190734863,3.640000104904175,156500.0,3.305133581161499
2018-01-25,3.640000104904175,3.5199999809265137,3.630000114440918,3.5399999618530273,182700.0,3.2143332958221436
2018-01-26,3.559999942779541,3.4800000190734863,3.5399999618530273,3.5,165800.0,3.1780128479003906
2018-01-29,3.4700000286102295,3.369999885559082,3.4600000381469727,3.380000114440918,149100.0,3.0690526962280273
2018-01-30,3.4000000953674316,3.3299999237060547,3.380000114440918,3.369999885559082,136900.0,3.059972047805786
2018-01-31,3.359999895095825,3.240000009536743,3.359999895095825,3.2699999809265137,210700.0,2.969172239303589
2018-02-01,3.3399999141693115,3.2200000286102295,3.2699999809265137,3.240000009536743,150200.0,2.941932201385498
2018-02-02,3.299999952316284,3.1500000953674316,3.2200000286102295,3.180000066757202,302300.0,2.8874521255493164
2018-02-05,3.2200000286102295,3.0999999046325684,3.180000066757202,3.180000066757202,290200.0,2.8874521255493164
2018-02-06,3.2899999618530273,3.130000114440918,3.1500000953674316,3.240000009536743,206200.0,2.941932201385498
2018-02-07,3.299999952316284,3.2100000381469727,3.2200000286102295,3.2300000190734863,103600.0,2.932852029800415
2018-02-08,3.25,3.1700000762939453,3.25,3.190000057220459,88200.0,2.896531820297241
2018-02-09,3.240000009536743,3.130000114440918,3.190000057220459,3.200000047683716,197400.0,2.905611991882324
2018-02-12,3.2799999713897705,3.119999885559082,3.190000057220459,3.2300000190734863,190700.0,2.932852029800415
2018-02-13,3.319999933242798,3.2300000190734863,3.2300000190734863,3.319999933242798,136200.0,3.014572858810425
2018-02-14,3.299999952316284,3.190000057220459,3.2699999809265137,3.25,122700.0,2.9809112548828125
2018-02-15,3.259999990463257,3.200000047683716,3.240000009536743,3.2200000286102295,165900.0,2.953394889831543
2018-02-16,3.3299999237060547,3.2100000381469727,3.2100000381469727,3.309999942779541,95000.0,3.0359432697296143
2018-02-20,3.4200000762939453,3.2899999618530273,3.3299999237060547,3.309999942779541,214500.0,3.0359432697296143
2018-02-21,3.369999885559082,3.2200000286102295,3.3499999046325684,3.240000009536743,137400.0,2.9717392921447754
2018-02-22,3.299999952316284,3.2300000190734863,3.2300000190734863,3.259999990463257,33000.0,2.9900829792022705
2018-02-23,3.369999885559082,3.2699999809265137,3.2699999809265137,3.359999895095825,73600.0,3.081803321838379
2018-02-26,3.359999895095825,3.299999952316284,3.3499999046325684,3.3499999046325684,57600.0,3.072631359100342
2018-02-27,3.359999895095825,3.259999990463257,3.319999933242798,3.259999990463257,79000.0,2.9900829792022705
2018-02-28,3.2899999618530273,3.200000047683716,3.2799999713897705,3.2300000190734863,179400.0,2.962567090988159
2018-03-01,3.25,3.1700000762939453,3.2200000286102295,3.240000009536743,78200.0,2.9717392921447754
2018-03-02,3.3399999141693115,3.190000057220459,3.240000009536743,3.3399999141693115,54800.0,3.0634593963623047
2018-03-05,3.359999895095825,3.3299999237060547,3.3399999141693115,3.3499999046325684,33800.0,3.072631359100342
2018-03-06,3.359999895095825,3.2699999809265137,3.3499999046325684,3.319999933242798,59000.0,3.0451157093048096
2018-03-07,3.3499999046325684,3.2799999713897705,3.319999933242798,3.3299999237060547,47200.0,3.0542871952056885
2018-03-08,3.3499999046325684,3.319999933242798,3.319999933242798,3.3499999046325684,59300.0,3.072631359100342
2018-03-09,3.359999895095825,3.3299999237060547,3.359999895095825,3.359999895095825,46800.0,3.081803321838379
2018-03-12,3.450000047683716,3.3499999046325684,3.3499999046325684,3.4100000858306885,128000.0,3.1276636123657227
2018-03-13,3.5899999141693115,3.430000066757202,3.430000066757202,3.5799999237060547,239200.0,3.283588171005249
2018-03-14,3.5799999237060547,3.440000057220459,3.5799999237060547,3.4800000190734863,79300.0,3.221836566925049
2018-03-15,3.450000047683716,3.3399999141693115,3.450000047683716,3.369999885559082,66500.0,3.1199963092803955
2018-03-16,3.450000047683716,3.3299999237060547,3.4000000953674316,3.450000047683716,138900.0,3.1940619945526123
2018-03-19,3.259999990463257,3.0999999046325684,3.240000009536743,3.2100000381469727,683000.0,2.9718663692474365
2018-03-20,3.2300000190734863,3.140000104904175,3.190000057220459,3.180000066757202,224500.0,2.944091796875
2018-03-21,3.190000057220459,3.0999999046325684,3.1500000953674316,3.130000114440918,132600.0,2.897801160812378
2018-03-22,3.190000057220459,3.0899999141693115,3.0999999046325684,3.0899999141693115,82800.0,2.8607683181762695
2018-03-23,3.0899999141693115,3.0199999809265137,3.0899999141693115,3.0299999713897705,173600.0,2.8052196502685547
2018-03-26,3.0299999713897705,2.869999885559082,3.0299999713897705,2.9200000762939453,432400.0,2.7033798694610596
2018-03-27,3.0,2.869999885559082,2.9100000858306885,2.9100000858306885,229900.0,2.694121837615967
2018-03-28,2.9700000286102295,2.819999933242798,2.8499999046325684,2.930000066757202,107700.0,2.7126383781433105
2018-03-29,2.940000057220459,2.9000000953674316,2.940000057220459,2.9100000858306885,124100.0,2.694121837615967
2018-04-02,2.9100000858306885,2.7699999809265137,2.880000114440918,2.7699999809265137,142600.0,2.5645077228546143
2018-04-03,2.9100000858306885,2.759999990463257,2.759999990463257,2.890000104904175,87800.0,2.675605535507202
2018-04-04,2.869999885559082,2.549999952316284,2.859999895095825,2.819999933242798,464100.0,2.6107985973358154
2018-04-05,2.9000000953674316,2.7899999618530273,2.7899999618530273,2.890000104904175,70400.0,2.675605535507202
2018-04-06,2.950000047683716,2.890000104904175,2.890000104904175,2.940000057220459,71200.0,2.7218964099884033
2018-04-09,2.950000047683716,2.9000000953674316,2.950000047683716,2.9000000953674316,93300.0,2.684863805770874
2018-04-10,2.950000047683716,2.9000000953674316,2.9100000858306885,2.930000066757202,58100.0,2.7126383781433105
2018-04-11,2.950000047683716,2.880000114440918,2.930000066757202,2.930000066757202,77200.0,2.7126383781433105
2018-04-12,2.9200000762939453,2.8499999046325684,2.9100000858306885,2.8499999046325684,84900.0,2.6385726928710938
2018-04-13,2.869999885559082,2.809999942779541,2.8499999046325684,2.8299999237060547,68500.0,2.6385726928710938
2018-04-16,2.8499999046325684,2.799999952316284,2.8399999141693115,2.819999933242798,84900.0,2.629249095916748
2018-04-17,2.8499999046325684,2.809999942779541,2.819999933242798,2.8299999237060547,212400.0,2.6385726928710938
2018-04-18,2.8499999046325684,2.819999933242798,2.8299999237060547,2.8299999237060547,72300.0,2.6385726928710938
2018-04-19,2.880000114440918,2.809999942779541,2.809999942779541,2.869999885559082,57000.0,2.6758670806884766
2018-04-20,2.9100000858306885,2.8499999046325684,2.9000000953674316,2.859999895095825,73700.0,2.666543483734131
2018-04-23,2.880000114440918,2.799999952316284,2.869999885559082,2.8299999237060547,80600.0,2.6385726928710938
2018-04-24,2.8499999046325684,2.809999942779541,2.8299999237060547,2.819999933242798,67000.0,2.629249095916748
2018-04-25,2.8399999141693115,2.7699999809265137,2.809999942779541,2.799999952316284,56800.0,2.6106021404266357
2018-04-26,2.8399999141693115,2.799999952316284,2.799999952316284,2.819999933242798,66400.0,2.629249095916748
2018-04-27,2.8399999141693115,2.799999952316284,2.8399999141693115,2.819999933242798,32000.0,2.629249095916748
2018-04-30,2.8399999141693115,2.799999952316284,2.819999933242798,2.8299999237060547,72000.0,2.6385726928710938
2018-05-01,2.8299999237060547,2.799999952316284,2.809999942779541,2.8299999237060547,28500.0,2.6385726928710938
2018-05-02,2.8499999046325684,2.7799999713897705,2.8399999141693115,2.7899999618530273,153500.0,2.60127854347229
2018-05-03,2.8299999237060547,2.799999952316284,2.809999942779541,2.819999933242798,120800.0,2.629249095916748
2018-05-04,2.9000000953674316,2.809999942779541,2.809999942779541,2.890000104904175,84700.0,2.694514274597168
2018-05-07,2.930000066757202,2.859999895095825,2.859999895095825,2.9000000953674316,64000.0,2.7038381099700928
2018-05-08,2.940000057220459,2.8499999046325684,2.9200000762939453,2.8499999046325684,67800.0,2.657219886779785
2018-05-09,2.9000000953674316,2.8499999046325684,2.890000104904175,2.859999895095825,137700.0,2.666543483734131
2018-05-10,2.9000000953674316,2.869999885559082,2.880000114440918,2.890000104904175,58200.0,2.694514274597168
2018-05-11,3.059999942779541,2.890000104904175,2.9000000953674316,3.0399999618530273,191300.0,2.8343679904937744
2018-05-14,3.130000114440918,3.0,3.0199999809265137,3.0799999237060547,116100.0,2.8906798362731934
2018-05-15,3.1600000858306885,3.0899999141693115,3.0899999141693115,3.130000114440918,105100.0,2.9376068115234375
2018-05-16,3.1500000953674316,3.069999933242798,3.130000114440918,3.0999999046325684,79000.0,2.9094505310058594
2018-05-17,3.2300000190734863,3.069999933242798,3.069999933242798,3.200000047683716,133900.0,3.0033037662506104
2018-05-18,3.259999990463257,3.200000047683716,3.200000047683716,3.25,88300.0,3.0502302646636963
2018-05-21,3.319999933242798,3.2300000190734863,3.25,3.299999952316284,151800.0,3.0971567630767822
2018-05-22,3.3499999046325684,3.2799999713897705,3.2799999713897705,3.3399999141693115,73600.0,3.1346983909606934
2018-05-23,3.4000000953674316,3.3299999237060547,3.3499999046325684,3.4000000953674316,162000.0,3.1910104751586914
2018-05-24,3.430000066757202,3.359999895095825,3.4000000953674316,3.4000000953674316,109900.0,3.1910104751586914
2018-05-25,3.450000047683716,3.4000000953674316,3.430000066757202,3.440000057220459,109100.0,3.2285516262054443
2018-05-29,3.559999942779541,3.25,3.25,3.4800000190734863,121000.0,3.2660930156707764
2018-05-30,3.509999990463257,3.2899999618530273,3.509999990463257,3.3399999141693115,185800.0,3.1346983909606934
2018-05-31,3.380000114440918,3.240000009536743,3.319999933242798,3.2799999713897705,120500.0,3.0783863067626953
2018-06-01,3.3499999046325684,3.2699999809265137,3.2799999713897705,3.3499999046325684,93100.0,3.1440834999084473
2018-06-04,3.390000104904175,3.3399999141693115,3.369999885559082,3.359999895095825,131100.0,3.1534690856933594
2018-06-05,3.5399999618530273,3.359999895095825,3.450000047683716,3.4800000190734863,182300.0,3.2660930156707764
2018-06-06,3.549999952316284,3.380000114440918,3.549999952316284,3.390000104904175,111600.0,3.1816251277923584
2018-06-07,3.490000009536743,3.4100000858306885,3.490000009536743,3.4200000762939453,63200.0,3.2097811698913574
2018-06-08,3.4800000190734863,3.369999885559082,3.4800000190734863,3.430000066757202,42600.0,3.2191662788391113
2018-06-11,3.450000047683716,3.4000000953674316,3.440000057220459,3.440000057220459,63500.0,3.2285516262054443
2018-06-12,3.490000009536743,3.4200000762939453,3.490000009536743,3.450000047683716,68200.0,3.2379369735717773
2018-06-13,3.4800000190734863,3.380000114440918,3.430000066757202,3.390000104904175,56400.0,3.1816251277923584
2018-06-14,3.4000000953674316,3.2300000190734863,3.390000104904175,3.3299999237060547,110600.0,3.1438608169555664
2018-06-15,3.390000104904175,3.299999952316284,3.299999952316284,3.380000114440918,74200.0,3.191066026687622
2018-06-18,3.4200000762939453,3.2100000381469727,3.3499999046325684,3.4100000858306885,92600.0,3.2193892002105713
2018-06-19,3.4200000762939453,3.369999885559082,3.390000104904175,3.4000000953674316,68000.0,3.2099483013153076
2018-06-20,3.430000066757202,3.380000114440918,3.4000000953674316,3.4000000953674316,142500.0,3.2099483013153076
2018-06-21,3.430000066757202,3.3499999046325684,3.4000000953674316,3.4100000858306885,281900.0,3.2193892002105713
2018-06-22,3.430000066757202,3.4000000953674316,3.4100000858306885,3.4200000762939453,42300.0,3.228830337524414
2018-06-25,3.4200000762939453,3.4000000953674316,3.4100000858306885,3.4000000953674316,68500.0,3.2099483013153076
2018-06-26,3.450000047683716,3.4000000953674316,3.4000000953674316,3.450000047683716,99300.0,3.257153272628784
2018-06-27,3.450000047683716,3.4000000953674316,3.440000057220459,3.4100000858306885,34700.0,3.2193892002105713
2018-06-28,3.4200000762939453,3.4000000953674316,3.4100000858306885,3.4100000858306885,31100.0,3.2193892002105713
2018-06-29,3.4200000762939453,3.4000000953674316,3.4200000762939453,3.4100000858306885,21600.0,3.2193892002105713
2018-07-02,3.4100000858306885,3.390000104904175,3.4100000858306885,3.4000000953674316,88100.0,3.2099483013153076
2018-07-03,3.4800000190734863,3.4000000953674316,3.4000000953674316,3.4700000286102295,83000.0,3.2760353088378906
2018-07-05,3.5,3.4600000381469727,3.4700000286102295,3.4700000286102295,64100.0,3.2760353088378906
2018-07-06,3.5,3.440000057220459,3.4600000381469727,3.4600000381469727,26800.0,3.266594171524048
2018-07-09,3.450000047683716,3.4000000953674316,3.440000057220459,3.4000000953674316,64900.0,3.2099483013153076
2018-07-10,3.440000057220459,3.4000000953674316,3.4000000953674316,3.4000000953674316,20300.0,3.2099483013153076
2018-07-11,3.430000066757202,3.4000000953674316,3.4000000953674316,3.4200000762939453,71300.0,3.228830337524414
2018-07-12,3.4100000858306885,3.4000000953674316,3.4100000858306885,3.4000000953674316,36000.0,3.2099483013153076
2018-07-13,3.4100000858306885,3.4000000953674316,3.4000000953674316,3.4000000953674316,20500.0,3.2099483013153076
2018-07-16,3.4100000858306885,3.4000000953674316,3.4000000953674316,3.4100000858306885,60000.0,3.2193892002105713
2018-07-17,3.4100000858306885,3.4000000953674316,3.4000000953674316,3.4000000953674316,19200.0,3.2099483013153076
2018-07-18,3.4100000858306885,3.4000000953674316,3.4000000953674316,3.4000000953674316,43500.0,3.2099483013153076
2018-07-19,3.440000057220459,3.4000000953674316,3.4000000953674316,3.430000066757202,72300.0,3.2382712364196777
2018-07-20,3.430000066757202,3.4000000953674316,3.4100000858306885,3.4000000953674316,30600.0,3.2099483013153076
2018-07-23,3.4100000858306885,3.4000000953674316,3.4000000953674316,3.4000000953674316,20200.0,3.2099483013153076
2018-07-24,3.4100000858306885,3.4000000953674316,3.4000000953674316,3.4000000953674316,49300.0,3.2099483013153076
2018-07-25,3.4100000858306885,3.380000114440918,3.4000000953674316,3.4000000953674316,73000.0,3.2099483013153076
2018-07-26,3.390000104904175,3.3499999046325684,3.380000114440918,3.380000114440918,53400.0,3.191066026687622
2018-07-27,3.369999885559082,3.299999952316284,3.3499999046325684,3.3499999046325684,55900.0,3.162742853164673
2018-07-30,3.359999895095825,3.309999942779541,3.309999942779541,3.3499999046325684,48900.0,3.162742853164673
2018-07-31,3.359999895095825,3.3399999141693115,3.3399999141693115,3.3499999046325684,42400.0,3.162742853164673
2018-08-01,3.359999895095825,3.3299999237060547,3.3499999046325684,3.3499999046325684,98000.0,3.162742853164673
2018-08-02,3.359999895095825,3.3499999046325684,3.3499999046325684,3.3499999046325684,25200.0,3.162742853164673
2018-08-03,3.359999895095825,3.3499999046325684,3.3499999046325684,3.359999895095825,108000.0,3.1721839904785156
2018-08-06,3.3499999046325684,3.299999952316284,3.3499999046325684,3.299999952316284,130400.0,3.115537643432617
2018-08-07,3.309999942779541,3.25,3.309999942779541,3.259999990463257,169300.0,3.0777738094329834
2018-08-08,3.2699999809265137,3.25,3.25,3.259999990463257,82100.0,3.0777738094329834
2018-08-09,3.25,3.190000057220459,3.25,3.190000057220459,74900.0,3.0116868019104004
2018-08-10,3.490000009536743,3.1700000762939453,3.200000047683716,3.4700000286102295,336900.0,3.2760353088378906
2018-08-13,3.549999952316284,3.450000047683716,3.450000047683716,3.5399999618530273,300600.0,3.3421225547790527
2018-08-14,3.640000104904175,3.4800000190734863,3.509999990463257,3.640000104904175,143300.0,3.436532735824585
2018-08-15,3.630000114440918,3.5399999618530273,3.619999885559082,3.5399999618530273,122000.0,3.3421225547790527
2018-08-16,3.6700000762939453,3.509999990463257,3.549999952316284,3.630000114440918,113000.0,3.4270918369293213
2018-08-17,3.690000057220459,3.609999895095825,3.6500000953674316,3.6600000858306885,55100.0,3.4554147720336914
2018-08-20,3.690000057220459,3.5899999141693115,3.6600000858306885,3.6500000953674316,96200.0,3.4459738731384277
2018-08-21,3.690000057220459,3.6500000953674316,3.6600000858306885,3.6600000858306885,52500.0,3.4554147720336914
2018-08-22,3.6700000762939453,3.640000104904175,3.6700000762939453,3.6500000953674316,36700.0,3.4459738731384277
2018-08-23,3.6700000762939453,3.630000114440918,3.6500000953674316,3.6500000953674316,30000.0,3.4459738731384277
2018-08-24,3.6600000858306885,3.5999999046325684,3.6600000858306885,3.609999895095825,13900.0,3.4082095623016357
2018-08-27,3.5999999046325684,3.549999952316284,3.5999999046325684,3.549999952316284,47000.0,3.3515634536743164
2018-08-28,3.569999933242798,3.450000047683716,3.549999952316284,3.5399999618530273,125300.0,3.3421225547790527
2018-08-29,3.5899999141693115,3.5299999713897705,3.5299999713897705,3.5799999237060547,28100.0,3.3798863887786865
2018-08-30,3.609999895095825,3.5299999713897705,3.5899999141693115,3.609999895095825,54100.0,3.4082095623016357
2018-08-31,3.609999895095825,3.5399999618530273,3.5899999141693115,3.5899999141693115,34000.0,3.3893275260925293
2018-09-04,3.549999952316284,3.490000009536743,3.5,3.5399999618530273,88500.0,3.3421225547790527
2018-09-05,3.619999885559082,3.5299999713897705,3.5299999713897705,3.619999885559082,41000.0,3.4176506996154785
2018-09-06,3.5999999046325684,3.5399999618530273,3.5999999046325684,3.5399999618530273,33200.0,3.3421225547790527
2018-09-07,3.6500000953674316,3.5399999618530273,3.5399999618530273,3.569999933242798,87700.0,3.370445489883423
2018-09-10,3.5999999046325684,3.5299999713897705,3.5299999713897705,3.5899999141693115,43400.0,3.3893275260925293
2018-09-11,3.5899999141693115,3.509999990463257,3.569999933242798,3.549999952316284,90200.0,3.3515634536743164
2018-09-12,3.6600000858306885,3.5399999618530273,3.5399999618530273,3.6500000953674316,161800.0,3.4459738731384277
2018-09-13,3.6700000762939453,3.619999885559082,3.6500000953674316,3.640000104904175,41800.0,3.436532735824585
2018-09-14,3.640000104904175,3.5799999237060547,3.609999895095825,3.619999885559082,37600.0,3.4176506996154785
2018-09-17,3.630000114440918,3.5799999237060547,3.630000114440918,3.5899999141693115,17900.0,3.3893275260925293
2018-09-18,3.5899999141693115,3.549999952316284,3.5799999237060547,3.5899999141693115,42300.0,3.3893275260925293
2018-09-19,3.619999885559082,3.559999942779541,3.559999942779541,3.5999999046325684,131100.0,3.398768424987793
2018-09-20,3.640000104904175,3.5899999141693115,3.609999895095825,3.630000114440918,71400.0,3.4270918369293213
2018-09-21,3.6700000762939453,3.619999885559082,3.640000104904175,3.6700000762939453,93100.0,3.464855670928955
2018-09-24,3.680000066757202,3.630000114440918,3.6700000762939453,3.6700000762939453,24900.0,3.464855670928955
2018-09-25,3.680000066757202,3.640000104904175,3.6500000953674316,3.6600000858306885,46000.0,3.4554147720336914
2018-09-26,3.700000047683716,3.5799999237060547,3.6700000762939453,3.6700000762939453,86200.0,3.464855670928955
2018-09-27,3.7200000286102295,3.619999885559082,3.630000114440918,3.7100000381469727,64200.0,3.560835123062134
2018-09-28,3.7699999809265137,3.640000104904175,3.690000057220459,3.75,97700.0,3.599226951599121
2018-10-01,3.7699999809265137,3.7100000381469727,3.740000009536743,3.740000009536743,138200.0,3.5896289348602295
2018-10-02,3.7899999618530273,3.7100000381469727,3.7300000190734863,3.740000009536743,48500.0,3.5896289348602295
2018-10-03,3.7899999618530273,3.7100000381469727,3.7899999618530273,3.75,50600.0,3.599226951599121
2018-10-04,3.7200000286102295,3.5999999046325684,3.700000047683716,3.5999999046325684,40100.0,3.4552576541900635
2018-10-05,3.640000104904175,3.569999933242798,3.569999933242798,3.630000114440918,29900.0,3.4840517044067383
2018-10-08,3.630000114440918,3.5899999141693115,3.630000114440918,3.5899999141693115,18700.0,3.445659637451172
2018-10-09,3.609999895095825,3.559999942779541,3.569999933242798,3.559999942779541,16300.0,3.4168660640716553
2018-10-10,3.5799999237060547,3.5199999809265137,3.5399999618530273,3.5199999809265137,38900.0,3.378474235534668
2018-10-11,3.549999952316284,3.4700000286102295,3.5199999809265137,3.4700000286102295,80200.0,3.330484628677368
2018-10-12,3.509999990463257,3.4700000286102295,3.4700000286102295,3.490000009536743,47700.0,3.3496804237365723
2018-10-15,3.559999942779541,3.4600000381469727,3.559999942779541,3.549999952316284,32200.0,3.4072680473327637
2018-10-16,3.609999895095825,3.5199999809265137,3.549999952316284,3.609999895095825,60900.0,3.464855670928955
2018-10-17,3.619999885559082,3.4700000286102295,3.4700000286102295,3.5999999046325684,70400.0,3.4552576541900635
2018-10-18,3.630000114440918,3.5999999046325684,3.5999999046325684,3.5999999046325684,28100.0,3.4552576541900635
2018-10-19,3.630000114440918,3.5799999237060547,3.5999999046325684,3.609999895095825,72200.0,3.464855670928955
2018-10-22,3.630000114440918,3.5999999046325684,3.630000114440918,3.5999999046325684,36000.0,3.4552576541900635
2018-10-23,3.5999999046325684,3.5199999809265137,3.5999999046325684,3.559999942779541,18200.0,3.4168660640716553
2018-10-24,3.5799999237060547,3.5,3.5299999713897705,3.5399999618530273,57300.0,3.397670269012451
2018-10-25,3.559999942779541,3.4700000286102295,3.5399999618530273,3.4700000286102295,20000.0,3.330484628677368
2018-10-26,3.5299999713897705,3.4600000381469727,3.5,3.5299999713897705,48700.0,3.3880720138549805
2018-10-29,3.549999952316284,3.490000009536743,3.5299999713897705,3.5199999809265137,51300.0,3.378474235534668
2018-10-30,3.5199999809265137,3.440000057220459,3.5,3.440000057220459,40300.0,3.3016908168792725
2018-10-31,3.5399999618530273,3.450000047683716,3.450000047683716,3.5199999809265137,80800.0,3.378474235534668
2018-11-01,3.549999952316284,3.4700000286102295,3.5199999809265137,3.4800000190734863,123600.0,3.3400826454162598
2018-11-02,3.5199999809265137,3.450000047683716,3.5,3.450000047683716,47900.0,3.311288595199585
2018-11-05,3.4800000190734863,3.2699999809265137,3.4000000953674316,3.4000000953674316,25300.0,3.2632992267608643
2018-11-06,3.440000057220459,3.4100000858306885,3.440000057220459,3.4200000762939453,15500.0,3.2824950218200684
2018-11-07,3.4600000381469727,3.4200000762939453,3.4200000762939453,3.450000047683716,34500.0,3.311288595199585
2018-11-08,3.4700000286102295,3.440000057220459,3.440000057220459,3.4600000381469727,50000.0,3.3208866119384766
2018-11-09,3.4700000286102295,3.4100000858306885,3.4600000381469727,3.440000057220459,54600.0,3.3016908168792725
2018-11-12,3.450000047683716,3.4200000762939453,3.4200000762939453,3.430000066757202,27400.0,3.292092800140381
2018-11-13,3.450000047683716,3.4000000953674316,3.4000000953674316,3.4200000762939453,69900.0,3.2824950218200684
2018-11-14,3.440000057220459,3.4100000858306885,3.4200000762939453,3.4100000858306885,36200.0,3.2728970050811768
2018-11-15,3.5,3.4100000858306885,3.4200000762939453,3.440000057220459,59600.0,3.3016908168792725
2018-11-16,3.5199999809265137,3.4100000858306885,3.430000066757202,3.4800000190734863,31600.0,3.3400826454162598
2018-11-19,3.509999990463257,3.440000057220459,3.4600000381469727,3.4600000381469727,19700.0,3.3208866119384766
2018-11-20,3.4700000286102295,3.369999885559082,3.430000066757202,3.4000000953674316,35200.0,3.2632992267608643
2018-11-21,3.450000047683716,3.380000114440918,3.4000000953674316,3.450000047683716,22800.0,3.311288595199585
2018-11-23,3.440000057220459,3.4000000953674316,3.4100000858306885,3.4200000762939453,19200.0,3.2824950218200684
2018-11-26,3.4600000381469727,3.4200000762939453,3.440000057220459,3.440000057220459,24300.0,3.3016908168792725
2018-11-27,3.490000009536743,3.440000057220459,3.440000057220459,3.4600000381469727,43300.0,3.3208866119384766
2018-11-28,3.5,3.4600000381469727,3.4800000190734863,3.490000009536743,56200.0,3.3496804237365723
2018-11-29,3.5,3.4800000190734863,3.490000009536743,3.4800000190734863,29000.0,3.3400826454162598
2018-11-30,3.5,3.430000066757202,3.5,3.430000066757202,29400.0,3.292092800140381
2018-12-03,3.4700000286102295,3.4000000953674316,3.450000047683716,3.4600000381469727,37100.0,3.3208866119384766
2018-12-04,3.4700000286102295,3.4100000858306885,3.4700000286102295,3.430000066757202,24700.0,3.292092800140381
2018-12-06,3.440000057220459,3.380000114440918,3.4100000858306885,3.4200000762939453,65600.0,3.2824950218200684
2018-12-07,3.430000066757202,3.3499999046325684,3.4000000953674316,3.3499999046325684,16300.0,3.2153093814849854
2018-12-10,3.390000104904175,3.2799999713897705,3.390000104904175,3.2799999713897705,33600.0,3.1481237411499023
2018-12-11,3.4100000858306885,3.25,3.2899999618530273,3.25,69500.0,3.1193299293518066
2018-12-12,3.3399999141693115,3.240000009536743,3.25,3.240000009536743,53800.0,3.109731912612915
2018-12-13,3.3299999237060547,3.2100000381469727,3.2899999618530273,3.2100000381469727,38400.0,3.0809383392333984
2018-12-14,3.299999952316284,3.0799999237060547,3.200000047683716,3.0999999046325684,134500.0,2.975360631942749
2018-12-17,3.3499999046325684,2.9800000190734863,3.0999999046325684,2.9800000190734863,116300.0,2.8601856231689453
2018-12-18,3.140000104904175,2.950000047683716,3.0199999809265137,3.0399999618530273,152000.0,2.9177732467651367
2018-12-19,3.1500000953674316,2.990000009536743,3.0899999141693115,3.0299999713897705,50600.0,2.908175230026245
2018-12-20,3.0999999046325684,2.930000066757202,3.0399999618530273,2.9700000286102295,245700.0,2.850587844848633
2018-12-21,3.0999999046325684,2.880000114440918,2.9600000381469727,2.9200000762939453,98500.0,2.802597999572754
2018-12-24,2.9200000762939453,2.799999952316284,2.9200000762939453,2.880000114440918,73900.0,2.7642061710357666
2018-12-26,3.0,2.8399999141693115,2.9100000858306885,2.880000114440918,48600.0,2.7642061710357666
2018-12-27,3.0,2.880000114440918,2.880000114440918,2.9100000858306885,97100.0,2.7930002212524414
2018-12-28,2.950000047683716,2.759999990463257,2.8499999046325684,2.859999895095825,171000.0,2.802799940109253
2018-12-31,2.930000066757202,2.7799999713897705,2.859999895095825,2.859999895095825,122700.0,2.802799940109253
2019-01-02,2.9700000286102295,2.8399999141693115,2.8499999046325684,2.9700000286102295,48700.0,2.910600185394287
2019-01-03,3.069999933242798,2.880000114440918,2.9200000762939453,2.890000104904175,41700.0,2.832200050354004
2019-01-04,3.069999933242798,2.880000114440918,2.880000114440918,2.950000047683716,73300.0,2.8910000324249268
2019-01-07,3.049999952316284,2.950000047683716,3.0,3.049999952316284,37400.0,2.989000082015991
2019-01-08,3.1500000953674316,3.049999952316284,3.049999952316284,3.119999885559082,9000.0,3.0576000213623047
2019-01-09,3.1500000953674316,3.0999999046325684,3.140000104904175,3.119999885559082,22600.0,3.0576000213623047
2019-01-10,3.2799999713897705,3.1500000953674316,3.1700000762939453,3.180000066757202,25400.0,3.1164002418518066
2019-01-11,3.299999952316284,3.2100000381469727,3.2100000381469727,3.2899999618530273,53100.0,3.2242000102996826
2019-01-14,3.309999942779541,3.2100000381469727,3.2100000381469727,3.2699999809265137,21900.0,3.2046000957489014
2019-01-15,3.390000104904175,3.259999990463257,3.319999933242798,3.369999885559082,47700.0,3.3025999069213867
2019-01-16,3.4200000762939453,3.2899999618530273,3.380000114440918,3.309999942779541,38000.0,3.243799924850464
2019-01-17,3.359999895095825,3.2799999713897705,3.3299999237060547,3.3499999046325684,31900.0,3.2829999923706055
2019-01-18,3.4200000762939453,3.309999942779541,3.3499999046325684,3.309999942779541,32800.0,3.243799924850464
2019-01-22,3.390000104904175,3.25,3.259999990463257,3.2899999618530273,41600.0,3.2242000102996826
2019-01-23,3.4000000953674316,3.309999942779541,3.3299999237060547,3.359999895095825,17800.0,3.292799949645996
2019-01-24,3.4000000953674316,3.299999952316284,3.4000000953674316,3.299999952316284,22100.0,3.2339999675750732
2019-01-25,3.4000000953674316,3.299999952316284,3.3499999046325684,3.299999952316284,29600.0,3.2339999675750732
2019-01-28,3.3399999141693115,3.2899999618530273,3.2899999618530273,3.299999952316284,15900.0,3.2339999675750732
2019-01-29,3.359999895095825,3.25,3.3299999237060547,3.3499999046325684,46900.0,3.2829999923706055
2019-01-30,3.390000104904175,3.3499999046325684,3.369999885559082,3.390000104904175,10000.0,3.322200059890747
2019-01-31,3.4100000858306885,3.3499999046325684,3.3499999046325684,3.4000000953674316,15300.0,3.332000255584717
2019-02-01,3.4200000762939453,3.4000000953674316,3.4200000762939453,3.4000000953674316,5600.0,3.332000255584717
2019-02-04,3.4100000858306885,3.3399999141693115,3.369999885559082,3.359999895095825,66500.0,3.292799949645996
2019-02-05,3.4000000953674316,3.3399999141693115,3.4000000953674316,3.359999895095825,10100.0,3.292799949645996
2019-02-06,3.4000000953674316,3.2799999713897705,3.380000114440918,3.359999895095825,55400.0,3.292799949645996
2019-02-07,3.380000114440918,3.25,3.3499999046325684,3.299999952316284,42300.0,3.2339999675750732
2019-02-08,3.319999933242798,3.25,3.2799999713897705,3.25,14400.0,3.184999942779541
2019-02-11,3.4000000953674316,3.2699999809265137,3.2699999809265137,3.3499999046325684,28400.0,3.2829999923706055
2019-02-12,3.4100000858306885,3.3499999046325684,3.3499999046325684,3.4000000953674316,90600.0,3.332000255584717
2019-02-13,3.4700000286102295,3.4000000953674316,3.4000000953674316,3.4700000286102295,20000.0,3.4006001949310303
2019-02-14,3.4700000286102295,3.4000000953674316,3.4700000286102295,3.430000066757202,42700.0,3.3614001274108887
2019-02-15,3.440000057220459,3.3299999237060547,3.3299999237060547,3.4200000762939453,97500.0,3.351600170135498
2019-02-19,3.450000047683716,3.390000104904175,3.390000104904175,3.4000000953674316,60400.0,3.332000255584717
2019-02-20,3.430000066757202,3.369999885559082,3.369999885559082,3.390000104904175,73700.0,3.322200059890747
2019-02-21,3.450000047683716,3.4000000953674316,3.4000000953674316,3.440000057220459,86200.0,3.3712000846862793
2019-02-22,3.4800000190734863,3.4200000762939453,3.4200000762939453,3.4600000381469727,66800.0,3.3907999992370605
2019-02-25,3.509999990463257,3.440000057220459,3.440000057220459,3.5,110100.0,3.430000066757202
2019-02-26,3.549999952316284,3.4800000190734863,3.4800000190734863,3.5299999713897705,61500.0,3.459399938583374
2019-02-27,3.5399999618530273,3.509999990463257,3.509999990463257,3.5199999809265137,36700.0,3.4495999813079834
2019-02-28,3.559999942779541,3.450000047683716,3.5399999618530273,3.549999952316284,402100.0,3.4790000915527344
2019-03-01,3.5799999237060547,3.4600000381469727,3.549999952316284,3.5,45800.0,3.430000066757202
2019-03-04,3.5399999618530273,3.5,3.5399999618530273,3.509999990463257,99300.0,3.4398000240325928
2019-03-05,3.5199999809265137,3.4700000286102295,3.5,3.4800000190734863,28700.0,3.410400152206421
2019-03-06,3.4800000190734863,3.450000047683716,3.4800000190734863,3.4700000286102295,43500.0,3.4006001949310303
2019-03-07,3.4600000381469727,3.3499999046325684,3.450000047683716,3.450000047683716,38700.0,3.38100004196167
2019-03-08,3.450000047683716,3.4000000953674316,3.440000057220459,3.440000057220459,38400.0,3.3712000846862793
2019-03-11,3.509999990463257,3.430000066757202,3.430000066757202,3.5,22700.0,3.430000066757202
2019-03-12,3.549999952316284,3.4600000381469727,3.4800000190734863,3.549999952316284,38700.0,3.4790000915527344
2019-03-13,3.640000104904175,3.5399999618530273,3.5399999618530273,3.5999999046325684,157200.0,3.5279998779296875
2019-03-14,3.5999999046325684,3.559999942779541,3.5999999046325684,3.5899999141693115,17000.0,3.518199920654297
2019-03-15,3.619999885559082,3.359999895095825,3.569999933242798,3.5399999618530273,283100.0,3.4692001342773438
2019-03-18,3.5899999141693115,3.5,3.5,3.5799999237060547,17400.0,3.5083999633789062
2019-03-19,3.609999895095825,3.549999952316284,3.609999895095825,3.569999933242798,33400.0,3.4986000061035156
2019-03-20,3.5899999141693115,3.5,3.549999952316284,3.5299999713897705,90400.0,3.459399938583374
2019-03-21,3.559999942779541,3.490000009536743,3.490000009536743,3.5,33400.0,3.430000066757202
2019-03-22,3.5199999809265137,3.4700000286102295,3.5199999809265137,3.490000009536743,60500.0,3.4202001094818115
2019-03-25,3.5199999809265137,3.2899999618530273,3.369999885559082,3.4800000190734863,58200.0,3.410400152206421
2019-03-26,3.619999885559082,3.5,3.619999885559082,3.5299999713897705,156500.0,3.459399938583374
2019-03-27,3.569999933242798,3.490000009536743,3.5,3.5,75000.0,3.430000066757202
2019-03-28,3.4600000381469727,3.4200000762939453,3.430000066757202,3.4200000762939453,32600.0,3.4200000762939453
2019-03-29,3.569999933242798,3.450000047683716,3.569999933242798,3.490000009536743,58900.0,3.490000009536743
2019-04-01,3.5999999046325684,3.4000000953674316,3.5299999713897705,3.4000000953674316,329000.0,3.4000000953674316
2019-04-02,3.4600000381469727,3.4000000953674316,3.4000000953674316,3.4200000762939453,157700.0,3.4200000762939453
2019-04-03,3.450000047683716,3.4000000953674316,3.450000047683716,3.4100000858306885,71400.0,3.4100000858306885
2019-04-04,3.440000057220459,3.390000104904175,3.390000104904175,3.4100000858306885,71000.0,3.4100000858306885
2019-04-05,3.430000066757202,3.359999895095825,3.359999895095825,3.4100000858306885,229000.0,3.4100000858306885
2019-04-08,3.430000066757202,3.4000000953674316,3.430000066757202,3.430000066757202,127200.0,3.430000066757202
2019-04-09,3.490000009536743,3.4000000953674316,3.4000000953674316,3.490000009536743,18600.0,3.490000009536743
2019-04-10,3.549999952316284,3.4800000190734863,3.490000009536743,3.5199999809265137,45500.0,3.5199999809265137
2019-04-11,3.549999952316284,3.4800000190734863,3.509999990463257,3.5,32800.0,3.5
2019-04-12,3.5299999713897705,3.509999990463257,3.5299999713897705,3.509999990463257,44300.0,3.509999990463257
2019-04-15,3.549999952316284,3.430000066757202,3.5399999618530273,3.5199999809265137,99600.0,3.5199999809265137
2019-04-16,3.5299999713897705,3.5,3.5299999713897705,3.5199999809265137,96200.0,3.5199999809265137
2019-04-17,3.5199999809265137,3.490000009536743,3.5199999809265137,3.5,21200.0,3.5
2019-04-18,3.5199999809265137,3.430000066757202,3.5199999809265137,3.490000009536743,31200.0,3.490000009536743
2019-04-22,3.4700000286102295,3.4100000858306885,3.430000066757202,3.4100000858306885,45400.0,3.4100000858306885
2019-04-23,3.4600000381469727,3.4100000858306885,3.4100000858306885,3.430000066757202,45700.0,3.430000066757202
2019-04-24,3.490000009536743,3.4100000858306885,3.430000066757202,3.450000047683716,24800.0,3.450000047683716
2019-04-25,3.4800000190734863,3.4200000762939453,3.4700000286102295,3.4200000762939453,57500.0,3.4200000762939453
2019-04-26,3.450000047683716,3.4200000762939453,3.430000066757202,3.430000066757202,31400.0,3.430000066757202
2019-04-29,3.509999990463257,3.4100000858306885,3.430000066757202,3.490000009536743,40600.0,3.490000009536743
2019-04-30,3.549999952316284,3.440000057220459,3.490000009536743,3.549999952316284,94800.0,3.549999952316284
2019-05-01,3.549999952316284,3.5,3.549999952316284,3.5199999809265137,13200.0,3.5199999809265137
2019-05-02,3.549999952316284,3.4800000190734863,3.549999952316284,3.5,63700.0,3.5
2019-05-03,3.549999952316284,3.490000009536743,3.509999990463257,3.5,88200.0,3.5
2019-05-06,3.5,3.450000047683716,3.4800000190734863,3.4800000190734863,13100.0,3.4800000190734863
2019-05-07,3.5,3.450000047683716,3.490000009536743,3.4800000190734863,34500.0,3.4800000190734863
2019-05-08,3.490000009536743,3.4600000381469727,3.4600000381469727,3.4800000190734863,20100.0,3.4800000190734863
2019-05-09,3.4800000190734863,3.4100000858306885,3.4600000381469727,3.450000047683716,24100.0,3.450000047683716
2019-05-10,3.4800000190734863,3.4200000762939453,3.4200000762939453,3.4600000381469727,24500.0,3.4600000381469727
2019-05-13,3.509999990463257,3.4100000858306885,3.4100000858306885,3.450000047683716,50800.0,3.450000047683716
2019-05-14,3.440000057220459,3.4000000953674316,3.440000057220459,3.430000066757202,56200.0,3.430000066757202
2019-05-15,3.490000009536743,3.4100000858306885,3.440000057220459,3.4600000381469727,11900.0,3.4600000381469727
2019-05-16,3.5,3.440000057220459,3.4700000286102295,3.4800000190734863,30100.0,3.4800000190734863
2019-05-17,3.490000009536743,3.450000047683716,3.4800000190734863,3.4600000381469727,48000.0,3.4600000381469727
2019-05-20,3.4600000381469727,3.4200000762939453,3.450000047683716,3.430000066757202,21400.0,3.430000066757202
2019-05-21,3.5,3.4200000762939453,3.4200000762939453,3.440000057220459,50800.0,3.440000057220459
2019-05-22,3.4700000286102295,3.4200000762939453,3.4600000381469727,3.430000066757202,16100.0,3.430000066757202
2019-05-23,3.430000066757202,3.4000000953674316,3.4000000953674316,3.4100000858306885,22900.0,3.4100000858306885
2019-05-24,3.430000066757202,3.380000114440918,3.4000000953674316,3.4000000953674316,15200.0,3.4000000953674316
