Date,High,Low,Open,Close,Volume,Adj Close
2015-07-09,25.1200008392334,25.079999923706055,25.1200008392334,25.079999923706055,3900.0,24.009798049926758
2015-07-10,25.6200008392334,25.6200008392334,25.6200008392334,25.6200008392334,700.0,24.526756286621094
2015-07-13,26.489999771118164,26.0,26.0,26.06999969482422,77900.0,24.957551956176758
2015-07-14,26.139999389648438,26.010000228881836,26.010000228881836,26.139999389648438,4300.0,25.024564743041992
2015-07-15,26.190000534057617,26.110000610351562,26.190000534057617,26.110000610351562,3800.0,24.995845794677734
2015-07-16,26.450000762939453,26.400999069213867,26.400999069213867,26.440000534057617,6200.0,25.311763763427734
2015-07-17,26.440000534057617,26.374000549316406,26.440000534057617,26.420000076293945,4900.0,25.292617797851562
2015-07-20,26.540000915527344,26.530000686645508,26.530000686645508,26.530000686645508,10000.0,25.397924423217773
2015-07-21,26.420000076293945,26.25,26.420000076293945,26.264999389648438,1700.0,25.14423179626465
2015-07-22,26.1299991607666,26.125999450683594,26.125999450683594,26.1299991607666,1600.0,25.014989852905273
2015-07-23,26.1299991607666,26.1299991607666,26.1299991607666,26.1299991607666,0.0,25.014989852905273
2015-07-24,26.020000457763672,25.733999252319336,26.020000457763672,25.733999252319336,3500.0,24.63589096069336
2015-07-27,25.6299991607666,25.450000762939453,25.6299991607666,25.450000762939453,2300.0,24.364009857177734
2015-07-28,25.799999237060547,25.731000900268555,25.731000900268555,25.799999237060547,900.0,24.699071884155273
2015-07-29,25.959999084472656,25.958999633789062,25.958999633789062,25.959999084472656,2400.0,24.852245330810547
2015-07-30,26.15999984741211,26.15999984741211,26.15999984741211,26.15999984741211,200.0,25.043712615966797
2015-07-31,26.200000762939453,26.149999618530273,26.149999618530273,26.200000762939453,1900.0,25.082006454467773
2015-08-03,26.200000762939453,26.139999389648438,26.15999984741211,26.170000076293945,900.0,25.053285598754883
2015-08-04,26.170000076293945,26.139999389648438,26.139999389648438,26.170000076293945,500.0,25.053285598754883
2015-08-05,26.440000534057617,26.360000610351562,26.40999984741211,26.389999389648438,2600.0,25.263898849487305
2015-08-06,26.389999389648438,26.389999389648438,26.389999389648438,26.389999389648438,0.0,25.263898849487305
2015-08-07,26.389999389648438,26.389999389648438,26.389999389648438,26.389999389648438,0.0,25.263898849487305
2015-08-10,26.399999618530273,26.398000717163086,26.399999618530273,26.398000717163086,1500.0,25.271556854248047
2015-08-11,26.398000717163086,26.398000717163086,26.398000717163086,26.398000717163086,0.0,25.271556854248047
2015-08-12,25.719999313354492,25.610000610351562,25.610000610351562,25.709999084472656,700.0,24.612913131713867
2015-08-13,25.743999481201172,25.697999954223633,25.697999954223633,25.743999481201172,600.0,24.645463943481445
2015-08-14,25.639999389648438,25.635000228881836,25.635000228881836,25.639999389648438,800.0,24.545900344848633
2015-08-17,25.610000610351562,25.520000457763672,25.520000457763672,25.608999252319336,3000.0,24.51622200012207
2015-08-18,25.56599998474121,25.56599998474121,25.56599998474121,25.56599998474121,100.0,24.47505760192871
2015-08-19,25.229000091552734,25.201000213623047,25.229000091552734,25.201000213623047,900.0,24.125635147094727
2015-08-20,24.625,24.625,24.625,24.625,300.0,23.574214935302734
2015-08-21,24.250999450683594,23.860000610351562,24.250999450683594,23.889999389648438,1200.0,22.870574951171875
2015-08-24,23.200000762939453,22.739999771118164,23.200000762939453,22.81999969482422,3100.0,21.846233367919922
2015-08-25,23.610000610351562,23.329999923706055,23.600000381469727,23.329999923706055,6900.0,22.33447265625
2015-08-26,23.368999481201172,23.360000610351562,23.360000610351562,23.368999481201172,900.0,22.371807098388672
2015-08-27,24.09000015258789,24.020000457763672,24.020000457763672,24.09000015258789,3000.0,23.062042236328125
2015-08-28,24.301000595092773,24.301000595092773,24.301000595092773,24.301000595092773,200.0,23.2640380859375
2015-08-31,24.301000595092773,24.301000595092773,24.301000595092773,24.301000595092773,0.0,23.2640380859375
2015-09-01,24.301000595092773,24.301000595092773,24.301000595092773,24.301000595092773,0.0,23.2640380859375
2015-09-02,23.672000885009766,23.65999984741211,23.65999984741211,23.672000885009766,2300.0,22.661880493164062
2015-09-03,23.672000885009766,23.672000885009766,23.672000885009766,23.672000885009766,0.0,22.661880493164062
2015-09-04,23.672000885009766,23.672000885009766,23.672000885009766,23.672000885009766,0.0,22.661880493164062
2015-09-08,23.672000885009766,23.672000885009766,23.672000885009766,23.672000885009766,0.0,22.661880493164062
2015-09-09,24.270000457763672,24.06999969482422,24.270000457763672,24.083999633789062,3000.0,23.056299209594727
2015-09-10,24.083999633789062,24.083999633789062,24.083999633789062,24.083999633789062,0.0,23.056299209594727
2015-09-11,23.780000686645508,23.780000686645508,23.780000686645508,23.780000686645508,100.0,22.765270233154297
2015-09-14,23.780000686645508,23.780000686645508,23.780000686645508,23.780000686645508,0.0,22.765270233154297
2015-09-15,23.780000686645508,23.780000686645508,23.780000686645508,23.780000686645508,0.0,22.765270233154297
2015-09-16,23.780000686645508,23.780000686645508,23.780000686645508,23.780000686645508,0.0,22.765270233154297
2015-09-17,23.780000686645508,23.780000686645508,23.780000686645508,23.780000686645508,0.0,22.765270233154297
2015-09-18,23.780000686645508,23.780000686645508,23.780000686645508,23.780000686645508,0.0,22.765270233154297
2015-09-21,23.780000686645508,23.780000686645508,23.780000686645508,23.780000686645508,0.0,22.765270233154297
2015-09-22,23.780000686645508,23.780000686645508,23.780000686645508,23.780000686645508,0.0,22.765270233154297
2015-09-23,23.259000778198242,23.25,23.25,23.259000778198242,1400.0,22.266502380371094
2015-09-24,23.259000778198242,23.259000778198242,23.259000778198242,23.259000778198242,0.0,22.266502380371094
2015-09-25,23.259000778198242,23.259000778198242,23.259000778198242,23.259000778198242,0.0,22.266502380371094
2015-09-28,23.259000778198242,23.259000778198242,23.259000778198242,23.259000778198242,0.0,22.266502380371094
2015-09-29,22.899999618530273,22.899999618530273,22.899999618530273,22.899999618530273,400.0,21.922821044921875
2015-09-30,23.30900001525879,23.299999237060547,23.299999237060547,23.30900001525879,600.0,22.314369201660156
2015-10-01,23.30900001525879,23.30900001525879,23.30900001525879,23.30900001525879,0.0,22.314369201660156
2015-10-02,23.30900001525879,23.30900001525879,23.30900001525879,23.30900001525879,0.0,22.314369201660156
2015-10-05,23.30900001525879,23.30900001525879,23.30900001525879,23.30900001525879,0.0,22.314369201660156
2015-10-06,24.219999313354492,24.219999313354492,24.219999313354492,24.219999313354492,700.0,23.186494827270508
2015-10-07,24.219999313354492,24.219999313354492,24.219999313354492,24.219999313354492,0.0,23.186494827270508
2015-10-08,24.729999542236328,24.469999313354492,24.469999313354492,24.722000122070312,19000.0,23.667072296142578
2015-10-09,24.700000762939453,24.700000762939453,24.700000762939453,24.700000762939453,800.0,23.646011352539062
2015-10-12,24.601999282836914,24.59000015258789,24.59000015258789,24.601999282836914,400.0,23.55219268798828
2015-10-13,24.601999282836914,24.601999282836914,24.601999282836914,24.601999282836914,0.0,23.55219268798828
2015-10-14,24.601999282836914,24.601999282836914,24.601999282836914,24.601999282836914,0.0,23.55219268798828
2015-10-15,24.45199966430664,24.45199966430664,24.45199966430664,24.45199966430664,100.0,23.40859603881836
2015-10-16,24.65999984741211,24.65999984741211,24.65999984741211,24.65999984741211,600.0,23.60771942138672
2015-10-19,24.65999984741211,24.65999984741211,24.65999984741211,24.65999984741211,0.0,23.60771942138672
2015-10-20,24.65999984741211,24.65999984741211,24.65999984741211,24.65999984741211,0.0,23.60771942138672
2015-10-21,24.65999984741211,24.65999984741211,24.65999984741211,24.65999984741211,0.0,23.60771942138672
2015-10-22,25.0,24.979999542236328,25.0,24.98900032043457,900.0,23.92268180847168
2015-10-23,24.98900032043457,24.98900032043457,24.98900032043457,24.98900032043457,0.0,23.92268180847168
2015-10-26,24.98900032043457,24.98900032043457,24.98900032043457,24.98900032043457,0.0,23.92268180847168
2015-10-27,24.98900032043457,24.98900032043457,24.98900032043457,24.98900032043457,0.0,23.92268180847168
2015-10-28,25.219999313354492,25.208999633789062,25.219999313354492,25.208999633789062,1300.0,24.13329315185547
2015-10-29,24.9950008392334,24.989999771118164,24.989999771118164,24.9950008392334,800.0,23.928424835205078
2015-10-30,24.9950008392334,24.9950008392334,24.9950008392334,24.9950008392334,0.0,23.928424835205078
2015-11-02,25.079999923706055,25.079999923706055,25.079999923706055,25.079999923706055,100.0,24.009798049926758
2015-11-03,25.15999984741211,25.12299919128418,25.12299919128418,25.15999984741211,2000.0,24.086383819580078
2015-11-04,25.239999771118164,25.209999084472656,25.239999771118164,25.2189998626709,1100.0,24.142866134643555
2015-11-05,25.280000686645508,25.18000030517578,25.280000686645508,25.209999084472656,32700.0,24.134248733520508
2015-11-06,25.218000411987305,25.170000076293945,25.170000076293945,25.216999053955078,2200.0,24.14095115661621
2015-11-09,24.868999481201172,24.868999481201172,24.868999481201172,24.868999481201172,800.0,23.80780029296875
2015-11-10,24.868999481201172,24.868999481201172,24.868999481201172,24.868999481201172,0.0,23.80780029296875
2015-11-11,24.868999481201172,24.868999481201172,24.868999481201172,24.868999481201172,0.0,23.80780029296875
2015-11-12,24.649999618530273,24.610000610351562,24.639999389648438,24.610000610351562,3000.0,23.55985450744629
2015-11-13,24.464000701904297,24.420000076293945,24.440000534057617,24.459999084472656,3800.0,23.41625213623047
2015-11-16,24.860000610351562,24.59000015258789,24.600000381469727,24.850000381469727,1900.0,23.789613723754883
2015-11-17,25.059999465942383,25.016000747680664,25.059999465942383,25.016000747680664,2400.0,23.948530197143555
2015-11-18,25.016000747680664,25.016000747680664,25.016000747680664,25.016000747680664,0.0,23.948530197143555
2015-11-19,25.200000762939453,25.18000030517578,25.18000030517578,25.200000762939453,2200.0,24.124675750732422
2015-11-20,25.31999969482422,25.31999969482422,25.31999969482422,25.31999969482422,200.0,24.23955535888672
2015-11-23,25.219999313354492,25.149999618530273,25.18000030517578,25.149999618530273,1000.0,24.076810836791992
2015-11-24,25.149999618530273,25.149999618530273,25.149999618530273,25.149999618530273,0.0,24.076810836791992
2015-11-25,25.200000762939453,25.1299991607666,25.1299991607666,25.15999984741211,1600.0,24.086383819580078
2015-11-27,25.15999984741211,25.15999984741211,25.15999984741211,25.15999984741211,0.0,24.086383819580078
2015-11-30,25.15999984741211,25.15999984741211,25.15999984741211,25.15999984741211,0.0,24.086383819580078
2015-12-01,25.350000381469727,25.200000762939453,25.200000762939453,25.350000381469727,4800.0,24.26827621459961
2015-12-02,25.2189998626709,25.170000076293945,25.2189998626709,25.170000076293945,1000.0,24.095956802368164
2015-12-03,25.260000228881836,24.729999542236328,25.260000228881836,24.729999542236328,2500.0,23.674732208251953
2015-12-04,24.968000411987305,24.968000411987305,24.968000411987305,24.968000411987305,500.0,23.902576446533203
2015-12-07,24.968000411987305,24.968000411987305,24.968000411987305,24.968000411987305,0.0,23.902576446533203
2015-12-08,24.361000061035156,24.350000381469727,24.350000381469727,24.361000061035156,1300.0,23.32147789001465
2015-12-09,24.361000061035156,24.361000061035156,24.361000061035156,24.361000061035156,0.0,23.32147789001465
2015-12-10,24.209999084472656,24.187000274658203,24.200000762939453,24.209999084472656,2800.0,23.17691993713379
2015-12-11,23.809999465942383,23.59000015258789,23.809999465942383,23.601999282836914,1700.0,22.594865798950195
2015-12-14,23.591999053955078,23.540000915527344,23.559999465942383,23.591999053955078,800.0,22.585290908813477
2015-12-15,23.959999084472656,23.75,23.75,23.948999404907227,5600.0,22.92705726623535
2015-12-16,23.948999404907227,23.948999404907227,23.948999404907227,23.948999404907227,0.0,22.92705726623535
2015-12-17,24.3799991607666,24.06999969482422,24.3700008392334,24.152000427246094,38800.0,23.121397018432617
2015-12-18,23.892000198364258,23.75,23.8799991607666,23.759000778198242,2600.0,22.745168685913086
2015-12-21,23.759000778198242,23.759000778198242,23.759000778198242,23.759000778198242,0.0,22.911998748779297
2015-12-22,23.795000076293945,23.6200008392334,23.6299991607666,23.79199981689453,6600.0,22.943822860717773
2015-12-23,23.79199981689453,23.79199981689453,23.79199981689453,23.79199981689453,0.0,22.943822860717773
2015-12-24,24.118999481201172,24.100000381469727,24.110000610351562,24.108999252319336,4800.0,23.249521255493164
2015-12-28,23.98900032043457,23.950000762939453,23.979999542236328,23.950000762939453,600.0,23.096189498901367
2015-12-29,23.950000762939453,23.950000762939453,23.950000762939453,23.950000762939453,0.0,23.096189498901367
2015-12-30,23.950000762939453,23.950000762939453,23.950000762939453,23.950000762939453,0.0,23.096189498901367
2015-12-31,24.049999237060547,24.049999237060547,24.049999237060547,24.049999237060547,100.0,23.192623138427734
2016-01-04,23.59000015258789,23.56800079345703,23.59000015258789,23.56800079345703,1100.0,22.727807998657227
2016-01-05,23.690000534057617,23.530000686645508,23.600000381469727,23.690000534057617,4800.0,22.845458984375
2016-01-06,23.690000534057617,23.690000534057617,23.690000534057617,23.690000534057617,0.0,22.845458984375
2016-01-07,23.690000534057617,23.690000534057617,23.690000534057617,23.690000534057617,0.0,22.845458984375
2016-01-08,23.690000534057617,23.690000534057617,23.690000534057617,23.690000534057617,0.0,22.845458984375
2016-01-11,23.690000534057617,23.690000534057617,23.690000534057617,23.690000534057617,0.0,22.845458984375
2016-01-12,23.690000534057617,23.690000534057617,23.690000534057617,23.690000534057617,0.0,22.845458984375
2016-01-13,23.690000534057617,23.690000534057617,23.690000534057617,23.690000534057617,0.0,22.845458984375
2016-01-14,22.75,22.75,22.75,22.75,1300.0,21.938968658447266
2016-01-15,22.75,22.75,22.75,22.75,0.0,21.938968658447266
2016-01-19,22.75,22.75,22.75,22.75,0.0,21.938968658447266
2016-01-20,21.790000915527344,21.56999969482422,21.56999969482422,21.790000915527344,800.0,21.013193130493164
2016-01-21,21.790000915527344,21.790000915527344,21.790000915527344,21.790000915527344,0.0,21.013193130493164
2016-01-22,21.790000915527344,21.790000915527344,21.790000915527344,21.790000915527344,0.0,21.013193130493164
2016-01-25,21.790000915527344,21.790000915527344,21.790000915527344,21.790000915527344,0.0,21.013193130493164
2016-01-26,21.790000915527344,21.790000915527344,21.790000915527344,21.790000915527344,0.0,21.013193130493164
2016-01-27,21.790000915527344,21.790000915527344,21.790000915527344,21.790000915527344,0.0,21.013193130493164
2016-01-28,21.790000915527344,21.790000915527344,21.790000915527344,21.790000915527344,0.0,21.013193130493164
2016-01-29,23.170000076293945,23.14699935913086,23.155000686645508,23.170000076293945,1400.0,22.343996047973633
2016-02-01,22.93000030517578,22.8700008392334,22.8700008392334,22.93000030517578,2100.0,22.112552642822266
2016-02-02,22.5,22.360000610351562,22.5,22.360000610351562,400.0,21.56287384033203
2016-02-03,22.200000762939453,22.010000228881836,22.030000686645508,22.200000762939453,2900.0,21.40857696533203
2016-02-04,22.170000076293945,22.15999984741211,22.170000076293945,22.15999984741211,1500.0,21.37000274658203
2016-02-05,22.020000457763672,21.940000534057617,22.020000457763672,21.940000534057617,17500.0,21.157846450805664
2016-02-08,21.6299991607666,21.59000015258789,21.6299991607666,21.59000015258789,400.0,20.820323944091797
2016-02-09,21.59000015258789,21.59000015258789,21.59000015258789,21.59000015258789,0.0,20.820323944091797
2016-02-10,21.59000015258789,21.59000015258789,21.59000015258789,21.59000015258789,0.0,20.820323944091797
2016-02-11,20.780000686645508,20.6299991607666,20.780000686645508,20.6299991607666,200.0,19.894546508789062
2016-02-12,21.1299991607666,21.020000457763672,21.04800033569336,21.1299991607666,18900.0,20.376720428466797
2016-02-16,21.81999969482422,21.809999465942383,21.809999465942383,21.81999969482422,1100.0,21.042123794555664
2016-02-17,22.09000015258789,22.09000015258789,22.09000015258789,22.09000015258789,1300.0,21.30249786376953
2016-02-18,22.09000015258789,22.09000015258789,22.09000015258789,22.09000015258789,0.0,21.30249786376953
2016-02-19,21.989999771118164,21.981000900268555,21.981000900268555,21.989999771118164,2100.0,21.20606231689453
2016-02-22,22.40999984741211,22.40999984741211,22.40999984741211,22.40999984741211,1100.0,21.6110897064209
2016-02-23,22.191999435424805,22.191999435424805,22.191999435424805,22.191999435424805,200.0,21.400859832763672
2016-02-24,21.59000015258789,21.59000015258789,21.59000015258789,21.59000015258789,100.0,20.820323944091797
2016-02-25,22.031999588012695,22.020000457763672,22.020000457763672,22.031999588012695,1000.0,21.246566772460938
2016-02-26,22.031999588012695,22.031999588012695,22.031999588012695,22.031999588012695,100.0,21.246566772460938
2016-02-29,22.031999588012695,22.031999588012695,22.031999588012695,22.031999588012695,0.0,21.246566772460938
2016-03-01,22.031999588012695,22.031999588012695,22.031999588012695,22.031999588012695,0.0,21.246566772460938
2016-03-02,22.031999588012695,22.031999588012695,22.031999588012695,22.031999588012695,0.0,21.246566772460938
2016-03-03,22.940000534057617,22.8799991607666,22.8799991607666,22.90999984741211,900.0,22.093263626098633
2016-03-04,22.90999984741211,22.90999984741211,22.90999984741211,22.90999984741211,0.0,22.093263626098633
2016-03-07,22.90999984741211,22.90999984741211,22.90999984741211,22.90999984741211,0.0,22.093263626098633
2016-03-08,22.90999984741211,22.90999984741211,22.90999984741211,22.90999984741211,0.0,22.093263626098633
2016-03-09,22.90999984741211,22.90999984741211,22.90999984741211,22.90999984741211,0.0,22.093263626098633
2016-03-10,22.90999984741211,22.90999984741211,22.90999984741211,22.90999984741211,0.0,22.093263626098633
2016-03-11,22.90999984741211,22.90999984741211,22.90999984741211,22.90999984741211,0.0,22.093263626098633
2016-03-14,23.3700008392334,23.34000015258789,23.34000015258789,23.349000930786133,2300.0,22.516616821289062
2016-03-15,23.349000930786133,23.349000930786133,23.349000930786133,23.349000930786133,0.0,22.516616821289062
2016-03-16,23.141000747680664,23.099000930786133,23.099000930786133,23.1299991607666,900.0,22.305419921875
2016-03-17,23.1299991607666,23.1299991607666,23.1299991607666,23.1299991607666,0.0,22.305419921875
2016-03-18,23.1299991607666,23.1299991607666,23.1299991607666,23.1299991607666,0.0,22.305419921875
2016-03-21,22.579999923706055,22.579999923706055,22.579999923706055,22.579999923706055,200.0,21.7750301361084
2016-03-22,22.579999923706055,22.579999923706055,22.579999923706055,22.579999923706055,0.0,21.7750301361084
2016-03-23,22.579999923706055,22.579999923706055,22.579999923706055,22.579999923706055,0.0,21.7750301361084
2016-03-24,22.81999969482422,22.770000457763672,22.770000457763672,22.81999969482422,2700.0,22.006473541259766
2016-03-28,22.81999969482422,22.81999969482422,22.81999969482422,22.81999969482422,0.0,22.006473541259766
2016-03-29,22.950000762939453,22.950000762939453,22.950000762939453,22.950000762939453,100.0,22.131839752197266
2016-03-30,22.950000762939453,22.950000762939453,22.950000762939453,22.950000762939453,0.0,22.131839752197266
2016-03-31,23.09000015258789,22.920000076293945,23.059999465942383,22.920000076293945,3200.0,22.102909088134766
2016-04-01,22.729999542236328,22.6200008392334,22.6299991607666,22.729999542236328,9900.0,21.919681549072266
2016-04-04,22.729999542236328,22.729999542236328,22.729999542236328,22.729999542236328,0.0,21.919681549072266
2016-04-05,22.31999969482422,22.31999969482422,22.31999969482422,22.31999969482422,200.0,21.52429962158203
2016-04-06,22.31999969482422,22.31999969482422,22.31999969482422,22.31999969482422,0.0,21.52429962158203
2016-04-07,22.31999969482422,22.31999969482422,22.31999969482422,22.31999969482422,0.0,21.52429962158203
2016-04-08,22.559999465942383,22.559999465942383,22.559999465942383,22.559999465942383,500.0,21.755741119384766
2016-04-11,22.559999465942383,22.559999465942383,22.559999465942383,22.559999465942383,0.0,21.755741119384766
2016-04-12,22.559999465942383,22.559999465942383,22.559999465942383,22.559999465942383,0.0,21.755741119384766
2016-04-13,23.40999984741211,23.309999465942383,23.31999969482422,23.40999984741211,4700.0,22.575439453125
2016-04-14,23.40999984741211,23.40999984741211,23.40999984741211,23.40999984741211,0.0,22.575439453125
2016-04-15,23.40999984741211,23.40999984741211,23.40999984741211,23.40999984741211,0.0,22.575439453125
2016-04-18,23.518999099731445,23.510000228881836,23.510000228881836,23.518999099731445,500.0,22.680553436279297
2016-04-19,23.780000686645508,23.780000686645508,23.780000686645508,23.780000686645508,200.0,22.932249069213867
2016-04-20,23.780000686645508,23.780000686645508,23.780000686645508,23.780000686645508,0.0,22.932249069213867
2016-04-21,23.790000915527344,23.790000915527344,23.790000915527344,23.790000915527344,200.0,22.94189453125
2016-04-22,23.860000610351562,23.860000610351562,23.860000610351562,23.860000610351562,300.0,23.009397506713867
2016-04-25,23.684999465942383,23.65999984741211,23.65999984741211,23.65999984741211,2500.0,22.8165283203125
2016-04-26,23.65999984741211,23.65999984741211,23.65999984741211,23.65999984741211,0.0,22.8165283203125
2016-04-27,23.780000686645508,23.780000686645508,23.780000686645508,23.780000686645508,300.0,22.932249069213867
2016-04-28,23.34000015258789,23.34000015258789,23.34000015258789,23.34000015258789,1000.0,22.507936477661133
2016-04-29,23.1560001373291,23.1560001373291,23.1560001373291,23.1560001373291,700.0,22.330495834350586
2016-05-02,23.239999771118164,23.200000762939453,23.239999771118164,23.200000762939453,400.0,22.372928619384766
2016-05-03,23.006999969482422,22.969999313354492,23.006999969482422,22.969999313354492,1200.0,22.151126861572266
2016-05-04,22.851999282836914,22.719999313354492,22.81999969482422,22.719999313354492,1600.0,21.910037994384766
2016-05-05,22.829999923706055,22.790000915527344,22.829999923706055,22.829999923706055,500.0,22.016117095947266
2016-05-06,22.93000030517578,22.81999969482422,22.81999969482422,22.93000030517578,400.0,22.112552642822266
2016-05-09,22.93000030517578,22.93000030517578,22.93000030517578,22.93000030517578,0.0,22.112552642822266
2016-05-10,22.93000030517578,22.93000030517578,22.93000030517578,22.93000030517578,0.0,22.112552642822266
2016-05-11,23.020999908447266,23.010000228881836,23.010000228881836,23.020999908447266,300.0,22.200305938720703
2016-05-12,23.09000015258789,23.09000015258789,23.09000015258789,23.09000015258789,100.0,22.266847610473633
2016-05-13,22.959999084472656,22.8799991607666,22.959999084472656,22.8799991607666,13300.0,22.064332962036133
2016-05-16,23.0,23.0,23.0,23.0,100.0,22.180057525634766
2016-05-17,23.0,23.0,23.0,23.0,0.0,22.180057525634766
2016-05-18,23.1200008392334,23.059999465942383,23.059999465942383,23.1200008392334,1000.0,22.295780181884766
2016-05-19,22.979999542236328,22.969999313354492,22.979999542236328,22.969999313354492,600.0,22.151126861572266
2016-05-20,23.170000076293945,23.100000381469727,23.170000076293945,23.1299991607666,700.0,22.305419921875
2016-05-23,23.076000213623047,23.06999969482422,23.06999969482422,23.076000213623047,600.0,22.253347396850586
2016-05-24,23.350000381469727,23.350000381469727,23.350000381469727,23.350000381469727,800.0,22.517580032348633
2016-05-25,23.56999969482422,23.56999969482422,23.56999969482422,23.56999969482422,300.0,22.729736328125
2016-05-26,23.56999969482422,23.56999969482422,23.56999969482422,23.56999969482422,0.0,22.729736328125
2016-05-27,23.56999969482422,23.56999969482422,23.56999969482422,23.56999969482422,0.0,22.729736328125
2016-05-31,23.579999923706055,23.579999923706055,23.579999923706055,23.579999923706055,1100.0,22.7393798828125
2016-06-01,23.579999923706055,23.579999923706055,23.579999923706055,23.579999923706055,0.0,22.7393798828125
2016-06-02,23.579999923706055,23.579999923706055,23.579999923706055,23.579999923706055,0.0,22.7393798828125
2016-06-03,23.579999923706055,23.579999923706055,23.579999923706055,23.579999923706055,0.0,22.7393798828125
2016-06-06,23.579999923706055,23.579999923706055,23.579999923706055,23.579999923706055,0.0,22.7393798828125
2016-06-07,23.579999923706055,23.579999923706055,23.579999923706055,23.579999923706055,0.0,22.7393798828125
2016-06-08,23.6299991607666,23.6299991607666,23.6299991607666,23.6299991607666,1300.0,22.787595748901367
2016-06-09,23.6299991607666,23.6299991607666,23.6299991607666,23.6299991607666,0.0,22.787595748901367
2016-06-10,23.010000228881836,22.8700008392334,23.010000228881836,22.8700008392334,1600.0,22.054691314697266
2016-06-13,22.69099998474121,22.479999542236328,22.69099998474121,22.479999542236328,600.0,21.678592681884766
2016-06-14,22.479999542236328,22.479999542236328,22.479999542236328,22.479999542236328,0.0,21.678592681884766
2016-06-15,22.479999542236328,22.479999542236328,22.479999542236328,22.479999542236328,0.0,21.678592681884766
2016-06-16,22.479999542236328,22.479999542236328,22.479999542236328,22.479999542236328,0.0,21.678592681884766
2016-06-17,22.479999542236328,22.479999542236328,22.479999542236328,22.479999542236328,0.0,21.678592681884766
2016-06-20,22.479999542236328,22.479999542236328,22.479999542236328,22.479999542236328,0.0,22.273069381713867
2016-06-21,22.57200050354004,22.56999969482422,22.56999969482422,22.57200050354004,1100.0,22.36422348022461
2016-06-22,22.57200050354004,22.57200050354004,22.57200050354004,22.57200050354004,0.0,22.36422348022461
2016-06-23,22.947999954223633,22.889999389648438,22.889999389648438,22.947999954223633,800.0,22.73676300048828
2016-06-24,21.524999618530273,21.510000228881836,21.524999618530273,21.510000228881836,1400.0,21.312000274658203
2016-06-27,21.510000228881836,21.510000228881836,21.510000228881836,21.510000228881836,0.0,21.312000274658203
2016-06-28,21.510000228881836,21.510000228881836,21.510000228881836,21.510000228881836,0.0,21.312000274658203
2016-06-29,21.510000228881836,21.510000228881836,21.510000228881836,21.510000228881836,0.0,21.312000274658203
2016-06-30,21.510000228881836,21.510000228881836,21.510000228881836,21.510000228881836,0.0,21.312000274658203
2016-07-01,22.549999237060547,22.489999771118164,22.5,22.549999237060547,2600.0,22.342426300048828
2016-07-05,22.549999237060547,22.549999237060547,22.549999237060547,22.549999237060547,0.0,22.342426300048828
2016-07-06,21.940000534057617,21.940000534057617,21.940000534057617,21.940000534057617,100.0,21.7380428314209
2016-07-07,22.1299991607666,22.1299991607666,22.1299991607666,22.1299991607666,200.0,21.926292419433594
2016-07-08,22.299999237060547,22.299999237060547,22.299999237060547,22.299999237060547,200.0,22.0947265625
2016-07-11,22.829999923706055,22.809999465942383,22.809999465942383,22.829999923706055,1600.0,22.619848251342773
2016-07-12,22.829999923706055,22.829999923706055,22.829999923706055,22.829999923706055,0.0,22.619848251342773
2016-07-13,22.829999923706055,22.829999923706055,22.829999923706055,22.829999923706055,0.0,22.619848251342773
2016-07-14,23.18000030517578,23.18000030517578,23.18000030517578,23.18000030517578,700.0,22.96662712097168
2016-07-15,23.16200065612793,23.139999389648438,23.16200065612793,23.16200065612793,1600.0,22.948793411254883
2016-07-18,23.176000595092773,23.174999237060547,23.174999237060547,23.176000595092773,300.0,22.962663650512695
2016-07-19,23.176000595092773,23.176000595092773,23.176000595092773,23.176000595092773,0.0,22.962663650512695
2016-07-20,23.176000595092773,23.176000595092773,23.176000595092773,23.176000595092773,0.0,22.962663650512695
2016-07-21,23.190000534057617,23.15999984741211,23.15999984741211,23.190000534057617,600.0,22.97653579711914
2016-07-22,23.190000534057617,23.190000534057617,23.190000534057617,23.190000534057617,0.0,22.97653579711914
2016-07-25,23.190000534057617,23.190000534057617,23.190000534057617,23.190000534057617,0.0,22.97653579711914
2016-07-26,23.190000534057617,23.190000534057617,23.190000534057617,23.190000534057617,0.0,22.97653579711914
2016-07-27,23.190000534057617,23.190000534057617,23.190000534057617,23.190000534057617,0.0,22.97653579711914
2016-07-28,23.190000534057617,23.190000534057617,23.190000534057617,23.190000534057617,0.0,22.97653579711914
2016-07-29,23.190000534057617,23.190000534057617,23.190000534057617,23.190000534057617,0.0,22.97653579711914
2016-08-01,23.190000534057617,23.190000534057617,23.190000534057617,23.190000534057617,0.0,22.97653579711914
2016-08-02,23.190000534057617,23.190000534057617,23.190000534057617,23.190000534057617,0.0,22.97653579711914
2016-08-03,23.190000534057617,23.190000534057617,23.190000534057617,23.190000534057617,0.0,22.97653579711914
2016-08-04,23.190000534057617,23.190000534057617,23.190000534057617,23.190000534057617,0.0,22.97653579711914
2016-08-05,23.190000534057617,23.190000534057617,23.190000534057617,23.190000534057617,0.0,22.97653579711914
2016-08-08,23.520999908447266,23.520999908447266,23.520999908447266,23.520999908447266,100.0,23.304487228393555
2016-08-09,23.639999389648438,23.639999389648438,23.639999389648438,23.639999389648438,100.0,23.422391891479492
2016-08-10,23.639999389648438,23.639999389648438,23.639999389648438,23.639999389648438,0.0,23.422391891479492
2016-08-11,23.639999389648438,23.639999389648438,23.639999389648438,23.639999389648438,0.0,23.422391891479492
2016-08-12,23.639999389648438,23.639999389648438,23.639999389648438,23.639999389648438,0.0,23.422391891479492
2016-08-15,23.639999389648438,23.639999389648438,23.639999389648438,23.639999389648438,0.0,23.422391891479492
2016-08-16,23.608999252319336,23.608999252319336,23.608999252319336,23.608999252319336,200.0,23.391677856445312
2016-08-17,23.608999252319336,23.608999252319336,23.608999252319336,23.608999252319336,0.0,23.391677856445312
2016-08-18,23.510000228881836,23.510000228881836,23.510000228881836,23.510000228881836,900.0,23.293590545654297
2016-08-19,23.45199966430664,23.45199966430664,23.45199966430664,23.45199966430664,600.0,23.236122131347656
2016-08-22,23.45199966430664,23.45199966430664,23.45199966430664,23.45199966430664,0.0,23.236122131347656
2016-08-23,23.549999237060547,23.530000686645508,23.549999237060547,23.530000686645508,13100.0,23.313405990600586
2016-08-24,23.530000686645508,23.530000686645508,23.530000686645508,23.530000686645508,0.0,23.313405990600586
2016-08-25,23.53499984741211,23.510000228881836,23.510000228881836,23.510000228881836,1800.0,23.293590545654297
2016-08-26,23.510000228881836,23.510000228881836,23.510000228881836,23.510000228881836,0.0,23.293590545654297
2016-08-29,23.510000228881836,23.510000228881836,23.510000228881836,23.510000228881836,0.0,23.293590545654297
2016-08-30,23.510000228881836,23.510000228881836,23.510000228881836,23.510000228881836,0.0,23.293590545654297
2016-08-31,23.510000228881836,23.510000228881836,23.510000228881836,23.510000228881836,0.0,23.293590545654297
2016-09-01,23.510000228881836,23.510000228881836,23.510000228881836,23.510000228881836,0.0,23.293590545654297
2016-09-02,23.969999313354492,23.969999313354492,23.969999313354492,23.969999313354492,500.0,23.74935531616211
2016-09-06,24.030000686645508,24.010000228881836,24.030000686645508,24.01099967956543,5600.0,23.78997802734375
2016-09-07,24.020000457763672,24.009000778198242,24.020000457763672,24.009000778198242,900.0,23.787996292114258
2016-09-08,24.009000778198242,24.009000778198242,24.009000778198242,24.009000778198242,0.0,23.787996292114258
2016-09-09,24.009000778198242,24.009000778198242,24.009000778198242,24.009000778198242,0.0,23.787996292114258
2016-09-12,24.009000778198242,24.009000778198242,24.009000778198242,24.009000778198242,0.0,23.787996292114258
2016-09-13,24.009000778198242,24.009000778198242,24.009000778198242,24.009000778198242,0.0,23.787996292114258
2016-09-14,24.009000778198242,24.009000778198242,24.009000778198242,24.009000778198242,0.0,23.787996292114258
2016-09-15,23.358999252319336,23.358999252319336,23.358999252319336,23.358999252319336,500.0,23.143978118896484
2016-09-16,23.358999252319336,23.358999252319336,23.358999252319336,23.358999252319336,0.0,23.143978118896484
2016-09-19,23.520000457763672,23.510000228881836,23.510000228881836,23.520000457763672,500.0,23.303497314453125
2016-09-20,23.520000457763672,23.520000457763672,23.520000457763672,23.520000457763672,0.0,23.303497314453125
2016-09-21,23.899999618530273,23.770000457763672,23.770000457763672,23.899999618530273,400.0,23.67999839782715
2016-09-22,23.899999618530273,23.899999618530273,23.899999618530273,23.899999618530273,0.0,23.67999839782715
2016-09-23,23.899999618530273,23.899999618530273,23.899999618530273,23.899999618530273,0.0,23.67999839782715
2016-09-26,23.899999618530273,23.899999618530273,23.899999618530273,23.899999618530273,0.0,23.899999618530273
2016-09-27,23.440000534057617,23.440000534057617,23.440000534057617,23.440000534057617,2500.0,23.440000534057617
2016-09-28,23.440000534057617,23.440000534057617,23.440000534057617,23.440000534057617,0.0,23.440000534057617
2016-09-29,23.440000534057617,23.440000534057617,23.440000534057617,23.440000534057617,0.0,23.440000534057617
2016-09-30,23.440000534057617,23.440000534057617,23.440000534057617,23.440000534057617,0.0,23.440000534057617
2016-10-03,23.440000534057617,23.440000534057617,23.440000534057617,23.440000534057617,0.0,23.440000534057617
2016-10-04,23.850000381469727,23.850000381469727,23.850000381469727,23.850000381469727,500.0,23.850000381469727
2016-10-05,23.850000381469727,23.850000381469727,23.850000381469727,23.850000381469727,0.0,23.850000381469727
2016-10-06,23.850000381469727,23.850000381469727,23.850000381469727,23.850000381469727,0.0,23.850000381469727
2016-10-07,23.850000381469727,23.850000381469727,23.850000381469727,23.850000381469727,0.0,23.850000381469727
2016-10-10,23.850000381469727,23.850000381469727,23.850000381469727,23.850000381469727,0.0,23.850000381469727
2016-10-11,23.850000381469727,23.850000381469727,23.850000381469727,23.850000381469727,0.0,23.850000381469727
2016-10-12,23.850000381469727,23.850000381469727,23.850000381469727,23.850000381469727,0.0,23.850000381469727
2016-10-13,23.850000381469727,23.850000381469727,23.850000381469727,23.850000381469727,0.0,23.850000381469727
2016-10-14,23.850000381469727,23.850000381469727,23.850000381469727,23.850000381469727,0.0,23.850000381469727
2016-10-17,23.850000381469727,23.850000381469727,23.850000381469727,23.850000381469727,0.0,23.850000381469727
2016-10-18,23.850000381469727,23.850000381469727,23.850000381469727,23.850000381469727,0.0,23.850000381469727
2016-10-19,23.850000381469727,23.850000381469727,23.850000381469727,23.850000381469727,0.0,23.850000381469727
2016-10-20,23.850000381469727,23.850000381469727,23.850000381469727,23.850000381469727,0.0,23.850000381469727
2016-10-21,23.850000381469727,23.850000381469727,23.850000381469727,23.850000381469727,0.0,23.850000381469727
2016-10-24,23.850000381469727,23.850000381469727,23.850000381469727,23.850000381469727,0.0,23.850000381469727
2016-10-25,23.850000381469727,23.850000381469727,23.850000381469727,23.850000381469727,0.0,23.850000381469727
2016-10-26,23.979999542236328,23.9689998626709,23.979999542236328,23.9689998626709,1000.0,23.9689998626709
2016-10-27,23.9689998626709,23.9689998626709,23.9689998626709,23.9689998626709,0.0,23.9689998626709
2016-10-28,23.9689998626709,23.9689998626709,23.9689998626709,23.9689998626709,0.0,23.9689998626709
2016-10-31,23.884000778198242,23.884000778198242,23.884000778198242,23.884000778198242,500.0,23.884000778198242
2016-11-01,23.884000778198242,23.884000778198242,23.884000778198242,23.884000778198242,0.0,23.884000778198242
2016-11-02,23.884000778198242,23.884000778198242,23.884000778198242,23.884000778198242,0.0,23.884000778198242
2016-11-03,23.884000778198242,23.884000778198242,23.884000778198242,23.884000778198242,0.0,23.884000778198242
2016-11-04,23.1200008392334,22.999000549316406,23.117000579833984,22.999000549316406,1300.0,22.999000549316406
2016-11-07,22.999000549316406,22.999000549316406,22.999000549316406,22.999000549316406,0.0,22.999000549316406
2016-11-08,22.999000549316406,22.999000549316406,22.999000549316406,22.999000549316406,0.0,22.999000549316406
2016-11-09,23.516000747680664,23.516000747680664,23.516000747680664,23.516000747680664,600.0,23.516000747680664
2016-11-10,23.516000747680664,23.516000747680664,23.516000747680664,23.516000747680664,0.0,23.516000747680664
2016-11-11,23.631999969482422,23.6299991607666,23.631999969482422,23.6299991607666,500.0,23.6299991607666
2016-11-14,23.6299991607666,23.6299991607666,23.6299991607666,23.6299991607666,0.0,23.6299991607666
2016-11-15,23.6299991607666,23.6299991607666,23.6299991607666,23.6299991607666,0.0,23.6299991607666
2016-11-16,23.6299991607666,23.6299991607666,23.6299991607666,23.6299991607666,0.0,23.6299991607666
2016-11-17,23.6299991607666,23.6299991607666,23.6299991607666,23.6299991607666,0.0,23.6299991607666
2016-11-18,23.6299991607666,23.6299991607666,23.6299991607666,23.6299991607666,0.0,23.6299991607666
2016-11-21,23.976999282836914,23.976999282836914,23.976999282836914,23.976999282836914,700.0,23.976999282836914
2016-11-22,24.1200008392334,24.106000900268555,24.110000610351562,24.1200008392334,2000.0,24.1200008392334
2016-11-23,24.1200008392334,24.1200008392334,24.1200008392334,24.1200008392334,0.0,24.1200008392334
2016-11-25,24.1200008392334,24.1200008392334,24.1200008392334,24.1200008392334,0.0,24.1200008392334
2016-11-28,24.1200008392334,24.1200008392334,24.1200008392334,24.1200008392334,0.0,24.1200008392334
2016-11-29,24.1200008392334,24.1200008392334,24.1200008392334,24.1200008392334,0.0,24.1200008392334
2016-11-30,24.229999542236328,24.229999542236328,24.229999542236328,24.229999542236328,300.0,24.229999542236328
2016-12-01,24.229999542236328,24.229999542236328,24.229999542236328,24.229999542236328,0.0,24.229999542236328
2016-12-02,24.229999542236328,24.229999542236328,24.229999542236328,24.229999542236328,0.0,24.229999542236328
2016-12-05,24.20800018310547,24.20800018310547,24.20800018310547,24.20800018310547,100.0,24.20800018310547
2016-12-06,24.20800018310547,24.20800018310547,24.20800018310547,24.20800018310547,0.0,24.20800018310547
2016-12-07,24.20800018310547,24.20800018310547,24.20800018310547,24.20800018310547,0.0,24.20800018310547
2016-12-08,24.20800018310547,24.20800018310547,24.20800018310547,24.20800018310547,0.0,24.20800018310547
2016-12-09,24.20800018310547,24.20800018310547,24.20800018310547,24.20800018310547,0.0,24.20800018310547
2016-12-12,25.049999237060547,25.049999237060547,25.049999237060547,25.049999237060547,200.0,25.049999237060547
2016-12-13,25.299999237060547,25.25,25.25,25.299999237060547,800.0,25.299999237060547
2016-12-14,25.299999237060547,25.299999237060547,25.299999237060547,25.299999237060547,0.0,25.299999237060547
2016-12-15,25.299999237060547,25.299999237060547,25.299999237060547,25.299999237060547,0.0,25.299999237060547
2016-12-16,25.299999237060547,25.299999237060547,25.299999237060547,25.299999237060547,0.0,25.299999237060547
2016-12-19,25.299999237060547,25.288999557495117,25.299999237060547,25.288999557495117,500.0,25.288999557495117
2016-12-20,25.288999557495117,25.288999557495117,25.288999557495117,25.288999557495117,0.0,25.288999557495117
2016-12-21,25.288999557495117,25.288999557495117,25.288999557495117,25.288999557495117,0.0,25.288999557495117
2016-12-22,25.309999465942383,25.309999465942383,25.309999465942383,25.309999465942383,200.0,25.309999465942383
2016-12-23,25.309999465942383,25.309999465942383,25.309999465942383,25.309999465942383,0.0,25.309999465942383
2016-12-27,25.334999084472656,25.320999145507812,25.334999084472656,25.320999145507812,900.0,25.320999145507812
2016-12-28,25.350000381469727,25.239999771118164,25.350000381469727,25.239999771118164,15000.0,25.239999771118164
2016-12-29,25.239999771118164,25.239999771118164,25.239999771118164,25.239999771118164,0.0,25.239999771118164
2016-12-30,25.239999771118164,25.239999771118164,25.239999771118164,25.239999771118164,0.0,25.239999771118164
2017-01-03,25.239999771118164,25.239999771118164,25.239999771118164,25.239999771118164,0.0,25.239999771118164
2017-01-04,25.239999771118164,25.239999771118164,25.239999771118164,25.239999771118164,0.0,25.239999771118164
2017-01-05,25.780000686645508,25.76799964904785,25.780000686645508,25.76799964904785,2000.0,25.76799964904785
2017-01-06,25.76799964904785,25.76799964904785,25.76799964904785,25.76799964904785,0.0,25.76799964904785
2017-01-09,25.76799964904785,25.76799964904785,25.76799964904785,25.76799964904785,0.0,25.76799964904785
2017-01-10,25.76799964904785,25.76799964904785,25.76799964904785,25.76799964904785,0.0,25.76799964904785
2017-01-11,25.76799964904785,25.76799964904785,25.76799964904785,25.76799964904785,0.0,25.76799964904785
2017-01-12,25.76799964904785,25.76799964904785,25.76799964904785,25.76799964904785,0.0,25.76799964904785
2017-01-13,25.76799964904785,25.76799964904785,25.76799964904785,25.76799964904785,0.0,25.76799964904785
2017-01-17,25.76799964904785,25.76799964904785,25.76799964904785,25.76799964904785,0.0,25.76799964904785
2017-01-18,25.76799964904785,25.76799964904785,25.76799964904785,25.76799964904785,0.0,25.76799964904785
2017-01-19,25.76799964904785,25.76799964904785,25.76799964904785,25.76799964904785,0.0,25.76799964904785
2017-01-20,25.76799964904785,25.76799964904785,25.76799964904785,25.76799964904785,0.0,25.76799964904785
2017-01-23,25.3700008392334,25.3700008392334,25.3700008392334,25.3700008392334,1100.0,25.3700008392334
2017-01-24,25.3700008392334,25.3700008392334,25.3700008392334,25.3700008392334,0.0,25.3700008392334
2017-01-25,25.3700008392334,25.3700008392334,25.3700008392334,25.3700008392334,0.0,25.3700008392334
2017-01-26,25.829999923706055,25.81800079345703,25.829999923706055,25.81800079345703,1700.0,25.81800079345703
2017-01-27,25.790000915527344,25.719999313354492,25.790000915527344,25.719999313354492,500.0,25.719999313354492
2017-01-30,25.479999542236328,25.479999542236328,25.479999542236328,25.479999542236328,600.0,25.479999542236328
2017-01-31,25.450000762939453,25.450000762939453,25.450000762939453,25.450000762939453,200.0,25.450000762939453
2017-02-01,25.479999542236328,25.479999542236328,25.479999542236328,25.479999542236328,900.0,25.479999542236328
2017-02-02,25.4689998626709,25.4689998626709,25.4689998626709,25.4689998626709,100.0,25.4689998626709
2017-02-03,25.6200008392334,25.6200008392334,25.6200008392334,25.6200008392334,700.0,25.6200008392334
2017-02-06,25.489999771118164,25.479999542236328,25.479999542236328,25.48900032043457,700.0,25.48900032043457
2017-02-07,25.440000534057617,25.42799949645996,25.440000534057617,25.42799949645996,800.0,25.42799949645996
2017-02-08,25.540000915527344,25.420000076293945,25.420000076293945,25.53700065612793,3000.0,25.53700065612793
2017-02-09,25.6200008392334,25.6200008392334,25.6200008392334,25.6200008392334,100.0,25.6200008392334
2017-02-10,25.6200008392334,25.6200008392334,25.6200008392334,25.6200008392334,0.0,25.6200008392334
2017-02-13,26.0,25.950000762939453,26.0,25.950000762939453,1000.0,25.950000762939453
2017-02-14,25.969999313354492,25.969999313354492,25.969999313354492,25.969999313354492,800.0,25.969999313354492
2017-02-15,26.027000427246094,26.0,26.0,26.027000427246094,800.0,26.027000427246094
2017-02-16,26.010000228881836,25.969999313354492,26.010000228881836,25.969999313354492,1700.0,25.969999313354492
2017-02-17,25.81999969482422,25.81999969482422,25.81999969482422,25.81999969482422,400.0,25.81999969482422
2017-02-21,26.079999923706055,26.079999923706055,26.079999923706055,26.079999923706055,400.0,26.079999923706055
2017-02-22,26.079999923706055,26.079999923706055,26.079999923706055,26.079999923706055,200.0,26.079999923706055
2017-02-23,26.06800079345703,26.06800079345703,26.06800079345703,26.06800079345703,200.0,26.06800079345703
2017-02-24,25.739999771118164,25.739999771118164,25.739999771118164,25.739999771118164,200.0,25.739999771118164
2017-02-27,25.8700008392334,25.829999923706055,25.829999923706055,25.8700008392334,2300.0,25.8700008392334
2017-02-28,25.8700008392334,25.8700008392334,25.8700008392334,25.8700008392334,0.0,25.8700008392334
2017-03-01,26.25,26.239999771118164,26.239999771118164,26.25,2800.0,26.25
2017-03-02,26.309999465942383,26.273000717163086,26.273000717163086,26.309999465942383,800.0,26.309999465942383
2017-03-03,26.273000717163086,26.260000228881836,26.260000228881836,26.270999908447266,2500.0,26.270999908447266
2017-03-06,26.25,26.208999633789062,26.25,26.209999084472656,3500.0,26.209999084472656
2017-03-07,26.209999084472656,26.209999084472656,26.209999084472656,26.209999084472656,0.0,26.209999084472656
2017-03-08,26.243000030517578,26.211000442504883,26.243000030517578,26.211000442504883,1700.0,26.211000442504883
2017-03-09,26.229999542236328,26.229999542236328,26.229999542236328,26.229999542236328,200.0,26.229999542236328
2017-03-10,26.399999618530273,26.360000610351562,26.399999618530273,26.39699935913086,900.0,26.39699935913086
2017-03-13,26.39699935913086,26.39699935913086,26.39699935913086,26.39699935913086,0.0,26.39699935913086
2017-03-14,26.299999237060547,26.260000228881836,26.281999588012695,26.299999237060547,2600.0,26.299999237060547
2017-03-15,26.389999389648438,26.350000381469727,26.3700008392334,26.389999389648438,1200.0,26.389999389648438
2017-03-16,26.389999389648438,26.389999389648438,26.389999389648438,26.389999389648438,0.0,26.389999389648438
2017-03-17,26.530000686645508,26.5,26.530000686645508,26.5,300.0,26.5
2017-03-20,26.559999465942383,26.5310001373291,26.559999465942383,26.5310001373291,1000.0,26.5310001373291
2017-03-21,26.5310001373291,26.5310001373291,26.5310001373291,26.5310001373291,0.0,26.5310001373291
2017-03-22,26.5310001373291,26.5310001373291,26.5310001373291,26.5310001373291,0.0,26.5310001373291
