Date,High,Low,Open,Close,Volume,Adj Close
2019-02-14,18.940000534057617,18.940000534057617,18.940000534057617,18.940000534057617,0.0,18.940000534057617
2019-02-15,19.0,19.0,19.0,19.0,0.0,19.0
2019-02-19,19.06999969482422,19.06999969482422,19.06999969482422,19.06999969482422,0.0,19.06999969482422
2019-02-20,19.049999237060547,19.049999237060547,19.049999237060547,19.049999237060547,0.0,19.049999237060547
2019-02-21,19.079999923706055,19.079999923706055,19.079999923706055,19.079999923706055,0.0,19.079999923706055
2019-02-22,19.219999313354492,19.219999313354492,19.219999313354492,19.219999313354492,0.0,19.219999313354492
2019-02-25,19.309999465942383,19.309999465942383,19.309999465942383,19.309999465942383,0.0,19.309999465942383
2019-02-26,19.280000686645508,19.280000686645508,19.280000686645508,19.280000686645508,0.0,19.280000686645508
2019-02-27,19.31999969482422,19.31999969482422,19.31999969482422,19.31999969482422,0.0,19.31999969482422
2019-02-28,19.229999542236328,19.229999542236328,19.229999542236328,19.229999542236328,0.0,19.229999542236328
2019-03-01,19.270000457763672,19.270000457763672,19.270000457763672,19.270000457763672,0.0,19.270000457763672
2019-03-04,19.239999771118164,19.239999771118164,19.239999771118164,19.239999771118164,0.0,19.239999771118164
2019-03-05,19.229999542236328,19.229999542236328,19.229999542236328,19.229999542236328,0.0,19.229999542236328
2019-03-06,19.1200008392334,19.1200008392334,19.1200008392334,19.1200008392334,0.0,19.1200008392334
2019-03-07,18.979999542236328,18.979999542236328,18.979999542236328,18.979999542236328,0.0,18.979999542236328
2019-03-08,18.979999542236328,18.979999542236328,18.979999542236328,18.979999542236328,0.0,18.979999542236328
2019-03-11,19.270000457763672,19.270000457763672,19.270000457763672,19.270000457763672,0.0,19.270000457763672
2019-03-12,19.3700008392334,19.3700008392334,19.3700008392334,19.3700008392334,0.0,19.3700008392334
2019-03-13,19.469999313354492,19.469999313354492,19.469999313354492,19.469999313354492,0.0,19.469999313354492
2019-03-14,19.3700008392334,19.3700008392334,19.3700008392334,19.3700008392334,0.0,19.3700008392334
2019-03-15,19.469999313354492,19.469999313354492,19.469999313354492,19.469999313354492,0.0,19.469999313354492
2019-03-18,19.559999465942383,19.559999465942383,19.559999465942383,19.559999465942383,0.0,19.559999465942383
2019-03-19,19.479999542236328,19.479999542236328,19.479999542236328,19.479999542236328,130.0,19.479999542236328
2019-03-20,19.559999465942383,19.559999465942383,19.559999465942383,19.559999465942383,0.0,19.559999465942383
2019-03-21,19.700000762939453,19.700000762939453,19.700000762939453,19.700000762939453,0.0,19.700000762939453
2019-03-22,19.209999084472656,19.209999084472656,19.209999084472656,19.209999084472656,0.0,19.209999084472656
2019-03-25,19.200000762939453,19.200000762939453,19.200000762939453,19.200000762939453,136.0,19.200000762939453
2019-03-26,19.239999771118164,19.239999771118164,19.239999771118164,19.239999771118164,0.0,19.239999771118164
2019-03-27,19.149999618530273,19.149999618530273,19.149999618530273,19.149999618530273,0.0,19.149999618530273
2019-05-20,19.360000610351562,19.360000610351562,19.360000610351562,19.360000610351562,0.0,19.360000610351562
2019-05-22,19.579999923706055,19.579999923706055,19.579999923706055,19.579999923706055,0.0,19.579999923706055
2019-05-23,19.420000076293945,19.420000076293945,19.420000076293945,19.420000076293945,0.0,19.420000076293945
2019-05-24,19.540000915527344,19.540000915527344,19.540000915527344,19.540000915527344,0.0,19.540000915527344
