Date,High,Low,Open,Close,Volume,Adj Close
2017-11-02,5.349999904632568,5.150000095367432,5.150000095367432,5.300000190734863,132100.0,5.300000190734863
2017-11-03,5.349999904632568,5.099999904632568,5.300000190734863,5.099999904632568,73200.0,5.099999904632568
2017-11-06,5.300000190734863,5.099999904632568,5.150000095367432,5.300000190734863,349800.0,5.300000190734863
2018-05-24,5.699999809265137,5.5,5.650000095367432,5.550000190734863,241300.0,5.550000190734863
2018-05-25,5.550000190734863,5.400000095367432,5.550000190734863,5.5,201300.0,5.5
2018-05-29,5.599999904632568,5.449999809265137,5.5,5.599999904632568,77300.0,5.599999904632568
2018-05-30,5.699999809265137,5.5,5.599999904632568,5.650000095367432,186000.0,5.650000095367432
2018-05-31,5.679999828338623,5.5,5.650000095367432,5.550000190734863,110000.0,5.550000190734863
2018-06-01,5.599999904632568,5.5,5.599999904632568,5.599999904632568,43600.0,5.599999904632568
2018-06-04,5.699999809265137,5.599999904632568,5.650000095367432,5.699999809265137,88300.0,5.699999809265137
2018-06-05,5.800000190734863,5.650000095367432,5.699999809265137,5.75,82000.0,5.75
2018-06-06,5.900000095367432,5.75,5.800000190734863,5.849999904632568,136100.0,5.849999904632568
2018-06-07,5.900000095367432,5.650000095367432,5.849999904632568,5.650000095367432,108100.0,5.650000095367432
2018-06-08,5.849999904632568,5.599999904632568,5.699999809265137,5.800000190734863,109800.0,5.800000190734863
2018-06-11,5.849999904632568,5.800000190734863,5.800000190734863,5.849999904632568,110600.0,5.849999904632568
2018-06-12,5.849999904632568,5.599999904632568,5.849999904632568,5.650000095367432,287200.0,5.650000095367432
2018-06-13,5.78000020980835,5.599999904632568,5.650000095367432,5.75,119000.0,5.75
2018-06-14,5.900000095367432,5.699999809265137,5.800000190734863,5.900000095367432,153800.0,5.900000095367432
2018-06-15,5.949999809265137,5.75,5.900000095367432,5.800000190734863,374900.0,5.800000190734863
2018-06-18,5.800000190734863,5.650000095367432,5.75,5.75,161900.0,5.75
2018-06-19,5.849999904632568,5.650000095367432,5.75,5.75,111700.0,5.75
2018-06-20,5.900000095367432,5.75,5.800000190734863,5.849999904632568,115000.0,5.849999904632568
2018-06-21,5.900000095367432,5.75,5.849999904632568,5.849999904632568,194500.0,5.849999904632568
2018-06-22,6.0,5.75,5.849999904632568,5.949999809265137,1787300.0,5.949999809265137
2018-06-25,6.0,5.849999904632568,5.900000095367432,5.949999809265137,233900.0,5.949999809265137
2018-06-26,6.079999923706055,5.900000095367432,5.949999809265137,6.050000190734863,357500.0,6.050000190734863
2018-06-27,6.050000190734863,5.75,6.050000190734863,5.849999904632568,281400.0,5.849999904632568
2018-06-28,5.949999809265137,5.800000190734863,5.849999904632568,5.949999809265137,97400.0,5.949999809265137
2018-06-29,5.949999809265137,5.900000095367432,5.949999809265137,5.900000095367432,113800.0,5.900000095367432
2018-07-02,5.949999809265137,5.800000190734863,5.849999904632568,5.949999809265137,133900.0,5.949999809265137
2018-07-03,5.949999809265137,5.900000095367432,5.949999809265137,5.900000095367432,23400.0,5.900000095367432
2018-07-05,6.0,5.900000095367432,5.949999809265137,5.949999809265137,72200.0,5.949999809265137
2018-07-06,6.03000020980835,5.900000095367432,6.03000020980835,6.0,80000.0,6.0
2018-07-09,6.099999904632568,6.0,6.050000190734863,6.050000190734863,109600.0,6.050000190734863
2018-07-10,6.110000133514404,5.900000095367432,6.099999904632568,5.949999809265137,81200.0,5.949999809265137
2018-07-11,6.0,5.900000095367432,5.949999809265137,5.949999809265137,41100.0,5.949999809265137
2018-07-12,6.050000190734863,5.949999809265137,6.050000190734863,6.050000190734863,48900.0,6.050000190734863
2018-07-13,6.099999904632568,5.949999809265137,6.050000190734863,5.949999809265137,88000.0,5.949999809265137
2018-07-16,6.050000190734863,5.849999904632568,6.0,5.900000095367432,64400.0,5.900000095367432
2018-07-17,6.0,5.849999904632568,5.949999809265137,5.949999809265137,84200.0,5.949999809265137
2018-07-18,6.0,5.900000095367432,5.949999809265137,5.949999809265137,43900.0,5.949999809265137
2018-07-19,6.050000190734863,5.949999809265137,5.949999809265137,6.0,124000.0,6.0
2018-07-20,6.099999904632568,5.949999809265137,6.0,6.0,139500.0,6.0
2018-07-23,5.849999904632568,5.75,5.849999904632568,5.800000190734863,124000.0,5.800000190734863
2018-07-24,5.849999904632568,5.75,5.800000190734863,5.75,75700.0,5.75
2018-07-25,5.800000190734863,5.75,5.75,5.800000190734863,46300.0,5.800000190734863
2018-07-26,5.900000095367432,5.610000133514404,5.849999904632568,5.849999904632568,191600.0,5.849999904632568
2018-07-27,5.849999904632568,5.599999904632568,5.849999904632568,5.650000095367432,118200.0,5.650000095367432
2018-07-30,5.650000095367432,5.349999904632568,5.599999904632568,5.449999809265137,208600.0,5.449999809265137
2018-07-31,5.550000190734863,5.349999904632568,5.5,5.5,158100.0,5.5
2018-08-01,5.550000190734863,5.449999809265137,5.5,5.449999809265137,74800.0,5.449999809265137
2018-08-02,5.5,5.400000095367432,5.449999809265137,5.5,34700.0,5.5
2018-08-03,5.550000190734863,5.429999828338623,5.5,5.5,77800.0,5.5
2018-08-06,5.599999904632568,5.449999809265137,5.5,5.550000190734863,35300.0,5.550000190734863
2018-08-07,5.75,5.550000190734863,5.550000190734863,5.75,70700.0,5.75
2018-08-08,5.75,5.650000095367432,5.75,5.650000095367432,45400.0,5.650000095367432
2018-08-09,5.75,5.650000095367432,5.650000095367432,5.699999809265137,23500.0,5.699999809265137
2018-08-10,5.699999809265137,5.599999904632568,5.650000095367432,5.699999809265137,131600.0,5.699999809265137
2018-08-13,5.699999809265137,5.599999904632568,5.699999809265137,5.650000095367432,38000.0,5.650000095367432
2018-08-14,5.25,3.75,4.5,3.8499999046325684,11030500.0,3.8499999046325684
2018-08-15,4.340000152587891,3.9000000953674316,4.03000020980835,3.950000047683716,3446300.0,3.950000047683716
2018-08-16,4.25,4.0,4.0,4.159999847412109,951600.0,4.159999847412109
2018-08-17,4.400000095367432,4.179999828338623,4.190000057220459,4.360000133514404,626000.0,4.360000133514404
2018-08-20,4.539999961853027,4.159999847412109,4.349999904632568,4.25,436500.0,4.25
2018-08-21,4.400000095367432,4.199999809265137,4.300000190734863,4.400000095367432,137200.0,4.400000095367432
2018-08-22,4.449999809265137,4.199999809265137,4.400000095367432,4.260000228881836,211600.0,4.260000228881836
2018-08-23,4.380000114440918,4.25,4.300000190734863,4.25,309300.0,4.25
2018-08-24,4.349999904632568,4.199999809265137,4.349999904632568,4.25,87300.0,4.25
2018-08-27,4.300000190734863,4.210000038146973,4.260000228881836,4.300000190734863,111100.0,4.300000190734863
2018-08-28,4.300000190734863,4.25,4.300000190734863,4.300000190734863,28800.0,4.300000190734863
2018-08-29,4.300000190734863,4.239999771118164,4.300000190734863,4.25,124200.0,4.25
2018-08-30,4.25,4.199999809265137,4.25,4.199999809265137,40300.0,4.199999809265137
2018-08-31,4.25,4.199999809265137,4.25,4.25,58300.0,4.25
2018-09-04,4.260000228881836,4.230000019073486,4.230000019073486,4.239999771118164,168500.0,4.239999771118164
2018-09-05,4.400000095367432,4.239999771118164,4.239999771118164,4.260000228881836,72800.0,4.260000228881836
2018-09-06,4.309999942779541,4.230000019073486,4.269999980926514,4.239999771118164,343400.0,4.239999771118164
2018-09-07,4.25,4.130000114440918,4.25,4.130000114440918,304200.0,4.130000114440918
2018-09-10,4.25,4.150000095367432,4.159999847412109,4.190000057220459,32200.0,4.190000057220459
2018-09-11,4.199999809265137,4.170000076293945,4.190000057220459,4.190000057220459,11600.0,4.190000057220459
2018-09-12,4.199999809265137,4.150000095367432,4.190000057220459,4.159999847412109,35400.0,4.159999847412109
2018-09-13,4.199999809265137,4.150000095367432,4.159999847412109,4.170000076293945,32700.0,4.170000076293945
2018-09-14,4.179999828338623,4.139999866485596,4.170000076293945,4.159999847412109,83900.0,4.159999847412109
2018-09-17,4.199999809265137,4.150000095367432,4.199999809265137,4.199999809265137,30600.0,4.199999809265137
2018-09-18,4.199999809265137,4.150000095367432,4.199999809265137,4.150000095367432,171300.0,4.150000095367432
2018-09-19,4.199999809265137,4.099999904632568,4.159999847412109,4.150000095367432,230900.0,4.150000095367432
2018-09-20,4.150000095367432,4.110000133514404,4.139999866485596,4.110000133514404,117000.0,4.110000133514404
2018-09-21,4.110000133514404,4.050000190734863,4.110000133514404,4.099999904632568,361600.0,4.099999904632568
2018-09-24,4.110000133514404,4.010000228881836,4.110000133514404,4.039999961853027,130000.0,4.039999961853027
2018-09-25,4.070000171661377,3.9600000381469727,4.070000171661377,3.990000009536743,140800.0,3.990000009536743
2018-09-26,4.010000228881836,3.9800000190734863,4.010000228881836,3.9800000190734863,4300.0,3.9800000190734863
2018-09-27,4.050000190734863,4.0,4.019999980926514,4.019999980926514,161300.0,4.019999980926514
2018-09-28,4.119999885559082,4.0,4.019999980926514,4.099999904632568,186800.0,4.099999904632568
2018-10-01,4.199999809265137,4.099999904632568,4.099999904632568,4.199999809265137,201500.0,4.199999809265137
2018-10-02,4.300000190734863,4.190000057220459,4.199999809265137,4.239999771118164,352900.0,4.239999771118164
2018-10-03,4.25,4.230000019073486,4.239999771118164,4.25,168900.0,4.25
2018-10-04,4.289999961853027,4.199999809265137,4.25,4.21999979019165,147700.0,4.21999979019165
2018-10-05,4.230000019073486,4.199999809265137,4.230000019073486,4.21999979019165,62800.0,4.21999979019165
2018-10-08,4.25,4.199999809265137,4.230000019073486,4.21999979019165,41700.0,4.21999979019165
2018-10-09,4.300000190734863,4.21999979019165,4.21999979019165,4.230000019073486,81300.0,4.230000019073486
2018-10-10,4.289999961853027,4.190000057220459,4.230000019073486,4.190000057220459,80700.0,4.190000057220459
2018-10-11,4.21999979019165,4.179999828338623,4.179999828338623,4.179999828338623,5100.0,4.179999828338623
2018-10-12,4.199999809265137,4.179999828338623,4.190000057220459,4.179999828338623,202300.0,4.179999828338623
2018-10-15,4.25,4.150000095367432,4.179999828338623,4.179999828338623,88600.0,4.179999828338623
2018-10-16,4.579999923706055,4.309999942779541,4.349999904632568,4.440000057220459,264300.0,4.440000057220459
2018-10-17,4.440000057220459,4.210000038146973,4.440000057220459,4.300000190734863,84400.0,4.300000190734863
2018-10-18,4.400000095367432,3.8499999046325684,4.349999904632568,4.090000152587891,34300.0,4.090000152587891
2018-10-19,4.070000171661377,3.9100000858306885,4.070000171661377,3.9100000858306885,97600.0,3.9100000858306885
2018-10-22,3.990000009536743,3.75,3.9100000858306885,3.9000000953674316,76300.0,3.9000000953674316
2018-10-23,3.9800000190734863,3.299999952316284,3.8499999046325684,3.490000009536743,493200.0,3.490000009536743
2018-10-24,3.549999952316284,3.2699999809265137,3.549999952316284,3.299999952316284,381300.0,3.299999952316284
2018-10-25,3.450000047683716,3.1600000858306885,3.2200000286102295,3.180000066757202,78500.0,3.180000066757202
2018-10-26,3.309999942779541,2.9800000190734863,3.1600000858306885,3.0,202200.0,3.0
2018-10-29,3.0,2.700000047683716,2.950000047683716,2.7300000190734863,220000.0,2.7300000190734863
2018-10-30,2.930000066757202,2.6700000762939453,2.7899999618530273,2.9200000762939453,160400.0,2.9200000762939453
2018-10-31,3.119999885559082,2.799999952316284,2.940000057220459,2.819999933242798,101300.0,2.819999933242798
2018-11-01,2.9600000381469727,2.819999933242798,2.8299999237060547,2.9600000381469727,97600.0,2.9600000381469727
2018-11-02,3.069999933242798,2.890000104904175,2.9700000286102295,3.0299999713897705,55000.0,3.0299999713897705
2018-11-05,3.0299999713897705,2.950000047683716,3.0199999809265137,3.0299999713897705,208700.0,3.0299999713897705
2018-11-06,3.0999999046325684,2.9800000190734863,3.0399999618530273,3.059999942779541,42800.0,3.059999942779541
2018-11-07,3.25,3.0,3.0999999046325684,3.2100000381469727,141300.0,3.2100000381469727
2018-11-08,3.309999942779541,2.890000104904175,3.109999895095825,3.190000057220459,97400.0,3.190000057220459
2018-11-09,3.2899999618530273,3.0199999809265137,3.190000057220459,3.119999885559082,168300.0,3.119999885559082
2018-11-12,3.200000047683716,3.049999952316284,3.190000057220459,3.1500000953674316,80400.0,3.1500000953674316
2018-11-13,3.2699999809265137,3.109999895095825,3.2699999809265137,3.190000057220459,246000.0,3.190000057220459
2018-11-14,3.200000047683716,2.9600000381469727,3.200000047683716,3.0999999046325684,61600.0,3.0999999046325684
2018-11-15,3.299999952316284,3.0799999237060547,3.0999999046325684,3.190000057220459,357100.0,3.190000057220459
2018-11-16,3.180000066757202,3.0199999809265137,3.1700000762939453,3.0399999618530273,145900.0,3.0399999618530273
2018-11-19,3.200000047683716,2.990000009536743,3.049999952316284,3.1500000953674316,185800.0,3.1500000953674316
2018-11-20,3.1500000953674316,2.950000047683716,3.1500000953674316,3.0,258500.0,3.0
2018-11-21,3.1600000858306885,2.9100000858306885,3.0,3.0399999618530273,87400.0,3.0399999618530273
2018-11-23,3.190000057220459,3.109999895095825,3.109999895095825,3.119999885559082,18000.0,3.119999885559082
2018-11-26,3.2899999618530273,3.069999933242798,3.130000114440918,3.1500000953674316,81400.0,3.1500000953674316
2018-11-27,3.2899999618530273,3.0999999046325684,3.119999885559082,3.190000057220459,97200.0,3.190000057220459
2018-11-28,3.2899999618530273,3.1500000953674316,3.180000066757202,3.200000047683716,84500.0,3.200000047683716
2018-11-29,3.25,3.130000114440918,3.1700000762939453,3.2200000286102295,78300.0,3.2200000286102295
2018-11-30,3.299999952316284,3.130000114440918,3.200000047683716,3.2699999809265137,72300.0,3.2699999809265137
2018-12-03,3.319999933242798,3.140000104904175,3.299999952316284,3.240000009536743,65600.0,3.240000009536743
2018-12-04,3.380000114440918,3.130000114440918,3.259999990463257,3.180000066757202,79800.0,3.180000066757202
2018-12-06,3.2100000381469727,3.049999952316284,3.069999933242798,3.069999933242798,45700.0,3.069999933242798
2018-12-07,3.2100000381469727,3.0999999046325684,3.180000066757202,3.140000104904175,85800.0,3.140000104904175
2018-12-10,3.1600000858306885,3.0,3.1500000953674316,3.0199999809265137,95600.0,3.0199999809265137
2018-12-11,3.190000057220459,3.0,3.0399999618530273,3.049999952316284,170400.0,3.049999952316284
2018-12-12,3.0999999046325684,2.990000009536743,3.049999952316284,3.0899999141693115,277800.0,3.0899999141693115
2018-12-13,3.140000104904175,2.9000000953674316,3.0299999713897705,2.9800000190734863,1038100.0,2.9800000190734863
2018-12-14,3.0999999046325684,2.9100000858306885,2.950000047683716,3.0,39000.0,3.0
2018-12-17,3.2899999618530273,2.9800000190734863,3.0,3.2300000190734863,679000.0,3.2300000190734863
2018-12-18,3.609999895095825,3.2300000190734863,3.2799999713897705,3.490000009536743,437100.0,3.490000009536743
2018-12-19,3.940000057220459,3.450000047683716,3.4700000286102295,3.9000000953674316,489100.0,3.9000000953674316
2018-12-20,4.03000020980835,3.809999942779541,3.8499999046325684,3.930000066757202,536500.0,3.930000066757202
2018-12-21,3.9000000953674316,3.359999895095825,3.880000114440918,3.390000104904175,1038600.0,3.390000104904175
2018-12-24,3.359999895095825,3.049999952316284,3.359999895095825,3.059999942779541,115200.0,3.059999942779541
2018-12-26,3.140000104904175,2.950000047683716,3.119999885559082,2.9600000381469727,181200.0,2.9600000381469727
2018-12-27,2.9600000381469727,2.630000114440918,2.9100000858306885,2.759999990463257,191500.0,2.759999990463257
2018-12-28,2.7899999618530273,2.6500000953674316,2.75,2.7899999618530273,215500.0,2.7899999618530273
2018-12-31,3.119999885559082,2.75,2.809999942779541,3.0799999237060547,256600.0,3.0799999237060547
2019-01-02,3.119999885559082,2.9000000953674316,3.009999990463257,3.109999895095825,105800.0,3.109999895095825
2019-01-03,3.0999999046325684,2.9100000858306885,2.9600000381469727,3.0299999713897705,136800.0,3.0299999713897705
2019-01-04,3.2200000286102295,3.059999942779541,3.140000104904175,3.1500000953674316,77500.0,3.1500000953674316
2019-01-07,3.299999952316284,3.180000066757202,3.180000066757202,3.240000009536743,65400.0,3.240000009536743
2019-01-08,3.4100000858306885,3.180000066757202,3.25,3.200000047683716,66000.0,3.200000047683716
2019-01-09,3.3299999237060547,3.0999999046325684,3.2100000381469727,3.190000057220459,238100.0,3.190000057220459
2019-01-10,3.309999942779541,3.1500000953674316,3.1600000858306885,3.2300000190734863,93100.0,3.2300000190734863
2019-01-11,3.309999942779541,3.109999895095825,3.25,3.1700000762939453,55700.0,3.1700000762939453
2019-01-14,3.259999990463257,3.0999999046325684,3.119999885559082,3.140000104904175,169400.0,3.140000104904175
2019-01-15,3.240000009536743,3.0899999141693115,3.0899999141693115,3.180000066757202,205500.0,3.180000066757202
2019-01-16,3.309999942779541,3.1600000858306885,3.180000066757202,3.180000066757202,75500.0,3.180000066757202
2019-01-17,3.2200000286102295,3.059999942779541,3.180000066757202,3.130000114440918,55400.0,3.130000114440918
2019-01-18,3.299999952316284,3.049999952316284,3.109999895095825,3.2799999713897705,60300.0,3.2799999713897705
2019-01-22,3.299999952316284,3.200000047683716,3.2899999618530273,3.2699999809265137,117200.0,3.2699999809265137
2019-01-23,3.380000114440918,3.1700000762939453,3.25,3.25,145700.0,3.25
2019-01-24,3.390000104904175,3.2100000381469727,3.2899999618530273,3.3299999237060547,65800.0,3.3299999237060547
2019-01-25,3.450000047683716,3.3299999237060547,3.369999885559082,3.4000000953674316,80100.0,3.4000000953674316
2019-01-28,3.490000009536743,3.369999885559082,3.390000104904175,3.390000104904175,117600.0,3.390000104904175
2019-01-29,3.4000000953674316,3.319999933242798,3.390000104904175,3.3399999141693115,57400.0,3.3399999141693115
2019-01-30,3.430000066757202,3.309999942779541,3.3399999141693115,3.369999885559082,41000.0,3.369999885559082
2019-01-31,3.450000047683716,3.3299999237060547,3.359999895095825,3.380000114440918,77200.0,3.380000114440918
2019-02-01,3.4700000286102295,3.3399999141693115,3.4700000286102295,3.390000104904175,123400.0,3.390000104904175
2019-02-04,3.490000009536743,3.3299999237060547,3.430000066757202,3.390000104904175,83000.0,3.390000104904175
2019-02-05,3.4800000190734863,3.3499999046325684,3.3499999046325684,3.390000104904175,45900.0,3.390000104904175
2019-02-06,3.4200000762939453,3.309999942779541,3.4000000953674316,3.3499999046325684,76800.0,3.3499999046325684
2019-02-07,3.390000104904175,3.299999952316284,3.309999942779541,3.3499999046325684,103100.0,3.3499999046325684
2019-02-08,3.5199999809265137,3.299999952316284,3.3399999141693115,3.4200000762939453,101100.0,3.4200000762939453
2019-02-11,3.4700000286102295,3.3399999141693115,3.390000104904175,3.440000057220459,54400.0,3.440000057220459
2019-02-12,3.4700000286102295,3.390000104904175,3.4100000858306885,3.4000000953674316,67900.0,3.4000000953674316
2019-02-13,3.450000047683716,3.200000047683716,3.380000114440918,3.240000009536743,104100.0,3.240000009536743
2019-02-14,3.3399999141693115,3.1600000858306885,3.25,3.190000057220459,113200.0,3.190000057220459
2019-02-15,3.2899999618530273,3.180000066757202,3.180000066757202,3.240000009536743,174500.0,3.240000009536743
2019-02-19,3.319999933242798,3.200000047683716,3.200000047683716,3.2799999713897705,78800.0,3.2799999713897705
2019-02-20,3.3499999046325684,3.2899999618530273,3.2899999618530273,3.3499999046325684,105000.0,3.3499999046325684
2019-02-21,3.390000104904175,3.309999942779541,3.3499999046325684,3.359999895095825,73200.0,3.359999895095825
2019-02-22,3.440000057220459,3.319999933242798,3.369999885559082,3.3499999046325684,75800.0,3.3499999046325684
2019-02-25,3.359999895095825,3.25,3.3399999141693115,3.2899999618530273,119800.0,3.2899999618530273
2019-02-26,3.369999885559082,3.2699999809265137,3.2899999618530273,3.309999942779541,115100.0,3.309999942779541
2019-02-27,3.4100000858306885,3.25,3.299999952316284,3.299999952316284,131200.0,3.299999952316284
2019-02-28,3.3499999046325684,3.2799999713897705,3.2799999713897705,3.299999952316284,52100.0,3.299999952316284
2019-03-01,3.380000114440918,3.240000009536743,3.380000114440918,3.299999952316284,45600.0,3.299999952316284
2019-03-04,3.3499999046325684,3.2699999809265137,3.299999952316284,3.309999942779541,69400.0,3.309999942779541
2019-03-05,3.3399999141693115,3.049999952316284,3.3299999237060547,3.259999990463257,89400.0,3.259999990463257
2019-03-06,3.2799999713897705,3.140000104904175,3.259999990463257,3.180000066757202,39300.0,3.180000066757202
2019-03-07,3.200000047683716,3.0999999046325684,3.1500000953674316,3.180000066757202,49900.0,3.180000066757202
2019-03-08,3.2699999809265137,3.0999999046325684,3.1700000762939453,3.2300000190734863,98700.0,3.2300000190734863
2019-03-11,3.259999990463257,3.0999999046325684,3.259999990463257,3.130000114440918,43800.0,3.130000114440918
2019-03-12,3.25,3.069999933242798,3.25,3.0999999046325684,59500.0,3.0999999046325684
2019-03-13,3.180000066757202,3.0,3.140000104904175,3.009999990463257,56400.0,3.009999990463257
2019-03-14,3.1500000953674316,2.9100000858306885,2.990000009536743,2.9800000190734863,171400.0,2.9800000190734863
2019-03-15,3.0799999237060547,2.950000047683716,2.9800000190734863,3.0,239100.0,3.0
2019-03-18,3.1600000858306885,3.0,3.0299999713897705,3.059999942779541,49400.0,3.059999942779541
2019-03-19,3.0899999141693115,2.9600000381469727,3.049999952316284,2.9700000286102295,28200.0,2.9700000286102295
2019-03-20,3.0399999618530273,2.9200000762939453,2.950000047683716,3.009999990463257,64400.0,3.009999990463257
2019-03-21,2.9700000286102295,2.930000066757202,2.9700000286102295,2.950000047683716,83600.0,2.950000047683716
2019-03-22,2.950000047683716,2.819999933242798,2.950000047683716,2.8399999141693115,57600.0,2.8399999141693115
2019-03-25,2.869999885559082,2.75,2.8499999046325684,2.799999952316284,42600.0,2.799999952316284
2019-03-26,2.9000000953674316,2.7899999618530273,2.7899999618530273,2.819999933242798,34200.0,2.819999933242798
2019-03-27,2.859999895095825,2.7799999713897705,2.8499999046325684,2.8299999237060547,32900.0,2.8299999237060547
2019-03-28,2.940000057220459,2.809999942779541,2.809999942779541,2.9100000858306885,22900.0,2.9100000858306885
2019-03-29,2.990000009536743,2.859999895095825,2.990000009536743,2.9200000762939453,76600.0,2.9200000762939453
2019-04-01,2.950000047683716,2.859999895095825,2.9100000858306885,2.9000000953674316,74300.0,2.9000000953674316
2019-04-02,2.9000000953674316,2.680000066757202,2.9000000953674316,2.7200000286102295,181800.0,2.7200000286102295
2019-04-03,2.819999933242798,2.7200000286102295,2.7300000190734863,2.759999990463257,348100.0,2.759999990463257
2019-04-04,2.799999952316284,2.740000009536743,2.799999952316284,2.759999990463257,200200.0,2.759999990463257
2019-04-05,2.940000057220459,2.740000009536743,2.8299999237060547,2.75,143600.0,2.75
2019-04-08,2.819999933242798,2.7200000286102295,2.7200000286102295,2.75,330500.0,2.75
2019-04-09,2.8499999046325684,2.75,2.75,2.7699999809265137,348800.0,2.7699999809265137
2019-04-10,2.809999942779541,2.75,2.7899999618530273,2.759999990463257,235300.0,2.759999990463257
2019-04-11,2.8499999046325684,2.75,2.759999990463257,2.7899999618530273,135200.0,2.7899999618530273
2019-04-12,2.8399999141693115,2.759999990463257,2.7799999713897705,2.799999952316284,66700.0,2.799999952316284
2019-04-15,2.869999885559082,2.75,2.799999952316284,2.759999990463257,64700.0,2.759999990463257
2019-04-16,2.8399999141693115,2.7300000190734863,2.75,2.75,154600.0,2.75
2019-04-17,2.7899999618530273,2.700000047683716,2.7699999809265137,2.7300000190734863,46600.0,2.7300000190734863
2019-04-18,2.75,2.680000066757202,2.680000066757202,2.75,37200.0,2.75
2019-04-22,2.7899999618530273,2.7200000286102295,2.75,2.75,63900.0,2.75
2019-04-23,2.759999990463257,2.7300000190734863,2.75,2.740000009536743,84900.0,2.740000009536743
2019-04-24,2.799999952316284,2.7300000190734863,2.740000009536743,2.740000009536743,66200.0,2.740000009536743
2019-04-25,2.7799999713897705,2.680000066757202,2.740000009536743,2.690000057220459,51900.0,2.690000057220459
2019-04-26,2.75,2.619999885559082,2.7100000381469727,2.6500000953674316,58600.0,2.6500000953674316
2019-04-29,2.7899999618530273,2.549999952316284,2.549999952316284,2.700000047683716,193100.0,2.700000047683716
2019-04-30,2.75,2.6500000953674316,2.7200000286102295,2.6500000953674316,102700.0,2.6500000953674316
2019-05-01,2.7200000286102295,2.5999999046325684,2.7200000286102295,2.630000114440918,160300.0,2.630000114440918
2019-05-02,2.6600000858306885,2.559999942779541,2.6500000953674316,2.630000114440918,59400.0,2.630000114440918
2019-05-03,2.6700000762939453,2.5799999237060547,2.5999999046325684,2.609999895095825,66200.0,2.609999895095825
2019-05-06,2.609999895095825,2.509999990463257,2.549999952316284,2.5899999141693115,76200.0,2.5899999141693115
2019-05-07,2.5899999141693115,2.240000009536743,2.5899999141693115,2.4700000286102295,142600.0,2.4700000286102295
2019-05-08,2.5399999618530273,2.180000066757202,2.4600000381469727,2.3299999237060547,192500.0,2.3299999237060547
2019-05-09,2.4800000190734863,2.109999895095825,2.359999895095825,2.1700000762939453,320800.0,2.1700000762939453
2019-05-10,2.2300000190734863,2.119999885559082,2.200000047683716,2.1600000858306885,95500.0,2.1600000858306885
2019-05-13,2.2799999713897705,2.140000104904175,2.2200000286102295,2.200000047683716,226800.0,2.200000047683716
2019-05-14,2.259999990463257,2.180000066757202,2.200000047683716,2.25,270600.0,2.25
2019-05-15,2.309999942779541,2.1700000762939453,2.2799999713897705,2.25,528000.0,2.25
2019-05-16,2.3499999046325684,2.240000009536743,2.2699999809265137,2.3499999046325684,515400.0,2.3499999046325684
2019-05-17,2.390000104904175,2.309999942779541,2.309999942779541,2.359999895095825,80300.0,2.359999895095825
2019-05-20,2.690000057220459,2.3499999046325684,2.3499999046325684,2.680000066757202,92200.0,2.680000066757202
2019-05-21,2.700000047683716,2.5999999046325684,2.690000057220459,2.680000066757202,56700.0,2.680000066757202
2019-05-22,2.740000009536743,2.569999933242798,2.700000047683716,2.630000114440918,67500.0,2.630000114440918
2019-05-23,2.6500000953674316,2.4700000286102295,2.5799999237060547,2.4700000286102295,27600.0,2.4700000286102295
2019-05-24,2.619999885559082,2.4600000381469727,2.5899999141693115,2.5399999618530273,98500.0,2.5399999618530273
