Date,High,Low,Open,Close,Volume,Adj Close
2015-10-01,7.400000095367432,7.400000095367432,7.400000095367432,7.400000095367432,0.0,7.313904285430908
2015-10-02,7.400000095367432,7.400000095367432,7.400000095367432,7.400000095367432,0.0,7.313904285430908
2015-10-05,7.400000095367432,7.400000095367432,7.400000095367432,7.400000095367432,0.0,7.313904285430908
2015-10-06,7.539999961853027,7.5,7.539999961853027,7.5,2600.0,7.412740707397461
2015-10-07,7.5,7.5,7.5,7.5,0.0,7.412740707397461
2015-10-08,7.5,7.5,7.5,7.5,0.0,7.412740707397461
2015-10-09,7.599999904632568,7.599999904632568,7.599999904632568,7.599999904632568,100.0,7.5115766525268555
2015-10-12,7.599999904632568,7.599999904632568,7.599999904632568,7.599999904632568,0.0,7.5115766525268555
2015-10-13,7.610000133514404,7.610000133514404,7.610000133514404,7.610000133514404,600.0,7.521461009979248
2015-10-14,7.610000133514404,7.610000133514404,7.610000133514404,7.610000133514404,0.0,7.521461009979248
2015-10-15,7.610000133514404,7.610000133514404,7.610000133514404,7.610000133514404,1200.0,7.521461009979248
2015-10-16,7.75,7.739999771118164,7.739999771118164,7.75,200.0,7.659832000732422
2015-10-19,7.75,7.75,7.75,7.75,0.0,7.659832000732422
2015-10-20,7.800000190734863,7.800000190734863,7.800000190734863,7.800000190734863,1100.0,7.709249973297119
2015-10-21,7.849999904632568,7.849999904632568,7.849999904632568,7.849999904632568,2200.0,7.758668422698975
2015-10-22,7.849999904632568,7.849999904632568,7.849999904632568,7.849999904632568,0.0,7.758668422698975
2015-10-23,7.849999904632568,7.849999904632568,7.849999904632568,7.849999904632568,0.0,7.758668422698975
2015-10-30,8.0,8.0,8.0,8.0,1100.0,7.906922817230225
2015-11-02,8.0,8.0,8.0,8.0,0.0,7.906922817230225
2015-11-03,8.0,8.0,8.0,8.0,0.0,7.906922817230225
2015-11-05,8.34000015258789,8.25,8.34000015258789,8.25,3100.0,8.154014587402344
2015-11-06,8.25,8.25,8.25,8.25,1000.0,8.154014587402344
2015-11-09,8.25,8.25,8.25,8.25,0.0,8.154014587402344
2015-11-10,8.399999618530273,8.300000190734863,8.399999618530273,8.300000190734863,400.0,8.2034330368042
2015-11-11,8.300000190734863,8.300000190734863,8.300000190734863,8.300000190734863,0.0,8.2034330368042
2015-11-12,8.350000381469727,8.350000381469727,8.350000381469727,8.350000381469727,55000.0,8.252850532531738
2015-11-13,8.5,8.399999618530273,8.399999618530273,8.5,1400.0,8.401106834411621
2015-11-16,8.5,8.5,8.5,8.5,0.0,8.401106834411621
2015-11-17,8.5,8.399999618530273,8.5,8.399999618530273,300.0,8.302268981933594
2015-11-18,8.399999618530273,8.399999618530273,8.399999618530273,8.399999618530273,0.0,8.302268981933594
2015-11-19,8.449999809265137,8.449999809265137,8.449999809265137,8.449999809265137,600.0,8.35168743133545
2015-11-20,8.449999809265137,8.449999809265137,8.449999809265137,8.449999809265137,0.0,8.35168743133545
2015-11-23,8.449999809265137,8.399999618530273,8.449999809265137,8.399999618530273,1400.0,8.302268981933594
2015-11-24,8.399999618530273,8.399999618530273,8.399999618530273,8.399999618530273,0.0,8.302268981933594
2015-11-25,8.5,8.5,8.5,8.5,11000.0,8.401106834411621
2015-11-27,8.5,8.5,8.5,8.5,0.0,8.401106834411621
2015-11-30,8.5,8.5,8.5,8.5,1000.0,8.401106834411621
2015-12-01,8.5,8.5,8.5,8.5,0.0,8.401106834411621
2015-12-02,8.5,8.5,8.5,8.5,0.0,8.401106834411621
2015-12-03,8.5,8.5,8.5,8.5,0.0,8.401106834411621
2015-12-04,8.600000381469727,8.5,8.5,8.600000381469727,2200.0,8.499942779541016
2015-12-07,8.699999809265137,8.699999809265137,8.699999809265137,8.699999809265137,1100.0,8.598779678344727
2015-12-08,8.699999809265137,8.699999809265137,8.699999809265137,8.699999809265137,0.0,8.598779678344727
2015-12-09,8.699999809265137,8.699999809265137,8.699999809265137,8.699999809265137,0.0,8.598779678344727
2015-12-10,8.800000190734863,8.800000190734863,8.800000190734863,8.800000190734863,5500.0,8.697615623474121
2015-12-11,8.699999809265137,8.699999809265137,8.699999809265137,8.699999809265137,1200.0,8.598779678344727
2015-12-15,8.699999809265137,8.699999809265137,8.699999809265137,8.699999809265137,0.0,8.598779678344727
2015-12-16,8.75,8.649999618530273,8.649999618530273,8.75,11300.0,8.648197174072266
2015-12-17,8.75,8.75,8.75,8.75,0.0,8.648197174072266
2015-12-18,8.75,8.75,8.75,8.75,0.0,8.648197174072266
2015-12-23,8.800000190734863,8.800000190734863,8.800000190734863,8.800000190734863,1000.0,8.697615623474121
2015-12-29,8.710000038146973,8.699999809265137,8.699999809265137,8.699999809265137,3600.0,8.598779678344727
2015-12-30,8.699999809265137,8.699999809265137,8.699999809265137,8.699999809265137,0.0,8.598779678344727
2016-01-12,10.0,10.0,10.0,10.0,0.0,9.88365364074707
2016-01-13,9.899999618530273,9.5,9.899999618530273,9.5,6400.0,9.389471054077148
2016-01-14,10.0,10.0,10.0,10.0,100.0,9.88365364074707
2016-01-15,9.5,9.5,9.5,9.5,100.0,9.389471054077148
2016-01-27,9.100000381469727,9.100000381469727,9.100000381469727,9.100000381469727,8000.0,8.994124412536621
2016-01-28,9.100000381469727,9.100000381469727,9.100000381469727,9.100000381469727,0.0,8.994124412536621
2016-01-29,9.100000381469727,9.100000381469727,9.100000381469727,9.100000381469727,0.0,8.994124412536621
2016-02-05,9.100000381469727,9.100000381469727,9.100000381469727,9.100000381469727,1400.0,8.994124412536621
2016-02-10,9.100000381469727,9.100000381469727,9.100000381469727,9.100000381469727,0.0,8.994124412536621
2016-02-11,9.100000381469727,9.100000381469727,9.100000381469727,9.100000381469727,0.0,8.994124412536621
2016-02-12,9.100000381469727,9.100000381469727,9.100000381469727,9.100000381469727,0.0,8.994124412536621
2016-02-26,9.449999809265137,9.449999809265137,9.449999809265137,9.449999809265137,0.0,9.34005355834961
2016-03-04,9.5,9.5,9.5,9.5,0.0,9.389471054077148
2016-03-11,9.5,9.5,9.5,9.5,0.0,9.389471054077148
2016-03-30,9.300000190734863,9.300000190734863,9.300000190734863,9.300000190734863,200.0,9.191798210144043
2016-04-07,9.399999618530273,9.399999618530273,9.399999618530273,9.399999618530273,0.0,9.290634155273438
2016-04-13,9.449999809265137,9.399999618530273,9.399999618530273,9.449999809265137,1500.0,9.34005355834961
2016-04-15,9.449999809265137,9.449999809265137,9.449999809265137,9.449999809265137,0.0,9.34005355834961
2016-04-19,9.449999809265137,9.449999809265137,9.449999809265137,9.449999809265137,0.0,9.34005355834961
2016-05-11,9.5,9.399999618530273,9.399999618530273,9.5,1300.0,9.389471054077148
2016-05-12,9.5,9.5,9.5,9.5,0.0,9.389471054077148
2016-05-13,9.5,9.5,9.5,9.5,0.0,9.389471054077148
2016-05-24,9.550000190734863,9.550000190734863,9.550000190734863,9.550000190734863,300.0,9.43889045715332
2016-05-27,9.550000190734863,9.550000190734863,9.550000190734863,9.550000190734863,0.0,9.43889045715332
2016-06-03,9.550000190734863,9.550000190734863,9.550000190734863,9.550000190734863,0.0,9.43889045715332
2016-06-28,9.489999771118164,9.489999771118164,9.489999771118164,9.489999771118164,0.0,9.379587173461914
2016-06-29,9.489999771118164,9.489999771118164,9.489999771118164,9.489999771118164,0.0,9.379587173461914
2016-07-08,9.300000190734863,9.260000228881836,9.260000228881836,9.300000190734863,2000.0,9.191798210144043
2016-07-28,9.15999984741211,9.15999984741211,9.15999984741211,9.15999984741211,0.0,9.053426742553711
2016-08-05,9.199999809265137,9.199999809265137,9.199999809265137,9.199999809265137,100.0,9.092961311340332
2016-08-12,9.199999809265137,9.199999809265137,9.199999809265137,9.199999809265137,0.0,9.092961311340332
2016-08-30,9.399999618530273,9.399999618530273,9.399999618530273,9.399999618530273,100.0,9.290634155273438
2016-09-09,9.25,9.25,9.25,9.25,0.0,9.142379760742188
2016-09-16,9.100000381469727,9.0,9.0,9.050000190734863,44900.0,8.944706916809082
2016-09-20,9.050000190734863,9.050000190734863,9.050000190734863,9.050000190734863,0.0,8.944706916809082
2016-10-11,8.800000190734863,8.800000190734863,8.800000190734863,8.800000190734863,9000.0,8.697615623474121
2016-10-19,8.949999809265137,8.949999809265137,8.949999809265137,8.949999809265137,0.0,8.845870971679688
2016-11-09,9.09000015258789,9.09000015258789,9.09000015258789,9.09000015258789,0.0,8.984241485595703
2016-11-15,9.09000015258789,9.09000015258789,9.09000015258789,9.09000015258789,0.0,8.984241485595703
2016-11-17,8.949999809265137,8.949999809265137,8.949999809265137,8.949999809265137,1600.0,8.845870971679688
2016-12-19,9.100000381469727,9.100000381469727,9.100000381469727,9.100000381469727,5500.0,8.994124412536621
2018-01-16,11.350000381469727,11.300000190734863,11.350000381469727,11.300000190734863,1600.0,11.168529510498047
2018-01-17,11.479999542236328,11.399999618530273,11.399999618530273,11.449999809265137,1700.0,11.316783905029297
2018-01-18,11.390000343322754,11.390000343322754,11.390000343322754,11.390000343322754,500.0,11.257482528686523
2018-01-19,11.390000343322754,11.390000343322754,11.390000343322754,11.390000343322754,0.0,11.257482528686523
2018-01-22,11.359999656677246,11.319999694824219,11.359999656677246,11.359999656677246,1200.0,11.22783088684082
2018-01-23,11.359999656677246,11.359999656677246,11.359999656677246,11.359999656677246,0.0,11.22783088684082
2018-01-24,11.449999809265137,11.449999809265137,11.449999809265137,11.449999809265137,500.0,11.316783905029297
2018-01-25,11.449999809265137,11.449999809265137,11.449999809265137,11.449999809265137,0.0,11.316783905029297
2018-01-26,11.449999809265137,11.449999809265137,11.449999809265137,11.449999809265137,0.0,11.316783905029297
2018-01-29,11.449999809265137,11.449999809265137,11.449999809265137,11.449999809265137,0.0,11.316783905029297
2018-01-30,11.359999656677246,11.359999656677246,11.359999656677246,11.359999656677246,400.0,11.22783088684082
2018-01-31,11.399999618530273,11.399999618530273,11.399999618530273,11.399999618530273,900.0,11.267366409301758
2018-02-01,11.399999618530273,11.399999618530273,11.399999618530273,11.399999618530273,0.0,11.267366409301758
2018-02-02,11.399999618530273,11.399999618530273,11.399999618530273,11.399999618530273,0.0,11.267366409301758
2018-02-05,11.399999618530273,11.399999618530273,11.399999618530273,11.399999618530273,0.0,11.267366409301758
2018-02-06,11.489999771118164,11.34000015258789,11.399999618530273,11.34000015258789,3800.0,11.208063125610352
2018-02-07,11.470000267028809,11.470000267028809,11.470000267028809,11.470000267028809,100.0,11.336551666259766
2018-02-08,11.420000076293945,11.350000381469727,11.420000076293945,11.369999885559082,3300.0,11.237714767456055
2018-02-09,11.390000343322754,11.350000381469727,11.359999656677246,11.390000343322754,400.0,11.257482528686523
2018-02-12,11.390000343322754,11.390000343322754,11.390000343322754,11.390000343322754,0.0,11.257482528686523
2018-02-13,11.4399995803833,11.319999694824219,11.4399995803833,11.319999694824219,3300.0,11.1882963180542
2018-02-14,11.5,11.369999885559082,11.4399995803833,11.5,83500.0,11.366202354431152
2018-02-15,11.529999732971191,11.5,11.5,11.5,10000.0,11.366202354431152
2018-02-16,11.550000190734863,11.550000190734863,11.550000190734863,11.550000190734863,2400.0,11.415619850158691
2018-02-20,11.75,11.75,11.75,11.75,100.0,11.613292694091797
2018-02-21,11.75,11.729999542236328,11.739999771118164,11.739999771118164,1500.0,11.603408813476562
2018-02-22,11.819999694824219,11.75,11.75,11.800000190734863,11000.0,11.662712097167969
2018-02-23,11.739999771118164,11.739999771118164,11.739999771118164,11.739999771118164,100.0,11.603408813476562
2018-02-26,11.739999771118164,11.739999771118164,11.739999771118164,11.739999771118164,0.0,11.603408813476562
2018-02-27,11.739999771118164,11.739999771118164,11.739999771118164,11.739999771118164,0.0,11.603408813476562
2018-02-28,11.710000038146973,11.5600004196167,11.710000038146973,11.5600004196167,1200.0,11.425504684448242
2018-03-01,11.930000305175781,11.819999694824219,11.930000305175781,11.930000305175781,2200.0,11.791199684143066
2018-03-02,11.930000305175781,11.8100004196167,11.819999694824219,11.930000305175781,600.0,11.791199684143066
2018-03-05,11.930000305175781,11.930000305175781,11.930000305175781,11.930000305175781,0.0,11.791199684143066
2018-03-06,11.65999984741211,11.65999984741211,11.65999984741211,11.65999984741211,100.0,11.52433967590332
2018-03-07,11.65999984741211,11.65999984741211,11.65999984741211,11.65999984741211,0.0,11.52433967590332
2018-03-08,11.65999984741211,11.65999984741211,11.65999984741211,11.65999984741211,600.0,11.52433967590332
2018-03-09,11.75,11.75,11.75,11.75,25900.0,11.613292694091797
2018-03-12,11.920000076293945,11.920000076293945,11.920000076293945,11.920000076293945,200.0,11.781315803527832
2018-03-13,11.920000076293945,11.920000076293945,11.920000076293945,11.920000076293945,0.0,11.781315803527832
2018-03-14,11.920000076293945,11.920000076293945,11.920000076293945,11.920000076293945,0.0,11.781315803527832
2018-03-15,11.920000076293945,11.920000076293945,11.920000076293945,11.920000076293945,0.0,11.781315803527832
2018-03-16,11.920000076293945,11.920000076293945,11.920000076293945,11.920000076293945,0.0,11.781315803527832
2018-03-19,11.930000305175781,11.279999732971191,11.930000305175781,11.770000457763672,2000.0,11.633061408996582
2018-03-20,11.800000190734863,11.779999732971191,11.789999961853027,11.800000190734863,3300.0,11.662712097167969
2018-03-21,11.899999618530273,11.850000381469727,11.850000381469727,11.899999618530273,3000.0,11.761548042297363
2018-03-22,11.90999984741211,11.90999984741211,11.90999984741211,11.90999984741211,200.0,11.771431922912598
2018-03-23,11.949999809265137,11.899999618530273,11.899999618530273,11.949999809265137,7100.0,11.810966491699219
2018-03-26,11.949999809265137,11.949999809265137,11.949999809265137,11.949999809265137,0.0,11.810966491699219
2018-03-27,11.899999618530273,11.8100004196167,11.899999618530273,11.84000015258789,500.0,11.702245712280273
2018-03-28,11.800000190734863,11.800000190734863,11.800000190734863,11.800000190734863,4200.0,11.662712097167969
2018-03-29,11.949999809265137,11.9399995803833,11.9399995803833,11.9399995803833,1000.0,11.801082611083984
2018-04-02,11.890000343322754,11.890000343322754,11.890000343322754,11.890000343322754,22000.0,11.751664161682129
2018-04-03,11.930000305175781,11.789999961853027,11.789999961853027,11.930000305175781,600.0,11.791199684143066
2018-04-04,11.930000305175781,11.930000305175781,11.930000305175781,11.930000305175781,0.0,11.791199684143066
2018-04-05,11.8100004196167,11.770000457763672,11.779999732971191,11.8100004196167,7600.0,11.672595977783203
2018-04-06,11.859999656677246,11.770000457763672,11.859999656677246,11.770000457763672,200.0,11.633061408996582
2018-04-09,11.770000457763672,11.770000457763672,11.770000457763672,11.770000457763672,0.0,11.633061408996582
2018-04-10,11.859999656677246,11.760000228881836,11.770000457763672,11.829999923706055,3300.0,11.692362785339355
2018-04-11,11.770000457763672,11.770000457763672,11.770000457763672,11.770000457763672,200.0,11.633061408996582
2018-04-12,11.949999809265137,11.770000457763672,11.770000457763672,11.90999984741211,300.0,11.771431922912598
2018-04-13,11.880000114440918,11.260000228881836,11.260000228881836,11.880000114440918,200.0,11.741780281066895
2018-04-16,11.880000114440918,11.880000114440918,11.880000114440918,11.880000114440918,0.0,11.741780281066895
2018-04-17,11.770000457763672,11.770000457763672,11.770000457763672,11.770000457763672,200.0,11.633061408996582
2018-04-18,11.770000457763672,11.770000457763672,11.770000457763672,11.770000457763672,300.0,11.633061408996582
2018-04-19,11.770000457763672,11.6899995803833,11.770000457763672,11.6899995803833,12400.0,11.553991317749023
2018-04-20,11.6899995803833,11.6899995803833,11.6899995803833,11.6899995803833,0.0,11.553991317749023
2018-04-23,11.829999923706055,11.829999923706055,11.829999923706055,11.829999923706055,200.0,11.692362785339355
2018-04-24,11.949999809265137,11.65999984741211,11.949999809265137,11.65999984741211,900.0,11.52433967590332
2018-04-25,12.0,11.619999885559082,11.619999885559082,12.0,41600.0,11.860383987426758
2018-04-26,12.100000381469727,12.0,12.0,12.100000381469727,20900.0,11.959221839904785
2018-04-27,12.100000381469727,12.100000381469727,12.100000381469727,12.100000381469727,0.0,11.959221839904785
2018-04-30,12.100000381469727,12.100000381469727,12.100000381469727,12.100000381469727,0.0,11.959221839904785
2018-05-01,12.239999771118164,12.020000457763672,12.239999771118164,12.039999961853027,5400.0,11.899919509887695
2018-05-02,12.100000381469727,12.0,12.0,12.050000190734863,1300.0,11.909802436828613
2018-05-03,12.050000190734863,12.050000190734863,12.050000190734863,12.050000190734863,0.0,11.909802436828613
2018-05-04,12.050000190734863,12.050000190734863,12.050000190734863,12.050000190734863,0.0,11.909802436828613
2018-05-07,12.15999984741211,12.069999694824219,12.069999694824219,12.15999984741211,300.0,12.018523216247559
2018-05-08,12.15999984741211,12.15999984741211,12.15999984741211,12.15999984741211,0.0,12.018523216247559
2018-05-09,12.15999984741211,12.15999984741211,12.15999984741211,12.15999984741211,0.0,12.018523216247559
2018-05-10,12.15999984741211,12.15999984741211,12.15999984741211,12.15999984741211,0.0,12.018523216247559
2018-05-11,12.15999984741211,12.15999984741211,12.15999984741211,12.15999984741211,0.0,12.018523216247559
2018-05-14,12.15999984741211,12.15999984741211,12.15999984741211,12.15999984741211,0.0,12.018523216247559
2018-05-15,12.90999984741211,12.90999984741211,12.90999984741211,12.90999984741211,300.0,12.759798049926758
2018-05-16,13.0,13.0,13.0,13.0,300.0,12.848751068115234
2018-05-17,12.5600004196167,12.40999984741211,12.529999732971191,12.5600004196167,3300.0,12.413869857788086
2018-05-18,12.5600004196167,12.5600004196167,12.5600004196167,12.5600004196167,0.0,12.413869857788086
2018-05-21,12.800000190734863,12.399999618530273,12.609999656677246,12.399999618530273,3800.0,12.255729675292969
2018-05-22,12.5600004196167,12.510000228881836,12.510000228881836,12.5600004196167,500.0,12.413869857788086
2018-05-23,12.5600004196167,12.380000114440918,12.5600004196167,12.380000114440918,1600.0,12.235963821411133
2018-05-24,12.300000190734863,12.270000457763672,12.289999961853027,12.270000457763672,600.0,12.127243995666504
2018-05-25,12.75,12.170000076293945,12.25,12.1899995803833,900.0,12.048173904418945
2018-05-29,12.260000228881836,12.170000076293945,12.1899995803833,12.1899995803833,3000.0,12.048173904418945
2018-05-30,12.270000457763672,12.199999809265137,12.270000457763672,12.199999809265137,500.0,12.09775447845459
2018-05-31,12.210000038146973,12.170000076293945,12.170000076293945,12.170000076293945,3100.0,12.068005561828613
2018-06-01,12.199999809265137,12.170000076293945,12.170000076293945,12.199999809265137,6600.0,12.09775447845459
2018-06-04,12.199999809265137,12.199999809265137,12.199999809265137,12.199999809265137,0.0,12.09775447845459
2018-06-05,12.199999809265137,12.199999809265137,12.199999809265137,12.199999809265137,0.0,12.09775447845459
2018-06-06,12.6899995803833,12.25,12.6899995803833,12.25,700.0,12.14733600616455
2018-06-07,12.569999694824219,12.270000457763672,12.270000457763672,12.569999694824219,2000.0,12.464653968811035
2018-06-08,12.569999694824219,12.550000190734863,12.550000190734863,12.550000190734863,4100.0,12.444822311401367
2018-06-11,12.550000190734863,12.550000190734863,12.550000190734863,12.550000190734863,0.0,12.444822311401367
2018-06-12,12.779999732971191,12.699999809265137,12.699999809265137,12.779999732971191,13000.0,12.672893524169922
2018-06-13,13.0,12.90999984741211,12.989999771118164,13.0,2000.0,12.891050338745117
2018-06-14,13.0,12.829999923706055,12.829999923706055,13.0,700.0,12.891050338745117
2018-06-15,13.989999771118164,13.5,13.5,13.989999771118164,1900.0,13.872753143310547
2018-06-18,15.699999809265137,12.979999542236328,13.949999809265137,15.699999809265137,5900.0,15.568422317504883
2018-06-19,15.789999961853027,13.619999885559082,15.789999961853027,15.0,8000.0,14.874289512634277
2018-06-20,15.380000114440918,13.149999618530273,15.380000114440918,13.899999618530273,13200.0,13.783507347106934
2018-06-21,15.0,13.449999809265137,14.0,15.0,12100.0,14.874289512634277
2018-06-22,14.399999618530273,13.720000267028809,14.140000343322754,13.819999694824219,7800.0,13.704178810119629
2018-06-25,14.300000190734863,13.979999542236328,14.039999961853027,14.180000305175781,8500.0,14.061161994934082
2018-06-26,14.680000305175781,13.850000381469727,14.430000305175781,14.680000305175781,1700.0,14.556971549987793
2018-06-27,14.050000190734863,13.930000305175781,14.0,13.979999542236328,2800.0,13.862836837768555
2018-06-28,14.479999542236328,14.100000381469727,14.100000381469727,14.100000381469727,3900.0,13.981832504272461
2018-06-29,14.0600004196167,13.90999984741211,13.90999984741211,14.0600004196167,800.0,13.942167282104492
2018-07-02,14.0600004196167,14.0,14.020000457763672,14.0600004196167,2100.0,13.942167282104492
2018-07-03,14.100000381469727,14.100000381469727,14.100000381469727,14.100000381469727,900.0,13.981832504272461
2018-07-05,14.050000190734863,14.050000190734863,14.050000190734863,14.050000190734863,100.0,13.9322509765625
2018-07-06,14.569999694824219,14.100000381469727,14.569999694824219,14.100000381469727,900.0,13.981832504272461
2018-07-09,14.25,14.100000381469727,14.109999656677246,14.25,5600.0,14.130574226379395
2018-07-10,14.25,14.25,14.25,14.25,0.0,14.130574226379395
2018-07-11,14.25,14.050000190734863,14.050000190734863,14.25,1400.0,14.130574226379395
2018-07-12,14.25,14.25,14.25,14.25,0.0,14.130574226379395
2018-07-13,14.09000015258789,14.050000190734863,14.09000015258789,14.050000190734863,1700.0,13.9322509765625
2018-07-16,14.529999732971191,14.050000190734863,14.5,14.050000190734863,500.0,13.9322509765625
2018-07-17,14.050000190734863,14.050000190734863,14.050000190734863,14.050000190734863,0.0,13.9322509765625
2018-07-18,14.050000190734863,14.050000190734863,14.050000190734863,14.050000190734863,0.0,13.9322509765625
2018-07-19,14.050000190734863,14.050000190734863,14.050000190734863,14.050000190734863,0.0,13.9322509765625
2018-07-20,14.0,13.5,14.0,13.5,800.0,13.386860847473145
2018-07-23,13.5,13.5,13.5,13.5,0.0,13.386860847473145
2018-07-24,14.25,13.6899995803833,14.020000457763672,14.199999809265137,4300.0,14.080992698669434
2018-07-25,14.180000305175781,13.779999732971191,14.119999885559082,14.170000076293945,11600.0,14.051244735717773
2018-07-26,14.170000076293945,14.170000076293945,14.170000076293945,14.170000076293945,0.0,14.051244735717773
2018-07-27,13.800000190734863,13.619999885559082,13.800000190734863,13.619999885559082,1000.0,13.505854606628418
2018-07-30,13.930000305175781,13.600000381469727,13.630000114440918,13.600000381469727,2200.0,13.486021041870117
2018-07-31,13.600000381469727,13.600000381469727,13.600000381469727,13.600000381469727,0.0,13.486021041870117
2018-08-01,13.619999885559082,13.600000381469727,13.600000381469727,13.619999885559082,200.0,13.505854606628418
2018-08-02,13.640000343322754,13.640000343322754,13.640000343322754,13.640000343322754,100.0,13.525686264038086
2018-08-03,13.640000343322754,13.640000343322754,13.640000343322754,13.640000343322754,0.0,13.525686264038086
2018-08-06,13.640000343322754,13.640000343322754,13.640000343322754,13.640000343322754,0.0,13.525686264038086
2018-08-07,13.649999618530273,13.649999618530273,13.649999618530273,13.649999618530273,100.0,13.535602569580078
2018-08-08,13.649999618530273,13.649999618530273,13.649999618530273,13.649999618530273,0.0,13.535602569580078
2018-08-09,14.0,14.0,14.0,14.0,300.0,13.882669448852539
2018-08-10,13.600000381469727,13.5,13.600000381469727,13.550000190734863,2900.0,13.436440467834473
2018-08-13,13.600000381469727,13.550000190734863,13.550000190734863,13.600000381469727,300.0,13.486021041870117
2018-08-14,13.5600004196167,13.510000228881836,13.5600004196167,13.510000228881836,400.0,13.436295509338379
2018-08-15,13.510000228881836,13.069999694824219,13.510000228881836,13.119999885559082,2700.0,13.048422813415527
2018-08-16,13.109999656677246,13.069999694824219,13.069999694824219,13.069999694824219,2600.0,12.998695373535156
2018-08-17,13.510000228881836,13.510000228881836,13.510000228881836,13.510000228881836,100.0,13.436295509338379
2018-08-20,13.069999694824219,13.069999694824219,13.069999694824219,13.069999694824219,1100.0,12.998695373535156
2018-08-21,13.069999694824219,13.0,13.0,13.069999694824219,700.0,12.998695373535156
2018-08-22,13.460000038146973,13.460000038146973,13.460000038146973,13.460000038146973,300.0,13.386567115783691
2018-08-23,13.529999732971191,13.460000038146973,13.529999732971191,13.489999771118164,900.0,13.416402816772461
2018-08-24,13.5600004196167,13.119999885559082,13.300000190734863,13.119999885559082,5900.0,13.048422813415527
2018-08-27,13.75,13.149999618530273,13.149999618530273,13.539999961853027,12800.0,13.466131210327148
2018-08-28,13.760000228881836,13.40999984741211,13.760000228881836,13.40999984741211,1000.0,13.336840629577637
2018-08-29,13.649999618530273,13.600000381469727,13.600000381469727,13.649999618530273,1800.0,13.575531005859375
2018-08-30,13.890000343322754,13.699999809265137,13.699999809265137,13.699999809265137,31800.0,13.62525749206543
2018-08-31,13.960000038146973,13.649999618530273,13.960000038146973,13.90999984741211,23000.0,13.834112167358398
2018-09-04,13.869999885559082,13.510000228881836,13.770000457763672,13.869999885559082,10100.0,13.794330596923828
2018-09-05,13.920000076293945,13.899999618530273,13.920000076293945,13.90999984741211,1600.0,13.834112167358398
2018-09-06,14.0,13.75,13.899999618530273,13.779999732971191,2000.0,13.704821586608887
2018-09-07,14.989999771118164,13.819999694824219,14.989999771118164,13.9399995803833,900.0,13.863948822021484
2018-09-10,14.890000343322754,14.0,14.0,14.399999618530273,17200.0,14.321438789367676
2018-09-11,15.949999809265137,14.380000114440918,14.5,15.949999809265137,29400.0,15.862983703613281
2018-09-12,15.75,14.050000190734863,14.050000190734863,15.640000343322754,17000.0,15.554675102233887
2018-09-13,15.75,15.479999542236328,15.5,15.75,16100.0,15.664074897766113
2018-09-14,15.75,14.5600004196167,15.510000228881836,15.75,19200.0,15.664074897766113
2018-09-17,16.5,15.869999885559082,16.5,15.899999618530273,12000.0,15.813255310058594
2018-09-18,15.899999618530273,15.449999809265137,15.899999618530273,15.899999618530273,12500.0,15.813255310058594
2018-09-19,16.079999923706055,15.729999542236328,15.899999618530273,15.800000190734863,12800.0,15.713801383972168
2018-09-20,16.5,15.449999809265137,16.18000030517578,15.800000190734863,24300.0,15.713801383972168
2018-09-21,15.800000190734863,13.890000343322754,15.449999809265137,13.890000343322754,48900.0,13.814221382141113
2018-09-24,14.210000038146973,13.510000228881836,14.079999923706055,13.739999771118164,9800.0,13.665040016174316
2018-09-25,13.710000038146973,13.270000457763672,13.520000457763672,13.270000457763672,9300.0,13.197604179382324
2018-09-26,13.899999618530273,13.270000457763672,13.270000457763672,13.619999885559082,1100.0,13.545695304870605
2018-09-27,13.640000343322754,13.329999923706055,13.609999656677246,13.449999809265137,28800.0,13.376622200012207
2018-09-28,13.399999618530273,13.399999618530273,13.399999618530273,13.399999618530273,500.0,13.326894760131836
2018-10-01,13.989999771118164,13.399999618530273,13.989999771118164,13.800000190734863,2200.0,13.724712371826172
2018-10-02,15.380000114440918,14.890000343322754,15.25,15.039999961853027,98400.0,14.957947731018066
2018-10-03,15.220000267028809,14.90999984741211,14.979999542236328,15.100000381469727,311900.0,15.017621040344238
2018-10-04,15.25,14.800000190734863,14.800000190734863,15.010000228881836,67200.0,14.928112030029297
2018-10-05,15.300000190734863,14.739999771118164,15.130000114440918,15.210000038146973,154000.0,15.127020835876465
2018-10-08,15.239999771118164,14.829999923706055,15.239999771118164,15.15999984741211,34500.0,15.077292442321777
2018-10-09,15.25,15.0,15.0,15.15999984741211,29900.0,15.077292442321777
2018-10-10,15.300000190734863,14.779999732971191,15.149999618530273,14.779999732971191,35600.0,14.699366569519043
2018-10-11,15.180000305175781,14.850000381469727,14.850000381469727,15.050000190734863,19800.0,14.967893600463867
2018-10-12,15.239999771118164,14.420000076293945,15.239999771118164,15.079999923706055,900.0,14.997729301452637
2018-10-15,15.199999809265137,14.8100004196167,14.819999694824219,15.199999809265137,7000.0,15.117074966430664
2018-10-16,15.149999618530273,15.010000228881836,15.020000457763672,15.010000228881836,1300.0,14.928112030029297
2018-10-17,15.109999656677246,14.84000015258789,14.880000114440918,15.0,3100.0,14.918166160583496
2018-10-18,15.050000190734863,15.0,15.0,15.050000190734863,1200.0,14.967893600463867
2018-10-19,15.079999923706055,14.800000190734863,15.079999923706055,15.0,4100.0,14.918166160583496
2018-10-22,15.0,15.0,15.0,15.0,0.0,14.918166160583496
2018-10-23,14.75,14.75,14.75,14.75,600.0,14.669529914855957
2018-10-24,14.5,14.5,14.5,14.5,100.0,14.420893669128418
2018-10-25,14.5,14.210000038146973,14.5,14.210000038146973,6200.0,14.132475852966309
2018-10-26,14.119999885559082,14.010000228881836,14.050000190734863,14.119999885559082,8100.0,14.042966842651367
2018-10-29,14.649999618530273,14.350000381469727,14.359999656677246,14.649999618530273,2700.0,14.570075035095215
2018-10-30,14.680000305175781,14.25,14.350000381469727,14.680000305175781,4400.0,14.599912643432617
2018-10-31,14.680000305175781,14.430000305175781,14.5,14.430000305175781,4500.0,14.351275444030762
2018-11-01,14.5,14.5,14.5,14.5,1800.0,14.420893669128418
2018-11-02,14.600000381469727,14.5,14.5,14.600000381469727,700.0,14.52034854888916
2018-11-05,14.600000381469727,14.380000114440918,14.600000381469727,14.489999771118164,1500.0,14.410947799682617
2018-11-06,14.510000228881836,14.510000228881836,14.510000228881836,14.510000228881836,100.0,14.430839538574219
2018-11-07,14.75,14.609999656677246,14.75,14.609999656677246,300.0,14.530293464660645
2018-11-08,14.770000457763672,14.680000305175781,14.699999809265137,14.699999809265137,2300.0,14.619802474975586
2018-11-09,14.869999885559082,14.8100004196167,14.869999885559082,14.8100004196167,5600.0,14.729203224182129
2018-11-12,14.819999694824219,14.75,14.819999694824219,14.75,3000.0,14.669529914855957
2018-11-13,14.819999694824219,14.729999542236328,14.75,14.779999732971191,25800.0,14.699366569519043
2018-11-14,14.779999732971191,14.569999694824219,14.65999984741211,14.75,700.0,14.709338188171387
2018-11-15,14.770000457763672,14.600000381469727,14.600000381469727,14.770000457763672,1500.0,14.729283332824707
2018-11-16,14.75,14.489999771118164,14.75,14.489999771118164,400.0,14.450055122375488
2018-11-19,14.75,14.630000114440918,14.630000114440918,14.75,500.0,14.709338188171387
2018-11-20,14.680000305175781,14.3100004196167,14.680000305175781,14.3100004196167,800.0,14.270551681518555
2018-11-21,14.25,14.25,14.25,14.25,400.0,14.21071720123291
2018-11-23,14.670000076293945,14.569999694824219,14.670000076293945,14.569999694824219,200.0,14.529834747314453
2018-11-26,14.569999694824219,14.449999809265137,14.569999694824219,14.5,3400.0,14.460027694702148
2018-11-27,14.619999885559082,14.329999923706055,14.5,14.539999961853027,2800.0,14.499917030334473
2018-11-28,14.699999809265137,11.789999961853027,11.789999961853027,14.699999809265137,6000.0,14.659476280212402
2018-11-29,14.699999809265137,14.699999809265137,14.699999809265137,14.699999809265137,300.0,14.659476280212402
2018-11-30,14.699999809265137,14.5,14.699999809265137,14.510000228881836,4100.0,14.470000267028809
2018-12-03,14.699999809265137,14.5,14.699999809265137,14.699999809265137,1000.0,14.659476280212402
2018-12-04,14.550000190734863,14.25,14.550000190734863,14.260000228881836,1600.0,14.22068977355957
2018-12-06,13.970000267028809,13.970000267028809,13.970000267028809,13.970000267028809,300.0,13.931488990783691
2018-12-07,13.850000381469727,13.229999542236328,13.770000457763672,13.5,4300.0,13.462784767150879
2018-12-10,13.5600004196167,13.170000076293945,13.25,13.170000076293945,1300.0,13.13369369506836
2018-12-11,13.6899995803833,13.069999694824219,13.069999694824219,13.539999961853027,2800.0,13.502674102783203
2018-12-12,13.529999732971191,13.510000228881836,13.529999732971191,13.510000228881836,1400.0,13.472757339477539
2018-12-13,13.479999542236328,13.479999542236328,13.479999542236328,13.479999542236328,100.0,13.442838668823242
2018-12-14,13.34000015258789,13.34000015258789,13.34000015258789,13.34000015258789,100.0,13.30322551727295
2018-12-17,13.180000305175781,12.899999618530273,12.899999618530273,13.010000228881836,5000.0,12.974135398864746
2018-12-18,13.289999961853027,12.460000038146973,13.289999961853027,12.470000267028809,7300.0,12.435624122619629
2018-12-19,12.779999732971191,12.420000076293945,12.479999542236328,12.420000076293945,5900.0,12.385761260986328
2018-12-20,12.699999809265137,12.050000190734863,12.380000114440918,12.119999885559082,13100.0,12.086588859558105
2018-12-21,12.229999542236328,11.949999809265137,11.949999809265137,12.0,15000.0,11.9669189453125
2018-12-24,12.3100004196167,11.949999809265137,11.949999809265137,12.3100004196167,2100.0,12.2760648727417
2018-12-26,12.109999656677246,11.640000343322754,11.979999542236328,11.75,7200.0,11.717608451843262
2018-12-27,12.050000190734863,11.6899995803833,11.920000076293945,11.75,3700.0,11.717608451843262
2018-12-28,11.869999885559082,11.279999732971191,11.279999732971191,11.869999885559082,700.0,11.83727741241455
2018-12-31,11.979999542236328,11.550000190734863,11.6899995803833,11.84000015258789,9200.0,11.807360649108887
2019-01-02,12.369999885559082,12.0,12.0,12.369999885559082,14600.0,12.335899353027344
2019-01-03,12.449999809265137,11.819999694824219,11.819999694824219,12.449999809265137,600.0,12.415678977966309
2019-01-04,12.5,12.3100004196167,12.5,12.5,3700.0,12.465540885925293
2019-01-07,12.760000228881836,12.75,12.760000228881836,12.760000228881836,700.0,12.724824905395508
2019-01-08,13.199999809265137,12.539999961853027,12.539999961853027,13.199999809265137,500.0,13.16361141204834
2019-01-09,13.279999732971191,13.279999732971191,13.279999732971191,13.279999732971191,600.0,13.243391036987305
2019-01-10,13.279999732971191,13.279999732971191,13.279999732971191,13.279999732971191,200.0,13.243391036987305
2019-01-11,13.289999961853027,12.800000190734863,12.800000190734863,13.289999961853027,3500.0,13.253363609313965
2019-01-14,13.229999542236328,13.170000076293945,13.170000076293945,13.229999542236328,1600.0,13.193528175354004
2019-01-15,13.229999542236328,13.229999542236328,13.229999542236328,13.229999542236328,0.0,13.193528175354004
2019-01-16,13.630000114440918,13.300000190734863,13.300000190734863,13.630000114440918,13600.0,13.592426300048828
2019-01-17,13.920000076293945,13.34000015258789,13.550000190734863,13.34000015258789,9300.0,13.30322551727295
2019-01-18,13.979999542236328,13.109999656677246,13.34000015258789,13.5,10600.0,13.462784767150879
2019-01-22,13.5,12.869999885559082,13.300000190734863,13.199999809265137,4200.0,13.16361141204834
2019-01-23,13.199999809265137,13.199999809265137,13.199999809265137,13.199999809265137,0.0,13.16361141204834
2019-01-24,13.229999542236328,13.0600004196167,13.0600004196167,13.229999542236328,400.0,13.193528175354004
2019-01-25,13.579999923706055,13.329999923706055,13.579999923706055,13.329999923706055,1800.0,13.293252944946289
2019-01-28,13.140000343322754,13.010000228881836,13.010000228881836,13.140000343322754,700.0,13.103776931762695
2019-01-29,13.140000343322754,13.140000343322754,13.140000343322754,13.140000343322754,100.0,13.103776931762695
2019-01-30,13.539999961853027,13.25,13.539999961853027,13.479999542236328,1400.0,13.442838668823242
2019-01-31,13.479999542236328,13.479999542236328,13.479999542236328,13.479999542236328,100.0,13.442838668823242
2019-02-01,13.4399995803833,13.300000190734863,13.300000190734863,13.4399995803833,400.0,13.402949333190918
2019-02-04,13.75,13.399999618530273,13.399999618530273,13.75,1300.0,13.712095260620117
2019-02-05,13.75,13.75,13.75,13.75,0.0,13.712095260620117
2019-02-06,13.800000190734863,13.739999771118164,13.75,13.75,5500.0,13.712095260620117
2019-02-07,13.949999809265137,13.510000228881836,13.510000228881836,13.949999809265137,2200.0,13.911543846130371
2019-02-08,13.949999809265137,13.949999809265137,13.949999809265137,13.949999809265137,900.0,13.911543846130371
2019-02-11,13.899999618530273,13.84000015258789,13.84000015258789,13.84000015258789,1000.0,13.801847457885742
2019-02-12,14.050000190734863,14.039999961853027,14.039999961853027,14.050000190734863,2300.0,14.011268615722656
2019-02-13,14.229999542236328,13.930000305175781,13.930000305175781,14.229999542236328,800.0,14.190771102905273
2019-02-14,14.1899995803833,13.960000038146973,13.960000038146973,14.020000457763672,3300.0,13.981350898742676
2019-02-15,14.350000381469727,14.0,14.239999771118164,14.300000190734863,10800.0,14.260579109191895
2019-02-19,14.300000190734863,14.300000190734863,14.300000190734863,14.300000190734863,100.0,14.260579109191895
2019-02-20,14.5,14.3100004196167,14.399999618530273,14.399999618530273,3200.0,14.360302925109863
2019-02-21,14.420000076293945,14.399999618530273,14.399999618530273,14.420000076293945,200.0,14.380248069763184
2019-02-22,14.479999542236328,14.4399995803833,14.479999542236328,14.4399995803833,100900.0,14.400192260742188
2019-02-25,15.029999732971191,14.850000381469727,15.029999732971191,14.960000038146973,900.0,14.9187593460083
2019-02-26,14.510000228881836,14.510000228881836,14.510000228881836,14.510000228881836,300.0,14.470000267028809
2019-02-27,14.510000228881836,14.510000228881836,14.510000228881836,14.510000228881836,100.0,14.510000228881836
2019-02-28,14.970000267028809,14.949999809265137,14.970000267028809,14.949999809265137,500.0,14.949999809265137
2019-03-01,14.75,14.609999656677246,14.609999656677246,14.75,600.0,14.75
2019-03-04,14.8100004196167,14.619999885559082,14.8100004196167,14.710000038146973,1600.0,14.710000038146973
2019-03-05,14.619999885559082,14.619999885559082,14.619999885559082,14.619999885559082,100.0,14.619999885559082
2019-03-06,14.65999984741211,14.65999984741211,14.65999984741211,14.65999984741211,2000.0,14.65999984741211
2019-03-07,14.350000381469727,14.15999984741211,14.199999809265137,14.350000381469727,600.0,14.350000381469727
2019-03-08,14.010000228881836,14.010000228881836,14.010000228881836,14.010000228881836,800.0,14.010000228881836
2019-03-11,14.399999618530273,14.09000015258789,14.399999618530273,14.260000228881836,5600.0,14.260000228881836
2019-03-12,14.300000190734863,14.199999809265137,14.279999732971191,14.199999809265137,38700.0,14.199999809265137
2019-03-13,14.279999732971191,14.119999885559082,14.130000114440918,14.119999885559082,14600.0,14.119999885559082
2019-03-14,14.130000114440918,13.9399995803833,13.970000267028809,14.050000190734863,6400.0,14.050000190734863
2019-03-15,15.0,13.279999732971191,13.829999923706055,15.0,31200.0,15.0
2019-03-18,14.9399995803833,14.25,14.359999656677246,14.9399995803833,1600.0,14.9399995803833
2019-03-19,14.880000114440918,14.300000190734863,14.350000381469727,14.880000114440918,50900.0,14.880000114440918
2019-03-20,14.3100004196167,14.3100004196167,14.3100004196167,14.3100004196167,200.0,14.3100004196167
2019-03-21,14.460000038146973,14.399999618530273,14.460000038146973,14.399999618530273,2100.0,14.399999618530273
2019-03-22,14.40999984741211,14.010000228881836,14.40999984741211,14.100000381469727,6500.0,14.100000381469727
2019-03-25,14.130000114440918,13.670000076293945,14.130000114440918,13.670000076293945,600.0,13.670000076293945
2019-03-26,14.329999923706055,13.949999809265137,13.949999809265137,14.329999923706055,300.0,14.329999923706055
2019-03-27,14.430000305175781,14.210000038146973,14.34000015258789,14.430000305175781,3500.0,14.430000305175781
2019-03-28,14.430000305175781,14.430000305175781,14.430000305175781,14.430000305175781,100.0,14.430000305175781
2019-03-29,14.600000381469727,14.3100004196167,14.449999809265137,14.3100004196167,57300.0,14.3100004196167
2019-03-29,14.600000381469727,14.3100004196167,14.449999809265137,14.3100004196167,57328.0,14.3100004196167
