Date,High,Low,Open,Close,Volume,Adj Close
2015-01-02,100.13999938964844,99.68000030517578,99.9800033569336,100.11000061035156,4039.0,98.80323028564453
2015-01-05,25.02750015258789,25.02750015258789,25.02750015258789,25.02750015258789,0.0,24.700807571411133
2015-01-06,100.04000091552734,100.02400207519531,100.04000091552734,100.02799987792969,982.0,98.7223129272461
2015-01-07,25.00749969482422,25.00749969482422,25.00749969482422,25.00749969482422,400.0,24.681068420410156
2015-01-08,25.00749969482422,25.00749969482422,25.00749969482422,25.00749969482422,0.0,24.681068420410156
2015-01-09,100.05000305175781,100.05000305175781,100.05000305175781,100.05000305175781,295.0,98.74401092529297
2015-01-12,100.19999694824219,100.1989974975586,100.1989974975586,100.19999694824219,433.0,98.89208221435547
2015-01-13,100.0999984741211,100.0999984741211,100.0999984741211,100.0999984741211,144.0,98.79337310791016
2015-01-14,99.97010040283203,99.97010040283203,99.97010040283203,99.97010040283203,115.0,98.6651611328125
2015-01-15,100.2699966430664,100.11000061035156,100.11000061035156,100.2699966430664,1071.0,98.96113586425781
2015-01-16,25.065000534057617,25.065000534057617,25.065000534057617,25.065000534057617,400.0,24.73781967163086
2015-01-20,100.26000213623047,100.1500015258789,100.26000213623047,100.1500015258789,472.0,98.84271240234375
2015-01-21,100.23999786376953,100.23999786376953,100.23999786376953,100.23999786376953,324.0,98.93153381347656
2015-01-22,25.059999465942383,25.059999465942383,25.059999465942383,25.059999465942383,0.0,24.73288345336914
2015-01-23,25.020000457763672,25.020000457763672,25.020000457763672,25.020000457763672,0.0,24.693408966064453
2015-01-26,25.017499923706055,25.017499923706055,25.017499923706055,25.017499923706055,0.0,24.69093894958496
2015-01-27,100.3550033569336,100.30000305175781,100.30999755859375,100.3550033569336,703.0,99.04505157470703
2015-01-28,25.0887508392334,25.0887508392334,25.0887508392334,25.0887508392334,0.0,24.761262893676758
2015-01-29,100.12999725341797,100.12999725341797,100.12999725341797,100.12999725341797,219.0,98.82295989990234
2015-01-30,25.032499313354492,25.032499313354492,25.032499313354492,25.032499313354492,0.0,24.705739974975586
2015-02-02,100.14800262451172,100.14800262451172,100.14800262451172,100.14800262451172,200.0,99.03567504882812
2015-02-03,100.30000305175781,100.30000305175781,100.30000305175781,100.30000305175781,152692.0,99.18599700927734
2015-02-04,100.22000122070312,100.02999877929688,100.02999877929688,100.22000122070312,46323.0,99.10684967041016
2015-02-05,100.0999984741211,100.05000305175781,100.0999984741211,100.05000305175781,538.0,98.93876647949219
2015-02-06,100.18599700927734,100.1500015258789,100.1500015258789,100.18599700927734,365.0,99.0732421875
2015-02-09,100.51000213623047,100.13999938964844,100.16000366210938,100.51000213623047,7455.0,99.3936538696289
2015-02-10,100.5199966430664,100.5,100.5199966430664,100.5,291.0,99.3837661743164
2015-02-11,100.4000015258789,100.27999877929688,100.27999877929688,100.4000015258789,966.0,99.28488159179688
2015-02-12,25.100000381469727,25.100000381469727,25.100000381469727,25.100000381469727,0.0,24.82122039794922
2015-02-13,100.5999984741211,100.45999908447266,100.45999908447266,100.5999984741211,828.0,99.48265838623047
2015-02-17,25.149999618530273,25.149999618530273,25.149999618530273,25.149999618530273,0.0,24.870664596557617
2015-02-18,101.2699966430664,100.56999969482422,100.56999969482422,101.0,9302.0,99.87820434570312
2015-02-19,101.29000091552734,101.29000091552734,101.29000091552734,101.29000091552734,1011.0,100.16500091552734
2015-02-20,101.35900115966797,100.13999938964844,101.3499984741211,101.30999755859375,2098.0,100.18476104736328
2015-02-23,101.30999755859375,100.3030014038086,100.3030014038086,101.30999755859375,540.0,100.18476104736328
2015-02-24,101.37799835205078,100.13999938964844,100.1500015258789,101.37799835205078,563.0,100.25199890136719
2015-02-25,100.99299621582031,100.95600128173828,100.95600128173828,100.99299621582031,529.0,99.87129974365234
2015-02-26,101.11000061035156,100.23999786376953,100.23999786376953,101.11000061035156,1232.0,99.98699188232422
2015-02-27,100.91999816894531,100.20999908447266,100.20999908447266,100.91999816894531,292.0,99.7990951538086
2015-03-02,25.229999542236328,25.229999542236328,25.229999542236328,25.229999542236328,0.0,24.96380615234375
2015-03-03,25.010000228881836,25.010000228881836,25.010000228881836,25.010000228881836,0.0,24.74612808227539
2015-03-04,25.014999389648438,25.014999389648438,25.014999389648438,25.014999389648438,0.0,24.751068115234375
2015-03-05,25.020000457763672,25.020000457763672,25.020000457763672,25.020000457763672,0.0,24.756019592285156
2015-03-06,100.6240005493164,100.6240005493164,100.6240005493164,100.6240005493164,145.0,99.56233215332031
2015-03-09,25.1560001373291,25.1560001373291,25.1560001373291,25.1560001373291,0.0,24.890583038330078
2015-03-10,25.13249969482422,25.045000076293945,25.13249969482422,25.045000076293945,2800.0,24.7807559967041
2015-03-11,100.32499694824219,100.32499694824219,100.32499694824219,100.32499694824219,246.0,99.26649475097656
2015-03-12,25.081249237060547,25.081249237060547,25.081249237060547,25.081249237060547,0.0,24.81662368774414
2015-03-13,100.54000091552734,100.3479995727539,100.50499725341797,100.54000091552734,473.0,99.4792251586914
2015-03-16,25.135000228881836,25.135000228881836,25.135000228881836,25.135000228881836,0.0,24.86980628967285
2015-03-17,100.52999877929688,100.52999877929688,100.52999877929688,100.52999877929688,211.0,99.4693374633789
2015-03-18,25.13249969482422,25.13249969482422,25.13249969482422,25.13249969482422,0.0,24.867334365844727
2015-03-19,100.41000366210938,100.05000305175781,100.05000305175781,100.4020004272461,1594.0,99.3426742553711
2015-03-20,100.76000213623047,100.76000213623047,100.76000213623047,100.76000213623047,132.0,99.69690704345703
2015-03-23,25.137500762939453,25.137500762939453,25.137500762939453,25.137500762939453,800.0,24.87228012084961
2015-03-24,100.73999786376953,100.63999938964844,100.73999786376953,100.63999938964844,361.0,99.57818603515625
2015-03-25,25.15999984741211,25.15999984741211,25.15999984741211,25.15999984741211,0.0,24.894546508789062
2015-03-26,24.969999313354492,24.969999313354492,24.969999313354492,24.969999313354492,0.0,24.706546783447266
2015-03-27,100.70999908447266,100.61599731445312,100.70999908447266,100.70999908447266,932.0,99.64743041992188
2015-03-30,100.76000213623047,100.55000305175781,100.76000213623047,100.55000305175781,331.0,99.48912048339844
2015-03-31,100.75,100.75,100.75,100.75,223.0,99.68699645996094
2015-04-01,100.79000091552734,100.66000366210938,100.79000091552734,100.66000366210938,750.0,99.66207885742188
2015-04-02,25.165000915527344,25.165000915527344,25.165000915527344,25.165000915527344,0.0,24.91551971435547
2015-04-06,100.83499908447266,100.70999908447266,100.70999908447266,100.83499908447266,343.0,99.83533477783203
2015-04-07,25.208749771118164,25.208749771118164,25.208749771118164,25.208749771118164,0.0,24.958833694458008
2015-04-08,100.81099700927734,100.80000305175781,100.80899810791016,100.81099700927734,449.0,99.81159973144531
2015-04-09,100.81999969482422,100.81999969482422,100.81999969482422,100.81999969482422,386.0,99.82048034667969
2015-04-10,25.204999923706055,25.204999923706055,25.204999923706055,25.204999923706055,0.0,24.955120086669922
2015-04-13,25.212499618530273,25.212499618530273,25.212499618530273,25.212499618530273,2400.0,24.962547302246094
2015-04-14,100.88700103759766,100.87999725341797,100.88700103759766,100.87999725341797,1029.0,99.8798828125
2015-04-15,100.9000015258789,100.66000366210938,100.69000244140625,100.9000015258789,5595.0,99.8996810913086
2015-04-16,100.81999969482422,100.81999969482422,100.81999969482422,100.81999969482422,132.0,99.82048034667969
2015-04-17,25.1875,25.165000915527344,25.1875,25.165000915527344,3200.0,24.91551971435547
2015-04-20,100.86000061035156,100.74400329589844,100.86000061035156,100.74500274658203,508.0,99.7462387084961
2015-04-21,100.87999725341797,100.87999725341797,100.87999725341797,100.87999725341797,1164.0,99.8798828125
2015-04-22,100.86000061035156,100.75,100.86000061035156,100.83000183105469,5933.0,99.83038330078125
2015-04-23,25.207500457763672,25.207500457763672,25.207500457763672,25.207500457763672,0.0,24.957595825195312
2015-04-24,100.94000244140625,100.55000305175781,100.94000244140625,100.87999725341797,668.0,99.8798828125
2015-04-27,25.235000610351562,25.219999313354492,25.235000610351562,25.219999313354492,1200.0,24.969970703125
2015-04-28,25.212499618530273,25.162500381469727,25.212499618530273,25.1875,22400.0,24.937795639038086
2015-04-29,100.87000274658203,100.7300033569336,100.7300033569336,100.87000274658203,981.0,99.8699951171875
2015-04-30,100.71199798583984,100.5,100.5,100.71199798583984,5178.0,99.71356201171875
2015-05-01,25.12299919128418,25.12299919128418,25.12299919128418,25.12299919128418,2000.0,24.877744674682617
2015-05-04,100.6500015258789,100.6500015258789,100.6500015258789,100.6500015258789,110.0,99.66743469238281
2015-05-05,100.86000061035156,100.69000244140625,100.86000061035156,100.69000244140625,853.0,99.70701599121094
2015-05-06,100.62999725341797,100.44000244140625,100.44000244140625,100.62999725341797,393.0,99.64763641357422
2015-05-07,25.157499313354492,25.157499313354492,25.157499313354492,25.157499313354492,0.0,24.911909103393555
2015-05-08,25.157499313354492,25.157499313354492,25.157499313354492,25.157499313354492,0.0,24.911909103393555
2015-05-11,100.47000122070312,100.44999694824219,100.45999908447266,100.45999908447266,845.0,99.47929382324219
2015-05-12,100.67900085449219,100.55999755859375,100.55999755859375,100.65599822998047,2388.0,99.67337036132812
2015-05-13,100.72000122070312,100.58200073242188,100.58200073242188,100.70999908447266,829.0,99.72685241699219
2015-05-14,100.70999908447266,100.70999908447266,100.70999908447266,100.70999908447266,134.0,99.72685241699219
2015-05-15,25.184999465942383,25.172500610351562,25.172500610351562,25.172500610351562,3600.0,24.926753997802734
2015-05-18,100.70999908447266,100.70999908447266,100.70999908447266,100.70999908447266,128.0,99.72685241699219
2015-05-19,100.69999694824219,100.44000244140625,100.45999908447266,100.44999694824219,1098.0,99.4693832397461
2015-05-20,100.76000213623047,100.52100372314453,100.69999694824219,100.76000213623047,1787.0,99.77635955810547
2015-05-21,25.25,25.06999969482422,25.25,25.06999969482422,1285.0,24.825260162353516
2015-05-22,25.270000457763672,25.059999465942383,25.059999465942383,25.270000457763672,1599.0,25.023311614990234
2015-05-26,25.190000534057617,25.190000534057617,25.190000534057617,25.190000534057617,270.0,24.944089889526367
2015-05-27,25.280000686645508,25.165000915527344,25.18000030517578,25.280000686645508,6247.0,25.03321075439453
2015-05-28,25.131000518798828,25.11400032043457,25.11400032043457,25.131000518798828,700.0,24.88566780090332
2015-05-29,25.06999969482422,25.06999969482422,25.06999969482422,25.06999969482422,100.0,24.825260162353516
2015-06-01,25.15999984741211,25.15999984741211,25.15999984741211,25.15999984741211,200.0,24.928298950195312
2015-06-02,25.18000030517578,25.145000457763672,25.149999618530273,25.179000854492188,3500.0,24.947126388549805
2015-06-03,25.190000534057617,25.07900047302246,25.07900047302246,25.190000534057617,1300.0,24.958017349243164
2015-06-04,25.190000534057617,25.149999618530273,25.149999618530273,25.190000534057617,301.0,24.958017349243164
2015-06-05,25.260000228881836,25.200000762939453,25.260000228881836,25.200000762939453,600.0,24.96792984008789
2015-06-08,26.440000534057617,25.030000686645508,26.440000534057617,25.200000762939453,7900.0,24.96792984008789
2015-06-09,25.17799949645996,25.1200008392334,25.170000076293945,25.142000198364258,2700.0,24.910459518432617
2015-06-10,25.6299991607666,25.1200008392334,25.200000762939453,25.229999542236328,15100.0,24.997650146484375
2015-06-11,25.239999771118164,25.190000534057617,25.190000534057617,25.239999771118164,3400.0,25.00756072998047
2015-06-12,25.200000762939453,25.149999618530273,25.150999069213867,25.165000915527344,5500.0,24.933252334594727
2015-06-15,25.215999603271484,25.0,25.149999618530273,25.0,5400.0,24.769775390625
2015-06-16,25.239999771118164,25.14900016784668,25.239999771118164,25.239999771118164,1500.0,25.00756072998047
2015-06-17,25.249900817871094,25.209999084472656,25.229999542236328,25.218700408935547,17967.0,24.98645782470703
2015-06-18,25.239999771118164,25.15999984741211,25.219999313354492,25.219999313354492,15200.0,24.98774528503418
2015-06-19,25.200000762939453,25.15999984741211,25.200000762939453,25.15999984741211,604.0,24.928298950195312
2015-06-22,26.350000381469727,25.186800003051758,25.56999969482422,25.200000762939453,1641.0,24.96792984008789
2015-06-23,25.25,25.200000762939453,25.200000762939453,25.20680046081543,6246.0,24.974668502807617
2015-06-24,25.260000228881836,25.200000762939453,25.260000228881836,25.229999542236328,8800.0,24.997650146484375
2015-06-25,25.219999313354492,25.209999084472656,25.219999313354492,25.209999084472656,2700.0,24.977834701538086
2015-06-26,25.170000076293945,25.170000076293945,25.170000076293945,25.170000076293945,4000.0,24.93820571899414
2015-06-29,25.18000030517578,25.040000915527344,25.139999389648438,25.18000030517578,2600.0,24.948108673095703
2015-06-30,25.18000030517578,25.173999786376953,25.173999786376953,25.18000030517578,600.0,24.948108673095703
2015-07-01,25.34000015258789,25.10099983215332,25.34000015258789,25.149999618530273,24700.0,24.93301773071289
2015-07-02,25.229999542236328,25.1200008392334,25.155000686645508,25.149999618530273,42893.0,24.93301773071289
2015-07-06,25.190000534057617,25.0,25.0,25.15999984741211,34685.0,24.94293212890625
2015-07-07,25.170000076293945,25.079999923706055,25.16200065612793,25.079999923706055,6500.0,24.863624572753906
2015-07-08,25.170000076293945,25.100000381469727,25.170000076293945,25.100000381469727,9000.0,24.883451461791992
2015-07-09,25.15999984741211,25.1200008392334,25.149999618530273,25.15999984741211,11700.0,24.94293212890625
2015-07-10,25.170000076293945,25.100000381469727,25.149999618530273,25.12299919128418,13500.0,24.906251907348633
2015-07-13,25.1299991607666,25.09000015258789,25.114999771118164,25.110000610351562,11800.0,24.893362045288086
2015-07-14,25.139999389648438,25.104000091552734,25.104000091552734,25.1200008392334,1300.0,24.903278350830078
2015-07-15,25.1299991607666,25.1299991607666,25.1299991607666,25.1299991607666,2100.0,24.91319465637207
2015-07-16,25.1299991607666,25.110000610351562,25.110000610351562,25.12700080871582,3300.0,24.91021728515625
2015-07-17,25.1200008392334,25.110000610351562,25.114999771118164,25.1200008392334,3500.0,24.903278350830078
2015-07-20,25.1299991607666,25.090099334716797,25.1299991607666,25.110000610351562,13574.0,24.893362045288086
2015-07-21,25.110000610351562,25.09000015258789,25.110000610351562,25.09000015258789,3900.0,24.87353515625
2015-07-22,25.1299991607666,25.09980010986328,25.100000381469727,25.1299991607666,26187.0,24.91319465637207
2015-07-23,25.1299991607666,25.108999252319336,25.1299991607666,25.110000610351562,1100.0,24.893362045288086
2015-07-24,25.1299991607666,25.100000381469727,25.100000381469727,25.110000610351562,8963.0,24.893362045288086
2015-07-27,25.110000610351562,25.106000900268555,25.110000610351562,25.110000610351562,5000.0,24.893362045288086
2015-07-28,25.1299991607666,25.121000289916992,25.121000289916992,25.128000259399414,1800.0,24.911205291748047
2015-07-29,25.1299991607666,25.110000610351562,25.1299991607666,25.1299991607666,2400.0,24.91319465637207
2015-07-30,25.1299991607666,25.1200008392334,25.1200008392334,25.1299991607666,87142.0,24.91319465637207
2015-07-31,25.139999389648438,25.1299991607666,25.1299991607666,25.139999389648438,3100.0,24.923105239868164
2015-08-03,25.139999389648438,25.1200008392334,25.139999389648438,25.1200008392334,1800.0,24.917083740234375
2015-08-04,25.139999389648438,25.09000015258789,25.139999389648438,25.100000381469727,5900.0,24.897245407104492
2015-08-05,25.110000610351562,25.100000381469727,25.110000610351562,25.110000610351562,1300.0,24.90716552734375
2015-08-06,25.110000610351562,25.06999969482422,25.079999923706055,25.079999923706055,3200.0,24.87740707397461
2015-08-07,25.110000610351562,25.110000610351562,25.110000610351562,25.110000610351562,300.0,24.90716552734375
2015-08-10,25.110000610351562,25.100000381469727,25.100000381469727,25.110000610351562,4300.0,24.90716552734375
2015-08-11,25.110000610351562,25.110000610351562,25.110000610351562,25.110000610351562,0.0,24.90716552734375
2015-08-12,25.104999542236328,25.09000015258789,25.100000381469727,25.09000015258789,2122.0,24.887327194213867
2015-08-13,25.09000015258789,25.06999969482422,25.079999923706055,25.06999969482422,6304.0,24.86748695373535
2015-08-14,25.05970001220703,25.05120086669922,25.05120086669922,25.05970001220703,1238.0,24.857271194458008
2015-08-17,25.079999923706055,25.06999969482422,25.06999969482422,25.079999923706055,5894.0,24.87740707397461
2015-08-18,25.06999969482422,25.069499969482422,25.06999969482422,25.06999969482422,2151.0,24.86748695373535
2015-08-19,25.09000015258789,25.060100555419922,25.060100555419922,25.09000015258789,4597.0,24.887327194213867
2015-08-20,25.07710075378418,25.06999969482422,25.06999969482422,25.07710075378418,1789.0,24.87453269958496
2015-08-21,25.07990074157715,25.030500411987305,25.076000213623047,25.030500411987305,2609.0,24.82830810546875
2015-08-24,25.190000534057617,25.020000457763672,25.020000457763672,25.1289005279541,3443.0,24.925914764404297
2015-08-25,25.17959976196289,25.17959976196289,25.17959976196289,25.17959976196289,268.0,24.9762020111084
2015-08-26,25.1564998626709,25.040000915527344,25.1564998626709,25.040000915527344,16022.0,24.837736129760742
2015-08-27,25.149999618530273,25.040000915527344,25.149999618530273,25.040000915527344,11880.0,24.837736129760742
2015-08-28,25.118999481201172,25.061199188232422,25.061199188232422,25.118999481201172,1233.0,24.91609001159668
2015-08-31,25.1299991607666,25.110000610351562,25.110000610351562,25.1200008392334,2953.0,24.917083740234375
2015-09-01,25.129899978637695,25.079999923706055,25.129899978637695,25.09000015258789,1132.0,24.901018142700195
2015-09-02,25.059999465942383,25.010000228881836,25.010000228881836,25.040000915527344,695.0,24.851394653320312
2015-09-03,25.13800048828125,25.0408992767334,25.0408992767334,25.13800048828125,2558.0,24.948652267456055
2015-09-04,25.170000076293945,25.066999435424805,25.066999435424805,25.170000076293945,3829.0,24.980417251586914
2015-09-08,25.145000457763672,25.079999923706055,25.139999389648438,25.079999923706055,3875.0,24.891094207763672
2015-09-09,25.1200008392334,25.087200164794922,25.100000381469727,25.118999481201172,5816.0,24.92979621887207
2015-09-10,25.1200008392334,25.04010009765625,25.04010009765625,25.099700927734375,1234.0,24.9106388092041
2015-09-11,25.1299991607666,25.049999237060547,25.049999237060547,25.110000610351562,8160.0,24.92086410522461
2015-09-14,25.1299991607666,25.082000732421875,25.082000732421875,25.1289005279541,1573.0,24.939620971679688
2015-09-15,25.1299991607666,25.04010009765625,25.1299991607666,25.09000015258789,11625.0,24.901018142700195
2015-09-16,25.1299991607666,25.05430030822754,25.1200008392334,25.1200008392334,11383.0,24.930788040161133
2015-09-17,25.1200008392334,25.059999465942383,25.098400115966797,25.059999465942383,961.0,24.87124252319336
2015-09-18,25.149999618530273,25.128299713134766,25.149900436401367,25.1299991607666,2709.0,24.940715789794922
2015-09-21,25.15999984741211,25.105199813842773,25.149999618530273,25.139999389648438,8641.0,24.950639724731445
2015-09-22,25.149999618530273,25.1299991607666,25.149999618530273,25.135000228881836,2031.0,24.945674896240234
2015-09-23,25.15999984741211,25.116500854492188,25.1200008392334,25.1200008392334,5907.0,24.930788040161133
2015-09-24,25.200000762939453,25.129600524902344,25.200000762939453,25.1299991607666,4314.0,24.940715789794922
2015-09-25,25.149999618530273,25.100000381469727,25.139999389648438,25.139999389648438,7500.0,24.950639724731445
2015-09-28,25.149999618530273,25.1200008392334,25.1200008392334,25.149999618530273,615.0,24.96056365966797
2015-09-29,25.15999984741211,25.1200008392334,25.143400192260742,25.1200008392334,121905.0,24.930788040161133
2015-09-30,25.159900665283203,25.110000610351562,25.13990020751953,25.159900665283203,1623.0,24.970386505126953
2015-10-01,25.139999389648438,25.110000610351562,25.139999389648438,25.139999389648438,11974.0,24.964025497436523
2015-10-02,25.25,25.110000610351562,25.25,25.147499084472656,5958.0,24.97147560119629
2015-10-05,25.15999984741211,25.09000015258789,25.090099334716797,25.139999389648438,5077.0,24.964025497436523
2015-10-06,25.139999389648438,25.079999923706055,25.09000015258789,25.139999389648438,4078.0,24.964025497436523
2015-10-07,25.159900665283203,25.059999465942383,25.149499893188477,25.159900665283203,5280.0,24.983789443969727
2015-10-08,25.1299991607666,25.010000228881836,25.124500274658203,25.122400283813477,41645.0,24.946552276611328
2015-10-09,25.149999618530273,25.059999465942383,25.059999465942383,25.133899688720703,5714.0,24.95796775817871
2015-10-12,25.18000030517578,25.12849998474121,25.18000030517578,25.139999389648438,3213.0,24.964025497436523
2015-10-13,25.149999618530273,25.100000381469727,25.139999389648438,25.139999389648438,7156.0,24.964025497436523
2015-10-14,25.149999618530273,25.1200008392334,25.139999389648438,25.139999389648438,7240.0,24.964025497436523
2015-10-15,25.139999389648438,25.110000610351562,25.13960075378418,25.139999389648438,3056.0,24.964025497436523
2015-10-16,25.170000076293945,25.1200008392334,25.170000076293945,25.135000228881836,4753.0,24.959062576293945
2015-10-19,25.139999389648438,25.110000610351562,25.13640022277832,25.135000228881836,7961.0,24.959062576293945
2015-10-20,25.1299991607666,25.100000381469727,25.128299713134766,25.1299991607666,5060.0,24.9540958404541
2015-10-21,25.170000076293945,25.059999465942383,25.059999465942383,25.110200881958008,4498.0,24.934436798095703
2015-10-22,25.1299991607666,25.1200008392334,25.1299991607666,25.1299991607666,7527.0,24.9540958404541
2015-10-23,25.14900016784668,25.1200008392334,25.1299991607666,25.139999389648438,3273.0,24.964025497436523
2015-10-26,25.14900016784668,25.123199462890625,25.148300170898438,25.1299991607666,1794.0,24.9540958404541
2015-10-27,25.170000076293945,25.131000518798828,25.131000518798828,25.145000457763672,10966.0,24.968992233276367
2015-10-28,25.1299991607666,25.059999465942383,25.1299991607666,25.1200008392334,172541.0,24.944168090820312
2015-10-29,25.149999618530273,25.109500885009766,25.149999618530273,25.1299991607666,10584.0,24.9540958404541
2015-10-30,25.139999389648438,25.088899612426758,25.126800537109375,25.1299991607666,11781.0,24.9540958404541
2015-11-02,25.1299991607666,25.079599380493164,25.110000610351562,25.110000610351562,5525.0,24.948631286621094
2015-11-03,25.139999389648438,25.110000610351562,25.110000610351562,25.1299991607666,10900.0,24.968502044677734
2015-11-04,25.15999984741211,25.09000015258789,25.15999984741211,25.100200653076172,6185.0,24.938892364501953
2015-11-05,25.139999389648438,25.09600067138672,25.139999389648438,25.1200008392334,5573.0,24.958566665649414
2015-11-06,25.1299991607666,25.059999465942383,25.065000534057617,25.1200008392334,19553.0,24.958566665649414
2015-11-09,25.139999389648438,25.094999313354492,25.100000381469727,25.094999313354492,11253.0,24.933725357055664
2015-11-10,25.128999710083008,25.09000015258789,25.100000381469727,25.100000381469727,7386.0,24.938692092895508
2015-11-11,25.100000381469727,25.091100692749023,25.099000930786133,25.100000381469727,8229.0,24.938692092895508
2015-11-12,25.110000610351562,25.09480094909668,25.110000610351562,25.110000610351562,2710.0,24.948631286621094
2015-11-13,25.110000610351562,25.110000610351562,25.110000610351562,25.110000610351562,500.0,24.948631286621094
2015-11-16,25.110000610351562,25.06999969482422,25.110000610351562,25.094999313354492,3418.0,24.933725357055664
2015-11-17,25.110000610351562,25.09000015258789,25.110000610351562,25.094999313354492,21823.0,24.933725357055664
2015-11-18,25.083900451660156,25.079999923706055,25.08009910583496,25.083900451660156,578.0,24.922700881958008
2015-11-19,25.108800888061523,25.070100784301758,25.09749984741211,25.108800888061523,7575.0,24.94744110107422
2015-11-20,25.100000381469727,25.08970069885254,25.08970069885254,25.100000381469727,488.0,24.938692092895508
2015-11-23,25.139999389648438,25.100000381469727,25.139999389648438,25.100000381469727,1489.0,24.938692092895508
2015-11-24,25.110000610351562,25.09000015258789,25.100000381469727,25.110000610351562,9649.0,24.948631286621094
2015-11-25,25.110000610351562,25.096900939941406,25.10689926147461,25.110000610351562,4439.0,24.948631286621094
2015-11-27,25.110000610351562,25.110000610351562,25.110000610351562,25.110000610351562,100.0,24.948631286621094
2015-11-30,25.110000610351562,25.06999969482422,25.094999313354492,25.087799072265625,7595.0,24.926572799682617
2015-12-01,25.1299991607666,25.087799072265625,25.1299991607666,25.110000610351562,4614.0,24.964210510253906
2015-12-02,25.138999938964844,25.079599380493164,25.084999084472656,25.09000015258789,7987.0,24.94432830810547
2015-12-03,25.1200008392334,25.049999237060547,25.09000015258789,25.110000610351562,10863.0,24.964210510253906
2015-12-04,25.1200008392334,25.030000686645508,25.030000686645508,25.11199951171875,13500.0,24.966201782226562
2015-12-07,25.209999084472656,25.100000381469727,25.110000610351562,25.1299991607666,12190.0,24.984094619750977
2015-12-08,25.149999618530273,25.100000381469727,25.110000610351562,25.149999618530273,13359.0,25.003978729248047
2015-12-09,25.100000381469727,25.040000915527344,25.100000381469727,25.100000381469727,798.0,24.954269409179688
2015-12-10,25.107999801635742,25.075000762939453,25.100000381469727,25.075000762939453,3548.0,24.929412841796875
2015-12-11,25.110000610351562,25.079999923706055,25.110000610351562,25.100000381469727,833.0,24.954269409179688
2015-12-14,25.15999984741211,25.059999465942383,25.15999984741211,25.09600067138672,357704.0,24.950294494628906
2015-12-15,25.09000015258789,25.059999465942383,25.08989906311035,25.079999923706055,3072.0,24.93438720703125
2015-12-16,25.190000534057617,25.065000534057617,25.089500427246094,25.09000015258789,8655.0,24.94432830810547
2015-12-17,25.110000610351562,25.074499130249023,25.09000015258789,25.074499130249023,14737.0,24.928916931152344
2015-12-18,25.110000610351562,25.079999923706055,25.09000015258789,25.109899520874023,9339.0,24.964109420776367
2015-12-21,25.100000381469727,25.06399917602539,25.06399917602539,25.088199615478516,2071.0,24.942541122436523
2015-12-22,25.1200008392334,25.075000762939453,25.1200008392334,25.079999923706055,17713.0,24.93438720703125
2015-12-23,25.149999618530273,25.088699340820312,25.149999618530273,25.110000610351562,263478.0,24.964210510253906
2015-12-24,25.15999984741211,25.064599990844727,25.15850067138672,25.15999984741211,3681.0,25.024940490722656
2015-12-28,25.200000762939453,25.020000457763672,25.149999618530273,25.020000457763672,4499.0,24.88568878173828
2015-12-29,25.209999084472656,25.020000457763672,25.040000915527344,25.200000762939453,7629.0,25.064727783203125
2015-12-30,25.190000534057617,25.100000381469727,25.100000381469727,25.18000030517578,7886.0,25.04483413696289
2015-12-31,25.174999237060547,25.1299991607666,25.15999984741211,25.170000076293945,7500.0,25.03488540649414
2016-01-04,25.199899673461914,25.08609962463379,25.18400001525879,25.139999389648438,11144.0,25.00504493713379
2016-01-05,25.190000534057617,25.09000015258789,25.16830062866211,25.100000381469727,91704.0,24.965261459350586
2016-01-06,25.149999618530273,25.110000610351562,25.110000610351562,25.110000610351562,13232.0,24.97520637512207
2016-01-07,25.13719940185547,25.110000610351562,25.110000610351562,25.1299991607666,7480.0,24.99509620666504
2016-01-08,25.170000076293945,25.110000610351562,25.139999389648438,25.1299991607666,8579.0,24.99509620666504
2016-01-11,25.1200008392334,25.091999053955078,25.1200008392334,25.107999801635742,5128.0,24.97321891784668
2016-01-12,25.149999618530273,25.079999923706055,25.125,25.079999923706055,9295.0,24.94536590576172
2016-01-13,25.170000076293945,25.1200008392334,25.170000076293945,25.170000076293945,22000.0,25.03488540649414
2016-01-14,25.170000076293945,25.1200008392334,25.1200008392334,25.1200008392334,8618.0,24.985153198242188
2016-01-15,25.200000762939453,25.11479949951172,25.200000762939453,25.1200008392334,11462.0,24.985153198242188
2016-01-19,25.149999618530273,25.079999923706055,25.09000015258789,25.149999618530273,13469.0,25.014991760253906
2016-01-20,25.170000076293945,25.139999389648438,25.16360092163086,25.139999389648438,12411.0,25.00504493713379
2016-01-21,25.139999389648438,25.1200008392334,25.1200008392334,25.139999389648438,11608.0,25.00504493713379
2016-01-22,25.139999389648438,25.099000930786133,25.139999389648438,25.100000381469727,4200.0,24.965261459350586
2016-01-25,25.139999389648438,25.09000015258789,25.09000015258789,25.1200008392334,4957.0,24.985153198242188
2016-01-26,25.149999618530273,25.09000015258789,25.09000015258789,25.139999389648438,16225.0,25.00504493713379
2016-01-27,25.100000381469727,25.049999237060547,25.09000015258789,25.079999923706055,52352.0,24.94536590576172
2016-01-28,25.139999389648438,25.059999465942383,25.09000015258789,25.139999389648438,14100.0,25.00504493713379
2016-01-29,25.139999389648438,25.08989906311035,25.09000015258789,25.139999389648438,17733.0,25.00504493713379
2016-02-01,25.079999923706055,25.056299209594727,25.079999923706055,25.079999923706055,5104.0,24.960920333862305
2016-02-02,25.149999618530273,25.06999969482422,25.110000610351562,25.079999923706055,10322.0,24.960920333862305
2016-02-03,25.139999389648438,25.059999465942383,25.079999923706055,25.139999389648438,18398.0,25.020633697509766
2016-02-04,25.15999984741211,25.102399826049805,25.13279914855957,25.102399826049805,6072.0,24.983213424682617
2016-02-05,25.100000381469727,25.072999954223633,25.100000381469727,25.094999313354492,10478.0,24.975845336914062
2016-02-08,25.1299991607666,25.09000015258789,25.09000015258789,25.1299991607666,3951.0,25.01068115234375
2016-02-09,25.139999389648438,25.09000015258789,25.110000610351562,25.1299991607666,4227.0,25.01068115234375
2016-02-10,25.139999389648438,25.079999923706055,25.139999389648438,25.082000732421875,12632.0,24.96291160583496
2016-02-11,25.100000381469727,25.06999969482422,25.100000381469727,25.09000015258789,5315.0,24.970874786376953
2016-02-12,25.1200008392334,25.06999969482422,25.100000381469727,25.090999603271484,34900.0,24.97187042236328
2016-02-16,25.1200008392334,25.08690071105957,25.100000381469727,25.110000610351562,23646.0,24.990779876708984
2016-02-17,25.126399993896484,25.030000686645508,25.099899291992188,25.030099868774414,12127.0,24.911256790161133
2016-02-18,25.09000015258789,25.040000915527344,25.079999923706055,25.079999923706055,4784.0,24.960920333862305
2016-02-19,25.100000381469727,25.040000915527344,25.09000015258789,25.040000915527344,12689.0,24.921110153198242
2016-02-22,25.1200008392334,25.05030059814453,25.079999923706055,25.079999923706055,6554.0,24.960920333862305
2016-02-23,25.09000015258789,25.041000366210938,25.041000366210938,25.079999923706055,5500.0,24.960920333862305
2016-02-24,25.100000381469727,25.040000915527344,25.040000915527344,25.079999923706055,12807.0,24.960920333862305
2016-02-25,25.0939998626709,25.06999969482422,25.089599609375,25.079999923706055,7425.0,24.960920333862305
2016-02-26,25.09000015258789,25.049999237060547,25.049999237060547,25.053499221801758,7854.0,24.934545516967773
2016-02-29,25.100000381469727,25.049999237060547,25.049999237060547,25.079999923706055,15844.0,24.960920333862305
2016-03-01,25.09000015258789,25.049999237060547,25.09000015258789,25.09000015258789,5600.0,24.987659454345703
2016-03-02,25.09000015258789,25.059999465942383,25.06800079345703,25.07159996032715,4355.0,24.969331741333008
2016-03-03,25.100000381469727,25.058000564575195,25.058000564575195,25.09000015258789,13689.0,24.987659454345703
2016-03-04,25.09000015258789,25.059999465942383,25.086999893188477,25.083999633789062,2600.0,24.98168182373047
2016-03-07,25.066299438476562,25.049999237060547,25.059999465942383,25.05299949645996,4442.0,24.950807571411133
2016-03-08,25.09000015258789,25.06170082092285,25.09000015258789,25.068300247192383,2735.0,24.966045379638672
2016-03-09,25.09000015258789,25.062000274658203,25.09000015258789,25.089599609375,6163.0,24.987258911132812
2016-03-10,25.09000015258789,25.059999465942383,25.09000015258789,25.079999923706055,4759.0,24.977699279785156
2016-03-11,25.084999084472656,25.059999465942383,25.077999114990234,25.079999923706055,5700.0,24.977699279785156
2016-03-14,25.09000015258789,25.060100555419922,25.08340072631836,25.060100555419922,3103.0,24.9578800201416
2016-03-15,25.09000015258789,25.075000762939453,25.07900047302246,25.07900047302246,800.0,24.976703643798828
2016-03-16,25.100000381469727,25.059999465942383,25.059999465942383,25.06999969482422,14800.0,24.967741012573242
2016-03-17,25.09000015258789,25.040000915527344,25.049999237060547,25.079999923706055,10700.0,24.977699279785156
2016-03-18,25.079999923706055,25.040000915527344,25.06999969482422,25.079999923706055,4912.0,24.977699279785156
2016-03-21,25.09000015258789,25.06599998474121,25.06999969482422,25.079999923706055,3600.0,24.977699279785156
2016-03-22,25.110000610351562,25.06999969482422,25.110000610351562,25.079999923706055,5600.0,24.977699279785156
2016-03-23,25.100000381469727,25.07900047302246,25.100000381469727,25.079999923706055,14900.0,24.977699279785156
2016-03-24,25.100000381469727,25.040000915527344,25.059999465942383,25.049999237060547,10900.0,24.94782066345215
2016-03-28,25.1200008392334,25.049999237060547,25.1200008392334,25.084999084472656,12554.0,24.98267936706543
2016-03-29,25.1200008392334,25.062999725341797,25.062999725341797,25.06999969482422,10600.0,24.967741012573242
2016-03-30,25.110000610351562,25.040000915527344,25.040000915527344,25.09000015258789,15290.0,24.987659454345703
2016-03-31,25.110000610351562,25.049999237060547,25.110000610351562,25.049999237060547,15100.0,24.94782066345215
2016-04-01,25.104999542236328,25.049999237060547,25.049999237060547,25.059999465942383,6400.0,24.973052978515625
2016-04-04,25.06999969482422,25.040000915527344,25.06999969482422,25.059999465942383,95300.0,24.973052978515625
2016-04-05,25.06999969482422,25.049999237060547,25.068199157714844,25.06999969482422,3367.0,24.983020782470703
2016-04-06,25.06999969482422,25.040000915527344,25.049999237060547,25.049999237060547,18300.0,24.96308708190918
2016-04-07,25.110000610351562,25.040000915527344,25.040000915527344,25.079999923706055,37600.0,24.992984771728516
2016-04-08,25.110000610351562,25.079999923706055,25.110000610351562,25.09000015258789,12900.0,25.002952575683594
2016-04-11,25.110000610351562,25.09000015258789,25.108600616455078,25.09000015258789,2795.0,25.002952575683594
2016-04-12,25.107999801635742,25.079999923706055,25.09000015258789,25.08099937438965,4500.0,24.99398422241211
2016-04-13,25.110000610351562,25.077999114990234,25.10700035095215,25.104999542236328,11945.0,25.01789665222168
2016-04-14,25.099899291992188,25.059999465942383,25.099899291992188,25.06999969482422,1928.0,24.983020782470703
2016-04-15,25.109899520874023,25.06999969482422,25.06999969482422,25.084999084472656,5072.0,24.997968673706055
2016-04-18,25.110000610351562,25.06999969482422,25.076000213623047,25.110000610351562,1900.0,25.022884368896484
2016-04-19,25.110000610351562,25.079999923706055,25.110000610351562,25.097299575805664,70741.0,25.010225296020508
2016-04-20,25.110000610351562,25.0939998626709,25.104000091552734,25.110000610351562,1700.0,25.022884368896484
2016-04-21,25.110000610351562,25.086200714111328,25.100000381469727,25.09000015258789,10660.0,25.002952575683594
2016-04-22,25.106000900268555,25.06999969482422,25.079999923706055,25.06999969482422,14900.0,24.983020782470703
2016-04-25,25.08970069885254,25.049999237060547,25.06999969482422,25.049999237060547,5109.0,24.96308708190918
2016-04-26,25.086999893188477,25.049999237060547,25.059999465942383,25.079999923706055,7100.0,24.992984771728516
2016-04-27,25.09000015258789,25.059999465942383,25.079999923706055,25.06999969482422,31300.0,24.983020782470703
2016-04-28,25.09000015258789,25.049999237060547,25.089000701904297,25.079999923706055,8800.0,24.992984771728516
2016-04-29,25.079999923706055,25.055999755859375,25.06100082397461,25.059999465942383,2100.0,24.973052978515625
2016-05-02,25.09000015258789,25.049999237060547,25.049999237060547,25.059999465942383,8800.0,24.986909866333008
2016-05-03,25.09000015258789,25.059999465942383,25.09000015258789,25.059999465942383,1841.0,24.986909866333008
2016-05-04,25.100000381469727,25.059999465942383,25.100000381469727,25.064300537109375,10310.0,24.991199493408203
2016-05-05,25.079999923706055,25.059999465942383,25.075000762939453,25.059999465942383,14000.0,24.986909866333008
2016-05-06,25.08799934387207,25.059999465942383,25.06999969482422,25.08799934387207,2082.0,25.014829635620117
2016-05-09,25.079999923706055,25.040000915527344,25.040000915527344,25.040000915527344,8300.0,24.96697235107422
2016-05-10,25.079999923706055,25.034000396728516,25.049999237060547,25.079999923706055,3900.0,25.006853103637695
2016-05-11,25.09000015258789,25.010000228881836,25.051000595092773,25.03700065612793,19600.0,24.963979721069336
2016-05-12,25.09000015258789,24.999000549316406,25.024999618530273,25.049999237060547,9300.0,24.976938247680664
2016-05-13,25.09000015258789,25.020000457763672,25.020000457763672,25.09000015258789,3951.0,25.01682472229004
2016-05-16,25.09000015258789,25.049999237060547,25.049999237060547,25.09000015258789,3300.0,25.01682472229004
2016-05-17,25.08989906311035,25.050100326538086,25.079999923706055,25.067399978637695,2439.0,24.994291305541992
2016-05-18,25.09000015258789,25.049999237060547,25.075000762939453,25.049999237060547,11500.0,24.976938247680664
2016-05-19,25.100000381469727,25.0310001373291,25.09000015258789,25.09000015258789,5700.0,25.01682472229004
2016-05-20,25.100000381469727,25.059999465942383,25.09000015258789,25.059999465942383,4300.0,24.986909866333008
2016-05-23,25.09000015258789,25.05900001525879,25.05900001525879,25.059999465942383,12600.0,24.986909866333008
2016-05-24,25.089000701904297,25.07200050354004,25.079999923706055,25.07200050354004,5400.0,24.99888038635254
2016-05-25,25.100000381469727,25.06399917602539,25.100000381469727,25.06800079345703,7100.0,24.99488639831543
2016-05-26,25.079999923706055,25.049999237060547,25.059999465942383,25.049999237060547,4886.0,24.976938247680664
2016-05-27,25.079999923706055,25.049999237060547,25.049999237060547,25.049999237060547,7370.0,24.976938247680664
2016-05-31,25.079999923706055,25.049999237060547,25.059999465942383,25.049999237060547,8096.0,24.976938247680664
2016-06-01,25.079999923706055,25.030000686645508,25.069900512695312,25.049999237060547,11570.0,24.989702224731445
2016-06-02,25.059999465942383,25.040000915527344,25.059999465942383,25.05109977722168,2222.0,24.990800857543945
2016-06-03,25.06800079345703,25.04199981689453,25.05900001525879,25.059999465942383,2400.0,24.999679565429688
2016-06-06,25.06999969482422,25.040000915527344,25.049999237060547,25.049999237060547,3833.0,24.989702224731445
2016-06-07,25.06800079345703,25.049999237060547,25.059999465942383,25.049999237060547,3295.0,24.989702224731445
2016-06-08,25.074199676513672,25.04010009765625,25.049999237060547,25.059999465942383,7743.0,24.999679565429688
2016-06-09,25.07360076904297,25.040000915527344,25.040000915527344,25.049999237060547,5274.0,24.989702224731445
2016-06-10,25.069000244140625,25.040000915527344,25.040000915527344,25.059999465942383,9735.0,24.999679565429688
2016-06-13,25.06999969482422,25.040000915527344,25.065000534057617,25.040000915527344,13884.0,24.9797306060791
2016-06-14,25.069900512695312,25.040000915527344,25.049999237060547,25.040000915527344,6405.0,24.9797306060791
2016-06-15,25.069299697875977,25.040000915527344,25.059999465942383,25.049999237060547,4272.0,24.989702224731445
2016-06-16,25.059999465942383,25.049999237060547,25.059900283813477,25.059900283813477,1376.0,24.99958038330078
2016-06-17,25.05229949951172,25.043699264526367,25.049999237060547,25.049999237060547,4548.0,24.989702224731445
2016-06-20,25.069900512695312,25.04010009765625,25.058000564575195,25.059999465942383,6316.0,24.999679565429688
2016-06-21,25.069499969482422,25.049999237060547,25.049999237060547,25.056900024414062,3352.0,24.99658966064453
2016-06-22,25.066999435424805,25.040000915527344,25.066999435424805,25.059999465942383,2854.0,24.999679565429688
2016-06-23,25.06999969482422,25.010000228881836,25.040000915527344,25.059999465942383,11772.0,24.999679565429688
2016-06-24,25.049999237060547,25.020000457763672,25.040000915527344,25.049999237060547,3111.0,24.989702224731445
2016-06-27,25.059999465942383,25.021699905395508,25.055999755859375,25.059900283813477,10032.0,24.99958038330078
2016-06-28,25.049999237060547,25.031700134277344,25.031700134277344,25.043399810791016,5493.0,24.98311996459961
2016-06-29,25.049999237060547,25.030099868774414,25.04990005493164,25.042999267578125,4958.0,24.98272132873535
2016-06-30,25.049999237060547,25.030000686645508,25.049999237060547,25.049999237060547,8325.0,24.989702224731445
2016-07-01,25.040000915527344,25.030000686645508,25.030000686645508,25.03339958190918,3180.0,24.9853572845459
2016-07-05,25.03499984741211,25.020000457763672,25.020000457763672,25.03499984741211,2637.0,24.986953735351562
2016-07-06,25.049999237060547,25.02280044555664,25.049999237060547,25.023000717163086,4424.0,24.974979400634766
2016-07-07,25.049999237060547,25.023000717163086,25.038999557495117,25.03499984741211,10794.0,24.986953735351562
2016-07-08,25.040000915527344,25.030099868774414,25.030099868774414,25.040000915527344,5043.0,24.991947174072266
2016-07-11,25.06999969482422,25.02400016784668,25.02400016784668,25.030000686645508,33617.0,24.981964111328125
2016-07-12,25.06399917602539,25.04010009765625,25.06399917602539,25.058000564575195,2343.0,25.009912490844727
2016-07-13,25.069900512695312,25.034000396728516,25.049999237060547,25.054000854492188,2295.0,25.005916595458984
2016-07-14,25.069900512695312,25.030000686645508,25.05660057067871,25.04599952697754,2392.0,24.99793243408203
2016-07-15,25.06999969482422,25.032100677490234,25.055400848388672,25.032100677490234,3236.0,24.98406219482422
2016-07-18,25.062000274658203,25.040000915527344,25.062000274658203,25.051000595092773,1500.0,25.0029239654541
2016-07-19,25.066999435424805,25.040000915527344,25.065099716186523,25.066999435424805,10700.0,25.01889419555664
2016-07-20,25.062000274658203,25.020000457763672,25.062000274658203,25.030000686645508,4750.0,24.981964111328125
2016-07-21,25.079999923706055,25.020000457763672,25.059999465942383,25.03459930419922,7029.0,24.986555099487305
2016-07-22,25.040000915527344,25.010000228881836,25.040000915527344,25.030000686645508,15290.0,24.981964111328125
2016-07-25,25.040000915527344,25.020000457763672,25.040000915527344,25.031700134277344,2789.0,24.983661651611328
2016-07-26,25.049999237060547,25.029300689697266,25.040000915527344,25.03499984741211,2584.0,24.986953735351562
2016-07-27,25.040000915527344,25.020000457763672,25.039899826049805,25.030000686645508,2254.0,24.981964111328125
2016-07-28,25.042999267578125,25.040000915527344,25.040000915527344,25.042999267578125,821.0,24.99493980407715
2016-07-29,25.049999237060547,25.030000686645508,25.030000686645508,25.035900115966797,1824.0,24.98785400390625
2016-08-01,25.027999877929688,25.015899658203125,25.020000457763672,25.01799964904785,1965.0,24.981281280517578
2016-08-02,25.031999588012695,24.996999740600586,25.020000457763672,25.031999588012695,4100.0,24.995262145996094
2016-08-03,25.059600830078125,25.020000457763672,25.03969955444336,25.059600830078125,7285.0,25.022825241088867
2016-08-04,25.170000076293945,25.044200897216797,25.170000076293945,25.044200897216797,796.0,25.007448196411133
2016-08-05,25.066499710083008,25.020099639892578,25.030000686645508,25.059999465942383,2918.0,25.023223876953125
2016-08-08,25.069000244140625,25.030000686645508,25.030000686645508,25.059999465942383,10872.0,25.023223876953125
2016-08-09,25.069900512695312,25.030000686645508,25.069900512695312,25.030000686645508,843.0,24.993267059326172
2016-08-10,25.049999237060547,25.030000686645508,25.040000915527344,25.040000915527344,2333.0,25.003253936767578
2016-08-11,25.059999465942383,25.040000915527344,25.049999237060547,25.049999237060547,5815.0,25.01323699951172
2016-08-12,25.040000915527344,25.030000686645508,25.030000686645508,25.040000915527344,5034.0,25.003253936767578
2016-08-15,25.110000610351562,25.030000686645508,25.110000610351562,25.059999465942383,11035.0,25.023223876953125
2016-08-16,25.059900283813477,25.010099411010742,25.030000686645508,25.030000686645508,10015.0,24.993267059326172
2016-08-17,25.049999237060547,25.015199661254883,25.040000915527344,25.031099319458008,4047.0,24.994365692138672
2016-08-18,25.049999237060547,25.02199935913086,25.047000885009766,25.042800903320312,1362.0,25.00604820251465
2016-08-19,25.040000915527344,25.010000228881836,25.031400680541992,25.027999877929688,10001.0,24.991270065307617
2016-08-22,25.065000534057617,25.030000686645508,25.040000915527344,25.056400299072266,2729.0,25.019628524780273
2016-08-23,25.058000564575195,25.030000686645508,25.030000686645508,25.048999786376953,22517.0,25.012239456176758
2016-08-24,25.059999465942383,25.040199279785156,25.040199279785156,25.059999465942383,8477.0,25.023223876953125
2016-08-25,25.06999969482422,25.030000686645508,25.06999969482422,25.059999465942383,3614.0,25.023223876953125
2016-08-26,25.066699981689453,25.030000686645508,25.059999465942383,25.030000686645508,793.0,24.993267059326172
2016-08-29,25.07990074157715,25.02549934387207,25.040000915527344,25.040000915527344,7010.0,25.003253936767578
2016-08-30,25.049999237060547,25.010099411010742,25.030000686645508,25.010099411010742,1801.0,24.97339630126953
2016-08-31,25.06999969482422,25.047500610351562,25.06999969482422,25.049999237060547,1765.0,25.01323699951172
2016-09-01,25.040000915527344,24.989999771118164,25.040000915527344,25.040000915527344,2669.0,25.013835906982422
2016-09-02,25.079999923706055,25.020200729370117,25.040000915527344,25.044700622558594,3335.0,25.018529891967773
2016-09-06,25.05780029296875,25.0447998046875,25.05780029296875,25.0447998046875,2743.0,25.01862907409668
2016-09-07,25.07990074157715,25.030000686645508,25.059999465942383,25.055700302124023,3136.0,25.029518127441406
2016-09-08,25.049999237060547,25.04490089416504,25.049999237060547,25.04490089416504,598.0,25.01873016357422
2016-09-09,25.040000915527344,24.989999771118164,25.0,25.020000457763672,4409.0,24.993854522705078
2016-09-12,25.100000381469727,25.025999069213867,25.100000381469727,25.079999923706055,9100.0,25.053791046142578
2016-09-13,25.079999923706055,25.020099639892578,25.079999923706055,25.051700592041016,4070.0,25.02552032470703
2016-09-14,25.06599998474121,25.030000686645508,25.040000915527344,25.030000686645508,5230.0,25.00384521484375
2016-09-15,25.07900047302246,25.030000686645508,25.030000686645508,25.030000686645508,1745.0,25.00384521484375
2016-09-16,25.049999237060547,25.020000457763672,25.048999786376953,25.039499282836914,3497.0,25.013334274291992
2016-09-19,25.04599952697754,25.010000228881836,25.040000915527344,25.010400772094727,1965.0,24.98426628112793
2016-09-20,25.04990005493164,25.010000228881836,25.010000228881836,25.030000686645508,8500.0,25.00384521484375
2016-09-21,25.030000686645508,25.010000228881836,25.010000228881836,25.030000686645508,473.0,25.00384521484375
2016-09-22,25.059999465942383,25.02199935913086,25.04990005493164,25.059999465942383,9693.0,25.0338134765625
2016-09-23,25.03499984741211,25.01799964904785,25.01799964904785,25.02199935913086,1471.0,24.995851516723633
2016-09-26,25.040000915527344,25.01580047607422,25.040000915527344,25.020000457763672,6466.0,24.993854522705078
2016-09-27,25.059999465942383,25.04599952697754,25.059999465942383,25.05430030822754,983.0,25.028120040893555
2016-09-28,25.057600021362305,25.021299362182617,25.049999237060547,25.040000915527344,5193.0,25.013835906982422
2016-09-29,25.059900283813477,25.02829933166504,25.040000915527344,25.040000915527344,14539.0,25.013835906982422
2016-09-30,25.049100875854492,25.033000946044922,25.040800094604492,25.049100875854492,3805.0,25.022926330566406
2016-10-03,25.049999237060547,25.00950050354004,25.040000915527344,25.049999237060547,8348.0,25.03345489501953
2016-10-04,25.049999237060547,25.023000717163086,25.04949951171875,25.049999237060547,28810.0,25.03345489501953
2016-10-05,25.049999237060547,25.020000457763672,25.020000457763672,25.049999237060547,4000.0,25.03345489501953
2016-10-06,25.049999237060547,25.020000457763672,25.020099639892578,25.020000457763672,3892.0,25.003475189208984
2016-10-07,25.02989959716797,25.016799926757812,25.020000457763672,25.020000457763672,3088.0,25.003475189208984
2016-10-10,25.049999237060547,25.020000457763672,25.037200927734375,25.049999237060547,882.0,25.03345489501953
2016-10-11,25.09000015258789,25.030000686645508,25.049999237060547,25.059999465942383,20117.0,25.043447494506836
2016-10-12,25.059999465942383,25.030000686645508,25.055999755859375,25.04199981689453,8178.0,25.02545928955078
2016-10-13,25.049999237060547,25.045000076293945,25.049999237060547,25.045000076293945,407.0,25.028459548950195
2016-10-14,25.055999755859375,25.055999755859375,25.055999755859375,25.055999755859375,300.0,25.039451599121094
2016-10-17,25.054000854492188,25.0310001373291,25.0310001373291,25.04800033569336,1700.0,25.031455993652344
2016-10-18,25.069000244140625,25.020000457763672,25.049999237060547,25.069000244140625,37000.0,25.05244255065918
2016-10-19,25.054800033569336,25.054800033569336,25.054800033569336,25.054800033569336,462.0,25.038251876831055
2016-10-20,25.069499969482422,25.020000457763672,25.069499969482422,25.024999618530273,5126.0,25.00847053527832
2016-10-21,25.061899185180664,25.020000457763672,25.027999877929688,25.036100387573242,7100.0,25.019563674926758
2016-10-24,25.03860092163086,25.020000457763672,25.023000717163086,25.03860092163086,1497.0,25.022064208984375
2016-10-25,25.04599952697754,25.018999099731445,25.020000457763672,25.027999877929688,1512.0,25.0114688873291
2016-10-26,25.043899536132812,25.014999389648438,25.043899536132812,25.040000915527344,737.0,25.023462295532227
2016-10-27,25.023000717163086,25.000099182128906,25.023000717163086,25.020000457763672,5332.0,25.003475189208984
2016-10-28,25.020000457763672,25.0,25.0,25.005300521850586,4061.0,24.988784790039062
2016-10-31,25.059999465942383,25.015399932861328,25.030000686645508,25.049999237060547,8294.0,25.03345489501953
2016-11-01,25.059999465942383,24.983999252319336,24.983999252319336,25.049999237060547,7960.0,25.042144775390625
2016-11-02,25.027000427246094,25.01140022277832,25.027000427246094,25.01140022277832,835.0,25.003559112548828
2016-11-03,25.049999237060547,25.03350067138672,25.03860092163086,25.049999237060547,1112.0,25.042144775390625
2016-11-04,25.05299949645996,24.959999084472656,25.010000228881836,24.959999084472656,9911.0,24.952173233032227
2016-11-07,25.031999588012695,25.013999938964844,25.013999938964844,25.020000457763672,1600.0,25.012155532836914
2016-11-08,25.030000686645508,24.989999771118164,24.989999771118164,25.010000228881836,1746.0,25.002159118652344
2016-11-09,25.020000457763672,24.975000381469727,25.010000228881836,25.0,6005.0,24.992162704467773
2016-11-10,25.0,24.900100708007812,24.95009994506836,24.93910026550293,13206.0,24.93128204345703
2016-11-11,24.99250030517578,24.770000457763672,24.97570037841797,24.97599983215332,26868.0,24.968170166015625
2016-11-14,25.00749969482422,24.969999313354492,24.97010040283203,24.97010040283203,3824.0,24.96227264404297
2016-11-15,25.020000457763672,24.829999923706055,24.980100631713867,25.001100540161133,12531.0,24.993261337280273
2016-11-16,25.010000228881836,24.936599731445312,24.975000381469727,24.989999771118164,5641.0,24.98216438293457
2016-11-17,24.989999771118164,24.940000534057617,24.955900192260742,24.989999771118164,3807.0,24.98216438293457
2016-11-18,24.989999771118164,24.940000534057617,24.940000534057617,24.989999771118164,1740.0,24.98216438293457
2016-11-21,25.02750015258789,24.950000762939453,24.959999084472656,25.017499923706055,4870.0,25.00965690612793
2016-11-22,25.010900497436523,24.940000534057617,24.959999084472656,25.010900497436523,4716.0,25.00305938720703
2016-11-23,25.034299850463867,24.960100173950195,25.0,25.00629997253418,4683.0,24.99846076965332
2016-11-25,25.00819969177246,25.00819969177246,25.00819969177246,25.00819969177246,746.0,25.00035858154297
2016-11-28,25.002399444580078,24.93000030517578,24.93000030517578,24.97010040283203,3886.0,24.96227264404297
2016-11-29,25.0,24.960100173950195,24.97010040283203,25.0,2668.0,24.992162704467773
2016-11-30,25.039899826049805,24.958999633789062,24.996000289916992,24.9950008392334,6068.0,24.987163543701172
2016-12-01,25.027000427246094,25.000999450683594,25.027000427246094,25.014999389648438,3600.0,25.014999389648438
2016-12-02,25.030000686645508,25.020000457763672,25.027999877929688,25.030000686645508,2100.0,25.030000686645508
2016-12-05,25.027000427246094,25.0,25.01099967956543,25.010000228881836,15696.0,25.010000228881836
2016-12-06,25.04199981689453,25.01099967956543,25.040000915527344,25.01099967956543,11200.0,25.01099967956543
2016-12-07,25.010000228881836,25.0,25.010000228881836,25.010000228881836,6200.0,25.010000228881836
2016-12-08,25.04599952697754,25.001699447631836,25.005599975585938,25.04599952697754,2711.0,25.04599952697754
2016-12-09,25.040000915527344,25.01799964904785,25.029800415039062,25.040000915527344,415311.0,25.040000915527344
2016-12-12,25.040000915527344,25.010000228881836,25.030000686645508,25.010000228881836,6500.0,25.010000228881836
2016-12-13,25.049999237060547,25.020099639892578,25.049999237060547,25.040300369262695,1749.0,25.040300369262695
2016-12-14,25.057600021362305,25.020000457763672,25.049999237060547,25.030000686645508,5622.0,25.030000686645508
2016-12-15,25.049999237060547,24.915000915527344,25.030000686645508,25.040000915527344,15387.0,25.040000915527344
2016-12-15,25.049999237060547,24.915000915527344,25.030000686645508,25.040000915527344,15387.0,25.040000915527344
