Date,High,Low,Open,Close,Volume,Adj Close
2015-11-05,25.06999969482422,25.059999465942383,25.059999465942383,25.06999969482422,2900.0,23.278474807739258
2015-11-13,24.469999313354492,24.469999313354492,24.469999313354492,24.469999313354492,1300.0,22.721355438232422
2015-11-23,25.010000228881836,25.010000228881836,25.010000228881836,25.010000228881836,400.0,23.222763061523438
2015-11-24,25.049999237060547,24.889999389648438,24.889999389648438,25.049999237060547,21200.0,23.259906768798828
2015-11-25,25.049999237060547,24.979999542236328,24.979999542236328,25.049999237060547,51000.0,23.259906768798828
2015-11-30,25.010000228881836,24.950000762939453,25.010000228881836,25.0,25700.0,23.21347999572754
2015-12-01,25.200000762939453,25.170000076293945,25.170000076293945,25.200000762939453,4388200.0,23.399187088012695
2015-12-02,25.190000534057617,25.000999450683594,25.190000534057617,25.040000915527344,17800.0,23.250621795654297
2015-12-03,24.989999771118164,24.889999389648438,24.969999313354492,24.889999389648438,2000.0,23.111337661743164
2015-12-04,25.149999618530273,24.979999542236328,25.010000228881836,25.030000686645508,36500.0,23.241336822509766
2015-12-07,25.0,24.8700008392334,24.924999237060547,24.8700008392334,50800.0,23.092769622802734
2015-12-08,24.719999313354492,24.549999237060547,24.6299991607666,24.56999969482422,156800.0,22.814207077026367
2015-12-09,24.739999771118164,24.3799991607666,24.709999084472656,24.43000030517578,6700.0,22.684213638305664
2015-12-10,24.540000915527344,24.43000030517578,24.530000686645508,24.43000030517578,3300.0,22.684213638305664
2015-12-11,24.299999237060547,24.030000686645508,24.094999313354492,24.049999237060547,76800.0,22.33136558532715
2015-12-14,24.350000381469727,24.014999389648438,24.25,24.350000381469727,84500.0,22.609926223754883
2015-12-15,24.364999771118164,24.239999771118164,24.364999771118164,24.319000244140625,13500.0,22.58114242553711
2015-12-16,25.200000762939453,24.06999969482422,24.413999557495117,24.670000076293945,94500.0,22.907062530517578
2015-12-17,24.65999984741211,24.3700008392334,24.579999923706055,24.3700008392334,42300.0,22.62849998474121
2015-12-18,24.399999618530273,24.260000228881836,24.260000228881836,24.329999923706055,98200.0,22.591360092163086
2015-12-21,24.469999313354492,24.209999084472656,24.44499969482422,24.350000381469727,7900.0,22.609926223754883
2015-12-22,24.579999923706055,24.270000457763672,24.3799991607666,24.579999923706055,92700.0,22.82349395751953
2015-12-23,24.84000015258789,24.559999465942383,24.575000762939453,24.84000015258789,207200.0,23.064912796020508
2015-12-24,24.760000228881836,24.450000762939453,24.739999771118164,24.459999084472656,84600.0,22.712068557739258
2015-12-28,24.649999618530273,24.329999923706055,24.59000015258789,24.5,153100.0,22.749208450317383
2015-12-29,24.920000076293945,24.729999542236328,24.829999923706055,24.729999542236328,165200.0,22.9627742767334
2015-12-30,24.8700008392334,24.700000762939453,24.81399917602539,24.700000762939453,22300.0,22.934917449951172
2015-12-31,24.739999771118164,24.6299991607666,24.709999084472656,24.6299991607666,500.0,22.869916915893555
2016-01-04,24.260000228881836,23.75,23.799999237060547,24.100000381469727,12800.0,22.37779426574707
2016-01-05,24.13800048828125,24.059999465942383,24.13800048828125,24.059999465942383,3200.0,22.34065055847168
2016-01-06,23.889999389648438,23.610000610351562,23.889999389648438,23.610000610351562,12000.0,21.92281150817871
2016-01-07,23.719999313354492,23.25,23.639999389648438,23.559999465942383,1100.0,21.876380920410156
2016-01-08,23.610000610351562,23.010000228881836,23.610000610351562,23.010000228881836,32300.0,21.365684509277344
2016-01-11,23.34000015258789,22.979999542236328,23.34000015258789,23.100000381469727,19800.0,21.449254989624023
2016-01-12,23.25,23.06999969482422,23.25,23.09000015258789,1400.0,21.439971923828125
2016-01-13,23.420000076293945,23.025999069213867,23.2810001373291,23.170000076293945,7900.0,21.514249801635742
2016-01-14,23.1200008392334,22.94099998474121,22.999000549316406,23.110000610351562,2700.0,21.458541870117188
2016-01-15,22.670000076293945,22.329999923706055,22.670000076293945,22.6200008392334,2000.0,21.003557205200195
2016-01-19,22.81999969482422,22.520000457763672,22.81999969482422,22.530000686645508,5300.0,20.919986724853516
2016-01-20,22.15999984741211,21.780000686645508,22.100000381469727,21.940000534057617,17800.0,20.372150421142578
2016-01-21,22.43000030517578,22.0,22.010000228881836,22.18000030517578,7000.0,20.595001220703125
2016-01-22,22.93000030517578,22.68000030517578,22.780000686645508,22.93000030517578,36000.0,21.291404724121094
2016-01-25,22.760000228881836,22.6200008392334,22.64900016784668,22.760000228881836,31500.0,21.1335506439209
2016-01-26,23.059999465942383,22.84000015258789,22.84000015258789,23.059999465942383,26200.0,21.412111282348633
2016-01-27,23.170000076293945,22.840999603271484,22.902999877929688,23.09000015258789,5800.0,21.439971923828125
2016-01-28,23.139999389648438,22.860000610351562,23.08799934387207,22.940000534057617,9300.0,21.300689697265625
2016-01-29,23.399999618530273,23.389999389648438,23.389999389648438,23.399999618530273,2000.0,21.72781753540039
2016-02-01,23.364999771118164,23.219999313354492,23.350000381469727,23.299999237060547,13600.0,21.63496208190918
2016-02-02,23.239999771118164,22.889999389648438,23.165000915527344,22.90999984741211,6200.0,21.272830963134766
2016-02-03,23.170000076293945,22.8799991607666,23.06999969482422,23.139999389648438,29100.0,21.48639678955078
2016-02-04,23.479999542236328,23.200000762939453,23.200000762939453,23.459999084472656,6000.0,21.783525466918945
2016-02-05,23.459999084472656,23.459999084472656,23.459999084472656,23.459999084472656,0.0,21.783525466918945
2016-02-08,22.579999923706055,22.469999313354492,22.5,22.579999923706055,1400.0,20.966413497924805
2016-02-09,22.780000686645508,22.399999618530273,22.709999084472656,22.639999389648438,14500.0,21.022123336791992
2016-02-10,22.639999389648438,22.399999618530273,22.639999389648438,22.420000076293945,4400.0,20.817848205566406
2016-02-11,22.299999237060547,21.920000076293945,22.299999237060547,22.09000015258789,10100.0,20.511430740356445
2016-02-12,22.209999084472656,22.209999084472656,22.209999084472656,22.209999084472656,1800.0,20.622854232788086
2016-02-16,22.540000915527344,22.43000030517578,22.43000030517578,22.489999771118164,6000.0,20.882844924926758
2016-02-17,22.989999771118164,22.790000915527344,22.790000915527344,22.989999771118164,4800.0,21.34711456298828
2016-02-18,23.010000228881836,23.010000228881836,23.010000228881836,23.010000228881836,1000.0,21.365684509277344
2016-02-19,23.010000228881836,23.010000228881836,23.010000228881836,23.010000228881836,0.0,21.365684509277344
2016-02-22,23.270000457763672,23.1299991607666,23.270000457763672,23.1299991607666,1200.0,21.477109909057617
2016-02-23,23.18000030517578,22.940000534057617,23.05500030517578,22.940000534057617,46900.0,21.300689697265625
2016-02-24,23.09000015258789,22.732999801635742,22.850000381469727,23.09000015258789,9100.0,21.439971923828125
2016-02-25,23.260000228881836,22.985000610351562,22.989999771118164,23.260000228881836,4300.0,21.597824096679688
2016-02-26,23.09000015258789,23.079999923706055,23.09000015258789,23.079999923706055,3700.0,21.430683135986328
2016-02-29,23.079999923706055,23.079999923706055,23.079999923706055,23.079999923706055,0.0,21.430683135986328
2016-03-01,23.6200008392334,23.270000457763672,23.270000457763672,23.40999984741211,2400.0,21.73710060119629
2016-03-02,23.700000762939453,23.469999313354492,23.469999313354492,23.700000762939453,11200.0,22.006378173828125
2016-03-03,23.726999282836914,23.65999984741211,23.68000030517578,23.714000701904297,4600.0,22.01937484741211
2016-03-04,24.049999237060547,23.889999389648438,24.049999237060547,23.940000534057617,23900.0,22.229225158691406
2016-03-07,23.889999389648438,23.84000015258789,23.889999389648438,23.84000015258789,4100.0,22.13637351989746
2016-03-08,23.90999984741211,23.6200008392334,23.90999984741211,23.6200008392334,1100.0,21.932096481323242
2016-03-09,23.775999069213867,23.719999313354492,23.719999313354492,23.775999069213867,400.0,22.076948165893555
2016-03-10,23.775999069213867,23.775999069213867,23.775999069213867,23.775999069213867,0.0,22.076948165893555
2016-03-11,24.420000076293945,24.3700008392334,24.3700008392334,24.40999984741211,17400.0,22.665639877319336
2016-03-14,24.399999618530273,24.170000076293945,24.170000076293945,24.399999618530273,1100.0,22.656356811523438
2016-03-15,24.18000030517578,24.18000030517578,24.18000030517578,24.18000030517578,400.0,22.452075958251953
2016-03-16,24.229999542236328,24.010000228881836,24.190000534057617,24.200000762939453,11000.0,22.470651626586914
2016-03-17,24.450000762939453,24.34000015258789,24.385000228881836,24.440000534057617,2300.0,22.693500518798828
2016-03-18,24.489999771118164,24.43000030517578,24.489999771118164,24.43000030517578,1000.0,22.684213638305664
2016-03-21,24.610000610351562,24.43000030517578,24.59000015258789,24.43000030517578,4100.0,22.684213638305664
2016-03-22,24.670000076293945,24.420000076293945,24.6200008392334,24.459999084472656,9000.0,22.712068557739258
2016-03-23,24.520000457763672,24.274999618530273,24.34000015258789,24.274999618530273,3900.0,22.540287017822266
2016-03-24,24.399999618530273,24.209999084472656,24.3700008392334,24.219999313354492,25300.0,22.489215850830078
2016-03-28,24.729999542236328,24.3700008392334,24.729999542236328,24.3700008392334,600.0,22.62849998474121
2016-03-29,24.889999389648438,24.34000015258789,24.34000015258789,24.889999389648438,2000.0,23.111337661743164
2016-03-30,24.969999313354492,24.950000762939453,24.950000762939453,24.959999084472656,1400.0,23.17633628845215
2016-03-31,24.799999237060547,24.579999923706055,24.75,24.719999313354492,35900.0,22.953487396240234
2016-04-01,24.458999633789062,24.149999618530273,24.149999618530273,24.45800018310547,19300.0,22.710214614868164
2016-04-04,24.6299991607666,24.219999313354492,24.600000381469727,24.280000686645508,9900.0,22.544931411743164
2016-04-05,24.049999237060547,23.809999465942383,24.049999237060547,23.81999969482422,11500.0,22.117801666259766
2016-04-06,24.229999542236328,24.079999923706055,24.170000076293945,24.229999542236328,3200.0,22.498504638671875
2016-04-07,24.280000686645508,24.020000457763672,24.260000228881836,24.280000686645508,17600.0,22.544931411743164
2016-04-08,24.639999389648438,24.40999984741211,24.559999465942383,24.600000381469727,36800.0,22.84206199645996
2016-04-11,24.665000915527344,24.540000915527344,24.665000915527344,24.540000915527344,5700.0,22.786352157592773
2016-04-12,24.764999389648438,24.6299991607666,24.704999923706055,24.75,11800.0,22.981340408325195
2016-04-13,25.149999618530273,24.959999084472656,24.959999084472656,25.1299991607666,3700.0,23.334190368652344
2016-04-14,25.0,25.0,25.0,25.0,400.0,23.21347999572754
2016-04-15,25.1299991607666,25.079999923706055,25.079999923706055,25.100000381469727,2800.0,23.30632972717285
2016-04-18,25.100000381469727,25.100000381469727,25.100000381469727,25.100000381469727,0.0,23.30632972717285
2016-04-19,25.68000030517578,25.535999298095703,25.535999298095703,25.68000030517578,600.0,23.844884872436523
2016-04-20,25.8799991607666,25.540000915527344,25.575000762939453,25.540000915527344,79700.0,23.714887619018555
2016-04-21,25.639999389648438,25.52199935913086,25.6299991607666,25.56999969482422,5900.0,23.742746353149414
2016-04-22,25.46500015258789,25.290000915527344,25.290000915527344,25.426000595092773,1400.0,23.609037399291992
2016-04-25,25.469999313354492,25.329999923706055,25.34000015258789,25.459999084472656,2000.0,23.640605926513672
2016-04-26,25.530000686645508,25.309999465942383,25.530000686645508,25.469999313354492,2900.0,23.649890899658203
2016-04-27,25.56999969482422,25.309999465942383,25.540000915527344,25.56999969482422,1500.0,23.742746353149414
2016-04-28,25.440000534057617,25.190000534057617,25.360000610351562,25.3700008392334,2200.0,23.557039260864258
2016-04-29,25.299999237060547,25.15999984741211,25.270000457763672,25.290000915527344,32700.0,23.482757568359375
2016-05-02,25.59000015258789,25.417999267578125,25.489999771118164,25.59000015258789,51600.0,23.76131820678711
2016-05-03,25.3700008392334,25.3700008392334,25.3700008392334,25.3700008392334,1000.0,23.557039260864258
2016-05-04,25.100000381469727,24.709999084472656,24.924999237060547,24.780000686645508,64900.0,23.009197235107422
2016-05-05,25.020000457763672,24.739999771118164,24.739999771118164,24.969999313354492,3100.0,23.185623168945312
2016-05-06,25.06999969482422,25.06999969482422,25.06999969482422,25.06999969482422,800.0,23.278474807739258
2016-05-09,24.959999084472656,24.729999542236328,24.799999237060547,24.940000534057617,12600.0,23.157766342163086
2016-05-10,25.299999237060547,25.09000015258789,25.09000015258789,25.280000686645508,4700.0,23.47347068786621
2016-05-11,25.270000457763672,24.920000076293945,25.229999542236328,24.920000076293945,2900.0,23.139198303222656
2016-05-12,25.239999771118164,24.989999771118164,25.239999771118164,25.020000457763672,27600.0,23.2320499420166
2016-05-13,24.93000030517578,24.65999984741211,24.93000030517578,24.670000076293945,14700.0,22.907062530517578
2016-05-16,24.889999389648438,24.739999771118164,24.854999542236328,24.889999389648438,9900.0,23.111337661743164
2016-05-17,24.8799991607666,24.815000534057617,24.815000534057617,24.8799991607666,3800.0,23.10205078125
2016-05-18,24.93000030517578,24.6299991607666,24.75,24.6299991607666,12700.0,22.869916915893555
2016-05-19,24.600000381469727,24.420000076293945,24.549999237060547,24.600000381469727,71300.0,22.84206199645996
2016-05-20,24.790000915527344,24.700000762939453,24.790000915527344,24.709999084472656,2600.0,22.944202423095703
2016-05-23,24.889999389648438,24.75,24.809999465942383,24.799999237060547,68700.0,23.027769088745117
2016-05-24,24.94099998474121,24.90999984741211,24.94099998474121,24.90999984741211,1500.0,23.129913330078125
2016-05-25,25.09000015258789,24.989999771118164,24.989999771118164,25.09000015258789,1500.0,23.297046661376953
2016-05-26,25.260000228881836,25.1200008392334,25.229999542236328,25.1200008392334,18700.0,23.32490348815918
2016-05-27,25.209999084472656,25.1299991607666,25.209999084472656,25.1299991607666,2200.0,23.334190368652344
2016-05-31,25.15999984741211,25.1200008392334,25.15999984741211,25.1200008392334,1200.0,23.32490348815918
2016-06-01,25.110000610351562,25.059999465942383,25.110000610351562,25.065000534057617,3000.0,23.273836135864258
2016-06-02,25.079999923706055,24.959999084472656,25.06999969482422,25.010000228881836,1900.0,23.222763061523438
2016-06-03,25.34000015258789,25.170000076293945,25.200000762939453,25.31999969482422,14600.0,23.5106143951416
2016-06-06,25.610000610351562,25.489999771118164,25.610000610351562,25.4950008392334,2400.0,23.673107147216797
2016-06-07,25.790000915527344,25.649999618530273,25.725000381469727,25.65999984741211,17100.0,23.82631492614746
2016-06-08,25.8700008392334,25.68000030517578,25.8700008392334,25.780000686645508,1600.0,23.937740325927734
2016-06-09,25.53499984741211,25.40999984741211,25.53499984741211,25.459999084472656,14200.0,23.640605926513672
2016-06-10,25.1200008392334,24.969999313354492,25.1200008392334,24.969999313354492,500.0,23.185623168945312
2016-06-13,24.75,24.549999237060547,24.729999542236328,24.709999084472656,900.0,22.944202423095703
2016-06-14,24.389999389648438,24.25,24.389999389648438,24.350000381469727,6500.0,22.609926223754883
2016-06-15,24.68000030517578,24.5049991607666,24.5049991607666,24.670000076293945,2100.0,22.907062530517578
2016-06-16,24.670000076293945,24.670000076293945,24.670000076293945,24.670000076293945,0.0,22.907062530517578
2016-06-17,24.219999313354492,24.100000381469727,24.209999084472656,24.209999084472656,6500.0,22.701704025268555
2016-06-20,24.951000213623047,24.951000213623047,24.951000213623047,24.951000213623047,700.0,23.39653968811035
2016-06-21,25.09000015258789,24.950000762939453,24.950000762939453,25.09000015258789,3500.0,23.52688217163086
2016-06-22,25.020000457763672,25.010000228881836,25.010000228881836,25.010000228881836,700.0,23.45186424255371
2016-06-23,25.010000228881836,25.010000228881836,25.010000228881836,25.010000228881836,0.0,23.45186424255371
2016-06-24,25.010000228881836,25.010000228881836,25.010000228881836,25.010000228881836,0.0,23.45186424255371
2016-06-27,23.542999267578125,23.450000762939453,23.489999771118164,23.450000762939453,1600.0,21.989051818847656
2016-06-28,24.059999465942383,23.900999069213867,23.900999069213867,24.059999465942383,1600.0,22.561050415039062
2016-06-29,24.489999771118164,24.3700008392334,24.459999084472656,24.450000762939453,1400.0,22.9267520904541
2016-06-30,24.434999465942383,24.3799991607666,24.434999465942383,24.3799991607666,4100.0,22.861112594604492
2016-07-01,24.66900062561035,24.639999389648438,24.66900062561035,24.639999389648438,800.0,23.104915618896484
2016-07-05,24.299999237060547,24.299999237060547,24.299999237060547,24.299999237060547,300.0,22.78609848022461
2016-07-06,24.170000076293945,24.1299991607666,24.170000076293945,24.149999618530273,2300.0,22.645442962646484
2016-07-07,24.43000030517578,24.329999923706055,24.40999984741211,24.43000030517578,15300.0,22.90799903869629
2016-07-08,24.65999984741211,24.520000457763672,24.520000457763672,24.655000686645508,1400.0,23.118982315063477
2016-07-11,24.96500015258789,24.915000915527344,24.959999084472656,24.920000076293945,2200.0,23.367473602294922
2016-07-12,25.200000762939453,25.1299991607666,25.1299991607666,25.190000534057617,6600.0,23.62065315246582
2016-07-13,25.09000015258789,25.09000015258789,25.09000015258789,25.09000015258789,600.0,23.52688217163086
2016-07-14,25.299999237060547,25.15999984741211,25.170000076293945,25.260000228881836,4200.0,23.686288833618164
2016-07-15,25.09000015258789,24.940000534057617,25.09000015258789,25.030000686645508,3700.0,23.470623016357422
2016-07-18,25.024999618530273,25.024999618530273,25.024999618530273,25.024999618530273,400.0,23.465930938720703
2016-07-19,24.989999771118164,24.799999237060547,24.924999237060547,24.829999923706055,2400.0,23.283077239990234
2016-07-20,25.18000030517578,25.100000381469727,25.149999618530273,25.170000076293945,17800.0,23.601900100708008
2016-07-21,24.950000762939453,24.8799991607666,24.8799991607666,24.950000762939453,700.0,23.39560317993164
2016-07-22,25.05500030517578,24.8799991607666,24.989999771118164,25.049999237060547,6900.0,23.4893741607666
2016-07-25,24.860000610351562,24.860000610351562,24.860000610351562,24.860000610351562,1300.0,23.31121253967285
2016-07-26,25.260000228881836,25.15999984741211,25.219999313354492,25.25,7200.0,23.676912307739258
2016-07-27,25.25,25.25,25.25,25.25,0.0,23.676912307739258
2016-07-28,25.299999237060547,25.09000015258789,25.184999465942383,25.299999237060547,9800.0,23.723796844482422
2016-07-29,25.6299991607666,25.459999084472656,25.459999084472656,25.545000076293945,2700.0,23.953535079956055
2016-08-01,25.479999542236328,25.459999084472656,25.479999542236328,25.459999084472656,1100.0,23.87382698059082
2016-08-02,25.479999542236328,25.18000030517578,25.479999542236328,25.190000534057617,7200.0,23.62065315246582
2016-08-03,25.200000762939453,25.170000076293945,25.170000076293945,25.200000762939453,500.0,23.630029678344727
2016-08-04,25.1200008392334,25.100000381469727,25.110000610351562,25.100000381469727,1100.0,23.536256790161133
2016-08-05,25.18000030517578,25.15999984741211,25.18000030517578,25.15999984741211,4600.0,23.592519760131836
2016-08-08,25.3700008392334,25.309999465942383,25.3700008392334,25.360000610351562,700.0,23.780059814453125
2016-08-09,25.459999084472656,25.360000610351562,25.389999389648438,25.459999084472656,1200.0,23.87382698059082
2016-08-10,25.770000457763672,25.719999313354492,25.739999771118164,25.770000457763672,4200.0,24.164518356323242
2016-08-11,25.920000076293945,25.84000015258789,25.90999984741211,25.889999389648438,900.0,24.27703857421875
2016-08-12,25.8700008392334,25.860000610351562,25.860000610351562,25.8700008392334,400.0,24.258285522460938
2016-08-15,25.969999313354492,25.924999237060547,25.924999237060547,25.959999084472656,1100.0,24.342679977416992
2016-08-16,25.860000610351562,25.850000381469727,25.850000381469727,25.860000610351562,2300.0,24.248912811279297
2016-08-17,25.649999618530273,25.540000915527344,25.649999618530273,25.579999923706055,11900.0,23.986356735229492
2016-08-18,25.709999084472656,25.639999389648438,25.709999084472656,25.639999389648438,11800.0,24.04261589050293
2016-08-19,25.610000610351562,25.489999771118164,25.489999771118164,25.610000610351562,12000.0,24.014484405517578
2016-08-22,25.6299991607666,25.40999984741211,25.40999984741211,25.6299991607666,4800.0,24.033235549926758
2016-08-23,25.829999923706055,25.829999923706055,25.829999923706055,25.829999923706055,100.0,24.220779418945312
2016-08-24,25.8700008392334,25.68000030517578,25.860000610351562,25.719999313354492,4800.0,24.117630004882812
2016-08-25,25.719999313354492,25.719999313354492,25.719999313354492,25.719999313354492,0.0,24.117630004882812
2016-08-26,25.860000610351562,25.3700008392334,25.860000610351562,25.3700008392334,2500.0,23.789440155029297
2016-08-29,25.56999969482422,25.5,25.5,25.549999237060547,700.0,23.958221435546875
2016-08-30,25.5,25.43000030517578,25.440000534057617,25.459999084472656,42600.0,23.87382698059082
2016-08-31,25.3799991607666,25.290000915527344,25.290000915527344,25.360000610351562,18700.0,23.780059814453125
2016-09-01,25.549999237060547,25.459999084472656,25.4950008392334,25.469999313354492,13200.0,23.883207321166992
2016-09-02,25.709999084472656,25.6299991607666,25.709999084472656,25.6299991607666,900.0,24.033235549926758
2016-09-06,25.6299991607666,25.6299991607666,25.6299991607666,25.6299991607666,0.0,24.033235549926758
2016-09-07,26.229999542236328,26.110000610351562,26.229999542236328,26.200000762939453,3600.0,24.567726135253906
2016-09-08,26.190000534057617,26.110000610351562,26.149999618530273,26.110000610351562,14100.0,24.483333587646484
2016-09-09,25.799999237060547,25.700000762939453,25.760000228881836,25.700000762939453,11100.0,24.098878860473633
2016-09-12,25.5,25.389999389648438,25.479999542236328,25.399999618530273,5700.0,23.81756591796875
2016-09-13,25.450000762939453,25.1200008392334,25.450000762939453,25.170000076293945,12500.0,23.601900100708008
2016-09-14,25.290000915527344,25.15999984741211,25.290000915527344,25.15999984741211,13200.0,23.592519760131836
2016-09-15,25.440000534057617,25.229999542236328,25.229999542236328,25.440000534057617,3500.0,23.85507583618164
2016-09-16,25.18000030517578,25.100000381469727,25.139999389648438,25.100000381469727,700.0,23.603057861328125
2016-09-19,25.469999313354492,25.3700008392334,25.40999984741211,25.3799991607666,5900.0,23.86635971069336
2016-09-20,25.549999237060547,25.40999984741211,25.459999084472656,25.5,9900.0,23.979202270507812
2016-09-21,25.860000610351562,25.579999923706055,25.770000457763672,25.850000381469727,17700.0,24.308330535888672
2016-09-22,26.229999542236328,26.229999542236328,26.229999542236328,26.229999542236328,300.0,24.665664672851562
2016-09-23,26.100000381469727,25.99799919128418,26.059999465942383,26.09000015258789,12200.0,24.534015655517578
2016-09-26,25.899999618530273,25.764999389648438,25.829999923706055,25.8799991607666,7600.0,24.33654022216797
2016-09-27,26.049999237060547,25.920000076293945,25.989999771118164,26.040000915527344,1000.0,24.486997604370117
2016-09-28,26.15999984741211,26.15999984741211,26.15999984741211,26.15999984741211,3200.0,24.599842071533203
2016-09-29,26.079999923706055,25.829999923706055,26.06999969482422,25.834999084472656,9600.0,24.294221878051758
2016-09-30,26.010000228881836,25.81999969482422,25.81999969482422,26.010000228881836,4400.0,24.45878791809082
2016-10-03,26.079999923706055,25.8799991607666,25.889999389648438,26.065000534057617,29900.0,24.51051139831543
2016-10-04,26.06999969482422,25.790000915527344,26.06999969482422,25.790000915527344,7100.0,24.251909255981445
2016-10-05,25.950000762939453,25.780000686645508,25.950000762939453,25.809999465942383,1900.0,24.270715713500977
2016-10-06,25.670000076293945,25.530000686645508,25.63800048828125,25.53499984741211,5400.0,24.01211929321289
2016-10-07,25.459999084472656,25.360000610351562,25.459999084472656,25.44499969482422,1500.0,23.9274845123291
2016-10-10,25.44499969482422,25.44499969482422,25.44499969482422,25.44499969482422,0.0,23.9274845123291
2016-10-11,25.450000762939453,25.190000534057617,25.399999618530273,25.260000228881836,4800.0,23.753515243530273
2016-10-12,25.270000457763672,25.18000030517578,25.270000457763672,25.18000030517578,22800.0,23.67829132080078
2016-10-13,25.229999542236328,25.229999542236328,25.229999542236328,25.229999542236328,200.0,23.72530746459961
2016-10-14,25.299999237060547,25.290000915527344,25.290000915527344,25.299999237060547,5900.0,23.79113006591797
2016-10-17,25.18000030517578,25.18000030517578,25.18000030517578,25.18000030517578,300.0,23.67829132080078
2016-10-18,25.18000030517578,25.18000030517578,25.18000030517578,25.18000030517578,0.0,23.67829132080078
2016-10-19,25.635000228881836,25.445999145507812,25.445999145507812,25.6200008392334,6200.0,24.0920467376709
2016-10-20,25.579999923706055,25.461000442504883,25.579999923706055,25.5,7600.0,23.979202270507812
2016-10-21,25.5,25.5,25.5,25.5,0.0,23.979202270507812
2016-10-24,25.420000076293945,25.3799991607666,25.420000076293945,25.420000076293945,1800.0,23.903972625732422
2016-10-25,25.450000762939453,25.31999969482422,25.329999923706055,25.31999969482422,51900.0,23.809940338134766
2016-10-26,25.389999389648438,25.270000457763672,25.329999923706055,25.389999389648438,600.0,23.875761032104492
2016-10-27,25.34000015258789,25.274999618530273,25.274999618530273,25.329999923706055,15000.0,23.8193416595459
2016-10-28,25.280000686645508,25.19499969482422,25.229999542236328,25.200000762939453,7200.0,23.697097778320312
2016-10-31,25.290000915527344,25.1200008392334,25.25,25.28499984741211,22600.0,23.777027130126953
2016-11-01,25.329999923706055,25.110000610351562,25.31999969482422,25.1299991607666,14700.0,23.631269454956055
2016-11-02,25.219999313354492,25.049999237060547,25.139999389648438,25.1299991607666,8200.0,23.631269454956055
2016-11-03,25.299999237060547,25.040000915527344,25.290000915527344,25.06999969482422,17400.0,23.574848175048828
2016-11-04,25.020000457763672,24.969999313354492,25.0,24.969999313354492,400.0,23.480810165405273
2016-11-07,25.1200008392334,25.1200008392334,25.1200008392334,25.1200008392334,300.0,23.621868133544922
2016-11-08,25.1200008392334,25.1200008392334,25.1200008392334,25.1200008392334,0.0,23.621868133544922
2016-11-09,25.1200008392334,25.1200008392334,25.1200008392334,25.1200008392334,0.0,23.621868133544922
2016-11-10,24.790000915527344,24.59000015258789,24.600000381469727,24.790000915527344,1000.0,23.311548233032227
2016-11-11,24.790000915527344,24.790000915527344,24.790000915527344,24.790000915527344,0.0,23.311548233032227
2016-11-14,24.299999237060547,24.253999710083008,24.290000915527344,24.299999237060547,2500.0,22.850770950317383
2016-11-15,24.459999084472656,24.219999313354492,24.3799991607666,24.459999084472656,18900.0,23.00122833251953
2016-11-16,24.399999618530273,24.239999771118164,24.389999389648438,24.31999969482422,16000.0,22.86957550048828
2016-11-17,24.510000228881836,24.420000076293945,24.510000228881836,24.420000076293945,1000.0,22.963611602783203
2016-11-18,24.190000534057617,24.190000534057617,24.190000534057617,24.190000534057617,300.0,22.747329711914062
2016-11-21,24.450000762939453,24.399999618530273,24.43000030517578,24.399999618530273,2400.0,22.944807052612305
2016-11-22,24.559999465942383,24.489999771118164,24.559999465942383,24.520000457763672,15400.0,23.057649612426758
2016-11-23,24.489999771118164,24.375,24.420000076293945,24.479999542236328,21600.0,23.020038604736328
2016-11-25,24.469999313354492,24.440000534057617,24.440000534057617,24.469999313354492,400.0,23.010631561279297
2016-11-28,24.510000228881836,24.459999084472656,24.5,24.5,3800.0,23.03884506225586
2016-11-29,24.639999389648438,24.459999084472656,24.459999084472656,24.625,1100.0,23.156387329101562
2016-11-30,24.610000610351562,24.540000915527344,24.610000610351562,24.540000915527344,3700.0,23.076459884643555
2016-12-01,24.479999542236328,24.170000076293945,24.450000762939453,24.239999771118164,20300.0,22.794347763061523
2016-12-02,24.399999618530273,24.3799991607666,24.399999618530273,24.3799991607666,16900.0,22.92599868774414
2016-12-05,24.549999237060547,24.3700008392334,24.479999542236328,24.549999237060547,22600.0,23.085857391357422
2016-12-06,24.610000610351562,24.43000030517578,24.579999923706055,24.600000381469727,14700.0,23.13288116455078
2016-12-07,24.799999237060547,24.6200008392334,24.6200008392334,24.700000762939453,4300.0,23.226913452148438
2016-12-08,24.899999618530273,24.770000457763672,24.770000457763672,24.899999618530273,3200.0,23.41498565673828
2016-12-09,24.860000610351562,24.700000762939453,24.829999923706055,24.850000381469727,5800.0,23.36796760559082
2016-12-12,24.850000381469727,24.829999923706055,24.850000381469727,24.829999923706055,6400.0,23.34916114807129
2016-12-13,25.1299991607666,25.1200008392334,25.1200008392334,25.1200008392334,1000.0,23.621868133544922
2016-12-14,25.110000610351562,24.625,24.899999618530273,24.625,7700.0,23.156387329101562
2016-12-15,24.690000534057617,24.489999771118164,24.492000579833984,24.690000534057617,7200.0,23.217512130737305
2016-12-16,24.40999984741211,24.21500015258789,24.40999984741211,24.21500015258789,3900.0,23.017894744873047
2016-12-19,24.5,24.290000915527344,24.450000762939453,24.290000915527344,24100.0,23.08918571472168
2016-12-20,24.520000457763672,24.3700008392334,24.3700008392334,24.5,40800.0,23.288803100585938
2016-12-21,24.510000228881836,24.34000015258789,24.489999771118164,24.469999313354492,26000.0,23.260286331176758
2016-12-22,24.459999084472656,24.280000686645508,24.459999084472656,24.415000915527344,6200.0,23.208009719848633
2016-12-23,24.489999771118164,24.420000076293945,24.420000076293945,24.489999771118164,1000.0,23.279296875
2016-12-27,24.530000686645508,24.510000228881836,24.520000457763672,24.530000686645508,1400.0,23.317319869995117
2016-12-28,24.5,24.299999237060547,24.3799991607666,24.299999237060547,4000.0,23.098690032958984
2016-12-29,24.329999923706055,24.31999969482422,24.329999923706055,24.31999969482422,8200.0,23.117700576782227
2016-12-30,24.510000228881836,24.329999923706055,24.329999923706055,24.479999542236328,19300.0,23.269792556762695
2017-01-03,24.6200008392334,24.540000915527344,24.540000915527344,24.6200008392334,3100.0,23.40287208557129
2017-01-04,24.670000076293945,24.610000610351562,24.649999618530273,24.670000076293945,9200.0,23.450401306152344
2017-01-05,25.209999084472656,25.010000228881836,25.062000274658203,25.010000228881836,16400.0,23.773590087890625
2017-01-06,25.010000228881836,25.010000228881836,25.010000228881836,25.010000228881836,0.0,23.773590087890625
2017-01-09,25.1200008392334,24.8700008392334,25.010000228881836,25.100000381469727,3400.0,23.859140396118164
2017-01-10,25.100000381469727,25.100000381469727,25.100000381469727,25.100000381469727,0.0,23.859140396118164
2017-01-11,25.100000381469727,24.81999969482422,24.81999969482422,25.020000457763672,1700.0,23.783098220825195
2017-01-12,25.219999313354492,25.038000106811523,25.209999084472656,25.219999313354492,4800.0,23.97321128845215
2017-01-13,25.31999969482422,25.31999969482422,25.31999969482422,25.31999969482422,200.0,24.068265914916992
2017-01-17,25.31999969482422,25.31999969482422,25.31999969482422,25.31999969482422,0.0,24.068265914916992
2017-01-18,25.299999237060547,25.260000228881836,25.299999237060547,25.299999237060547,700.0,24.049253463745117
2017-01-19,25.059999465942383,25.059999465942383,25.059999465942383,25.059999465942383,2800.0,23.821117401123047
2017-01-20,25.1200008392334,24.950000762939453,25.0,24.950000762939453,4700.0,23.716556549072266
2017-01-23,24.989999771118164,24.979999542236328,24.979999542236328,24.989999771118164,3900.0,23.754581451416016
2017-01-24,25.200000762939453,24.920000076293945,25.1299991607666,24.920000076293945,12000.0,23.688037872314453
2017-01-25,25.329999923706055,25.190000534057617,25.200000762939453,25.200000762939453,2900.0,23.954200744628906
2017-01-26,25.43000030517578,25.190000534057617,25.420000076293945,25.43000030517578,11800.0,24.17282485961914
2017-01-27,25.40999984741211,25.190000534057617,25.40999984741211,25.309999465942383,1700.0,24.058759689331055
2017-01-30,25.309999465942383,25.309999465942383,25.309999465942383,25.309999465942383,0.0,24.058759689331055
2017-01-31,25.31999969482422,25.31999969482422,25.31999969482422,25.31999969482422,12900.0,24.068265914916992
2017-02-01,25.40999984741211,25.309999465942383,25.399999618530273,25.309999465942383,1800.0,24.058759689331055
2017-02-02,25.399999618530273,25.209999084472656,25.350000381469727,25.219999313354492,6700.0,23.97321128845215
2017-02-03,25.350000381469727,25.270000457763672,25.270000457763672,25.350000381469727,1900.0,24.096782684326172
2017-02-06,25.399999618530273,25.235000610351562,25.239999771118164,25.235000610351562,6100.0,23.987468719482422
2017-02-07,25.239999771118164,25.15999984741211,25.239999771118164,25.18000030517578,5900.0,23.93518829345703
2017-02-08,25.540000915527344,25.209999084472656,25.219999313354492,25.520000457763672,16200.0,24.25837516784668
2017-02-09,25.389999389648438,25.325000762939453,25.389999389648438,25.360000610351562,2900.0,24.106287002563477
2017-02-10,25.399999618530273,25.389999389648438,25.389999389648438,25.399999618530273,2000.0,24.144309997558594
2017-02-13,25.540000915527344,25.459999084472656,25.540000915527344,25.540000915527344,5500.0,24.277389526367188
2017-02-14,25.68000030517578,25.479999542236328,25.489999771118164,25.68000030517578,4100.0,24.41046714782715
2017-02-15,25.68000030517578,25.68000030517578,25.68000030517578,25.68000030517578,0.0,24.41046714782715
2017-02-16,25.68000030517578,25.530000686645508,25.68000030517578,25.540000915527344,4000.0,24.277389526367188
2017-02-17,25.540000915527344,25.540000915527344,25.540000915527344,25.540000915527344,0.0,24.277389526367188
2017-02-21,25.709999084472656,25.700000762939453,25.709999084472656,25.709999084472656,400.0,24.43898582458496
2017-02-22,25.610000610351562,25.510000228881836,25.540000915527344,25.610000610351562,3600.0,24.34392738342285
2017-02-23,25.81999969482422,25.6200008392334,25.690000534057617,25.709999084472656,3100.0,24.43898582458496
2017-02-24,25.670000076293945,25.520000457763672,25.670000076293945,25.549999237060547,1300.0,24.286893844604492
2017-02-27,25.690000534057617,25.520000457763672,25.639999389648438,25.65999984741211,14000.0,24.391454696655273
2017-02-28,25.700000762939453,25.469999313354492,25.700000762939453,25.489999771118164,14900.0,24.2298583984375
2017-03-01,25.684999465942383,25.600000381469727,25.684999465942383,25.600000381469727,24100.0,24.334423065185547
2017-03-02,25.56999969482422,25.43000030517578,25.540000915527344,25.489999771118164,5200.0,24.2298583984375
2017-03-03,25.360000610351562,25.299999237060547,25.309999465942383,25.329999923706055,3700.0,24.077770233154297
2017-03-06,25.469999313354492,25.450000762939453,25.459999084472656,25.469999313354492,1000.0,24.21084976196289
2017-03-07,25.549999237060547,25.350000381469727,25.549999237060547,25.5,12500.0,24.239364624023438
2017-03-08,25.40999984741211,25.260000228881836,25.34000015258789,25.371000289916992,20500.0,24.116741180419922
2017-03-09,25.399999618530273,25.399999618530273,25.399999618530273,25.399999618530273,200.0,24.144309997558594
2017-03-10,25.639999389648438,25.469999313354492,25.549999237060547,25.530000686645508,8500.0,24.26788330078125
2017-03-13,25.760000228881836,25.59000015258789,25.6200008392334,25.639999389648438,31000.0,24.37244415283203
2017-03-14,25.639999389648438,25.639999389648438,25.639999389648438,25.639999389648438,0.0,24.37244415283203
2017-03-15,25.829999923706055,25.549999237060547,25.549999237060547,25.829999923706055,2900.0,24.55305290222168
2017-03-16,26.034000396728516,25.9689998626709,26.034000396728516,25.9689998626709,1000.0,24.6851806640625
2017-03-17,25.989999771118164,25.940000534057617,25.940000534057617,25.989999771118164,600.0,24.72894859313965
2017-03-20,26.15999984741211,25.969999313354492,26.010000228881836,26.139999389648438,1000.0,24.87166976928711
2017-03-21,26.299999237060547,25.920000076293945,26.299999237060547,25.920000076293945,4500.0,24.662343978881836
2017-03-22,26.079999923706055,25.81999969482422,25.860000610351562,26.079999923706055,8000.0,24.81458282470703
2017-03-23,26.079999923706055,26.079999923706055,26.079999923706055,26.079999923706055,0.0,24.81458282470703
2017-03-24,26.31999969482422,26.139999389648438,26.270000457763672,26.290000915527344,11200.0,25.014394760131836
2017-03-27,26.190000534057617,26.190000534057617,26.190000534057617,26.190000534057617,1500.0,24.919246673583984
2017-03-28,26.420000076293945,26.290000915527344,26.3700008392334,26.420000076293945,64600.0,25.138084411621094
2017-03-29,26.229999542236328,26.18000030517578,26.219999313354492,26.18000030517578,16800.0,24.909730911254883
2017-03-30,26.22100067138672,26.100000381469727,26.170000076293945,26.100000381469727,6400.0,24.8336124420166
2017-03-31,26.239999771118164,26.030000686645508,26.110000610351562,26.239999771118164,4500.0,24.96681785583496
2017-04-03,26.34000015258789,26.110000610351562,26.139999389648438,26.34000015258789,30600.0,25.061965942382812
2017-04-04,26.2450008392334,26.1299991607666,26.239999771118164,26.149999618530273,4800.0,24.88118553161621
2017-04-05,26.149999618530273,26.149999618530273,26.149999618530273,26.149999618530273,0.0,24.88118553161621
2017-04-06,26.139999389648438,26.0,26.06999969482422,26.024999618530273,24800.0,24.762248992919922
2017-04-07,26.200000762939453,26.04400062561035,26.04400062561035,26.200000762939453,5500.0,24.928760528564453
2017-04-10,26.149999618530273,25.979999542236328,26.110000610351562,26.149999618530273,17200.0,24.88118553161621
2017-04-11,26.25,26.110000610351562,26.2450008392334,26.110000610351562,12500.0,24.84312629699707
2017-04-12,26.18000030517578,26.100000381469727,26.1200008392334,26.18000030517578,10600.0,24.909730911254883
2017-04-13,26.350000381469727,26.170000076293945,26.20599937438965,26.329999923706055,5800.0,25.052448272705078
2017-04-17,26.329999923706055,26.329999923706055,26.329999923706055,26.329999923706055,0.0,25.052448272705078
2017-04-18,26.290000915527344,26.229999542236328,26.239999771118164,26.290000915527344,1500.0,25.014394760131836
2017-04-19,26.350000381469727,26.170000076293945,26.350000381469727,26.170000076293945,35600.0,24.90021324157715
2017-04-20,26.40999984741211,26.350000381469727,26.40999984741211,26.3700008392334,25900.0,25.090511322021484
2017-04-21,26.350000381469727,26.334999084472656,26.34000015258789,26.34000015258789,2900.0,25.061965942382812
2017-04-24,26.84000015258789,26.729999542236328,26.84000015258789,26.760000228881836,13800.0,25.46158790588379
2017-04-25,27.020000457763672,26.850000381469727,26.969999313354492,26.850000381469727,26800.0,25.54722023010254
2017-04-26,26.950000762939453,26.790000915527344,26.809999465942383,26.950000762939453,4200.0,25.642372131347656
2017-04-27,26.969999313354492,26.790000915527344,26.790000915527344,26.969999313354492,3500.0,25.661399841308594
2017-04-28,26.6200008392334,26.6200008392334,26.6200008392334,26.6200008392334,18300.0,25.328380584716797
2017-05-01,27.1299991607666,26.770000457763672,26.829999923706055,26.899999618530273,21700.0,25.59479331970215
2017-05-02,27.19300079345703,27.030000686645508,27.19300079345703,27.110000610351562,19100.0,25.79460334777832
2017-05-03,27.18000030517578,27.0,27.010000228881836,27.15999984741211,13300.0,25.842178344726562
2017-05-04,27.183000564575195,27.06999969482422,27.100000381469727,27.170000076293945,144500.0,25.85169219970703
2017-05-05,27.520000457763672,27.110000610351562,27.139999389648438,27.510000228881836,1600.0,26.17519760131836
2017-05-08,27.510000228881836,27.309999465942383,27.468000411987305,27.510000228881836,4000.0,26.17519760131836
2017-05-09,27.549999237060547,27.350000381469727,27.43000030517578,27.549999237060547,17600.0,26.213254928588867
2017-05-10,27.649999618530273,27.329999923706055,27.44499969482422,27.649999618530273,4200.0,26.30840301513672
2017-05-11,27.520000457763672,27.3799991607666,27.3799991607666,27.520000457763672,6700.0,26.18471336364746
2017-05-12,27.459999084472656,27.399999618530273,27.399999618530273,27.459999084472656,14200.0,26.127622604370117
2017-05-15,27.790000915527344,27.579999923706055,27.6200008392334,27.6299991607666,6600.0,26.28937339782715
2017-05-16,27.770000457763672,27.719999313354492,27.75,27.760000228881836,24900.0,26.413068771362305
2017-05-17,27.709999084472656,27.579999923706055,27.670000076293945,27.579999923706055,26400.0,26.24180030822754
2017-05-18,27.579999923706055,27.579999923706055,27.579999923706055,27.579999923706055,0.0,26.24180030822754
2017-05-19,28.100000381469727,27.940000534057617,27.969999313354492,28.09000015258789,2600.0,26.72705841064453
2017-05-22,28.190000534057617,28.020000457763672,28.09000015258789,28.18000030517578,32000.0,26.81268882751465
2017-05-23,28.209999084472656,28.049999237060547,28.059999465942383,28.209999084472656,11400.0,26.841228485107422
2017-05-24,28.18000030517578,28.010000228881836,28.16200065612793,28.145000457763672,12200.0,26.77938461303711
2017-05-25,28.209999084472656,28.1200008392334,28.174999237060547,28.149999618530273,133500.0,26.784143447875977
2017-05-26,28.290000915527344,27.969999313354492,27.969999313354492,28.28499984741211,2300.0,26.9125919342041
2017-05-30,28.149999618530273,28.110000610351562,28.149999618530273,28.110000610351562,3300.0,26.746084213256836
2017-05-31,28.3700008392334,28.229999542236328,28.229999542236328,28.239999771118164,20000.0,26.86977767944336
2017-06-01,28.420000076293945,28.3700008392334,28.3700008392334,28.420000076293945,11400.0,27.04104232788086
2017-06-02,28.8700008392334,28.559999465942383,28.56999969482422,28.8700008392334,9300.0,27.469207763671875
2017-06-05,28.8700008392334,28.8700008392334,28.8700008392334,28.8700008392334,0.0,27.469207763671875
2017-06-06,28.84000015258789,28.68000030517578,28.760000228881836,28.84000015258789,51600.0,27.440662384033203
2017-06-07,28.639999389648438,28.6299991607666,28.639999389648438,28.6299991607666,2100.0,27.24085235595703
2017-06-08,28.649999618530273,28.510000228881836,28.510000228881836,28.559999465942383,28100.0,27.174251556396484
2017-06-09,28.4950008392334,28.18000030517578,28.18000030517578,28.4950008392334,3800.0,27.112401962280273
2017-06-12,28.399999618530273,28.350000381469727,28.350000381469727,28.399999618530273,1100.0,27.022014617919922
2017-06-13,28.530000686645508,28.520000457763672,28.530000686645508,28.520000457763672,8200.0,27.136192321777344
2017-06-14,28.84000015258789,28.690000534057617,28.709999084472656,28.84000015258789,6600.0,27.440662384033203
2017-06-15,28.530000686645508,28.25,28.260000228881836,28.530000686645508,25900.0,27.145706176757812
2017-06-16,28.31999969482422,28.167999267578125,28.200000762939453,28.31999969482422,4900.0,27.241899490356445
2017-06-19,28.385000228881836,28.385000228881836,28.385000228881836,28.385000228881836,2500.0,27.304424285888672
2017-06-20,28.19499969482422,28.049999237060547,28.19499969482422,28.06999969482422,18500.0,27.001415252685547
2017-06-21,28.079999923706055,28.040000915527344,28.049999237060547,28.079999923706055,2600.0,27.011035919189453
2017-06-22,28.135000228881836,28.040000915527344,28.110000610351562,28.059999465942383,63500.0,26.991798400878906
2017-06-23,28.219999313354492,28.1200008392334,28.219999313354492,28.1200008392334,6400.0,27.049510955810547
2017-06-26,28.360000610351562,28.100000381469727,28.360000610351562,28.110000610351562,8900.0,27.039894104003906
2017-06-27,28.040000915527344,27.979999542236328,28.0,27.979999542236328,5400.0,26.914844512939453
2017-06-28,28.209999084472656,28.079999923706055,28.079999923706055,28.209999084472656,1400.0,27.136085510253906
2017-06-29,27.959999084472656,27.809999465942383,27.959999084472656,27.8700008392334,40400.0,26.809032440185547
2017-06-30,28.0,27.90999984741211,27.90999984741211,27.969999313354492,11300.0,26.905221939086914
2017-07-03,27.969999313354492,27.950000762939453,27.969999313354492,27.950000762939453,300.0,26.885984420776367
2017-07-05,27.84000015258789,27.690000534057617,27.81999969482422,27.739999771118164,4600.0,26.683979034423828
2017-07-06,27.729999542236328,27.59000015258789,27.729999542236328,27.719999313354492,8200.0,26.664735794067383
2017-07-07,27.850000381469727,27.6200008392334,27.65999984741211,27.850000381469727,30800.0,26.7897891998291
2017-07-10,27.899999618530273,27.709999084472656,27.889999389648438,27.84000015258789,19500.0,26.78017234802246
2017-07-11,27.809999465942383,27.610000610351562,27.809999465942383,27.68000030517578,38600.0,26.626264572143555
2017-07-12,27.902000427246094,27.809999465942383,27.902000427246094,27.84000015258789,14800.0,26.78017234802246
2017-07-13,28.049999237060547,27.860000610351562,27.899999618530273,27.950000762939453,19200.0,26.885984420776367
2017-07-14,28.06999969482422,28.049999237060547,28.059999465942383,28.049999237060547,1700.0,26.982173919677734
2017-07-17,28.1299991607666,28.110000610351562,28.110000610351562,28.1299991607666,600.0,27.059131622314453
2017-07-18,28.299999237060547,28.200000762939453,28.299999237060547,28.200000762939453,5200.0,27.126466751098633
2017-07-19,28.549999237060547,28.3799991607666,28.469999313354492,28.510000228881836,16000.0,27.424667358398438
2017-07-20,28.520000457763672,28.40999984741211,28.45599937438965,28.459999084472656,4200.0,27.376569747924805
2017-07-21,28.426000595092773,28.309999465942383,28.309999465942383,28.34000015258789,12300.0,27.261138916015625
2017-07-24,28.510000228881836,28.290000915527344,28.510000228881836,28.489999771118164,12900.0,27.405427932739258
2017-07-25,28.579999923706055,28.34000015258789,28.579999923706055,28.34000015258789,8200.0,27.261138916015625
2017-07-26,28.454999923706055,28.309999465942383,28.309999465942383,28.454999923706055,1200.0,27.371761322021484
2017-07-27,28.84000015258789,28.40999984741211,28.40999984741211,28.549999237060547,4400.0,27.46314239501953
2017-07-28,28.579999923706055,28.479999542236328,28.579999923706055,28.479999542236328,1200.0,27.39580535888672
2017-07-31,28.6200008392334,28.469999313354492,28.56999969482422,28.56999969482422,46400.0,27.482383728027344
2017-08-01,28.790000915527344,28.649999618530273,28.690000534057617,28.780000686645508,47600.0,27.68438720703125
2017-08-02,28.809999465942383,28.780000686645508,28.780000686645508,28.809999465942383,2200.0,27.713245391845703
2017-08-03,28.84000015258789,28.68600082397461,28.81999969482422,28.809999465942383,5900.0,27.713245391845703
2017-08-04,28.850000381469727,28.639999389648438,28.850000381469727,28.690000534057617,1000.0,27.59781265258789
2017-08-07,28.757999420166016,28.670000076293945,28.670000076293945,28.75200080871582,1300.0,27.657453536987305
2017-08-08,28.790000915527344,28.540000915527344,28.790000915527344,28.549999237060547,11800.0,27.46314239501953
2017-08-09,28.54800033569336,28.43000030517578,28.54800033569336,28.51799964904785,5300.0,27.432361602783203
2017-08-10,28.440000534057617,28.290000915527344,28.440000534057617,28.360000610351562,21300.0,27.280376434326172
2017-08-11,28.405000686645508,28.139999389648438,28.320999145507812,28.3799991607666,25300.0,27.29961395263672
2017-08-14,28.56999969482422,28.43000030517578,28.43000030517578,28.56999969482422,1900.0,27.482383728027344
2017-08-15,28.440000534057617,28.389999389648438,28.389999389648438,28.43899917602539,1700.0,27.356367111206055
2017-08-16,28.47599983215332,28.450000762939453,28.450000762939453,28.47599983215332,6300.0,27.39196014404297
2017-08-17,28.469999313354492,28.399999618530273,28.459999084472656,28.399999618530273,10400.0,27.3188533782959
2017-08-18,28.399999618530273,28.399999618530273,28.399999618530273,28.399999618530273,0.0,27.3188533782959
2017-08-21,28.45400047302246,28.299999237060547,28.31999969482422,28.45400047302246,9800.0,27.370800018310547
2017-08-22,28.639999389648438,28.469999313354492,28.510000228881836,28.639999389648438,9900.0,27.54971694946289
2017-08-23,28.558000564575195,28.3700008392334,28.54400062561035,28.530000686645508,9200.0,27.443906784057617
2017-08-24,28.530000686645508,28.389999389648438,28.389999389648438,28.530000686645508,3100.0,27.443906784057617
2017-08-25,28.65999984741211,28.43000030517578,28.520000457763672,28.65999984741211,54800.0,27.568952560424805
2017-08-28,28.658000946044922,28.59000015258789,28.635000228881836,28.658000946044922,14400.0,27.567033767700195
2017-08-29,28.6299991607666,28.47100067138672,28.489999771118164,28.56999969482422,34000.0,27.482383728027344
2017-08-30,28.56999969482422,28.469999313354492,28.549999237060547,28.56999969482422,5000.0,27.482383728027344
2017-08-31,28.809999465942383,28.540000915527344,28.590999603271484,28.809999465942383,19300.0,27.713245391845703
2017-09-01,28.790000915527344,28.775999069213867,28.790000915527344,28.777999877929688,700.0,27.682462692260742
2017-09-05,28.57900047302246,28.360000610351562,28.530000686645508,28.469999313354492,10300.0,27.386186599731445
2017-09-06,28.649999618530273,28.469999313354492,28.579999923706055,28.6200008392334,29600.0,27.530479431152344
2017-09-07,28.979999542236328,28.756000518798828,28.756000518798828,28.979999542236328,11500.0,27.876771926879883
2017-09-08,29.020000457763672,28.8799991607666,28.969999313354492,28.8799991607666,2300.0,27.78057861328125
2017-09-11,29.020000457763672,28.8799991607666,29.020000457763672,28.8799991607666,19300.0,27.78057861328125
2017-09-12,29.09000015258789,28.860000610351562,28.860000610351562,29.079999923706055,34900.0,27.97296905517578
2017-09-13,28.989999771118164,28.760000228881836,28.860000610351562,28.8799991607666,4500.0,27.78057861328125
2017-09-14,28.899999618530273,28.75,28.760000228881836,28.888999938964844,8600.0,27.78923797607422
2017-09-15,28.790000915527344,28.68000030517578,28.790000915527344,28.68000030517578,1500.0,27.588193893432617
2017-09-18,28.989999771118164,28.700000762939453,28.989999771118164,28.84000015258789,9400.0,27.850866317749023
2017-09-19,28.920000076293945,28.899999618530273,28.899999618530273,28.920000076293945,400.0,27.92812156677246
2017-09-20,28.93199920654297,28.76099967956543,28.93000030517578,28.76099967956543,1100.0,27.774574279785156
2017-09-21,28.690000534057617,28.56999969482422,28.579999923706055,28.690000534057617,19700.0,27.706012725830078
2017-09-22,28.729999542236328,28.610000610351562,28.670000076293945,28.729999542236328,15400.0,27.744638442993164
2017-09-25,28.649999618530273,28.559999465942383,28.6299991607666,28.6299991607666,11300.0,27.6480655670166
2017-09-26,28.600000381469727,28.469999313354492,28.600000381469727,28.510000228881836,27300.0,27.532184600830078
2017-09-27,28.459999084472656,28.360000610351562,28.459999084472656,28.3700008392334,5600.0,27.39698600769043
2017-09-28,28.700000762939453,28.520000457763672,28.6200008392334,28.68000030517578,7700.0,27.696353912353516
2017-09-29,28.790000915527344,28.68000030517578,28.68000030517578,28.790000915527344,600.0,27.802581787109375
2017-10-02,28.780000686645508,28.649999618530273,28.719999313354492,28.780000686645508,64000.0,27.792924880981445
2017-10-03,28.850000381469727,28.719999313354492,28.770000457763672,28.719999313354492,80200.0,27.734983444213867
2017-10-04,28.829999923706055,28.719999313354492,28.770000457763672,28.829999923706055,43700.0,27.84120750427246
2017-10-05,28.90999984741211,28.739999771118164,28.829999923706055,28.899999618530273,10600.0,27.90880584716797
2017-10-06,28.78499984741211,28.690000534057617,28.690000534057617,28.70599937438965,1100.0,27.72146224975586
2017-10-09,28.815000534057617,28.781999588012695,28.815000534057617,28.781999588012695,500.0,27.79485511779785
2017-10-10,29.079999923706055,28.959999084472656,28.959999084472656,29.079999923706055,1600.0,28.08263397216797
2017-10-11,29.059999465942383,29.030000686645508,29.040000915527344,29.030000686645508,23800.0,28.03434944152832
2017-10-12,29.030000686645508,29.030000686645508,29.030000686645508,29.030000686645508,0.0,28.03434944152832
2017-10-13,29.40999984741211,29.299999237060547,29.299999237060547,29.40999984741211,800.0,28.401317596435547
2017-10-16,29.378000259399414,29.30500030517578,29.34000015258789,29.30500030517578,4400.0,28.299917221069336
2017-10-17,29.309999465942383,29.149999618530273,29.299999237060547,29.299999237060547,1700.0,28.295087814331055
2017-10-18,29.459999084472656,29.209999084472656,29.219999313354492,29.399999618530273,401500.0,28.391660690307617
2017-10-19,29.31999969482422,29.25,29.270000457763672,29.290000915527344,6700.0,28.285432815551758
2017-10-20,29.34000015258789,29.34000015258789,29.34000015258789,29.34000015258789,500.0,28.333717346191406
2017-10-23,29.34000015258789,29.209999084472656,29.34000015258789,29.219999313354492,48500.0,28.217832565307617
2017-10-24,29.350000381469727,29.190000534057617,29.219999313354492,29.350000381469727,10500.0,28.343374252319336
2017-10-25,29.170000076293945,29.079999923706055,29.170000076293945,29.100000381469727,3600.0,28.10194969177246
2017-10-26,29.290000915527344,29.18000030517578,29.290000915527344,29.18000030517578,19700.0,28.1792049407959
2017-10-27,29.34000015258789,29.23200035095215,29.25,29.34000015258789,1000.0,28.333717346191406
2017-10-30,29.3799991607666,29.200000762939453,29.31999969482422,29.3799991607666,26800.0,28.372344970703125
2017-10-31,29.354999542236328,29.354999542236328,29.354999542236328,29.354999542236328,600.0,28.348201751708984
2017-11-01,29.575000762939453,29.450000762939453,29.540000915527344,29.454999923706055,19000.0,28.44477081298828
2017-11-02,29.469999313354492,29.399999618530273,29.399999618530273,29.450000762939453,11700.0,28.439943313598633
2017-11-03,29.496999740600586,29.459999084472656,29.469999313354492,29.489999771118164,14700.0,28.47857093811035
2017-11-06,29.6299991607666,29.469999313354492,29.479999542236328,29.5,8500.0,28.488229751586914
2017-11-07,29.600000381469727,29.479999542236328,29.600000381469727,29.489999771118164,20700.0,28.47857093811035
2017-11-08,29.64299964904785,29.579999923706055,29.600000381469727,29.639999389648438,3600.0,28.62342643737793
2017-11-09,29.440000534057617,29.360000610351562,29.389999389648438,29.440000534057617,13400.0,28.430288314819336
2017-11-10,29.59000015258789,29.43000030517578,29.459999084472656,29.579999923706055,12700.0,28.56548309326172
2017-11-13,29.399999618530273,29.270000457763672,29.270000457763672,29.356000900268555,3000.0,28.349170684814453
2017-11-14,29.440000534057617,29.292999267578125,29.292999267578125,29.440000534057617,2900.0,28.430288314819336
2017-11-15,29.299999237060547,29.104999542236328,29.18000030517578,29.290000915527344,14900.0,28.285432815551758
2017-11-16,29.639999389648438,29.510000228881836,29.545000076293945,29.610000610351562,4900.0,28.594457626342773
2017-11-17,29.420000076293945,29.361000061035156,29.40999984741211,29.405000686645508,6100.0,28.396488189697266
2017-11-20,29.56999969482422,29.450000762939453,29.450000762939453,29.540000915527344,4200.0,28.526859283447266
2017-11-21,29.65999984741211,29.540000915527344,29.579999923706055,29.65999984741211,63300.0,28.642742156982422
2017-11-22,29.729999542236328,29.639999389648438,29.645000457763672,29.68000030517578,13300.0,28.66205596923828
2017-11-24,29.68000030517578,29.68000030517578,29.68000030517578,29.68000030517578,100.0,28.66205596923828
2017-11-27,29.950000762939453,29.690000534057617,29.950000762939453,29.809999465942383,14500.0,28.78759765625
2017-11-28,29.829999923706055,29.770000457763672,29.780000686645508,29.81999969482422,7700.0,28.79725456237793
2017-11-29,29.90999984741211,29.77899932861328,29.84000015258789,29.829999923706055,30700.0,28.80691146850586
2017-11-30,30.079999923706055,29.899999618530273,29.899999618530273,29.979999542236328,11200.0,28.951765060424805
2017-12-01,29.84000015258789,29.709999084472656,29.780000686645508,29.770000457763672,11900.0,28.74896812438965
2017-12-04,29.90999984741211,29.770000457763672,29.770000457763672,29.780000686645508,2500.0,28.75862693786621
2017-12-05,30.0,29.729999542236328,30.0,29.729999542236328,4500.0,28.710342407226562
2017-12-06,29.68000030517578,29.579999923706055,29.610000610351562,29.639999389648438,63300.0,28.62342643737793
2017-12-07,29.809999465942383,29.700000762939453,29.709999084472656,29.739999771118164,29500.0,28.71999740600586
2017-12-08,29.8799991607666,29.75,29.809999465942383,29.8799991607666,5000.0,28.855195999145508
2017-12-11,29.989999771118164,29.841999053955078,29.841999053955078,29.90999984741211,6400.0,28.884166717529297
2017-12-12,29.8799991607666,29.719999313354492,29.815000534057617,29.8799991607666,15600.0,28.855195999145508
2017-12-13,30.2189998626709,29.8700008392334,29.889999389648438,30.06999969482422,20200.0,29.038679122924805
2017-12-14,30.18000030517578,29.969999313354492,30.18000030517578,29.969999313354492,27200.0,28.942110061645508
2017-12-15,30.030000686645508,29.969999313354492,29.969999313354492,30.0049991607666,5600.0,28.975910186767578
2017-12-18,29.899999618530273,29.809999465942383,29.899999618530273,29.809999465942383,3400.0,29.159807205200195
2017-12-19,29.989999771118164,29.75,29.774999618530273,29.75,11200.0,29.101116180419922
2017-12-20,29.84000015258789,29.709999084472656,29.84000015258789,29.809999465942383,18100.0,29.159807205200195
2017-12-21,29.899999618530273,29.764999389648438,29.799999237060547,29.764999389648438,3700.0,29.115787506103516
2017-12-22,29.920000076293945,29.65999984741211,29.65999984741211,29.920000076293945,50000.0,29.267410278320312
2017-12-26,30.06999969482422,29.81999969482422,30.06999969482422,29.81999969482422,8800.0,29.16958999633789
2017-12-27,30.030000686645508,29.899999618530273,29.899999618530273,30.020000457763672,5800.0,29.365230560302734
2017-12-28,30.190000534057617,30.100000381469727,30.100000381469727,30.15999984741211,10600.0,29.502174377441406
2017-12-29,30.290000915527344,30.09000015258789,30.184999465942383,30.145000457763672,1600.0,29.48750114440918
2018-01-02,30.3799991607666,30.15999984741211,30.200000762939453,30.280000686645508,25100.0,29.619558334350586
2018-01-03,30.540000915527344,30.40999984741211,30.43000030517578,30.540000915527344,2900.0,29.873886108398438
2018-01-04,30.770000457763672,30.649999618530273,30.770000457763672,30.700000762939453,2300.0,30.0303955078125
2018-01-05,30.770000457763672,30.709999084472656,30.764999389648438,30.760000228881836,1600.0,30.089086532592773
2018-01-08,30.827999114990234,30.827999114990234,30.827999114990234,30.827999114990234,200.0,30.155603408813477
2018-01-09,30.920000076293945,30.790000915527344,30.82900047302246,30.8700008392334,10300.0,30.19668960571289
2018-01-10,30.950000762939453,30.829999923706055,30.950000762939453,30.899999618530273,9600.0,30.226032257080078
2018-01-11,30.899999618530273,30.899999618530273,30.899999618530273,30.899999618530273,0.0,30.226032257080078
2018-01-12,31.209999084472656,30.959999084472656,30.959999084472656,31.200000762939453,12700.0,30.51949119567871
2018-01-16,31.360000610351562,31.09000015258789,31.170000076293945,31.173999786376953,37700.0,30.494056701660156
2018-01-17,31.29400062561035,31.19499969482422,31.19499969482422,31.29400062561035,1900.0,30.611440658569336
2018-01-18,31.170000076293945,31.049999237060547,31.049999237060547,31.100000381469727,2700.0,30.421672821044922
2018-01-19,31.399999618530273,31.229999542236328,31.389999389648438,31.290000915527344,9200.0,30.607526779174805
2018-01-22,31.385000228881836,31.239999771118164,31.270000457763672,31.3799991607666,7300.0,30.69556427001953
2018-01-23,31.549999237060547,31.459999084472656,31.549999237060547,31.520000457763672,5700.0,30.832509994506836
2018-01-24,32.0099983215332,31.75,31.8700008392334,31.81999969482422,6700.0,31.12596893310547
2018-01-25,31.874000549316406,31.56999969482422,31.849000930786133,31.59000015258789,2800.0,30.900981903076172
2018-01-26,31.59000015258789,31.59000015258789,31.59000015258789,31.59000015258789,0.0,30.900981903076172
2018-01-29,31.809999465942383,31.559999465942383,31.790000915527344,31.700000762939453,6100.0,31.00858497619629
2018-01-30,31.530000686645508,31.34000015258789,31.530000686645508,31.350000381469727,10300.0,30.66621971130371
2018-01-31,31.600000381469727,31.486000061035156,31.510000228881836,31.510000228881836,37500.0,30.822729110717773
2018-02-01,31.56800079345703,31.46500015258789,31.489999771118164,31.479999542236328,42800.0,30.79338264465332
2018-02-02,31.19499969482422,31.059999465942383,31.19499969482422,31.059999465942383,7300.0,30.38254165649414
2018-02-05,30.610000610351562,29.89900016784668,30.610000610351562,29.89900016784668,9800.0,29.24686622619629
2018-02-06,30.219999313354492,29.59000015258789,29.885000228881836,30.219999313354492,3900.0,29.560863494873047
2018-02-07,30.110000610351562,29.8799991607666,29.8799991607666,30.035999298095703,11400.0,29.380878448486328
2018-02-08,30.035999298095703,30.035999298095703,30.035999298095703,30.035999298095703,0.0,29.380878448486328
2018-02-09,29.56399917602539,28.829999923706055,29.479999542236328,29.309999465942383,6300.0,28.670711517333984
2018-02-12,29.729999542236328,29.6200008392334,29.6200008392334,29.670000076293945,7000.0,29.02286148071289
2018-02-13,29.6299991607666,29.56999969482422,29.610000610351562,29.59000015258789,1800.0,28.94460678100586
2018-02-14,29.985000610351562,29.760000228881836,29.780000686645508,29.985000610351562,9100.0,29.330989837646484
2018-02-15,30.312000274658203,30.239999771118164,30.256000518798828,30.312000274658203,2000.0,29.65085792541504
2018-02-16,30.469999313354492,30.469999313354492,30.469999313354492,30.469999313354492,200.0,29.80541229248047
2018-02-20,30.520000457763672,30.450000762939453,30.520000457763672,30.479999542236328,3000.0,29.815195083618164
2018-02-21,30.459999084472656,30.440000534057617,30.459999084472656,30.440000534057617,600.0,29.776065826416016
2018-02-22,30.489999771118164,30.42300033569336,30.489999771118164,30.42300033569336,1000.0,29.759437561035156
2018-02-23,30.65999984741211,30.459999084472656,30.469999313354492,30.65999984741211,600.0,29.991268157958984
2018-02-26,30.739999771118164,30.65999984741211,30.709999084472656,30.729999542236328,1300.0,30.05974006652832
2018-02-27,30.610000610351562,30.389999389648438,30.610000610351562,30.450000762939453,1900.0,29.785850524902344
2018-02-28,30.34000015258789,30.260000228881836,30.34000015258789,30.260000228881836,600.0,29.599992752075195
2018-03-01,30.059999465942383,29.84000015258789,30.049999237060547,29.84000015258789,700.0,29.18915367126465
2018-03-02,29.950000762939453,29.75,29.760000228881836,29.950000762939453,6500.0,29.296754837036133
2018-03-05,30.020000457763672,29.950000762939453,30.0,30.020000457763672,4700.0,29.365230560302734
2018-03-06,30.329999923706055,30.200000762939453,30.209999084472656,30.299999237060547,6000.0,29.639118194580078
2018-03-07,30.211999893188477,30.1200008392334,30.194000244140625,30.211999893188477,4600.0,29.55303955078125
2018-03-08,30.211999893188477,30.211999893188477,30.211999893188477,30.211999893188477,0.0,29.55303955078125
2018-03-09,30.59000015258789,30.55699920654297,30.55699920654297,30.586000442504883,500.0,29.918880462646484
2018-03-12,30.65999984741211,30.632999420166016,30.65999984741211,30.632999420166016,9900.0,29.96485710144043
2018-03-13,30.760000228881836,30.540000915527344,30.75,30.549999237060547,3400.0,29.883668899536133
2018-03-14,30.614999771118164,30.399999618530273,30.569000244140625,30.489999771118164,12400.0,29.824975967407227
2018-03-15,30.65999984741211,30.61400032043457,30.649999618530273,30.6299991607666,1300.0,29.9619197845459
2018-03-16,30.530000686645508,30.479999542236328,30.530000686645508,30.51300048828125,14100.0,29.847475051879883
2018-03-19,30.25,30.209999084472656,30.25,30.216999053955078,2800.0,29.583139419555664
2018-03-20,30.260000228881836,30.260000228881836,30.260000228881836,30.260000228881836,1600.0,29.62523651123047
2018-03-21,30.2549991607666,30.149999618530273,30.149999618530273,30.2549991607666,1000.0,29.62034034729004
2018-03-22,30.190000534057617,29.91900062561035,30.190000534057617,30.010000228881836,2700.0,29.380481719970703
2018-03-23,29.860000610351562,29.690000534057617,29.860000610351562,29.690000534057617,4800.0,29.06719398498535
2018-03-26,29.864999771118164,29.639999389648438,29.639999389648438,29.864999771118164,1500.0,29.238523483276367
2018-03-27,30.149999618530273,29.895000457763672,30.149999618530273,29.895000457763672,5600.0,29.267892837524414
2018-03-28,29.999000549316406,29.799999237060547,29.799999237060547,29.895000457763672,4000.0,29.267892837524414
2018-03-29,30.389999389648438,30.239999771118164,30.239999771118164,30.3799991607666,4800.0,29.742719650268555
2018-04-02,30.010000228881836,29.56999969482422,30.010000228881836,29.56999969482422,12800.0,28.949710845947266
2018-04-03,30.04599952697754,29.910999298095703,29.989999771118164,30.04599952697754,2100.0,29.415727615356445
2018-04-04,29.93400001525879,29.7450008392334,29.8700008392334,29.93400001525879,4400.0,29.306076049804688
2018-04-05,30.21299934387207,30.176000595092773,30.21299934387207,30.176000595092773,400.0,29.542999267578125
2018-04-06,30.260000228881836,29.959999084472656,30.260000228881836,30.040000915527344,2100.0,29.409852981567383
2018-04-09,30.309999465942383,30.309999465942383,30.309999465942383,30.309999465942383,200.0,29.67418670654297
2018-04-10,30.461000442504883,30.360000610351562,30.399999618530273,30.399999618530273,3600.0,29.762300491333008
2018-04-11,30.399999618530273,30.399999618530273,30.399999618530273,30.399999618530273,0.0,29.762300491333008
2018-04-12,30.329999923706055,30.25,30.25,30.329999923706055,1400.0,29.693767547607422
2018-04-13,30.31999969482422,30.2450008392334,30.31999969482422,30.312000274658203,5500.0,29.676145553588867
2018-04-16,30.312000274658203,30.312000274658203,30.312000274658203,30.312000274658203,0.0,29.676145553588867
2018-04-17,30.691999435424805,30.56999969482422,30.600000381469727,30.691999435424805,2500.0,30.048173904418945
2018-04-18,30.691999435424805,30.691999435424805,30.691999435424805,30.691999435424805,0.0,30.048173904418945
2018-04-19,30.729999542236328,30.6299991607666,30.729999542236328,30.6299991607666,1500.0,29.987472534179688
2018-04-20,30.6200008392334,30.549999237060547,30.600000381469727,30.549999237060547,800.0,29.909154891967773
2018-04-23,30.510000228881836,30.3799991607666,30.389999389648438,30.510000228881836,1700.0,29.8699951171875
2018-04-24,30.489999771118164,30.360000610351562,30.479999542236328,30.413999557495117,9400.0,29.776004791259766
2018-04-25,30.360000610351562,30.288000106811523,30.360000610351562,30.292999267578125,1000.0,29.65754508972168
2018-04-26,30.764999389648438,30.55900001525879,30.69499969482422,30.700000762939453,2300.0,30.056007385253906
2018-04-27,30.850000381469727,30.540000915527344,30.610000610351562,30.815000534057617,3300.0,30.168596267700195
2018-04-30,30.757999420166016,30.530000686645508,30.610000610351562,30.65999984741211,2000.0,30.016845703125
2018-05-01,30.56999969482422,30.520000457763672,30.520000457763672,30.56999969482422,600.0,29.928733825683594
2018-05-02,30.690000534057617,30.40999984741211,30.670000076293945,30.43000030517578,13800.0,29.791671752929688
2018-05-03,30.68000030517578,30.3700008392334,30.3700008392334,30.68000030517578,17900.0,30.036426544189453
2018-05-04,30.56999969482422,30.420000076293945,30.510000228881836,30.540000915527344,2800.0,29.899364471435547
2018-05-07,30.790000915527344,30.510000228881836,30.6299991607666,30.549999237060547,5900.0,29.909154891967773
2018-05-08,30.899999618530273,30.59000015258789,30.59000015258789,30.65999984741211,7800.0,30.016845703125
2018-05-09,30.739999771118164,30.670000076293945,30.709999084472656,30.716999053955078,5800.0,30.072650909423828
2018-05-10,31.09000015258789,30.649999618530273,31.09000015258789,30.916000366210938,5400.0,30.26747703552246
2018-05-11,31.09000015258789,30.90999984741211,31.079999923706055,31.059999465942383,8600.0,30.4084529876709
2018-05-14,31.149999618530273,30.989999771118164,31.059999465942383,31.05900001525879,4300.0,30.4074764251709
2018-05-15,30.75,30.549999237060547,30.549999237060547,30.75,700.0,30.104957580566406
2018-05-16,30.780000686645508,30.65999984741211,30.65999984741211,30.770000457763672,700.0,30.12453842163086
2018-05-17,30.90999984741211,30.801000595092773,30.889999389648438,30.801000595092773,1100.0,30.154890060424805
2018-05-18,30.93899917602539,30.639999389648438,30.799999237060547,30.639999389648438,5500.0,29.997264862060547
2018-05-21,30.90999984741211,30.81999969482422,30.81999969482422,30.90999984741211,1500.0,30.2616024017334
2018-05-22,31.170000076293945,30.84000015258789,30.8799991607666,31.170000076293945,4200.0,30.51614761352539
2018-05-23,30.780000686645508,30.510000228881836,30.56999969482422,30.673999786376953,4200.0,30.03055191040039
2018-05-24,30.729999542236328,30.440000534057617,30.440000534057617,30.549999237060547,3200.0,29.909154891967773
2018-05-25,30.440000534057617,30.440000534057617,30.440000534057617,30.440000534057617,200.0,29.80146026611328
2018-05-29,30.209999084472656,30.09000015258789,30.110000610351562,30.107999801635742,1700.0,29.47642707824707
2018-05-30,30.107999801635742,30.107999801635742,30.107999801635742,30.107999801635742,0.0,29.47642707824707
2018-05-31,30.540000915527344,30.290000915527344,30.540000915527344,30.34600067138672,2400.0,29.709434509277344
2018-06-01,30.625,30.389999389648438,30.389999389648438,30.46500015258789,22400.0,29.825937271118164
2018-06-04,30.885000228881836,30.6200008392334,30.885000228881836,30.6200008392334,800.0,29.977685928344727
2018-06-05,30.673999786376953,30.6299991607666,30.639999389648438,30.667999267578125,1600.0,30.024677276611328
2018-06-06,30.850000381469727,30.719999313354492,30.850000381469727,30.729999542236328,3000.0,30.085376739501953
2018-06-07,30.799999237060547,30.655000686645508,30.799999237060547,30.770000457763672,800.0,30.12453842163086
2018-06-08,30.7549991607666,30.600000381469727,30.600000381469727,30.7549991607666,1600.0,30.109853744506836
2018-06-11,31.0,30.899999618530273,30.899999618530273,30.950000762939453,6700.0,30.300764083862305
2018-06-12,31.030000686645508,30.709999084472656,30.899999618530273,30.709999084472656,11300.0,30.0657958984375
2018-06-13,30.950000762939453,30.875,30.940000534057617,30.8799991607666,1500.0,30.23223114013672
2018-06-14,30.8700008392334,30.75,30.8700008392334,30.75,600.0,30.104957580566406
2018-06-15,30.6200008392334,30.450000762939453,30.6200008392334,30.454999923706055,900.0,29.816144943237305
2018-06-18,30.100000381469727,29.90999984741211,30.100000381469727,29.920000076293945,1000.0,29.60440444946289
2018-06-19,29.709999084472656,29.530000686645508,29.709999084472656,29.579999923706055,4200.0,29.267990112304688
2018-06-20,29.84000015258789,29.639999389648438,29.81999969482422,29.639999389648438,4800.0,29.327356338500977
2018-06-21,29.6299991607666,29.510000228881836,29.579999923706055,29.540000915527344,13700.0,29.228412628173828
2018-06-22,29.989999771118164,29.850000381469727,29.989999771118164,29.889999389648438,4600.0,29.57472038269043
2018-06-25,29.739999771118164,29.469999313354492,29.697999954223633,29.469999313354492,4500.0,29.159149169921875
2018-06-26,29.600000381469727,29.5,29.549999237060547,29.56999969482422,1100.0,29.258094787597656
2018-06-27,29.639999389648438,29.219999313354492,29.639999389648438,29.219999313354492,4600.0,28.911785125732422
2018-06-28,29.170000076293945,29.170000076293945,29.170000076293945,29.170000076293945,100.0,28.862314224243164
2018-06-29,29.520000457763672,29.520000457763672,29.520000457763672,29.520000457763672,500.0,29.208621978759766
2018-07-02,29.09000015258789,28.8700008392334,29.0,29.09000015258789,900.0,28.783157348632812
2018-07-03,29.200000762939453,29.010000228881836,29.190000534057617,29.010000228881836,4200.0,28.704002380371094
2018-07-05,29.18000030517578,29.020000457763672,29.18000030517578,29.08799934387207,3800.0,28.781179428100586
2018-07-06,29.2450008392334,29.149999618530273,29.2450008392334,29.170000076293945,3100.0,28.862314224243164
2018-07-09,29.493999481201172,29.450000762939453,29.450000762939453,29.459999084472656,1700.0,29.149255752563477
2018-07-10,29.579999923706055,29.47800064086914,29.579999923706055,29.47800064086914,800.0,29.16706657409668
2018-07-11,29.360000610351562,29.084999084472656,29.290000915527344,29.084999084472656,6300.0,28.77821159362793
2018-07-12,29.211999893188477,29.100000381469727,29.110000610351562,29.155000686645508,5200.0,28.84747314453125
2018-07-13,29.351999282836914,29.18000030517578,29.351999282836914,29.290000915527344,500.0,28.981048583984375
2018-07-16,29.31999969482422,29.290000915527344,29.31999969482422,29.290000915527344,5100.0,28.981048583984375
2018-07-17,29.290000915527344,29.290000915527344,29.290000915527344,29.290000915527344,0.0,28.981048583984375
2018-07-18,29.55900001525879,29.299999237060547,29.299999237060547,29.55900001525879,4300.0,29.247211456298828
2018-07-19,29.420000076293945,29.299999237060547,29.31999969482422,29.299999237060547,2900.0,28.990943908691406
2018-07-20,29.482999801635742,29.482999801635742,29.482999801635742,29.482999801635742,700.0,29.172012329101562
2018-07-23,29.510000228881836,29.329999923706055,29.360000610351562,29.5,24100.0,29.188833236694336
2018-07-24,29.579999923706055,29.469999313354492,29.579999923706055,29.469999313354492,1700.0,29.159149169921875
2018-07-25,29.770000457763672,29.628999710083008,29.628999710083008,29.700000762939453,1100.0,29.3867244720459
2018-07-26,29.739999771118164,29.739999771118164,29.739999771118164,29.739999771118164,300.0,29.426301956176758
2018-07-27,29.899999618530273,29.785999298095703,29.785999298095703,29.899999618530273,300.0,29.584613800048828
2018-07-30,29.899999618530273,29.899999618530273,29.899999618530273,29.899999618530273,0.0,29.584613800048828
2018-07-31,29.809999465942383,29.6200008392334,29.6200008392334,29.71500015258789,2100.0,29.401565551757812
2018-08-01,29.5,29.479999542236328,29.5,29.479999542236328,3600.0,29.169044494628906
2018-08-02,29.40999984741211,29.325000762939453,29.40999984741211,29.3799991607666,4100.0,29.070098876953125
2018-08-03,29.450000762939453,29.290000915527344,29.290000915527344,29.450000762939453,1900.0,29.139360427856445
2018-08-06,29.360000610351562,29.219999313354492,29.219999313354492,29.302000045776367,2600.0,28.992921829223633
2018-08-07,29.549999237060547,29.530000686645508,29.530000686645508,29.549999237060547,1000.0,29.238304138183594
2018-08-08,29.457000732421875,29.239999771118164,29.239999771118164,29.457000732421875,2800.0,29.14628791809082
2018-08-09,29.457000732421875,29.457000732421875,29.457000732421875,29.457000732421875,0.0,29.14628791809082
2018-08-10,29.09000015258789,29.02400016784668,29.09000015258789,29.02400016784668,800.0,28.717853546142578
2018-08-13,28.989999771118164,28.719999313354492,28.989999771118164,28.719999313354492,1900.0,28.41706085205078
2018-08-14,28.80900001525879,28.798999786376953,28.80900001525879,28.798999786376953,300.0,28.495227813720703
2018-08-15,28.354000091552734,28.329999923706055,28.354000091552734,28.350000381469727,4000.0,28.05096435546875
2018-08-16,28.545000076293945,28.3799991607666,28.3799991607666,28.517000198364258,3100.0,28.216203689575195
2018-08-17,28.790000915527344,28.440000534057617,28.440000534057617,28.65999984741211,5000.0,28.35769271850586
2018-08-20,28.90999984741211,28.768999099731445,28.899999618530273,28.768999099731445,2500.0,28.465543746948242
2018-08-21,29.059999465942383,28.8700008392334,29.059999465942383,29.000999450683594,1300.0,28.69509506225586
2018-08-22,29.18000030517578,29.18000030517578,29.18000030517578,29.18000030517578,300.0,28.872209548950195
2018-08-23,29.09000015258789,29.040000915527344,29.09000015258789,29.049999237060547,2100.0,28.743579864501953
2018-08-24,29.27400016784668,29.170000076293945,29.190000534057617,29.170000076293945,3900.0,28.862314224243164
2018-08-27,29.600000381469727,29.489999771118164,29.540000915527344,29.594999313354492,3900.0,29.2828311920166
2018-08-28,29.56999969482422,29.507999420166016,29.559999465942383,29.559999465942383,2400.0,29.248201370239258
2018-08-29,29.6299991607666,29.450000762939453,29.450000762939453,29.6299991607666,2000.0,29.317461013793945
2018-08-30,29.6299991607666,29.6299991607666,29.6299991607666,29.6299991607666,0.0,29.317461013793945
2018-08-31,29.23900032043457,29.23900032043457,29.23900032043457,29.23900032043457,100.0,28.930585861206055
2018-09-04,29.114999771118164,28.966999053955078,29.079999923706055,28.966999053955078,5400.0,28.661453247070312
2018-09-05,28.790000915527344,28.739999771118164,28.790000915527344,28.760000228881836,6100.0,28.45663833618164
2018-09-06,28.75,28.75,28.75,28.75,500.0,28.446744918823242
2018-09-07,28.709999084472656,28.5,28.5,28.639999389648438,2300.0,28.337905883789062
2018-09-10,28.639999389648438,28.639999389648438,28.639999389648438,28.639999389648438,0.0,28.337905883789062
2018-09-11,28.75,28.6299991607666,28.6299991607666,28.75,1500.0,28.446744918823242
2018-09-12,28.760000228881836,28.610000610351562,28.610000610351562,28.760000228881836,1300.0,28.45663833618164
2018-09-13,28.94499969482422,28.94499969482422,28.94499969482422,28.94499969482422,600.0,28.639686584472656
2018-09-14,29.110000610351562,28.90999984741211,28.950000762939453,28.90999984741211,600.0,28.605056762695312
2018-09-17,29.260000228881836,29.06999969482422,29.260000228881836,29.170000076293945,2200.0,28.862314224243164
2018-09-18,29.493000030517578,29.270000457763672,29.440000534057617,29.3700008392334,4400.0,29.060205459594727
2018-09-19,29.549999237060547,29.399999618530273,29.450000762939453,29.399999618530273,31200.0,29.089887619018555
2018-09-20,29.75,29.56999969482422,29.739999771118164,29.56999969482422,800.0,29.258094787597656
2018-09-21,29.56999969482422,29.56999969482422,29.56999969482422,29.56999969482422,0.0,29.258094787597656
2018-09-24,29.639999389648438,29.420000076293945,29.639999389648438,29.549999237060547,2600.0,29.365419387817383
2018-09-25,29.75,29.559999465942383,29.75,29.559999465942383,1400.0,29.37535858154297
2018-09-26,29.8700008392334,29.5,29.5,29.8700008392334,3900.0,29.683422088623047
2018-09-27,29.8700008392334,29.8700008392334,29.8700008392334,29.8700008392334,0.0,29.683422088623047
2018-09-28,29.8700008392334,29.8700008392334,29.8700008392334,29.8700008392334,0.0,29.683422088623047
2018-10-01,29.639999389648438,29.450000762939453,29.6200008392334,29.450000762939453,4700.0,29.26604652404785
2018-10-02,29.31999969482422,29.290000915527344,29.290000915527344,29.31999969482422,600.0,29.136857986450195
2018-10-03,29.43000030517578,29.190000534057617,29.40999984741211,29.25,2100.0,29.06729507446289
2018-10-04,28.920000076293945,28.905000686645508,28.905000686645508,28.90999984741211,700.0,28.72941780090332
2018-10-05,28.75,28.639999389648438,28.639999389648438,28.75,5700.0,28.570417404174805
2018-10-08,28.375,28.375,28.375,28.375,500.0,28.1977596282959
2018-10-09,28.56999969482422,28.350000381469727,28.350000381469727,28.549999237060547,5400.0,28.371665954589844
2018-10-10,28.010000228881836,27.97100067138672,28.010000228881836,27.97100067138672,1000.0,27.796283721923828
2018-10-11,27.65999984741211,27.3799991607666,27.65999984741211,27.3799991607666,500.0,27.208974838256836
2018-10-12,27.770000457763672,27.469999313354492,27.770000457763672,27.68000030517578,6400.0,27.50710105895996
2018-10-15,27.700000762939453,27.530000686645508,27.68000030517578,27.530000686645508,9000.0,27.35803985595703
2018-10-16,28.010000228881836,27.829999923706055,27.899999618530273,27.829999923706055,4600.0,27.656164169311523
2018-10-17,27.899999618530273,27.889999389648438,27.899999618530273,27.889999389648438,200.0,27.715789794921875
2018-10-18,27.889999389648438,27.889999389648438,27.889999389648438,27.889999389648438,0.0,27.715789794921875
2018-10-19,27.68000030517578,27.65999984741211,27.68000030517578,27.670000076293945,600.0,27.497163772583008
2018-10-22,27.649999618530273,27.40999984741211,27.649999618530273,27.40999984741211,5500.0,27.238788604736328
2018-10-23,26.969999313354492,26.780000686645508,26.780000686645508,26.950000762939453,800.0,26.781661987304688
2018-10-24,27.020000457763672,26.757999420166016,27.020000457763672,26.757999420166016,2600.0,26.59086036682129
2018-10-25,26.809999465942383,26.709999084472656,26.809999465942383,26.709999084472656,1500.0,26.54315948486328
2018-10-26,26.59000015258789,26.31999969482422,26.510000228881836,26.3700008392334,2400.0,26.205286026000977
2018-10-29,26.59000015258789,26.40999984741211,26.59000015258789,26.40999984741211,4800.0,26.24503517150879
2018-10-30,26.530000686645508,26.384000778198242,26.48900032043457,26.385000228881836,3800.0,26.220190048217773
2018-10-31,26.95800018310547,26.95800018310547,26.95800018310547,26.95800018310547,100.0,26.78961181640625
2018-11-01,27.235000610351562,26.940000534057617,26.959999084472656,26.954999923706055,6500.0,26.786630630493164
2018-11-02,27.43000030517578,27.25,27.399999618530273,27.43000030517578,17600.0,27.258663177490234
2018-11-05,27.46500015258789,27.260000228881836,27.31999969482422,27.260000228881836,1700.0,27.089725494384766
2018-11-06,27.34000015258789,27.34000015258789,27.34000015258789,27.34000015258789,500.0,27.169225692749023
2018-11-07,27.96500015258789,27.84000015258789,27.84000015258789,27.84000015258789,4600.0,27.666101455688477
2018-11-08,27.899999618530273,27.719999313354492,27.719999313354492,27.84000015258789,3400.0,27.666101455688477
2018-11-09,27.549999237060547,27.549999237060547,27.549999237060547,27.549999237060547,1000.0,27.377912521362305
2018-11-12,27.06999969482422,27.06999969482422,27.06999969482422,27.06999969482422,2600.0,26.900911331176758
2018-11-13,27.350000381469727,26.959999084472656,26.959999084472656,27.239999771118164,14400.0,27.069849014282227
2018-11-14,27.489999771118164,27.209999084472656,27.469999313354492,27.209999084472656,1500.0,27.040037155151367
2018-11-15,27.334999084472656,27.020000457763672,27.020000457763672,27.264999389648438,6500.0,27.094694137573242
2018-11-16,27.295000076293945,27.280000686645508,27.290000915527344,27.28499984741211,2700.0,27.11456871032715
2018-11-19,27.299999237060547,27.149999618530273,27.15999984741211,27.299999237060547,1800.0,27.129474639892578
2018-11-20,26.989999771118164,26.7450008392334,26.950000762939453,26.8799991607666,28900.0,26.71209716796875
2018-11-21,27.170000076293945,27.040000915527344,27.040000915527344,27.139999389648438,17100.0,26.970474243164062
2018-11-23,27.139999389648438,27.139999389648438,27.139999389648438,27.139999389648438,0.0,26.970474243164062
2018-11-26,27.304000854492188,27.304000854492188,27.304000854492188,27.304000854492188,100.0,27.133451461791992
2018-11-27,27.290000915527344,27.15999984741211,27.290000915527344,27.15999984741211,500.0,26.99034881591797
2018-11-28,27.479999542236328,27.3700008392334,27.440000534057617,27.3700008392334,1900.0,27.199039459228516
2018-11-29,27.684999465942383,27.399999618530273,27.399999618530273,27.510000228881836,3400.0,27.338163375854492
2018-11-30,27.510000228881836,27.510000228881836,27.510000228881836,27.510000228881836,100.0,27.338163375854492
2018-12-03,27.93000030517578,27.639999389648438,27.719999313354492,27.899999618530273,47000.0,27.725727081298828
2018-12-04,27.350000381469727,27.329999923706055,27.34000015258789,27.350000381469727,5400.0,27.179162979125977
2018-12-06,26.969999313354492,26.618999481201172,26.864999771118164,26.969999313354492,507200.0,26.801536560058594
2018-12-07,27.06999969482422,26.6299991607666,27.06999969482422,26.739999771118164,46000.0,26.572973251342773
2018-12-10,26.670000076293945,26.308000564575195,26.610000610351562,26.670000076293945,42800.0,26.50341033935547
2018-12-11,26.790000915527344,26.510000228881836,26.790000915527344,26.510000228881836,50100.0,26.344409942626953
2018-12-12,27.06999969482422,26.944000244140625,27.06999969482422,27.027999877929688,3900.0,26.859174728393555
2018-12-13,27.011999130249023,26.78499984741211,27.010000228881836,26.969999313354492,21900.0,26.801536560058594
2018-12-14,26.68000030517578,26.615999221801758,26.68000030517578,26.615999221801758,1300.0,26.44974708557129
2018-12-17,26.552000045776367,26.229999542236328,26.451000213623047,26.235000610351562,9000.0,26.071128845214844
2018-12-18,26.549999237060547,26.440000534057617,26.549999237060547,26.440000534057617,6100.0,26.27484703063965
2018-12-19,26.68000030517578,26.329999923706055,26.649999618530273,26.371000289916992,5000.0,26.20627784729004
2018-12-20,26.219999313354492,25.979999542236328,26.204999923706055,26.139999389648438,7100.0,25.976720809936523
2018-12-21,26.040000915527344,25.454999923706055,25.950000762939453,25.454999923706055,12000.0,25.29599952697754
2018-12-24,25.280000686645508,25.280000686645508,25.280000686645508,25.280000686645508,200.0,25.280000686645508
2018-12-26,25.84000015258789,25.309999465942383,25.309999465942383,25.84000015258789,5800.0,25.84000015258789
2018-12-27,25.858999252319336,25.43000030517578,25.6299991607666,25.858999252319336,47900.0,25.858999252319336
2018-12-28,26.09000015258789,25.799999237060547,25.799999237060547,26.06999969482422,8600.0,26.06999969482422
2018-12-31,25.832000732421875,25.832000732421875,25.832000732421875,25.832000732421875,4200.0,25.832000732421875
2019-01-02,26.010000228881836,25.780000686645508,25.780000686645508,25.860000610351562,1900.0,25.860000610351562
2019-01-03,25.889999389648438,25.73900032043457,25.742000579833984,25.889999389648438,6400.0,25.889999389648438
2019-01-04,26.459999084472656,26.065000534057617,26.065000534057617,26.420000076293945,11000.0,26.420000076293945
2019-01-07,26.579999923706055,26.5,26.510000228881836,26.516000747680664,12700.0,26.516000747680664
2019-01-08,26.593000411987305,26.549999237060547,26.549999237060547,26.593000411987305,2700.0,26.593000411987305
2019-01-09,27.110000610351562,27.040000915527344,27.086000442504883,27.040000915527344,4500.0,27.040000915527344
2019-01-10,27.100000381469727,26.850000381469727,27.0,26.95800018310547,5400.0,26.95800018310547
2019-01-11,26.780000686645508,26.780000686645508,26.780000686645508,26.780000686645508,100.0,26.780000686645508
2019-01-14,26.72599983215332,26.68000030517578,26.72599983215332,26.68000030517578,800.0,26.68000030517578
2019-01-15,27.010000228881836,26.889999389648438,26.889999389648438,26.96500015258789,1600.0,26.96500015258789
2019-01-16,27.139999389648438,26.93000030517578,27.1200008392334,27.034000396728516,1000.0,27.034000396728516
2019-01-17,27.079999923706055,26.8799991607666,27.079999923706055,26.8799991607666,800.0,26.8799991607666
2019-01-18,27.450000762939453,27.281999588012695,27.281999588012695,27.38599967956543,2000.0,27.38599967956543
2019-01-22,27.170000076293945,26.899999618530273,27.170000076293945,27.040000915527344,2000.0,27.040000915527344
2019-01-23,27.229999542236328,27.0,27.07699966430664,27.0,6800.0,27.0
2019-01-24,27.329999923706055,27.110000610351562,27.1200008392334,27.18600082397461,4600.0,27.18600082397461
2019-01-25,27.520000457763672,27.360000610351562,27.469999313354492,27.364999771118164,1800.0,27.364999771118164
2019-01-28,27.389999389648438,27.24799919128418,27.350000381469727,27.389999389648438,4500.0,27.389999389648438
2019-01-29,27.520000457763672,27.40999984741211,27.40999984741211,27.520000457763672,1300.0,27.520000457763672
2019-01-30,27.770000457763672,27.3700008392334,27.3700008392334,27.770000457763672,2500.0,27.770000457763672
2019-01-31,27.6200008392334,27.40999984741211,27.6200008392334,27.469999313354492,17500.0,27.469999313354492
2019-02-01,27.54199981689453,27.420000076293945,27.5049991607666,27.51099967956543,4600.0,27.51099967956543
2019-02-04,27.600000381469727,27.420000076293945,27.459999084472656,27.600000381469727,6500.0,27.600000381469727
2019-02-05,27.761999130249023,27.709999084472656,27.760000228881836,27.709999084472656,5800.0,27.709999084472656
2019-02-06,27.770000457763672,27.489999771118164,27.614999771118164,27.510000228881836,5500.0,27.510000228881836
2019-02-07,27.360000610351562,27.209999084472656,27.270000457763672,27.360000610351562,5900.0,27.360000610351562
2019-02-08,27.100000381469727,27.020000457763672,27.024999618530273,27.100000381469727,12400.0,27.100000381469727
2019-02-11,27.190000534057617,27.030000686645508,27.190000534057617,27.030000686645508,5100.0,27.030000686645508
2019-02-12,27.360000610351562,27.31999969482422,27.31999969482422,27.360000610351562,700.0,27.360000610351562
2019-02-13,27.55299949645996,27.40999984741211,27.489999771118164,27.40999984741211,10700.0,27.40999984741211
2019-02-14,27.52400016784668,27.3799991607666,27.399999618530273,27.450000762939453,7900.0,27.450000762939453
2019-02-15,27.709999084472656,27.530000686645508,27.530000686645508,27.649999618530273,7700.0,27.649999618530273
2019-02-19,27.93000030517578,27.729999542236328,27.770000457763672,27.93000030517578,49600.0,27.93000030517578
2019-02-20,28.1200008392334,27.989999771118164,28.0,27.989999771118164,37200.0,27.989999771118164
2019-02-21,27.899999618530273,27.850000381469727,27.8700008392334,27.8799991607666,65400.0,27.8799991607666
2019-02-22,28.010000228881836,27.959999084472656,27.959999084472656,28.0,20600.0,28.0
2019-02-25,28.100000381469727,28.040000915527344,28.100000381469727,28.040000915527344,9800.0,28.040000915527344
2019-02-26,28.190000534057617,28.110000610351562,28.15999984741211,28.190000534057617,6100.0,28.190000534057617
2019-02-27,28.198999404907227,28.040000915527344,28.198999404907227,28.040000915527344,10600.0,28.040000915527344
2019-02-28,27.990999221801758,27.990999221801758,27.990999221801758,27.990999221801758,300.0,27.990999221801758
2019-03-01,28.100000381469727,27.90999984741211,28.100000381469727,27.90999984741211,36000.0,27.90999984741211
2019-03-04,28.2549991607666,27.979999542236328,28.25,28.010000228881836,36000.0,28.010000228881836
2019-03-05,28.027000427246094,27.899999618530273,27.950000762939453,28.024999618530273,57300.0,28.024999618530273
2019-03-06,27.989999771118164,27.899999618530273,27.989999771118164,27.940000534057617,29100.0,27.940000534057617
2019-03-07,27.770000457763672,27.68899917602539,27.700000762939453,27.770000457763672,4600.0,27.770000457763672
2019-03-08,27.59000015258789,27.3700008392334,27.3700008392334,27.479999542236328,4800.0,27.479999542236328
2019-03-11,27.825000762939453,27.701000213623047,27.701000213623047,27.729999542236328,37500.0,27.729999542236328
2019-03-12,27.809999465942383,27.780000686645508,27.809999465942383,27.780000686645508,1800.0,27.780000686645508
2019-03-13,28.079999923706055,27.920000076293945,28.079999923706055,28.025999069213867,7500.0,28.025999069213867
2019-03-14,27.860000610351562,27.81999969482422,27.81999969482422,27.860000610351562,1900.0,27.860000610351562
2019-03-15,28.274999618530273,28.09000015258789,28.190000534057617,28.170000076293945,21600.0,28.170000076293945
2019-03-18,28.351999282836914,28.200000762939453,28.351999282836914,28.200000762939453,11500.0,28.200000762939453
2019-03-19,28.332000732421875,28.170000076293945,28.332000732421875,28.190000534057617,21500.0,28.190000534057617
2019-03-20,28.34000015258789,28.100000381469727,28.15999984741211,28.209999084472656,22100.0,28.209999084472656
2019-03-21,28.275999069213867,28.19099998474121,28.19099998474121,28.275999069213867,5800.0,28.275999069213867
2019-03-22,28.086999893188477,27.899999618530273,28.086999893188477,27.969999313354492,86600.0,27.969999313354492
2019-03-25,27.905000686645508,27.84000015258789,27.864999771118164,27.84000015258789,75800.0,27.84000015258789
2019-03-26,28.190000534057617,28.079999923706055,28.170000076293945,28.079999923706055,73200.0,28.079999923706055
2019-03-27,28.04400062561035,27.979999542236328,27.979999542236328,28.04400062561035,4600.0,28.04400062561035
2019-03-28,27.982999801635742,27.850000381469727,27.850000381469727,27.940000534057617,3900.0,27.940000534057617
2019-03-29,28.09000015258789,27.989999771118164,28.06999969482422,28.030000686645508,3000.0,28.030000686645508
2019-04-01,28.367000579833984,28.290000915527344,28.290000915527344,28.350000381469727,24700.0,28.350000381469727
2019-04-02,28.309999465942383,28.190000534057617,28.232999801635742,28.239999771118164,16400.0,28.239999771118164
2019-04-03,28.510000228881836,28.420000076293945,28.420000076293945,28.466999053955078,169800.0,28.466999053955078
2019-04-04,28.360000610351562,28.329999923706055,28.360000610351562,28.360000610351562,21900.0,28.360000610351562
2019-04-05,28.34000015258789,28.31999969482422,28.34000015258789,28.34000015258789,4700.0,28.34000015258789
2019-04-08,28.312999725341797,28.260000228881836,28.280000686645508,28.309999465942383,42700.0,28.309999465942383
2019-04-09,28.24799919128418,28.179000854492188,28.179000854492188,28.24799919128418,1800.0,28.24799919128418
2019-04-10,28.31999969482422,28.309999465942383,28.309999465942383,28.31999969482422,20000.0,28.31999969482422
2019-04-11,28.260000228881836,28.149999618530273,28.260000228881836,28.239999771118164,37000.0,28.239999771118164
2019-04-12,28.433000564575195,28.399999618530273,28.399999618530273,28.402000427246094,3900.0,28.402000427246094
2019-04-15,28.540000915527344,28.451000213623047,28.540000915527344,28.451000213623047,4300.0,28.451000213623047
2019-04-16,28.547000885009766,28.489999771118164,28.510000228881836,28.547000885009766,2100.0,28.547000885009766
2019-04-17,28.5,28.5,28.5,28.5,200.0,28.5
2019-04-18,28.399999618530273,28.34000015258789,28.389999389648438,28.3799991607666,69700.0,28.3799991607666
2019-04-22,28.357999801635742,28.299999237060547,28.299999237060547,28.31999969482422,90300.0,28.31999969482422
2019-04-23,28.393999099731445,28.299999237060547,28.299999237060547,28.3799991607666,18700.0,28.3799991607666
2019-04-24,28.209999084472656,28.1200008392334,28.200000762939453,28.1200008392334,25900.0,28.1200008392334
2019-04-25,28.174999237060547,28.139999389648438,28.139999389648438,28.170000076293945,96400.0,28.170000076293945
2019-04-26,28.260000228881836,28.200000762939453,28.200000762939453,28.204999923706055,39000.0,28.204999923706055
2019-04-29,28.43000030517578,28.309999465942383,28.31999969482422,28.3700008392334,168500.0,28.3700008392334
2019-04-30,28.364999771118164,28.280000686645508,28.299999237060547,28.326000213623047,11500.0,28.326000213623047
2019-05-01,28.413999557495117,28.229999542236328,28.3700008392334,28.229999542236328,11400.0,28.229999542236328
2019-05-02,28.236000061035156,28.059999465942383,28.236000061035156,28.100000381469727,5600.0,28.100000381469727
2019-05-03,28.290000915527344,28.229999542236328,28.270000457763672,28.264999389648438,8100.0,28.264999389648438
2019-05-06,28.1200008392334,27.969999313354492,27.979999542236328,28.100000381469727,3400.0,28.100000381469727
2019-05-07,27.91699981689453,27.8700008392334,27.8799991607666,27.8700008392334,1900.0,27.8700008392334
2019-05-08,27.860000610351562,27.81999969482422,27.84000015258789,27.860000610351562,2500.0,27.860000610351562
2019-05-09,27.530000686645508,27.43000030517578,27.440000534057617,27.530000686645508,60200.0,27.530000686645508
2019-05-10,27.760000228881836,27.479999542236328,27.59000015258789,27.760000228881836,13800.0,27.760000228881836
2019-05-13,27.209999084472656,27.209999084472656,27.209999084472656,27.209999084472656,24200.0,27.209999084472656
2019-05-14,27.46500015258789,27.350000381469727,27.350000381469727,27.459999084472656,37800.0,27.459999084472656
2019-05-15,27.440000534057617,27.389999389648438,27.43000030517578,27.440000534057617,6000.0,27.440000534057617
2019-05-16,27.790000915527344,27.690000534057617,27.700000762939453,27.774999618530273,34200.0,27.774999618530273
2019-05-17,27.579999923706055,27.540000915527344,27.540000915527344,27.549999237060547,1300.0,27.549999237060547
2019-05-20,27.559999465942383,27.34000015258789,27.34000015258789,27.559999465942383,6300.0,27.559999465942383
2019-05-21,27.450000762939453,27.450000762939453,27.450000762939453,27.450000762939453,900.0,27.450000762939453
2019-05-22,27.489999771118164,27.469999313354492,27.469999313354492,27.489999771118164,36000.0,27.489999771118164
2019-05-23,27.389999389648438,27.249000549316406,27.249000549316406,27.270000457763672,8200.0,27.270000457763672
2019-05-24,27.649999618530273,27.5,27.59000015258789,27.59000015258789,36100.0,27.59000015258789
