Date,High,Low,Open,Close,Volume,Adj Close
2017-11-01,25.75,25.170000076293945,25.5,25.329999923706055,1054300.0,24.516386032104492
2017-11-02,25.489999771118164,25.010000228881836,25.270000457763672,25.450000762939453,1063600.0,24.632532119750977
2017-11-03,25.8700008392334,25.329999923706055,25.479999542236328,25.75,1323100.0,24.922897338867188
2017-11-06,26.049999237060547,25.639999389648438,25.780000686645508,25.979999542236328,1279600.0,25.145509719848633
2018-01-16,28.170000076293945,27.450000762939453,28.079999923706055,27.549999237060547,1322300.0,26.66507911682129
2018-01-17,27.889999389648438,27.420000076293945,27.700000762939453,27.81999969482422,1143100.0,26.926408767700195
2018-01-18,27.799999237060547,27.440000534057617,27.770000457763672,27.6299991607666,958800.0,26.742511749267578
2018-01-19,28.110000610351562,27.739999771118164,27.780000686645508,28.010000228881836,1236700.0,27.110307693481445
2018-01-22,28.010000228881836,27.670000076293945,27.799999237060547,27.90999984741211,1102000.0,27.013519287109375
2018-01-23,27.950000762939453,27.610000610351562,27.889999389648438,27.639999389648438,1199600.0,26.75218963623047
2018-01-24,27.920000076293945,27.540000915527344,27.8700008392334,27.540000915527344,1380100.0,26.65540313720703
2018-01-25,27.65999984741211,27.34000015258789,27.6299991607666,27.43000030517578,755100.0,26.548934936523438
2018-01-26,27.649999618530273,27.360000610351562,27.549999237060547,27.6299991607666,1026700.0,26.742511749267578
2018-01-29,27.700000762939453,27.170000076293945,27.510000228881836,27.18000030517578,986100.0,26.306964874267578
2018-01-30,27.209999084472656,26.950000762939453,27.049999237060547,27.09000015258789,1237700.0,26.219858169555664
2018-01-31,27.239999771118164,26.93000030517578,27.100000381469727,27.06999969482422,1395600.0,26.200498580932617
2018-02-01,27.110000610351562,26.780000686645508,27.030000686645508,27.030000686645508,1287100.0,26.161787033081055
2018-02-02,27.020000457763672,26.219999313354492,26.920000076293945,26.290000915527344,1645300.0,25.445552825927734
2018-02-05,26.309999465942383,24.760000228881836,26.0,24.770000457763672,2441000.0,23.974376678466797
2018-02-06,25.06999969482422,23.899999618530273,24.219999313354492,24.729999542236328,4662400.0,23.93566131591797
2018-02-07,25.420000076293945,24.579999923706055,24.579999923706055,25.010000228881836,2243100.0,24.2066650390625
2018-02-08,25.010000228881836,23.860000610351562,25.010000228881836,23.860000610351562,2288200.0,23.09360694885254
2018-02-09,24.450000762939453,23.459999084472656,24.18000030517578,24.25,2004400.0,23.471078872680664
2018-02-12,25.100000381469727,24.350000381469727,24.450000762939453,24.84000015258789,2251800.0,24.042129516601562
2018-02-13,24.780000686645508,24.549999237060547,24.6200008392334,24.600000381469727,1478100.0,23.80983543395996
2018-02-14,25.229999542236328,24.399999618530273,24.40999984741211,25.219999313354492,1302400.0,24.40992546081543
2018-02-15,25.399999618530273,24.729999542236328,25.299999237060547,24.93000030517578,1859600.0,24.12923812866211
2018-02-16,25.149999618530273,24.81999969482422,24.829999923706055,24.969999313354492,2044100.0,24.167953491210938
2018-02-20,25.299999237060547,24.90999984741211,24.920000076293945,25.100000381469727,1657700.0,24.293773651123047
2018-02-21,25.420000076293945,24.959999084472656,25.049999237060547,24.979999542236328,1473200.0,24.177629470825195
2018-02-22,25.110000610351562,24.440000534057617,25.100000381469727,24.479999542236328,1413900.0,23.693687438964844
2018-02-23,25.0,24.459999084472656,24.579999923706055,24.969999313354492,1747600.0,24.167953491210938
2018-02-26,25.229999542236328,24.860000610351562,25.09000015258789,25.020000457763672,1164700.0,24.216344833374023
2018-02-27,25.450000762939453,24.549999237060547,25.139999389648438,24.559999465942383,1343900.0,23.771121978759766
2018-02-28,24.719999313354492,23.979999542236328,24.68000030517578,23.989999771118164,2193000.0,23.21942901611328
2018-03-01,24.260000228881836,23.559999465942383,23.93000030517578,23.639999389648438,2122800.0,22.88067054748535
2018-03-02,23.8700008392334,23.1299991607666,23.450000762939453,23.809999465942383,1601600.0,23.045211791992188
2018-03-05,24.1299991607666,23.459999084472656,23.610000610351562,23.920000076293945,1704600.0,23.15167808532715
2018-03-06,24.200000762939453,23.770000457763672,24.09000015258789,24.06999969482422,2705800.0,23.296859741210938
2018-03-07,24.040000915527344,23.670000076293945,23.81999969482422,24.0,1599200.0,23.229110717773438
2018-03-08,24.100000381469727,23.6299991607666,24.040000915527344,23.979999542236328,2424300.0,23.209749221801758
2018-03-09,24.719999313354492,24.1299991607666,24.219999313354492,24.5,1694500.0,23.713048934936523
2018-03-12,24.610000610351562,24.40999984741211,24.469999313354492,24.5,1797300.0,23.713048934936523
2018-03-13,24.649999618530273,24.229999542236328,24.649999618530273,24.299999237060547,2063600.0,23.519474029541016
2018-03-14,24.520000457763672,24.190000534057617,24.389999389648438,24.299999237060547,2750600.0,23.519474029541016
2018-03-15,24.579999923706055,24.280000686645508,24.399999618530273,24.40999984741211,3203700.0,23.625938415527344
2018-03-16,24.719999313354492,24.350000381469727,24.40999984741211,24.649999618530273,3007500.0,23.95637321472168
2018-03-19,24.6299991607666,23.760000228881836,24.600000381469727,24.0,2743500.0,23.324665069580078
2018-03-20,24.100000381469727,23.190000534057617,24.09000015258789,23.190000534057617,2791000.0,22.53745460510254
2018-03-21,23.389999389648438,23.079999923706055,23.15999984741211,23.15999984741211,2202500.0,22.508298873901367
2018-03-22,23.139999389648438,22.350000381469727,22.93000030517578,22.360000610351562,2150000.0,21.730810165405273
2018-03-23,22.510000228881836,21.719999313354492,22.420000076293945,21.850000381469727,2876100.0,21.23516082763672
2018-03-26,22.520000457763672,22.079999923706055,22.209999084472656,22.479999542236328,2028900.0,21.847434997558594
2018-03-27,22.610000610351562,22.030000686645508,22.549999237060547,22.149999618530273,2724900.0,21.526718139648438
2018-03-28,22.5,22.079999923706055,22.149999618530273,22.450000762939453,2469600.0,21.818281173706055
2018-03-29,22.920000076293945,22.559999465942383,22.6200008392334,22.729999542236328,2260500.0,22.09039878845215
2018-04-02,22.719999313354492,21.790000915527344,22.579999923706055,22.100000381469727,2232400.0,21.47812843322754
2018-04-03,22.34000015258789,21.959999084472656,22.260000228881836,22.280000686645508,1984800.0,21.65306282043457
2018-04-04,22.329999923706055,21.8799991607666,21.8799991607666,22.25,3841000.0,21.623903274536133
2018-04-05,22.649999618530273,22.260000228881836,22.3700008392334,22.479999542236328,2717500.0,21.847434997558594
2018-04-06,22.350000381469727,21.610000610351562,22.290000915527344,21.770000457763672,3098300.0,21.157411575317383
2018-04-09,24.75,23.260000228881836,23.600000381469727,24.290000915527344,7752600.0,23.606502532958984
2018-04-10,24.8700008392334,24.3700008392334,24.450000762939453,24.3799991607666,4875200.0,23.6939697265625
2018-04-11,24.3700008392334,24.040000915527344,24.139999389648438,24.309999465942383,2995300.0,23.625938415527344
2018-04-12,24.6200008392334,24.34000015258789,24.3700008392334,24.360000610351562,5342100.0,23.674531936645508
2018-04-13,24.6200008392334,24.25,24.5,24.299999237060547,3280400.0,23.616220474243164
2018-04-16,24.739999771118164,24.360000610351562,24.479999542236328,24.6299991607666,3120700.0,23.936931610107422
2018-04-17,24.81999969482422,24.440000534057617,24.790000915527344,24.530000686645508,3624400.0,23.83974838256836
2018-04-18,24.559999465942383,24.139999389648438,24.559999465942383,24.31999969482422,3322600.0,23.635658264160156
2018-04-19,24.6299991607666,24.110000610351562,24.350000381469727,24.110000610351562,2767100.0,23.431568145751953
2018-04-20,24.3700008392334,24.010000228881836,24.25,24.020000457763672,3490200.0,23.344099044799805
2018-04-23,24.5,24.100000381469727,24.149999618530273,24.420000076293945,3006500.0,23.73284339904785
2018-04-24,24.649999618530273,24.1299991607666,24.469999313354492,24.239999771118164,3362300.0,23.557910919189453
2018-04-25,24.700000762939453,24.030000686645508,24.200000762939453,24.459999084472656,2628600.0,23.77172088623047
2018-04-26,24.579999923706055,24.170000076293945,24.450000762939453,24.309999465942383,2876500.0,23.625938415527344
2018-04-27,24.510000228881836,23.790000915527344,24.209999084472656,24.040000915527344,2532600.0,23.363536834716797
2018-04-30,24.270000457763672,24.040000915527344,24.15999984741211,24.040000915527344,2206300.0,23.363536834716797
2018-05-01,24.110000610351562,23.639999389648438,23.989999771118164,24.059999465942383,3557500.0,23.38297462463379
2018-05-02,24.3700008392334,23.969999313354492,24.049999237060547,24.280000686645508,4296600.0,23.596784591674805
2018-05-03,24.31999969482422,23.770000457763672,24.1299991607666,23.989999771118164,7235100.0,23.31494140625
2018-05-04,24.520000457763672,23.739999771118164,23.90999984741211,24.450000762939453,3290100.0,23.761999130249023
2018-05-07,24.770000457763672,24.15999984741211,24.440000534057617,24.639999389648438,2858900.0,23.946651458740234
2018-05-08,24.770000457763672,24.420000076293945,24.6200008392334,24.440000534057617,4993100.0,23.752283096313477
2018-05-09,24.719999313354492,24.350000381469727,24.489999771118164,24.639999389648438,2537600.0,23.946651458740234
2018-05-10,24.889999389648438,24.549999237060547,24.6299991607666,24.790000915527344,2901800.0,24.092432022094727
2018-05-11,24.90999984741211,24.530000686645508,24.729999542236328,24.559999465942383,2719900.0,23.86890411376953
2018-05-14,24.81999969482422,24.489999771118164,24.610000610351562,24.56999969482422,2880600.0,23.878623962402344
2018-05-15,24.56999969482422,23.739999771118164,24.450000762939453,23.790000915527344,3813400.0,23.120573043823242
2018-05-16,23.790000915527344,23.299999237060547,23.75,23.5,3085700.0,22.83873176574707
2018-05-17,23.6299991607666,23.440000534057617,23.489999771118164,23.440000534057617,1841000.0,22.780420303344727
2018-05-18,23.489999771118164,23.100000381469727,23.489999771118164,23.100000381469727,1667800.0,22.449989318847656
2018-05-21,23.389999389648438,23.18000030517578,23.219999313354492,23.229999542236328,1698400.0,22.576326370239258
2018-05-22,23.639999389648438,23.25,23.25,23.510000228881836,2341300.0,22.848451614379883
2018-05-23,23.489999771118164,23.270000457763672,23.40999984741211,23.469999313354492,1820600.0,22.80957794189453
2018-05-24,23.639999389648438,23.010000228881836,23.350000381469727,23.079999923706055,1175300.0,22.43054962158203
2018-05-25,23.270000457763672,23.0,23.0,23.239999771118164,1389100.0,22.586050033569336
2018-05-29,22.959999084472656,22.049999237060547,22.920000076293945,22.190000534057617,2194600.0,21.565595626831055
2018-05-30,22.469999313354492,22.200000762939453,22.420000076293945,22.209999084472656,1739900.0,21.58502960205078
2018-05-31,22.389999389648438,21.860000610351562,22.229999542236328,21.8799991607666,3281700.0,21.26431655883789
2018-06-01,22.15999984741211,21.979999542236328,22.15999984741211,22.079999923706055,1590600.0,21.458690643310547
2018-06-04,22.239999771118164,21.8700008392334,22.170000076293945,21.940000534057617,1531800.0,21.322628021240234
2018-06-05,22.0,21.6299991607666,21.93000030517578,21.950000762939453,1397500.0,21.33234977722168
2018-06-06,22.8700008392334,21.950000762939453,21.950000762939453,22.799999237060547,2771700.0,22.158428192138672
2018-06-07,23.209999084472656,22.780000686645508,22.93000030517578,23.0,2047500.0,22.35280418395996
2018-06-08,23.110000610351562,22.799999237060547,23.0,23.06999969482422,1730800.0,22.42082977294922
2018-06-11,23.260000228881836,23.020000457763672,23.110000610351562,23.100000381469727,1455900.0,22.449989318847656
2018-06-12,23.299999237060547,22.93000030517578,23.229999542236328,23.1200008392334,1637500.0,22.469425201416016
2018-06-13,23.1200008392334,22.510000228881836,23.110000610351562,22.559999465942383,1885300.0,21.92518424987793
2018-06-14,22.639999389648438,22.399999618530273,22.6200008392334,22.510000228881836,1645500.0,21.876590728759766
2018-06-15,22.43000030517578,22.139999389648438,22.280000686645508,22.219999313354492,4197400.0,21.691110610961914
2018-06-18,22.420000076293945,22.020000457763672,22.149999618530273,22.209999084472656,1555400.0,21.68134880065918
2018-06-19,22.5,22.030000686645508,22.059999465942383,22.399999618530273,1740900.0,21.86682891845703
2018-06-20,23.229999542236328,22.610000610351562,22.700000762939453,23.0,2378600.0,22.45254898071289
2018-06-21,23.030000686645508,22.520000457763672,22.920000076293945,22.969999313354492,1852100.0,22.42325782775879
2018-06-22,23.610000610351562,23.170000076293945,23.170000076293945,23.329999923706055,3314600.0,22.774690628051758
2018-06-25,23.350000381469727,22.809999465942383,23.25,23.1200008392334,2561100.0,22.569690704345703
2018-06-26,23.459999084472656,22.969999313354492,23.219999313354492,23.239999771118164,2715900.0,22.68683433532715
2018-06-27,23.229999542236328,22.719999313354492,23.110000610351562,22.719999313354492,2414800.0,22.179210662841797
2018-06-28,23.049999237060547,22.639999389648438,22.719999313354492,22.850000381469727,1982200.0,22.306114196777344
2018-06-29,23.260000228881836,22.729999542236328,22.979999542236328,22.739999771118164,2537800.0,22.198734283447266
2018-07-02,22.799999237060547,22.34000015258789,22.559999465942383,22.5,1890900.0,21.964445114135742
2018-07-03,22.690000534057617,22.450000762939453,22.600000381469727,22.549999237060547,1066500.0,22.013256072998047
2018-07-05,22.709999084472656,22.530000686645508,22.709999084472656,22.6200008392334,1485000.0,22.081594467163086
2018-07-06,22.850000381469727,22.579999923706055,22.670000076293945,22.770000457763672,1570100.0,22.2280216217041
2018-07-09,23.290000915527344,22.790000915527344,22.899999618530273,23.219999313354492,1325000.0,22.667308807373047
2018-07-10,23.280000686645508,23.110000610351562,23.170000076293945,23.1200008392334,1014500.0,22.569690704345703
2018-07-11,23.020000457763672,22.829999923706055,23.020000457763672,22.93000030517578,1038600.0,22.384212493896484
2018-07-12,23.010000228881836,22.530000686645508,23.010000228881836,22.639999389648438,1567400.0,22.10111427307129
2018-07-13,22.690000534057617,22.450000762939453,22.639999389648438,22.600000381469727,1034900.0,22.06206703186035
2018-07-16,22.81999969482422,22.600000381469727,22.600000381469727,22.690000534057617,1103100.0,22.14992332458496
2018-07-17,22.700000762939453,22.459999084472656,22.65999984741211,22.540000915527344,734100.0,22.003496170043945
2018-07-18,22.739999771118164,22.450000762939453,22.5,22.739999771118164,1524100.0,22.198734283447266
2018-07-19,22.950000762939453,22.649999618530273,22.760000228881836,22.90999984741211,1839200.0,22.364686965942383
2018-07-20,22.860000610351562,22.639999389648438,22.850000381469727,22.760000228881836,1299900.0,22.218257904052734
2018-07-23,22.899999618530273,22.610000610351562,22.68000030517578,22.799999237060547,1169500.0,22.257305145263672
2018-07-24,23.209999084472656,22.760000228881836,22.799999237060547,23.059999465942383,1834100.0,22.511117935180664
2018-07-25,23.1200008392334,22.440000534057617,23.079999923706055,22.84000015258789,1350000.0,22.296356201171875
2018-07-26,23.1200008392334,22.850000381469727,22.8799991607666,23.06999969482422,796400.0,22.520877838134766
2018-07-27,25.06999969482422,23.100000381469727,23.43000030517578,24.760000228881836,3120000.0,24.170654296875
2018-07-30,25.0,24.559999465942383,24.760000228881836,24.649999618530273,1916200.0,24.06327247619629
2018-07-31,24.75,24.1200008392334,24.739999771118164,24.25,1974400.0,23.672792434692383
2018-08-01,24.399999618530273,23.850000381469727,24.170000076293945,23.8700008392334,1738100.0,23.301837921142578
2018-08-02,23.93000030517578,23.610000610351562,23.709999084472656,23.68000030517578,1240100.0,23.116361618041992
2018-08-03,24.540000915527344,23.719999313354492,23.799999237060547,24.510000228881836,1748800.0,23.926605224609375
2018-08-06,24.700000762939453,24.40999984741211,24.510000228881836,24.43000030517578,1149800.0,23.848508834838867
2018-08-07,24.65999984741211,24.360000610351562,24.479999542236328,24.389999389648438,1086500.0,23.809459686279297
2018-08-08,24.459999084472656,24.09000015258789,24.40999984741211,24.350000381469727,848800.0,23.770414352416992
2018-08-09,24.43000030517578,24.239999771118164,24.40999984741211,24.290000915527344,964100.0,23.711841583251953
2018-08-10,24.06999969482422,23.6299991607666,23.979999542236328,23.670000076293945,2310100.0,23.106597900390625
2018-08-13,23.729999542236328,23.149999618530273,23.56999969482422,23.270000457763672,1825900.0,22.716121673583984
2018-08-14,23.8700008392334,23.229999542236328,23.360000610351562,23.770000457763672,1702800.0,23.2042179107666
2018-08-15,23.65999984741211,23.440000534057617,23.600000381469727,23.450000762939453,2124800.0,22.891834259033203
2018-08-16,23.809999465942383,23.520000457763672,23.540000915527344,23.799999237060547,1488600.0,23.233503341674805
2018-08-17,23.770000457763672,23.3799991607666,23.719999313354492,23.450000762939453,1116000.0,22.891834259033203
2018-08-20,23.549999237060547,23.360000610351562,23.440000534057617,23.479999542236328,1282800.0,22.92112159729004
2018-08-21,24.239999771118164,23.6200008392334,23.739999771118164,23.649999618530273,2499300.0,23.08707618713379
2018-08-22,23.59000015258789,23.290000915527344,23.5,23.3799991607666,1269000.0,22.823501586914062
2018-08-23,23.3700008392334,23.059999465942383,23.3700008392334,23.190000534057617,1323200.0,22.638023376464844
2018-08-24,23.59000015258789,23.190000534057617,23.280000686645508,23.459999084472656,1033500.0,22.901596069335938
2018-08-27,23.959999084472656,23.450000762939453,23.649999618530273,23.8799991607666,1464000.0,23.31159782409668
2018-08-28,24.09000015258789,23.81999969482422,23.979999542236328,24.079999923706055,1444400.0,23.506839752197266
2018-08-29,24.059999465942383,23.739999771118164,24.059999465942383,23.770000457763672,972600.0,23.2042179107666
2018-08-30,23.760000228881836,23.299999237060547,23.760000228881836,23.40999984741211,894800.0,22.852787017822266
2018-08-31,23.420000076293945,23.030000686645508,23.40999984741211,23.219999313354492,1459600.0,22.667308807373047
2018-09-04,23.479999542236328,23.209999084472656,23.219999313354492,23.31999969482422,1899100.0,22.764928817749023
2018-09-05,23.65999984741211,23.219999313354492,23.3700008392334,23.530000686645508,1262000.0,22.969932556152344
2018-09-06,23.489999771118164,22.920000076293945,23.489999771118164,23.190000534057617,1152000.0,22.638023376464844
2018-09-07,23.200000762939453,22.920000076293945,23.200000762939453,23.030000686645508,962500.0,22.481834411621094
2018-09-10,23.15999984741211,22.770000457763672,23.079999923706055,22.829999923706055,1386800.0,22.28659439086914
2018-09-11,22.920000076293945,22.65999984741211,22.760000228881836,22.90999984741211,1107200.0,22.364686965942383
2018-09-12,23.0,22.81999969482422,22.8799991607666,22.899999618530273,954100.0,22.35492515563965
2018-09-13,23.219999313354492,22.770000457763672,22.969999313354492,22.889999389648438,1266300.0,22.345165252685547
2018-09-14,23.389999389648438,22.799999237060547,22.799999237060547,23.360000610351562,1513800.0,22.9291934967041
2018-09-17,23.65999984741211,23.1200008392334,23.399999618530273,23.149999618530273,1549500.0,22.72306251525879
2018-09-18,23.299999237060547,22.959999084472656,23.1299991607666,23.06999969482422,1201200.0,22.644540786743164
2018-09-19,23.40999984741211,23.06999969482422,23.06999969482422,23.219999313354492,1138600.0,22.791772842407227
2018-09-20,23.770000457763672,23.3799991607666,23.479999542236328,23.700000762939453,1828900.0,23.262924194335938
2018-09-21,23.739999771118164,22.8799991607666,23.549999237060547,23.520000457763672,5851900.0,23.086240768432617
2018-09-24,23.479999542236328,23.170000076293945,23.479999542236328,23.18000030517578,2505900.0,22.75251007080078
2018-09-25,23.270000457763672,22.479999542236328,23.260000228881836,22.690000534057617,3070900.0,22.271549224853516
2018-09-26,22.90999984741211,22.139999389648438,22.709999084472656,22.219999313354492,1585700.0,21.810216903686523
2018-09-27,22.25,21.950000762939453,22.200000762939453,22.0,1670200.0,21.59427261352539
2018-09-28,22.209999084472656,21.6200008392334,21.8700008392334,21.959999084472656,2543500.0,21.555009841918945
2018-10-01,22.290000915527344,21.799999237060547,22.030000686645508,21.920000076293945,2493200.0,21.515748977661133
2018-10-02,22.18000030517578,21.84000015258789,21.93000030517578,22.059999465942383,3359200.0,21.653165817260742
2018-10-03,22.350000381469727,22.059999465942383,22.139999389648438,22.239999771118164,1949700.0,21.82984733581543
2018-10-04,23.309999465942383,22.3799991607666,22.3799991607666,22.93000030517578,2746700.0,22.507122039794922
2018-10-05,23.09000015258789,22.729999542236328,22.899999618530273,22.75,2215600.0,22.330442428588867
2018-10-08,23.059999465942383,22.600000381469727,22.670000076293945,22.940000534057617,2137700.0,22.516937255859375
2018-10-09,22.969999313354492,22.559999465942383,22.84000015258789,22.690000534057617,2283600.0,22.271549224853516
2018-10-10,23.1200008392334,22.209999084472656,22.790000915527344,22.229999542236328,3832300.0,21.820030212402344
2018-10-11,22.100000381469727,20.770000457763672,22.010000228881836,20.770000457763672,5341100.0,20.3869571685791
2018-10-12,21.209999084472656,20.229999542236328,21.1200008392334,20.670000076293945,3601900.0,20.288801193237305
2018-10-15,21.190000534057617,20.56999969482422,20.59000015258789,20.920000076293945,2413600.0,20.534191131591797
2018-10-16,21.520000457763672,20.84000015258789,21.020000457763672,21.469999313354492,2137600.0,21.074047088623047
2018-10-17,21.8700008392334,21.270000457763672,21.329999923706055,21.700000762939453,2156900.0,21.299806594848633
2018-10-18,21.93000030517578,21.350000381469727,21.649999618530273,21.389999389648438,2203100.0,20.995521545410156
2018-10-19,21.75,21.280000686645508,21.350000381469727,21.440000534057617,2254300.0,21.044599533081055
2018-10-22,21.670000076293945,20.860000610351562,21.450000762939453,20.860000610351562,2235800.0,20.475297927856445
2018-10-23,20.690000534057617,20.219999313354492,20.520000457763672,20.489999771118164,2851400.0,20.11212158203125
2018-10-24,20.469999313354492,19.969999313354492,20.389999389648438,20.059999465942383,3508300.0,19.690048217773438
2018-10-25,20.540000915527344,20.020000457763672,20.190000534057617,20.059999465942383,2643300.0,19.690048217773438
2018-10-26,20.649999618530273,19.600000381469727,20.0,20.360000610351562,2968200.0,19.98451805114746
2018-10-29,21.25,20.3700008392334,20.5,20.579999923706055,3090300.0,20.20046043395996
2018-10-30,21.290000915527344,20.65999984741211,20.690000534057617,21.030000686645508,2556100.0,20.642162322998047
2018-10-31,21.889999389648438,21.1200008392334,21.18000030517578,21.469999313354492,2544700.0,21.074047088623047
2018-11-01,21.799999237060547,21.3799991607666,21.479999542236328,21.40999984741211,2953400.0,21.015153884887695
2018-11-02,21.860000610351562,21.139999389648438,21.579999923706055,21.239999771118164,4094400.0,20.84828758239746
2018-11-05,21.770000457763672,21.399999618530273,21.43000030517578,21.530000686645508,2608700.0,21.13294219970703
2018-11-06,22.040000915527344,21.530000686645508,21.579999923706055,21.940000534057617,2319900.0,21.53537940979004
2018-11-07,22.229999542236328,21.760000228881836,22.0,22.040000915527344,2493600.0,21.63353729248047
2018-11-08,22.18000030517578,21.84000015258789,21.93000030517578,21.940000534057617,1953300.0,21.53537940979004
2018-11-09,22.1200008392334,21.760000228881836,21.770000457763672,21.989999771118164,1840900.0,21.584457397460938
2018-11-12,21.969999313354492,21.309999465942383,21.90999984741211,21.3700008392334,2042900.0,20.975893020629883
2018-11-13,21.75,21.229999542236328,21.350000381469727,21.229999542236328,2300900.0,20.83847427368164
2018-11-14,21.719999313354492,20.850000381469727,21.34000015258789,21.030000686645508,2450500.0,20.642162322998047
2018-11-15,21.43000030517578,20.540000915527344,20.81999969482422,21.260000228881836,2312700.0,20.867919921875
2018-11-16,21.770000457763672,20.940000534057617,21.030000686645508,21.399999618530273,3404700.0,21.12957191467285
2018-11-19,21.530000686645508,21.110000610351562,21.350000381469727,21.260000228881836,2385400.0,20.99134063720703
2018-11-20,21.200000762939453,20.670000076293945,21.09000015258789,20.729999542236328,2637400.0,20.468036651611328
2018-11-21,21.260000228881836,20.790000915527344,20.790000915527344,21.0,1945400.0,20.73462677001953
2018-11-23,21.049999237060547,20.700000762939453,20.860000610351562,20.790000915527344,688100.0,20.527280807495117
2018-11-26,21.6200008392334,20.940000534057617,21.040000915527344,21.540000915527344,1956700.0,21.267803192138672
2018-11-27,21.739999771118164,21.469999313354492,21.510000228881836,21.520000457763672,2253900.0,21.24805450439453
2018-11-28,22.010000228881836,21.260000228881836,21.5,22.010000228881836,1816400.0,21.731863021850586
2018-11-29,22.09000015258789,21.799999237060547,21.84000015258789,21.969999313354492,1961400.0,21.692367553710938
2018-11-30,22.020000457763672,21.600000381469727,21.959999084472656,21.850000381469727,2464700.0,21.573884963989258
2018-12-03,22.31999969482422,21.579999923706055,22.1299991607666,21.6200008392334,2025000.0,21.346792221069336
2018-12-04,21.540000915527344,20.059999465942383,21.40999984741211,20.110000610351562,3697100.0,19.855873107910156
2018-12-06,19.90999984741211,19.149999618530273,19.899999618530273,19.559999465942383,4288700.0,19.312824249267578
2018-12-07,19.93000030517578,18.850000381469727,19.559999465942383,19.020000457763672,2719700.0,18.779647827148438
2018-12-10,18.920000076293945,18.020000457763672,18.8799991607666,18.639999389648438,3094200.0,18.404447555541992
2018-12-11,19.030000686645508,18.329999923706055,18.889999389648438,18.520000457763672,2740200.0,18.285966873168945
2018-12-12,19.030000686645508,18.639999389648438,18.799999237060547,18.690000534057617,1448500.0,18.453819274902344
2018-12-13,18.719999313354492,18.360000610351562,18.709999084472656,18.420000076293945,2894200.0,18.18722915649414
2018-12-14,18.3799991607666,17.479999542236328,18.270000457763672,17.639999389648438,4849300.0,17.417085647583008
2018-12-17,18.040000915527344,17.469999313354492,17.489999771118164,17.600000381469727,2884800.0,17.377592086791992
2018-12-18,17.959999084472656,17.440000534057617,17.670000076293945,17.56999969482422,2650000.0,17.34796905517578
2018-12-19,17.959999084472656,17.209999084472656,17.56999969482422,17.40999984741211,2698100.0,17.189992904663086
2018-12-20,17.360000610351562,16.780000686645508,17.31999969482422,16.959999084472656,4262300.0,16.745677947998047
2018-12-21,17.43000030517578,16.68000030517578,17.059999465942383,16.790000915527344,4634900.0,16.577829360961914
2018-12-24,16.81999969482422,16.299999237060547,16.790000915527344,16.389999389648438,1225700.0,16.182880401611328
2018-12-26,17.350000381469727,16.200000762939453,16.450000762939453,17.350000381469727,2321600.0,17.13075065612793
2018-12-27,17.5,16.809999465942383,17.049999237060547,17.43000030517578,3250700.0,17.209739685058594
2018-12-28,17.709999084472656,17.31999969482422,17.530000686645508,17.420000076293945,2153100.0,17.199865341186523
2018-12-31,17.649999618530273,17.139999389648438,17.540000915527344,17.360000610351562,2102900.0,17.140625
2019-01-02,17.889999389648438,17.010000228881836,17.149999618530273,17.700000762939453,1692400.0,17.476327896118164
2019-01-03,17.709999084472656,17.239999771118164,17.549999237060547,17.360000610351562,2091500.0,17.140625
2019-01-04,18.260000228881836,17.6299991607666,17.709999084472656,18.170000076293945,1509900.0,17.94038963317871
2019-01-07,18.5,17.950000762939453,18.059999465942383,18.290000915527344,1697400.0,18.05887222290039
2019-01-08,18.579999923706055,18.229999542236328,18.389999389648438,18.459999084472656,1718400.0,18.226722717285156
2019-01-09,18.709999084472656,18.299999237060547,18.549999237060547,18.510000228881836,1533600.0,18.276090621948242
2019-01-10,19.020000457763672,18.450000762939453,18.510000228881836,18.8700008392334,2402000.0,18.63154411315918
2019-01-11,19.459999084472656,18.5,18.649999618530273,19.09000015258789,3927500.0,18.84876251220703
2019-01-14,19.520000457763672,18.850000381469727,18.850000381469727,19.299999237060547,2671900.0,19.056108474731445
2019-01-15,19.549999237060547,19.239999771118164,19.299999237060547,19.479999542236328,2731900.0,19.23383331298828
2019-01-16,20.079999923706055,19.520000457763672,19.600000381469727,19.8700008392334,1954000.0,19.618907928466797
2019-01-17,20.059999465942383,19.68000030517578,19.709999084472656,19.899999618530273,2097700.0,19.64852523803711
2019-01-18,20.450000762939453,19.920000076293945,20.010000228881836,20.3799991607666,2458600.0,20.122459411621094
2019-01-22,20.229999542236328,19.8799991607666,20.200000762939453,20.020000457763672,2979500.0,19.767011642456055
2019-01-23,20.260000228881836,19.799999237060547,20.170000076293945,19.84000015258789,2138200.0,19.589284896850586
2019-01-24,20.200000762939453,19.75,19.75,20.030000686645508,1524700.0,19.776884078979492
2019-01-25,20.489999771118164,20.200000762939453,20.200000762939453,20.3700008392334,1573500.0,20.11258888244629
2019-01-28,20.559999465942383,20.149999618530273,20.209999084472656,20.520000457763672,1455000.0,20.260692596435547
2019-01-29,20.709999084472656,20.329999923706055,20.56999969482422,20.56999969482422,1501200.0,20.310060501098633
2019-01-30,21.09000015258789,20.530000686645508,20.639999389648438,20.940000534057617,2907700.0,20.675384521484375
2019-01-31,20.959999084472656,20.709999084472656,20.719999313354492,20.809999465942383,2486700.0,20.547027587890625
2019-02-01,21.239999771118164,20.600000381469727,20.8799991607666,20.690000534057617,3343000.0,20.428543090820312
2019-02-04,20.889999389648438,20.43000030517578,20.479999542236328,20.8799991607666,3390900.0,20.61614227294922
2019-02-05,20.989999771118164,20.770000457763672,20.989999771118164,20.770000457763672,2183200.0,20.507532119750977
2019-02-06,20.8799991607666,20.559999465942383,20.670000076293945,20.579999923706055,2182600.0,20.31993293762207
2019-02-07,20.719999313354492,19.989999771118164,20.440000534057617,20.06999969482422,2707300.0,19.816377639770508
2019-02-08,20.1200008392334,19.579999923706055,20.040000915527344,19.850000381469727,5657000.0,19.599159240722656
2019-02-11,20.1299991607666,19.860000610351562,19.8700008392334,20.06999969482422,2249800.0,19.816377639770508
2019-02-12,20.530000686645508,20.239999771118164,20.270000457763672,20.479999542236328,1818400.0,20.2211971282959
2019-02-13,20.829999923706055,20.5,20.5,20.639999389648438,2133500.0,20.379175186157227
2019-02-14,20.559999465942383,20.1299991607666,20.399999618530273,20.350000381469727,2096000.0,20.215267181396484
2019-02-15,21.059999465942383,20.540000915527344,20.559999465942383,21.020000457763672,2408500.0,20.88083267211914
2019-02-19,21.049999237060547,20.780000686645508,20.920000076293945,21.020000457763672,1569100.0,20.88083267211914
2019-02-20,21.030000686645508,20.760000228881836,20.989999771118164,20.850000381469727,1497500.0,20.711957931518555
2019-02-21,20.850000381469727,20.399999618530273,20.850000381469727,20.440000534057617,1522600.0,20.304672241210938
2019-02-22,20.459999084472656,20.15999984741211,20.43000030517578,20.239999771118164,1854000.0,20.105995178222656
2019-02-25,20.579999923706055,20.270000457763672,20.450000762939453,20.290000915527344,1404700.0,20.15566635131836
2019-02-26,20.469999313354492,20.1200008392334,20.15999984741211,20.3700008392334,2230800.0,20.235136032104492
2019-02-27,20.5,20.239999771118164,20.3799991607666,20.43000030517578,1388800.0,20.29473876953125
2019-02-28,20.469999313354492,20.190000534057617,20.450000762939453,20.270000457763672,1669900.0,20.13579750061035
2019-03-01,20.719999313354492,20.34000015258789,20.40999984741211,20.549999237060547,2149200.0,20.413942337036133
2019-03-04,20.81999969482422,19.90999984741211,20.610000610351562,20.030000686645508,2207000.0,19.89738655090332
2019-03-05,20.020000457763672,19.520000457763672,20.020000457763672,19.860000610351562,2480400.0,19.728511810302734
2019-03-06,19.90999984741211,19.520000457763672,19.799999237060547,19.540000915527344,1939700.0,19.41063117980957
2019-03-07,19.5,18.760000228881836,19.469999313354492,18.8799991607666,2903400.0,18.7549991607666
2019-03-08,18.989999771118164,18.540000915527344,18.709999084472656,18.950000762939453,2538900.0,18.82453727722168
2019-03-11,19.31999969482422,19.020000457763672,19.110000610351562,19.170000076293945,2128100.0,19.043079376220703
2019-03-12,19.389999389648438,19.1299991607666,19.25,19.3700008392334,1645400.0,19.241756439208984
2019-03-13,19.760000228881836,19.3799991607666,19.440000534057617,19.719999313354492,2466800.0,19.58943748474121
2019-03-14,19.75,19.459999084472656,19.6299991607666,19.469999313354492,2190400.0,19.341093063354492
2019-03-15,19.670000076293945,19.399999618530273,19.40999984741211,19.43000030517578,4233200.0,19.301359176635742
2019-03-18,19.979999542236328,19.5,19.5,19.899999618530273,2205800.0,19.768245697021484
2019-03-19,20.149999618530273,19.690000534057617,20.030000686645508,19.75,2631200.0,19.619239807128906
2019-03-20,19.799999237060547,19.299999237060547,19.719999313354492,19.309999465942383,1925300.0,19.182151794433594
2019-03-21,19.3799991607666,19.06999969482422,19.18000030517578,19.219999313354492,1281400.0,19.092748641967773
2019-03-22,19.110000610351562,18.450000762939453,19.059999465942383,18.469999313354492,1494300.0,18.347713470458984
2019-03-25,18.690000534057617,18.239999771118164,18.389999389648438,18.40999984741211,1757400.0,18.288110733032227
2019-03-26,18.8700008392334,18.469999313354492,18.809999465942383,18.729999542236328,1424500.0,18.605993270874023
2019-03-27,18.90999984741211,18.59000015258789,18.719999313354492,18.700000762939453,1688600.0,18.57619285583496
2019-03-28,19.049999237060547,18.700000762939453,18.700000762939453,18.829999923706055,2229400.0,18.705331802368164
2019-03-29,19.1200008392334,18.760000228881836,18.90999984741211,18.790000915527344,2447400.0,18.66559600830078
2019-04-01,19.31999969482422,19.010000228881836,19.010000228881836,19.270000457763672,2634400.0,19.142417907714844
2019-04-02,19.40999984741211,19.18000030517578,19.270000457763672,19.3799991607666,1505500.0,19.25168800354004
2019-04-03,19.81999969482422,19.5,19.540000915527344,19.65999984741211,1848600.0,19.529834747314453
2019-04-04,20.049999237060547,19.6200008392334,19.690000534057617,19.889999389648438,1796400.0,19.758312225341797
2019-04-05,20.149999618530273,19.799999237060547,19.899999618530273,20.049999237060547,1599700.0,19.917253494262695
2019-04-08,20.18000030517578,19.940000534057617,20.030000686645508,20.079999923706055,1363500.0,19.94705581665039
2019-04-09,20.09000015258789,19.709999084472656,19.969999313354492,19.81999969482422,1317500.0,19.68877601623535
2019-04-10,19.989999771118164,19.6299991607666,19.81999969482422,19.93000030517578,1161500.0,19.79804801940918
2019-04-11,20.06999969482422,19.780000686645508,20.040000915527344,19.790000915527344,2683700.0,19.65897560119629
2019-04-12,20.5,20.010000228881836,20.010000228881836,20.360000610351562,1817200.0,20.225202560424805
2019-04-15,20.56999969482422,20.139999389648438,20.530000686645508,20.149999618530273,1964500.0,20.016592025756836
2019-04-16,20.239999771118164,19.860000610351562,20.190000534057617,20.059999465942383,2389800.0,19.927186965942383
2019-04-17,20.649999618530273,20.190000534057617,20.350000381469727,20.25,2235800.0,20.115928649902344
2019-04-18,20.31999969482422,20.100000381469727,20.209999084472656,20.15999984741211,1330900.0,20.026525497436523
2019-04-22,20.1200008392334,19.8799991607666,20.100000381469727,19.899999618530273,1050100.0,19.768245697021484
2019-04-23,20.110000610351562,19.68000030517578,19.860000610351562,20.100000381469727,2193500.0,19.966922760009766
2019-04-24,20.329999923706055,19.93000030517578,20.010000228881836,20.260000228881836,1504200.0,20.125864028930664
2019-04-25,20.350000381469727,20.049999237060547,20.149999618530273,20.25,1115100.0,20.115928649902344
2019-04-26,20.43000030517578,19.989999771118164,20.280000686645508,20.420000076293945,1131100.0,20.28480339050293
2019-04-29,20.709999084472656,20.3700008392334,20.420000076293945,20.59000015258789,846000.0,20.453678131103516
2019-04-30,20.739999771118164,20.209999084472656,20.65999984741211,20.56999969482422,1403000.0,20.43381118774414
2019-05-01,20.799999237060547,20.290000915527344,20.59000015258789,20.469999313354492,1705600.0,20.33447265625
2019-05-02,20.549999237060547,20.15999984741211,20.479999542236328,20.450000762939453,1252600.0,20.314605712890625
2019-05-03,20.739999771118164,20.450000762939453,20.540000915527344,20.649999618530273,1240800.0,20.513280868530273
2019-05-06,20.5,19.959999084472656,20.139999389648438,20.459999084472656,1371400.0,20.324539184570312
2019-05-07,20.360000610351562,19.790000915527344,20.270000457763672,19.90999984741211,1730200.0,19.778181076049805
2019-05-08,20.049999237060547,19.799999237060547,19.809999465942383,19.84000015258789,1232500.0,19.70864486694336
2019-05-09,19.65999984741211,19.260000228881836,19.59000015258789,19.610000610351562,1711000.0,19.480167388916016
2019-05-10,20.139999389648438,19.40999984741211,19.469999313354492,20.010000228881836,3300000.0,19.877519607543945
2019-05-13,19.56999969482422,18.860000610351562,19.559999465942383,18.8799991607666,2006700.0,18.7549991607666
2019-05-14,19.280000686645508,18.899999618530273,18.989999771118164,18.90999984741211,1597000.0,18.784801483154297
2019-05-15,18.989999771118164,18.510000228881836,18.799999237060547,18.920000076293945,1716800.0,18.794734954833984
2019-05-16,19.18000030517578,18.8700008392334,19.010000228881836,18.8799991607666,1308000.0,18.7549991607666
2019-05-17,18.700000762939453,18.389999389648438,18.510000228881836,18.530000686645508,1625400.0,18.530000686645508
2019-05-20,18.559999465942383,18.350000381469727,18.360000610351562,18.530000686645508,1118600.0,18.530000686645508
2019-05-21,18.81999969482422,18.600000381469727,18.600000381469727,18.760000228881836,984700.0,18.760000228881836
2019-05-22,18.770000457763672,18.559999465942383,18.639999389648438,18.579999923706055,1086300.0,18.579999923706055
2019-05-23,18.389999389648438,18.09000015258789,18.389999389648438,18.290000915527344,1763500.0,18.290000915527344
2019-05-24,18.559999465942383,18.329999923706055,18.43000030517578,18.450000762939453,1446100.0,18.450000762939453
