Date,High,Low,Open,Close,Volume,Adj Close
2015-01-02,34.38999938964844,34.38999938964844,34.38999938964844,34.38999938964844,0.0,27.800174713134766
2015-01-05,33.09000015258789,33.09000015258789,33.09000015258789,33.09000015258789,0.0,26.749282836914062
2015-01-06,33.38999938964844,33.38999938964844,33.38999938964844,33.38999938964844,0.0,26.99180030822754
2015-01-07,33.38999938964844,33.38999938964844,33.38999938964844,33.38999938964844,0.0,26.99180030822754
2015-01-08,33.20000076293945,33.20000076293945,33.20000076293945,33.20000076293945,0.0,26.83820343017578
2015-01-09,34.04999923706055,34.02000045776367,34.02000045776367,34.04999923706055,200.0,27.52533531188965
2015-01-12,34.04999923706055,34.04999923706055,34.04999923706055,34.04999923706055,0.0,27.52533531188965
2015-01-13,33.630001068115234,33.630001068115234,33.630001068115234,33.630001068115234,0.0,27.18581771850586
2015-01-14,33.83000183105469,33.83000183105469,33.83000183105469,33.83000183105469,0.0,27.347484588623047
2015-01-15,32.43000030517578,32.43000030517578,32.43000030517578,32.43000030517578,0.0,26.21575355529785
2015-01-16,33.75,33.75,33.75,33.75,100.0,27.429903030395508
2015-01-20,33.75,33.75,33.75,33.75,0.0,27.429903030395508
2015-01-21,33.58000183105469,33.58000183105469,33.58000183105469,33.58000183105469,0.0,27.29174041748047
2015-01-22,32.7400016784668,32.7400016784668,32.7400016784668,32.7400016784668,0.0,26.60904312133789
2015-01-23,32.06999969482422,32.06999969482422,32.06999969482422,32.06999969482422,0.0,26.06450080871582
2015-01-26,33.150001525878906,33.150001525878906,33.150001525878906,33.150001525878906,0.0,26.94226837158203
2015-01-27,33.0099983215332,33.0099983215332,33.0099983215332,33.0099983215332,0.0,26.828475952148438
2015-01-28,33.09000015258789,33.09000015258789,33.09000015258789,33.09000015258789,0.0,26.89349937438965
2015-01-29,33.5099983215332,33.5099983215332,33.5099983215332,33.5099983215332,0.0,27.234844207763672
2015-01-30,33.27000045776367,33.20000076293945,33.27000045776367,33.20000076293945,1900.0,26.982894897460938
2015-02-02,33.20000076293945,33.20000076293945,33.20000076293945,33.20000076293945,0.0,26.982894897460938
2015-02-03,33.349998474121094,33.349998474121094,33.349998474121094,33.349998474121094,1800.0,27.10480499267578
2015-02-04,33.279998779296875,33.279998779296875,33.279998779296875,33.279998779296875,500.0,27.047908782958984
2015-02-05,33.279998779296875,33.279998779296875,33.279998779296875,33.279998779296875,0.0,27.047908782958984
2015-02-06,33.099998474121094,33.099998474121094,33.099998474121094,33.099998474121094,0.0,26.901620864868164
2015-02-09,32.97999954223633,32.97999954223633,32.97999954223633,32.97999954223633,0.0,26.80409049987793
2015-02-10,33.0,33.0,33.0,33.0,0.0,26.82035255432129
2015-02-11,33.15999984741211,33.15999984741211,33.15999984741211,33.15999984741211,0.0,26.950387954711914
2015-02-12,33.060001373291016,33.060001373291016,33.060001373291016,33.060001373291016,0.0,26.869117736816406
2015-02-13,33.099998474121094,33.099998474121094,33.099998474121094,33.099998474121094,0.0,26.901620864868164
2015-02-17,32.93000030517578,32.93000030517578,32.93000030517578,32.93000030517578,0.0,26.76346206665039
2015-02-18,30.420000076293945,30.420000076293945,30.420000076293945,30.420000076293945,0.0,24.723485946655273
2015-02-19,33.20000076293945,33.20000076293945,33.20000076293945,33.20000076293945,0.0,26.982894897460938
2015-02-20,32.95000076293945,32.95000076293945,32.95000076293945,32.95000076293945,0.0,26.779714584350586
2015-02-23,33.0,33.0,33.0,33.0,0.0,26.82035255432129
2015-02-24,33.15999984741211,33.15999984741211,33.15999984741211,33.15999984741211,0.0,26.950387954711914
2015-02-25,32.810001373291016,32.810001373291016,32.810001373291016,32.810001373291016,0.0,26.665929794311523
2015-02-26,32.959999084472656,32.959999084472656,32.959999084472656,32.959999084472656,0.0,26.787837982177734
2015-02-27,33.060001373291016,33.060001373291016,33.060001373291016,33.060001373291016,0.0,26.869117736816406
2015-03-02,32.970001220703125,32.970001220703125,32.970001220703125,32.970001220703125,0.0,26.79596710205078
2015-03-03,33.34000015258789,33.34000015258789,33.34000015258789,33.34000015258789,100.0,27.09668731689453
2015-03-04,33.02000045776367,32.970001220703125,32.970001220703125,33.02000045776367,400.0,26.836606979370117
2015-03-05,33.02000045776367,33.02000045776367,33.02000045776367,33.02000045776367,0.0,26.836606979370117
2015-03-06,32.7400016784668,32.7400016784668,32.7400016784668,32.7400016784668,0.0,26.60904312133789
2015-03-09,32.790000915527344,32.790000915527344,32.790000915527344,32.790000915527344,0.0,26.649673461914062
2015-03-10,32.70000076293945,32.70000076293945,32.70000076293945,32.70000076293945,500.0,26.57653045654297
2015-03-11,32.70000076293945,32.70000076293945,32.70000076293945,32.70000076293945,0.0,26.57653045654297
2015-03-12,32.34000015258789,32.310001373291016,32.310001373291016,32.34000015258789,1200.0,26.283945083618164
2015-03-13,32.11000061035156,32.11000061035156,32.11000061035156,32.11000061035156,1000.0,26.097013473510742
2015-03-16,32.29999923706055,32.22999954223633,32.2599983215332,32.2599983215332,2200.0,26.21892547607422
2015-03-17,32.2599983215332,32.2599983215332,32.2599983215332,32.2599983215332,0.0,26.297672271728516
2015-03-18,32.16999816894531,32.16999816894531,32.16999816894531,32.16999816894531,0.0,26.22430419921875
2015-03-19,31.049999237060547,31.049999237060547,31.049999237060547,31.049999237060547,0.0,25.31130027770996
2015-03-20,31.950000762939453,31.950000762939453,31.950000762939453,31.950000762939453,0.0,26.044967651367188
2015-03-23,32.5,32.47999954223633,32.47999954223633,32.47999954223633,2400.0,26.47701072692871
2015-03-24,32.68000030517578,32.47999954223633,32.68000030517578,32.68000030517578,1100.0,26.64005470275879
2015-03-25,32.68000030517578,32.68000030517578,32.68000030517578,32.68000030517578,0.0,26.64005470275879
2015-03-26,32.630001068115234,32.630001068115234,32.630001068115234,32.630001068115234,0.0,26.599292755126953
2015-03-27,32.869998931884766,32.869998931884766,32.869998931884766,32.869998931884766,0.0,26.79492950439453
2015-03-30,32.869998931884766,32.869998931884766,32.869998931884766,32.869998931884766,0.0,26.79492950439453
2015-03-31,32.720001220703125,32.720001220703125,32.720001220703125,32.720001220703125,100.0,26.67265510559082
2015-04-01,32.720001220703125,32.720001220703125,32.720001220703125,32.720001220703125,0.0,26.67265510559082
2015-04-02,32.720001220703125,32.720001220703125,32.720001220703125,32.720001220703125,0.0,26.67265510559082
2015-04-06,32.720001220703125,32.720001220703125,32.720001220703125,32.720001220703125,0.0,26.67265510559082
2015-04-07,32.720001220703125,32.720001220703125,32.720001220703125,32.720001220703125,0.0,26.67265510559082
2015-04-08,32.720001220703125,32.720001220703125,32.720001220703125,32.720001220703125,0.0,26.67265510559082
2015-04-09,32.720001220703125,32.720001220703125,32.720001220703125,32.720001220703125,0.0,26.67265510559082
2015-04-10,32.720001220703125,32.720001220703125,32.720001220703125,32.720001220703125,0.0,26.67265510559082
2015-04-13,32.720001220703125,32.720001220703125,32.720001220703125,32.720001220703125,0.0,26.67265510559082
2015-04-14,33.08000183105469,32.810001373291016,33.06999969482422,32.810001373291016,5400.0,26.746017456054688
2015-04-15,32.810001373291016,32.810001373291016,32.810001373291016,32.810001373291016,0.0,26.746017456054688
2015-04-16,33.15999984741211,33.15999984741211,33.15999984741211,33.15999984741211,400.0,27.031328201293945
2015-04-17,33.33000183105469,33.33000183105469,33.33000183105469,33.33000183105469,400.0,27.31861686706543
2015-04-20,33.33000183105469,33.33000183105469,33.33000183105469,33.33000183105469,0.0,27.31861686706543
2015-04-21,33.33000183105469,33.33000183105469,33.33000183105469,33.33000183105469,0.0,27.31861686706543
2015-04-22,33.33000183105469,33.33000183105469,33.33000183105469,33.33000183105469,0.0,27.31861686706543
2015-04-23,32.83000183105469,32.83000183105469,32.83000183105469,32.83000183105469,100.0,26.908796310424805
2015-04-24,32.83000183105469,32.83000183105469,32.83000183105469,32.83000183105469,0.0,26.908796310424805
2015-04-27,32.83000183105469,32.83000183105469,32.83000183105469,32.83000183105469,0.0,26.908796310424805
2015-04-28,33.130001068115234,33.119998931884766,33.119998931884766,33.130001068115234,800.0,27.154682159423828
2015-04-29,33.130001068115234,33.130001068115234,33.130001068115234,33.130001068115234,0.0,27.154682159423828
2015-04-30,33.25,33.25,33.25,33.25,1500.0,27.253049850463867
2015-05-01,33.25,33.25,33.25,33.25,0.0,27.253049850463867
2015-05-04,33.20000076293945,33.20000076293945,33.20000076293945,33.20000076293945,1000.0,27.21206283569336
2015-05-05,33.15999984741211,33.15999984741211,33.15999984741211,33.15999984741211,1500.0,27.179275512695312
2015-05-06,33.15999984741211,33.15999984741211,33.15999984741211,33.15999984741211,0.0,27.179275512695312
2015-05-07,32.849998474121094,32.849998474121094,32.849998474121094,32.849998474121094,0.0,26.925195693969727
2015-05-08,32.849998474121094,32.849998474121094,32.849998474121094,32.849998474121094,0.0,26.925195693969727
2015-05-11,32.849998474121094,32.849998474121094,32.849998474121094,32.849998474121094,0.0,26.925195693969727
2015-05-12,32.849998474121094,32.849998474121094,32.849998474121094,32.849998474121094,0.0,26.925195693969727
2015-05-13,32.849998474121094,32.849998474121094,32.849998474121094,32.849998474121094,0.0,26.925195693969727
2015-05-14,32.849998474121094,32.849998474121094,32.849998474121094,32.849998474121094,0.0,26.925195693969727
2015-05-15,32.849998474121094,32.849998474121094,32.849998474121094,32.849998474121094,0.0,26.925195693969727
2015-05-18,32.849998474121094,32.849998474121094,32.849998474121094,32.849998474121094,0.0,27.04564666748047
2015-05-19,33.16999816894531,33.16999816894531,33.16999816894531,33.16999816894531,1000.0,27.309091567993164
2015-05-20,33.16999816894531,33.16999816894531,33.16999816894531,33.16999816894531,0.0,27.309091567993164
2015-05-21,33.16999816894531,33.16999816894531,33.16999816894531,33.16999816894531,0.0,27.309091567993164
2015-05-22,33.16999816894531,33.16999816894531,33.16999816894531,33.16999816894531,0.0,27.309091567993164
2015-05-26,32.97999954223633,32.619998931884766,32.97999954223633,32.68000030517578,6700.0,26.905683517456055
2015-05-27,32.68000030517578,32.68000030517578,32.68000030517578,32.68000030517578,0.0,26.905683517456055
2015-05-28,32.68000030517578,32.68000030517578,32.68000030517578,32.68000030517578,0.0,26.905683517456055
2015-05-29,32.68000030517578,32.68000030517578,32.68000030517578,32.68000030517578,0.0,26.905683517456055
2015-06-01,32.68000030517578,32.68000030517578,32.68000030517578,32.68000030517578,0.0,26.905683517456055
2015-06-02,32.68000030517578,32.68000030517578,32.68000030517578,32.68000030517578,0.0,26.905683517456055
2015-06-03,32.68000030517578,32.68000030517578,32.68000030517578,32.68000030517578,0.0,26.905683517456055
2015-06-04,32.68000030517578,32.68000030517578,32.68000030517578,32.68000030517578,0.0,26.905683517456055
2015-06-05,32.310001373291016,32.310001373291016,32.310001373291016,32.310001373291016,200.0,26.60105323791504
2015-06-08,32.310001373291016,32.310001373291016,32.310001373291016,32.310001373291016,0.0,26.60105323791504
2015-06-09,32.25,32.22999954223633,32.22999954223633,32.22999954223633,5800.0,26.535188674926758
2015-06-10,32.22999954223633,32.22999954223633,32.22999954223633,32.22999954223633,0.0,26.535188674926758
2015-06-11,32.22999954223633,32.22999954223633,32.22999954223633,32.22999954223633,0.0,26.535188674926758
2015-06-12,32.22999954223633,32.22999954223633,32.22999954223633,32.22999954223633,0.0,26.535188674926758
2015-06-15,32.22999954223633,32.22999954223633,32.22999954223633,32.22999954223633,0.0,26.535188674926758
2015-06-16,32.22999954223633,32.22999954223633,32.22999954223633,32.22999954223633,0.0,26.535188674926758
2015-06-17,32.7599983215332,32.5,32.7599983215332,32.5,400.0,26.757478713989258
2015-06-18,32.5,32.5,32.5,32.5,0.0,26.757478713989258
2015-06-19,32.5,32.5,32.5,32.5,0.0,26.88595199584961
2015-06-22,32.5,32.5,32.5,32.5,0.0,26.88595199584961
2015-06-23,32.5,32.5,32.5,32.5,0.0,26.88595199584961
2015-06-24,32.5,32.5,32.5,32.5,0.0,26.88595199584961
2015-06-25,32.5,32.5,32.5,32.5,0.0,26.88595199584961
2015-06-26,32.5,32.5,32.5,32.5,0.0,26.88595199584961
2015-06-29,32.5,32.5,32.5,32.5,0.0,26.88595199584961
2015-06-30,32.5,32.5,32.5,32.5,0.0,26.88595199584961
2015-07-01,32.5,32.5,32.5,32.5,0.0,26.88595199584961
2015-07-02,32.099998474121094,32.099998474121094,32.099998474121094,32.099998474121094,300.0,26.55504608154297
2015-07-06,32.099998474121094,32.099998474121094,32.099998474121094,32.099998474121094,0.0,26.55504608154297
2015-07-07,32.099998474121094,32.099998474121094,32.099998474121094,32.099998474121094,0.0,26.55504608154297
2015-07-08,32.099998474121094,32.099998474121094,32.099998474121094,32.099998474121094,0.0,26.55504608154297
2015-07-09,32.099998474121094,32.099998474121094,32.099998474121094,32.099998474121094,0.0,26.55504608154297
2015-07-10,32.0099983215332,31.950000762939453,31.950000762939453,32.0099983215332,700.0,26.480592727661133
2015-07-13,32.0099983215332,32.0099983215332,32.0099983215332,32.0099983215332,0.0,26.480592727661133
2015-07-14,32.0099983215332,32.0099983215332,32.0099983215332,32.0099983215332,0.0,26.480592727661133
2015-07-15,32.18000030517578,32.18000030517578,32.18000030517578,32.18000030517578,500.0,26.621234893798828
2015-07-16,32.18000030517578,32.18000030517578,32.18000030517578,32.18000030517578,0.0,26.716211318969727
2015-07-17,32.18000030517578,32.18000030517578,32.18000030517578,32.18000030517578,0.0,26.716211318969727
2015-07-20,32.18000030517578,32.18000030517578,32.18000030517578,32.18000030517578,0.0,26.716211318969727
2015-07-21,32.18000030517578,32.18000030517578,32.18000030517578,32.18000030517578,0.0,26.716211318969727
2015-07-22,32.18000030517578,32.18000030517578,32.18000030517578,32.18000030517578,0.0,26.716211318969727
2015-07-23,32.18000030517578,32.18000030517578,32.18000030517578,32.18000030517578,0.0,26.716211318969727
2015-07-24,31.399999618530273,31.399999618530273,31.399999618530273,31.399999618530273,100.0,26.06863784790039
2015-07-27,31.399999618530273,31.399999618530273,31.399999618530273,31.399999618530273,0.0,26.06863784790039
2015-07-28,31.399999618530273,31.399999618530273,31.399999618530273,31.399999618530273,0.0,26.06863784790039
2015-07-29,31.399999618530273,31.399999618530273,31.399999618530273,31.399999618530273,0.0,26.06863784790039
2015-07-30,31.399999618530273,31.399999618530273,31.399999618530273,31.399999618530273,0.0,26.06863784790039
2015-07-31,31.399999618530273,31.399999618530273,31.399999618530273,31.399999618530273,0.0,26.06863784790039
2015-08-03,31.399999618530273,31.399999618530273,31.399999618530273,31.399999618530273,0.0,26.06863784790039
2015-08-04,31.399999618530273,31.399999618530273,31.399999618530273,31.399999618530273,0.0,26.06863784790039
2015-08-05,31.399999618530273,31.399999618530273,31.399999618530273,31.399999618530273,0.0,26.06863784790039
2015-08-06,31.399999618530273,31.399999618530273,31.399999618530273,31.399999618530273,0.0,26.06863784790039
2015-08-07,31.399999618530273,31.399999618530273,31.399999618530273,31.399999618530273,0.0,26.06863784790039
2015-08-10,31.399999618530273,31.399999618530273,31.399999618530273,31.399999618530273,0.0,26.06863784790039
2015-08-11,31.399999618530273,31.399999618530273,31.399999618530273,31.399999618530273,0.0,26.06863784790039
2015-08-12,31.399999618530273,31.399999618530273,31.399999618530273,31.399999618530273,0.0,26.06863784790039
2015-08-13,31.399999618530273,31.399999618530273,31.399999618530273,31.399999618530273,0.0,26.06863784790039
2015-08-14,31.399999618530273,31.399999618530273,31.399999618530273,31.399999618530273,0.0,26.06863784790039
2015-08-17,31.399999618530273,31.399999618530273,31.399999618530273,31.399999618530273,0.0,26.06863784790039
2015-08-18,31.399999618530273,31.399999618530273,31.399999618530273,31.399999618530273,0.0,26.06863784790039
2015-08-19,31.399999618530273,31.399999618530273,31.399999618530273,31.399999618530273,0.0,26.06863784790039
2015-08-20,31.399999618530273,31.399999618530273,31.399999618530273,31.399999618530273,0.0,26.184467315673828
2015-08-21,31.399999618530273,31.399999618530273,31.399999618530273,31.399999618530273,0.0,26.184467315673828
2015-08-24,30.030000686645508,30.030000686645508,30.030000686645508,30.030000686645508,1500.0,25.042028427124023
2015-08-25,30.030000686645508,30.030000686645508,30.030000686645508,30.030000686645508,0.0,25.042028427124023
2015-08-26,30.030000686645508,30.030000686645508,30.030000686645508,30.030000686645508,0.0,25.042028427124023
2015-08-27,30.030000686645508,30.030000686645508,30.030000686645508,30.030000686645508,0.0,25.042028427124023
2015-08-28,30.030000686645508,30.030000686645508,30.030000686645508,30.030000686645508,0.0,25.042028427124023
2015-08-31,30.030000686645508,30.030000686645508,30.030000686645508,30.030000686645508,0.0,25.042028427124023
2015-09-01,30.030000686645508,30.030000686645508,30.030000686645508,30.030000686645508,0.0,25.042028427124023
2015-09-02,30.030000686645508,30.030000686645508,30.030000686645508,30.030000686645508,0.0,25.042028427124023
2015-09-03,30.030000686645508,30.030000686645508,30.030000686645508,30.030000686645508,0.0,25.042028427124023
2015-09-04,30.030000686645508,30.030000686645508,30.030000686645508,30.030000686645508,0.0,25.042028427124023
2015-09-08,30.030000686645508,30.030000686645508,30.030000686645508,30.030000686645508,0.0,25.042028427124023
2015-09-09,30.030000686645508,30.030000686645508,30.030000686645508,30.030000686645508,0.0,25.042028427124023
2015-09-10,30.030000686645508,30.030000686645508,30.030000686645508,30.030000686645508,0.0,25.042028427124023
2015-09-11,30.030000686645508,30.030000686645508,30.030000686645508,30.030000686645508,0.0,25.042028427124023
2015-09-14,30.030000686645508,30.030000686645508,30.030000686645508,30.030000686645508,0.0,25.042028427124023
2015-09-15,30.030000686645508,30.030000686645508,30.030000686645508,30.030000686645508,0.0,25.042028427124023
2015-09-16,30.030000686645508,30.030000686645508,30.030000686645508,30.030000686645508,0.0,25.152793884277344
2015-09-17,30.079999923706055,29.719999313354492,30.010000228881836,29.93000030517578,9100.0,25.069032669067383
2015-09-18,30.09000015258789,30.049999237060547,30.09000015258789,30.059999465942383,1200.0,25.177919387817383
2015-09-21,30.149999618530273,30.1299991607666,30.139999389648438,30.1299991607666,300.0,25.23655128479004
2015-09-22,29.899999618530273,29.8700008392334,29.899999618530273,29.899999618530273,10600.0,25.04390525817871
2015-09-23,29.899999618530273,29.899999618530273,29.899999618530273,29.899999618530273,0.0,25.04390525817871
2015-09-24,29.899999618530273,29.899999618530273,29.899999618530273,29.899999618530273,0.0,25.04390525817871
2015-09-25,29.489999771118164,29.440000534057617,29.459999084472656,29.450000762939453,18800.0,24.666990280151367
2015-09-28,29.530000686645508,29.530000686645508,29.530000686645508,29.530000686645508,8200.0,24.73399543762207
2015-09-29,29.530000686645508,29.530000686645508,29.530000686645508,29.530000686645508,0.0,24.73399543762207
2015-09-30,29.479999542236328,29.469999313354492,29.479999542236328,29.469999313354492,19600.0,24.683738708496094
2015-10-01,29.469999313354492,29.469999313354492,29.469999313354492,29.469999313354492,0.0,24.683738708496094
2015-10-02,29.469999313354492,29.469999313354492,29.469999313354492,29.469999313354492,0.0,24.683738708496094
2015-10-05,29.760000228881836,29.739999771118164,29.739999771118164,29.760000228881836,7800.0,24.926645278930664
2015-10-06,29.760000228881836,29.760000228881836,29.760000228881836,29.760000228881836,0.0,24.926645278930664
2015-10-07,30.360000610351562,30.149999618530273,30.290000915527344,30.200000762939453,17100.0,25.295183181762695
2015-10-08,30.200000762939453,30.200000762939453,30.200000762939453,30.200000762939453,0.0,25.295183181762695
2015-10-09,30.579999923706055,30.579999923706055,30.579999923706055,30.579999923706055,3000.0,25.613460540771484
2015-10-12,30.579999923706055,30.579999923706055,30.579999923706055,30.579999923706055,0.0,25.613460540771484
2015-10-13,30.84000015258789,30.559999465942383,30.829999923706055,30.559999465942383,10000.0,25.59671401977539
2015-10-14,30.950000762939453,30.700000762939453,30.889999389648438,30.790000915527344,53800.0,25.78936004638672
2015-10-15,30.760000228881836,30.719999313354492,30.719999313354492,30.760000228881836,5000.0,25.764230728149414
2015-10-16,30.760000228881836,30.760000228881836,30.760000228881836,30.760000228881836,0.0,25.906566619873047
2015-10-19,30.829999923706055,30.600000381469727,30.829999923706055,30.600000381469727,4900.0,25.771806716918945
2015-10-20,30.59000015258789,30.549999237060547,30.59000015258789,30.549999237060547,5000.0,25.729700088500977
2015-10-21,30.489999771118164,30.43000030517578,30.489999771118164,30.43000030517578,8800.0,25.62863540649414
2015-10-22,30.420000076293945,30.31999969482422,30.31999969482422,30.420000076293945,5200.0,25.62021255493164
2015-10-23,30.420000076293945,30.420000076293945,30.420000076293945,30.420000076293945,0.0,25.62021255493164
2015-10-26,30.360000610351562,30.360000610351562,30.360000610351562,30.360000610351562,6000.0,25.569683074951172
2015-10-27,30.360000610351562,30.360000610351562,30.360000610351562,30.360000610351562,0.0,25.569683074951172
2015-10-28,30.31999969482422,30.190000534057617,30.290000915527344,30.190000534057617,4600.0,25.426502227783203
2015-10-29,30.219999313354492,30.219999313354492,30.219999313354492,30.219999313354492,13900.0,25.451770782470703
2015-10-30,30.200000762939453,30.190000534057617,30.200000762939453,30.190000534057617,10800.0,25.426502227783203
2015-11-02,30.270000457763672,30.270000457763672,30.270000457763672,30.270000457763672,4800.0,25.493879318237305
2015-11-03,30.350000381469727,30.350000381469727,30.350000381469727,30.350000381469727,7400.0,25.561262130737305
2015-11-04,30.350000381469727,30.350000381469727,30.350000381469727,30.350000381469727,0.0,25.561262130737305
2015-11-05,30.520000457763672,30.3799991607666,30.450000762939453,30.440000534057617,14000.0,25.63705825805664
2015-11-06,30.25,30.200000762939453,30.25,30.200000762939453,12900.0,25.434925079345703
2015-11-09,30.1200008392334,30.06999969482422,30.1200008392334,30.06999969482422,8600.0,25.325437545776367
2015-11-10,30.1200008392334,29.969999313354492,30.1200008392334,29.969999313354492,8200.0,25.2412166595459
2015-11-11,30.030000686645508,29.969999313354492,29.969999313354492,30.030000686645508,10500.0,25.291751861572266
2015-11-12,29.969999313354492,29.969999313354492,29.969999313354492,29.969999313354492,3000.0,25.2412166595459
2015-11-13,29.8799991607666,29.829999923706055,29.8799991607666,29.829999923706055,5800.0,25.123308181762695
2015-11-16,29.8799991607666,29.8799991607666,29.8799991607666,29.8799991607666,4600.0,25.16541862487793
2015-11-17,29.84000015258789,29.84000015258789,29.84000015258789,29.84000015258789,7600.0,25.13172721862793
2015-11-18,29.700000762939453,29.690000534057617,29.700000762939453,29.700000762939453,3800.0,25.162565231323242
2015-11-19,29.90999984741211,29.75,29.75,29.790000915527344,20300.0,25.238819122314453
2015-11-20,29.899999618530273,29.889999389648438,29.889999389648438,29.899999618530273,9200.0,25.33201026916504
2015-11-23,29.899999618530273,29.899999618530273,29.899999618530273,29.899999618530273,0.0,25.33201026916504
2015-11-24,29.989999771118164,29.739999771118164,29.8700008392334,29.739999771118164,30200.0,25.196456909179688
2015-11-25,30.25,29.940000534057617,30.25,29.940000534057617,6900.0,25.365903854370117
2015-11-27,29.940000534057617,29.940000534057617,29.940000534057617,29.940000534057617,0.0,25.365903854370117
2015-11-30,29.940000534057617,29.940000534057617,29.940000534057617,29.940000534057617,0.0,25.365903854370117
2015-12-01,29.690000534057617,29.690000534057617,29.690000534057617,29.690000534057617,100.0,25.154096603393555
2015-12-02,29.690000534057617,29.690000534057617,29.690000534057617,29.690000534057617,0.0,25.154096603393555
2015-12-03,29.690000534057617,29.690000534057617,29.690000534057617,29.690000534057617,0.0,25.154096603393555
2015-12-04,29.690000534057617,29.690000534057617,29.690000534057617,29.690000534057617,0.0,25.154096603393555
2015-12-07,29.690000534057617,29.690000534057617,29.690000534057617,29.690000534057617,0.0,25.154096603393555
2015-12-08,29.690000534057617,29.690000534057617,29.690000534057617,29.690000534057617,0.0,25.154096603393555
2015-12-09,29.690000534057617,29.690000534057617,29.690000534057617,29.690000534057617,0.0,25.154096603393555
2015-12-10,29.799999237060547,29.3700008392334,29.65999984741211,29.520000457763672,8400.0,25.01006507873535
2015-12-11,29.600000381469727,29.59000015258789,29.59000015258789,29.600000381469727,2200.0,25.07784080505371
2015-12-14,29.600000381469727,29.600000381469727,29.600000381469727,29.600000381469727,0.0,25.07784080505371
2015-12-15,29.68000030517578,29.670000076293945,29.670000076293945,29.68000030517578,1300.0,25.14561653137207
2015-12-16,29.40999984741211,29.299999237060547,29.40999984741211,29.399999618530273,7600.0,25.529605865478516
2015-12-17,28.84000015258789,28.389999389648438,28.84000015258789,28.540000915527344,20900.0,24.78282356262207
2015-12-18,28.639999389648438,28.170000076293945,28.170000076293945,28.639999389648438,10800.0,24.869657516479492
2015-12-21,29.209999084472656,29.059999465942383,29.170000076293945,29.059999465942383,25600.0,25.234365463256836
2015-12-22,29.059999465942383,29.059999465942383,29.059999465942383,29.059999465942383,0.0,25.234365463256836
2015-12-23,29.3700008392334,29.360000610351562,29.360000610351562,29.3700008392334,1300.0,25.503555297851562
2015-12-24,29.3700008392334,29.3700008392334,29.3700008392334,29.3700008392334,0.0,25.503555297851562
2015-12-28,29.3700008392334,29.3700008392334,29.3700008392334,29.3700008392334,0.0,25.503555297851562
2015-12-29,29.3700008392334,29.3700008392334,29.3700008392334,29.3700008392334,0.0,25.503555297851562
2015-12-30,29.329999923706055,29.25,29.329999923706055,29.25,7400.0,25.399354934692383
2015-12-31,29.25,29.25,29.25,29.25,0.0,25.399354934692383
2016-01-04,29.270000457763672,29.139999389648438,29.270000457763672,29.139999389648438,33700.0,25.3038387298584
2016-01-05,29.170000076293945,28.969999313354492,29.170000076293945,28.969999313354492,5900.0,25.15621566772461
2016-01-06,28.969999313354492,28.969999313354492,28.969999313354492,28.969999313354492,0.0,25.15621566772461
2016-01-07,28.969999313354492,28.969999313354492,28.969999313354492,28.969999313354492,0.0,25.15621566772461
2016-01-08,28.969999313354492,28.969999313354492,28.969999313354492,28.969999313354492,0.0,25.15621566772461
2016-01-11,28.610000610351562,28.610000610351562,28.610000610351562,28.610000610351562,20000.0,24.84360694885254
2016-01-12,28.600000381469727,28.600000381469727,28.600000381469727,28.600000381469727,400.0,24.83492660522461
2016-01-13,28.639999389648438,28.6299991607666,28.6299991607666,28.639999389648438,9500.0,24.869657516479492
2016-01-14,28.639999389648438,28.639999389648438,28.639999389648438,28.639999389648438,0.0,24.869657516479492
2016-01-15,28.559999465942383,28.540000915527344,28.549999237060547,28.549999237060547,25300.0,24.79151153564453
2016-01-19,28.549999237060547,27.719999313354492,28.479999542236328,28.020000457763672,15100.0,25.12307357788086
2016-01-20,27.520000457763672,27.5,27.510000228881836,27.520000457763672,54500.0,24.67476463317871
2016-01-21,27.510000228881836,27.510000228881836,27.510000228881836,27.510000228881836,5100.0,24.665800094604492
2016-01-22,27.5,27.489999771118164,27.489999771118164,27.5,30400.0,24.65683364868164
2016-01-25,27.479999542236328,27.399999618530273,27.479999542236328,27.399999618530273,400.0,24.567174911499023
2016-01-26,27.399999618530273,27.399999618530273,27.399999618530273,27.399999618530273,0.0,24.567174911499023
2016-01-27,27.399999618530273,27.399999618530273,27.399999618530273,27.399999618530273,0.0,24.567174911499023
2016-01-28,27.649999618530273,27.6299991607666,27.6299991607666,27.649999618530273,9100.0,24.79132843017578
2016-01-29,27.75,27.75,27.75,27.75,78700.0,24.880990982055664
2016-02-01,27.75,27.75,27.75,27.75,0.0,24.880990982055664
2016-02-02,27.75,27.75,27.75,27.75,0.0,24.880990982055664
2016-02-03,27.75,27.75,27.75,27.75,0.0,24.880990982055664
2016-02-04,28.0,28.0,28.0,28.0,1800.0,25.105144500732422
2016-02-05,28.5,28.299999237060547,28.5,28.309999465942383,2100.0,25.383092880249023
2016-02-08,27.8799991607666,27.860000610351562,27.8799991607666,27.860000610351562,3200.0,24.9796142578125
2016-02-09,28.0,28.0,28.0,28.0,200.0,25.105144500732422
2016-02-10,28.0,28.0,28.0,28.0,0.0,25.105144500732422
2016-02-11,27.770000457763672,27.760000228881836,27.770000457763672,27.760000228881836,1900.0,24.88995361328125
2016-02-12,27.760000228881836,27.760000228881836,27.760000228881836,27.760000228881836,0.0,24.88995361328125
2016-02-16,27.760000228881836,27.760000228881836,27.760000228881836,27.760000228881836,0.0,24.88995361328125
2016-02-17,27.760000228881836,27.760000228881836,27.760000228881836,27.760000228881836,0.0,25.029434204101562
2016-02-18,27.639999389648438,27.639999389648438,27.639999389648438,27.639999389648438,1800.0,24.921239852905273
2016-02-19,27.639999389648438,27.639999389648438,27.639999389648438,27.639999389648438,0.0,24.921239852905273
2016-02-22,27.639999389648438,27.639999389648438,27.639999389648438,27.639999389648438,0.0,24.921239852905273
2016-02-23,27.639999389648438,27.639999389648438,27.639999389648438,27.639999389648438,0.0,24.921239852905273
2016-02-24,27.639999389648438,27.639999389648438,27.639999389648438,27.639999389648438,0.0,24.921239852905273
2016-02-25,27.639999389648438,27.639999389648438,27.639999389648438,27.639999389648438,0.0,24.921239852905273
2016-02-26,27.639999389648438,27.639999389648438,27.639999389648438,27.639999389648438,0.0,24.921239852905273
2016-02-29,27.639999389648438,27.639999389648438,27.639999389648438,27.639999389648438,0.0,24.921239852905273
2016-03-01,27.639999389648438,27.639999389648438,27.639999389648438,27.639999389648438,0.0,24.921239852905273
2016-03-02,27.639999389648438,27.639999389648438,27.639999389648438,27.639999389648438,0.0,24.921239852905273
2016-03-03,27.639999389648438,27.639999389648438,27.639999389648438,27.639999389648438,0.0,24.921239852905273
2016-03-04,28.239999771118164,28.219999313354492,28.219999313354492,28.239999771118164,2100.0,25.46222686767578
2016-03-07,28.239999771118164,28.239999771118164,28.239999771118164,28.239999771118164,0.0,25.46222686767578
2016-03-08,28.239999771118164,28.239999771118164,28.239999771118164,28.239999771118164,0.0,25.46222686767578
2016-03-09,28.239999771118164,28.239999771118164,28.239999771118164,28.239999771118164,0.0,25.46222686767578
2016-03-10,28.239999771118164,28.239999771118164,28.239999771118164,28.239999771118164,0.0,25.46222686767578
2016-03-11,28.690000534057617,28.68000030517578,28.68000030517578,28.690000534057617,1800.0,25.867963790893555
2016-03-14,28.690000534057617,28.690000534057617,28.690000534057617,28.690000534057617,0.0,25.867963790893555
2016-03-15,28.530000686645508,28.520000457763672,28.530000686645508,28.520000457763672,1900.0,25.714683532714844
2016-03-16,28.520000457763672,28.520000457763672,28.520000457763672,28.520000457763672,0.0,25.714683532714844
2016-03-17,29.149999618530273,28.709999084472656,28.709999084472656,29.139999389648438,17000.0,26.390289306640625
2016-03-18,29.0,28.790000915527344,29.0,29.0,500.0,26.263500213623047
2016-03-21,29.049999237060547,29.020000457763672,29.030000686645508,29.049999237060547,4600.0,26.30878448486328
2016-03-22,29.049999237060547,29.049999237060547,29.049999237060547,29.049999237060547,0.0,26.30878448486328
2016-03-23,29.049999237060547,29.049999237060547,29.049999237060547,29.049999237060547,0.0,26.30878448486328
2016-03-24,28.709999084472656,28.690000534057617,28.700000762939453,28.709999084472656,3100.0,26.00086212158203
2016-03-28,28.709999084472656,28.709999084472656,28.709999084472656,28.709999084472656,0.0,26.00086212158203
2016-03-29,28.709999084472656,28.709999084472656,28.709999084472656,28.709999084472656,0.0,26.00086212158203
2016-03-30,29.219999313354492,28.979999542236328,29.010000228881836,29.010000228881836,7300.0,26.272554397583008
2016-03-31,29.010000228881836,29.010000228881836,29.010000228881836,29.010000228881836,0.0,26.272554397583008
2016-04-01,29.0,29.0,29.0,29.0,500.0,26.263500213623047
2016-04-04,29.0,29.0,29.0,29.0,0.0,26.263500213623047
2016-04-05,29.0,28.90999984741211,29.0,28.90999984741211,1400.0,26.181997299194336
2016-04-06,29.049999237060547,28.850000381469727,28.860000610351562,29.030000686645508,1500.0,26.29067039489746
2016-04-07,29.030000686645508,29.030000686645508,29.030000686645508,29.030000686645508,0.0,26.29067039489746
2016-04-08,29.030000686645508,29.030000686645508,29.030000686645508,29.030000686645508,0.0,26.29067039489746
2016-04-11,29.030000686645508,29.030000686645508,29.030000686645508,29.030000686645508,0.0,26.29067039489746
2016-04-12,29.200000762939453,29.100000381469727,29.200000762939453,29.170000076293945,600.0,26.417455673217773
2016-04-13,29.170000076293945,29.170000076293945,29.170000076293945,29.170000076293945,0.0,26.417455673217773
2016-04-14,29.170000076293945,29.170000076293945,29.170000076293945,29.170000076293945,0.0,26.417455673217773
2016-04-15,29.170000076293945,29.170000076293945,29.170000076293945,29.170000076293945,0.0,26.417455673217773
2016-04-18,29.420000076293945,29.420000076293945,29.420000076293945,29.420000076293945,300.0,26.64386749267578
2016-04-19,29.420000076293945,29.420000076293945,29.420000076293945,29.420000076293945,0.0,26.778945922851562
2016-04-20,29.420000076293945,29.420000076293945,29.420000076293945,29.420000076293945,0.0,26.778945922851562
2016-04-21,29.420000076293945,29.420000076293945,29.420000076293945,29.420000076293945,0.0,26.778945922851562
2016-04-22,29.239999771118164,29.239999771118164,29.239999771118164,29.239999771118164,200.0,26.615097045898438
2016-04-25,29.030000686645508,29.030000686645508,29.030000686645508,29.030000686645508,200.0,26.4239559173584
2016-04-26,29.030000686645508,29.030000686645508,29.030000686645508,29.030000686645508,0.0,26.4239559173584
2016-04-27,29.030000686645508,29.030000686645508,29.030000686645508,29.030000686645508,0.0,26.4239559173584
2016-04-28,29.030000686645508,29.030000686645508,29.030000686645508,29.030000686645508,0.0,26.4239559173584
2016-04-29,29.030000686645508,29.030000686645508,29.030000686645508,29.030000686645508,0.0,26.4239559173584
2016-05-02,29.549999237060547,29.540000915527344,29.540000915527344,29.549999237060547,200.0,26.89727210998535
2016-05-03,29.549999237060547,29.549999237060547,29.549999237060547,29.549999237060547,0.0,26.89727210998535
2016-05-04,29.229999542236328,29.010000228881836,29.229999542236328,29.030000686645508,14000.0,26.4239559173584
2016-05-05,29.149999618530273,29.020000457763672,29.040000915527344,29.100000381469727,3100.0,26.4876651763916
2016-05-06,29.110000610351562,29.010000228881836,29.049999237060547,29.110000610351562,1000.0,26.496774673461914
2016-05-09,28.959999084472656,28.860000610351562,28.860000610351562,28.889999389648438,1000.0,26.29652214050293
2016-05-10,29.270000457763672,29.270000457763672,29.270000457763672,29.270000457763672,100.0,26.64240837097168
2016-05-11,29.270000457763672,29.270000457763672,29.270000457763672,29.270000457763672,0.0,26.64240837097168
2016-05-12,29.270000457763672,29.270000457763672,29.270000457763672,29.270000457763672,0.0,26.64240837097168
2016-05-13,29.270000457763672,29.270000457763672,29.270000457763672,29.270000457763672,0.0,26.64240837097168
2016-05-16,29.270000457763672,29.270000457763672,29.270000457763672,29.270000457763672,0.0,26.64240837097168
2016-05-17,29.270000457763672,29.270000457763672,29.270000457763672,29.270000457763672,100.0,26.64240837097168
2016-05-18,28.639999389648438,28.639999389648438,28.639999389648438,28.639999389648438,1000.0,26.191465377807617
2016-05-19,28.469999313354492,28.469999313354492,28.469999313354492,28.469999313354492,500.0,26.035993576049805
2016-05-20,28.469999313354492,28.469999313354492,28.469999313354492,28.469999313354492,0.0,26.035993576049805
2016-05-23,28.469999313354492,28.469999313354492,28.469999313354492,28.469999313354492,0.0,26.035993576049805
2016-05-24,28.469999313354492,28.469999313354492,28.469999313354492,28.469999313354492,0.0,26.035993576049805
2016-05-25,28.469999313354492,28.469999313354492,28.469999313354492,28.469999313354492,0.0,26.035993576049805
2016-05-26,28.469999313354492,28.469999313354492,28.469999313354492,28.469999313354492,0.0,26.035993576049805
2016-05-27,28.469999313354492,28.469999313354492,28.469999313354492,28.469999313354492,0.0,26.035993576049805
2016-05-31,28.469999313354492,28.469999313354492,28.469999313354492,28.469999313354492,0.0,26.035993576049805
2016-06-01,28.729999542236328,28.719999313354492,28.719999313354492,28.729999542236328,200.0,26.27376937866211
2016-06-02,28.729999542236328,28.729999542236328,28.729999542236328,28.729999542236328,0.0,26.27376937866211
2016-06-03,28.729999542236328,28.729999542236328,28.729999542236328,28.729999542236328,0.0,26.27376937866211
2016-06-06,29.200000762939453,28.959999084472656,29.190000534057617,28.969999313354492,4100.0,26.493253707885742
2016-06-07,28.969999313354492,28.969999313354492,28.969999313354492,28.969999313354492,0.0,26.493253707885742
2016-06-08,28.969999313354492,28.969999313354492,28.969999313354492,28.969999313354492,0.0,26.493253707885742
2016-06-09,28.969999313354492,28.969999313354492,28.969999313354492,28.969999313354492,0.0,26.493253707885742
2016-06-10,28.989999771118164,28.989999771118164,28.989999771118164,28.989999771118164,300.0,26.511545181274414
2016-06-13,29.459999084472656,29.459999084472656,29.459999084472656,29.459999084472656,200.0,26.94135856628418
2016-06-14,29.459999084472656,29.459999084472656,29.459999084472656,29.459999084472656,0.0,26.94135856628418
2016-06-15,29.459999084472656,29.459999084472656,29.459999084472656,29.459999084472656,0.0,26.94135856628418
2016-06-16,29.459999084472656,29.459999084472656,29.459999084472656,29.459999084472656,0.0,27.069263458251953
2016-06-17,28.690000534057617,28.690000534057617,28.690000534057617,28.690000534057617,200.0,26.361753463745117
2016-06-20,29.100000381469727,29.100000381469727,29.100000381469727,29.100000381469727,3800.0,26.738475799560547
2016-06-21,29.100000381469727,29.100000381469727,29.100000381469727,29.100000381469727,0.0,26.738475799560547
2016-06-22,29.100000381469727,29.100000381469727,29.100000381469727,29.100000381469727,0.0,26.738475799560547
2016-06-23,29.100000381469727,29.100000381469727,29.100000381469727,29.100000381469727,0.0,26.738475799560547
2016-06-24,29.18000030517578,28.459999084472656,28.459999084472656,28.520000457763672,10700.0,26.205547332763672
2016-06-27,28.579999923706055,28.239999771118164,28.579999923706055,28.239999771118164,1800.0,25.94826889038086
2016-06-28,28.760000228881836,28.75,28.75,28.760000228881836,300.0,26.42607307434082
2016-06-29,29.170000076293945,29.15999984741211,29.170000076293945,29.170000076293945,4100.0,26.802797317504883
2016-06-30,29.170000076293945,29.170000076293945,29.170000076293945,29.170000076293945,0.0,26.802797317504883
2016-07-01,29.170000076293945,29.170000076293945,29.170000076293945,29.170000076293945,0.0,26.802797317504883
2016-07-05,28.989999771118164,28.989999771118164,28.989999771118164,28.989999771118164,1700.0,26.637407302856445
2016-07-06,28.989999771118164,28.989999771118164,28.989999771118164,28.989999771118164,0.0,26.637407302856445
2016-07-07,28.989999771118164,28.989999771118164,28.989999771118164,28.989999771118164,0.0,26.637407302856445
2016-07-08,28.989999771118164,28.989999771118164,28.989999771118164,28.989999771118164,0.0,26.637407302856445
2016-07-11,28.989999771118164,28.989999771118164,28.989999771118164,28.989999771118164,0.0,26.637407302856445
2016-07-12,28.989999771118164,28.989999771118164,28.989999771118164,28.989999771118164,100.0,26.637407302856445
2016-07-13,29.3700008392334,29.290000915527344,29.290000915527344,29.3700008392334,400.0,26.9865665435791
2016-07-14,29.3700008392334,29.3700008392334,29.3700008392334,29.3700008392334,0.0,26.9865665435791
2016-07-15,29.3700008392334,29.3700008392334,29.3700008392334,29.3700008392334,0.0,26.9865665435791
2016-07-18,29.3700008392334,29.3700008392334,29.3700008392334,29.3700008392334,0.0,27.135038375854492
2016-07-19,29.3700008392334,29.3700008392334,29.3700008392334,29.3700008392334,0.0,27.135038375854492
2016-07-20,29.3700008392334,29.3700008392334,29.3700008392334,29.3700008392334,0.0,27.135038375854492
2016-07-21,29.3700008392334,29.3700008392334,29.3700008392334,29.3700008392334,0.0,27.135038375854492
2016-07-22,29.3700008392334,29.3700008392334,29.3700008392334,29.3700008392334,0.0,27.135038375854492
2016-07-25,29.139999389648438,28.979999542236328,29.020000457763672,29.139999389648438,700.0,26.922544479370117
2016-07-26,28.979999542236328,28.979999542236328,28.979999542236328,28.979999542236328,200.0,26.774721145629883
2016-07-27,28.979999542236328,28.979999542236328,28.979999542236328,28.979999542236328,0.0,26.774721145629883
2016-07-28,28.979999542236328,28.979999542236328,28.979999542236328,28.979999542236328,0.0,26.774721145629883
2016-07-29,28.979999542236328,28.979999542236328,28.979999542236328,28.979999542236328,0.0,26.774721145629883
2016-08-01,29.260000228881836,29.149999618530273,29.149999618530273,29.260000228881836,400.0,27.03341293334961
2016-08-02,29.260000228881836,29.260000228881836,29.260000228881836,29.260000228881836,0.0,27.03341293334961
2016-08-03,29.010000228881836,29.010000228881836,29.010000228881836,29.010000228881836,500.0,26.802433013916016
2016-08-04,29.010000228881836,29.010000228881836,29.010000228881836,29.010000228881836,0.0,26.802433013916016
2016-08-05,29.010000228881836,29.010000228881836,29.010000228881836,29.010000228881836,0.0,26.802433013916016
2016-08-08,29.010000228881836,29.010000228881836,29.010000228881836,29.010000228881836,0.0,26.802433013916016
2016-08-09,29.600000381469727,29.59000015258789,29.59000015258789,29.600000381469727,400.0,27.347537994384766
2016-08-10,29.600000381469727,29.600000381469727,29.600000381469727,29.600000381469727,0.0,27.347537994384766
2016-08-11,29.600000381469727,29.600000381469727,29.600000381469727,29.600000381469727,0.0,27.347537994384766
2016-08-12,29.600000381469727,29.600000381469727,29.600000381469727,29.600000381469727,0.0,27.347537994384766
2016-08-15,29.600000381469727,29.600000381469727,29.600000381469727,29.600000381469727,0.0,27.347537994384766
2016-08-16,29.600000381469727,29.600000381469727,29.600000381469727,29.600000381469727,0.0,27.347537994384766
2016-08-17,29.690000534057617,29.690000534057617,29.690000534057617,29.690000534057617,300.0,27.545900344848633
2016-08-18,29.690000534057617,29.690000534057617,29.690000534057617,29.690000534057617,0.0,27.545900344848633
2016-08-19,29.690000534057617,29.690000534057617,29.690000534057617,29.690000534057617,0.0,27.545900344848633
2016-08-22,29.690000534057617,29.690000534057617,29.690000534057617,29.690000534057617,0.0,27.545900344848633
2016-08-23,29.690000534057617,29.690000534057617,29.690000534057617,29.690000534057617,0.0,27.545900344848633
2016-08-24,29.690000534057617,29.690000534057617,29.690000534057617,29.690000534057617,0.0,27.545900344848633
2016-08-25,29.690000534057617,29.690000534057617,29.690000534057617,29.690000534057617,0.0,27.545900344848633
2016-08-26,29.690000534057617,29.690000534057617,29.690000534057617,29.690000534057617,0.0,27.545900344848633
2016-08-29,29.690000534057617,29.690000534057617,29.690000534057617,29.690000534057617,0.0,27.545900344848633
2016-08-30,29.690000534057617,29.690000534057617,29.690000534057617,29.690000534057617,0.0,27.545900344848633
2016-08-31,29.690000534057617,29.690000534057617,29.690000534057617,29.690000534057617,0.0,27.545900344848633
2016-09-01,29.690000534057617,29.690000534057617,29.690000534057617,29.690000534057617,0.0,27.545900344848633
2016-09-02,29.690000534057617,29.690000534057617,29.690000534057617,29.690000534057617,0.0,27.545900344848633
2016-09-06,29.690000534057617,29.690000534057617,29.690000534057617,29.690000534057617,0.0,27.545900344848633
2016-09-07,29.690000534057617,29.690000534057617,29.690000534057617,29.690000534057617,0.0,27.545900344848633
2016-09-08,29.690000534057617,29.690000534057617,29.690000534057617,29.690000534057617,0.0,27.545900344848633
2016-09-09,29.450000762939453,29.309999465942383,29.450000762939453,29.309999465942383,500.0,27.193340301513672
2016-09-12,29.309999465942383,29.309999465942383,29.309999465942383,29.309999465942383,0.0,27.193340301513672
2016-09-13,29.309999465942383,29.309999465942383,29.309999465942383,29.309999465942383,0.0,27.193340301513672
2016-09-14,29.309999465942383,29.309999465942383,29.309999465942383,29.309999465942383,0.0,27.193340301513672
2016-09-15,29.110000610351562,29.110000610351562,29.110000610351562,29.110000610351562,300.0,27.00778579711914
2016-09-16,29.110000610351562,29.110000610351562,29.110000610351562,29.110000610351562,0.0,27.00778579711914
2016-09-19,29.110000610351562,29.110000610351562,29.110000610351562,29.110000610351562,0.0,27.00778579711914
2016-09-20,29.110000610351562,29.110000610351562,29.110000610351562,29.110000610351562,0.0,27.00778579711914
2016-09-21,29.110000610351562,29.110000610351562,29.110000610351562,29.110000610351562,0.0,27.13062286376953
2016-09-22,29.110000610351562,29.110000610351562,29.110000610351562,29.110000610351562,0.0,27.13062286376953
2016-09-23,29.110000610351562,29.110000610351562,29.110000610351562,29.110000610351562,0.0,27.13062286376953
2016-09-26,29.110000610351562,29.110000610351562,29.110000610351562,29.110000610351562,0.0,27.13062286376953
2016-09-27,29.110000610351562,29.110000610351562,29.110000610351562,29.110000610351562,0.0,27.13062286376953
2016-09-28,29.56999969482422,29.56999969482422,29.56999969482422,29.56999969482422,100.0,27.559343338012695
2016-09-29,29.56999969482422,29.56999969482422,29.56999969482422,29.56999969482422,0.0,27.559343338012695
2016-09-30,29.56999969482422,29.56999969482422,29.56999969482422,29.56999969482422,0.0,27.559343338012695
2016-10-03,29.399999618530273,29.399999618530273,29.399999618530273,29.399999618530273,200.0,27.400901794433594
2016-10-04,29.399999618530273,29.399999618530273,29.399999618530273,29.399999618530273,0.0,27.400901794433594
2016-10-05,29.399999618530273,29.399999618530273,29.399999618530273,29.399999618530273,0.0,27.400901794433594
2016-10-06,29.399999618530273,29.399999618530273,29.399999618530273,29.399999618530273,0.0,27.400901794433594
2016-10-07,29.399999618530273,29.399999618530273,29.399999618530273,29.399999618530273,0.0,27.400901794433594
2016-10-10,29.399999618530273,29.399999618530273,29.399999618530273,29.399999618530273,0.0,27.400901794433594
2016-10-11,29.399999618530273,29.399999618530273,29.399999618530273,29.399999618530273,0.0,27.400901794433594
2016-10-12,29.399999618530273,29.399999618530273,29.399999618530273,29.399999618530273,0.0,27.400901794433594
2016-10-13,29.399999618530273,29.399999618530273,29.399999618530273,29.399999618530273,0.0,27.400901794433594
2016-10-14,29.399999618530273,29.399999618530273,29.399999618530273,29.399999618530273,0.0,27.400901794433594
2016-10-17,29.399999618530273,29.399999618530273,29.399999618530273,29.399999618530273,0.0,27.400901794433594
2016-10-18,29.399999618530273,29.399999618530273,29.399999618530273,29.399999618530273,0.0,27.400901794433594
2016-10-19,29.399999618530273,29.399999618530273,29.399999618530273,29.399999618530273,0.0,27.504369735717773
2016-10-20,29.399999618530273,29.399999618530273,29.399999618530273,29.399999618530273,0.0,27.504369735717773
2016-10-21,29.399999618530273,29.399999618530273,29.399999618530273,29.399999618530273,0.0,27.504369735717773
2016-10-24,29.399999618530273,29.399999618530273,29.399999618530273,29.399999618530273,0.0,27.504369735717773
2016-10-25,29.399999618530273,29.399999618530273,29.399999618530273,29.399999618530273,0.0,27.504369735717773
2016-10-26,29.399999618530273,29.399999618530273,29.399999618530273,29.399999618530273,0.0,27.504369735717773
2016-10-27,29.399999618530273,29.399999618530273,29.399999618530273,29.399999618530273,0.0,27.504369735717773
2016-10-28,29.399999618530273,29.399999618530273,29.399999618530273,29.399999618530273,0.0,27.504369735717773
2016-10-31,29.399999618530273,29.399999618530273,29.399999618530273,29.399999618530273,0.0,27.504369735717773
2016-11-01,29.399999618530273,29.399999618530273,29.399999618530273,29.399999618530273,0.0,27.504369735717773
2016-11-02,29.399999618530273,29.399999618530273,29.399999618530273,29.399999618530273,0.0,27.504369735717773
2016-11-03,29.399999618530273,29.399999618530273,29.399999618530273,29.399999618530273,0.0,27.504369735717773
2016-11-04,29.399999618530273,29.399999618530273,29.399999618530273,29.399999618530273,0.0,27.504369735717773
2016-11-07,29.399999618530273,29.399999618530273,29.399999618530273,29.399999618530273,0.0,27.504369735717773
2016-11-08,29.399999618530273,29.399999618530273,29.399999618530273,29.399999618530273,0.0,27.504369735717773
2016-11-09,29.020000457763672,29.020000457763672,29.020000457763672,29.020000457763672,200.0,27.14887237548828
2016-11-10,28.860000610351562,28.860000610351562,28.860000610351562,28.860000610351562,1700.0,26.999189376831055
2016-11-11,28.6200008392334,28.350000381469727,28.6200008392334,28.350000381469727,4700.0,26.52207374572754
2016-11-14,28.440000534057617,27.760000228881836,28.440000534057617,27.780000686645508,11000.0,25.98882293701172
2016-11-15,28.43000030517578,28.190000534057617,28.43000030517578,28.309999465942383,2600.0,26.484655380249023
2016-11-16,28.309999465942383,28.309999465942383,28.309999465942383,28.309999465942383,0.0,26.484655380249023
2016-11-17,27.979999542236328,27.979999542236328,27.979999542236328,27.979999542236328,1700.0,26.272443771362305
2016-11-18,27.729999542236328,27.729999542236328,27.729999542236328,27.729999542236328,400.0,26.037694931030273
2016-11-21,28.079999923706055,27.90999984741211,28.06999969482422,28.079999923706055,3100.0,26.366344451904297
2016-11-22,28.079999923706055,28.079999923706055,28.079999923706055,28.079999923706055,0.0,26.366344451904297
2016-11-23,27.93000030517578,27.93000030517578,27.93000030517578,27.93000030517578,1700.0,26.225492477416992
2016-11-25,27.93000030517578,27.93000030517578,27.93000030517578,27.93000030517578,0.0,26.225492477416992
2016-11-28,27.93000030517578,27.93000030517578,27.93000030517578,27.93000030517578,0.0,26.225492477416992
2016-11-29,27.93000030517578,27.93000030517578,27.93000030517578,27.93000030517578,0.0,26.225492477416992
2016-11-30,27.93000030517578,27.93000030517578,27.93000030517578,27.93000030517578,0.0,26.225492477416992
2016-12-01,27.950000762939453,27.899999618530273,27.899999618530273,27.899999618530273,4100.0,26.197324752807617
2016-12-02,27.899999618530273,27.899999618530273,27.899999618530273,27.899999618530273,0.0,26.197324752807617
2016-12-05,27.969999313354492,27.969999313354492,27.969999313354492,27.969999313354492,500.0,26.2630558013916
2016-12-06,27.969999313354492,27.969999313354492,27.969999313354492,27.969999313354492,0.0,26.2630558013916
2016-12-07,27.969999313354492,27.969999313354492,27.969999313354492,27.969999313354492,0.0,26.2630558013916
2016-12-08,27.969999313354492,27.969999313354492,27.969999313354492,27.969999313354492,0.0,26.2630558013916
2016-12-09,27.969999313354492,27.969999313354492,27.969999313354492,27.969999313354492,0.0,26.2630558013916
2016-12-12,28.479999542236328,28.469999313354492,28.469999313354492,28.479999542236328,200.0,26.74193000793457
2016-12-13,28.5,28.5,28.5,28.5,100.0,26.76070785522461
2016-12-14,28.5,28.5,28.5,28.5,0.0,26.76070785522461
2016-12-15,28.270000457763672,28.270000457763672,28.270000457763672,28.270000457763672,1700.0,26.54474639892578
2016-12-16,28.270000457763672,28.270000457763672,28.270000457763672,28.270000457763672,0.0,26.68254852294922
2016-12-19,28.170000076293945,28.170000076293945,28.170000076293945,28.170000076293945,200.0,26.588157653808594
2016-12-20,28.170000076293945,28.170000076293945,28.170000076293945,28.170000076293945,0.0,26.588157653808594
2016-12-21,28.170000076293945,28.170000076293945,28.170000076293945,28.170000076293945,0.0,26.588157653808594
2016-12-22,28.170000076293945,28.170000076293945,28.170000076293945,28.170000076293945,0.0,26.588157653808594
2016-12-23,28.170000076293945,28.170000076293945,28.170000076293945,28.170000076293945,0.0,26.588157653808594
2016-12-27,28.170000076293945,28.170000076293945,28.170000076293945,28.170000076293945,0.0,26.588157653808594
2016-12-28,27.899999618530273,27.899999618530273,27.899999618530273,27.899999618530273,200.0,26.333322525024414
2016-12-29,27.899999618530273,27.899999618530273,27.899999618530273,27.899999618530273,0.0,26.333322525024414
2016-12-30,27.899999618530273,27.899999618530273,27.899999618530273,27.899999618530273,0.0,26.333322525024414
2017-01-03,27.899999618530273,27.899999618530273,27.899999618530273,27.899999618530273,0.0,26.333322525024414
2017-01-04,27.899999618530273,27.899999618530273,27.899999618530273,27.899999618530273,0.0,26.333322525024414
2017-01-05,28.389999389648438,28.389999389648438,28.389999389648438,28.389999389648438,100.0,26.795808792114258
2017-01-06,28.389999389648438,28.389999389648438,28.389999389648438,28.389999389648438,0.0,26.795808792114258
2017-01-09,28.479999542236328,28.479999542236328,28.479999542236328,28.479999542236328,400.0,26.880754470825195
2017-01-10,28.25,28.25,28.25,28.25,100.0,26.66366958618164
2017-01-11,28.09000015258789,28.049999237060547,28.06999969482422,28.09000015258789,2100.0,26.512651443481445
2017-01-12,28.31999969482422,28.31999969482422,28.31999969482422,28.31999969482422,1900.0,26.729740142822266
2017-01-13,28.31999969482422,28.31999969482422,28.31999969482422,28.31999969482422,0.0,26.729740142822266
2017-01-17,28.31999969482422,28.31999969482422,28.31999969482422,28.31999969482422,0.0,26.729740142822266
2017-01-18,28.31999969482422,28.31999969482422,28.31999969482422,28.31999969482422,0.0,26.846052169799805
2017-01-19,28.31999969482422,28.31999969482422,28.31999969482422,28.31999969482422,0.0,26.846052169799805
2017-01-20,28.31999969482422,28.31999969482422,28.31999969482422,28.31999969482422,0.0,26.846052169799805
2017-01-23,28.31999969482422,28.31999969482422,28.31999969482422,28.31999969482422,0.0,26.846052169799805
2017-01-24,28.31999969482422,28.31999969482422,28.31999969482422,28.31999969482422,0.0,26.846052169799805
2017-01-25,28.31999969482422,28.31999969482422,28.31999969482422,28.31999969482422,0.0,26.846052169799805
2017-01-26,28.31999969482422,28.31999969482422,28.31999969482422,28.31999969482422,0.0,26.846052169799805
2017-01-27,28.31999969482422,28.31999969482422,28.31999969482422,28.31999969482422,0.0,26.846052169799805
2017-01-30,28.479999542236328,28.479999542236328,28.479999542236328,28.479999542236328,100.0,26.997724533081055
2017-01-31,28.489999771118164,28.469999313354492,28.469999313354492,28.489999771118164,300.0,27.007204055786133
2017-02-01,28.489999771118164,28.489999771118164,28.489999771118164,28.489999771118164,0.0,27.007204055786133
2017-02-02,28.489999771118164,28.489999771118164,28.489999771118164,28.489999771118164,0.0,27.007204055786133
2017-02-03,28.950000762939453,28.950000762939453,28.950000762939453,28.950000762939453,200.0,27.44326400756836
2017-02-06,28.790000915527344,28.790000915527344,28.790000915527344,28.790000915527344,200.0,27.291593551635742
2017-02-07,28.760000228881836,28.75,28.760000228881836,28.75,200.0,27.253671646118164
2017-02-08,28.75,28.75,28.75,28.75,0.0,27.253671646118164
2017-02-09,28.700000762939453,28.700000762939453,28.700000762939453,28.700000762939453,900.0,27.20627784729004
2017-02-10,29.049999237060547,29.049999237060547,29.049999237060547,29.049999237060547,200.0,27.53805923461914
2017-02-13,29.049999237060547,29.049999237060547,29.049999237060547,29.049999237060547,0.0,27.53805923461914
2017-02-14,29.049999237060547,29.049999237060547,29.049999237060547,29.049999237060547,0.0,27.53805923461914
2017-02-15,29.049999237060547,29.049999237060547,29.049999237060547,29.049999237060547,0.0,27.53805923461914
2017-02-16,28.920000076293945,28.920000076293945,28.920000076293945,28.920000076293945,100.0,27.510473251342773
2017-02-17,28.989999771118164,28.989999771118164,28.989999771118164,28.989999771118164,100.0,27.577062606811523
2017-02-21,28.989999771118164,28.989999771118164,28.989999771118164,28.989999771118164,0.0,27.577062606811523
2017-02-22,28.989999771118164,28.989999771118164,28.989999771118164,28.989999771118164,0.0,27.577062606811523
2017-02-23,28.989999771118164,28.989999771118164,28.989999771118164,28.989999771118164,0.0,27.577062606811523
2017-02-24,28.989999771118164,28.989999771118164,28.989999771118164,28.989999771118164,0.0,27.577062606811523
2017-02-27,28.989999771118164,28.989999771118164,28.989999771118164,28.989999771118164,0.0,27.577062606811523
2017-02-28,28.989999771118164,28.989999771118164,28.989999771118164,28.989999771118164,0.0,27.577062606811523
2017-03-01,28.989999771118164,28.989999771118164,28.989999771118164,28.989999771118164,0.0,27.577062606811523
2017-03-02,28.989999771118164,28.989999771118164,28.989999771118164,28.989999771118164,0.0,27.577062606811523
2017-03-03,28.989999771118164,28.989999771118164,28.989999771118164,28.989999771118164,0.0,27.577062606811523
2017-03-06,28.940000534057617,28.940000534057617,28.940000534057617,28.940000534057617,100.0,27.529497146606445
2017-03-07,28.829999923706055,28.829999923706055,28.829999923706055,28.829999923706055,100.0,27.42486000061035
2017-03-08,28.829999923706055,28.829999923706055,28.829999923706055,28.829999923706055,0.0,27.42486000061035
2017-03-09,28.600000381469727,28.559999465942383,28.600000381469727,28.559999465942383,2400.0,27.168014526367188
2017-03-10,28.559999465942383,28.559999465942383,28.559999465942383,28.559999465942383,0.0,27.168014526367188
2017-03-13,28.65999984741211,28.65999984741211,28.65999984741211,28.65999984741211,400.0,27.26314353942871
2017-03-14,28.65999984741211,28.65999984741211,28.65999984741211,28.65999984741211,0.0,27.26314353942871
2017-03-15,28.65999984741211,28.65999984741211,28.65999984741211,28.65999984741211,0.0,27.26314353942871
2017-03-16,29.200000762939453,28.969999313354492,29.020000457763672,29.030000686645508,3000.0,27.6151123046875
2017-03-17,29.030000686645508,29.030000686645508,29.030000686645508,29.030000686645508,0.0,27.730695724487305
2017-03-20,29.09000015258789,29.079999923706055,29.079999923706055,29.09000015258789,300.0,27.788007736206055
2017-03-21,29.09000015258789,29.09000015258789,29.09000015258789,29.09000015258789,0.0,27.788007736206055
2017-03-22,29.09000015258789,29.09000015258789,29.09000015258789,29.09000015258789,0.0,27.788007736206055
2017-03-23,29.09000015258789,29.09000015258789,29.09000015258789,29.09000015258789,0.0,27.788007736206055
2017-03-24,29.09000015258789,29.09000015258789,29.09000015258789,29.09000015258789,0.0,27.788007736206055
2017-03-27,29.09000015258789,29.09000015258789,29.09000015258789,29.09000015258789,0.0,27.788007736206055
2017-03-28,29.09000015258789,29.09000015258789,29.09000015258789,29.09000015258789,0.0,27.788007736206055
2017-03-29,29.09000015258789,29.09000015258789,29.09000015258789,29.09000015258789,0.0,27.788007736206055
2017-03-30,29.09000015258789,29.09000015258789,29.09000015258789,29.09000015258789,0.0,27.788007736206055
2017-03-31,29.09000015258789,29.09000015258789,29.09000015258789,29.09000015258789,0.0,27.788007736206055
2017-04-03,29.09000015258789,29.09000015258789,29.09000015258789,29.09000015258789,0.0,27.788007736206055
2017-04-04,29.09000015258789,29.09000015258789,29.09000015258789,29.09000015258789,0.0,27.788007736206055
2017-04-05,29.09000015258789,29.09000015258789,29.09000015258789,29.09000015258789,0.0,27.788007736206055
2017-04-06,29.09000015258789,29.09000015258789,29.09000015258789,29.09000015258789,0.0,27.788007736206055
2017-04-07,29.09000015258789,29.09000015258789,29.09000015258789,29.09000015258789,0.0,27.788007736206055
2017-04-10,29.09000015258789,29.09000015258789,29.09000015258789,29.09000015258789,0.0,27.788007736206055
2017-04-11,29.09000015258789,29.09000015258789,29.09000015258789,29.09000015258789,0.0,27.788007736206055
2017-04-12,29.09000015258789,29.09000015258789,29.09000015258789,29.09000015258789,0.0,27.788007736206055
2017-04-13,29.09000015258789,29.09000015258789,29.09000015258789,29.09000015258789,0.0,27.788007736206055
2017-04-17,29.09000015258789,29.09000015258789,29.09000015258789,29.09000015258789,0.0,27.788007736206055
2017-04-18,29.09000015258789,29.09000015258789,29.09000015258789,29.09000015258789,0.0,27.788007736206055
2017-04-19,29.09000015258789,29.09000015258789,29.09000015258789,29.09000015258789,0.0,27.88482666015625
2017-04-20,29.09000015258789,29.09000015258789,29.09000015258789,29.09000015258789,0.0,27.88482666015625
2017-04-21,29.09000015258789,29.09000015258789,29.09000015258789,29.09000015258789,0.0,27.88482666015625
2017-04-24,29.25,29.219999313354492,29.219999313354492,29.25,500.0,28.03819465637207
2017-04-25,28.219999313354492,28.219999313354492,28.219999313354492,28.219999313354492,100.0,27.05086898803711
2017-04-26,28.219999313354492,28.219999313354492,28.219999313354492,28.219999313354492,0.0,27.05086898803711
2017-04-27,28.219999313354492,28.219999313354492,28.219999313354492,28.219999313354492,0.0,27.05086898803711
2017-04-28,28.219999313354492,28.219999313354492,28.219999313354492,28.219999313354492,0.0,27.05086898803711
2017-05-01,28.989999771118164,28.989999771118164,28.989999771118164,28.989999771118164,100.0,27.78896713256836
2017-05-02,29.139999389648438,29.100000381469727,29.100000381469727,29.139999389648438,400.0,27.93275260925293
2017-05-03,29.139999389648438,29.139999389648438,29.139999389648438,29.139999389648438,0.0,27.93275260925293
2017-05-04,29.139999389648438,29.139999389648438,29.139999389648438,29.139999389648438,0.0,27.93275260925293
2017-05-05,29.139999389648438,29.139999389648438,29.139999389648438,29.139999389648438,0.0,27.93275260925293
2017-05-08,29.75,28.739999771118164,29.75,28.739999771118164,600.0,27.54932403564453
2017-05-09,28.739999771118164,28.739999771118164,28.739999771118164,28.739999771118164,0.0,27.54932403564453
2017-05-10,29.809999465942383,29.809999465942383,29.809999465942383,29.809999465942383,200.0,28.574995040893555
2017-05-11,29.809999465942383,29.809999465942383,29.809999465942383,29.809999465942383,0.0,28.574995040893555
2017-05-12,29.809999465942383,29.809999465942383,29.809999465942383,29.809999465942383,0.0,28.574995040893555
2017-05-15,29.809999465942383,29.809999465942383,29.809999465942383,29.809999465942383,0.0,28.574995040893555
2017-05-16,29.809999465942383,29.809999465942383,29.809999465942383,29.809999465942383,0.0,28.67310333251953
2017-05-17,29.809999465942383,29.809999465942383,29.809999465942383,29.809999465942383,0.0,28.67310333251953
2017-05-18,29.809999465942383,29.809999465942383,29.809999465942383,29.809999465942383,0.0,28.67310333251953
2017-05-19,29.809999465942383,29.809999465942383,29.809999465942383,29.809999465942383,0.0,28.67310333251953
2017-05-22,29.809999465942383,29.809999465942383,29.809999465942383,29.809999465942383,0.0,28.67310333251953
2017-05-23,29.809999465942383,29.809999465942383,29.809999465942383,29.809999465942383,0.0,28.67310333251953
2017-05-24,29.809999465942383,29.809999465942383,29.809999465942383,29.809999465942383,0.0,28.67310333251953
2017-05-25,29.809999465942383,29.809999465942383,29.809999465942383,29.809999465942383,0.0,28.67310333251953
2017-05-26,29.809999465942383,29.809999465942383,29.809999465942383,29.809999465942383,0.0,28.67310333251953
2017-05-30,29.399999618530273,29.399999618530273,29.399999618530273,29.399999618530273,300.0,28.278743743896484
2017-05-31,29.34000015258789,29.34000015258789,29.34000015258789,29.34000015258789,400.0,28.22102928161621
2017-06-01,29.34000015258789,29.34000015258789,29.34000015258789,29.34000015258789,0.0,28.22102928161621
2017-06-02,29.34000015258789,29.34000015258789,29.34000015258789,29.34000015258789,0.0,28.22102928161621
2017-06-05,29.030000686645508,28.979999542236328,28.979999542236328,29.030000686645508,1000.0,27.922853469848633
2017-06-06,29.030000686645508,29.030000686645508,29.030000686645508,29.030000686645508,0.0,27.922853469848633
2017-06-07,29.030000686645508,29.030000686645508,29.030000686645508,29.030000686645508,0.0,27.922853469848633
2017-06-08,29.030000686645508,29.030000686645508,29.030000686645508,29.030000686645508,0.0,27.922853469848633
2017-06-09,29.030000686645508,29.030000686645508,29.030000686645508,29.030000686645508,0.0,27.922853469848633
2017-06-12,29.030000686645508,29.030000686645508,29.030000686645508,29.030000686645508,0.0,27.922853469848633
2017-06-13,29.030000686645508,29.030000686645508,29.030000686645508,29.030000686645508,0.0,27.922853469848633
2017-06-14,29.030000686645508,29.030000686645508,29.030000686645508,29.030000686645508,0.0,27.922853469848633
2017-06-15,29.030000686645508,29.030000686645508,29.030000686645508,29.030000686645508,0.0,27.922853469848633
2017-06-16,29.030000686645508,29.030000686645508,29.030000686645508,29.030000686645508,0.0,27.922853469848633
2017-06-19,29.030000686645508,29.030000686645508,29.030000686645508,29.030000686645508,0.0,27.922853469848633
2017-06-20,29.030000686645508,29.030000686645508,29.030000686645508,29.030000686645508,0.0,27.922853469848633
2017-06-21,29.030000686645508,29.030000686645508,29.030000686645508,29.030000686645508,0.0,27.922853469848633
2017-06-22,29.030000686645508,29.030000686645508,29.030000686645508,29.030000686645508,0.0,28.065940856933594
2017-06-23,29.030000686645508,29.030000686645508,29.030000686645508,29.030000686645508,0.0,28.065940856933594
2017-06-26,29.030000686645508,29.030000686645508,29.030000686645508,29.030000686645508,0.0,28.065940856933594
2017-06-27,28.969999313354492,28.969999313354492,28.969999313354492,28.969999313354492,100.0,28.007930755615234
2017-06-28,28.969999313354492,28.969999313354492,28.969999313354492,28.969999313354492,0.0,28.007930755615234
2017-06-29,28.969999313354492,28.969999313354492,28.969999313354492,28.969999313354492,0.0,28.007930755615234
2017-06-30,28.969999313354492,28.969999313354492,28.969999313354492,28.969999313354492,0.0,28.007930755615234
2017-07-03,30.0,30.0,30.0,30.0,200.0,29.003725051879883
2017-07-05,29.149999618530273,29.149999618530273,29.149999618530273,29.149999618530273,300.0,28.18195343017578
2017-07-06,29.149999618530273,29.149999618530273,29.149999618530273,29.149999618530273,0.0,28.18195343017578
2017-07-07,29.149999618530273,29.149999618530273,29.149999618530273,29.149999618530273,0.0,28.18195343017578
2017-07-10,29.149999618530273,29.149999618530273,29.149999618530273,29.149999618530273,0.0,28.18195343017578
2017-07-11,29.149999618530273,29.149999618530273,29.149999618530273,29.149999618530273,0.0,28.18195343017578
2017-07-12,30.110000610351562,29.940000534057617,29.940000534057617,30.110000610351562,4000.0,29.11007308959961
2017-07-13,30.110000610351562,30.110000610351562,30.110000610351562,30.110000610351562,0.0,29.11007308959961
2017-07-14,30.110000610351562,30.110000610351562,30.110000610351562,30.110000610351562,0.0,29.11007308959961
2017-07-17,30.110000610351562,30.110000610351562,30.110000610351562,30.110000610351562,0.0,29.11007308959961
2017-07-18,30.110000610351562,30.110000610351562,30.110000610351562,30.110000610351562,0.0,29.205127716064453
2017-07-19,30.110000610351562,30.110000610351562,30.110000610351562,30.110000610351562,0.0,29.205127716064453
2017-07-20,30.110000610351562,30.110000610351562,30.110000610351562,30.110000610351562,0.0,29.205127716064453
2017-07-21,30.110000610351562,30.110000610351562,30.110000610351562,30.110000610351562,0.0,29.205127716064453
2017-07-24,30.110000610351562,30.110000610351562,30.110000610351562,30.110000610351562,0.0,29.205127716064453
2017-07-25,30.110000610351562,30.110000610351562,30.110000610351562,30.110000610351562,0.0,29.205127716064453
2017-07-26,30.110000610351562,30.110000610351562,30.110000610351562,30.110000610351562,0.0,29.205127716064453
2017-07-27,29.469999313354492,29.469999313354492,29.469999313354492,29.469999313354492,100.0,28.5843563079834
2017-07-28,29.469999313354492,29.469999313354492,29.469999313354492,29.469999313354492,0.0,28.5843563079834
2017-07-31,29.469999313354492,29.469999313354492,29.469999313354492,29.469999313354492,100.0,28.5843563079834
2017-08-01,29.469999313354492,29.469999313354492,29.469999313354492,29.469999313354492,100.0,28.5843563079834
2017-08-02,29.280000686645508,29.25,29.25,29.280000686645508,500.0,28.40007209777832
2017-08-03,29.280000686645508,29.280000686645508,29.280000686645508,29.280000686645508,0.0,28.40007209777832
2017-08-04,29.34000015258789,29.34000015258789,29.34000015258789,29.34000015258789,200.0,28.45826530456543
2017-08-07,29.34000015258789,29.34000015258789,29.34000015258789,29.34000015258789,0.0,28.45826530456543
2017-08-08,29.34000015258789,29.34000015258789,29.34000015258789,29.34000015258789,0.0,28.45826530456543
2017-08-09,29.34000015258789,29.34000015258789,29.34000015258789,29.34000015258789,0.0,28.45826530456543
2017-08-10,29.34000015258789,29.34000015258789,29.34000015258789,29.34000015258789,0.0,28.45826530456543
2017-08-11,29.34000015258789,29.34000015258789,29.34000015258789,29.34000015258789,0.0,28.45826530456543
2017-08-14,29.34000015258789,29.34000015258789,29.34000015258789,29.34000015258789,0.0,28.45826530456543
2017-08-15,29.34000015258789,29.34000015258789,29.34000015258789,29.34000015258789,0.0,28.45826530456543
2017-08-16,29.34000015258789,29.34000015258789,29.34000015258789,29.34000015258789,0.0,28.45826530456543
2017-08-17,29.34000015258789,29.34000015258789,29.34000015258789,29.34000015258789,0.0,28.581005096435547
2017-08-18,29.34000015258789,29.34000015258789,29.34000015258789,29.34000015258789,0.0,28.581005096435547
2017-08-21,29.34000015258789,29.34000015258789,29.34000015258789,29.34000015258789,0.0,28.581005096435547
2017-08-22,29.34000015258789,29.34000015258789,29.34000015258789,29.34000015258789,0.0,28.581005096435547
2017-08-23,29.34000015258789,29.34000015258789,29.34000015258789,29.34000015258789,0.0,28.581005096435547
2017-08-24,29.34000015258789,29.34000015258789,29.34000015258789,29.34000015258789,0.0,28.581005096435547
2017-08-25,29.34000015258789,29.34000015258789,29.34000015258789,29.34000015258789,0.0,28.581005096435547
2017-08-28,29.34000015258789,29.34000015258789,29.34000015258789,29.34000015258789,0.0,28.581005096435547
2017-08-29,29.34000015258789,29.34000015258789,29.34000015258789,29.34000015258789,0.0,28.581005096435547
2017-08-30,29.34000015258789,29.34000015258789,29.34000015258789,29.34000015258789,0.0,28.581005096435547
2017-08-31,29.34000015258789,29.34000015258789,29.34000015258789,29.34000015258789,0.0,28.581005096435547
2017-09-01,29.34000015258789,29.34000015258789,29.34000015258789,29.34000015258789,0.0,28.581005096435547
2017-09-05,28.079999923706055,28.079999923706055,28.079999923706055,28.079999923706055,400.0,27.353601455688477
2017-09-06,30.100000381469727,29.420000076293945,30.059999465942383,29.420000076293945,1300.0,28.658937454223633
2017-09-07,29.420000076293945,29.420000076293945,29.420000076293945,29.420000076293945,0.0,28.658937454223633
2017-09-08,29.420000076293945,29.420000076293945,29.420000076293945,29.420000076293945,0.0,28.658937454223633
2017-09-11,29.420000076293945,29.420000076293945,29.420000076293945,29.420000076293945,0.0,28.658937454223633
2017-09-12,29.690000534057617,29.690000534057617,29.690000534057617,29.690000534057617,200.0,28.921953201293945
2017-09-13,29.690000534057617,29.690000534057617,29.690000534057617,29.690000534057617,0.0,28.921953201293945
2017-09-14,29.690000534057617,29.690000534057617,29.690000534057617,29.690000534057617,0.0,28.921953201293945
2017-09-15,29.690000534057617,29.690000534057617,29.690000534057617,29.690000534057617,0.0,28.921953201293945
2017-09-18,29.690000534057617,29.690000534057617,29.690000534057617,29.690000534057617,0.0,29.05307960510254
2017-09-19,29.690000534057617,29.690000534057617,29.690000534057617,29.690000534057617,0.0,29.05307960510254
2017-09-20,29.690000534057617,29.690000534057617,29.690000534057617,29.690000534057617,0.0,29.05307960510254
2017-09-21,29.690000534057617,29.690000534057617,29.690000534057617,29.690000534057617,0.0,29.05307960510254
2017-09-22,29.690000534057617,29.690000534057617,29.690000534057617,29.690000534057617,0.0,29.05307960510254
2017-09-25,29.690000534057617,29.690000534057617,29.690000534057617,29.690000534057617,0.0,29.05307960510254
2017-09-26,29.690000534057617,29.690000534057617,29.690000534057617,29.690000534057617,0.0,29.05307960510254
2017-09-27,29.690000534057617,29.690000534057617,29.690000534057617,29.690000534057617,0.0,29.05307960510254
2017-09-28,29.690000534057617,29.690000534057617,29.690000534057617,29.690000534057617,0.0,29.05307960510254
2017-09-29,29.690000534057617,29.690000534057617,29.690000534057617,29.690000534057617,0.0,29.05307960510254
2017-10-02,29.799999237060547,29.799999237060547,29.799999237060547,29.799999237060547,100.0,29.160717010498047
2017-10-03,29.799999237060547,29.799999237060547,29.799999237060547,29.799999237060547,0.0,29.160717010498047
2017-10-04,29.799999237060547,29.799999237060547,29.799999237060547,29.799999237060547,0.0,29.160717010498047
2017-10-05,29.799999237060547,29.799999237060547,29.799999237060547,29.799999237060547,0.0,29.160717010498047
2017-10-06,29.799999237060547,29.799999237060547,29.799999237060547,29.799999237060547,0.0,29.160717010498047
2017-10-09,30.0,30.0,30.0,30.0,200.0,29.356430053710938
2017-10-10,30.0,30.0,30.0,30.0,0.0,29.356430053710938
2017-10-11,30.0,30.0,30.0,30.0,0.0,29.356430053710938
2017-10-12,30.0,30.0,30.0,30.0,0.0,29.356430053710938
2017-10-13,30.0,30.0,30.0,30.0,0.0,29.356430053710938
2017-10-16,30.0,30.0,30.0,30.0,0.0,29.356430053710938
2017-10-17,30.0,30.0,30.0,30.0,0.0,29.356430053710938
2017-10-18,30.0,30.0,30.0,30.0,0.0,29.46446418762207
2017-10-19,30.0,30.0,30.0,30.0,0.0,29.46446418762207
2017-10-20,30.0,30.0,30.0,30.0,0.0,29.46446418762207
2017-10-23,30.0,30.0,30.0,30.0,0.0,29.46446418762207
2017-10-24,30.0,30.0,30.0,30.0,0.0,29.46446418762207
2017-10-25,30.0,30.0,30.0,30.0,0.0,29.46446418762207
2017-10-26,30.0,30.0,30.0,30.0,0.0,29.46446418762207
2017-10-27,30.0,30.0,30.0,30.0,0.0,29.46446418762207
2017-10-30,30.0,30.0,30.0,30.0,0.0,29.46446418762207
2017-10-31,30.0,30.0,30.0,30.0,0.0,29.46446418762207
2017-11-01,30.0,30.0,30.0,30.0,0.0,29.46446418762207
2017-11-02,30.0,30.0,30.0,30.0,0.0,29.46446418762207
2017-11-03,30.0,30.0,30.0,30.0,0.0,29.46446418762207
2017-11-06,30.0,30.0,30.0,30.0,100.0,29.46446418762207
2017-11-07,30.0,30.0,30.0,30.0,0.0,29.46446418762207
2017-11-08,30.0,30.0,30.0,30.0,0.0,29.46446418762207
2017-11-09,30.0,30.0,30.0,30.0,0.0,29.46446418762207
2017-11-10,30.0,30.0,30.0,30.0,0.0,29.46446418762207
2017-11-13,33.0,29.75,33.0,29.75,200.0,29.21892547607422
2017-11-14,29.75,29.75,29.75,29.75,0.0,29.21892547607422
2017-11-15,29.75,29.75,29.75,29.75,0.0,29.21892547607422
2017-11-16,29.75,29.75,29.75,29.75,0.0,29.21892547607422
2017-11-17,29.75,29.75,29.75,29.75,0.0,29.327362060546875
2017-11-20,29.75,29.75,29.75,29.75,0.0,29.327362060546875
2017-11-21,29.75,29.75,29.75,29.75,0.0,29.327362060546875
2017-11-22,29.75,29.75,29.75,29.75,0.0,29.327362060546875
2017-11-24,29.75,29.75,29.75,29.75,0.0,29.327362060546875
2017-11-27,29.75,29.75,29.75,29.75,0.0,29.327362060546875
2017-11-28,29.75,29.75,29.75,29.75,0.0,29.327362060546875
2017-11-29,29.75,29.75,29.75,29.75,0.0,29.327362060546875
2017-11-30,29.75,29.75,29.75,29.75,100.0,29.327362060546875
2017-12-01,29.75,29.75,29.75,29.75,0.0,29.327362060546875
2017-12-04,28.81999969482422,28.25,28.25,28.81999969482422,600.0,28.410573959350586
2017-12-05,28.81999969482422,28.81999969482422,28.81999969482422,28.81999969482422,0.0,28.410573959350586
2017-12-06,28.81999969482422,28.81999969482422,28.81999969482422,28.81999969482422,0.0,28.410573959350586
2017-12-07,28.81999969482422,28.81999969482422,28.81999969482422,28.81999969482422,0.0,28.410573959350586
2017-12-08,28.81999969482422,28.81999969482422,28.81999969482422,28.81999969482422,0.0,28.410573959350586
2017-12-11,28.81999969482422,28.81999969482422,28.81999969482422,28.81999969482422,0.0,28.410573959350586
2017-12-12,28.81999969482422,28.81999969482422,28.81999969482422,28.81999969482422,0.0,28.410573959350586
2017-12-13,28.75,28.75,28.75,28.75,300.0,28.341569900512695
2017-12-14,28.75,28.75,28.75,28.75,0.0,28.341569900512695
2017-12-15,28.75,28.75,28.75,28.75,0.0,28.341569900512695
2017-12-18,28.75,28.75,28.75,28.75,0.0,28.44942855834961
2017-12-19,29.31999969482422,29.31999969482422,29.31999969482422,29.31999969482422,100.0,29.013469696044922
2017-12-20,29.31999969482422,29.31999969482422,29.31999969482422,29.31999969482422,0.0,29.013469696044922
2017-12-21,29.31999969482422,29.31999969482422,29.31999969482422,29.31999969482422,0.0,29.013469696044922
2017-12-22,29.31999969482422,29.31999969482422,29.31999969482422,29.31999969482422,0.0,29.013469696044922
2017-12-26,29.219999313354492,28.639999389648438,28.639999389648438,29.219999313354492,800.0,28.91451644897461
2017-12-27,29.219999313354492,29.219999313354492,29.219999313354492,29.219999313354492,0.0,28.91451644897461
2017-12-28,29.219999313354492,29.219999313354492,29.219999313354492,29.219999313354492,0.0,28.91451644897461
2017-12-29,29.219999313354492,29.219999313354492,29.219999313354492,29.219999313354492,0.0,28.91451644897461
2018-01-02,29.219999313354492,29.219999313354492,29.219999313354492,29.219999313354492,0.0,28.91451644897461
2018-01-03,29.200000762939453,29.200000762939453,29.200000762939453,29.200000762939453,200.0,28.89472770690918
2018-01-04,29.200000762939453,29.200000762939453,29.200000762939453,29.200000762939453,0.0,28.89472770690918
2018-01-05,29.200000762939453,29.200000762939453,29.200000762939453,29.200000762939453,0.0,28.89472770690918
2018-01-08,29.489999771118164,29.459999084472656,29.459999084472656,29.489999771118164,300.0,29.18169403076172
2018-01-09,29.489999771118164,29.489999771118164,29.489999771118164,29.489999771118164,0.0,29.18169403076172
2018-01-10,29.489999771118164,29.489999771118164,29.489999771118164,29.489999771118164,0.0,29.18169403076172
2018-01-11,29.489999771118164,29.489999771118164,29.489999771118164,29.489999771118164,0.0,29.18169403076172
2018-01-12,29.489999771118164,29.489999771118164,29.489999771118164,29.489999771118164,0.0,29.18169403076172
2018-01-16,29.489999771118164,29.489999771118164,29.489999771118164,29.489999771118164,0.0,29.18169403076172
2018-01-17,29.489999771118164,29.489999771118164,29.489999771118164,29.489999771118164,0.0,29.26704216003418
2018-01-18,29.489999771118164,29.489999771118164,29.489999771118164,29.489999771118164,0.0,29.26704216003418
2018-01-19,29.489999771118164,29.489999771118164,29.489999771118164,29.489999771118164,0.0,29.26704216003418
2018-01-22,29.489999771118164,29.489999771118164,29.489999771118164,29.489999771118164,0.0,29.26704216003418
2018-01-23,29.440000534057617,29.440000534057617,29.440000534057617,29.440000534057617,600.0,29.217422485351562
2018-01-24,29.440000534057617,29.440000534057617,29.440000534057617,29.440000534057617,0.0,29.217422485351562
2018-01-25,29.440000534057617,29.440000534057617,29.440000534057617,29.440000534057617,0.0,29.217422485351562
2018-01-26,29.440000534057617,29.440000534057617,29.440000534057617,29.440000534057617,0.0,29.217422485351562
2018-01-29,29.440000534057617,29.440000534057617,29.440000534057617,29.440000534057617,0.0,29.217422485351562
2018-01-30,29.440000534057617,29.440000534057617,29.440000534057617,29.440000534057617,0.0,29.217422485351562
2018-01-31,29.440000534057617,29.440000534057617,29.440000534057617,29.440000534057617,0.0,29.217422485351562
2018-02-01,29.440000534057617,29.440000534057617,29.440000534057617,29.440000534057617,0.0,29.217422485351562
2018-02-02,29.440000534057617,29.440000534057617,29.440000534057617,29.440000534057617,0.0,29.217422485351562
2018-02-05,29.440000534057617,29.440000534057617,29.440000534057617,29.440000534057617,0.0,29.217422485351562
2018-02-06,29.440000534057617,29.440000534057617,29.440000534057617,29.440000534057617,0.0,29.217422485351562
2018-02-07,29.440000534057617,29.440000534057617,29.440000534057617,29.440000534057617,0.0,29.217422485351562
2018-02-08,29.440000534057617,29.440000534057617,29.440000534057617,29.440000534057617,0.0,29.217422485351562
2018-02-09,29.440000534057617,29.440000534057617,29.440000534057617,29.440000534057617,0.0,29.217422485351562
2018-02-12,29.440000534057617,29.440000534057617,29.440000534057617,29.440000534057617,0.0,29.217422485351562
2018-02-13,29.440000534057617,29.440000534057617,29.440000534057617,29.440000534057617,0.0,29.217422485351562
2018-02-14,29.440000534057617,29.440000534057617,29.440000534057617,29.440000534057617,0.0,29.217422485351562
2018-02-15,29.440000534057617,29.440000534057617,29.440000534057617,29.440000534057617,0.0,29.217422485351562
2018-02-16,29.440000534057617,29.440000534057617,29.440000534057617,29.440000534057617,0.0,29.217422485351562
2018-02-20,29.440000534057617,29.440000534057617,29.440000534057617,29.440000534057617,0.0,29.217422485351562
2018-02-21,29.440000534057617,29.440000534057617,29.440000534057617,29.440000534057617,0.0,29.334001541137695
2018-02-22,29.440000534057617,29.440000534057617,29.440000534057617,29.440000534057617,0.0,29.334001541137695
2018-02-23,29.440000534057617,29.440000534057617,29.440000534057617,29.440000534057617,0.0,29.334001541137695
2018-02-26,29.440000534057617,29.440000534057617,29.440000534057617,29.440000534057617,0.0,29.334001541137695
2018-02-27,29.440000534057617,29.440000534057617,29.440000534057617,29.440000534057617,0.0,29.334001541137695
2018-02-28,29.440000534057617,29.440000534057617,29.440000534057617,29.440000534057617,0.0,29.334001541137695
2018-03-01,29.440000534057617,29.440000534057617,29.440000534057617,29.440000534057617,0.0,29.334001541137695
2018-03-02,29.440000534057617,29.440000534057617,29.440000534057617,29.440000534057617,0.0,29.334001541137695
2018-03-05,29.440000534057617,29.440000534057617,29.440000534057617,29.440000534057617,0.0,29.334001541137695
2018-03-06,29.440000534057617,29.440000534057617,29.440000534057617,29.440000534057617,0.0,29.334001541137695
2018-03-07,29.440000534057617,29.440000534057617,29.440000534057617,29.440000534057617,0.0,29.334001541137695
2018-03-08,29.440000534057617,29.440000534057617,29.440000534057617,29.440000534057617,0.0,29.334001541137695
2018-03-09,29.440000534057617,29.440000534057617,29.440000534057617,29.440000534057617,0.0,29.334001541137695
2018-03-12,29.440000534057617,29.440000534057617,29.440000534057617,29.440000534057617,0.0,29.334001541137695
2018-03-13,29.440000534057617,29.440000534057617,29.440000534057617,29.440000534057617,0.0,29.334001541137695
2018-03-14,29.440000534057617,29.440000534057617,29.440000534057617,29.440000534057617,0.0,29.334001541137695
2018-03-15,29.440000534057617,29.440000534057617,29.440000534057617,29.440000534057617,0.0,29.334001541137695
2018-03-16,29.440000534057617,29.440000534057617,29.440000534057617,29.440000534057617,0.0,29.334001541137695
2018-03-19,29.440000534057617,29.440000534057617,29.440000534057617,29.440000534057617,0.0,29.334001541137695
2018-03-20,29.440000534057617,29.440000534057617,29.440000534057617,29.440000534057617,0.0,29.334001541137695
2018-03-21,29.440000534057617,29.440000534057617,29.440000534057617,29.440000534057617,0.0,29.440000534057617
2018-03-22,29.440000534057617,29.440000534057617,29.440000534057617,29.440000534057617,0.0,29.440000534057617
2018-03-23,29.440000534057617,29.440000534057617,29.440000534057617,29.440000534057617,0.0,29.440000534057617
2018-03-26,29.440000534057617,29.440000534057617,29.440000534057617,29.440000534057617,0.0,29.440000534057617
2018-03-27,29.440000534057617,29.440000534057617,29.440000534057617,29.440000534057617,0.0,29.440000534057617
2018-03-28,29.440000534057617,29.440000534057617,29.440000534057617,29.440000534057617,0.0,29.440000534057617
2018-03-29,29.440000534057617,29.440000534057617,29.440000534057617,29.440000534057617,0.0,29.440000534057617
2018-04-02,29.440000534057617,29.440000534057617,29.440000534057617,29.440000534057617,0.0,29.440000534057617
2018-04-03,29.440000534057617,29.440000534057617,29.440000534057617,29.440000534057617,0.0,29.440000534057617
2018-04-04,29.450000762939453,28.350000381469727,28.850000381469727,29.450000762939453,2500.0,29.450000762939453
2018-04-05,29.450000762939453,29.450000762939453,29.450000762939453,29.450000762939453,0.0,29.450000762939453
2018-04-06,29.200000762939453,29.200000762939453,29.200000762939453,29.200000762939453,200.0,29.200000762939453
2018-04-09,29.200000762939453,29.200000762939453,29.200000762939453,29.200000762939453,0.0,29.200000762939453
2018-04-10,29.200000762939453,29.200000762939453,29.200000762939453,29.200000762939453,0.0,29.200000762939453
2018-04-11,29.200000762939453,29.200000762939453,29.200000762939453,29.200000762939453,0.0,29.200000762939453
2018-04-12,29.200000762939453,29.200000762939453,29.200000762939453,29.200000762939453,0.0,29.200000762939453
2018-04-13,29.200000762939453,29.200000762939453,29.200000762939453,29.200000762939453,0.0,29.200000762939453
2018-04-16,29.200000762939453,29.200000762939453,29.200000762939453,29.200000762939453,0.0,29.200000762939453
2018-04-17,29.200000762939453,29.200000762939453,29.200000762939453,29.200000762939453,0.0,29.200000762939453
2018-04-23,29.200000762939453,29.200000762939453,29.200000762939453,29.200000762939453,0.0,29.200000762939453
2018-04-24,29.200000762939453,29.200000762939453,29.200000762939453,29.200000762939453,0.0,29.200000762939453
2018-04-25,29.200000762939453,29.200000762939453,29.200000762939453,29.200000762939453,0.0,29.200000762939453
2018-04-26,29.200000762939453,29.200000762939453,29.200000762939453,29.200000762939453,0.0,29.200000762939453
2018-04-27,29.200000762939453,29.200000762939453,29.200000762939453,29.200000762939453,0.0,29.200000762939453
2018-04-30,29.200000762939453,29.200000762939453,29.200000762939453,29.200000762939453,0.0,29.200000762939453
2018-06-13,29.200000762939453,29.200000762939453,29.200000762939453,29.200000762939453,0.0,29.200000762939453
2018-06-14,29.200000762939453,29.200000762939453,29.200000762939453,29.200000762939453,0.0,29.200000762939453
2018-06-15,29.200000762939453,29.200000762939453,29.200000762939453,29.200000762939453,0.0,29.200000762939453
2018-06-18,29.200000762939453,29.200000762939453,29.200000762939453,29.200000762939453,0.0,29.200000762939453
2018-06-19,29.200000762939453,29.200000762939453,29.200000762939453,29.200000762939453,0.0,29.200000762939453
2018-06-20,29.200000762939453,29.200000762939453,29.200000762939453,29.200000762939453,0.0,29.200000762939453
2018-06-21,29.200000762939453,29.200000762939453,29.200000762939453,29.200000762939453,0.0,29.200000762939453
2018-06-22,29.200000762939453,29.200000762939453,29.200000762939453,29.200000762939453,0.0,29.200000762939453
2018-07-23,29.200000762939453,29.200000762939453,29.200000762939453,29.200000762939453,0.0,29.200000762939453
2018-07-24,29.200000762939453,29.200000762939453,29.200000762939453,29.200000762939453,0.0,29.200000762939453
2018-07-25,29.200000762939453,29.200000762939453,29.200000762939453,29.200000762939453,0.0,29.200000762939453
2018-07-26,29.200000762939453,29.200000762939453,29.200000762939453,29.200000762939453,0.0,29.200000762939453
2018-07-27,29.200000762939453,29.200000762939453,29.200000762939453,29.200000762939453,0.0,29.200000762939453
2018-07-30,29.200000762939453,29.200000762939453,29.200000762939453,29.200000762939453,0.0,29.200000762939453
2018-07-31,0.019999999552965164,0.019999999552965164,0.019999999552965164,0.019999999552965164,0.0,0.019999999552965164
2018-08-01,0.019999999552965164,0.019999999552965164,0.019999999552965164,0.019999999552965164,0.0,0.019999999552965164
2018-08-02,0.019999999552965164,0.019999999552965164,0.019999999552965164,0.019999999552965164,0.0,0.019999999552965164
2018-08-03,0.019999999552965164,0.019999999552965164,0.019999999552965164,0.019999999552965164,0.0,0.019999999552965164
2018-08-06,0.019999999552965164,0.019999999552965164,0.019999999552965164,0.019999999552965164,0.0,0.019999999552965164
2018-08-15,29.200000762939453,29.200000762939453,29.200000762939453,29.200000762939453,0.0,29.200000762939453
2018-08-16,29.200000762939453,29.200000762939453,29.200000762939453,29.200000762939453,0.0,29.200000762939453
2018-08-17,29.200000762939453,29.200000762939453,29.200000762939453,29.200000762939453,0.0,29.200000762939453
2018-08-20,29.200000762939453,29.200000762939453,29.200000762939453,29.200000762939453,0.0,29.200000762939453
2018-08-21,29.200000762939453,29.200000762939453,29.200000762939453,29.200000762939453,0.0,29.200000762939453
2018-08-22,29.200000762939453,29.200000762939453,29.200000762939453,29.200000762939453,0.0,29.200000762939453
2018-08-23,29.200000762939453,29.200000762939453,29.200000762939453,29.200000762939453,0.0,29.200000762939453
2018-08-24,29.200000762939453,29.200000762939453,29.200000762939453,29.200000762939453,0.0,29.200000762939453
2018-09-06,29.200000762939453,29.200000762939453,29.200000762939453,29.200000762939453,0.0,29.200000762939453
2018-09-07,29.200000762939453,29.200000762939453,29.200000762939453,29.200000762939453,0.0,29.200000762939453
2018-09-10,29.200000762939453,29.200000762939453,29.200000762939453,29.200000762939453,0.0,29.200000762939453
2018-09-11,29.200000762939453,29.200000762939453,29.200000762939453,29.200000762939453,0.0,29.200000762939453
2018-09-12,29.200000762939453,29.200000762939453,29.200000762939453,29.200000762939453,0.0,29.200000762939453
2018-09-13,29.200000762939453,29.200000762939453,29.200000762939453,29.200000762939453,0.0,29.200000762939453
