Date,High,Low,Open,Close,Volume,Adj Close
2016-01-27,4.300000190734863,4.229499816894531,4.300000190734863,4.275000095367432,1704.0,3.952946424484253
2016-05-11,10.140000343322754,10.0,10.0,10.020000457763672,920900.0,9.265152931213379
2016-05-12,10.100000381469727,10.010000228881836,10.100000381469727,10.029999732971191,207100.0,9.274397850036621
2016-05-13,10.140000343322754,10.010000228881836,10.109999656677246,10.020000457763672,251100.0,9.265152931213379
2016-05-16,10.09000015258789,10.020000457763672,10.0600004196167,10.029999732971191,87400.0,9.274397850036621
2016-05-17,10.09000015258789,10.020000457763672,10.050000190734863,10.079999923706055,45500.0,9.320632934570312
2016-05-18,10.119999885559082,10.071000099182129,10.079999923706055,10.100000381469727,73700.0,9.339125633239746
2016-05-19,10.100000381469727,10.050000190734863,10.100000381469727,10.09000015258789,27900.0,9.329877853393555
2016-05-20,10.09000015258789,10.050000190734863,10.079999923706055,10.050000190734863,37800.0,9.292892456054688
2016-05-23,10.170000076293945,10.039999961853027,10.050000190734863,10.170000076293945,166000.0,9.403850555419922
2016-05-24,10.140000343322754,10.069999694824219,10.130000114440918,10.069999694824219,96000.0,9.311383247375488
2016-05-25,10.119999885559082,10.069999694824219,10.079999923706055,10.100000381469727,51200.0,9.339125633239746
2016-05-26,10.15999984741211,10.079999923706055,10.079999923706055,10.149999618530273,69900.0,9.385357856750488
2016-05-27,10.170000076293945,10.100000381469727,10.128000259399414,10.100000381469727,45400.0,9.339125633239746
2016-05-31,10.170000076293945,10.119999885559082,10.149999618530273,10.119999885559082,54600.0,9.357620239257812
2016-06-01,10.170000076293945,10.119999885559082,10.149999618530273,10.119999885559082,36700.0,9.357620239257812
2016-06-02,10.199999809265137,10.130000114440918,10.149999618530273,10.1899995803833,47100.0,9.422345161437988
2016-06-03,10.199999809265137,10.180000305175781,10.199999809265137,10.199999809265137,22500.0,9.431591987609863
2016-06-06,10.199999809265137,10.15999984741211,10.199999809265137,10.199999809265137,25700.0,9.431591987609863
2016-06-07,10.199999809265137,10.15999984741211,10.1899995803833,10.15999984741211,14400.0,9.39460563659668
2016-06-08,10.199999809265137,10.149999618530273,10.149999618530273,10.199999809265137,50200.0,9.431591987609863
2016-06-09,10.194000244140625,10.149999618530273,10.194000244140625,10.149999618530273,49800.0,9.385357856750488
2016-06-10,10.1899995803833,10.149999618530273,10.149999618530273,10.15999984741211,17100.0,9.39460563659668
2016-06-13,10.180000305175781,10.149999618530273,10.15999984741211,10.149999618530273,7200.0,9.385357856750488
2016-06-14,10.149999618530273,10.100000381469727,10.149999618530273,10.109999656677246,101700.0,9.348372459411621
2016-06-15,10.140000343322754,10.069999694824219,10.109999656677246,10.100000381469727,150700.0,9.339125633239746
2016-06-16,10.140000343322754,10.050000190734863,10.0600004196167,10.100000381469727,52200.0,9.339125633239746
2016-06-17,10.130000114440918,10.069999694824219,10.130000114440918,10.09000015258789,47200.0,9.329877853393555
2016-06-20,10.140000343322754,10.050000190734863,10.130000114440918,10.0600004196167,40000.0,9.302140235900879
2016-06-21,10.095000267028809,10.050000190734863,10.069999694824219,10.09000015258789,93100.0,9.329877853393555
2016-06-22,10.100000381469727,10.050000190734863,10.079999923706055,10.069999694824219,80800.0,9.311383247375488
2016-06-23,10.109000205993652,10.050000190734863,10.09000015258789,10.0600004196167,37600.0,9.302140235900879
2016-06-24,10.130000114440918,10.020000457763672,10.0600004196167,10.039999961853027,100900.0,9.283646583557129
2016-06-27,10.109999656677246,10.020000457763672,10.029999732971191,10.050000190734863,73800.0,9.292892456054688
2016-06-28,10.119999885559082,10.050000190734863,10.079999923706055,10.100000381469727,115500.0,9.339125633239746
2016-06-29,10.333999633789062,10.050000190734863,10.130000114440918,10.149999618530273,130400.0,9.385357856750488
2016-06-30,10.5,10.119999885559082,10.1899995803833,10.329999923706055,258000.0,9.551798820495605
2016-07-01,10.5,10.187999725341797,10.479999542236328,10.199999809265137,42400.0,9.431591987609863
2016-07-05,10.178000450134277,10.100000381469727,10.175999641418457,10.142000198364258,30500.0,9.377960205078125
2016-07-06,10.1899995803833,10.100000381469727,10.140000343322754,10.185999870300293,60500.0,9.418646812438965
2016-07-07,10.199999809265137,10.109999656677246,10.170000076293945,10.180000305175781,18400.0,9.413100242614746
2016-07-08,10.199999809265137,10.149999618530273,10.199999809265137,10.1899995803833,19900.0,9.422345161437988
2016-07-11,10.199999809265137,10.149999618530273,10.199000358581543,10.190999984741211,25200.0,9.42326831817627
2016-07-12,10.199999809265137,10.130000114440918,10.1899995803833,10.1899995803833,48200.0,9.422345161437988
2016-07-13,10.199999809265137,10.0600004196167,10.199999809265137,10.100000381469727,47800.0,9.339125633239746
2016-07-14,10.157999992370605,10.069999694824219,10.109999656677246,10.140000343322754,64500.0,9.376110076904297
2016-07-15,10.140000343322754,10.100000381469727,10.109999656677246,10.109999656677246,25600.0,9.348372459411621
2016-07-18,10.199999809265137,10.079999923706055,10.15999984741211,10.100000381469727,101400.0,9.339125633239746
2016-07-19,10.199999809265137,10.109999656677246,10.140000343322754,10.1899995803833,62600.0,9.422345161437988
2016-07-20,10.184000015258789,10.130000114440918,10.130000114440918,10.130000114440918,66700.0,9.366864204406738
2016-07-21,10.1899995803833,10.100000381469727,10.170000076293945,10.1899995803833,66300.0,9.422345161437988
2016-07-22,10.350000381469727,10.100000381469727,10.100000381469727,10.34000015258789,98800.0,9.56104564666748
2016-07-25,10.300000190734863,10.100000381469727,10.262999534606934,10.170000076293945,90900.0,9.403850555419922
2016-07-26,10.190999984741211,10.109999656677246,10.140000343322754,10.1899995803833,88400.0,9.422345161437988
2016-07-27,10.199999809265137,10.109999656677246,10.199999809265137,10.170000076293945,116000.0,9.403850555419922
2016-07-28,10.180000305175781,10.119999885559082,10.170000076293945,10.119999885559082,97100.0,9.357620239257812
2016-07-29,10.170000076293945,10.119999885559082,10.119999885559082,10.130000114440918,100100.0,9.366864204406738
2016-08-01,10.15999984741211,10.100000381469727,10.149999618530273,10.119999885559082,97900.0,9.357620239257812
2016-08-02,10.149999618530273,10.074999809265137,10.109999656677246,10.149999618530273,127200.0,9.385357856750488
2016-08-03,10.180000305175781,10.130000114440918,10.149999618530273,10.140000343322754,71000.0,9.376110076904297
2016-08-04,10.149999618530273,10.100000381469727,10.13700008392334,10.109999656677246,106800.0,9.348372459411621
2016-08-05,10.140000343322754,10.09000015258789,10.109999656677246,10.100000381469727,86900.0,9.339125633239746
2016-08-08,10.130000114440918,10.09000015258789,10.107000350952148,10.109999656677246,84000.0,9.348372459411621
2016-08-09,10.109999656677246,10.09000015258789,10.100000381469727,10.109999656677246,56500.0,9.348372459411621
2016-08-10,10.130000114440918,10.069999694824219,10.100000381469727,10.100000381469727,146100.0,9.339125633239746
2016-08-11,10.130000114440918,10.069999694824219,10.079999923706055,10.119999885559082,149000.0,9.357620239257812
2016-08-12,10.119999885559082,10.0600004196167,10.100000381469727,10.109999656677246,54100.0,9.348372459411621
2016-08-15,10.130000114440918,10.109999656677246,10.109999656677246,10.130000114440918,71100.0,9.366864204406738
2016-08-16,10.119999885559082,10.069999694824219,10.079999923706055,10.10099983215332,85200.0,9.340052604675293
2016-08-17,10.109999656677246,10.050000190734863,10.100000381469727,10.0600004196167,209400.0,9.302140235900879
2016-08-18,10.130000114440918,10.0600004196167,10.0600004196167,10.100000381469727,141400.0,9.339125633239746
2016-08-19,10.10099983215332,10.069999694824219,10.100000381469727,10.100000381469727,79600.0,9.339125633239746
2016-08-22,10.140000343322754,10.0600004196167,10.119999885559082,10.069999694824219,98300.0,9.311383247375488
2016-08-23,10.170000076293945,10.079999923706055,10.119999885559082,10.15999984741211,99500.0,9.39460563659668
2016-08-24,10.170000076293945,10.100000381469727,10.149999618530273,10.151000022888184,58100.0,9.386282920837402
2016-08-25,10.142000198364258,10.069999694824219,10.109999656677246,10.100000381469727,81300.0,9.339125633239746
2016-08-26,10.170000076293945,10.100000381469727,10.100000381469727,10.130000114440918,42900.0,9.366864204406738
2016-08-29,10.180000305175781,10.145000457763672,10.180000305175781,10.180000305175781,48300.0,9.413100242614746
2016-08-30,10.15999984741211,10.119999885559082,10.130000114440918,10.149999618530273,28000.0,9.385357856750488
2016-08-31,10.279999732971191,10.170000076293945,10.170000076293945,10.25,87800.0,9.477823257446289
2016-09-01,10.260000228881836,10.210000038146973,10.260000228881836,10.239999771118164,22200.0,9.468576431274414
2016-09-02,10.300000190734863,10.223999977111816,10.232000350952148,10.229999542236328,16700.0,9.459331512451172
2016-09-06,10.300000190734863,10.20199966430664,10.300000190734863,10.300000190734863,53100.0,9.524059295654297
2016-09-07,10.300000190734863,10.267999649047852,10.300000190734863,10.300000190734863,27000.0,9.524059295654297
2016-09-08,10.300000190734863,10.260000228881836,10.300000190734863,10.289999961853027,13700.0,9.514810562133789
2016-09-09,10.300000190734863,10.100000381469727,10.300000190734863,10.119999885559082,73500.0,9.357620239257812
2016-09-12,10.270000457763672,10.119999885559082,10.270000457763672,10.199999809265137,45000.0,9.431591987609863
2016-09-13,10.27299976348877,10.109999656677246,10.199999809265137,10.27299976348877,19400.0,9.546825408935547
2016-09-14,10.220000267028809,10.020000457763672,10.1899995803833,10.029999732971191,142500.0,9.321003913879395
2016-09-15,10.1899995803833,10.029999732971191,10.180000305175781,10.100000381469727,67600.0,9.386054992675781
2016-09-16,10.140000343322754,10.029999732971191,10.100000381469727,10.100000381469727,50900.0,9.386054992675781
2016-09-19,10.140000343322754,10.0600004196167,10.100000381469727,10.09000015258789,48500.0,9.376761436462402
2016-09-20,10.100000381469727,10.029999732971191,10.079999923706055,10.09000015258789,93400.0,9.376761436462402
2016-09-21,10.199999809265137,10.09000015258789,10.09000015258789,10.140000343322754,58100.0,9.423226356506348
2016-09-22,10.25,10.140000343322754,10.182000160217285,10.229999542236328,37200.0,9.506865501403809
2016-09-23,10.28499984741211,10.149999618530273,10.239999771118164,10.149999618530273,50200.0,9.432519912719727
2016-09-26,10.229999542236328,10.0600004196167,10.199999809265137,10.229999542236328,58200.0,9.506865501403809
2016-09-27,10.149999618530273,10.100000381469727,10.149999618530273,10.140000343322754,36300.0,9.423226356506348
2016-09-28,10.25,10.100000381469727,10.100000381469727,10.25,160000.0,9.525450706481934
2016-09-29,10.239999771118164,10.170000076293945,10.170000076293945,10.1899995803833,36600.0,9.469694137573242
2016-09-30,10.25,10.170000076293945,10.170000076293945,10.210000038146973,60900.0,9.48828125
2016-10-03,10.25,10.180000305175781,10.25,10.199999809265137,49700.0,9.478986740112305
2016-10-04,10.279999732971191,10.170000076293945,10.1899995803833,10.270000457763672,49300.0,9.544038772583008
2016-10-05,10.270000457763672,10.210000038146973,10.239999771118164,10.210000038146973,60300.0,9.48828125
2016-10-06,10.300000190734863,10.199999809265137,10.270000457763672,10.199999809265137,49900.0,9.478986740112305
2016-10-07,10.300000190734863,10.190999984741211,10.288999557495117,10.25,43000.0,9.525450706481934
2016-10-10,10.265000343322754,10.170000076293945,10.232000350952148,10.210000038146973,44900.0,9.48828125
2016-10-11,10.289999961853027,10.199999809265137,10.289999961853027,10.199999809265137,40800.0,9.478986740112305
2016-10-12,10.289999961853027,10.210000038146973,10.289999961853027,10.229999542236328,44000.0,9.506865501403809
2016-10-13,10.279999732971191,10.222000122070312,10.279999732971191,10.26099967956543,17100.0,9.535675048828125
2016-10-14,10.25,10.130000114440918,10.229999542236328,10.130000114440918,49000.0,9.413932800292969
2016-10-17,10.239999771118164,10.130000114440918,10.15999984741211,10.170000076293945,41400.0,9.451107025146484
2016-10-18,10.220000267028809,10.109999656677246,10.199999809265137,10.109999656677246,28700.0,9.39534854888916
2016-10-19,10.142000198364258,10.079999923706055,10.140000343322754,10.09000015258789,61700.0,9.376761436462402
2016-10-20,10.15999984741211,10.039999961853027,10.130000114440918,10.039999961853027,62800.0,9.330297470092773
2016-10-21,10.100000381469727,10.050000190734863,10.0600004196167,10.050000190734863,42600.0,9.339591026306152
2016-10-24,10.199999809265137,10.079999923706055,10.088000297546387,10.180000305175781,50600.0,9.46040153503418
2016-10-25,10.21399974822998,10.100000381469727,10.149999618530273,10.199999809265137,32600.0,9.478986740112305
2016-10-26,10.25,10.16100025177002,10.164999961853027,10.210000038146973,57000.0,9.48828125
2016-10-27,10.215999603271484,10.100000381469727,10.199999809265137,10.170000076293945,80400.0,9.451107025146484
2016-10-28,10.1899995803833,10.109999656677246,10.119999885559082,10.1899995803833,39100.0,9.469694137573242
2016-10-31,10.23900032043457,10.079999923706055,10.1899995803833,10.09000015258789,107200.0,9.376761436462402
2016-11-01,10.1899995803833,10.100000381469727,10.100000381469727,10.170000076293945,26400.0,9.451107025146484
2016-11-02,10.289999961853027,10.15999984741211,10.15999984741211,10.279999732971191,40300.0,9.55333137512207
2016-11-03,10.300000190734863,10.173999786376953,10.270000457763672,10.300000190734863,34700.0,9.571919441223145
2016-11-04,10.279999732971191,10.15999984741211,10.1899995803833,10.239999771118164,30900.0,9.516158103942871
2016-11-07,10.300000190734863,10.180000305175781,10.199999809265137,10.1899995803833,43200.0,9.469694137573242
2016-11-08,10.300000190734863,10.100000381469727,10.1899995803833,10.100000381469727,45600.0,9.386054992675781
2016-11-09,10.168999671936035,10.050000190734863,10.050000190734863,10.079999923706055,77100.0,9.367469787597656
2016-11-10,10.168999671936035,10.029999732971191,10.0600004196167,10.100000381469727,86000.0,9.386054992675781
2016-11-11,10.210000038146973,10.079999923706055,10.09000015258789,10.09000015258789,41000.0,9.376761436462402
2016-11-14,10.270000457763672,10.079999923706055,10.09000015258789,10.270000457763672,38700.0,9.544038772583008
2016-11-15,10.300000190734863,10.100000381469727,10.180000305175781,10.25,76300.0,9.525450706481934
2016-11-16,10.21399974822998,10.130000114440918,10.140000343322754,10.149999618530273,38600.0,9.432519912719727
2016-11-17,10.289999961853027,10.09000015258789,10.289999961853027,10.15999984741211,43800.0,9.441815376281738
2016-11-18,10.229999542236328,10.079999923706055,10.079999923706055,10.170000076293945,23800.0,9.451107025146484
2016-11-21,10.170000076293945,10.039999961853027,10.170000076293945,10.0600004196167,62300.0,9.348884582519531
2016-11-22,10.119999885559082,10.029999732971191,10.105999946594238,10.119999885559082,39300.0,9.404644012451172
2016-11-23,10.12600040435791,10.020000457763672,10.050000190734863,10.09000015258789,21600.0,9.376761436462402
2016-11-25,10.149999618530273,10.09000015258789,10.149999618530273,10.100000381469727,17400.0,9.386054992675781
2016-11-28,10.130000114440918,10.069999694824219,10.130000114440918,10.069999694824219,20800.0,9.358175277709961
2016-11-29,10.100000381469727,10.029999732971191,10.09000015258789,10.050000190734863,57700.0,9.339591026306152
2016-11-30,10.140000343322754,9.960000038146973,10.029999732971191,10.050000190734863,97700.0,9.339591026306152
2016-12-01,10.239999771118164,9.960000038146973,10.239999771118164,9.960000038146973,74400.0,9.255951881408691
2016-12-02,10.09000015258789,9.949999809265137,9.979999542236328,9.979999542236328,66400.0,9.274537086486816
2016-12-05,10.109999656677246,10.0,10.0600004196167,10.100000381469727,37800.0,9.386054992675781
2016-12-06,10.239999771118164,9.960000038146973,10.119999885559082,10.239999771118164,97300.0,9.516158103942871
2016-12-07,10.229999542236328,10.109999656677246,10.109999656677246,10.170000076293945,64500.0,9.451107025146484
2016-12-08,10.199999809265137,10.109999656677246,10.119999885559082,10.149999618530273,39100.0,9.432519912719727
2016-12-09,10.210000038146973,10.0600004196167,10.170000076293945,10.09000015258789,87100.0,9.376761436462402
2016-12-12,10.15999984741211,10.109999656677246,10.140000343322754,10.140000343322754,24800.0,9.423226356506348
2016-12-13,10.15999984741211,10.0600004196167,10.130000114440918,10.069999694824219,63600.0,9.358175277709961
2016-12-14,10.112000465393066,10.079999923706055,10.079999923706055,10.09000015258789,18400.0,9.376761436462402
2016-12-15,10.180000305175781,10.09000015258789,10.130999565124512,10.100000381469727,61200.0,9.386054992675781
2016-12-16,10.149999618530273,10.050000190734863,10.149999618530273,10.050000190734863,65200.0,9.339591026306152
2016-12-19,10.109999656677246,10.069999694824219,10.104000091552734,10.069999694824219,29400.0,9.358175277709961
2016-12-20,10.109999656677246,10.010000228881836,10.100000381469727,10.029999732971191,87500.0,9.321003913879395
2016-12-21,10.079999923706055,10.024999618530273,10.0600004196167,10.079999923706055,33500.0,9.367469787597656
2016-12-22,10.100000381469727,10.0600004196167,10.100000381469727,10.079999923706055,38200.0,9.367469787597656
2016-12-23,10.079999923706055,10.029999732971191,10.0600004196167,10.079999923706055,38500.0,9.367469787597656
2016-12-27,10.116000175476074,10.029999732971191,10.039999961853027,10.116000175476074,19600.0,9.400925636291504
2016-12-28,10.15999984741211,10.09000015258789,10.119999885559082,10.100000381469727,32600.0,9.386054992675781
2016-12-29,10.152000427246094,10.069999694824219,10.107000350952148,10.14900016784668,29700.0,9.43159294128418
2016-12-30,10.15999984741211,10.079999923706055,10.15999984741211,10.104000091552734,40500.0,9.38977336883545
2017-01-03,10.15999984741211,10.09000015258789,10.119999885559082,10.105999946594238,40600.0,9.391630172729492
2017-01-04,10.15999984741211,10.100000381469727,10.130000114440918,10.100000381469727,47600.0,9.386054992675781
2017-01-05,10.156999588012695,10.109999656677246,10.109999656677246,10.156999588012695,18000.0,9.439024925231934
2017-01-06,10.260000228881836,10.107999801635742,10.142000198364258,10.199999809265137,38000.0,9.478986740112305
2017-01-09,10.25,10.109999656677246,10.109999656677246,10.25,31300.0,9.525450706481934
2017-01-10,10.260000228881836,10.15999984741211,10.25,10.25,36000.0,9.525450706481934
2017-01-11,10.279999732971191,10.180000305175781,10.180000305175781,10.229999542236328,42200.0,9.506865501403809
2017-01-12,10.210000038146973,10.170000076293945,10.1899995803833,10.199999809265137,32300.0,9.478986740112305
2017-01-13,10.289999961853027,10.199999809265137,10.260000228881836,10.25,29700.0,9.525450706481934
2017-01-17,10.279000282287598,10.109999656677246,10.210000038146973,10.140000343322754,92000.0,9.423226356506348
2017-01-18,10.1899995803833,10.130000114440918,10.149999618530273,10.180000305175781,44300.0,9.46040153503418
2017-01-19,10.229999542236328,10.149999618530273,10.149999618530273,10.1899995803833,26100.0,9.469694137573242
2017-01-20,10.260000228881836,10.152999877929688,10.220000267028809,10.210000038146973,32000.0,9.48828125
2017-01-23,10.25,10.140000343322754,10.225000381469727,10.180000305175781,33900.0,9.46040153503418
2017-01-24,10.204000473022461,10.140000343322754,10.199999809265137,10.149999618530273,53600.0,9.432519912719727
2017-01-25,10.1899995803833,10.119999885559082,10.119999885559082,10.180000305175781,57400.0,9.46040153503418
2017-01-26,10.180000305175781,10.140000343322754,10.15999984741211,10.180000305175781,32100.0,9.46040153503418
2017-01-27,10.1899995803833,10.170000076293945,10.180000305175781,10.1899995803833,25800.0,9.469694137573242
2017-01-30,10.239999771118164,10.170000076293945,10.1899995803833,10.199999809265137,50400.0,9.478986740112305
2017-01-31,10.208999633789062,10.149999618530273,10.196000099182129,10.15999984741211,67200.0,9.441815376281738
2017-02-01,10.279999732971191,10.170000076293945,10.25,10.199999809265137,28500.0,9.478986740112305
2017-02-02,10.279999732971191,10.170000076293945,10.199999809265137,10.279999732971191,46200.0,9.55333137512207
2017-02-03,10.300000190734863,10.229999542236328,10.25,10.300000190734863,42200.0,9.571919441223145
2017-02-06,10.279999732971191,10.119999885559082,10.279999732971191,10.170000076293945,78200.0,9.451107025146484
2017-02-07,10.220000267028809,10.128000259399414,10.170000076293945,10.199999809265137,84400.0,9.478986740112305
2017-02-08,10.220000267028809,10.15999984741211,10.170000076293945,10.199999809265137,26500.0,9.478986740112305
2017-02-09,10.25,10.199999809265137,10.201000213623047,10.199999809265137,35900.0,9.478986740112305
2017-02-10,10.239999771118164,10.199999809265137,10.220000267028809,10.229999542236328,25300.0,9.506865501403809
2017-02-13,10.229999542236328,10.180000305175781,10.220000267028809,10.180000305175781,32500.0,9.46040153503418
2017-02-14,10.300000190734863,10.180000305175781,10.180000305175781,10.300000190734863,113900.0,9.571919441223145
2017-02-15,10.300000190734863,10.229999542236328,10.298999786376953,10.25,40600.0,9.525450706481934
2017-02-16,10.220000267028809,10.130000114440918,10.220000267028809,10.15999984741211,90200.0,9.441815376281738
2017-02-17,10.180000305175781,10.140000343322754,10.15999984741211,10.15999984741211,40400.0,9.441815376281738
2017-02-21,10.199999809265137,10.170000076293945,10.170000076293945,10.199999809265137,28200.0,9.478986740112305
2017-02-22,10.229999542236328,10.180000305175781,10.199999809265137,10.210000038146973,89500.0,9.48828125
2017-02-23,10.229999542236328,10.180000305175781,10.218999862670898,10.180000305175781,65500.0,9.46040153503418
2017-02-24,10.199999809265137,10.170000076293945,10.199999809265137,10.180000305175781,66800.0,9.46040153503418
2017-02-27,10.229999542236328,10.1899995803833,10.1899995803833,10.199999809265137,65900.0,9.478986740112305
2017-02-28,10.239999771118164,10.199999809265137,10.199999809265137,10.23900032043457,61600.0,9.51523208618164
2017-03-01,10.289999961853027,10.210000038146973,10.239999771118164,10.279999732971191,27600.0,9.55333137512207
2017-03-02,10.25,10.199999809265137,10.239999771118164,10.25,27400.0,9.525450706481934
2017-03-03,10.241000175476074,10.199999809265137,10.229999542236328,10.229999542236328,17900.0,9.506865501403809
2017-03-06,10.25,10.199999809265137,10.229999542236328,10.239999771118164,42300.0,9.516158103942871
2017-03-07,10.25,10.1899995803833,10.25,10.210000038146973,48100.0,9.48828125
2017-03-08,10.210000038146973,10.140000343322754,10.1899995803833,10.170000076293945,70800.0,9.451107025146484
2017-03-09,10.170000076293945,10.140000343322754,10.149999618530273,10.149999618530273,55300.0,9.432519912719727
2017-03-10,10.199999809265137,10.149999618530273,10.149999618530273,10.180000305175781,26000.0,9.46040153503418
2017-03-13,10.180000305175781,10.138999938964844,10.15999984741211,10.149999618530273,25400.0,9.432519912719727
2017-03-14,10.15999984741211,10.130000114440918,10.140000343322754,10.149999618530273,23300.0,9.432519912719727
2017-03-15,10.199999809265137,10.109999656677246,10.149999618530273,10.119999885559082,36100.0,9.404644012451172
2017-03-16,10.180000305175781,10.109999656677246,10.121999740600586,10.180000305175781,66900.0,9.46040153503418
2017-03-17,10.300000190734863,10.130000114440918,10.199999809265137,10.229999542236328,77700.0,9.506865501403809
2017-03-20,10.270000457763672,10.1899995803833,10.1899995803833,10.220000267028809,42100.0,9.497575759887695
2017-03-21,10.239999771118164,10.140000343322754,10.239999771118164,10.180000305175781,25900.0,9.46040153503418
2017-03-22,10.289999961853027,10.170000076293945,10.239999771118164,10.199999809265137,46200.0,9.478986740112305
2017-03-23,10.220000267028809,10.180000305175781,10.220000267028809,10.180000305175781,33300.0,9.46040153503418
2017-03-24,10.289999961853027,10.180000305175781,10.220000267028809,10.180000305175781,34400.0,9.46040153503418
2017-03-27,10.229999542236328,10.170000076293945,10.229999542236328,10.170000076293945,34200.0,9.451107025146484
2017-03-28,10.229999542236328,10.170000076293945,10.180000305175781,10.180000305175781,55000.0,9.46040153503418
2017-03-29,10.25,10.170000076293945,10.229999542236328,10.199999809265137,33100.0,9.478986740112305
2017-03-30,10.270000457763672,10.180000305175781,10.210000038146973,10.220000267028809,79300.0,9.497575759887695
2017-03-31,10.229999542236328,10.180000305175781,10.199999809265137,10.199999809265137,41600.0,9.478986740112305
2017-04-03,10.25,10.199999809265137,10.25,10.220000267028809,15900.0,9.497575759887695
2017-04-04,10.260000228881836,10.199999809265137,10.260000228881836,10.229999542236328,16300.0,9.506865501403809
2017-04-05,10.270000457763672,10.1899995803833,10.229999542236328,10.210000038146973,46800.0,9.48828125
2017-04-06,10.239999771118164,10.199999809265137,10.239999771118164,10.220000267028809,43000.0,9.497575759887695
2017-04-07,10.279999732971191,10.210000038146973,10.213000297546387,10.270000457763672,40700.0,9.544038772583008
2017-04-10,10.279999732971191,10.239999771118164,10.279999732971191,10.25,57600.0,9.525450706481934
2017-04-11,10.260000228881836,10.210000038146973,10.260000228881836,10.239999771118164,17400.0,9.516158103942871
2017-04-12,10.25,10.180000305175781,10.210000038146973,10.25,44800.0,9.525450706481934
2017-04-13,10.300000190734863,10.229999542236328,10.260000228881836,10.300000190734863,50800.0,9.571919441223145
2017-04-17,10.289999961853027,10.25,10.25,10.289999961853027,19900.0,9.562623977661133
2017-04-18,10.300000190734863,10.229999542236328,10.300000190734863,10.260000228881836,44600.0,9.534745216369629
2017-04-19,10.270000457763672,10.25,10.260000228881836,10.270000457763672,10400.0,9.544038772583008
2017-04-20,10.279999732971191,10.260000228881836,10.260000228881836,10.279999732971191,24300.0,9.55333137512207
2017-04-21,10.295000076293945,10.260000228881836,10.279999732971191,10.289999961853027,31400.0,9.562623977661133
2017-04-24,10.300000190734863,10.284000396728516,10.289999961853027,10.300000190734863,23600.0,9.571919441223145
2017-04-25,10.300000190734863,10.270000457763672,10.300000190734863,10.279999732971191,56100.0,9.55333137512207
2017-04-26,10.300000190734863,10.260000228881836,10.260000228881836,10.300000190734863,33300.0,9.571919441223145
2017-04-27,10.300000190734863,10.279999732971191,10.300000190734863,10.300000190734863,30300.0,9.571919441223145
2017-04-28,10.300000190734863,10.270000457763672,10.289999961853027,10.300000190734863,38200.0,9.571919441223145
2017-05-01,10.300000190734863,10.270000457763672,10.300000190734863,10.289999961853027,36200.0,9.562623977661133
2017-05-02,10.300000190734863,10.270000457763672,10.300000190734863,10.300000190734863,38300.0,9.571919441223145
2017-05-03,10.300000190734863,10.279999732971191,10.300000190734863,10.300000190734863,24200.0,9.571919441223145
2017-05-04,10.300000190734863,10.260000228881836,10.260000228881836,10.300000190734863,17000.0,9.571919441223145
2017-05-05,10.300000190734863,10.279999732971191,10.279999732971191,10.300000190734863,75900.0,9.571919441223145
2017-05-08,10.300000190734863,10.277000427246094,10.289999961853027,10.289999961853027,27000.0,9.562623977661133
2017-05-09,10.350000381469727,10.279999732971191,10.28600025177002,10.34000015258789,64400.0,9.609089851379395
2017-05-10,10.350000381469727,10.300000190734863,10.300000190734863,10.350000381469727,13400.0,9.618385314941406
2017-05-11,10.34000015258789,10.270000457763672,10.329999923706055,10.329999923706055,43400.0,9.599797248840332
2017-05-12,10.34000015258789,10.289999961853027,10.34000015258789,10.300000190734863,40600.0,9.571919441223145
2017-05-15,10.329999923706055,10.3100004196167,10.319999694824219,10.3100004196167,33700.0,9.581210136413574
2017-05-16,10.34000015258789,10.229999542236328,10.34000015258789,10.260000228881836,88200.0,9.534745216369629
2017-05-17,10.270000457763672,10.1899995803833,10.239999771118164,10.199999809265137,51800.0,9.478986740112305
2017-05-18,10.229999542236328,10.180000305175781,10.208000183105469,10.199999809265137,40200.0,9.478986740112305
2017-05-19,10.210000038146973,10.170000076293945,10.1899995803833,10.180000305175781,57200.0,9.46040153503418
2017-05-22,10.229999542236328,10.1899995803833,10.199999809265137,10.220000267028809,35300.0,9.497575759887695
2017-05-23,10.25,10.1899995803833,10.220000267028809,10.210000038146973,93700.0,9.48828125
2017-05-24,10.229999542236328,10.199999809265137,10.220000267028809,10.229999542236328,35400.0,9.506865501403809
2017-05-25,10.25,10.227999687194824,10.229999542236328,10.239999771118164,33500.0,9.516158103942871
2017-05-26,10.260000228881836,10.237000465393066,10.239999771118164,10.239999771118164,19400.0,9.516158103942871
2017-05-30,10.267999649047852,10.210000038146973,10.220000267028809,10.246999740600586,36100.0,9.522663116455078
2017-05-31,10.289999961853027,10.199999809265137,10.229999542236328,10.210000038146973,75900.0,9.48828125
2017-06-01,10.279999732971191,10.180000305175781,10.260000228881836,10.210000038146973,73200.0,9.48828125
2017-06-02,10.220000267028809,10.180000305175781,10.210000038146973,10.220000267028809,39300.0,9.497575759887695
2017-06-05,10.229999542236328,10.199999809265137,10.220000267028809,10.220000267028809,24000.0,9.497575759887695
2017-06-06,10.239999771118164,10.199999809265137,10.210000038146973,10.229999542236328,67100.0,9.506865501403809
2017-06-07,10.229999542236328,10.1899995803833,10.229999542236328,10.220000267028809,57600.0,9.497575759887695
2017-06-08,10.210000038146973,10.180000305175781,10.210000038146973,10.210000038146973,97900.0,9.48828125
2017-06-09,10.210000038146973,10.15999984741211,10.199999809265137,10.1899995803833,104500.0,9.469694137573242
2017-06-12,10.220000267028809,10.170000076293945,10.1899995803833,10.220000267028809,44300.0,9.497575759887695
2017-06-13,10.1899995803833,10.151000022888184,10.170000076293945,10.1899995803833,64700.0,9.469694137573242
2017-06-14,10.199999809265137,10.180000305175781,10.1899995803833,10.199999809265137,35900.0,9.478986740112305
2017-06-15,10.220000267028809,10.180000305175781,10.1899995803833,10.220000267028809,33300.0,9.497575759887695
2017-06-16,10.239999771118164,10.199999809265137,10.210000038146973,10.239999771118164,53300.0,9.516158103942871
2017-06-19,10.25,10.210000038146973,10.210000038146973,10.25,24200.0,9.525450706481934
2017-06-20,10.255000114440918,10.229999542236328,10.229999542236328,10.25,40100.0,9.525450706481934
2017-06-21,10.25,10.229999542236328,10.239999771118164,10.229999542236328,39900.0,9.506865501403809
2017-06-22,10.270000457763672,10.199999809265137,10.25,10.199999809265137,27900.0,9.478986740112305
2017-06-23,10.270000457763672,10.210000038146973,10.210000038146973,10.239999771118164,27100.0,9.516158103942871
2017-06-26,10.260000228881836,10.220000267028809,10.234999656677246,10.260000228881836,27600.0,9.534745216369629
2017-06-27,10.270000457763672,10.1899995803833,10.270000457763672,10.210000038146973,66300.0,9.48828125
2017-06-28,10.239999771118164,10.210000038146973,10.229999542236328,10.220000267028809,13900.0,9.497575759887695
2017-06-29,10.210000038146973,10.180000305175781,10.210000038146973,10.199999809265137,32700.0,9.478986740112305
2017-06-30,10.220000267028809,10.170000076293945,10.199999809265137,10.220000267028809,36000.0,9.497575759887695
2017-07-03,10.239999771118164,10.220000267028809,10.239999771118164,10.229999542236328,8900.0,9.506865501403809
2017-07-05,10.239999771118164,10.204000473022461,10.239999771118164,10.220000267028809,17700.0,9.497575759887695
2017-07-06,10.25,10.1899995803833,10.199999809265137,10.220000267028809,53100.0,9.497575759887695
2017-07-07,10.25,10.201000213623047,10.218999862670898,10.25,22800.0,9.525450706481934
2017-07-10,10.25,10.220000267028809,10.25,10.239999771118164,28600.0,9.516158103942871
2017-07-11,10.270000457763672,10.229999542236328,10.234000205993652,10.270000457763672,33700.0,9.544038772583008
2017-07-12,10.260000228881836,10.1899995803833,10.25,10.239999771118164,30900.0,9.516158103942871
2017-07-13,10.239999771118164,10.180000305175781,10.239999771118164,10.210000038146973,60600.0,9.48828125
2017-07-14,10.229999542236328,10.180000305175781,10.220000267028809,10.220000267028809,34200.0,9.497575759887695
2017-07-17,10.229999542236328,10.15999984741211,10.229999542236328,10.199999809265137,47800.0,9.478986740112305
2017-07-18,10.220000267028809,10.170000076293945,10.1899995803833,10.220000267028809,39600.0,9.497575759887695
2017-07-19,10.220000267028809,10.1899995803833,10.220000267028809,10.210000038146973,58900.0,9.48828125
2017-07-20,10.210000038146973,10.170000076293945,10.210000038146973,10.210000038146973,38100.0,9.48828125
2017-07-21,10.210000038146973,10.1899995803833,10.210000038146973,10.210000038146973,23000.0,9.48828125
2017-07-24,10.220000267028809,10.1899995803833,10.199999809265137,10.220000267028809,50900.0,9.497575759887695
2017-07-25,10.229999542236328,10.170000076293945,10.210000038146973,10.199999809265137,43000.0,9.478986740112305
2017-07-26,10.220000267028809,10.180000305175781,10.199999809265137,10.220000267028809,31700.0,9.497575759887695
2017-07-27,10.25,10.1899995803833,10.210000038146973,10.239999771118164,76600.0,9.516158103942871
2017-07-28,10.270000457763672,10.199999809265137,10.222999572753906,10.270000457763672,39800.0,9.544038772583008
2017-07-31,10.300000190734863,10.255999565124512,10.255999565124512,10.279999732971191,32900.0,9.55333137512207
2017-08-01,10.300000190734863,10.25,10.300000190734863,10.260000228881836,14600.0,9.534745216369629
2017-08-02,10.300000190734863,10.239999771118164,10.260000228881836,10.25,50500.0,9.525450706481934
2017-08-03,10.300000190734863,10.229999542236328,10.25,10.229999542236328,40500.0,9.506865501403809
2017-08-04,10.359999656677246,10.229999542236328,10.229999542236328,10.289999961853027,69100.0,9.562623977661133
2017-08-07,10.350000381469727,10.289999961853027,10.350000381469727,10.300000190734863,34100.0,9.571919441223145
2017-08-08,10.34000015258789,10.220000267028809,10.34000015258789,10.25,65700.0,9.525450706481934
2017-08-09,10.237000465393066,10.199999809265137,10.210000038146973,10.220000267028809,62300.0,9.497575759887695
2017-08-10,10.220000267028809,10.170000076293945,10.220000267028809,10.210000038146973,49900.0,9.48828125
2017-08-11,10.220000267028809,10.149999618530273,10.149999618530273,10.1899995803833,62000.0,9.469694137573242
2017-08-14,10.239999771118164,10.1899995803833,10.1899995803833,10.239999771118164,29900.0,9.516158103942871
2017-08-15,10.239999771118164,10.199999809265137,10.210000038146973,10.229999542236328,27100.0,9.506865501403809
2017-08-16,10.270000457763672,10.210000038146973,10.210000038146973,10.260000228881836,18700.0,9.534745216369629
2017-08-17,10.239999771118164,10.180000305175781,10.225000381469727,10.210000038146973,43000.0,9.48828125
2017-08-18,10.270000457763672,10.1899995803833,10.1899995803833,10.229999542236328,54600.0,9.506865501403809
2017-08-21,10.270000457763672,10.1899995803833,10.229999542236328,10.210000038146973,48400.0,9.48828125
2017-08-22,10.270000457763672,10.1899995803833,10.210000038146973,10.270000457763672,42500.0,9.544038772583008
2017-08-23,10.270000457763672,10.220000267028809,10.258999824523926,10.220000267028809,10500.0,9.497575759887695
2017-08-24,10.279999732971191,10.199999809265137,10.279999732971191,10.229999542236328,82800.0,9.506865501403809
2017-08-25,10.270000457763672,10.220000267028809,10.220000267028809,10.239999771118164,37600.0,9.516158103942871
2017-08-28,10.239999771118164,10.199999809265137,10.229999542236328,10.229999542236328,40500.0,9.506865501403809
2017-08-29,10.239999771118164,10.210000038146973,10.239999771118164,10.220000267028809,30900.0,9.497575759887695
2017-08-30,10.270000457763672,10.210000038146973,10.223999977111816,10.270000457763672,37700.0,9.544038772583008
2017-08-31,10.260000228881836,10.229999542236328,10.260000228881836,10.239999771118164,30200.0,9.516158103942871
2017-09-01,10.279999732971191,10.239999771118164,10.279999732971191,10.260000228881836,28100.0,9.534745216369629
2017-09-05,10.279999732971191,10.210000038146973,10.270000457763672,10.279999732971191,25400.0,9.55333137512207
2017-09-06,10.300000190734863,10.220000267028809,10.25,10.300000190734863,39400.0,9.571919441223145
2017-09-07,10.300000190734863,10.220000267028809,10.289999961853027,10.239999771118164,60300.0,9.516158103942871
2017-09-08,10.25,10.149999618530273,10.25,10.199999809265137,72200.0,9.478986740112305
2017-09-11,10.229999542236328,10.170000076293945,10.211999893188477,10.199999809265137,31300.0,9.478986740112305
2017-09-12,10.210000038146973,10.149999618530273,10.199999809265137,10.180000305175781,34000.0,9.46040153503418
2017-09-13,10.199999809265137,10.149999618530273,10.1899995803833,10.170000076293945,29900.0,9.451107025146484
2017-09-14,10.149999618530273,10.050000190734863,10.149999618530273,10.100000381469727,146700.0,9.386054992675781
2017-09-15,10.130000114440918,10.100000381469727,10.100000381469727,10.130000114440918,37700.0,9.413932800292969
2017-09-18,10.170000076293945,10.119999885559082,10.13599967956543,10.15999984741211,45000.0,9.441815376281738
2017-09-19,10.161999702453613,10.119999885559082,10.15999984741211,10.149999618530273,83000.0,9.432519912719727
2017-09-20,10.170000076293945,10.119999885559082,10.140000343322754,10.149999618530273,47700.0,9.432519912719727
2017-09-21,10.149999618530273,10.119999885559082,10.149999618530273,10.140000343322754,47000.0,9.423226356506348
2017-09-22,10.149999618530273,10.100000381469727,10.14799976348877,10.149999618530273,139500.0,9.432519912719727
2017-09-25,10.15999984741211,10.119999885559082,10.142999649047852,10.149999618530273,44600.0,9.432519912719727
2017-09-26,10.15999984741211,10.100000381469727,10.130000114440918,10.140000343322754,104400.0,9.423226356506348
2017-09-27,10.130000114440918,10.069999694824219,10.119999885559082,10.109999656677246,74300.0,9.39534854888916
2017-09-28,10.130000114440918,10.079999923706055,10.109999656677246,10.119999885559082,111700.0,9.404644012451172
2017-09-29,10.119999885559082,10.069999694824219,10.069999694824219,10.119999885559082,78800.0,9.404644012451172
2017-10-02,10.140000343322754,10.109999656677246,10.119999885559082,10.130000114440918,53200.0,9.413932800292969
2017-10-03,10.140000343322754,10.109999656677246,10.130000114440918,10.130000114440918,130000.0,9.413932800292969
2017-10-04,10.140000343322754,10.109999656677246,10.130000114440918,10.130000114440918,51500.0,9.413932800292969
2017-10-05,10.140000343322754,10.100000381469727,10.130000114440918,10.119999885559082,52600.0,9.404644012451172
2017-10-06,10.130000114440918,10.100000381469727,10.109999656677246,10.130000114440918,61900.0,9.413932800292969
2017-10-09,10.130000114440918,10.109999656677246,10.109999656677246,10.130000114440918,18500.0,9.413932800292969
2017-10-10,10.130000114440918,10.079999923706055,10.130000114440918,10.109999656677246,79600.0,9.39534854888916
2017-10-11,10.119999885559082,10.079999923706055,10.100000381469727,10.100000381469727,90800.0,9.386054992675781
2017-10-12,10.069999694824219,10.029999732971191,10.0600004196167,10.0600004196167,94100.0,9.348884582519531
2017-10-13,10.0649995803833,10.039999961853027,10.0600004196167,10.0600004196167,116800.0,9.348884582519531
2017-10-16,10.0600004196167,10.039999961853027,10.0600004196167,10.0600004196167,97100.0,9.348884582519531
2017-10-17,10.0600004196167,10.039999961853027,10.053000450134277,10.0600004196167,60800.0,9.348884582519531
2017-10-18,10.0600004196167,10.029999732971191,10.050000190734863,10.050000190734863,63200.0,9.339591026306152
2017-10-19,10.050000190734863,10.029999732971191,10.039999961853027,10.039999961853027,40000.0,9.330297470092773
2017-10-20,10.09000015258789,10.020000457763672,10.039999961853027,10.09000015258789,127200.0,9.376761436462402
2017-10-23,10.100000381469727,10.050000190734863,10.079999923706055,10.100000381469727,68200.0,9.386054992675781
2017-10-24,10.100000381469727,10.069999694824219,10.09000015258789,10.079999923706055,52000.0,9.367469787597656
2017-10-25,10.085000038146973,10.050000190734863,10.069999694824219,10.079999923706055,34000.0,9.367469787597656
2017-10-26,10.069999694824219,10.020000457763672,10.069999694824219,10.050000190734863,100300.0,9.339591026306152
2017-10-27,10.050000190734863,10.029999732971191,10.029999732971191,10.050000190734863,76200.0,9.339591026306152
2017-10-30,10.050000190734863,10.029999732971191,10.050000190734863,10.039999961853027,57700.0,9.330297470092773
2017-10-31,10.079999923706055,10.041000366210938,10.050000190734863,10.079999923706055,156900.0,9.367469787597656
2017-11-01,10.100000381469727,10.069999694824219,10.09000015258789,10.079999923706055,36700.0,9.367469787597656
2017-11-02,10.100000381469727,10.0600004196167,10.079999923706055,10.100000381469727,41600.0,9.386054992675781
2017-11-03,10.128999710083008,10.079999923706055,10.079999923706055,10.09000015258789,70400.0,9.376761436462402
2017-11-06,10.11299991607666,10.079999923706055,10.100000381469727,10.109999656677246,24800.0,9.39534854888916
2017-11-07,10.109999656677246,10.079999923706055,10.09000015258789,10.100000381469727,47400.0,9.386054992675781
2017-11-08,10.104000091552734,10.069999694824219,10.100000381469727,10.079999923706055,33900.0,9.367469787597656
2017-11-09,10.079999923706055,10.050000190734863,10.079999923706055,10.079999923706055,40300.0,9.367469787597656
2017-11-10,10.079999923706055,10.050000190734863,10.079999923706055,10.079999923706055,30000.0,9.367469787597656
2017-11-13,10.069999694824219,10.050000190734863,10.069999694824219,10.069999694824219,54200.0,9.358175277709961
2017-11-14,10.0600004196167,10.010000228881836,10.039999961853027,10.029999732971191,68400.0,9.321003913879395
2017-11-15,10.029999732971191,9.989999771118164,10.029999732971191,10.010000228881836,65700.0,9.302416801452637
2017-11-16,10.020000457763672,9.970000267028809,10.020000457763672,9.979999542236328,72800.0,9.274537086486816
2017-11-17,10.0,9.979999542236328,9.979999542236328,9.989999771118164,58000.0,9.283834457397461
2017-11-20,9.991999626159668,9.970000267028809,9.980999946594238,9.979999542236328,58500.0,9.274537086486816
2017-11-21,10.005000114440918,9.979999542236328,9.989999771118164,9.989999771118164,55100.0,9.283834457397461
2017-11-22,9.989999771118164,9.949999809265137,9.989999771118164,9.970000267028809,58500.0,9.265246391296387
2017-11-24,10.020000457763672,9.961999893188477,9.961999893188477,10.020000457763672,21600.0,9.311711311340332
2017-11-27,10.039999961853027,9.970000267028809,10.020000457763672,10.039999961853027,64100.0,9.330297470092773
2017-11-28,10.069999694824219,10.0,10.039999961853027,10.029999732971191,48800.0,9.321003913879395
2017-11-29,10.069999694824219,10.010000228881836,10.0600004196167,10.020000457763672,31400.0,9.311711311340332
2017-11-30,10.09000015258789,10.010000228881836,10.010000228881836,10.09000015258789,46500.0,9.376761436462402
2017-12-01,10.119999885559082,10.071999549865723,10.100000381469727,10.119999885559082,43200.0,9.404644012451172
2017-12-04,10.119999885559082,10.0600004196167,10.119999885559082,10.069999694824219,30200.0,9.358175277709961
2017-12-05,10.09000015258789,10.020000457763672,10.050000190734863,10.050000190734863,52400.0,9.339591026306152
2017-12-06,10.050000190734863,10.010000228881836,10.039999961853027,10.029999732971191,43000.0,9.321003913879395
2017-12-07,10.050000190734863,9.970000267028809,10.039999961853027,10.0,55700.0,9.293121337890625
2017-12-08,10.024999618530273,9.979999542236328,9.979999542236328,10.0,31400.0,9.293121337890625
2017-12-11,10.050000190734863,9.989999771118164,9.989999771118164,10.050000190734863,41500.0,9.339591026306152
2017-12-12,10.050000190734863,9.989999771118164,10.010000228881836,10.020000457763672,48100.0,9.311711311340332
2017-12-13,10.050000190734863,10.029999732971191,10.039999961853027,10.039999961853027,36500.0,9.330297470092773
2017-12-14,10.050000190734863,10.0,10.050000190734863,10.010000228881836,52400.0,9.341495513916016
2017-12-15,10.029999732971191,9.989999771118164,9.991999626159668,10.029999732971191,28000.0,9.360158920288086
2017-12-18,10.029999732971191,10.0,10.029999732971191,10.020000457763672,15500.0,9.350830078125
2017-12-19,10.027000427246094,9.979999542236328,9.989999771118164,9.989999771118164,33600.0,9.322831153869629
2017-12-20,10.029999732971191,9.979999542236328,10.029999732971191,10.020000457763672,25800.0,9.350830078125
2017-12-21,10.039999961853027,10.001999855041504,10.020000457763672,10.039999961853027,50500.0,9.36949348449707
2017-12-22,10.039999961853027,9.989999771118164,10.039999961853027,9.989999771118164,32600.0,9.322831153869629
2017-12-26,10.039999961853027,9.975000381469727,9.975000381469727,10.029999732971191,31200.0,9.391180038452148
2017-12-27,10.020000457763672,9.960000038146973,10.020000457763672,9.989999771118164,38700.0,9.353731155395508
2017-12-28,10.0,9.970000267028809,10.0,9.989999771118164,54600.0,9.353731155395508
2017-12-29,10.020000457763672,9.970000267028809,10.020000457763672,10.020000457763672,52200.0,9.381818771362305
2018-01-02,10.020000457763672,9.987000465393066,10.020000457763672,10.0,42100.0,9.363092422485352
2018-01-03,10.020000457763672,10.0,10.010000228881836,10.0,51100.0,9.363092422485352
2018-01-04,10.0,9.960000038146973,10.0,9.979999542236328,55000.0,9.344365119934082
2018-01-05,9.989999771118164,9.960000038146973,9.970000267028809,9.989999771118164,33600.0,9.353731155395508
2018-01-08,9.989999771118164,9.949999809265137,9.989999771118164,9.989999771118164,39100.0,9.353731155395508
2018-01-09,9.989999771118164,9.899999618530273,9.979999542236328,9.90999984741211,104600.0,9.278824806213379
2018-01-10,9.9399995803833,9.899999618530273,9.90999984741211,9.9399995803833,52100.0,9.306912422180176
2018-01-11,9.949999809265137,9.90999984741211,9.925000190734863,9.949999809265137,45700.0,9.35580825805664
2018-01-12,9.989999771118164,9.930000305175781,9.930000305175781,9.970000267028809,20400.0,9.374615669250488
2018-01-16,10.0,9.890000343322754,10.0,9.930000305175781,62900.0,9.33700180053711
2018-01-17,9.949999809265137,9.899999618530273,9.949999809265137,9.9399995803833,28400.0,9.346405982971191
2018-01-18,9.989999771118164,9.949999809265137,9.949999809265137,9.989999771118164,29900.0,9.393421173095703
2018-01-19,10.0,9.954999923706055,9.960000038146973,10.0,26400.0,9.402823448181152
2018-01-22,10.0,9.949999809265137,9.949999809265137,10.0,39400.0,9.402823448181152
2018-01-23,9.97700023651123,9.920000076293945,9.965999603271484,9.949999809265137,40300.0,9.35580825805664
2018-01-24,9.972000122070312,9.869000434875488,9.949999809265137,9.90999984741211,159500.0,9.318198204040527
2018-01-25,9.930000305175781,9.869999885559082,9.899999618530273,9.930000305175781,50600.0,9.33700180053711
2018-01-26,9.949999809265137,9.880000114440918,9.930000305175781,9.949999809265137,64400.0,9.35580825805664
2018-01-29,9.949999809265137,9.880000114440918,9.9399995803833,9.920000076293945,50700.0,9.327601432800293
2018-01-30,9.930000305175781,9.859999656677246,9.918000221252441,9.930000305175781,60500.0,9.33700180053711
2018-01-31,9.928000450134277,9.84000015258789,9.928000450134277,9.899999618530273,55500.0,9.308794975280762
2018-02-01,9.90999984741211,9.850000381469727,9.869999885559082,9.90999984741211,40400.0,9.318198204040527
2018-02-02,9.90999984741211,9.829999923706055,9.90999984741211,9.890000343322754,38300.0,9.299392700195312
2018-02-05,9.890000343322754,9.770000457763672,9.880000114440918,9.890000343322754,56800.0,9.299392700195312
2018-02-06,10.0,9.770000457763672,9.829999923706055,10.0,142200.0,9.402823448181152
2018-02-07,9.958999633789062,9.850000381469727,9.958999633789062,9.930000305175781,20100.0,9.33700180053711
2018-02-08,9.920000076293945,9.779999732971191,9.880000114440918,9.859999656677246,62100.0,9.271183013916016
2018-02-09,9.890000343322754,9.8100004196167,9.859999656677246,9.859999656677246,71600.0,9.271183013916016
2018-02-12,9.880000114440918,9.8149995803833,9.880000114440918,9.850000381469727,70100.0,9.26177978515625
2018-02-13,9.850000381469727,9.800000190734863,9.850000381469727,9.850000381469727,53700.0,9.26177978515625
2018-02-14,9.819999694824219,9.75,9.8100004196167,9.800000190734863,123000.0,9.25422477722168
2018-02-15,9.84000015258789,9.779999732971191,9.779999732971191,9.84000015258789,49800.0,9.291999816894531
2018-02-16,9.880000114440918,9.800000190734863,9.880000114440918,9.829999923706055,52700.0,9.282553672790527
2018-02-20,9.819999694824219,9.779999732971191,9.817000389099121,9.789999961853027,63500.0,9.244783401489258
2018-02-21,9.789999961853027,9.75,9.779999732971191,9.770000457763672,148900.0,9.225896835327148
2018-02-22,9.791000366210938,9.769000053405762,9.779999732971191,9.779999732971191,79900.0,9.235339164733887
2018-02-23,9.789999961853027,9.75,9.779999732971191,9.760000228881836,87100.0,9.216453552246094
2018-02-26,9.789999961853027,9.75,9.760000228881836,9.75,68100.0,9.207009315490723
2018-02-27,9.760000228881836,9.720000267028809,9.760000228881836,9.760000228881836,138700.0,9.216453552246094
2018-02-28,9.770000457763672,9.729999542236328,9.739999771118164,9.760000228881836,110400.0,9.216453552246094
2018-03-01,9.800000190734863,9.760000228881836,9.770000457763672,9.779999732971191,66700.0,9.235339164733887
2018-03-02,9.798999786376953,9.770000457763672,9.779999732971191,9.789999961853027,47900.0,9.244783401489258
2018-03-05,9.829999923706055,9.800000190734863,9.800000190734863,9.8100004196167,36400.0,9.263669967651367
2018-03-06,9.84000015258789,9.760000228881836,9.8100004196167,9.819999694824219,87800.0,9.273112297058105
2018-03-07,9.859999656677246,9.819999694824219,9.85200023651123,9.84000015258789,23700.0,9.291999816894531
2018-03-08,9.890000343322754,9.829999923706055,9.84000015258789,9.869999885559082,49100.0,9.320328712463379
2018-03-09,9.869999885559082,9.819999694824219,9.859999656677246,9.869999885559082,28200.0,9.320328712463379
2018-03-12,9.871000289916992,9.831000328063965,9.850000381469727,9.869999885559082,35700.0,9.320328712463379
2018-03-13,9.899999618530273,9.850000381469727,9.899999618530273,9.880000114440918,35100.0,9.329771041870117
2018-03-14,9.9399995803833,9.857000350952148,9.859000205993652,9.9399995803833,53500.0,9.42266845703125
2018-03-15,9.90999984741211,9.871000289916992,9.90999984741211,9.890000343322754,19900.0,9.375271797180176
2018-03-16,9.890000343322754,9.82800006866455,9.890000343322754,9.84000015258789,61700.0,9.327876091003418
2018-03-19,9.86299991607666,9.770000457763672,9.86299991607666,9.789999961853027,56900.0,9.280478477478027
2018-03-20,9.880000114440918,9.779999732971191,9.779999732971191,9.859999656677246,98400.0,9.346833229064941
2018-03-21,9.890000343322754,9.829999923706055,9.829999923706055,9.869999885559082,27300.0,9.356313705444336
2018-03-22,9.86400032043457,9.779999732971191,9.84000015258789,9.789999961853027,14600.0,9.280478477478027
2018-03-23,9.850000381469727,9.800000190734863,9.8100004196167,9.850000381469727,23100.0,9.33735466003418
2018-03-26,9.859999656677246,9.789999961853027,9.859999656677246,9.859999656677246,55700.0,9.346833229064941
2018-03-27,9.850000381469727,9.802000045776367,9.850000381469727,9.84000015258789,32000.0,9.327876091003418
2018-03-28,9.850000381469727,9.800000190734863,9.850000381469727,9.84000015258789,38100.0,9.327876091003418
2018-03-29,9.850000381469727,9.8100004196167,9.814000129699707,9.850000381469727,29600.0,9.33735466003418
2018-04-02,9.859999656677246,9.8100004196167,9.859999656677246,9.819999694824219,21300.0,9.308917045593262
2018-04-03,9.859999656677246,9.829999923706055,9.850000381469727,9.850000381469727,47800.0,9.33735466003418
2018-04-04,9.850000381469727,9.779999732971191,9.829999923706055,9.829999923706055,46800.0,9.318394660949707
2018-04-05,9.814000129699707,9.770000457763672,9.800000190734863,9.789999961853027,48100.0,9.280478477478027
2018-04-06,9.819999694824219,9.760000228881836,9.800000190734863,9.800000190734863,68700.0,9.28995418548584
2018-04-09,9.829999923706055,9.779999732971191,9.800000190734863,9.793999671936035,47900.0,9.284269332885742
2018-04-10,9.829999923706055,9.765000343322754,9.800000190734863,9.8100004196167,46400.0,9.299436569213867
2018-04-11,9.819999694824219,9.769000053405762,9.812000274658203,9.800000190734863,80200.0,9.28995418548584
2018-04-12,9.819999694824219,9.779999732971191,9.779999732971191,9.8100004196167,33700.0,9.335636138916016
2018-04-13,9.850000381469727,9.800000190734863,9.84000015258789,9.8100004196167,35700.0,9.335636138916016
2018-04-16,9.84000015258789,9.800000190734863,9.8100004196167,9.800000190734863,45200.0,9.326117515563965
2018-04-17,9.859999656677246,9.800000190734863,9.8100004196167,9.84000015258789,55700.0,9.364185333251953
2018-04-18,9.859999656677246,9.800000190734863,9.859999656677246,9.829000473022461,55800.0,9.353715896606445
2018-04-19,9.869999885559082,9.819999694824219,9.859999656677246,9.859999656677246,51900.0,9.383217811584473
2018-04-20,9.843000411987305,9.8100004196167,9.829999923706055,9.84000015258789,20400.0,9.364185333251953
2018-04-23,9.84000015258789,9.8100004196167,9.829999923706055,9.8100004196167,19600.0,9.335636138916016
2018-04-24,9.869999885559082,9.800000190734863,9.8100004196167,9.819999694824219,33700.0,9.34515380859375
2018-04-25,9.819999694824219,9.800000190734863,9.805999755859375,9.819999694824219,46300.0,9.34515380859375
2018-04-26,9.850000381469727,9.800000190734863,9.8149995803833,9.850000381469727,63700.0,9.373702049255371
2018-04-27,9.83899974822998,9.800000190734863,9.8100004196167,9.8100004196167,49400.0,9.335636138916016
2018-04-30,9.850000381469727,9.795000076293945,9.810999870300293,9.84000015258789,66700.0,9.364185333251953
2018-05-01,9.890000343322754,9.845999717712402,9.850000381469727,9.880000114440918,50900.0,9.402251243591309
2018-05-02,9.899999618530273,9.850000381469727,9.899999618530273,9.859999656677246,32000.0,9.383217811584473
2018-05-03,9.862000465393066,9.84000015258789,9.862000465393066,9.84000015258789,56800.0,9.364185333251953
2018-05-04,9.850000381469727,9.819999694824219,9.84000015258789,9.826000213623047,44000.0,9.350861549377441
2018-05-07,9.84000015258789,9.8100004196167,9.819999694824219,9.829999923706055,42700.0,9.354668617248535
2018-05-08,9.850000381469727,9.789999961853027,9.850000381469727,9.84000015258789,47000.0,9.364185333251953
2018-05-09,9.869999885559082,9.819999694824219,9.847000122070312,9.84000015258789,33900.0,9.364185333251953
2018-05-10,9.869999885559082,9.829999923706055,9.831000328063965,9.859999656677246,34100.0,9.383217811584473
2018-05-11,9.869999885559082,9.800000190734863,9.869999885559082,9.819999694824219,46900.0,9.34515380859375
2018-05-14,9.824000358581543,9.789999961853027,9.800000190734863,9.800000190734863,35700.0,9.362347602844238
2018-05-15,9.829999923706055,9.779999732971191,9.8100004196167,9.789999961853027,54900.0,9.35279369354248
2018-05-16,9.829999923706055,9.793000221252441,9.800000190734863,9.8100004196167,29100.0,9.371902465820312
2018-05-17,9.859999656677246,9.800000190734863,9.829999923706055,9.84000015258789,38600.0,9.400562286376953
2018-05-18,9.850000381469727,9.82699966430664,9.850000381469727,9.829999923706055,62600.0,9.391008377075195
2018-05-21,9.84000015258789,9.829999923706055,9.829999923706055,9.836999893188477,13100.0,9.397696495056152
2018-05-22,9.850000381469727,9.819999694824219,9.833000183105469,9.84000015258789,33900.0,9.400562286376953
2018-05-23,9.859999656677246,9.819999694824219,9.835000038146973,9.859999656677246,59600.0,9.419668197631836
2018-05-24,9.859999656677246,9.829999923706055,9.850000381469727,9.836999893188477,30600.0,9.397696495056152
2018-05-25,9.899999618530273,9.829999923706055,9.829999923706055,9.84000015258789,39200.0,9.400562286376953
2018-05-29,9.880000114440918,9.829999923706055,9.84000015258789,9.84000015258789,35700.0,9.400562286376953
2018-05-30,9.880000114440918,9.819999694824219,9.829999923706055,9.880000114440918,48900.0,9.438776016235352
2018-05-31,9.869999885559082,9.829999923706055,9.85099983215332,9.843000411987305,59300.0,9.40342903137207
2018-06-01,9.880000114440918,9.819999694824219,9.880000114440918,9.819999694824219,39000.0,9.381454467773438
2018-06-04,9.859999656677246,9.819999694824219,9.859999656677246,9.84000015258789,43600.0,9.400562286376953
2018-06-05,9.850000381469727,9.829999923706055,9.829999923706055,9.850000381469727,35100.0,9.410116195678711
2018-06-06,9.850000381469727,9.829999923706055,9.829999923706055,9.829999923706055,48500.0,9.391008377075195
2018-06-07,9.850000381469727,9.789999961853027,9.829999923706055,9.800000190734863,67900.0,9.362347602844238
2018-06-08,9.819999694824219,9.789999961853027,9.809000015258789,9.819999694824219,34100.0,9.381454467773438
2018-06-11,9.819999694824219,9.789999961853027,9.800000190734863,9.8100004196167,35100.0,9.371902465820312
2018-06-12,9.850000381469727,9.8100004196167,9.8100004196167,9.819999694824219,41300.0,9.381454467773438
2018-06-13,9.822999954223633,9.8100004196167,9.821000099182129,9.819999694824219,42600.0,9.381454467773438
2018-06-14,9.850000381469727,9.789999961853027,9.8100004196167,9.819999694824219,53100.0,9.41501235961914
2018-06-15,9.850000381469727,9.829999923706055,9.850000381469727,9.845000267028809,20700.0,9.438980102539062
2018-06-18,9.84000015258789,9.795000076293945,9.82699966430664,9.819000244140625,40900.0,9.414053916931152
2018-06-19,9.880000114440918,9.770000457763672,9.880000114440918,9.800000190734863,90500.0,9.395835876464844
2018-06-20,9.850000381469727,9.779999732971191,9.800000190734863,9.829999923706055,34800.0,9.42459774017334
2018-06-21,9.850000381469727,9.800000190734863,9.8100004196167,9.850000381469727,31100.0,9.443775177001953
2018-06-22,9.880000114440918,9.819999694824219,9.859999656677246,9.854999542236328,34400.0,9.448569297790527
2018-06-25,9.850000381469727,9.789999961853027,9.829999923706055,9.789999961853027,127600.0,9.386249542236328
2018-06-26,9.819999694824219,9.789999961853027,9.8100004196167,9.789999961853027,48300.0,9.386249542236328
2018-06-27,9.829999923706055,9.8100004196167,9.8100004196167,9.829999923706055,30400.0,9.42459774017334
2018-06-28,9.852999687194824,9.8100004196167,9.84000015258789,9.819999694824219,22200.0,9.41501235961914
2018-06-29,9.859999656677246,9.8100004196167,9.859999656677246,9.829999923706055,30900.0,9.42459774017334
2018-07-02,9.859999656677246,9.817000389099121,9.859999656677246,9.84000015258789,36500.0,9.434185981750488
2018-07-03,9.859999656677246,9.84000015258789,9.850000381469727,9.850000381469727,11200.0,9.443775177001953
2018-07-05,9.880000114440918,9.800000190734863,9.859999656677246,9.829999923706055,54500.0,9.42459774017334
2018-07-06,9.84000015258789,9.800000190734863,9.819999694824219,9.829999923706055,29900.0,9.42459774017334
2018-07-09,9.850000381469727,9.8100004196167,9.829000473022461,9.8149995803833,29500.0,9.410219192504883
2018-07-10,9.869999885559082,9.8100004196167,9.819999694824219,9.829999923706055,81100.0,9.42459774017334
2018-07-11,9.84000015258789,9.8100004196167,9.826000213623047,9.821999549865723,28000.0,9.416929244995117
2018-07-12,9.880000114440918,9.8100004196167,9.8100004196167,9.829999923706055,85500.0,9.458303451538086
2018-07-13,9.850000381469727,9.821999549865723,9.829999923706055,9.829999923706055,27700.0,9.458303451538086
2018-07-16,9.859999656677246,9.819999694824219,9.84000015258789,9.819999694824219,39400.0,9.448680877685547
2018-07-17,9.869999885559082,9.819999694824219,9.819999694824219,9.859999656677246,74500.0,9.48716926574707
2018-07-18,9.850000381469727,9.800000190734863,9.829999923706055,9.819999694824219,92300.0,9.448680877685547
2018-07-19,9.84000015258789,9.8100004196167,9.829999923706055,9.84000015258789,56400.0,9.467925071716309
2018-07-20,9.850000381469727,9.819999694824219,9.819999694824219,9.829000473022461,41200.0,9.457340240478516
2018-07-23,9.850000381469727,9.819999694824219,9.819999694824219,9.829999923706055,130000.0,9.458303451538086
2018-07-24,9.84000015258789,9.819999694824219,9.84000015258789,9.819999694824219,91300.0,9.448680877685547
2018-07-25,9.84000015258789,9.819999694824219,9.84000015258789,9.829999923706055,60300.0,9.458303451538086
2018-07-26,9.84000015258789,9.819999694824219,9.84000015258789,9.829999923706055,58500.0,9.458303451538086
2018-07-27,9.850000381469727,9.819999694824219,9.829999923706055,9.84000015258789,105900.0,9.467925071716309
2018-07-30,9.850000381469727,9.829999923706055,9.829999923706055,9.829999923706055,87400.0,9.458303451538086
2018-07-31,9.850000381469727,9.829999923706055,9.829999923706055,9.829999923706055,64300.0,9.458303451538086
2018-08-01,9.880000114440918,9.84000015258789,9.850000381469727,9.85099983215332,66500.0,9.478508949279785
2018-08-02,9.864999771118164,9.84000015258789,9.86299991607666,9.850000381469727,27000.0,9.477546691894531
2018-08-03,9.880000114440918,9.84000015258789,9.850000381469727,9.850000381469727,51800.0,9.477546691894531
2018-08-06,9.850000381469727,9.829999923706055,9.84000015258789,9.84000015258789,54200.0,9.467925071716309
2018-08-07,9.859999656677246,9.829999923706055,9.850000381469727,9.859999656677246,55200.0,9.48716926574707
2018-08-08,9.859999656677246,9.84000015258789,9.84000015258789,9.850000381469727,58900.0,9.477546691894531
2018-08-09,9.859999656677246,9.84000015258789,9.850000381469727,9.850000381469727,58600.0,9.477546691894531
2018-08-10,9.850000381469727,9.829999923706055,9.850000381469727,9.850000381469727,34500.0,9.477546691894531
2018-08-13,9.850000381469727,9.829999923706055,9.850000381469727,9.850000381469727,82800.0,9.477546691894531
2018-08-14,9.829999923706055,9.8100004196167,9.819999694824219,9.819999694824219,91800.0,9.482376098632812
2018-08-15,9.850000381469727,9.819999694824219,9.819999694824219,9.84000015258789,61300.0,9.501688957214355
2018-08-16,9.850000381469727,9.822999954223633,9.829999923706055,9.829999923706055,54300.0,9.49203109741211
2018-08-17,9.847000122070312,9.829999923706055,9.829999923706055,9.829999923706055,41200.0,9.49203109741211
2018-08-20,9.850000381469727,9.829999923706055,9.850000381469727,9.84000015258789,43900.0,9.501688957214355
2018-08-21,9.850000381469727,9.819999694824219,9.829999923706055,9.850000381469727,93800.0,9.511345863342285
2018-08-22,9.850000381469727,9.819999694824219,9.850000381469727,9.829999923706055,69700.0,9.49203109741211
2018-08-23,9.850000381469727,9.819999694824219,9.829999923706055,9.829999923706055,39000.0,9.49203109741211
2018-08-24,9.859999656677246,9.829999923706055,9.848999977111816,9.850000381469727,40600.0,9.511345863342285
2018-08-27,9.859999656677246,9.84000015258789,9.845999717712402,9.850000381469727,46900.0,9.511345863342285
2018-08-28,9.869999885559082,9.850000381469727,9.859999656677246,9.861000061035156,52500.0,9.521965980529785
2018-08-29,9.869999885559082,9.850000381469727,9.869999885559082,9.859999656677246,29700.0,9.520998001098633
2018-08-30,9.878000259399414,9.84000015258789,9.850000381469727,9.84000015258789,44400.0,9.501688957214355
2018-08-31,9.850000381469727,9.84000015258789,9.84000015258789,9.850000381469727,29200.0,9.511345863342285
2018-09-04,9.859999656677246,9.84000015258789,9.859999656677246,9.850000381469727,37000.0,9.511345863342285
2018-09-05,9.859999656677246,9.829999923706055,9.850000381469727,9.850000381469727,45200.0,9.511345863342285
2018-09-06,9.859999656677246,9.84000015258789,9.859999656677246,9.850000381469727,51000.0,9.511345863342285
2018-09-07,9.869999885559082,9.84000015258789,9.859999656677246,9.850000381469727,22000.0,9.511345863342285
2018-09-10,9.859999656677246,9.84000015258789,9.850000381469727,9.850000381469727,34800.0,9.511345863342285
2018-09-11,9.869999885559082,9.84000015258789,9.854999542236328,9.850000381469727,66700.0,9.511345863342285
2018-09-12,9.880000114440918,9.850000381469727,9.850000381469727,9.850000381469727,44200.0,9.511345863342285
2018-09-13,9.84000015258789,9.819999694824219,9.829999923706055,9.833999633789062,44300.0,9.529754638671875
2018-09-14,9.871000289916992,9.819999694824219,9.829999923706055,9.871000289916992,44800.0,9.565611839294434
2018-09-17,9.869999885559082,9.829999923706055,9.869999885559082,9.829999923706055,64800.0,9.525879859924316
2018-09-18,9.84000015258789,9.819999694824219,9.84000015258789,9.84000015258789,25100.0,9.535571098327637
2018-09-19,9.859999656677246,9.84000015258789,9.850000381469727,9.850000381469727,38200.0,9.545262336730957
2018-09-20,9.859999656677246,9.84000015258789,9.859999656677246,9.84000015258789,52600.0,9.535571098327637
2018-09-21,9.850000381469727,9.84000015258789,9.850000381469727,9.84000015258789,18000.0,9.535571098327637
2018-09-24,9.890000343322754,9.84000015258789,9.845999717712402,9.864999771118164,80000.0,9.559796333312988
2018-09-25,9.880000114440918,9.859999656677246,9.859999656677246,9.869999885559082,40400.0,9.564640998840332
2018-09-26,9.880000114440918,9.84000015258789,9.880000114440918,9.84000015258789,45800.0,9.535571098327637
2018-09-27,9.869999885559082,9.84000015258789,9.869999885559082,9.850000381469727,35500.0,9.545262336730957
2018-09-28,9.859999656677246,9.84000015258789,9.84000015258789,9.859999656677246,42000.0,9.554949760437012
2018-10-01,9.859999656677246,9.850000381469727,9.859999656677246,9.85099983215332,34600.0,9.546229362487793
2018-10-02,9.859999656677246,9.84000015258789,9.850000381469727,9.859999656677246,36000.0,9.554949760437012
2018-10-03,9.869999885559082,9.859999656677246,9.869999885559082,9.869999885559082,26800.0,9.564640998840332
2018-10-04,9.869999885559082,9.829999923706055,9.859999656677246,9.859999656677246,91400.0,9.554949760437012
2018-10-05,9.869999885559082,9.850000381469727,9.859999656677246,9.869999885559082,48900.0,9.564640998840332
2018-10-08,9.890000343322754,9.859999656677246,9.869999885559082,9.890000343322754,33900.0,9.584022521972656
2018-10-09,9.895999908447266,9.859999656677246,9.869999885559082,9.869999885559082,37300.0,9.564640998840332
2018-10-10,9.90999984741211,9.859999656677246,9.869999885559082,9.90999984741211,98100.0,9.603403091430664
2018-10-11,9.930000305175781,9.869999885559082,9.869999885559082,9.890000343322754,48200.0,9.584022521972656
2018-10-12,9.920000076293945,9.869999885559082,9.880000114440918,9.899999618530273,97000.0,9.627785682678223
2018-10-15,9.90999984741211,9.859999656677246,9.880000114440918,9.859999656677246,29600.0,9.588884353637695
2018-10-16,9.880000114440918,9.850000381469727,9.869999885559082,9.850000381469727,40400.0,9.579160690307617
2018-10-17,9.899999618530273,9.84000015258789,9.850000381469727,9.850000381469727,46900.0,9.579160690307617
2018-10-18,9.880000114440918,9.84000015258789,9.857000350952148,9.869999885559082,35200.0,9.598609924316406
2018-10-19,9.866000175476074,9.84000015258789,9.862000465393066,9.850000381469727,39400.0,9.579160690307617
2018-10-22,9.869999885559082,9.84000015258789,9.84000015258789,9.859999656677246,38700.0,9.588884353637695
2018-10-23,9.869999885559082,9.829999923706055,9.850000381469727,9.859999656677246,74300.0,9.588884353637695
2018-10-24,9.869999885559082,9.829999923706055,9.859999656677246,9.850000381469727,50700.0,9.579160690307617
2018-10-25,9.869999885559082,9.829999923706055,9.850000381469727,9.859999656677246,74300.0,9.588884353637695
2018-10-26,9.859999656677246,9.829999923706055,9.852999687194824,9.859999656677246,60600.0,9.588884353637695
2018-10-29,9.859999656677246,9.84000015258789,9.859999656677246,9.859999656677246,30600.0,9.588884353637695
2018-10-30,9.869999885559082,9.84000015258789,9.859999656677246,9.859999656677246,38900.0,9.588884353637695
2018-10-31,9.869999885559082,9.84000015258789,9.866999626159668,9.869999885559082,74500.0,9.598609924316406
2018-11-01,9.87600040435791,9.850000381469727,9.869999885559082,9.859999656677246,40000.0,9.588884353637695
2018-11-02,9.880000114440918,9.859999656677246,9.859999656677246,9.880000114440918,23200.0,9.6083345413208
2018-11-05,9.890000343322754,9.859999656677246,9.859999656677246,9.890000343322754,58700.0,9.618060111999512
2018-11-06,9.899999618530273,9.864999771118164,9.869999885559082,9.899999618530273,46000.0,9.627785682678223
2018-11-07,9.920000076293945,9.880000114440918,9.885000228881836,9.902999877929688,34200.0,9.63070297241211
2018-11-08,9.90999984741211,9.880000114440918,9.90999984741211,9.890000343322754,31100.0,9.618060111999512
2018-11-09,9.899999618530273,9.880000114440918,9.890000343322754,9.899999618530273,25500.0,9.627785682678223
2018-11-12,9.90999984741211,9.869999885559082,9.890999794006348,9.899999618530273,46800.0,9.627785682678223
2018-11-13,9.90999984741211,9.880000114440918,9.899999618530273,9.90999984741211,30600.0,9.637511253356934
2018-11-14,9.899999618530273,9.869999885559082,9.880000114440918,9.899999618530273,25600.0,9.661909103393555
2018-11-15,9.90999984741211,9.880000114440918,9.890000343322754,9.899999618530273,52300.0,9.661909103393555
2018-11-16,9.890000343322754,9.869999885559082,9.890000343322754,9.890000343322754,36100.0,9.65215015411377
2018-11-19,9.899999618530273,9.84000015258789,9.890000343322754,9.869999885559082,88800.0,9.632631301879883
2018-11-20,9.880000114440918,9.850000381469727,9.869999885559082,9.880000114440918,154400.0,9.642390251159668
2018-11-21,9.920000076293945,9.871000289916992,9.880000114440918,9.895000457763672,45000.0,9.657029151916504
2018-11-23,9.920000076293945,9.899999618530273,9.920000076293945,9.899999618530273,26400.0,9.661909103393555
2018-11-26,9.930000305175781,9.869999885559082,9.880000114440918,9.873000144958496,55000.0,9.635560035705566
2018-11-27,9.949999809265137,9.890000343322754,9.890000343322754,9.899999618530273,77600.0,9.661909103393555
2018-11-28,9.9399995803833,9.859999656677246,9.899999618530273,9.880000114440918,105400.0,9.642390251159668
2018-11-29,9.901000022888184,9.871000289916992,9.890000343322754,9.892999649047852,38100.0,9.65507698059082
2018-11-30,10.0,9.859999656677246,9.90999984741211,9.90999984741211,150900.0,9.671669960021973
2018-12-03,9.979999542236328,9.920000076293945,9.970000267028809,9.9399995803833,84300.0,9.700947761535645
2018-12-04,9.970000267028809,9.880000114440918,9.9399995803833,9.970000267028809,58300.0,9.730225563049316
2018-12-06,9.979999542236328,9.829999923706055,9.859999656677246,9.880000114440918,154400.0,9.642390251159668
2018-12-07,9.899999618530273,9.850000381469727,9.878999710083008,9.899999618530273,82900.0,9.661909103393555
2018-12-10,9.920000076293945,9.859999656677246,9.869999885559082,9.920000076293945,62700.0,9.681427955627441
2018-12-11,9.989999771118164,9.880000114440918,9.914999961853027,9.899999618530273,58200.0,9.661909103393555
2018-12-12,10.050000190734863,9.90999984741211,9.920000076293945,9.90999984741211,101000.0,9.671669960021973
2018-12-13,9.949999809265137,9.869999885559082,9.90999984741211,9.949999809265137,99500.0,9.743151664733887
2018-12-14,9.949999809265137,9.90999984741211,9.918000221252441,9.918000221252441,89300.0,9.711816787719727
2018-12-17,9.920000076293945,9.87600040435791,9.899999618530273,9.87600040435791,54200.0,9.670689582824707
2018-12-18,9.930000305175781,9.819999694824219,9.890000343322754,9.883999824523926,158400.0,9.678523063659668
2018-12-19,9.899999618530273,9.859999656677246,9.869999885559082,9.899999618530273,73100.0,9.694190979003906
2018-12-20,9.90999984741211,9.859999656677246,9.880000114440918,9.890000343322754,109900.0,9.684399604797363
2018-12-21,9.899999618530273,9.850000381469727,9.890000343322754,9.899999618530273,119600.0,9.694190979003906
2018-12-24,9.90999984741211,9.880000114440918,9.880999565124512,9.90999984741211,22400.0,9.703983306884766
2018-12-26,9.890000343322754,9.84000015258789,9.869999885559082,9.859999656677246,68600.0,9.697097778320312
2018-12-27,9.869999885559082,9.850000381469727,9.869999885559082,9.864999771118164,85700.0,9.70201587677002
2018-12-28,9.869999885559082,9.850000381469727,9.869999885559082,9.869999885559082,50700.0,9.706933975219727
2018-12-31,9.899999618530273,9.850000381469727,9.869999885559082,9.859999656677246,42300.0,9.697097778320312
2019-01-02,9.869999885559082,9.84000015258789,9.869999885559082,9.869999885559082,45100.0,9.706933975219727
2019-01-03,9.869999885559082,9.84000015258789,9.869999885559082,9.850000381469727,38600.0,9.687264442443848
2019-01-04,9.880000114440918,9.859000205993652,9.859999656677246,9.880000114440918,69900.0,9.716767311096191
2019-01-07,9.890000343322754,9.859999656677246,9.869999885559082,9.890000343322754,46600.0,9.726603507995605
2019-01-08,9.90999984741211,9.859999656677246,9.880000114440918,9.899999618530273,85900.0,9.736437797546387
2019-01-09,9.90999984741211,9.869999885559082,9.883999824523926,9.899999618530273,113300.0,9.736437797546387
2019-01-10,9.920000076293945,9.869999885559082,9.880000114440918,9.920000076293945,68100.0,9.75610637664795
2019-01-11,9.920000076293945,9.880000114440918,9.899999618530273,9.920000076293945,105000.0,9.75610637664795
2019-01-14,9.899999618530273,9.880000114440918,9.880000114440918,9.890000343322754,43200.0,9.75906753540039
2019-01-15,9.890000343322754,9.869999885559082,9.890000343322754,9.880000114440918,78200.0,9.749198913574219
2019-01-16,9.890000343322754,9.869999885559082,9.869999885559082,9.869999885559082,58800.0,9.73933219909668
2019-01-17,9.890000343322754,9.869999885559082,9.880000114440918,9.890000343322754,50200.0,9.75906753540039
2019-01-18,9.890000343322754,9.869999885559082,9.880999565124512,9.871000289916992,54700.0,9.740320205688477
2019-01-22,9.890000343322754,9.869999885559082,9.880000114440918,9.880000114440918,56000.0,9.749198913574219
2019-01-23,9.890000343322754,9.869999885559082,9.880000114440918,9.890000343322754,47700.0,9.75906753540039
2019-01-24,9.88700008392334,9.850000381469727,9.869999885559082,9.859999656677246,178000.0,9.729464530944824
2019-01-25,9.871000289916992,9.850000381469727,9.859999656677246,9.869999885559082,165600.0,9.73933219909668
2019-01-28,9.869999885559082,9.850000381469727,9.86299991607666,9.859999656677246,71700.0,9.729464530944824
2019-01-29,9.880000114440918,9.859999656677246,9.869999885559082,9.859999656677246,54800.0,9.729464530944824
2019-01-30,9.899999618530273,9.869999885559082,9.869999885559082,9.890000343322754,96800.0,9.75906753540039
2019-01-31,9.90999984741211,9.880000114440918,9.890000343322754,9.899999618530273,112000.0,9.768935203552246
2019-02-01,9.949999809265137,9.890000343322754,9.899999618530273,9.930000305175781,60400.0,9.798538208007812
2019-02-04,9.9399995803833,9.899999618530273,9.90999984741211,9.914999961853027,76500.0,9.783736228942871
2019-02-05,9.930000305175781,9.880000114440918,9.923999786376953,9.920000076293945,72600.0,9.78866958618164
2019-02-06,9.979999542236328,9.899999618530273,9.899999618530273,9.9399995803833,53400.0,9.808404922485352
2019-02-07,9.970000267028809,9.90999984741211,9.90999984741211,9.9399995803833,24400.0,9.808404922485352
2019-02-08,9.9399995803833,9.899999618530273,9.920000076293945,9.90999984741211,30700.0,9.778802871704102
2019-02-11,9.9399995803833,9.90999984741211,9.916999816894531,9.930000305175781,21000.0,9.798538208007812
2019-02-12,9.9399995803833,9.899999618530273,9.9399995803833,9.927000045776367,97700.0,9.795577049255371
2019-02-13,9.930000305175781,9.90999984741211,9.920000076293945,9.923999786376953,33900.0,9.792616844177246
2019-02-14,9.90999984741211,9.899999618530273,9.899999618530273,9.90999984741211,34000.0,9.81142807006836
2019-02-15,9.90999984741211,9.880000114440918,9.899999618530273,9.899999618530273,59100.0,9.80152702331543
2019-02-19,9.899999618530273,9.890000343322754,9.899999618530273,9.899999618530273,27700.0,9.80152702331543
2019-02-20,9.920000076293945,9.890000343322754,9.90999984741211,9.920000076293945,27100.0,9.821329116821289
2019-02-21,9.9399995803833,9.90999984741211,9.920000076293945,9.9399995803833,51900.0,9.8411283493042
2019-02-22,9.930000305175781,9.899999618530273,9.930000305175781,9.920000076293945,59000.0,9.821329116821289
2019-02-25,9.9399995803833,9.90999984741211,9.932000160217285,9.930000305175781,64200.0,9.831229209899902
2019-02-26,9.930000305175781,9.890000343322754,9.916999816894531,9.920000076293945,47600.0,9.821329116821289
2019-02-27,9.930000305175781,9.899999618530273,9.930000305175781,9.920000076293945,51800.0,9.821329116821289
2019-02-28,9.930000305175781,9.899999618530273,9.928000450134277,9.925000190734863,32300.0,9.826279640197754
2019-03-01,9.930000305175781,9.90999984741211,9.90999984741211,9.920999526977539,25000.0,9.822318077087402
2019-03-04,9.930000305175781,9.899999618530273,9.930000305175781,9.920000076293945,34500.0,9.821329116821289
2019-03-05,9.928999900817871,9.899999618530273,9.90999984741211,9.920000076293945,50300.0,9.821329116821289
2019-03-06,9.930000305175781,9.899999618530273,9.90999984741211,9.920000076293945,72100.0,9.821329116821289
2019-03-07,9.920000076293945,9.890000343322754,9.90999984741211,9.90999984741211,84800.0,9.81142807006836
2019-03-08,9.920000076293945,9.899999618530273,9.90999984741211,9.920000076293945,27500.0,9.821329116821289
2019-03-11,9.920000076293945,9.895000457763672,9.920000076293945,9.920000076293945,45400.0,9.821329116821289
2019-03-12,9.920000076293945,9.899999618530273,9.90999984741211,9.920000076293945,57500.0,9.821329116821289
2019-03-13,9.920000076293945,9.890000343322754,9.90999984741211,9.90999984741211,130800.0,9.81142807006836
2019-03-14,9.892999649047852,9.880000114440918,9.880000114440918,9.890000343322754,84700.0,9.824342727661133
2019-03-15,9.90999984741211,9.880000114440918,9.880000114440918,9.90999984741211,74300.0,9.844209671020508
2019-03-18,9.90999984741211,9.890000343322754,9.890000343322754,9.904999732971191,23100.0,9.839242935180664
2019-03-19,9.90999984741211,9.890000343322754,9.907999992370605,9.899999618530273,33600.0,9.834275245666504
2019-03-20,9.920000076293945,9.899999618530273,9.904999732971191,9.90999984741211,65400.0,9.844209671020508
2019-03-21,9.920000076293945,9.890000343322754,9.906000137329102,9.899999618530273,56700.0,9.834275245666504
2019-03-22,9.90999984741211,9.890000343322754,9.899999618530273,9.90999984741211,44700.0,9.844209671020508
2019-03-25,9.90999984741211,9.880000114440918,9.90999984741211,9.890000343322754,66600.0,9.824342727661133
2019-03-26,9.899999618530273,9.880000114440918,9.890000343322754,9.890000343322754,32900.0,9.824342727661133
2019-03-27,9.897000312805176,9.869999885559082,9.897000312805176,9.880000114440918,93300.0,9.814409255981445
2019-03-28,9.890000343322754,9.869999885559082,9.880000114440918,9.890000343322754,101300.0,9.824342727661133
2019-03-29,9.899999618530273,9.880000114440918,9.890000343322754,9.890000343322754,33400.0,9.824342727661133
2019-04-01,9.899999618530273,9.890000343322754,9.899999618530273,9.899999618530273,33700.0,9.834275245666504
2019-04-02,9.899999618530273,9.880000114440918,9.899999618530273,9.890000343322754,68000.0,9.824342727661133
2019-04-03,9.899999618530273,9.890000343322754,9.899999618530273,9.899999618530273,52200.0,9.834275245666504
2019-04-04,9.899999618530273,9.880000114440918,9.899999618530273,9.899999618530273,55700.0,9.834275245666504
2019-04-05,9.899999618530273,9.890000343322754,9.899999618530273,9.899999618530273,41300.0,9.834275245666504
2019-04-08,9.899999618530273,9.88599967956543,9.890000343322754,9.899999618530273,52200.0,9.834275245666504
2019-04-09,9.899999618530273,9.880000114440918,9.880000114440918,9.899999618530273,38400.0,9.834275245666504
2019-04-10,9.90999984741211,9.890000343322754,9.890000343322754,9.90999984741211,82300.0,9.844209671020508
2019-04-11,9.930000305175781,9.899999618530273,9.90999984741211,9.930000305175781,49600.0,9.864076614379883
2019-04-12,9.90999984741211,9.890000343322754,9.899999618530273,9.890000343322754,53800.0,9.857100486755371
2019-04-15,9.899999618530273,9.880000114440918,9.892000198364258,9.890000343322754,34000.0,9.857100486755371
2019-04-16,9.899999618530273,9.880000114440918,9.880000114440918,9.890000343322754,48400.0,9.857100486755371
2019-04-17,9.895999908447266,9.869999885559082,9.890000343322754,9.880000114440918,75600.0,9.84713363647461
2019-04-18,9.890000343322754,9.869999885559082,9.880000114440918,9.880000114440918,67600.0,9.84713363647461
2019-04-22,9.880000114440918,9.859999656677246,9.869999885559082,9.869999885559082,81200.0,9.837166786193848
2019-04-23,9.880000114440918,9.859999656677246,9.869999885559082,9.869999885559082,45300.0,9.837166786193848
2019-04-24,9.880000114440918,9.859999656677246,9.878000259399414,9.880000114440918,41100.0,9.84713363647461
2019-04-25,9.880000114440918,9.859999656677246,9.87399959564209,9.880000114440918,44900.0,9.84713363647461
2019-04-26,9.880000114440918,9.859999656677246,9.859999656677246,9.869999885559082,49100.0,9.837166786193848
2019-04-29,9.899999618530273,9.873000144958496,9.880000114440918,9.890000343322754,55000.0,9.857100486755371
2019-04-30,9.899999618530273,9.880000114440918,9.89900016784668,9.899999618530273,43500.0,9.867066383361816
2019-05-01,9.90999984741211,9.880000114440918,9.899999618530273,9.890000343322754,67300.0,9.857100486755371
2019-05-02,9.899999618530273,9.880000114440918,9.880000114440918,9.899999618530273,39100.0,9.867066383361816
2019-05-03,9.90999984741211,9.880000114440918,9.899999618530273,9.90999984741211,72100.0,9.877033233642578
2019-05-06,9.90999984741211,9.880000114440918,9.90999984741211,9.90999984741211,104800.0,9.877033233642578
2019-05-07,9.904999732971191,9.880000114440918,9.899999618530273,9.890000343322754,129800.0,9.857100486755371
2019-05-08,9.899999618530273,9.880000114440918,9.880000114440918,9.899999618530273,53500.0,9.867066383361816
2019-05-09,9.899999618530273,9.880000114440918,9.899999618530273,9.899999618530273,21100.0,9.867066383361816
2019-05-10,9.90999984741211,9.880000114440918,9.880000114440918,9.90999984741211,17700.0,9.877033233642578
2019-05-13,9.920000076293945,9.899999618530273,9.901000022888184,9.920000076293945,26200.0,9.88700008392334
2019-05-14,9.899999618530273,9.880000114440918,9.890000343322754,9.890000343322754,68000.0,9.890000343322754
2019-05-15,9.890000343322754,9.869999885559082,9.890000343322754,9.890000343322754,77300.0,9.890000343322754
2019-05-16,9.880999565124512,9.869999885559082,9.880000114440918,9.880000114440918,60800.0,9.880000114440918
2019-05-17,9.880000114440918,9.859999656677246,9.87600040435791,9.880000114440918,35600.0,9.880000114440918
2019-05-20,9.880000114440918,9.859999656677246,9.880000114440918,9.880000114440918,58200.0,9.880000114440918
2019-05-21,9.880000114440918,9.859999656677246,9.869999885559082,9.869999885559082,119900.0,9.869999885559082
2019-05-22,9.869999885559082,9.850000381469727,9.866999626159668,9.869999885559082,40800.0,9.869999885559082
2019-05-23,9.880000114440918,9.859999656677246,9.859999656677246,9.880000114440918,22800.0,9.880000114440918
2019-05-24,9.899999618530273,9.859999656677246,9.880000114440918,9.899999618530273,26800.0,9.899999618530273
