Date,High,Low,Open,Close,Volume,Adj Close
2015-09-29,24.270000457763672,24.219999313354492,24.270000457763672,24.219999313354492,200.0,23.32791519165039
2015-09-30,25.739999771118164,24.600000381469727,24.600000381469727,24.649999618530273,20200.0,23.742074966430664
2015-10-26,26.030000686645508,25.974000930786133,25.974000930786133,26.030000686645508,20700.0,25.071250915527344
2015-10-27,26.25,25.780000686645508,26.25,25.850000381469727,21000.0,24.897878646850586
2015-10-28,26.239999771118164,26.1299991607666,26.1299991607666,26.239999771118164,20400.0,25.273513793945312
2015-10-29,27.100000381469727,26.100000381469727,26.329999923706055,26.1299991607666,24000.0,25.167564392089844
2015-10-30,26.219999313354492,26.209999084472656,26.209999084472656,26.219999313354492,20800.0,25.254249572753906
2015-11-02,27.540000915527344,26.309999465942383,27.540000915527344,26.540000915527344,28300.0,25.562463760375977
2015-11-03,26.530000686645508,26.493999481201172,26.530000686645508,26.493999481201172,21100.0,25.518157958984375
2015-11-04,26.520000457763672,26.440000534057617,26.520000457763672,26.440000534057617,28900.0,25.466148376464844
2015-11-05,26.493000030517578,26.290000915527344,26.493000030517578,26.440000534057617,22800.0,25.466148376464844
2015-11-06,26.399999618530273,26.329999923706055,26.350000381469727,26.399999618530273,25900.0,25.42761993408203
2015-11-09,26.34000015258789,26.059999465942383,26.059999465942383,26.219999313354492,17900.0,25.254249572753906
2015-11-10,26.239999771118164,26.020000457763672,26.020000457763672,26.239999771118164,1000.0,25.273513793945312
2015-11-11,26.200000762939453,26.139999389648438,26.200000762939453,26.139999389648438,800.0,25.17719841003418
2015-11-12,26.049999237060547,25.86400032043457,26.049999237060547,25.86400032043457,2500.0,24.91136360168457
2015-11-13,25.59000015258789,25.506000518798828,25.506000518798828,25.59000015258789,2800.0,24.6474552154541
2015-11-16,25.709999084472656,25.450000762939453,25.450000762939453,25.68000030517578,14500.0,24.73413848876953
2015-11-17,25.899999618530273,25.690000534057617,25.899999618530273,25.715999603271484,5600.0,24.76881217956543
2015-11-18,25.8700008392334,25.809999465942383,25.809999465942383,25.8700008392334,1400.0,24.917144775390625
2015-11-19,26.093000411987305,26.06800079345703,26.093000411987305,26.06800079345703,4200.0,25.107851028442383
2015-11-20,26.222999572753906,26.166000366210938,26.222999572753906,26.183000564575195,6400.0,25.218612670898438
2015-11-23,26.31999969482422,26.219999313354492,26.270000457763672,26.239999771118164,700.0,25.273513793945312
2015-11-24,26.229999542236328,26.142000198364258,26.142000198364258,26.229999542236328,500.0,25.26388168334961
2015-11-25,26.389999389648438,26.339000701904297,26.339000701904297,26.365999221801758,1800.0,25.394872665405273
2015-11-27,26.43000030517578,26.43000030517578,26.43000030517578,26.43000030517578,700.0,25.456514358520508
2015-11-30,26.459999084472656,26.363000869750977,26.459999084472656,26.3700008392334,2700.0,25.398727416992188
2015-12-01,26.559999465942383,26.420000076293945,26.5,26.559999465942383,7400.0,25.58172607421875
2015-12-02,26.3700008392334,26.36400032043457,26.3700008392334,26.36400032043457,1100.0,25.392946243286133
2015-12-03,26.25,25.812999725341797,26.25,25.812999725341797,8300.0,24.86224365234375
2015-12-04,26.270000457763672,26.055999755859375,26.059999465942383,26.270000457763672,1700.0,25.30240821838379
2015-12-07,26.110000610351562,25.969999313354492,26.110000610351562,25.969999313354492,2200.0,25.013458251953125
2015-12-08,26.040000915527344,25.81999969482422,26.040000915527344,25.854000091552734,900.0,24.901731491088867
2015-12-09,26.049999237060547,25.59000015258789,25.940000534057617,25.618000030517578,3500.0,24.674421310424805
2015-12-10,25.84000015258789,25.625,25.742000579833984,25.625,1500.0,24.68116569519043
2015-12-11,25.43199920654297,25.260000228881836,25.399999618530273,25.270000457763672,800.0,24.33924102783203
2015-12-14,25.15999984741211,25.15999984741211,25.15999984741211,25.15999984741211,200.0,24.233293533325195
2015-12-15,25.489999771118164,25.469999313354492,25.489999771118164,25.469999313354492,800.0,24.53187370300293
2015-12-16,25.790000915527344,25.510000228881836,25.68000030517578,25.790000915527344,2100.0,24.840089797973633
2015-12-17,25.687999725341797,25.5,25.687999725341797,25.5,1100.0,24.560771942138672
2015-12-18,25.610000610351562,25.110000610351562,25.610000610351562,25.110000610351562,5000.0,24.185138702392578
2015-12-21,25.270000457763672,25.070999145507812,25.270000457763672,25.149999618530273,18700.0,24.22365951538086
2015-12-22,25.43000030517578,25.429000854492188,25.429000854492188,25.43000030517578,2500.0,24.49334716796875
2015-12-23,25.766000747680664,25.68000030517578,25.711000442504883,25.766000747680664,2600.0,24.816970825195312
2015-12-24,25.719999313354492,25.719999313354492,25.719999313354492,25.719999313354492,700.0,24.85369300842285
2015-12-28,25.719999313354492,25.719999313354492,25.719999313354492,25.719999313354492,0.0,24.85369300842285
2015-12-29,25.889999389648438,25.86199951171875,25.86199951171875,25.878000259399414,6300.0,25.00637435913086
2015-12-30,25.8799991607666,25.87299919128418,25.8799991607666,25.87299919128418,800.0,25.00153923034668
2015-12-31,25.650999069213867,25.59000015258789,25.59000015258789,25.610000610351562,1500.0,24.747400283813477
2016-01-04,25.200000762939453,24.969999313354492,25.200000762939453,24.969999313354492,3000.0,24.12895393371582
2016-01-05,25.18000030517578,25.143999099731445,25.18000030517578,25.143999099731445,800.0,24.297094345092773
2016-01-06,24.8700008392334,24.770000457763672,24.8700008392334,24.770000457763672,2000.0,23.935691833496094
2016-01-07,24.479999542236328,24.26799964904785,24.450000762939453,24.28499984741211,35600.0,23.467025756835938
2016-01-08,24.209999084472656,23.969999313354492,24.200000762939453,23.969999313354492,4200.0,23.162635803222656
2016-01-11,24.06999969482422,23.63599967956543,24.06999969482422,23.84000015258789,6600.0,23.037017822265625
2016-01-12,23.804000854492188,23.68000030517578,23.804000854492188,23.738000869750977,600.0,22.938451766967773
2016-01-13,23.738000869750977,23.738000869750977,23.738000869750977,23.738000869750977,0.0,22.938451766967773
2016-01-14,23.59000015258789,23.06999969482422,23.5,23.59000015258789,2200.0,22.79543685913086
2016-01-15,23.1200008392334,22.850000381469727,23.045000076293945,23.11199951171875,6200.0,22.33353614807129
2016-01-19,23.479999542236328,22.799999237060547,23.479999542236328,22.799999237060547,1800.0,22.03204345703125
2016-01-20,22.940000534057617,22.149999618530273,22.639999389648438,22.940000534057617,6700.0,22.167327880859375
2016-01-21,23.079999923706055,22.809999465942383,22.809999465942383,23.079999923706055,1100.0,22.302614212036133
2016-01-22,23.079999923706055,23.079999923706055,23.079999923706055,23.079999923706055,0.0,22.302614212036133
2016-01-25,23.1200008392334,23.010000228881836,23.1200008392334,23.010000228881836,1600.0,22.23497200012207
2016-01-26,23.299999237060547,23.149999618530273,23.149999618530273,23.261999130249023,1900.0,22.478483200073242
2016-01-27,23.06999969482422,23.06999969482422,23.06999969482422,23.06999969482422,200.0,22.292949676513672
2016-01-28,23.100000381469727,23.069000244140625,23.100000381469727,23.069000244140625,1800.0,22.29198455810547
2016-01-29,23.510000228881836,23.510000228881836,23.510000228881836,23.510000228881836,500.0,22.71813201904297
2016-02-01,23.75,23.729999542236328,23.75,23.729999542236328,1900.0,22.93071937561035
2016-02-02,23.469999313354492,23.329999923706055,23.469999313354492,23.329999923706055,1400.0,22.544191360473633
2016-02-03,23.219999313354492,23.219999313354492,23.219999313354492,23.219999313354492,200.0,22.437896728515625
2016-02-04,23.600000381469727,23.51099967956543,23.579999923706055,23.600000381469727,3200.0,22.805099487304688
2016-02-05,23.770000457763672,23.110000610351562,23.770000457763672,23.110000610351562,1800.0,22.33160400390625
2016-02-08,22.639999389648438,22.350000381469727,22.639999389648438,22.350000381469727,2000.0,21.597200393676758
2016-02-09,22.68000030517578,22.509000778198242,22.509000778198242,22.670000076293945,700.0,21.906423568725586
2016-02-10,22.700000762939453,22.700000762939453,22.700000762939453,22.700000762939453,1000.0,21.935413360595703
2016-02-11,22.389999389648438,22.25,22.389999389648438,22.389999389648438,1000.0,21.635852813720703
2016-02-12,22.739999771118164,22.709999084472656,22.709999084472656,22.739999771118164,900.0,21.97406578063965
2016-02-16,23.079999923706055,23.079999923706055,23.079999923706055,23.079999923706055,1500.0,22.302614212036133
2016-02-17,23.71500015258789,23.649999618530273,23.649999618530273,23.700000762939453,3100.0,22.901729583740234
2016-02-18,23.649999618530273,23.549999237060547,23.6200008392334,23.639999389648438,1400.0,22.843751907348633
2016-02-19,23.6200008392334,23.6200008392334,23.6200008392334,23.6200008392334,900.0,22.824424743652344
2016-02-22,23.96500015258789,23.90399932861328,23.90399932861328,23.96500015258789,300.0,23.157806396484375
2016-02-23,24.190000534057617,23.770000457763672,24.190000534057617,23.809999465942383,2400.0,23.008024215698242
2016-02-24,23.489999771118164,23.450000762939453,23.450000762939453,23.489999771118164,1100.0,22.698802947998047
2016-02-25,24.099000930786133,24.09600067138672,24.09600067138672,24.099000930786133,200.0,23.287294387817383
2016-02-26,24.360000610351562,24.209999084472656,24.219999313354492,24.270000457763672,1400.0,23.452531814575195
2016-02-29,24.350000381469727,24.145999908447266,24.187000274658203,24.149999618530273,7300.0,23.336572647094727
2016-03-01,24.579999923706055,24.336000442504883,24.363000869750977,24.579999923706055,3300.0,23.752090454101562
2016-03-02,24.670000076293945,24.506999969482422,24.520000457763672,24.670000076293945,2200.0,23.839059829711914
2016-03-03,24.989999771118164,24.774999618530273,24.774999618530273,24.989999771118164,3000.0,24.148277282714844
2016-03-04,25.170000076293945,25.020000457763672,25.170000076293945,25.073999404907227,1600.0,24.229450225830078
2016-03-07,25.190000534057617,25.049999237060547,25.190000534057617,25.049999237060547,1700.0,24.20625877380371
2016-03-08,25.0,24.809999465942383,25.0,24.809999465942383,2000.0,23.974342346191406
2016-03-09,24.809999465942383,24.809999465942383,24.809999465942383,24.809999465942383,0.0,23.974342346191406
2016-03-10,25.030000686645508,24.719999313354492,25.030000686645508,24.729999542236328,1300.0,23.897037506103516
2016-03-11,25.3799991607666,25.284000396728516,25.290000915527344,25.3799991607666,2200.0,24.525144577026367
2016-03-14,25.34000015258789,25.260000228881836,25.280000686645508,25.327999114990234,4100.0,24.474895477294922
2016-03-15,25.139999389648438,25.100000381469727,25.139999389648438,25.139999389648438,2300.0,24.293228149414062
2016-03-16,25.190000534057617,25.190000534057617,25.190000534057617,25.190000534057617,100.0,24.34154510498047
2016-03-17,25.6200008392334,25.56999969482422,25.6200008392334,25.56999969482422,700.0,24.708742141723633
2016-03-18,25.729999542236328,25.690000534057617,25.729999542236328,25.690000534057617,2100.0,24.824705123901367
2016-03-21,25.7450008392334,25.6200008392334,25.667999267578125,25.739999771118164,5200.0,24.873018264770508
2016-03-22,25.90999984741211,25.59000015258789,25.75,25.90999984741211,4700.0,25.037290573120117
2016-03-23,25.799999237060547,25.600000381469727,25.600000381469727,25.75,1300.0,24.88268280029297
2016-03-24,25.469999313354492,25.299999237060547,25.450000762939453,25.469999313354492,300.0,24.612110137939453
2016-03-28,25.548999786376953,25.489999771118164,25.489999771118164,25.548999786376953,800.0,24.688451766967773
2016-03-29,26.110000610351562,25.649999618530273,25.65999984741211,26.06999969482422,13900.0,25.19190216064453
2016-03-30,26.25,25.940000534057617,26.020000457763672,26.049999237060547,6300.0,25.17257308959961
2016-03-31,26.049999237060547,25.959999084472656,25.959999084472656,25.989999771118164,6700.0,25.11459732055664
2016-04-01,26.09000015258789,25.799999237060547,25.799999237060547,26.09000015258789,900.0,25.21122932434082
2016-04-04,26.190000534057617,24.510000228881836,24.510000228881836,25.959999084472656,2100.0,25.085607528686523
2016-04-05,26.010000228881836,25.6200008392334,26.010000228881836,25.6299991607666,29100.0,24.766725540161133
2016-04-06,25.81100082397461,25.739999771118164,25.739999771118164,25.81100082397461,6900.0,24.94162940979004
2016-04-07,25.6299991607666,25.565000534057617,25.6299991607666,25.565000534057617,2400.0,24.703914642333984
2016-04-08,25.700000762939453,25.579999923706055,25.700000762939453,25.6200008392334,1600.0,24.757061004638672
2016-04-11,25.850000381469727,25.652999877929688,25.850000381469727,25.652999877929688,1800.0,24.78894805908203
2016-04-12,25.75,25.450000762939453,25.450000762939453,25.75,9500.0,24.88268280029297
2016-04-13,26.149999618530273,25.969999313354492,25.969999313354492,26.149999618530273,800.0,25.269208908081055
2016-04-14,26.299999237060547,26.079999923706055,26.299999237060547,26.100000381469727,2900.0,25.22089195251465
2016-04-15,26.139999389648438,26.110000610351562,26.110000610351562,26.139999389648438,1300.0,25.25954818725586
2016-04-18,26.27899932861328,26.09000015258789,26.170000076293945,26.170000076293945,3500.0,25.288537979125977
2016-04-19,26.3799991607666,26.260000228881836,26.350000381469727,26.3799991607666,3200.0,25.4914608001709
2016-04-20,26.45199966430664,26.309999465942383,26.45199966430664,26.309999465942383,500.0,25.42382049560547
2016-04-21,26.429000854492188,26.209999084472656,26.371999740600586,26.225000381469727,3700.0,25.341684341430664
2016-04-22,26.31999969482422,26.302000045776367,26.31999969482422,26.302000045776367,900.0,25.416088104248047
2016-04-25,26.360000610351562,26.22100067138672,26.360000610351562,26.22100067138672,2500.0,25.337818145751953
2016-04-26,26.459999084472656,26.389999389648438,26.40999984741211,26.459999084472656,4000.0,25.568767547607422
2016-04-27,26.6299991607666,26.440000534057617,26.559999465942383,26.6299991607666,3900.0,25.7330379486084
2016-04-28,26.56999969482422,26.5,26.5,26.5,4800.0,25.607423782348633
2016-04-29,26.010000228881836,25.98200035095215,26.010000228881836,25.993999481201172,700.0,25.118465423583984
2016-05-02,26.31999969482422,26.260000228881836,26.260000228881836,26.31999969482422,1800.0,25.433483123779297
2016-05-03,26.079999923706055,25.8700008392334,26.030000686645508,25.989999771118164,23700.0,25.11459732055664
2016-05-04,26.020000457763672,25.785999298095703,25.948999404907227,25.902999877929688,34700.0,25.030529022216797
2016-05-05,25.974000930786133,25.8439998626709,25.974000930786133,25.850000381469727,16600.0,24.97931480407715
2016-05-06,25.96500015258789,25.719999313354492,25.75,25.950000762939453,4800.0,25.075946807861328
2016-05-09,26.280000686645508,26.02199935913086,26.280000686645508,26.02199935913086,300.0,25.14552116394043
2016-05-10,26.309999465942383,26.177000045776367,26.209999084472656,26.309999465942383,7900.0,25.42382049560547
2016-05-11,26.309999465942383,26.09000015258789,26.309999465942383,26.09000015258789,6400.0,25.21122932434082
2016-05-12,26.1200008392334,25.90999984741211,26.1200008392334,26.049999237060547,6700.0,25.17257308959961
2016-05-13,26.079999923706055,25.84000015258789,26.05500030517578,25.854999542236328,3400.0,24.984148025512695
2016-05-16,26.15999984741211,26.107999801635742,26.15999984741211,26.107999801635742,900.0,25.22862434387207
2016-05-17,26.25,25.908000946044922,26.25,25.908000946044922,600.0,25.035362243652344
2016-05-18,25.95400047302246,25.65999984741211,25.65999984741211,25.829999923706055,3000.0,24.959989547729492
2016-05-19,25.899999618530273,25.610000610351562,25.8799991607666,25.709999084472656,3200.0,24.844030380249023
2016-05-20,26.040000915527344,25.979999542236328,26.040000915527344,25.979999542236328,900.0,25.104936599731445
2016-05-23,26.049999237060547,26.01300048828125,26.01300048828125,26.049999237060547,1300.0,25.17257308959961
2016-05-24,26.349000930786133,26.316999435424805,26.34000015258789,26.349000930786133,600.0,25.461509704589844
2016-05-25,26.540000915527344,26.50200080871582,26.517000198364258,26.540000915527344,1500.0,25.646074295043945
2016-05-26,26.530000686645508,26.520000457763672,26.530000686645508,26.530000686645508,1300.0,25.636411666870117
2016-05-27,26.577999114990234,26.577999114990234,26.577999114990234,26.577999114990234,400.0,25.68279266357422
2016-05-31,27.5,26.604999542236328,27.5,26.66900062561035,2200.0,25.770729064941406
2016-06-01,26.81999969482422,26.65999984741211,26.700000762939453,26.799999237060547,11800.0,25.897315979003906
2016-06-02,26.89900016784668,26.89900016784668,26.89900016784668,26.89900016784668,300.0,25.992982864379883
2016-06-03,26.75,26.670000076293945,26.670000076293945,26.739999771118164,1000.0,25.839336395263672
2016-06-06,27.010000228881836,26.89900016784668,26.93000030517578,26.993000030517578,2400.0,26.083816528320312
2016-06-07,27.149999618530273,27.020000457763672,27.030000686645508,27.079999923706055,6600.0,26.16788673400879
2016-06-08,27.190000534057617,27.100000381469727,27.163999557495117,27.174999237060547,2500.0,26.259685516357422
2016-06-09,27.059999465942383,27.059999465942383,27.059999465942383,27.059999465942383,200.0,26.1485595703125
2016-06-10,26.81999969482422,26.700000762939453,26.81999969482422,26.700000762939453,2100.0,25.800683975219727
2016-06-13,26.6200008392334,26.488000869750977,26.6200008392334,26.488000869750977,800.0,25.5958251953125
2016-06-14,26.520000457763672,26.229999542236328,26.520000457763672,26.305999755859375,1400.0,25.41995620727539
2016-06-15,26.597000122070312,26.399999618530273,26.5,26.399999618530273,2100.0,25.51078987121582
2016-06-16,33.0,26.149999618530273,27.549999237060547,26.40999984741211,3600.0,25.520450592041016
2016-06-17,26.420000076293945,26.329999923706055,26.420000076293945,26.329999923706055,8500.0,25.443147659301758
2016-06-20,26.829999923706055,26.65999984741211,26.799999237060547,26.65999984741211,3300.0,25.76203155517578
2016-06-21,26.709999084472656,26.621000289916992,26.700000762939453,26.700000762939453,3900.0,25.800683975219727
2016-06-22,27.030000686645508,26.700000762939453,27.030000686645508,26.700000762939453,9400.0,25.800683975219727
2016-06-23,27.020000457763672,26.760000228881836,26.760000228881836,27.020000457763672,12300.0,26.109905242919922
2016-06-24,26.399999618530273,25.799999237060547,26.149999618530273,25.799999237060547,14200.0,25.06924057006836
2016-06-27,25.440000534057617,24.989999771118164,25.440000534057617,25.100000381469727,1000.0,24.389066696166992
2016-06-28,25.420000076293945,25.420000076293945,25.420000076293945,25.420000076293945,200.0,24.70000457763672
2016-06-29,26.055999755859375,25.893999099731445,25.90999984741211,26.020000457763672,2400.0,25.283010482788086
2016-06-30,26.450000762939453,26.040000915527344,26.040000915527344,26.450000762939453,5900.0,25.700830459594727
2016-07-01,26.670000076293945,26.5,26.6200008392334,26.610000610351562,14900.0,25.856298446655273
2016-07-05,26.31999969482422,26.190000534057617,26.31999969482422,26.31999969482422,900.0,25.57451057434082
2016-07-06,26.31999969482422,26.31999969482422,26.31999969482422,26.31999969482422,100.0,25.57451057434082
2016-07-07,26.639999389648438,26.3799991607666,26.56999969482422,26.399999618530273,3600.0,25.652246475219727
2016-07-08,26.959999084472656,26.670000076293945,26.670000076293945,26.93199920654297,4400.0,26.169178009033203
2016-07-11,27.110000610351562,27.06999969482422,27.06999969482422,27.09000015258789,5100.0,26.322702407836914
2016-07-12,27.36400032043457,27.200000762939453,27.200000762939453,27.36400032043457,1700.0,26.588943481445312
2016-07-13,27.273000717163086,27.26300048828125,27.273000717163086,27.26799964904785,700.0,26.49566078186035
2016-07-14,27.469999313354492,27.37700080871582,27.40999984741211,27.37700080871582,3700.0,26.601573944091797
2016-07-15,27.43000030517578,27.322999954223633,27.43000030517578,27.360000610351562,21100.0,26.58505630493164
2016-07-18,27.549999237060547,27.291000366210938,27.291000366210938,27.440000534057617,7100.0,26.66278839111328
2016-07-19,27.3700008392334,27.270000457763672,27.349000930786133,27.277000427246094,9900.0,26.504405975341797
2016-07-20,27.530000686645508,27.493000030517578,27.493000030517578,27.530000686645508,4700.0,26.750240325927734
2016-07-21,27.649999618530273,27.38599967956543,27.559999465942383,27.38599967956543,4300.0,26.610319137573242
2016-07-22,27.610000610351562,27.40399932861328,27.4689998626709,27.600000381469727,32900.0,26.818260192871094
2016-07-25,27.56999969482422,27.464000701904297,27.56999969482422,27.530000686645508,34300.0,26.750240325927734
2016-07-26,30.535999298095703,27.579999923706055,27.65999984741211,27.700000762939453,33500.0,26.91542625427246
2016-07-27,27.600000381469727,27.469999313354492,27.600000381469727,27.540000915527344,3626200.0,26.759958267211914
2016-07-28,27.65999984741211,27.469999313354492,27.469999313354492,27.6200008392334,45400.0,26.837692260742188
2016-07-29,27.65999984741211,27.547000885009766,27.58099937438965,27.63599967956543,2300.0,26.853239059448242
2016-08-01,27.739999771118164,27.520000457763672,27.739999771118164,27.520000457763672,5100.0,26.74052619934082
2016-08-02,27.479999542236328,27.239999771118164,27.479999542236328,27.264999389648438,4500.0,26.492746353149414
2016-08-03,27.3799991607666,27.270000457763672,27.3799991607666,27.347000122070312,1200.0,26.572423934936523
2016-08-04,27.719999313354492,27.389999389648438,27.719999313354492,27.422000885009766,7700.0,26.645299911499023
2016-08-05,27.6299991607666,27.510000228881836,27.510000228881836,27.586000442504883,14600.0,26.804655075073242
2016-08-08,27.690000534057617,27.59600067138672,27.68000030517578,27.600000381469727,8300.0,26.818260192871094
2016-08-09,27.670000076293945,27.579999923706055,27.670000076293945,27.579999923706055,1300.0,26.798824310302734
2016-08-10,27.760000228881836,27.548999786376953,27.760000228881836,27.586000442504883,1400.0,26.804655075073242
2016-08-11,27.75,27.559999465942383,27.75,27.670000076293945,6200.0,26.886276245117188
2016-08-12,27.690000534057617,27.579999923706055,27.613000869750977,27.6299991607666,5600.0,26.84740447998047
2016-08-15,27.809999465942383,27.766000747680664,27.808000564575195,27.766000747680664,4300.0,26.979557037353516
2016-08-16,27.850000381469727,27.60700035095215,27.850000381469727,27.613000869750977,1300.0,26.830890655517578
2016-08-17,27.5,27.343000411987305,27.459999084472656,27.474000930786133,5400.0,26.69582748413086
2016-08-18,27.65999984741211,27.6299991607666,27.6299991607666,27.6560001373291,1200.0,26.87267303466797
2016-08-19,27.69300079345703,27.59000015258789,27.59000015258789,27.69300079345703,3800.0,26.908626556396484
2016-08-22,27.719999313354492,27.628999710083008,27.6299991607666,27.709999084472656,7500.0,26.925142288208008
2016-08-23,27.899999618530273,27.770000457763672,27.770000457763672,27.84000015258789,6100.0,27.05146026611328
2016-08-24,28.15999984741211,27.639999389648438,28.15999984741211,27.639999389648438,6700.0,26.857126235961914
2016-08-25,27.742000579833984,27.71299934387207,27.719999313354492,27.71299934387207,2500.0,26.928054809570312
2016-08-26,27.860000610351562,27.549999237060547,27.860000610351562,27.56999969482422,12900.0,26.789108276367188
2016-08-29,27.84000015258789,27.770000457763672,27.775999069213867,27.780000686645508,5300.0,26.9931583404541
2016-08-30,27.84000015258789,27.656999588012695,27.84000015258789,27.739999771118164,5400.0,26.95429229736328
2016-08-31,27.719999313354492,27.559999465942383,27.719999313354492,27.670000076293945,23300.0,26.886276245117188
2016-09-01,27.65999984741211,27.520000457763672,27.520000457763672,27.608999252319336,3100.0,26.827003479003906
2016-09-02,27.920000076293945,27.729999542236328,27.729999542236328,27.8700008392334,16600.0,27.080612182617188
2016-09-06,27.90999984741211,27.81599998474121,27.90999984741211,27.849000930786133,3300.0,27.06020736694336
2016-09-07,27.979999542236328,27.850000381469727,27.979999542236328,27.905000686645508,1300.0,27.114620208740234
2016-09-08,28.229999542236328,27.8700008392334,28.229999542236328,27.8799991607666,20800.0,27.0903263092041
2016-09-09,27.757999420166016,27.200000762939453,27.757999420166016,27.200000762939453,4000.0,26.429588317871094
2016-09-12,27.459999084472656,27.08300018310547,27.139999389648438,27.434999465942383,4600.0,26.65793228149414
2016-09-13,27.399999618530273,26.979999542236328,27.399999618530273,27.030000686645508,12200.0,26.264406204223633
2016-09-14,27.079999923706055,26.940000534057617,27.040000915527344,27.030000686645508,6400.0,26.264406204223633
2016-09-15,27.280000686645508,27.14299964904785,27.14299964904785,27.270000457763672,1400.0,26.497608184814453
2016-09-16,27.270000457763672,27.270000457763672,27.270000457763672,27.270000457763672,0.0,26.497608184814453
2016-09-19,27.420000076293945,27.19499969482422,27.420000076293945,27.19499969482422,6700.0,26.424728393554688
2016-09-20,27.360000610351562,27.18000030517578,27.34000015258789,27.229999542236328,3500.0,26.458740234375
2016-09-21,27.549999237060547,27.20599937438965,27.34000015258789,27.510000228881836,7300.0,26.73080825805664
2016-09-22,27.889999389648438,27.73900032043457,27.790000915527344,27.743999481201172,2700.0,26.958179473876953
2016-09-23,27.780000686645508,27.6299991607666,27.780000686645508,27.649999618530273,4600.0,26.866840362548828
2016-09-26,27.559999465942383,27.469999313354492,27.49799919128418,27.489999771118164,6900.0,26.71137237548828
2016-09-27,27.56999969482422,27.459999084472656,27.479999542236328,27.54800033569336,4700.0,26.767730712890625
2016-09-28,27.70400047302246,27.576000213623047,27.6200008392334,27.70400047302246,1300.0,26.919313430786133
2016-09-29,27.700000762939453,27.489999771118164,27.700000762939453,27.489999771118164,43200.0,26.71137237548828
2016-09-30,27.770000457763672,27.5310001373291,27.56999969482422,27.770000457763672,11400.0,26.983444213867188
2016-10-03,27.683000564575195,27.5,27.683000564575195,27.600000381469727,15100.0,26.818260192871094
2016-10-04,27.56999969482422,27.34000015258789,27.520000457763672,27.399999618530273,4700.0,26.623920440673828
2016-10-05,27.66200065612793,27.559999465942383,27.59000015258789,27.559999465942383,14800.0,26.77939224243164
2016-10-06,27.600000381469727,27.434999465942383,27.5,27.600000381469727,8000.0,26.818260192871094
2016-10-07,27.459999084472656,27.34000015258789,27.440000534057617,27.450000762939453,3100.0,26.67250633239746
2016-10-10,27.600000381469727,27.549999237060547,27.600000381469727,27.56999969482422,62000.0,26.789108276367188
2016-10-11,27.329999923706055,27.017000198364258,27.329999923706055,27.125999450683594,5700.0,26.357685089111328
2016-10-12,27.389999389648438,27.170000076293945,27.389999389648438,27.200000762939453,2500.0,26.429588317871094
2016-10-13,27.100000381469727,26.85099983215332,26.920000076293945,27.100000381469727,3100.0,26.332420349121094
2016-10-14,27.260000228881836,27.079999923706055,27.214000701904297,27.079999923706055,2000.0,26.31298828125
2016-10-17,27.049999237060547,26.989999771118164,27.049999237060547,26.989999771118164,600.0,26.225536346435547
2016-10-18,27.40999984741211,27.163000106811523,27.40999984741211,27.190000534057617,6000.0,26.419870376586914
2016-10-19,27.36400032043457,27.21500015258789,27.219999313354492,27.275999069213867,8300.0,26.503433227539062
2016-10-20,27.25,27.149999618530273,27.25,27.209999084472656,16000.0,26.439302444458008
2016-10-21,27.18000030517578,27.128999710083008,27.149999618530273,27.15999984741211,3000.0,26.39072036743164
2016-10-24,27.329999923706055,27.229999542236328,27.329999923706055,27.27400016784668,7100.0,26.50149154663086
2016-10-25,27.18000030517578,27.059999465942383,27.18000030517578,27.059999465942383,1600.0,26.29355239868164
2016-10-26,27.30699920654297,26.959999084472656,27.20599937438965,27.010000228881836,16700.0,26.24496841430664
2016-10-27,27.459999084472656,26.79599952697754,27.459999084472656,26.809999465942383,9400.0,26.050634384155273
2016-10-28,27.040000915527344,26.81399917602539,26.989999771118164,26.860000610351562,7800.0,26.099218368530273
2016-10-31,27.0,26.889999389648438,26.889999389648438,27.0,8400.0,26.235252380371094
2016-11-01,26.920000076293945,26.68000030517578,26.920000076293945,26.729999542236328,2200.0,25.972900390625
2016-11-02,26.84000015258789,26.518999099731445,26.84000015258789,26.518999099731445,10400.0,25.76787567138672
2016-11-03,26.940000534057617,26.43000030517578,26.940000534057617,26.43000030517578,12100.0,25.681398391723633
2016-11-04,26.6299991607666,26.472999572753906,26.600000381469727,26.472999572753906,1900.0,25.72317886352539
2016-11-07,26.989999771118164,26.790000915527344,26.790000915527344,26.989999771118164,9700.0,26.225536346435547
2016-11-08,27.170000076293945,26.899999618530273,26.899999618530273,27.149999618530273,8100.0,26.38100242614746
2016-11-09,27.509000778198242,26.950000762939453,26.950000762939453,27.43000030517578,18100.0,26.653072357177734
2016-11-10,27.729999542236328,27.549999237060547,27.6299991607666,27.600000381469727,7300.0,26.818260192871094
2016-11-11,27.700000762939453,27.472000122070312,27.700000762939453,27.700000762939453,27800.0,26.91542625427246
2016-11-14,28.020000457763672,27.889999389648438,27.940000534057617,28.020000457763672,10600.0,27.226364135742188
2016-11-15,28.239999771118164,28.072999954223633,28.15999984741211,28.229999542236328,8500.0,27.43041229248047
2016-11-16,28.270000457763672,28.09000015258789,28.270000457763672,28.14699935913086,8700.0,27.349761962890625
2016-11-17,28.540000915527344,28.25,28.540000915527344,28.344999313354492,196500.0,27.542156219482422
2016-11-18,28.34600067138672,28.257999420166016,28.34000015258789,28.270999908447266,50400.0,27.470251083374023
2016-11-21,28.489999771118164,28.381999969482422,28.389999389648438,28.489999771118164,20300.0,27.68305015563965
2016-11-22,28.6299991607666,28.457000732421875,28.6299991607666,28.600000381469727,616000.0,27.789936065673828
2016-11-23,28.670000076293945,28.60099983215332,28.625999450683594,28.6560001373291,4100.0,27.844348907470703
2016-11-25,28.80299949645996,28.770999908447266,28.770999908447266,28.774999618530273,1200.0,27.959976196289062
2016-11-28,28.850000381469727,28.597000122070312,28.850000381469727,28.597000122070312,18700.0,27.787017822265625
2016-11-29,28.760000228881836,28.65999984741211,28.70400047302246,28.670000076293945,10100.0,27.85795021057129
2016-11-30,28.729999542236328,28.56999969482422,28.68000030517578,28.56999969482422,8800.0,27.76078224182129
2016-12-01,28.6299991607666,28.389999389648438,28.6299991607666,28.40999984741211,7300.0,27.605316162109375
2016-12-02,28.520000457763672,28.402000427246094,28.520000457763672,28.44499969482422,3800.0,27.639324188232422
2016-12-05,28.739999771118164,28.559999465942383,28.559999465942383,28.709999084472656,8900.0,27.896814346313477
2016-12-06,28.93000030517578,28.701000213623047,28.701000213623047,28.895999908447266,7700.0,28.07754898071289
2016-12-07,29.329999923706055,28.979999542236328,29.079999923706055,29.260000228881836,14000.0,28.43124008178711
2016-12-08,29.59000015258789,29.33300018310547,29.350000381469727,29.510000228881836,16000.0,28.674158096313477
2016-12-09,29.559999465942383,29.440000534057617,29.516000747680664,29.510000228881836,10200.0,28.674158096313477
2016-12-12,29.579999923706055,29.270000457763672,29.549999237060547,29.34000015258789,16500.0,28.508975982666016
2016-12-13,29.469999313354492,29.320999145507812,29.389999389648438,29.39900016784668,11100.0,28.566303253173828
2016-12-14,29.559999465942383,29.059999465942383,29.34000015258789,29.149999618530273,12300.0,28.324356079101562
2016-12-15,29.510000228881836,29.100000381469727,29.100000381469727,29.190000534057617,26500.0,28.363224029541016
2016-12-16,29.290000915527344,29.09000015258789,29.290000915527344,29.09000015258789,11600.0,28.266054153442383
2016-12-19,29.270000457763672,29.110000610351562,29.24799919128418,29.209999084472656,5600.0,28.382654190063477
2016-12-20,29.510000228881836,29.284000396728516,29.5,29.329999923706055,18100.0,28.499258041381836
2016-12-21,29.469999313354492,29.280000686645508,29.360000610351562,29.280000686645508,65300.0,28.450674057006836
2016-12-22,29.18000030517578,29.051000595092773,29.166000366210938,29.110000610351562,14200.0,28.285490036010742
2016-12-23,29.0,28.950000762939453,28.950000762939453,28.989999771118164,23800.0,28.344152450561523
2016-12-27,29.139999389648438,28.989999771118164,28.989999771118164,29.100000381469727,10200.0,28.451704025268555
2016-12-28,29.239999771118164,28.777000427246094,29.239999771118164,28.799999237060547,6700.0,28.158384323120117
2016-12-29,28.8799991607666,28.739999771118164,28.8799991607666,28.829999923706055,4800.0,28.187715530395508
2016-12-30,28.829999923706055,28.700000762939453,28.775999069213867,28.700000762939453,11500.0,28.06061553955078
2017-01-03,29.368999481201172,28.780000686645508,28.899999618530273,28.860000610351562,9600.0,28.21704864501953
2017-01-04,29.329999923706055,29.030000686645508,29.030000686645508,29.31999969482422,39200.0,28.66680145263672
2017-01-05,29.68000030517578,29.06999969482422,29.68000030517578,29.15999984741211,9400.0,28.510366439819336
2017-01-06,29.309999465942383,29.163000106811523,29.187999725341797,29.260000228881836,7200.0,28.608137130737305
2017-01-09,29.239999771118164,29.06999969482422,29.239999771118164,29.079999923706055,29400.0,28.43214988708496
2017-01-10,29.270000457763672,29.1299991607666,29.170000076293945,29.209999084472656,14800.0,28.559249877929688
2017-01-11,29.3799991607666,29.18000030517578,29.229999542236328,29.270000457763672,23500.0,28.61791229248047
2017-01-12,29.260000228881836,28.969999313354492,29.260000228881836,29.219999313354492,20800.0,28.569028854370117
2017-01-13,29.389999389648438,29.305999755859375,29.360000610351562,29.319000244140625,10400.0,28.665822982788086
2017-01-17,29.329999923706055,29.09000015258789,29.329999923706055,29.15999984741211,8100.0,28.510366439819336
2017-01-18,29.34000015258789,29.114999771118164,29.309999465942383,29.299999237060547,8700.0,28.647247314453125
2017-01-19,29.389999389648438,29.059999465942383,29.350000381469727,29.079999923706055,27400.0,28.43214988708496
2017-01-20,29.28499984741211,29.16900062561035,29.190000534057617,29.197999954223633,17700.0,28.547517776489258
2017-01-23,29.42300033569336,29.010000228881836,29.1299991607666,29.18000030517578,34500.0,28.52992057800293
2017-01-24,29.549999237060547,29.25,29.25,29.520000457763672,16900.0,28.862346649169922
2017-01-25,29.790000915527344,29.700000762939453,29.700000762939453,29.774999618530273,22100.0,29.111663818359375
2017-01-26,29.829999923706055,29.670000076293945,29.816999435424805,29.700000762939453,12700.0,29.0383358001709
2017-01-27,29.75,29.565000534057617,29.75,29.600000381469727,19700.0,28.940563201904297
2017-01-30,29.670000076293945,29.158000946044922,29.670000076293945,29.420000076293945,22200.0,28.764572143554688
2017-01-31,29.5,29.253999710083008,29.389999389648438,29.489999771118164,23900.0,28.833011627197266
2017-02-01,30.1299991607666,29.332000732421875,30.1299991607666,29.420000076293945,16700.0,28.764572143554688
2017-02-02,29.520000457763672,29.334999084472656,29.350000381469727,29.469999313354492,32000.0,28.813457489013672
2017-02-03,29.760000228881836,29.6200008392334,29.65999984741211,29.729999542236328,17100.0,29.06766700744629
2017-02-06,29.719999313354492,29.615999221801758,29.690000534057617,29.639999389648438,54600.0,28.979671478271484
2017-02-07,29.719999313354492,29.549999237060547,29.6299991607666,29.549999237060547,20200.0,28.89167594909668
2017-02-08,29.639999389648438,29.510000228881836,29.549999237060547,29.639999389648438,24100.0,28.979671478271484
2017-02-09,29.940000534057617,29.70800018310547,29.739999771118164,29.90999984741211,13900.0,29.243656158447266
2017-02-10,30.1299991607666,29.969999313354492,30.1299991607666,30.06999969482422,12100.0,29.40009117126465
2017-02-13,30.290000915527344,30.132999420166016,30.290000915527344,30.170000076293945,8000.0,29.497865676879883
2017-02-14,30.360000610351562,30.08300018310547,30.360000610351562,30.239999771118164,18600.0,29.56630516052246
2017-02-15,30.440000534057617,30.16200065612793,30.25,30.40999984741211,19700.0,29.732519149780273
2017-02-16,30.56999969482422,30.2450008392334,30.56999969482422,30.3700008392334,13700.0,29.69340705871582
2017-02-17,30.40999984741211,30.260000228881836,30.290000915527344,30.40999984741211,11200.0,29.732519149780273
2017-02-21,30.645000457763672,30.520000457763672,30.566999435424805,30.6200008392334,11100.0,29.93783950805664
2017-02-22,30.68000030517578,30.5,30.68000030517578,30.530000686645508,17400.0,29.849843978881836
2017-02-23,30.65999984741211,30.360000610351562,30.65999984741211,30.440000534057617,11300.0,29.76184844970703
2017-02-24,30.510000228881836,30.280000686645508,30.280000686645508,30.4950008392334,32800.0,29.815624237060547
2017-02-27,30.649999618530273,30.510000228881836,30.510000228881836,30.6299991607666,76000.0,29.947616577148438
2017-02-28,30.6200008392334,30.430999755859375,30.6200008392334,30.450000762939453,10800.0,29.77162742614746
2017-03-01,30.940000534057617,30.75,30.75,30.8799991607666,15300.0,30.192045211791992
2017-03-02,30.90999984741211,30.65999984741211,30.90999984741211,30.65999984741211,25300.0,29.976945877075195
2017-03-03,30.68000030517578,30.506000518798828,30.68000030517578,30.639999389648438,8600.0,29.9573917388916
2017-03-06,30.59000015258789,30.391000747680664,30.59000015258789,30.469999313354492,12300.0,29.791181564331055
2017-03-07,30.459999084472656,30.299999237060547,30.459999084472656,30.299999237060547,8800.0,29.62496566772461
2017-03-08,30.4060001373291,30.25,30.399999618530273,30.25,98300.0,29.576082229614258
2017-03-09,30.350000381469727,30.1200008392334,30.350000381469727,30.201000213623047,17900.0,29.528173446655273
2017-03-10,30.43000030517578,30.229999542236328,30.3700008392334,30.299999237060547,10300.0,29.62496566772461
2017-03-13,30.43000030517578,30.34000015258789,30.34000015258789,30.40999984741211,79500.0,29.732519149780273
2017-03-14,30.34000015258789,30.134000778198242,30.34000015258789,30.309999465942383,12800.0,29.634742736816406
2017-03-15,30.68000030517578,30.43000030517578,30.450000762939453,30.65999984741211,11700.0,29.976945877075195
2017-03-16,30.790000915527344,30.548999786376953,30.790000915527344,30.59000015258789,28100.0,29.908506393432617
2017-03-17,30.780000686645508,30.551000595092773,30.670000076293945,30.6299991607666,9400.0,29.947616577148438
2017-03-20,30.739999771118164,30.43000030517578,30.739999771118164,30.510000228881836,18000.0,29.830289840698242
2017-03-21,30.663999557495117,29.937000274658203,30.59000015258789,29.959999084472656,22900.0,29.29254150390625
2017-03-22,30.020000457763672,29.850000381469727,29.850000381469727,30.020000457763672,379700.0,29.351205825805664
2017-03-23,30.239999771118164,30.05299949645996,30.06999969482422,30.079999923706055,8600.0,29.409866333007812
2017-03-24,30.200000762939453,29.965999603271484,30.18000030517578,30.040000915527344,25300.0,29.370759963989258
2017-03-27,30.125,29.760000228881836,29.8799991607666,30.097999572753906,12400.0,29.42746925354004
2017-03-28,30.29199981689453,29.93000030517578,29.93000030517578,30.280000686645508,33300.0,29.60541343688965
2017-03-29,30.350000381469727,30.200000762939453,30.25,30.34000015258789,13000.0,29.66407585144043
2017-03-30,30.527000427246094,30.270000457763672,30.270000457763672,30.459999084472656,66200.0,29.781402587890625
2017-03-31,30.530000686645508,30.43000030517578,30.468000411987305,30.43000030517578,14300.0,29.752073287963867
2017-04-03,30.450000762939453,30.1200008392334,30.450000762939453,30.25,11000.0,29.576082229614258
2017-04-04,30.25,30.163000106811523,30.25,30.200000762939453,8600.0,29.527196884155273
2017-04-05,30.510000228881836,30.049999237060547,30.510000228881836,30.049999237060547,14100.0,29.380537033081055
2017-04-06,30.329999923706055,30.049999237060547,30.110000610351562,30.260000228881836,15800.0,29.585859298706055
2017-04-07,30.325000762939453,30.204999923706055,30.280000686645508,30.229999542236328,7700.0,29.55652618408203
2017-04-10,30.40999984741211,30.215999603271484,30.295000076293945,30.32200050354004,32500.0,29.6464786529541
2017-04-11,30.43000030517578,30.09000015258789,30.43000030517578,30.3799991607666,4400.0,29.703184127807617
2017-04-12,30.389999389648438,30.09000015258789,30.389999389648438,30.1200008392334,53300.0,29.448976516723633
2017-04-13,30.3799991607666,29.875999450683594,30.06999969482422,29.889999389648438,15400.0,29.224102020263672
2017-04-17,30.18000030517578,29.940000534057617,29.959999084472656,30.18000030517578,10700.0,29.50764274597168
2017-04-18,30.139999389648438,29.989999771118164,30.09000015258789,30.135000228881836,84400.0,29.463645935058594
2017-04-19,30.31999969482422,30.1299991607666,30.219999313354492,30.1299991607666,16300.0,29.45875358581543
2017-04-20,30.5,30.219999313354492,30.3700008392334,30.450000762939453,35800.0,29.77162742614746
2017-04-21,30.43000030517578,30.299999237060547,30.43000030517578,30.389999389648438,14900.0,29.712963104248047
2017-04-24,30.84000015258789,30.624000549316406,30.84000015258789,30.739999771118164,7900.0,30.055164337158203
2017-04-25,30.91900062561035,30.81999969482422,30.889999389648438,30.889999389648438,26400.0,30.20182228088379
2017-04-26,30.99799919128418,30.8439998626709,30.940000534057617,30.8799991607666,12600.0,30.192045211791992
2017-04-27,30.933000564575195,30.83099937438965,30.920000076293945,30.87700080871582,10000.0,30.18911361694336
2017-04-28,31.100000381469727,30.641000747680664,30.920000076293945,30.66699981689453,11900.0,29.98379135131836
2017-05-01,30.799999237060547,30.604000091552734,30.770000457763672,30.719999313354492,7000.0,30.03561019897461
2017-05-02,30.809999465942383,30.639999389648438,30.809999465942383,30.709999084472656,21700.0,30.025833129882812
2017-05-03,31.229999542236328,30.530000686645508,31.229999542236328,30.6200008392334,26000.0,29.93783950805664
2017-05-04,30.639999389648438,30.530000686645508,30.621999740600586,30.639999389648438,13500.0,29.9573917388916
2017-05-05,30.8700008392334,30.660999298095703,30.687000274658203,30.8700008392334,23400.0,30.182270050048828
2017-05-08,30.920000076293945,30.7189998626709,30.84000015258789,30.808000564575195,10500.0,30.12164878845215
2017-05-09,30.889999389648438,30.75200080871582,30.889999389648438,30.791000366210938,8800.0,30.105030059814453
2017-05-10,30.8799991607666,30.715999603271484,30.799999237060547,30.8799991607666,15000.0,30.192045211791992
2017-05-11,30.799999237060547,30.569000244140625,30.799999237060547,30.75,16200.0,30.06494140625
2017-05-12,31.239999771118164,30.490999221801758,31.239999771118164,30.600000381469727,11300.0,29.918283462524414
2017-05-15,30.920000076293945,30.6200008392334,30.6200008392334,30.860000610351562,16000.0,30.17249298095703
2017-05-16,30.88800048828125,30.611000061035156,30.829999923706055,30.799999237060547,25600.0,30.113826751708984
2017-05-17,30.600000381469727,30.17099952697754,30.600000381469727,30.239999771118164,29500.0,29.56630516052246
2017-05-18,30.3799991607666,30.040000915527344,30.079999923706055,30.299999237060547,13700.0,29.62496566772461
2017-05-19,30.719999313354492,30.290000915527344,30.290000915527344,30.709999084472656,12600.0,30.025833129882812
2017-05-22,30.75,30.600000381469727,30.6299991607666,30.749000549316406,6500.0,30.06396484375
2017-05-23,30.809999465942383,30.711000442504883,30.799999237060547,30.75,6900.0,30.06494140625
2017-05-24,30.85300064086914,30.719999313354492,30.739999771118164,30.81999969482422,9500.0,30.13338279724121
2017-05-25,31.049999237060547,30.860000610351562,30.899999618530273,30.989999771118164,44700.0,30.299596786499023
2017-05-26,31.084999084472656,30.8799991607666,30.950000762939453,30.916000366210938,49800.0,30.227243423461914
2017-05-30,30.924999237060547,30.798999786376953,30.899999618530273,30.899999618530273,16800.0,30.21160125732422
2017-05-31,31.049999237060547,30.700000762939453,30.940000534057617,30.920000076293945,15800.0,30.231155395507812
2017-06-01,31.309999465942383,30.448999404907227,30.899999618530273,31.309999465942383,15300.0,30.612464904785156
2017-06-02,31.389999389648438,31.149999618530273,31.3700008392334,31.350000381469727,14700.0,30.651575088500977
2017-06-05,31.3700008392334,31.219999313354492,31.3700008392334,31.219999313354492,104000.0,30.524471282958984
2017-06-06,31.149999618530273,31.010000228881836,31.100000381469727,31.1200008392334,57400.0,30.426700592041016
2017-06-07,31.200000762939453,31.01799964904785,31.200000762939453,31.09000015258789,26800.0,30.397369384765625
2017-06-08,31.280000686645508,31.030000686645508,31.1200008392334,31.239999771118164,10000.0,30.54402732849121
2017-06-09,31.43000030517578,31.118000030517578,31.190000534057617,31.19499969482422,18900.0,30.500028610229492
2017-06-12,31.260000228881836,31.156999588012695,31.219999313354492,31.260000228881836,14200.0,30.563581466674805
2017-06-13,31.4950008392334,31.280000686645508,31.280000686645508,31.489999771118164,23800.0,30.7884578704834
2017-06-14,31.735000610351562,31.270000457763672,31.56999969482422,31.270000457763672,16700.0,30.5733585357666
2017-06-15,31.329999923706055,31.150999069213867,31.190000534057617,31.329999923706055,11400.0,30.63201904296875
2017-06-16,31.645000457763672,31.194000244140625,31.34000015258789,31.2810001373291,14400.0,30.58411407470703
2017-06-19,31.56999969482422,31.33799934387207,31.56999969482422,31.559999465942383,18300.0,30.856895446777344
2017-06-20,31.5,31.260000228881836,31.5,31.290000915527344,16600.0,30.592912673950195
2017-06-21,31.3799991607666,31.09000015258789,31.31999969482422,31.18000030517578,14800.0,30.485361099243164
2017-06-22,31.239999771118164,31.03499984741211,31.149999618530273,31.15999984741211,19800.0,30.46580696105957
2017-06-23,31.329999923706055,31.187999725341797,31.200000762939453,31.329999923706055,9700.0,30.63201904296875
2017-06-26,31.309999465942383,31.18400001525879,31.280000686645508,31.243000030517578,11800.0,30.671287536621094
2017-06-27,31.290000915527344,30.989999771118164,31.239999771118164,30.989999771118164,25500.0,30.42292022705078
2017-06-28,31.3799991607666,31.100000381469727,31.280000686645508,31.290000915527344,70400.0,30.717430114746094
2017-06-29,31.81999969482422,30.920000076293945,31.81999969482422,31.110000610351562,110300.0,30.540725708007812
2017-06-30,31.19099998474121,31.010000228881836,31.156999588012695,31.149999618530273,25300.0,30.579992294311523
2017-07-03,31.389999389648438,31.209999084472656,31.209999084472656,31.299999237060547,5800.0,30.72724723815918
2017-07-05,31.290000915527344,31.18000030517578,31.290000915527344,31.270000457763672,8100.0,30.697795867919922
2017-07-06,31.139999389648438,30.920000076293945,31.139999389648438,30.93000030517578,12000.0,30.364017486572266
2017-07-07,31.209999084472656,30.961999893188477,30.989999771118164,31.209999084472656,10300.0,30.638891220092773
2017-07-10,31.239999771118164,31.111000061035156,31.1200008392334,31.200000762939453,64900.0,30.62907600402832
2017-07-11,31.5,31.040000915527344,31.5,31.139999389648438,16900.0,30.570173263549805
2017-07-12,31.479999542236328,31.25,31.25,31.360000610351562,17800.0,30.786149978637695
2017-07-13,31.631999969482422,31.291000366210938,31.399999618530273,31.440000534057617,19200.0,30.86468505859375
2017-07-14,31.600000381469727,31.399999618530273,31.450000762939453,31.59000015258789,18800.0,31.011940002441406
2017-07-17,32.13999938964844,31.434999465942383,31.709999084472656,31.639999389648438,19200.0,31.061023712158203
2017-07-18,31.55500030517578,31.44099998474121,31.530000686645508,31.51799964904785,16300.0,30.94125747680664
2017-07-19,31.780000686645508,31.600000381469727,31.600000381469727,31.700000762939453,11300.0,31.11992835998535
2017-07-20,31.809999465942383,31.639999389648438,31.790000915527344,31.760000228881836,13800.0,31.178831100463867
2017-07-21,31.729999542236328,31.579999923706055,31.709999084472656,31.729999542236328,15200.0,31.149377822875977
2017-07-24,31.760000228881836,31.610000610351562,31.670000076293945,31.760000228881836,20400.0,31.178831100463867
2017-07-25,31.940000534057617,31.735000610351562,31.809999465942383,31.8799991607666,17200.0,31.296632766723633
2017-07-26,31.889999389648438,31.690000534057617,31.889999389648438,31.690000534057617,13200.0,31.110111236572266
2017-07-27,31.700000762939453,31.40999984741211,31.600000381469727,31.54400062561035,11200.0,30.966781616210938
2017-07-28,31.579999923706055,31.459999084472656,31.459999084472656,31.579999923706055,12600.0,31.00212287902832
2017-07-31,31.606000900268555,31.433000564575195,31.540000915527344,31.559999465942383,10400.0,30.98248863220215
2017-08-01,31.719999313354492,31.520000457763672,31.719999313354492,31.600000381469727,36100.0,31.021757125854492
2017-08-02,31.59000015258789,31.33799934387207,31.59000015258789,31.469999313354492,16600.0,30.894136428833008
2017-08-03,31.469999313354492,31.3700008392334,31.469999313354492,31.450000762939453,12500.0,30.874500274658203
2017-08-04,31.520000457763672,31.43199920654297,31.510000228881836,31.510000228881836,19700.0,30.93340492248535
2017-08-07,31.649999618530273,31.437999725341797,31.649999618530273,31.559999465942383,26400.0,30.98248863220215
2017-08-08,31.639999389648438,31.40999984741211,31.520000457763672,31.42799949645996,26200.0,30.8529052734375
2017-08-09,31.3799991607666,31.191999435424805,31.270000457763672,31.209999084472656,22100.0,30.638891220092773
2017-08-10,31.1299991607666,30.770999908447266,31.1299991607666,30.860000610351562,46400.0,30.295299530029297
2017-08-11,30.957000732421875,30.760000228881836,30.760000228881836,30.90999984741211,39200.0,30.344383239746094
2017-08-14,31.25,31.0,31.0,31.229999542236328,26000.0,30.658525466918945
2017-08-15,31.3799991607666,31.041000366210938,31.3799991607666,31.149999618530273,22300.0,30.579992294311523
2017-08-16,31.299999237060547,31.149999618530273,31.170000076293945,31.15999984741211,19900.0,30.589807510375977
2017-08-17,31.110000610351562,30.75,31.110000610351562,30.75,7300.0,30.18731117248535
2017-08-18,31.059999465942383,30.625999450683594,31.059999465942383,30.709999084472656,7300.0,30.148042678833008
2017-08-21,30.716999053955078,30.54599952697754,30.6200008392334,30.70400047302246,7900.0,30.142152786254883
2017-08-22,31.020000457763672,30.709999084472656,30.709999084472656,31.020000457763672,38300.0,30.452369689941406
2017-08-23,31.0,30.84000015258789,30.84000015258789,30.93000030517578,12300.0,30.364017486572266
2017-08-24,31.15999984741211,30.844999313354492,31.15999984741211,30.940000534057617,17400.0,30.37383460998535
2017-08-25,31.09000015258789,30.97800064086914,31.040000915527344,31.049999237060547,36000.0,30.481822967529297
2017-08-28,31.579999923706055,30.906999588012695,31.149999618530273,31.040000915527344,19900.0,30.47200584411621
2017-08-29,31.097000122070312,30.78700065612793,30.799999237060547,30.989999771118164,31200.0,30.42292022705078
2017-08-30,31.139999389648438,30.950000762939453,30.950000762939453,31.059999465942383,25100.0,30.49163818359375
2017-08-31,31.41200065612793,31.219999313354492,31.219999313354492,31.399999618530273,20700.0,30.825416564941406
2017-09-01,31.566999435424805,31.422000885009766,31.469999313354492,31.48699951171875,16600.0,30.910825729370117
2017-09-05,31.540000915527344,31.077999114990234,31.540000915527344,31.209999084472656,14500.0,30.638891220092773
2017-09-06,31.299999237060547,31.158000946044922,31.299999237060547,31.225000381469727,5000.0,30.65361976623535
2017-09-07,31.229999542236328,31.06999969482422,31.229999542236328,31.125999450683594,6600.0,30.55643081665039
2017-09-08,31.270000457763672,31.077999114990234,31.077999114990234,31.270000457763672,6900.0,30.697795867919922
2017-09-11,31.625,31.459999084472656,31.475000381469727,31.6200008392334,8900.0,31.041391372680664
2017-09-12,31.739999771118164,31.610000610351562,31.610000610351562,31.729999542236328,11500.0,31.149377822875977
2017-09-13,31.729000091552734,31.656999588012695,31.709999084472656,31.690000534057617,17000.0,31.110111236572266
2017-09-14,31.690000534057617,31.600000381469727,31.610000610351562,31.674999237060547,15000.0,31.09538459777832
2017-09-15,32.16999816894531,31.600000381469727,31.649999618530273,31.780000686645508,14900.0,31.19846534729004
2017-09-18,31.889999389648438,31.804000854492188,31.84000015258789,31.8700008392334,10500.0,31.286815643310547
2017-09-19,31.940000534057617,31.780000686645508,31.940000534057617,31.816999435424805,15100.0,31.234785079956055
2017-09-20,31.922000885009766,31.75200080871582,31.8799991607666,31.899999618530273,17700.0,31.316268920898438
2017-09-21,31.93000030517578,31.760000228881836,31.93000030517578,31.860000610351562,22000.0,31.277000427246094
2017-09-22,31.940000534057617,31.81100082397461,31.829999923706055,31.940000534057617,25200.0,31.35553741455078
2017-09-25,31.90999984741211,31.719999313354492,31.899999618530273,31.90999984741211,27900.0,31.32608413696289
2017-09-26,32.0,31.889999389648438,31.889999389648438,31.950000762939453,32300.0,31.365352630615234
2017-09-27,32.16999816894531,31.9060001373291,32.04999923706055,32.13999938964844,16900.0,31.551877975463867
2017-09-28,32.15999984741211,31.992000579833984,32.04999923706055,32.15999984741211,22200.0,31.571510314941406
2017-09-29,32.290000915527344,32.11600112915039,32.20000076293945,32.279998779296875,20800.0,31.689311981201172
2017-10-02,32.810001373291016,32.2599983215332,32.369998931884766,32.459999084472656,13600.0,31.86602020263672
2017-10-03,32.58000183105469,32.36000061035156,32.4900016784668,32.58000183105469,69100.0,31.983827590942383
2017-10-04,32.599998474121094,32.49700164794922,32.529998779296875,32.599998474121094,26800.0,32.003456115722656
2017-10-05,32.72999954223633,32.619998931884766,32.72999954223633,32.68000030517578,7800.0,32.08199691772461
2017-10-06,32.68000030517578,32.55699920654297,32.630001068115234,32.66999816894531,20200.0,32.072174072265625
2017-10-09,32.582000732421875,32.459999084472656,32.58000183105469,32.560001373291016,682700.0,31.96419334411621
2017-10-10,32.650001525878906,32.5,32.650001525878906,32.619998931884766,238800.0,32.02309036254883
2017-10-11,32.63999938964844,32.529998779296875,32.63999938964844,32.577999114990234,20200.0,31.981861114501953
2017-10-12,32.67300033569336,32.56100082397461,32.599998474121094,32.630001068115234,17400.0,32.03290939331055
2017-10-13,33.029998779296875,32.654998779296875,33.029998779296875,32.68000030517578,11000.0,32.08199691772461
2017-10-16,32.810001373291016,32.62099838256836,32.810001373291016,32.689998626708984,13200.0,32.0918083190918
2017-10-17,32.689998626708984,32.61600112915039,32.65999984741211,32.630001068115234,18800.0,32.03290939331055
2017-10-18,32.779998779296875,32.63600158691406,32.779998779296875,32.72999954223633,19000.0,32.13107681274414
2017-10-19,32.89799880981445,32.47999954223633,32.59000015258789,32.77000045776367,22000.0,32.170345306396484
2017-10-20,33.060001373291016,32.888999938964844,33.060001373291016,33.040000915527344,17600.0,32.43540573120117
2017-10-23,33.13999938964844,32.858001708984375,33.13999938964844,32.900001525878906,15800.0,32.297969818115234
2017-10-24,33.0099983215332,32.87900161743164,33.0099983215332,32.91999816894531,21600.0,32.31760025024414
2017-10-25,32.88999938964844,32.5099983215332,32.88999938964844,32.72999954223633,12300.0,32.13107681274414
2017-10-26,32.9379997253418,32.790000915527344,32.849998474121094,32.900001525878906,13000.0,32.297969818115234
2017-10-27,33.06999969482422,32.68000030517578,33.06999969482422,32.97999954223633,18500.0,32.376502990722656
2017-10-30,32.9900016784668,32.75,32.86800003051758,32.78499984741211,13200.0,32.18507385253906
2017-10-31,32.97999954223633,32.81999969482422,32.81999969482422,32.90999984741211,13800.0,32.30778503417969
2017-11-01,33.279998779296875,32.86000061035156,33.279998779296875,32.900001525878906,16300.0,32.297969818115234
2017-11-02,32.98099899291992,32.810001373291016,32.849998474121094,32.91999816894531,16200.0,32.31760025024414
2017-11-03,33.0,32.89500045776367,32.9900016784668,32.994998931884766,10500.0,32.39122772216797
2017-11-06,33.150001525878906,32.9900016784668,32.9900016784668,33.13999938964844,22900.0,32.5335807800293
2017-11-07,33.16999816894531,32.90700149536133,33.16999816894531,32.97999954223633,23000.0,32.376502990722656
2017-11-08,33.060001373291016,32.89099884033203,32.95000076293945,33.04999923706055,24100.0,32.44522476196289
2017-11-09,32.959999084472656,32.64400100708008,32.86000061035156,32.88999938964844,29700.0,32.28815460205078
2017-11-10,32.90999984741211,32.7400016784668,32.86000061035156,32.83000183105469,16900.0,32.229248046875
2017-11-13,33.0,32.749000549316406,32.790000915527344,32.9900016784668,13300.0,32.386322021484375
2017-11-14,32.95000076293945,32.8129997253418,32.88999938964844,32.946998596191406,13100.0,32.34410858154297
2017-11-15,32.88999938964844,32.650001525878906,32.84000015258789,32.810001373291016,15500.0,32.209617614746094
2017-11-16,33.15599822998047,32.88100051879883,32.93000030517578,33.11899948120117,18300.0,32.512962341308594
2017-11-17,33.209999084472656,33.08000183105469,33.130001068115234,33.08000183105469,12600.0,32.47467803955078
2017-11-20,33.310001373291016,33.17499923706055,33.2400016784668,33.310001373291016,13000.0,32.70046615600586
2017-11-21,33.47999954223633,33.40999984741211,33.47999954223633,33.44499969482422,10200.0,32.8329963684082
2017-11-22,33.5,33.38999938964844,33.439998626708984,33.470001220703125,15100.0,32.857540130615234
2017-11-24,33.499000549316406,33.400001525878906,33.43000030517578,33.46699905395508,2500.0,32.85459518432617
2017-11-27,33.5,33.40999984741211,33.5,33.41999816894531,17800.0,32.80845260620117
2017-11-28,33.92399978637695,33.44599914550781,33.849998474121094,33.83000183105469,53900.0,33.21095275878906
2017-11-29,33.9379997253418,33.82899856567383,33.91999816894531,33.91999816894531,24600.0,33.29930114746094
2017-11-30,34.23500061035156,34.0,34.06999969482422,34.150001525878906,91900.0,33.52509307861328
2017-12-01,34.09000015258789,33.58000183105469,33.959999084472656,34.060001373291016,31500.0,33.43674087524414
2017-12-04,34.29999923706055,33.96699905395508,34.290000915527344,34.029998779296875,15200.0,33.40728759765625
2017-12-05,34.0099983215332,33.70000076293945,33.992000579833984,33.70000076293945,24500.0,33.08333206176758
2017-12-06,33.78099822998047,33.691001892089844,33.78099822998047,33.70000076293945,25000.0,33.08333206176758
2017-12-07,33.95000076293945,33.7400016784668,33.75,33.900001525878906,31200.0,33.27967071533203
2017-12-08,34.11000061035156,33.880001068115234,34.029998779296875,34.042999267578125,15400.0,33.4200553894043
2017-12-11,34.16999816894531,34.016998291015625,34.16999816894531,34.040000915527344,27100.0,33.417110443115234
2017-12-12,34.16999816894531,34.02000045776367,34.16999816894531,34.02000045776367,14300.0,33.39747619628906
2017-12-13,34.308998107910156,33.90999984741211,34.09000015258789,33.90999984741211,26500.0,33.289485931396484
2017-12-14,34.06999969482422,33.698001861572266,34.06999969482422,33.75,19800.0,33.132415771484375
2017-12-15,34.15999984741211,33.810001373291016,33.88999938964844,34.04999923706055,14100.0,33.42692565917969
2017-12-18,34.36000061035156,34.2599983215332,34.36000061035156,34.33000183105469,25500.0,33.701805114746094
2017-12-19,35.040000915527344,34.25,35.040000915527344,34.279998779296875,31500.0,33.652713775634766
2017-12-20,34.5,34.25,34.5,34.25,325800.0,33.623268127441406
2017-12-21,34.40999984741211,34.2599983215332,34.36000061035156,34.310001373291016,21400.0,33.682167053222656
2017-12-22,34.41999816894531,34.27799987792969,34.41999816894531,34.36000061035156,14500.0,33.73125076293945
2017-12-26,34.31999969482422,34.14400100708008,34.31999969482422,34.20000076293945,10200.0,33.750003814697266
2017-12-27,34.58000183105469,34.145999908447266,34.58000183105469,34.220001220703125,32400.0,33.76974105834961
2017-12-28,34.38999938964844,34.15999984741211,34.33000183105469,34.38999938964844,29600.0,33.9375
2017-12-29,34.529998779296875,34.11000061035156,34.529998779296875,34.11000061035156,38600.0,33.66118621826172
2018-01-02,34.439998626708984,34.2400016784668,34.2400016784668,34.439998626708984,95000.0,33.98684310913086
2018-01-03,34.619998931884766,34.439998626708984,34.439998626708984,34.619998931884766,20500.0,34.16447448730469
2018-01-04,35.02000045776367,34.66999816894531,34.70000076293945,34.7400016784668,48100.0,34.28289794921875
2018-01-05,34.900001525878906,34.75,34.75,34.88999938964844,33900.0,34.43092346191406
2018-01-08,35.060001373291016,34.80099868774414,34.93000030517578,35.060001373291016,41000.0,34.59868621826172
2018-01-09,35.18000030517578,35.016998291015625,35.18000030517578,35.060001373291016,32700.0,34.59868621826172
2018-01-10,35.029998779296875,34.810001373291016,35.029998779296875,34.91600036621094,93900.0,34.45658493041992
2018-01-11,35.33000183105469,35.0099983215332,35.0099983215332,35.33000183105469,55900.0,34.86513900756836
2018-01-12,35.5099983215332,35.279998779296875,35.380001068115234,35.459999084472656,49500.0,34.99342346191406
2018-01-16,35.619998931884766,35.15299987792969,35.54999923706055,35.209999084472656,25100.0,34.7467155456543
2018-01-17,35.560001373291016,35.28200149536133,35.459999084472656,35.5099983215332,39700.0,35.04276657104492
2018-01-18,35.5099983215332,35.349998474121094,35.470001220703125,35.43000030517578,17900.0,34.96381759643555
2018-01-19,35.709999084472656,35.428001403808594,35.43000030517578,35.709999084472656,19900.0,35.240135192871094
2018-01-22,35.880001068115234,35.630001068115234,35.630001068115234,35.880001068115234,17200.0,35.407901763916016
2018-01-23,36.029998779296875,35.8650016784668,35.959999084472656,36.005001068115234,25100.0,35.53125762939453
2018-01-24,36.29999923706055,35.8380012512207,36.02000045776367,35.9900016784668,22300.0,35.51645278930664
2018-01-25,36.279998779296875,35.880001068115234,36.279998779296875,35.9900016784668,31400.0,35.51645278930664
2018-01-26,36.290000915527344,36.005001068115234,36.16999816894531,36.290000915527344,91700.0,35.812503814697266
2018-01-29,36.22999954223633,36.0,36.209999084472656,36.029998779296875,35600.0,35.55592346191406
2018-01-30,35.97999954223633,35.599998474121094,35.97999954223633,35.720001220703125,17200.0,35.250003814697266
2018-01-31,36.130001068115234,35.505001068115234,35.7599983215332,35.650001525878906,21000.0,35.18092346191406
2018-02-01,35.75,35.5099983215332,35.56399917602539,35.650001525878906,14400.0,35.18092346191406
2018-02-02,35.47999954223633,34.928001403808594,35.47999954223633,34.97999954223633,27500.0,34.519737243652344
2018-02-05,34.95800018310547,33.650001525878906,34.70500183105469,33.66999816894531,43100.0,33.22697448730469
2018-02-06,34.11000061035156,32.98500061035156,33.56999969482422,34.04999923706055,41400.0,33.60197830200195
2018-02-07,34.400001525878906,34.0099983215332,34.29999923706055,34.060001373291016,66100.0,33.61184310913086
2018-02-08,34.119998931884766,32.91999816894531,34.119998931884766,32.91999816894531,46200.0,32.48684310913086
2018-02-09,33.36000061035156,32.21099853515625,33.36000061035156,33.2400016784668,166700.0,32.802635192871094
2018-02-12,33.89500045776367,33.22999954223633,33.470001220703125,33.66999816894531,23900.0,33.22697448730469
2018-02-13,33.790000915527344,33.44499969482422,33.630001068115234,33.75199890136719,41500.0,33.30789566040039
2018-02-14,34.369998931884766,33.54999923706055,33.54999923706055,34.34600067138672,19500.0,33.89408493041992
2018-02-15,34.65999984741211,34.27000045776367,34.5,34.599998474121094,52800.0,34.144737243652344
2018-02-16,34.90999984741211,34.58000183105469,34.619998931884766,34.709999084472656,20100.0,34.253292083740234
2018-02-20,34.73400115966797,34.45500183105469,34.58000183105469,34.52299880981445,24800.0,34.06875228881836
2018-02-21,34.91999816894531,34.400001525878906,34.59000015258789,34.400001525878906,35600.0,33.94737243652344
2018-02-22,34.68000030517578,34.290000915527344,34.560001373291016,34.349998474121094,32100.0,33.89802551269531
2018-02-23,34.810001373291016,34.439998626708984,34.58000183105469,34.810001373291016,30200.0,34.35197830200195
2018-02-26,35.165000915527344,34.691001892089844,35.04999923706055,34.9900016784668,28900.0,34.52960968017578
2018-02-27,35.119998931884766,34.599998474121094,35.040000915527344,34.599998474121094,28800.0,34.144737243652344
2018-02-28,34.81999969482422,34.2760009765625,34.81999969482422,34.2760009765625,20200.0,33.82500457763672
2018-03-01,34.59000015258789,33.797000885009766,34.59000015258789,33.9900016784668,40800.0,33.54276657104492
2018-03-02,34.279998779296875,33.630001068115234,34.150001525878906,34.2599983215332,234900.0,33.80921173095703
2018-03-05,34.72999954223633,34.0099983215332,34.0099983215332,34.619998931884766,51300.0,34.16447448730469
2018-03-06,34.90999984741211,34.59000015258789,34.84000015258789,34.900001525878906,34100.0,34.440792083740234
2018-03-07,35.0099983215332,34.7140007019043,34.88999938964844,34.97800064086914,25900.0,34.517765045166016
2018-03-08,35.15999984741211,34.84400177001953,35.13999938964844,34.93000030517578,41400.0,34.47039794921875
2018-03-09,35.58000183105469,35.209999084472656,35.58000183105469,35.534000396728516,28100.0,35.06645202636719
2018-03-12,35.689998626708984,35.4900016784668,35.689998626708984,35.57400131225586,50100.0,35.105926513671875
2018-03-13,35.720001220703125,35.34000015258789,35.709999084472656,35.34000015258789,28900.0,34.875003814697266
2018-03-14,35.529998779296875,35.150001525878906,35.529998779296875,35.185001373291016,37800.0,34.722042083740234
2018-03-15,35.47999954223633,35.02000045776367,35.47999954223633,35.099998474121094,29300.0,34.63815689086914
2018-03-16,35.34000015258789,35.14899826049805,35.25,35.279998779296875,39600.0,34.815792083740234
2018-03-19,35.14500045776367,34.689998626708984,35.04999923706055,34.90999984741211,35200.0,34.450660705566406
2018-03-20,35.0890007019043,34.9379997253418,35.029998779296875,35.0099983215332,46600.0,34.549346923828125
2018-03-21,35.290000915527344,34.970001220703125,34.970001220703125,35.08000183105469,27400.0,34.61842727661133
2018-03-22,34.91899871826172,34.22999954223633,34.84000015258789,34.22999954223633,60800.0,33.779605865478516
2018-03-23,34.31999969482422,33.52000045776367,34.31999969482422,33.569000244140625,66900.0,33.12730407714844
2018-03-26,34.369998931884766,33.709999084472656,34.09000015258789,34.36000061035156,41600.0,33.90789794921875
2018-03-27,34.4900016784668,33.74800109863281,34.470001220703125,33.880001068115234,31400.0,33.4342155456543
2018-03-28,34.13999938964844,33.720001220703125,34.13999938964844,33.81999969482422,37300.0,33.375003814697266
2018-03-29,34.43000030517578,33.91999816894531,33.91999816894531,34.290000915527344,44100.0,33.83882141113281
2018-04-02,34.209999084472656,33.20600128173828,34.209999084472656,33.4370002746582,125100.0,32.997039794921875
2018-04-03,33.91999816894531,33.55400085449219,33.86000061035156,33.880001068115234,76500.0,33.4342155456543
2018-04-04,34.220001220703125,33.41999816894531,33.41999816894531,34.220001220703125,29500.0,33.76974105834961
2018-04-05,34.518001556396484,34.30500030517578,34.38999938964844,34.45000076293945,21700.0,33.9967155456543
2018-04-06,34.25,33.439998626708984,34.13999938964844,33.70000076293945,75400.0,33.25658416748047
2018-04-09,34.220001220703125,33.7400016784668,33.88999938964844,33.7400016784668,32400.0,33.296058654785156
2018-04-10,34.35499954223633,34.09600067138672,34.099998474121094,34.27000045776367,10900.0,33.8190803527832
2018-04-11,34.27399826049805,34.08000183105469,34.08000183105469,34.130001068115234,41800.0,33.68092727661133
2018-04-12,34.47999954223633,34.2869987487793,34.33000183105469,34.38399887084961,33600.0,33.931583404541016
2018-04-13,34.7400016784668,34.11600112915039,34.56999969482422,34.15999984741211,85600.0,33.71052932739258
2018-04-16,34.599998474121094,34.34000015258789,34.41999816894531,34.529998779296875,13200.0,34.075660705566406
2018-04-17,34.900001525878906,34.72999954223633,34.77000045776367,34.86000061035156,31800.0,34.40131759643555
2018-04-18,35.130001068115234,34.880001068115234,34.880001068115234,34.95000076293945,108100.0,34.490135192871094
2018-04-19,34.88999938964844,34.597999572753906,34.849998474121094,34.75,30700.0,34.29276657104492
2018-04-20,34.79999923706055,34.444000244140625,34.709999084472656,34.50299835205078,56000.0,34.049015045166016
2018-04-23,34.7400016784668,34.44599914550781,34.529998779296875,34.540000915527344,21800.0,34.08552932739258
2018-04-24,35.369998931884766,34.0,34.77000045776367,34.18000030517578,59800.0,33.73026657104492
2018-04-25,34.30500030517578,34.06100082397461,34.18000030517578,34.220001220703125,19800.0,33.76974105834961
2018-04-26,34.470001220703125,34.18600082397461,34.23099899291992,34.34000015258789,45600.0,33.888160705566406
2018-04-27,34.637001037597656,34.290000915527344,34.400001525878906,34.38999938964844,64800.0,33.9375
2018-04-30,34.52000045776367,34.040000915527344,34.380001068115234,34.040000915527344,18100.0,33.59210968017578
2018-05-01,34.11000061035156,33.757999420166016,34.08000183105469,34.108001708984375,54500.0,33.65921401977539
2018-05-02,34.18299865722656,33.90999984741211,34.04999923706055,33.917999267578125,105700.0,33.47171401977539
2018-05-03,33.970001220703125,33.47200012207031,33.81999969482422,33.88999938964844,131500.0,33.44408416748047
2018-05-04,34.369998931884766,33.720001220703125,34.0,34.279998779296875,39900.0,33.828948974609375
2018-05-07,34.63999938964844,34.29999923706055,34.63999938964844,34.39899826049805,52400.0,33.946380615234375
2018-05-08,34.51300048828125,34.303001403808594,34.369998931884766,34.470001220703125,30600.0,34.01645278930664
2018-05-09,34.7599983215332,34.45000076293945,34.650001525878906,34.70000076293945,36700.0,34.24342346191406
2018-05-10,34.9900016784668,34.7400016784668,34.810001373291016,34.93000030517578,186200.0,34.47039794921875
2018-05-11,35.04999923706055,34.79999923706055,34.97999954223633,34.939998626708984,110800.0,34.480262756347656
2018-05-14,35.09000015258789,34.83000183105469,35.04999923706055,34.880001068115234,38300.0,34.421058654785156
2018-05-15,34.810001373291016,34.65599822998047,34.77000045776367,34.7400016784668,129800.0,34.28289794921875
2018-05-16,35.040000915527344,34.72999954223633,34.72999954223633,34.95000076293945,20600.0,34.490135192871094
2018-05-17,35.130001068115234,34.869998931884766,34.9900016784668,35.018001556396484,22000.0,34.5572395324707
2018-05-18,35.060001373291016,34.96799850463867,35.0099983215332,35.0,19100.0,34.53947830200195
2018-05-21,35.279998779296875,35.16600036621094,35.189998626708984,35.22999954223633,33400.0,34.766448974609375
2018-05-22,35.36000061035156,35.0359992980957,35.36000061035156,35.06999969482422,45200.0,34.60855484008789
2018-05-23,35.099998474121094,34.90599822998047,35.0,35.099998474121094,41800.0,34.63815689086914
2018-05-24,35.130001068115234,34.86600112915039,34.97999954223633,35.060001373291016,18200.0,34.59868621826172
2018-05-25,35.11000061035156,34.974998474121094,35.02000045776367,35.060001373291016,58200.0,34.59868621826172
2018-05-29,34.930999755859375,34.599998474121094,34.900001525878906,34.7400016784668,26200.0,34.28289794921875
2018-05-30,35.2400016784668,34.90999984741211,34.90999984741211,35.130001068115234,36200.0,34.66777038574219
2018-05-31,35.130001068115234,34.81100082397461,35.130001068115234,34.84000015258789,23700.0,34.38158416748047
2018-06-01,35.2599983215332,35.06999969482422,35.11000061035156,35.13999938964844,30200.0,34.67763137817383
2018-06-04,35.29999923706055,35.1349983215332,35.29999923706055,35.2599983215332,112000.0,34.79605484008789
2018-06-05,35.40999984741211,35.2599983215332,35.310001373291016,35.40999984741211,41300.0,34.94408416748047
2018-06-06,35.65999984741211,35.375999450683594,35.439998626708984,35.63999938964844,40800.0,35.17105484008789
2018-06-07,35.840999603271484,35.51599884033203,35.77000045776367,35.63800048828125,73000.0,35.16908264160156
2018-06-08,35.81999969482422,35.58000183105469,35.65999984741211,35.810001373291016,83200.0,35.33881759643555
2018-06-11,35.93000030517578,35.790000915527344,35.83000183105469,35.790000915527344,21600.0,35.31908416748047
2018-06-12,36.02000045776367,35.810001373291016,35.900001525878906,35.959999084472656,26900.0,35.486846923828125
2018-06-13,36.06999969482422,35.75899887084961,36.06999969482422,35.79999923706055,46400.0,35.32895278930664
2018-06-14,35.91999816894531,35.7599983215332,35.90999984741211,35.869998931884766,48800.0,35.39802932739258
2018-06-15,35.880001068115234,35.595001220703125,35.65999984741211,35.79999923706055,22000.0,35.32895278930664
2018-06-18,35.90999984741211,35.599998474121094,35.599998474121094,35.869998931884766,49200.0,35.39802932739258
2018-06-19,36.22999954223633,35.42900085449219,36.22999954223633,35.68000030517578,63600.0,35.21052932739258
2018-06-20,35.90999984741211,35.7400016784668,35.84000015258789,35.83000183105469,74400.0,35.358558654785156
2018-06-21,36.1619987487793,35.53099822998047,35.86000061035156,35.59000015258789,33800.0,35.1217155456543
2018-06-22,35.70000076293945,35.516998291015625,35.70000076293945,35.516998291015625,283800.0,35.0496711730957
2018-06-25,35.34000015258789,34.90999984741211,35.34000015258789,35.06999969482422,81700.0,34.60855484008789
2018-06-26,35.09000015258789,34.900001525878906,34.93000030517578,34.9900016784668,28000.0,34.6650276184082
2018-06-27,35.189998626708984,34.599998474121094,35.04999923706055,34.619998931884766,35500.0,34.2984619140625
2018-06-28,34.84000015258789,34.439998626708984,34.59000015258789,34.7599983215332,55700.0,34.43716049194336
2018-06-29,35.11000061035156,34.84199905395508,34.91999816894531,34.84199905395508,125100.0,34.518402099609375
2018-07-02,35.029998779296875,34.57500076293945,35.029998779296875,34.82400131225586,62000.0,34.50056838989258
2018-07-03,35.099998474121094,34.82500076293945,34.939998626708984,34.82500076293945,24200.0,34.50156021118164
2018-07-05,35.43000030517578,34.832000732421875,34.97999954223633,35.11000061035156,19600.0,34.783912658691406
2018-07-06,35.43000030517578,35.10499954223633,35.16999816894531,35.36000061035156,123900.0,35.03158950805664
2018-07-09,35.709999084472656,35.534000396728516,35.58000183105469,35.709999084472656,29900.0,35.37833786010742
2018-07-10,36.13999938964844,35.60200119018555,36.13999938964844,35.720001220703125,54900.0,35.388248443603516
2018-07-11,35.599998474121094,35.446998596191406,35.59000015258789,35.4900016784668,22700.0,35.16038513183594
2018-07-12,35.95199966430664,35.54600143432617,35.599998474121094,35.70000076293945,39200.0,35.36843490600586
2018-07-13,35.939998626708984,35.689998626708984,35.939998626708984,35.720001220703125,25200.0,35.388248443603516
2018-07-16,35.77000045776367,35.5099983215332,35.77000045776367,35.56999969482422,33100.0,35.23963928222656
2018-07-17,35.79999923706055,35.525001525878906,35.529998779296875,35.75899887084961,73500.0,35.426883697509766
2018-07-18,35.91999816894531,35.70399856567383,35.810001373291016,35.90999984741211,44700.0,35.576480865478516
2018-07-19,36.02000045776367,35.75,35.869998931884766,35.959999084472656,74400.0,35.62601852416992
2018-07-20,36.097999572753906,35.779998779296875,35.95000076293945,35.83000183105469,61900.0,35.49722671508789
2018-07-23,35.88999938964844,35.70000076293945,35.810001373291016,35.82099914550781,76800.0,35.48830795288086
2018-07-24,35.959999084472656,35.52000045776367,35.900001525878906,35.630001068115234,34400.0,35.2990837097168
2018-07-25,35.900001525878906,35.53799819946289,35.650001525878906,35.880001068115234,75300.0,35.54676055908203
2018-07-26,36.13999938964844,35.900001525878906,35.900001525878906,36.09000015258789,32900.0,35.75481033325195
2018-07-27,36.380001068115234,35.63999938964844,36.2400016784668,35.779998779296875,46400.0,35.447689056396484
2018-07-30,35.86000061035156,35.47999954223633,35.86000061035156,35.500999450683594,43400.0,35.17127990722656
2018-07-31,35.880001068115234,35.630001068115234,35.72999954223633,35.84000015258789,41600.0,35.50713348388672
2018-08-01,36.15599822998047,35.650001525878906,35.849998474121094,35.650001525878906,49300.0,35.31889724731445
2018-08-02,35.90999984741211,35.47200012207031,35.47999954223633,35.880001068115234,289900.0,35.54676055908203
2018-08-03,35.981998443603516,35.47999954223633,35.47999954223633,35.959999084472656,52800.0,35.62601852416992
2018-08-06,36.15999984741211,35.935001373291016,36.02000045776367,36.11000061035156,110500.0,35.77462387084961
2018-08-07,36.810001373291016,36.17499923706055,36.810001373291016,36.20000076293945,77400.0,35.86378860473633
2018-08-08,36.40800094604492,36.04999923706055,36.220001220703125,36.18000030517578,127700.0,35.84397506713867
2018-08-09,36.34000015258789,36.14099884033203,36.22999954223633,36.16999816894531,91100.0,35.83406448364258
2018-08-10,36.073001861572266,35.86800003051758,35.970001220703125,35.93000030517578,48700.0,35.59629821777344
2018-08-13,36.02000045776367,35.65800094604492,36.02000045776367,35.720001220703125,72000.0,35.388248443603516
2018-08-14,36.09000015258789,35.810001373291016,35.810001373291016,36.02000045776367,62600.0,35.685462951660156
2018-08-15,35.84000015258789,35.51300048828125,35.84000015258789,35.70000076293945,49300.0,35.36843490600586
2018-08-16,36.06999969482422,35.874000549316406,35.959999084472656,35.97999954223633,40700.0,35.64583206176758
2018-08-17,36.189998626708984,35.95000076293945,35.95000076293945,36.15999984741211,58700.0,35.824161529541016
2018-08-20,36.369998931884766,36.13999938964844,36.13999938964844,36.33000183105469,32200.0,35.992584228515625
2018-08-21,36.75,36.41999816894531,36.720001220703125,36.518001556396484,63700.0,36.178836822509766
2018-08-22,36.90599822998047,36.426998138427734,36.4900016784668,36.47999954223633,52600.0,36.14118957519531
2018-08-23,36.47999954223633,36.319000244140625,36.459999084472656,36.36000061035156,65200.0,36.02230453491211
2018-08-24,36.599998474121094,36.40599822998047,36.459999084472656,36.56999969482422,104400.0,36.230350494384766
2018-08-27,36.84000015258789,36.650001525878906,36.650001525878906,36.779998779296875,40800.0,36.43840026855469
2018-08-28,36.88999938964844,36.67599868774414,36.88999938964844,36.7599983215332,118900.0,36.41858673095703
2018-08-29,36.959999084472656,36.74700164794922,36.84000015258789,36.90999984741211,58700.0,36.567195892333984
2018-08-30,37.16999816894531,36.619998931884766,37.16999816894531,36.65999984741211,68000.0,36.319515228271484
2018-08-31,36.72999954223633,36.54999923706055,36.54999923706055,36.70000076293945,37200.0,36.35914611816406
2018-09-04,36.7599983215332,36.540000915527344,36.70000076293945,36.68199920654297,49800.0,36.341312408447266
2018-09-05,36.689998626708984,36.40999984741211,36.66999816894531,36.65999984741211,33100.0,36.319515228271484
2018-09-06,36.737998962402344,36.5,36.72999954223633,36.560001373291016,36100.0,36.2204475402832
2018-09-07,36.599998474121094,36.33000183105469,36.5099983215332,36.362998962402344,47000.0,36.025272369384766
2018-09-10,36.63999938964844,36.47999954223633,36.63999938964844,36.560001373291016,33800.0,36.2204475402832
2018-09-11,36.709999084472656,36.452999114990234,36.47999954223633,36.630001068115234,49900.0,36.289794921875
2018-09-12,37.0099983215332,36.43000030517578,36.58000183105469,36.650001525878906,61400.0,36.30961227416992
2018-09-13,36.849998474121094,36.689998626708984,36.790000915527344,36.77000045776367,118100.0,36.428497314453125
2018-09-14,36.939998626708984,36.779998779296875,36.779998779296875,36.900001525878906,136000.0,36.557289123535156
2018-09-17,36.869998931884766,36.54999923706055,36.869998931884766,36.599998474121094,88800.0,36.26007080078125
2018-09-18,36.83000183105469,36.59199905395508,36.65999984741211,36.790000915527344,101500.0,36.44831085205078
2018-09-19,36.994998931884766,36.65999984741211,36.81999969482422,36.70000076293945,49600.0,36.35914611816406
2018-09-20,36.91999816894531,36.7400016784668,36.849998474121094,36.875999450683594,43500.0,36.53350830078125
2018-09-21,37.029998779296875,36.869998931884766,37.0,36.880001068115234,49300.0,36.5374755859375
2018-09-24,36.849998474121094,36.58000183105469,36.849998474121094,36.66999816894531,51500.0,36.32942199707031
2018-09-25,36.7599983215332,36.59000015258789,36.7599983215332,36.61000061035156,51900.0,36.269981384277344
2018-09-26,36.68000030517578,36.38999938964844,36.599998474121094,36.38999938964844,54100.0,36.052024841308594
2018-09-27,36.560001373291016,36.400001525878906,36.470001220703125,36.40999984741211,85900.0,36.07183837890625
2018-09-28,36.55099868774414,36.2599983215332,36.2599983215332,36.5,43500.0,36.16100311279297
2018-10-01,36.81999969482422,36.29999923706055,36.81999969482422,36.380001068115234,43700.0,36.042118072509766
2018-10-02,36.43000030517578,36.189998626708984,36.36000061035156,36.2400016784668,62600.0,35.903419494628906
2018-10-03,36.439998626708984,36.2599983215332,36.38999938964844,36.29999923706055,45400.0,35.962860107421875
2018-10-04,36.380001068115234,35.779998779296875,36.25,35.959999084472656,68100.0,35.62601852416992
2018-10-05,36.06999969482422,35.51499938964844,35.95000076293945,35.720001220703125,36800.0,35.388248443603516
2018-10-08,35.68000030517578,35.349998474121094,35.61000061035156,35.59000015258789,38100.0,35.25945281982422
2018-10-09,36.073001861572266,35.36899948120117,35.54999923706055,35.400001525878906,1827500.0,35.07122039794922
2018-10-10,35.36000061035156,34.34000015258789,35.349998474121094,34.349998474121094,92200.0,34.030967712402344
2018-10-11,34.459999084472656,33.60499954223633,34.220001220703125,33.689998626708984,1843900.0,33.377098083496094
2018-10-12,34.209999084472656,33.50400161743164,34.13999938964844,33.900001525878906,74400.0,33.58515167236328
2018-10-15,34.209999084472656,33.810001373291016,33.900001525878906,33.9900016784668,50000.0,33.67431640625
2018-10-16,34.720001220703125,34.02399826049805,34.13999938964844,34.66999816894531,1846300.0,34.34799575805664
2018-10-17,34.7400016784668,34.31999969482422,34.689998626708984,34.58000183105469,94400.0,34.25883865356445
2018-10-18,34.54899978637695,33.96099853515625,34.470001220703125,34.08000183105469,1471200.0,33.76348114013672
2018-10-19,34.63199996948242,33.84199905395508,34.20000076293945,33.90999984741211,54700.0,33.59505844116211
2018-10-22,34.0,33.69300079345703,33.97999954223633,33.790000915527344,47300.0,33.476173400878906
2018-10-23,33.66999816894531,32.875999450683594,33.619998931884766,33.47999954223633,95900.0,33.16905212402344
2018-10-24,33.571998596191406,32.465999603271484,33.4900016784668,32.5099983215332,104000.0,32.20805740356445
2018-10-25,33.119998931884766,32.47999954223633,32.79999923706055,32.849998474121094,630100.0,32.54490280151367
2018-10-26,32.78499984741211,31.969999313354492,32.540000915527344,32.38999938964844,135400.0,32.08917236328125
2018-10-29,33.099998474121094,32.08000183105469,32.81999969482422,32.356998443603516,92800.0,32.056480407714844
2018-10-30,33.029998779296875,32.349998474121094,32.349998474121094,32.970001220703125,136900.0,32.663787841796875
2018-10-31,33.75,33.29999923706055,33.75,33.310001373291016,419600.0,33.000633239746094
2018-11-01,33.95000076293945,33.31999969482422,33.43000030517578,33.939998626708984,73000.0,33.624778747558594
2018-11-02,34.349998474121094,33.56999969482422,34.11000061035156,33.84000015258789,107300.0,33.52570724487305
2018-11-05,34.029998779296875,33.70899963378906,33.90999984741211,33.939998626708984,61400.0,33.624778747558594
2018-11-06,34.2599983215332,33.900001525878906,33.970001220703125,34.13999938964844,492300.0,33.82292175292969
2018-11-07,34.709999084472656,34.25,34.380001068115234,34.709999084472656,475400.0,34.38762664794922
2018-11-08,34.7400016784668,34.49399948120117,34.61000061035156,34.619998931884766,234400.0,34.2984619140625
2018-11-09,34.599998474121094,34.04899978637695,34.470001220703125,34.27000045776367,151700.0,33.95171356201172
2018-11-12,34.279998779296875,33.707000732421875,34.279998779296875,33.72999954223633,109800.0,33.41672897338867
2018-11-13,34.12699890136719,33.630001068115234,33.83000183105469,33.7400016784668,86000.0,33.426639556884766
2018-11-14,34.099998474121094,33.3120002746582,34.0,33.540000915527344,165000.0,33.22849655151367
2018-11-15,33.970001220703125,33.20399856567383,33.33000183105469,33.93000030517578,86900.0,33.614871978759766
2018-11-16,34.040000915527344,33.7140007019043,33.779998779296875,33.970001220703125,108400.0,33.654502868652344
2018-11-19,33.88999938964844,33.310001373291016,33.88999938964844,33.43000030517578,116100.0,33.11951446533203
2018-11-20,33.21500015258789,32.68000030517578,33.029998779296875,32.90999984741211,107800.0,32.60434341430664
2018-11-21,33.439998626708984,33.060001373291016,33.11000061035156,33.189998626708984,148900.0,32.881744384765625
2018-11-23,33.358001708984375,32.88999938964844,32.9900016784668,33.220001220703125,32700.0,32.911468505859375
2018-11-26,33.66999816894531,33.42599868774414,33.459999084472656,33.59000015258789,118000.0,33.27803039550781
2018-11-27,33.560001373291016,33.34700012207031,33.5099983215332,33.459999084472656,163400.0,33.149234771728516
2018-11-28,34.13800048828125,33.382999420166016,33.630001068115234,34.130001068115234,103900.0,33.81301498413086
2018-11-29,34.2599983215332,33.81800079345703,34.040000915527344,34.040000915527344,127600.0,33.72385025024414
2018-11-30,34.279998779296875,33.970001220703125,33.970001220703125,34.22999954223633,120400.0,33.912086486816406
2018-12-03,34.7599983215332,34.303001403808594,34.65999984741211,34.56999969482422,100900.0,34.24892807006836
2018-12-04,34.56999969482422,33.380001068115234,34.540000915527344,33.439998626708984,136500.0,33.12942123413086
2018-12-06,33.45000076293945,32.47100067138672,33.11000061035156,33.349998474121094,378500.0,33.04025650024414
2018-12-07,33.5099983215332,32.45800018310547,33.25,32.59000015258789,220200.0,32.28731918334961
2018-12-10,32.630001068115234,31.93000030517578,32.56999969482422,32.459999084472656,272000.0,32.15852355957031
2018-12-11,32.95000076293945,32.27799987792969,32.86000061035156,32.439998626708984,141800.0,32.138710021972656
2018-12-12,33.43899917602539,32.599998474121094,32.810001373291016,32.650001525878906,126300.0,32.34675979614258
2018-12-13,33.45899963378906,32.23899841308594,32.68000030517578,32.32699966430664,214400.0,32.02676010131836
2018-12-14,32.479000091552734,31.770999908447266,32.099998474121094,31.8700008392334,142700.0,31.574005126953125
2018-12-17,31.893999099731445,31.020000457763672,31.81999969482422,31.190000534057617,132700.0,30.900320053100586
2018-12-18,31.6200008392334,31.020000457763672,31.520000457763672,31.209999084472656,215800.0,30.920133590698242
2018-12-19,31.610000610351562,30.573999404907227,31.200000762939453,30.719999313354492,368700.0,30.43468475341797
2018-12-20,30.74799919128418,29.892000198364258,30.579999923706055,30.239999771118164,516000.0,29.959142684936523
2018-12-21,30.6200008392334,29.6200008392334,30.309999465942383,29.716999053955078,343200.0,29.44099998474121
2018-12-24,29.290000915527344,28.59000015258789,29.25,28.59000015258789,320000.0,28.59000015258789
2018-12-26,29.93899917602539,28.56599998474121,28.760000228881836,29.889999389648438,315100.0,29.889999389648438
2018-12-27,30.149999618530273,29.155000686645508,29.59000015258789,30.139999389648438,847300.0,30.139999389648438
2018-12-28,30.49799919128418,29.950000762939453,30.219999313354492,30.1200008392334,518700.0,30.1200008392334
2018-12-31,30.450000762939453,30.04800033569336,30.399999618530273,30.440000534057617,364800.0,30.440000534057617
2019-01-02,30.43899917602539,29.940000534057617,30.030000686645508,30.350000381469727,177400.0,30.350000381469727
2019-01-03,30.219999313354492,29.700000762939453,30.219999313354492,29.790000915527344,155000.0,29.790000915527344
2019-01-04,30.809999465942383,30.15999984741211,30.15999984741211,30.719999313354492,75600.0,30.719999313354492
2019-01-07,31.388999938964844,30.729999542236328,30.799999237060547,31.1200008392334,499500.0,31.1200008392334
2019-01-08,31.527999877929688,31.110000610351562,31.43000030517578,31.520000457763672,83600.0,31.520000457763672
2019-01-09,31.881000518798828,31.59000015258789,31.670000076293945,31.770000457763672,779600.0,31.770000457763672
2019-01-10,32.0,31.555999755859375,31.610000610351562,31.979999542236328,226800.0,31.979999542236328
2019-01-11,32.04999923706055,31.790000915527344,31.8799991607666,32.029998779296875,62900.0,32.029998779296875
2019-01-14,31.989999771118164,31.75,31.809999465942383,31.860000610351562,79400.0,31.860000610351562
2019-01-15,32.10100173950195,31.860000610351562,31.8799991607666,32.099998474121094,145100.0,32.099998474121094
2019-01-16,32.35499954223633,32.1510009765625,32.18000030517578,32.290000915527344,58500.0,32.290000915527344
2019-01-17,32.68899917602539,32.18000030517578,32.18000030517578,32.560001373291016,94700.0,32.560001373291016
2019-01-18,33.09000015258789,32.689998626708984,32.869998931884766,33.040000915527344,225300.0,33.040000915527344
2019-01-22,32.81999969482422,32.388999938964844,32.790000915527344,32.529998779296875,145900.0,32.529998779296875
2019-01-23,32.77000045776367,32.255001068115234,32.70000076293945,32.560001373291016,902800.0,32.560001373291016
2019-01-24,32.81999969482422,32.4900016784668,32.58000183105469,32.75,156500.0,32.75
2019-01-25,33.150001525878906,32.94900131225586,33.029998779296875,33.09000015258789,129100.0,33.09000015258789
2019-01-28,33.0099983215332,32.73500061035156,32.79999923706055,32.9900016784668,62600.0,32.9900016784668
2019-01-29,33.12099838256836,32.92499923706055,32.9900016784668,33.09000015258789,137400.0,33.09000015258789
2019-01-30,33.50199890136719,32.959999084472656,33.22999954223633,33.41999816894531,149900.0,33.41999816894531
2019-01-31,33.58000183105469,33.25,33.400001525878906,33.560001373291016,180100.0,33.560001373291016
2019-02-01,33.733001708984375,33.52000045776367,33.630001068115234,33.70000076293945,61100.0,33.70000076293945
2019-02-04,33.939998626708984,33.59000015258789,33.7599983215332,33.939998626708984,127600.0,33.939998626708984
2019-02-05,34.124000549316406,33.904998779296875,34.0,34.040000915527344,271600.0,34.040000915527344
2019-02-06,34.15999984741211,33.957000732421875,34.06999969482422,34.029998779296875,169800.0,34.029998779296875
2019-02-07,34.02399826049805,33.63999938964844,33.900001525878906,33.88999938964844,194700.0,33.88999938964844
2019-02-08,33.91999816894531,33.66899871826172,33.7400016784668,33.91699981689453,63100.0,33.91699981689453
2019-02-11,34.11000061035156,33.95500183105469,34.11000061035156,34.08000183105469,54100.0,34.08000183105469
2019-02-12,34.53499984741211,34.2599983215332,34.279998779296875,34.4900016784668,117500.0,34.4900016784668
2019-02-13,34.68000030517578,34.459999084472656,34.56999969482422,34.59000015258789,115000.0,34.59000015258789
2019-02-14,34.66999816894531,34.40399932861328,34.470001220703125,34.54999923706055,166900.0,34.54999923706055
2019-02-15,34.91999816894531,34.7400016784668,34.75,34.91999816894531,70600.0,34.91999816894531
2019-02-19,35.06999969482422,34.808998107910156,34.83000183105469,34.9900016784668,332800.0,34.9900016784668
2019-02-20,35.11000061035156,34.93000030517578,34.93000030517578,35.04999923706055,78900.0,35.04999923706055
2019-02-21,35.055999755859375,34.8380012512207,35.040000915527344,34.970001220703125,70800.0,34.970001220703125
2019-02-22,35.22999954223633,35.013999938964844,35.08000183105469,35.220001220703125,93300.0,35.220001220703125
2019-02-25,35.44499969482422,35.189998626708984,35.439998626708984,35.209999084472656,442000.0,35.209999084472656
2019-02-26,35.25,35.029998779296875,35.209999084472656,35.060001373291016,60400.0,35.060001373291016
2019-02-27,35.15999984741211,34.928001403808594,35.0,35.119998931884766,92000.0,35.119998931884766
2019-02-28,35.15700149536133,34.972999572753906,35.119998931884766,35.04999923706055,157600.0,35.04999923706055
2019-03-01,35.35300064086914,35.05400085449219,35.25,35.279998779296875,262600.0,35.279998779296875
2019-03-04,35.400001525878906,34.779998779296875,35.400001525878906,35.08000183105469,81700.0,35.08000183105469
2019-03-05,35.099998474121094,34.952999114990234,35.09000015258789,34.9900016784668,43800.0,34.9900016784668
2019-03-06,34.9900016784668,34.619998931884766,34.9900016784668,34.630001068115234,147300.0,34.630001068115234
2019-03-07,34.61000061035156,34.25199890136719,34.61000061035156,34.369998931884766,153300.0,34.369998931884766
2019-03-08,34.279998779296875,34.03499984741211,34.11000061035156,34.279998779296875,70900.0,34.279998779296875
2019-03-11,34.71099853515625,34.369998931884766,34.369998931884766,34.70000076293945,79000.0,34.70000076293945
2019-03-12,34.891998291015625,34.7400016784668,34.7599983215332,34.83000183105469,173700.0,34.83000183105469
2019-03-13,35.150001525878906,34.900001525878906,34.900001525878906,34.9900016784668,108500.0,34.9900016784668
2019-03-14,35.0099983215332,34.869998931884766,35.0099983215332,34.90999984741211,167800.0,34.90999984741211
2019-03-15,35.189998626708984,34.97999954223633,34.9900016784668,35.04999923706055,74000.0,35.04999923706055
2019-03-18,35.249000549316406,35.029998779296875,35.06999969482422,35.20000076293945,39200.0,35.20000076293945
2019-03-19,35.374000549316406,35.029998779296875,35.34000015258789,35.119998931884766,35800.0,35.119998931884766
2019-03-20,35.11800003051758,34.68000030517578,35.08000183105469,34.84000015258789,105600.0,34.84000015258789
2019-03-21,35.402000427246094,34.75,34.75,35.33000183105469,194600.0,35.33000183105469
2019-03-22,35.15999984741211,34.48099899291992,35.15999984741211,34.5,75600.0,34.5
2019-03-25,34.67100143432617,34.310001373291016,34.43000030517578,34.47999954223633,101900.0,34.47999954223633
2019-03-26,34.900001525878906,34.58000183105469,34.70000076293945,34.77000045776367,70500.0,34.77000045776367
2019-03-27,34.91999816894531,34.46200180053711,34.810001373291016,34.689998626708984,317200.0,34.689998626708984
2019-03-28,34.96200180053711,34.64400100708008,34.77000045776367,34.95000076293945,162000.0,34.95000076293945
2019-03-29,35.198001861572266,35.040000915527344,35.16999816894531,35.13999938964844,93900.0,35.13999938964844
2019-04-01,35.630001068115234,35.27000045776367,35.380001068115234,35.630001068115234,154100.0,35.630001068115234
2019-04-02,35.650001525878906,35.470001220703125,35.619998931884766,35.619998931884766,131000.0,35.619998931884766
2019-04-03,35.900001525878906,35.68600082397461,35.810001373291016,35.779998779296875,58300.0,35.779998779296875
2019-04-04,35.880001068115234,35.68000030517578,35.81999969482422,35.81999969482422,48100.0,35.81999969482422
2019-04-05,36.099998474121094,35.900001525878906,35.93000030517578,36.099998474121094,79800.0,36.099998474121094
2019-04-08,36.11000061035156,35.900001525878906,36.029998779296875,36.11000061035156,37700.0,36.11000061035156
2019-04-09,36.02000045776367,35.7400016784668,36.0099983215332,35.779998779296875,78800.0,35.779998779296875
2019-04-10,36.060001373291016,35.834999084472656,35.849998474121094,36.0099983215332,86600.0,36.0099983215332
2019-04-11,36.16899871826172,36.029998779296875,36.099998474121094,36.150001525878906,64200.0,36.150001525878906
2019-04-12,36.43000030517578,36.255001068115234,36.38999938964844,36.40999984741211,71700.0,36.40999984741211
2019-04-15,36.439998626708984,36.290000915527344,36.439998626708984,36.36000061035156,100700.0,36.36000061035156
2019-04-16,36.5,36.2599983215332,36.47999954223633,36.33000183105469,70800.0,36.33000183105469
2019-04-17,36.4900016784668,36.0,36.47999954223633,36.06999969482422,128600.0,36.06999969482422
2019-04-18,36.209999084472656,35.95000076293945,36.099998474121094,36.20000076293945,75200.0,36.20000076293945
2019-04-22,36.130001068115234,35.970001220703125,36.130001068115234,36.060001373291016,88600.0,36.060001373291016
2019-04-23,36.5099983215332,36.130001068115234,36.18000030517578,36.47999954223633,65500.0,36.47999954223633
2019-04-24,36.630001068115234,36.472999572753906,36.540000915527344,36.52000045776367,125400.0,36.52000045776367
2019-04-25,36.400001525878906,36.05799865722656,36.400001525878906,36.27000045776367,100000.0,36.27000045776367
2019-04-26,36.540000915527344,36.27000045776367,36.290000915527344,36.540000915527344,88700.0,36.540000915527344
2019-04-29,36.6349983215332,36.529998779296875,36.599998474121094,36.54999923706055,64100.0,36.54999923706055
2019-04-30,36.63999938964844,36.290000915527344,36.599998474121094,36.63999938964844,119500.0,36.63999938964844
2019-05-01,36.7400016784668,36.2400016784668,36.709999084472656,36.290000915527344,273400.0,36.290000915527344
2019-05-02,36.400001525878906,36.005001068115234,36.15999984741211,36.33000183105469,76800.0,36.33000183105469
2019-05-03,36.689998626708984,36.45000076293945,36.47999954223633,36.689998626708984,160900.0,36.689998626708984
2019-05-06,36.650001525878906,36.130001068115234,36.130001068115234,36.52000045776367,134000.0,36.52000045776367
2019-05-07,36.290000915527344,35.6870002746582,36.25,35.959999084472656,210700.0,35.959999084472656
2019-05-08,36.09700012207031,35.83000183105469,35.91999816894531,35.900001525878906,76500.0,35.900001525878906
2019-05-09,35.85499954223633,35.33700180053711,35.65999984741211,35.810001373291016,171600.0,35.810001373291016
2019-05-10,36.0099983215332,35.25,35.720001220703125,35.85900115966797,65700.0,35.85900115966797
2019-05-13,35.31999969482422,34.790000915527344,35.31999969482422,34.939998626708984,148100.0,34.939998626708984
2019-05-14,35.47999954223633,35.02000045776367,35.099998474121094,35.31999969482422,316400.0,35.31999969482422
2019-05-15,35.4900016784668,35.06999969482422,35.119998931884766,35.400001525878906,92400.0,35.400001525878906
2019-05-16,35.849998474121094,35.43000030517578,35.43000030517578,35.70000076293945,392800.0,35.70000076293945
2019-05-17,35.7599983215332,35.3650016784668,35.45000076293945,35.400001525878906,67100.0,35.400001525878906
2019-05-20,35.310001373291016,35.034000396728516,35.2400016784668,35.16999816894531,45200.0,35.16999816894531
2019-05-21,35.619998931884766,35.400001525878906,35.400001525878906,35.56999969482422,91400.0,35.56999969482422
2019-05-22,35.5,35.279998779296875,35.47999954223633,35.36000061035156,68300.0,35.36000061035156
2019-05-23,35.04999923706055,34.65999984741211,35.04999923706055,34.849998474121094,96400.0,34.849998474121094
2019-05-24,35.150001525878906,34.85300064086914,35.0099983215332,34.970001220703125,37700.0,34.970001220703125
