Date,High,Low,Open,Close,Volume,Adj Close
2016-07-13,15.289999961853027,15.277000427246094,15.289999961853027,15.277000427246094,1400.0,14.684416770935059
2016-07-14,15.369999885559082,15.369999885559082,15.369999885559082,15.369999885559082,2000.0,14.773808479309082
2016-07-15,15.34000015258789,15.25,15.34000015258789,15.25,1986800.0,14.658463478088379
2016-07-18,15.305000305175781,15.305000305175781,15.305000305175781,15.305000305175781,300.0,14.71133041381836
2016-07-19,15.272000312805176,15.272000312805176,15.272000312805176,15.272000312805176,1000.0,14.679610252380371
2016-07-20,15.378000259399414,15.32800006866455,15.32800006866455,15.350000381469727,2000.0,14.754585266113281
2016-07-21,15.40999984741211,15.300999641418457,15.40999984741211,15.300999641418457,1500.0,14.70748519897461
2016-07-22,15.380000114440918,15.300000190734863,15.300000190734863,15.380000114440918,2900.0,14.783421516418457
2016-07-25,15.350000381469727,15.347000122070312,15.350000381469727,15.347000122070312,500.0,14.751701354980469
2016-07-26,15.430000305175781,15.40999984741211,15.40999984741211,15.41100025177002,3200.0,14.81321907043457
2016-07-27,15.449999809265137,15.347999572753906,15.4399995803833,15.430000305175781,2100.0,14.83148193359375
2016-07-28,15.380000114440918,15.354000091552734,15.380000114440918,15.354000091552734,1300.0,14.758430480957031
2016-07-29,15.449999809265137,15.413999557495117,15.413999557495117,15.444999694824219,4000.0,14.845900535583496
2016-08-01,15.460000038146973,15.3100004196167,15.399999618530273,15.399999618530273,7600.0,14.802645683288574
2016-08-02,15.319999694824219,15.21399974822998,15.319999694824219,15.21399974822998,7000.0,14.623859405517578
2016-08-03,15.295000076293945,15.220999717712402,15.220999717712402,15.295000076293945,700.0,14.701719284057617
2016-08-04,15.343000411987305,15.343000411987305,15.343000411987305,15.343000411987305,2800.0,14.747856140136719
2016-08-05,15.470000267028809,15.470000267028809,15.470000267028809,15.470000267028809,300.0,14.869930267333984
2016-08-08,15.5,15.494000434875488,15.494000434875488,15.5,600.0,14.898767471313477
2016-08-09,15.539999961853027,15.5,15.539999961853027,15.5,700.0,14.898767471313477
2016-08-10,15.470000267028809,15.425999641418457,15.470000267028809,15.425999641418457,1200.0,14.82763671875
2016-08-11,15.600000381469727,15.519000053405762,15.569999694824219,15.585000038146973,9300.0,14.980469703674316
2016-08-12,15.579000473022461,15.527000427246094,15.527000427246094,15.579000473022461,6500.0,14.974702835083008
2016-08-15,15.6899995803833,15.635000228881836,15.680000305175781,15.670000076293945,3200.0,15.062171936035156
2016-08-16,15.609999656677246,15.579999923706055,15.600000381469727,15.579999923706055,900.0,14.975664138793945
2016-08-17,15.5600004196167,15.5,15.529999732971191,15.5600004196167,8600.0,14.956439971923828
2016-08-18,15.619999885559082,15.583999633789062,15.59000015258789,15.619999885559082,4200.0,15.01411247253418
2016-08-19,15.649999618530273,15.633999824523926,15.633999824523926,15.649999618530273,1900.0,15.042947769165039
2016-08-22,15.649999618530273,15.649999618530273,15.649999618530273,15.649999618530273,0.0,15.042947769165039
2016-08-23,15.687000274658203,15.687000274658203,15.687000274658203,15.687000274658203,700.0,15.078513145446777
2016-08-24,15.760000228881836,15.585000038146973,15.760000228881836,15.585000038146973,3300.0,14.980469703674316
2016-08-25,15.597000122070312,15.597000122070312,15.597000122070312,15.597000122070312,200.0,14.992005348205566
2016-08-26,15.708999633789062,15.574000358581543,15.663999557495117,15.574000358581543,500.0,14.969897270202637
2016-08-29,15.711999893188477,15.684000015258789,15.711999893188477,15.687000274658203,900.0,15.078513145446777
2016-08-30,15.65999984741211,15.65999984741211,15.65999984741211,15.65999984741211,400.0,15.052559852600098
2016-08-31,15.600000381469727,15.545999526977539,15.600000381469727,15.593999862670898,3700.0,14.989120483398438
2016-09-01,15.543000221252441,15.543000221252441,15.543000221252441,15.543000221252441,400.0,14.940098762512207
2016-09-02,15.680000305175781,15.619999885559082,15.680000305175781,15.619999885559082,1900.0,15.01411247253418
2016-09-06,15.649999618530273,15.649999618530273,15.649999618530273,15.649999618530273,700.0,15.042947769165039
2016-09-07,15.649999618530273,15.649999618530273,15.649999618530273,15.649999618530273,400.0,15.042947769165039
2016-09-08,15.640000343322754,15.600000381469727,15.61400032043457,15.640000343322754,1500.0,15.033336639404297
2016-09-09,15.5,15.279999732971191,15.5,15.279999732971191,1800.0,14.687300682067871
2016-09-12,15.460000038146973,15.270000457763672,15.270000457763672,15.446000099182129,2300.0,14.846861839294434
2016-09-13,15.359999656677246,15.180000305175781,15.359999656677246,15.1899995803833,2200.0,14.600790023803711
2016-09-14,15.239999771118164,15.16100025177002,15.239999771118164,15.170000076293945,5100.0,14.58156681060791
2016-09-15,15.329999923706055,15.239999771118164,15.239999771118164,15.324000358581543,1000.0,14.729594230651855
2016-09-16,15.260000228881836,15.222999572753906,15.229999542236328,15.260000228881836,1800.0,14.668076515197754
2016-09-19,15.319999694824219,15.319999694824219,15.319999694824219,15.319999694824219,1900.0,14.725748062133789
2016-09-20,15.329999923706055,15.300000190734863,15.329999923706055,15.3100004196167,900.0,14.716136932373047
2016-09-21,15.395999908447266,15.3100004196167,15.36299991607666,15.395999908447266,1500.0,14.798800468444824
2016-09-22,15.539999961853027,15.526000022888184,15.526000022888184,15.539999961853027,1100.0,14.937214851379395
2016-09-23,15.529999732971191,15.529999732971191,15.529999732971191,15.529999732971191,500.0,14.927602767944336
2016-09-26,15.430000305175781,15.35200023651123,15.399999618530273,15.390000343322754,1800.0,14.793033599853516
2016-09-27,15.460000038146973,15.460000038146973,15.460000038146973,15.460000038146973,500.0,14.860318183898926
2016-09-28,15.489999771118164,15.48900032043457,15.48900032043457,15.489999771118164,1300.0,14.889153480529785
2016-09-29,15.550000190734863,15.479999542236328,15.550000190734863,15.479999542236328,700.0,14.879542350769043
2016-09-30,15.579999923706055,15.484999656677246,15.489999771118164,15.579999923706055,700.0,14.975664138793945
2016-10-03,15.579999923706055,15.510000228881836,15.579999923706055,15.510000228881836,900.0,14.908378601074219
2016-10-04,15.520000457763672,15.460000038146973,15.520000457763672,15.460000038146973,500.0,14.860318183898926
2016-10-05,15.569999694824219,15.5,15.5,15.569999694824219,600.0,14.96605110168457
2016-10-06,15.444999694824219,15.444999694824219,15.444999694824219,15.444999694824219,300.0,14.845900535583496
2016-10-07,15.489999771118164,15.456999778747559,15.489999771118164,15.456999778747559,300.0,14.857434272766113
2016-10-10,15.527000427246094,15.527000427246094,15.527000427246094,15.527000427246094,500.0,14.92471981048584
2016-10-11,15.5,15.213000297546387,15.5,15.213000297546387,3800.0,14.622900009155273
2016-10-12,15.319999694824219,15.25,15.25,15.319999694824219,2200.0,14.725748062133789
2016-10-13,15.279999732971191,15.104000091552734,15.104000091552734,15.279999732971191,2400.0,14.687300682067871
2016-10-14,15.319999694824219,15.25,15.319999694824219,15.260000228881836,1500.0,14.668076515197754
2016-10-17,15.180000305175781,15.180000305175781,15.180000305175781,15.180000305175781,600.0,14.591179847717285
2016-10-18,15.270000457763672,15.239999771118164,15.239999771118164,15.25,2200.0,14.658463478088379
2016-10-19,15.329999923706055,15.298999786376953,15.319999694824219,15.329999923706055,5200.0,14.735361099243164
2016-10-20,15.300000190734863,15.220000267028809,15.300000190734863,15.270000457763672,1900.0,14.677688598632812
2016-10-21,15.3100004196167,15.1899995803833,15.199999809265137,15.279999732971191,1800.0,14.687300682067871
2016-10-24,16.040000915527344,15.279999732971191,16.040000915527344,15.3100004196167,10700.0,14.716136932373047
2016-10-25,15.3100004196167,15.3100004196167,15.3100004196167,15.3100004196167,0.0,14.716136932373047
2016-10-26,15.239999771118164,15.152000427246094,15.170000076293945,15.152000427246094,2500.0,14.564265251159668
2016-10-27,15.15999984741211,15.119999885559082,15.140000343322754,15.119999885559082,3400.0,14.533506393432617
2016-10-28,15.25,15.1899995803833,15.190999984741211,15.239999771118164,900.0,14.64885139465332
2016-10-31,15.210000038146973,15.210000038146973,15.210000038146973,15.210000038146973,400.0,14.620016098022461
2016-11-01,15.050000190734863,15.041999816894531,15.050000190734863,15.041999816894531,3500.0,14.458532333374023
2016-11-02,15.029999732971191,14.989999771118164,15.029999732971191,14.989999771118164,1200.0,14.408549308776855
2016-11-03,14.920000076293945,14.880000114440918,14.899999618530273,14.880000114440918,1500.0,14.302816390991211
2016-11-04,14.949999809265137,14.949999809265137,14.949999809265137,14.949999809265137,400.0,14.370100021362305
2016-11-07,15.175999641418457,15.140000343322754,15.145000457763672,15.140000343322754,2100.0,14.552730560302734
2016-11-08,15.267000198364258,15.166000366210938,15.166000366210938,15.267000198364258,1100.0,14.6748046875
2016-11-09,15.470000267028809,15.149999618530273,15.25,15.4399995803833,4500.0,14.841093063354492
2016-11-10,15.489999771118164,15.449999809265137,15.489999771118164,15.449999809265137,2000.0,14.850706100463867
2016-11-11,15.520000457763672,15.42199993133545,15.42199993133545,15.520000457763672,800.0,14.917991638183594
2016-11-14,15.59000015258789,15.555999755859375,15.59000015258789,15.59000015258789,1300.0,14.985275268554688
2016-11-15,15.62600040435791,15.539999961853027,15.539999961853027,15.62600040435791,3900.0,15.019880294799805
2016-11-16,15.62600040435791,15.62600040435791,15.62600040435791,15.62600040435791,0.0,15.019880294799805
2016-11-17,15.699999809265137,15.65999984741211,15.670000076293945,15.699999809265137,5900.0,15.091009140014648
2016-11-18,15.6899995803833,15.649999618530273,15.649999618530273,15.6899995803833,1600.0,15.081396102905273
2016-11-21,15.789999961853027,15.760000228881836,15.765000343322754,15.789999961853027,2200.0,15.17751693725586
2016-11-22,15.821999549865723,15.776000022888184,15.776000022888184,15.821999549865723,1200.0,15.20827579498291
2016-11-23,15.857000350952148,15.833000183105469,15.857000350952148,15.836000442504883,500.0,15.221733093261719
2016-11-25,15.930000305175781,15.930000305175781,15.930000305175781,15.930000305175781,700.0,15.312087059020996
2016-11-28,15.890000343322754,15.86400032043457,15.880000114440918,15.869999885559082,2800.0,15.254414558410645
2016-11-29,15.890000343322754,15.869999885559082,15.869999885559082,15.880000114440918,1200.0,15.264026641845703
2016-11-30,15.883000373840332,15.836000442504883,15.84000015258789,15.836000442504883,700.0,15.221733093261719
2016-12-01,15.779999732971191,15.746000289916992,15.779999732971191,15.746000289916992,700.0,15.135225296020508
2016-12-02,15.850000381469727,15.76099967956543,15.850000381469727,15.819999694824219,5500.0,15.206354141235352
2016-12-05,15.925999641418457,15.880000114440918,15.925999641418457,15.880000114440918,1800.0,15.264026641845703
2016-12-06,15.9399995803833,15.883999824523926,15.883999824523926,15.920000076293945,2700.0,15.302475929260254
2016-12-07,16.209999084472656,16.010000228881836,16.010000228881836,16.15999984741211,7100.0,15.53316593170166
2016-12-08,16.139999389648438,16.139999389648438,16.139999389648438,16.139999389648438,600.0,15.513940811157227
2016-12-09,16.350000381469727,16.30299949645996,16.350000381469727,16.350000381469727,5900.0,15.71579647064209
2016-12-12,16.360000610351562,16.299999237060547,16.360000610351562,16.309999465942383,20500.0,15.677348136901855
2016-12-13,16.440000534057617,16.360000610351562,16.40999984741211,16.389999389648438,14200.0,15.754243850708008
2016-12-14,16.360000610351562,16.209999084472656,16.354999542236328,16.229999542236328,1400.0,15.60045051574707
2016-12-15,16.350000381469727,16.27199935913086,16.350000381469727,16.285999298095703,3500.0,15.654277801513672
2016-12-16,16.270000457763672,16.219999313354492,16.261999130249023,16.219999313354492,3800.0,15.590837478637695
2016-12-19,16.280000686645508,16.229999542236328,16.270000457763672,16.26799964904785,4600.0,15.63697624206543
2016-12-20,16.350000381469727,16.290000915527344,16.329999923706055,16.290000915527344,1700.0,15.658124923706055
2016-12-21,16.31599998474121,16.309999465942383,16.31599998474121,16.309999465942383,300.0,15.677348136901855
2016-12-22,16.229000091552734,16.219999313354492,16.225000381469727,16.225000381469727,2900.0,15.5956449508667
2016-12-23,16.253999710083008,16.229999542236328,16.239999771118164,16.253999710083008,1700.0,15.623518943786621
2016-12-27,16.329999923706055,16.299999237060547,16.31999969482422,16.301000595092773,2500.0,15.668697357177734
2016-12-28,16.010000228881836,15.989999771118164,16.010000228881836,15.989999771118164,700.0,15.515386581420898
2016-12-29,16.020000457763672,15.972999572753906,16.010000228881836,15.972999572753906,2600.0,15.49889087677002
2016-12-30,15.989999771118164,15.989999771118164,15.989999771118164,15.989999771118164,200.0,15.515386581420898
2017-01-03,16.01300048828125,15.949999809265137,16.003999710083008,16.01300048828125,5700.0,15.537704467773438
2017-01-04,16.163999557495117,16.14900016784668,16.163999557495117,16.14900016784668,800.0,15.66966724395752
2017-01-05,16.115999221801758,16.06399917602539,16.115999221801758,16.06399917602539,800.0,15.587189674377441
2017-01-06,16.190000534057617,16.079999923706055,16.09000015258789,16.190000534057617,1700.0,15.709450721740723
2017-01-09,16.086000442504883,16.059999465942383,16.073999404907227,16.059999465942383,1100.0,15.583308219909668
2017-01-10,16.059999465942383,16.059999465942383,16.059999465942383,16.059999465942383,0.0,15.583308219909668
2017-01-11,16.15999984741211,16.115999221801758,16.15999984741211,16.131999969482422,900.0,15.65317153930664
2017-01-12,16.12700080871582,16.05500030517578,16.05500030517578,16.11199951171875,2300.0,15.633764266967773
2017-01-13,16.11199951171875,16.11199951171875,16.11199951171875,16.11199951171875,0.0,15.633764266967773
2017-01-17,16.152999877929688,16.100000381469727,16.152999877929688,16.100000381469727,900.0,15.622121810913086
2017-01-18,16.156999588012695,16.14299964904785,16.156999588012695,16.14299964904785,500.0,15.66384506225586
2017-01-19,16.194000244140625,16.106000900268555,16.19099998474121,16.106000900268555,1800.0,15.627943992614746
2017-01-20,16.139999389648438,16.111000061035156,16.111000061035156,16.132999420166016,3100.0,15.654141426086426
2017-01-23,16.152000427246094,16.152000427246094,16.152000427246094,16.152000427246094,300.0,15.672578811645508
2017-01-24,16.280000686645508,16.200000762939453,16.200000762939453,16.280000686645508,500.0,15.79677963256836
2017-01-25,16.402999877929688,16.375,16.402999877929688,16.3799991607666,1500.0,15.89380931854248
2017-01-26,16.354000091552734,16.354000091552734,16.354000091552734,16.354000091552734,500.0,15.868581771850586
2017-01-27,16.329999923706055,16.329999923706055,16.329999923706055,16.329999923706055,500.0,15.845294952392578
2017-01-30,16.219999313354492,16.16200065612793,16.18000030517578,16.19499969482422,2700.0,15.714301109313965
2017-01-31,16.190000534057617,16.149999618530273,16.15999984741211,16.190000534057617,1900.0,15.709450721740723
2017-02-01,16.219999313354492,16.163999557495117,16.194000244140625,16.219999313354492,2800.0,15.738558769226074
2017-02-02,16.229999542236328,16.15999984741211,16.15999984741211,16.229999542236328,800.0,15.748262405395508
2017-02-03,16.368999481201172,16.35300064086914,16.360000610351562,16.35300064086914,1900.0,15.867612838745117
2017-02-06,16.399999618530273,16.292999267578125,16.399999618530273,16.292999267578125,1700.0,15.809391975402832
2017-02-07,16.329999923706055,16.312999725341797,16.329999923706055,16.312999725341797,600.0,15.828798294067383
2017-02-08,16.312999725341797,16.312999725341797,16.312999725341797,16.312999725341797,0.0,15.828798294067383
2017-02-09,16.530000686645508,16.479999542236328,16.479999542236328,16.530000686645508,5200.0,16.039358139038086
2017-02-10,16.600000381469727,16.56999969482422,16.56999969482422,16.582000732421875,4600.0,16.089815139770508
2017-02-13,16.639999389648438,16.6200008392334,16.639999389648438,16.6200008392334,1800.0,16.12668800354004
2017-02-14,16.708999633789062,16.65999984741211,16.65999984741211,16.708999633789062,700.0,16.213043212890625
2017-02-15,16.770999908447266,16.739999771118164,16.739999771118164,16.770999908447266,2200.0,16.273204803466797
2017-02-16,16.799999237060547,16.75,16.799999237060547,16.760000228881836,1300.0,16.262531280517578
2017-02-17,16.775999069213867,16.775999069213867,16.775999069213867,16.775999069213867,400.0,16.27805519104004
2017-02-21,16.96299934387207,16.926000595092773,16.926000595092773,16.952999114990234,4200.0,16.44980239868164
2017-02-22,16.958999633789062,16.93600082397461,16.950000762939453,16.93600082397461,1600.0,16.43330955505371
2017-02-23,16.940000534057617,16.875999450683594,16.940000534057617,16.875999450683594,900.0,16.37508773803711
2017-02-24,16.90999984741211,16.81599998474121,16.81599998474121,16.90999984741211,1900.0,16.408079147338867
2017-02-27,16.90999984741211,16.90999984741211,16.90999984741211,16.90999984741211,0.0,16.408079147338867
2017-02-28,16.93899917602539,16.87299919128418,16.93899917602539,16.884000778198242,1800.0,16.38285255432129
2017-03-01,17.125999450683594,17.110000610351562,17.110000610351562,17.11199951171875,2100.0,16.604084014892578
2017-03-02,17.03700065612793,16.972999572753906,17.03700065612793,16.972999572753906,1700.0,16.469207763671875
2017-03-03,17.030000686645508,16.95400047302246,17.030000686645508,16.990999221801758,1000.0,16.48667335510254
2017-03-06,16.979999542236328,16.889999389648438,16.979999542236328,16.916000366210938,9100.0,16.41390037536621
2017-03-07,16.8799991607666,16.836999893188477,16.865999221801758,16.836999893188477,3600.0,16.33724594116211
2017-03-08,16.871000289916992,16.871000289916992,16.871000289916992,16.871000289916992,300.0,16.370237350463867
2017-03-09,16.860000610351562,16.783000946044922,16.80500030517578,16.783000946044922,4300.0,16.284849166870117
2017-03-10,16.783000946044922,16.783000946044922,16.783000946044922,16.783000946044922,0.0,16.284849166870117
2017-03-13,16.889999389648438,16.8799991607666,16.8799991607666,16.889999389648438,900.0,16.388673782348633
2017-03-14,16.836999893188477,16.82200050354004,16.82200050354004,16.829999923706055,1200.0,16.330453872680664
2017-03-15,17.020000457763672,16.954999923706055,16.954999923706055,17.009000778198242,1500.0,16.504140853881836
2017-03-16,17.010000228881836,16.95599937438965,17.010000228881836,16.95599937438965,1200.0,16.452713012695312
2017-03-17,16.993999481201172,16.93600082397461,16.93600082397461,16.96299934387207,2900.0,16.459505081176758
2017-03-20,16.927000045776367,16.920000076293945,16.927000045776367,16.920000076293945,1500.0,16.417781829833984
2017-03-21,16.920000076293945,16.729000091552734,16.920000076293945,16.753999710083008,3100.0,16.256710052490234
2017-03-22,16.729999542236328,16.650999069213867,16.676000595092773,16.71500015258789,2200.0,16.2188663482666
2017-03-23,16.829999923706055,16.700000762939453,16.75,16.729999542236328,3500.0,16.233421325683594
2017-03-24,16.81999969482422,16.804000854492188,16.81999969482422,16.804000854492188,700.0,16.305225372314453
2017-03-27,16.739999771118164,16.610000610351562,16.610000610351562,16.739999771118164,2600.0,16.24312400817871
2017-03-28,16.8700008392334,16.81999969482422,16.829999923706055,16.8700008392334,1500.0,16.369266510009766
2017-03-29,16.860000610351562,16.860000610351562,16.860000610351562,16.860000610351562,700.0,16.35956382751465
2017-03-30,16.90999984741211,16.8700008392334,16.87700080871582,16.889999389648438,6200.0,16.388673782348633
2017-03-31,16.893999099731445,16.89299964904785,16.893999099731445,16.89299964904785,700.0,16.391582489013672
2017-04-03,16.79400062561035,16.77400016784668,16.77400016784668,16.79400062561035,300.0,16.295522689819336
2017-04-04,16.790000915527344,16.739999771118164,16.739999771118164,16.790000915527344,1500.0,16.291643142700195
2017-04-05,16.867000579833984,16.724000930786133,16.863000869750977,16.729999542236328,900.0,16.233421325683594
2017-04-06,16.81399917602539,16.753999710083008,16.7810001373291,16.753999710083008,1200.0,16.256710052490234
2017-04-07,16.753999710083008,16.753999710083008,16.753999710083008,16.753999710083008,0.0,16.256710052490234
2017-04-10,16.84000015258789,16.79800033569336,16.84000015258789,16.81999969482422,2300.0,16.320751190185547
2017-04-11,16.799999237060547,16.729999542236328,16.780000686645508,16.799999237060547,700.0,16.30134391784668
2017-04-12,16.799999237060547,16.73900032043457,16.799999237060547,16.75,3400.0,16.252826690673828
2017-04-13,16.760000228881836,16.639999389648438,16.760000228881836,16.639999389648438,2400.0,16.14609146118164
2017-04-17,16.760000228881836,16.70199966430664,16.729999542236328,16.743999481201172,3900.0,16.247005462646484
2017-04-18,16.719999313354492,16.6200008392334,16.6200008392334,16.719999313354492,2800.0,16.223718643188477
2017-04-19,16.780000686645508,16.700000762939453,16.739999771118164,16.709999084472656,14300.0,16.214014053344727
2017-04-20,16.899999618530273,16.799999237060547,16.809999465942383,16.899999618530273,3100.0,16.39837646484375
2017-04-21,16.850000381469727,16.809999465942383,16.809999465942383,16.850000381469727,6700.0,16.3498592376709
2017-04-24,17.020000457763672,16.965999603271484,16.989999771118164,17.010000228881836,1100.0,16.505111694335938
2017-04-25,17.1200008392334,17.049999237060547,17.100000381469727,17.106000900268555,7000.0,16.598262786865234
2017-04-26,17.18000030517578,17.124000549316406,17.124000549316406,17.1299991607666,3700.0,16.621549606323242
2017-04-27,17.18000030517578,17.117000579833984,17.18000030517578,17.167999267578125,1200.0,16.65842056274414
2017-04-28,17.118999481201172,17.06100082397461,17.118999481201172,17.082000732421875,1100.0,16.574974060058594
2017-05-01,17.190000534057617,17.09000015258789,17.190000534057617,17.100000381469727,2400.0,16.592439651489258
2017-05-02,17.110000610351562,17.09000015258789,17.097999572753906,17.100000381469727,2200.0,16.592439651489258
2017-05-03,17.1299991607666,17.079999923706055,17.1299991607666,17.1299991607666,2400.0,16.621549606323242
2017-05-04,17.149999618530273,17.12299919128418,17.12299919128418,17.149999618530273,1100.0,16.640954971313477
2017-05-05,17.202999114990234,17.17300033569336,17.18000030517578,17.202999114990234,1300.0,16.692380905151367
2017-05-08,17.31999969482422,17.190000534057617,17.31999969482422,17.209999084472656,2300.0,16.699172973632812
2017-05-09,17.239999771118164,17.18000030517578,17.239999771118164,17.219999313354492,3000.0,16.70887565612793
2017-05-10,17.270000457763672,17.243000030517578,17.270000457763672,17.243000030517578,2000.0,16.73119354248047
2017-05-11,17.239999771118164,17.117000579833984,17.229999542236328,17.209999084472656,19300.0,16.699172973632812
2017-05-12,17.139999389648438,17.110000610351562,17.110000610351562,17.131000518798828,6200.0,16.622520446777344
2017-05-15,17.236000061035156,17.219999313354492,17.219999313354492,17.229999542236328,2600.0,16.71858024597168
2017-05-16,17.200000762939453,17.150999069213867,17.18000030517578,17.176000595092773,7000.0,16.66618537902832
2017-05-17,17.1299991607666,16.889999389648438,17.1299991607666,16.889999389648438,9100.0,16.388673782348633
2017-05-18,17.0,16.829999923706055,16.829999923706055,16.940000534057617,5400.0,16.43718910217285
2017-05-19,17.1299991607666,17.10700035095215,17.1200008392334,17.11199951171875,2600.0,16.604084014892578
2017-05-22,17.170000076293945,17.010000228881836,17.010000228881836,17.163000106811523,3400.0,16.6535701751709
2017-05-23,17.190000534057617,17.15999984741211,17.18600082397461,17.170000076293945,2800.0,16.660362243652344
2017-05-24,17.209999084472656,17.200000762939453,17.200000762939453,17.200000762939453,4700.0,16.689472198486328
2017-05-25,17.350000381469727,17.309999465942383,17.312999725341797,17.309999465942383,4800.0,16.796205520629883
2017-05-26,17.34000015258789,17.305999755859375,17.32200050354004,17.309999465942383,6300.0,16.796205520629883
2017-05-30,17.319000244140625,17.290000915527344,17.319000244140625,17.309999465942383,1100.0,16.796205520629883
2017-05-31,17.360000610351562,17.270000457763672,17.360000610351562,17.33300018310547,3600.0,16.818523406982422
2017-06-01,17.5,17.423999786376953,17.423999786376953,17.450000762939453,4300.0,16.932050704956055
2017-06-02,17.59000015258789,17.5,17.503000259399414,17.579999923706055,3700.0,17.058191299438477
2017-06-05,17.549999237060547,17.499000549316406,17.527000427246094,17.533000946044922,2900.0,17.012588500976562
2017-06-06,17.46299934387207,17.40999984741211,17.459999084472656,17.427000045776367,3400.0,16.909732818603516
2017-06-07,17.454999923706055,17.43600082397461,17.454999923706055,17.43600082397461,800.0,16.918468475341797
2017-06-08,17.510000228881836,17.440000534057617,17.489999771118164,17.440000534057617,5800.0,16.922348022460938
2017-06-09,17.55299949645996,17.51300048828125,17.540000915527344,17.55299949645996,2200.0,17.031993865966797
2017-06-12,17.530000686645508,17.472000122070312,17.530000686645508,17.479999542236328,9900.0,16.96116065979004
2017-06-13,17.610000610351562,17.559999465942383,17.559999465942383,17.610000610351562,5500.0,17.087303161621094
2017-06-14,17.59000015258789,17.527000427246094,17.589000701904297,17.527000427246094,3600.0,17.006765365600586
2017-06-15,17.513999938964844,17.513999938964844,17.513999938964844,17.513999938964844,900.0,16.994150161743164
2017-06-16,17.469999313354492,17.469999313354492,17.469999313354492,17.469999313354492,1400.0,16.951457977294922
2017-06-19,17.65999984741211,17.625,17.639999389648438,17.625,2100.0,17.101856231689453
2017-06-20,17.649999618530273,17.549999237060547,17.649999618530273,17.549999237060547,3600.0,17.029081344604492
2017-06-21,17.6200008392334,17.506000518798828,17.6200008392334,17.506000518798828,2900.0,16.98638916015625
2017-06-22,17.579999923706055,17.469999313354492,17.579999923706055,17.549999237060547,7000.0,17.029081344604492
2017-06-23,17.583999633789062,17.56999969482422,17.57900047302246,17.579999923706055,1100.0,17.058191299438477
2017-06-26,17.638999938964844,17.5939998626709,17.6200008392334,17.621000289916992,4400.0,17.09797477722168
2017-06-27,17.59600067138672,17.469999313354492,17.56999969482422,17.469999313354492,5200.0,16.951457977294922
2017-06-28,17.6299991607666,17.510000228881836,17.510000228881836,17.59000015258789,3900.0,17.067895889282227
2017-06-29,17.649999618530273,17.420000076293945,17.649999618530273,17.420000076293945,4400.0,16.90294075012207
2017-06-30,17.549999237060547,17.483999252319336,17.527999877929688,17.542999267578125,800.0,17.022289276123047
2017-07-03,17.639999389648438,17.61400032043457,17.639999389648438,17.6299991607666,1300.0,17.106708526611328
2017-07-05,17.6299991607666,17.540000915527344,17.6299991607666,17.549999237060547,2800.0,17.029081344604492
2017-07-06,17.559999465942383,17.389999389648438,17.559999465942383,17.389999389648438,2200.0,16.873830795288086
2017-07-07,17.510000228881836,17.420000076293945,17.420000076293945,17.510000228881836,1500.0,16.990270614624023
2017-07-10,17.5,17.469999313354492,17.5,17.472000122070312,1700.0,16.953397750854492
2017-07-11,17.489999771118164,17.459999084472656,17.469999313354492,17.488000869750977,8700.0,16.968923568725586
2017-07-12,17.610000610351562,17.56999969482422,17.56999969482422,17.610000610351562,5800.0,17.087303161621094
2017-07-13,17.639999389648438,17.597999572753906,17.635000228881836,17.621999740600586,2600.0,17.09894561767578
2017-07-14,17.75,17.65999984741211,17.68000030517578,17.719999313354492,14800.0,17.19403648376465
2017-07-17,17.770000457763672,17.739999771118164,17.760000228881836,17.75,8700.0,17.223146438598633
2017-07-18,17.75,17.695999145507812,17.75,17.719999313354492,7300.0,17.19403648376465
2017-07-19,17.790000915527344,17.72800064086914,17.75,17.749000549316406,7000.0,17.22217559814453
2017-07-20,17.799999237060547,17.770000457763672,17.785999298095703,17.784000396728516,4300.0,17.25613784790039
2017-07-21,17.770000457763672,17.71500015258789,17.73200035095215,17.770000457763672,3900.0,17.2425537109375
2017-07-24,17.81999969482422,17.726999282836914,17.81999969482422,17.746000289916992,20000.0,17.21926498413086
2017-07-25,17.829999923706055,17.797000885009766,17.81599998474121,17.799999237060547,5500.0,17.27166175842285
2017-07-26,17.780000686645508,17.739999771118164,17.766000747680664,17.770000457763672,2400.0,17.2425537109375
2017-07-27,17.81999969482422,17.665000915527344,17.81999969482422,17.68600082397461,1900.0,17.161046981811523
2017-07-28,17.739999771118164,17.711000442504883,17.733999252319336,17.739999771118164,4500.0,17.213443756103516
2017-07-31,17.81999969482422,17.72599983215332,17.81999969482422,17.72599983215332,3200.0,17.199857711791992
2017-08-01,17.780000686645508,17.739999771118164,17.75,17.780000686645508,11200.0,17.252256393432617
2017-08-02,17.809999465942383,17.67300033569336,17.809999465942383,17.719999313354492,3000.0,17.19403648376465
2017-08-03,17.739999771118164,17.649999618530273,17.649999618530273,17.719999313354492,2800.0,17.19403648376465
2017-08-04,17.739999771118164,17.709999084472656,17.729999542236328,17.739999771118164,3600.0,17.213443756103516
2017-08-07,17.770000457763672,17.700000762939453,17.700000762939453,17.770000457763672,4600.0,17.2425537109375
2017-08-08,17.797000885009766,17.660999298095703,17.759000778198242,17.68000030517578,2500.0,17.155223846435547
2017-08-09,17.690000534057617,17.6299991607666,17.690000534057617,17.649999618530273,1200.0,17.126113891601562
2017-08-10,17.559999465942383,17.466999053955078,17.520000457763672,17.466999053955078,2300.0,16.948545455932617
2017-08-11,17.479999542236328,17.43400001525879,17.457000732421875,17.43400001525879,3400.0,16.916526794433594
2017-08-14,17.65999984741211,17.579999923706055,17.610000610351562,17.649999618530273,900.0,17.126113891601562
2017-08-15,17.6200008392334,17.56999969482422,17.6200008392334,17.608999252319336,3400.0,17.08633041381836
2017-08-16,17.66900062561035,17.6299991607666,17.642000198364258,17.66900062561035,1400.0,17.14455223083496
2017-08-17,17.579999923706055,17.402999877929688,17.55500030517578,17.420000076293945,4800.0,16.90294075012207
2017-08-18,17.37299919128418,17.37299919128418,17.37299919128418,17.37299919128418,600.0,16.85733413696289
2017-08-21,17.3700008392334,17.329999923706055,17.363000869750977,17.3700008392334,2200.0,16.854427337646484
2017-08-22,17.530000686645508,17.490999221801758,17.530000686645508,17.5,2900.0,16.980567932128906
2017-08-23,17.5,17.420000076293945,17.5,17.420000076293945,43900.0,16.90294075012207
2017-08-24,17.530000686645508,17.530000686645508,17.530000686645508,17.530000686645508,300.0,17.00967788696289
2017-08-25,17.483999252319336,17.483999252319336,17.483999252319336,17.483999252319336,200.0,16.96504020690918
2017-08-28,17.454999923706055,17.434999465942383,17.434999465942383,17.44300079345703,3600.0,16.92525863647461
2017-08-29,17.450000762939453,17.368999481201172,17.368999481201172,17.434999465942383,5900.0,16.917495727539062
2017-08-30,17.540000915527344,17.40999984741211,17.40999984741211,17.540000915527344,11600.0,17.019380569458008
2017-08-31,17.639999389648438,17.579999923706055,17.586000442504883,17.632999420166016,2300.0,17.109619140625
2017-09-01,17.709999084472656,17.70800018310547,17.709999084472656,17.709999084472656,700.0,17.18433380126953
2017-09-05,17.690000534057617,17.496999740600586,17.690000534057617,17.559999465942383,3400.0,17.03878402709961
2017-09-06,17.670000076293945,17.584999084472656,17.584999084472656,17.65999984741211,5300.0,17.13581657409668
2017-09-07,17.719999313354492,17.610000610351562,17.719999313354492,17.670000076293945,5900.0,17.14552116394043
2017-09-08,17.66200065612793,17.6560001373291,17.65999984741211,17.66200065612793,2000.0,17.137758255004883
2017-09-11,17.8700008392334,17.690000534057617,17.690000534057617,17.847999572753906,9500.0,17.3182373046875
2017-09-12,17.9060001373291,17.89299964904785,17.9060001373291,17.89299964904785,1700.0,17.361902236938477
2017-09-13,17.969999313354492,17.950000762939453,17.959999084472656,17.969999313354492,2700.0,17.436616897583008
2017-09-14,17.989999771118164,17.937999725341797,17.989999771118164,17.989999771118164,12800.0,17.456022262573242
2017-09-15,18.020000457763672,17.9950008392334,18.0,18.020000457763672,1500.0,17.485132217407227
2017-09-18,18.09000015258789,18.06999969482422,18.09000015258789,18.06999969482422,5300.0,17.533649444580078
2017-09-19,18.1200008392334,18.076000213623047,18.1200008392334,18.076000213623047,1400.0,17.539470672607422
2017-09-20,18.139999389648438,18.049999237060547,18.139999389648438,18.110000610351562,4400.0,17.57246208190918
2017-09-21,18.139999389648438,18.062999725341797,18.139999389648438,18.062999725341797,1500.0,17.52685546875
2017-09-22,18.06999969482422,18.03499984741211,18.059999465942383,18.059999465942383,2400.0,17.523944854736328
2017-09-25,18.09000015258789,18.047000885009766,18.079999923706055,18.09000015258789,11000.0,17.553054809570312
2017-09-26,18.1299991607666,18.10099983215332,18.124000549316406,18.1299991607666,3700.0,17.59186553955078
2017-09-27,18.18000030517578,18.09000015258789,18.149999618530273,18.18000030517578,16900.0,17.640384674072266
2017-09-28,18.170000076293945,18.138999938964844,18.170000076293945,18.139999389648438,1300.0,17.60157012939453
2017-09-29,18.209999084472656,18.150999069213867,18.200000762939453,18.209999084472656,2200.0,17.669492721557617
2017-10-02,18.290000915527344,18.23200035095215,18.25,18.290000915527344,6900.0,17.74711799621582
2017-10-03,18.350000381469727,18.25,18.350000381469727,18.31800079345703,169800.0,17.7742862701416
2017-10-04,18.360000610351562,18.33300018310547,18.33300018310547,18.360000610351562,1900.0,17.815040588378906
2017-10-05,18.40999984741211,18.395000457763672,18.395000457763672,18.40999984741211,1400.0,17.863555908203125
2017-10-06,18.40999984741211,18.347000122070312,18.40999984741211,18.389999389648438,12900.0,17.844148635864258
2017-10-09,18.381999969482422,18.30699920654297,18.381999969482422,18.30699920654297,3400.0,17.763612747192383
2017-10-10,18.399999618530273,18.270000457763672,18.270000457763672,18.363000869750977,5500.0,17.81795310974121
2017-10-11,18.40999984741211,18.389999389648438,18.402000427246094,18.409000396728516,1500.0,17.862586975097656
2017-10-12,18.440000534057617,18.260000228881836,18.260000228881836,18.42799949645996,3600.0,17.88102149963379
2017-10-13,18.520000457763672,18.459999084472656,18.520000457763672,18.489999771118164,2200.0,17.941181182861328
2017-10-16,18.540000915527344,18.459999084472656,18.540000915527344,18.481000900268555,1900.0,17.932451248168945
2017-10-17,18.520000457763672,18.46500015258789,18.520000457763672,18.48200035095215,2600.0,17.93341827392578
2017-10-18,18.558000564575195,18.51300048828125,18.527000427246094,18.533000946044922,2600.0,17.982906341552734
2017-10-19,18.56999969482422,18.481000900268555,18.48699951171875,18.548999786376953,1100.0,17.998430252075195
2017-10-20,18.65999984741211,18.597999572753906,18.65999984741211,18.639999389648438,2500.0,18.086727142333984
2017-10-23,18.719999313354492,18.6200008392334,18.719999313354492,18.6200008392334,3000.0,18.067323684692383
2017-10-24,18.6200008392334,18.591999053955078,18.610000610351562,18.6200008392334,2700.0,18.067323684692383
2017-10-25,18.59000015258789,18.420000076293945,18.59000015258789,18.48200035095215,7500.0,17.93341827392578
2017-10-26,18.56999969482422,18.459999084472656,18.459999084472656,18.56999969482422,7600.0,18.01880645751953
2017-10-27,18.535999298095703,18.489999771118164,18.530000686645508,18.535999298095703,3700.0,17.985815048217773
2017-10-30,18.59000015258789,18.458999633789062,18.59000015258789,18.458999633789062,2300.0,17.911100387573242
2017-10-31,18.530000686645508,18.516000747680664,18.516000747680664,18.523000717163086,2300.0,17.973201751708984
2017-11-01,18.6299991607666,18.549999237060547,18.6299991607666,18.56999969482422,1400.0,18.01880645751953
2017-11-02,18.6200008392334,18.54199981689453,18.6200008392334,18.579999923706055,1700.0,18.02851104736328
2017-11-03,18.68000030517578,18.613000869750977,18.649999618530273,18.68000030517578,3300.0,18.12554359436035
2017-11-06,18.719999313354492,18.670000076293945,18.719999313354492,18.709999084472656,2100.0,18.154651641845703
2017-11-07,18.75,18.638999938964844,18.75,18.65999984741211,4700.0,18.106136322021484
2017-11-08,18.729999542236328,18.676000595092773,18.700000762939453,18.707000732421875,8200.0,18.15174102783203
2017-11-09,18.6299991607666,18.520000457763672,18.56999969482422,18.586000442504883,3000.0,18.034334182739258
2017-11-10,18.649999618530273,18.61199951171875,18.61199951171875,18.649999618530273,10500.0,18.096433639526367
2017-11-13,18.690000534057617,18.639999389648438,18.670000076293945,18.65999984741211,4500.0,18.106136322021484
2017-11-14,18.690000534057617,18.639999389648438,18.68000030517578,18.670000076293945,5600.0,18.1158390045166
2017-11-15,18.64299964904785,18.530000686645508,18.530000686645508,18.610000610351562,2800.0,18.057621002197266
2017-11-16,18.780000686645508,18.645000457763672,18.645000457763672,18.780000686645508,10800.0,18.222576141357422
2017-11-17,18.799999237060547,18.739999771118164,18.799999237060547,18.76099967956543,1700.0,18.204137802124023
2017-11-20,18.799999237060547,18.760000228881836,18.768999099731445,18.76799964904785,7700.0,18.21092987060547
2017-11-21,18.8700008392334,18.829999923706055,18.8700008392334,18.850000381469727,11900.0,18.290496826171875
2017-11-22,18.899999618530273,18.829999923706055,18.899999618530273,18.850000381469727,2600.0,18.290496826171875
2017-11-24,18.899999618530273,18.88800048828125,18.899999618530273,18.899999618530273,5300.0,18.339012145996094
2017-11-27,18.93000030517578,18.850000381469727,18.93000030517578,18.899999618530273,20500.0,18.339012145996094
2017-11-28,19.06999969482422,18.917999267578125,18.920000076293945,19.06999969482422,5600.0,18.503965377807617
2017-11-29,19.1299991607666,19.06800079345703,19.1200008392334,19.06999969482422,4100.0,18.503965377807617
2017-11-30,19.273000717163086,19.183000564575195,19.183000564575195,19.200000762939453,6400.0,18.630107879638672
2017-12-01,19.280000686645508,18.934999465942383,19.280000686645508,19.20599937438965,7400.0,18.635929107666016
2017-12-04,19.3700008392334,19.275999069213867,19.3700008392334,19.280000686645508,5400.0,18.707733154296875
2017-12-05,19.309999465942383,19.145000457763672,19.309999465942383,19.145000457763672,9100.0,18.576740264892578
2017-12-06,19.170000076293945,19.121999740600586,19.170000076293945,19.139999389648438,10700.0,18.571887969970703
2017-12-07,19.229999542236328,19.170000076293945,19.170000076293945,19.219999313354492,7600.0,18.649513244628906
2017-12-08,19.309999465942383,19.275999069213867,19.285999298095703,19.295000076293945,9700.0,18.722288131713867
2017-12-11,19.350000381469727,19.316999435424805,19.31999969482422,19.350000381469727,3400.0,18.77565574645996
2017-12-12,19.3700008392334,19.31999969482422,19.31999969482422,19.323999404907227,1600.0,18.75042724609375
2017-12-13,19.409000396728516,19.3700008392334,19.371000289916992,19.3700008392334,2400.0,18.795063018798828
2017-12-14,19.43000030517578,19.273000717163086,19.43000030517578,19.315000534057617,4100.0,18.7416934967041
2017-12-15,19.489999771118164,19.3700008392334,19.3700008392334,19.469999313354492,2200.0,18.892093658447266
2017-12-18,19.65999984741211,19.59000015258789,19.65999984741211,19.60700035095215,5600.0,19.025028228759766
2017-12-19,19.639999389648438,19.584999084472656,19.639999389648438,19.5939998626709,3700.0,19.012413024902344
2017-12-20,19.714000701904297,19.6299991607666,19.709999084472656,19.690000534057617,10700.0,19.10556411743164
2017-12-21,19.829999923706055,19.700000762939453,19.829999923706055,19.700000762939453,4800.0,19.115266799926758
2017-12-22,19.790000915527344,19.649999618530273,19.790000915527344,19.68600082397461,6500.0,19.101682662963867
2017-12-26,19.739999771118164,19.665000915527344,19.665000915527344,19.72800064086914,8200.0,19.14243507385254
2017-12-27,19.809999465942383,19.610000610351562,19.809999465942383,19.610000610351562,22600.0,19.027938842773438
2017-12-28,19.549999237060547,19.389999389648438,19.549999237060547,19.479999542236328,8100.0,19.131057739257812
2017-12-29,19.610000610351562,19.420000076293945,19.610000610351562,19.420000076293945,11600.0,19.072132110595703
2018-01-02,19.493000030517578,19.399999618530273,19.399999618530273,19.490999221801758,11000.0,19.14185905456543
2018-01-03,19.6200008392334,19.520999908447266,19.520999908447266,19.610000610351562,13300.0,19.258729934692383
2018-01-04,19.719999313354492,19.670000076293945,19.719999313354492,19.719999313354492,6300.0,19.366758346557617
2018-01-05,19.790000915527344,19.700000762939453,19.70599937438965,19.790000915527344,5300.0,19.435504913330078
2018-01-08,19.899999618530273,19.770000457763672,19.899999618530273,19.80699920654297,4400.0,19.452199935913086
2018-01-09,19.979999542236328,19.875,19.979999542236328,19.90999984741211,4900.0,19.553354263305664
2018-01-10,19.889999389648438,19.792999267578125,19.889999389648438,19.860000610351562,6100.0,19.50425148010254
2018-01-11,20.0,19.93600082397461,19.969999313354492,19.981000900268555,12300.0,19.623083114624023
2018-01-12,20.149999618530273,20.079999923706055,20.1299991607666,20.139999389648438,12100.0,19.779233932495117
2018-01-16,20.309999465942383,20.040000915527344,20.309999465942383,20.065000534057617,20000.0,19.70557975769043
2018-01-17,20.290000915527344,20.020000457763672,20.020000457763672,20.290000915527344,10600.0,19.92654800415039
2018-01-18,20.31999969482422,20.18000030517578,20.31999969482422,20.229999542236328,9700.0,19.86762237548828
2018-01-19,20.299999237060547,20.204999923706055,20.299999237060547,20.28700065612793,3100.0,19.923603057861328
2018-01-22,20.43000030517578,20.31800079345703,20.40999984741211,20.415000915527344,10700.0,20.0493106842041
2018-01-23,20.540000915527344,20.503000259399414,20.540000915527344,20.509000778198242,4000.0,20.141626358032227
2018-01-24,20.6299991607666,20.450000762939453,20.6299991607666,20.481000900268555,21900.0,20.11412811279297
2018-01-25,20.593000411987305,20.459999084472656,20.459999084472656,20.5,3700.0,20.13278579711914
2018-01-26,20.71500015258789,20.559999465942383,20.68000030517578,20.683000564575195,4500.0,20.312509536743164
2018-01-29,20.829999923706055,20.549999237060547,20.829999923706055,20.549999237060547,7100.0,20.1818904876709
2018-01-30,20.469999313354492,20.35099983215332,20.469999313354492,20.459999084472656,6900.0,20.093502044677734
2018-01-31,20.405000686645508,20.298999786376953,20.399999618530273,20.39900016784668,7300.0,20.03359603881836
2018-02-01,20.45599937438965,20.302000045776367,20.420000076293945,20.302000045776367,7900.0,19.93833351135254
2018-02-02,20.250999450683594,19.93000030517578,20.25,19.93000030517578,13900.0,19.572996139526367
2018-02-05,19.940000534057617,19.232999801635742,19.920000076293945,19.232999801635742,24700.0,18.88848114013672
2018-02-06,19.483999252319336,18.729999542236328,18.729999542236328,19.415000915527344,17000.0,19.067222595214844
2018-02-07,19.643999099731445,19.5,19.559999465942383,19.5,9900.0,19.150699615478516
2018-02-08,19.530000686645508,18.902000427246094,19.530000686645508,18.93899917602539,17300.0,18.599746704101562
2018-02-09,18.84000015258789,18.43000030517578,18.783000946044922,18.700000762939453,17100.0,18.36503028869629
2018-02-12,19.354999542236328,19.049999237060547,19.049999237060547,19.305999755859375,7500.0,18.960174560546875
2018-02-13,19.329999923706055,19.15999984741211,19.270000457763672,19.299999237060547,3200.0,18.954280853271484
2018-02-14,19.610000610351562,19.288000106811523,19.299999237060547,19.610000610351562,7800.0,19.258729934692383
2018-02-15,19.829999923706055,19.600000381469727,19.780000686645508,19.829999923706055,5300.0,19.474788665771484
2018-02-16,19.856000900268555,19.797000885009766,19.797000885009766,19.856000900268555,2300.0,19.500322341918945
2018-02-20,19.84000015258789,19.691999435424805,19.84000015258789,19.691999435424805,2800.0,19.33926010131836
2018-02-21,19.857999801635742,19.639999389648438,19.825000762939453,19.639999389648438,3800.0,19.288190841674805
2018-02-22,19.770000457763672,19.600000381469727,19.709999084472656,19.600000381469727,4800.0,19.24890899658203
2018-02-23,19.889999389648438,19.642000198364258,19.719999313354492,19.889999389648438,2300.0,19.53371238708496
2018-02-26,20.049999237060547,19.899999618530273,20.049999237060547,20.040000915527344,7000.0,19.681026458740234
2018-02-27,20.075000762939453,19.899999618530273,20.040000915527344,19.899999618530273,5700.0,19.543533325195312
2018-02-28,19.93899917602539,19.774999618530273,19.93000030517578,19.774999618530273,2900.0,19.420772552490234
2018-03-01,19.687000274658203,19.299999237060547,19.687000274658203,19.3799991607666,8000.0,19.032848358154297
2018-03-02,19.555999755859375,19.274999618530273,19.329999923706055,19.555999755859375,2800.0,19.20569610595703
2018-03-05,19.770000457763672,19.5,19.5,19.73200035095215,2600.0,19.378543853759766
2018-03-06,19.889999389648438,19.700000762939453,19.889999389648438,19.80500030517578,1900.0,19.45023536682129
2018-03-07,19.815000534057617,19.729999542236328,19.799999237060547,19.809999465942383,2200.0,19.45514488220215
2018-03-08,19.895000457763672,19.809999465942383,19.809999465942383,19.895000457763672,3800.0,19.538623809814453
2018-03-09,20.173999786376953,19.9950008392334,20.1200008392334,20.173999786376953,4500.0,19.812625885009766
2018-03-12,20.3799991607666,20.22599983215332,20.3799991607666,20.2549991607666,6600.0,19.892173767089844
2018-03-13,20.32699966430664,20.149999618530273,20.260000228881836,20.170000076293945,6000.0,19.808696746826172
2018-03-14,20.329999923706055,20.025999069213867,20.329999923706055,20.049999237060547,15200.0,19.690845489501953
2018-03-15,20.059999465942383,20.00200080871582,20.027000427246094,20.030000686645508,9200.0,19.671205520629883
2018-03-16,20.114999771118164,20.08300018310547,20.08300018310547,20.09000015258789,2500.0,19.730131149291992
2018-03-19,20.0,19.850000381469727,20.0,19.850000381469727,900.0,19.494430541992188
2018-03-20,19.920000076293945,19.8700008392334,19.878000259399414,19.895000457763672,6400.0,19.538623809814453
2018-03-21,20.010000228881836,19.790000915527344,19.790000915527344,19.93199920654297,52600.0,19.574960708618164
2018-03-22,19.729999542236328,19.368000030517578,19.729999542236328,19.399999618530273,24100.0,19.052490234375
2018-03-23,19.3700008392334,19.0939998626709,19.34000015258789,19.18000030517578,17700.0,18.8364315032959
2018-03-26,19.540000915527344,19.17799949645996,19.3700008392334,19.540000915527344,3800.0,19.189983367919922
2018-03-27,19.6200008392334,19.111000061035156,19.6200008392334,19.111000061035156,4000.0,18.768667221069336
2018-03-28,19.326000213623047,19.159000396728516,19.159000396728516,19.15999984741211,20500.0,18.816789627075195
2018-03-29,19.46500015258789,19.256999969482422,19.309999465942383,19.45599937438965,1700.0,19.107486724853516
2018-04-02,19.459999084472656,18.8439998626709,19.459999084472656,19.040000915527344,7400.0,18.69894027709961
2018-04-03,19.2450008392334,18.979000091552734,19.135000228881836,19.214000701904297,6100.0,18.869823455810547
2018-04-04,19.530000686645508,19.049999237060547,19.049999237060547,19.520000457763672,4600.0,19.17034149169922
2018-04-05,19.649999618530273,19.559999465942383,19.649999618530273,19.56999969482422,3200.0,19.219444274902344
2018-04-06,19.530000686645508,19.054000854492188,19.530000686645508,19.054000854492188,2500.0,18.712688446044922
2018-04-09,19.496999740600586,19.236000061035156,19.270000457763672,19.259000778198242,3700.0,18.914016723632812
2018-04-10,19.549999237060547,19.426000595092773,19.444000244140625,19.53499984741211,7400.0,19.18507194519043
2018-04-11,19.503999710083008,19.389999389648438,19.43000030517578,19.45400047302246,4000.0,19.10552406311035
2018-04-12,19.6200008392334,19.440000534057617,19.440000534057617,19.586000442504883,3800.0,19.235158920288086
2018-04-13,19.615999221801758,19.490999221801758,19.615999221801758,19.490999221801758,4700.0,19.14185905456543
2018-04-16,19.719999313354492,19.639999389648438,19.690000534057617,19.66200065612793,7600.0,19.309797286987305
2018-04-17,19.8799991607666,19.809999465942383,19.84000015258789,19.87299919128418,8100.0,19.517017364501953
2018-04-18,19.969999313354492,19.81999969482422,19.81999969482422,19.91900062561035,4300.0,19.56219482421875
2018-04-19,19.75,19.718000411987305,19.739999771118164,19.75,1700.0,19.396221160888672
2018-04-20,19.68000030517578,19.527000427246094,19.68000030517578,19.531999588012695,3200.0,19.182125091552734
2018-04-23,19.670000076293945,19.559999465942383,19.670000076293945,19.610000610351562,9600.0,19.258729934692383
2018-04-24,19.625,19.315000534057617,19.625,19.350000381469727,7400.0,19.003385543823242
2018-04-25,19.399999618530273,19.290000915527344,19.290000915527344,19.399999618530273,1300.0,19.052490234375
2018-04-26,19.649999618530273,19.496000289916992,19.53499984741211,19.610000610351562,1200.0,19.258729934692383
2018-04-27,19.649999618530273,19.59600067138672,19.604999542236328,19.60099983215332,4400.0,19.249889373779297
2018-04-30,19.69700050354004,19.5,19.59000015258789,19.51300048828125,4700.0,19.163467407226562
2018-05-01,19.540000915527344,19.329999923706055,19.540000915527344,19.46500015258789,7900.0,19.11632537841797
2018-05-02,19.461999893188477,19.368999481201172,19.389999389648438,19.461999893188477,1900.0,19.113380432128906
2018-05-03,19.350000381469727,19.13599967956543,19.350000381469727,19.283000946044922,5500.0,18.93758773803711
2018-05-04,19.50200080871582,19.360000610351562,19.360000610351562,19.50200080871582,2000.0,19.152664184570312
2018-05-07,19.541000366210938,19.459999084472656,19.541000366210938,19.4689998626709,3000.0,19.120254516601562
2018-05-08,19.520000457763672,19.399999618530273,19.399999618530273,19.413000106811523,4200.0,19.065258026123047
2018-05-09,19.69300079345703,19.530000686645508,19.610000610351562,19.66699981689453,8700.0,19.314706802368164
2018-05-10,19.847000122070312,19.6200008392334,19.6200008392334,19.80299949645996,3700.0,19.448270797729492
2018-05-11,19.89699935913086,19.84600067138672,19.8700008392334,19.847000122070312,4100.0,19.491483688354492
2018-05-14,19.89900016784668,19.809999465942383,19.809999465942383,19.8799991607666,4100.0,19.52389144897461
2018-05-15,19.7549991607666,19.711000442504883,19.75200080871582,19.7549991607666,900.0,19.40113067626953
2018-05-16,19.884000778198242,19.700000762939453,19.700000762939453,19.867000579833984,6100.0,19.511125564575195
2018-05-17,19.889999389648438,19.799999237060547,19.799999237060547,19.826000213623047,5200.0,19.47085952758789
2018-05-18,19.81999969482422,19.759000778198242,19.799999237060547,19.78700065612793,6200.0,19.432558059692383
2018-05-21,19.94700050354004,19.790000915527344,19.790000915527344,19.863000869750977,4600.0,19.507198333740234
2018-05-22,19.93000030517578,19.83099937438965,19.920000076293945,19.84000015258789,4800.0,19.484609603881836
2018-05-23,19.84000015258789,19.773000717163086,19.790000915527344,19.84000015258789,1100.0,19.484609603881836
2018-05-24,19.90999984741211,19.774999618530273,19.774999618530273,19.884000778198242,5100.0,19.527820587158203
2018-05-25,19.871000289916992,19.82200050354004,19.8700008392334,19.839000701904297,6400.0,19.483627319335938
2018-05-29,19.81999969482422,19.590999603271484,19.81999969482422,19.60099983215332,13200.0,19.249889373779297
2018-05-30,19.90999984741211,19.649999618530273,19.649999618530273,19.90999984741211,1800.0,19.553354263305664
2018-05-31,19.81999969482422,19.729000091552734,19.81999969482422,19.770000457763672,4600.0,19.415863037109375
2018-06-01,19.92799949645996,19.90999984741211,19.91900062561035,19.90999984741211,2000.0,19.553354263305664
2018-06-04,20.030000686645508,19.990999221801758,20.020999908447266,20.014999389648438,4700.0,19.65647315979004
2018-06-05,20.093000411987305,19.950000762939453,19.950000762939453,20.065000534057617,5100.0,19.70557975769043
2018-06-06,20.19499969482422,20.05299949645996,20.059999465942383,20.19499969482422,4200.0,19.833250045776367
2018-06-07,20.31999969482422,20.163000106811523,20.299999237060547,20.260000228881836,23600.0,19.897085189819336
2018-06-08,20.31999969482422,20.202999114990234,20.207000732421875,20.31999969482422,3400.0,19.956010818481445
2018-06-11,20.420000076293945,20.3700008392334,20.3799991607666,20.399999618530273,2200.0,20.034576416015625
2018-06-12,20.445999145507812,20.35099983215332,20.445999145507812,20.402000427246094,6700.0,20.036542892456055
2018-06-13,20.420000076293945,20.350000381469727,20.420000076293945,20.350000381469727,2000.0,19.9854736328125
2018-06-14,20.358999252319336,20.319000244140625,20.356000900268555,20.347999572753906,2800.0,19.983509063720703
2018-06-15,20.290000915527344,20.23900032043457,20.280000686645508,20.270000457763672,2300.0,19.906906127929688
2018-06-18,20.273000717163086,20.240999221801758,20.240999221801758,20.268999099731445,1100.0,19.90592384338379
2018-06-19,20.211000442504883,20.16900062561035,20.211000442504883,20.201000213623047,6300.0,19.839141845703125
2018-06-20,20.280000686645508,20.170000076293945,20.170000076293945,20.267000198364258,3500.0,19.903959274291992
2018-06-21,20.270000457763672,20.09000015258789,20.270000457763672,20.121000289916992,7800.0,19.760576248168945
2018-06-22,20.219999313354492,20.149999618530273,20.211000442504883,20.219999313354492,2300.0,19.85780143737793
2018-06-25,20.010000228881836,19.809999465942383,20.010000228881836,19.809999465942383,8800.0,19.45514488220215
2018-06-26,19.979999542236328,19.889999389648438,19.910999298095703,19.959999084472656,2700.0,19.602458953857422
2018-06-27,20.020999908447266,19.773000717163086,19.972000122070312,19.773000717163086,1800.0,19.41880989074707
2018-06-28,19.809999465942383,19.679000854492188,19.809999465942383,19.802000045776367,3200.0,19.447290420532227
2018-06-29,20.06999969482422,19.915000915527344,20.020000457763672,19.950000762939453,7100.0,19.592639923095703
2018-07-02,19.885000228881836,19.80500030517578,19.80500030517578,19.860000610351562,1500.0,19.50425148010254
2018-07-03,20.0,19.940000534057617,20.0,19.940000534057617,1300.0,19.58281707763672
2018-07-05,20.06999969482422,19.98200035095215,20.030000686645508,20.06999969482422,2500.0,19.71048927307129
2018-07-06,20.280000686645508,20.072999954223633,20.072999954223633,20.277999877929688,2700.0,19.914762496948242
2018-07-09,20.38800048828125,20.309999465942383,20.350000381469727,20.38800048828125,2500.0,20.02279281616211
2018-07-10,20.450000762939453,20.368999481201172,20.450000762939453,20.3799991607666,3900.0,20.014934539794922
2018-07-11,20.3799991607666,20.270000457763672,20.3799991607666,20.309999465942383,2200.0,19.946189880371094
2018-07-12,20.437000274658203,20.34000015258789,20.368999481201172,20.4060001373291,8400.0,20.040470123291016
2018-07-13,20.5,20.45400047302246,20.5,20.457000732421875,5400.0,20.090557098388672
2018-07-16,20.520000457763672,20.360000610351562,20.520000457763672,20.360000610351562,9900.0,19.99529457092285
2018-07-17,20.520000457763672,20.440000534057617,20.440000534057617,20.510000228881836,4800.0,20.142606735229492
2018-07-18,20.548999786376953,20.40999984741211,20.40999984741211,20.548999786376953,2900.0,20.180908203125
2018-07-19,20.559999465942383,20.44099998474121,20.540000915527344,20.520000457763672,4000.0,20.152427673339844
2018-07-20,20.579999923706055,20.450000762939453,20.579999923706055,20.45800018310547,6100.0,20.09153938293457
2018-07-23,20.520000457763672,20.459999084472656,20.520000457763672,20.500999450683594,3900.0,20.13376808166504
2018-07-24,20.6299991607666,20.450000762939453,20.6299991607666,20.549999237060547,5500.0,20.1818904876709
2018-07-25,20.719999313354492,20.540000915527344,20.540000915527344,20.719999313354492,3100.0,20.348844528198242
2018-07-26,20.799999237060547,20.743000030517578,20.780000686645508,20.774999618530273,4200.0,20.402860641479492
2018-07-27,20.760000228881836,20.575000762939453,20.759000778198242,20.575000762939453,2700.0,20.206443786621094
2018-07-30,20.551000595092773,20.45199966430664,20.551000595092773,20.479000091552734,2300.0,20.11216163635254
2018-07-31,20.676000595092773,20.6200008392334,20.628999710083008,20.621999740600586,6200.0,20.252599716186523
2018-08-01,20.670000076293945,20.56999969482422,20.65999984741211,20.56999969482422,5300.0,20.2015323638916
2018-08-02,20.670000076293945,20.447999954223633,20.447999954223633,20.649999618530273,2700.0,20.280099868774414
2018-08-03,20.790000915527344,20.600000381469727,20.600000381469727,20.780000686645508,22300.0,20.407772064208984
2018-08-06,20.8700008392334,20.756000518798828,20.84000015258789,20.8700008392334,9900.0,20.496158599853516
2018-08-07,20.940000534057617,20.878000259399414,20.940000534057617,20.899999618530273,10200.0,20.52562141418457
2018-08-08,20.969999313354492,20.822999954223633,20.969999313354492,20.888999938964844,2800.0,20.51481819152832
2018-08-09,20.841999053955078,20.75,20.75,20.770000457763672,4400.0,20.397951126098633
2018-08-10,20.719999313354492,20.58099937438965,20.70599937438965,20.655000686645508,23900.0,20.285011291503906
2018-08-13,20.709999084472656,20.5310001373291,20.674999237060547,20.56999969482422,5900.0,20.2015323638916
2018-08-14,20.739999771118164,20.56999969482422,20.56999969482422,20.726999282836914,4300.0,20.3557186126709
2018-08-15,20.649999618530273,20.5,20.649999618530273,20.6200008392334,6100.0,20.25063705444336
2018-08-16,20.799999237060547,20.67099952697754,20.719999313354492,20.799999237060547,77100.0,20.427412033081055
2018-08-17,20.8799991607666,20.6299991607666,20.6299991607666,20.820999145507812,3500.0,20.448036193847656
2018-08-20,20.969999313354492,20.847999572753906,20.899999618530273,20.969999313354492,6700.0,20.5943660736084
2018-08-21,21.030000686645508,20.98699951171875,21.010000228881836,20.98699951171875,900.0,20.61106300354004
2018-08-22,21.0,20.952999114990234,20.9689998626709,20.952999114990234,3300.0,20.57767105102539
2018-08-23,20.93000030517578,20.90999984741211,20.923999786376953,20.929000854492188,2800.0,20.554101943969727
2018-08-24,21.059999465942383,20.979999542236328,20.979999542236328,21.041000366210938,11300.0,20.664094924926758
2018-08-27,21.198999404907227,21.111000061035156,21.111000061035156,21.139999389648438,3500.0,20.761322021484375
2018-08-28,21.253999710083008,21.111000061035156,21.253999710083008,21.18899917602539,6000.0,20.809444427490234
2018-08-29,21.309999465942383,21.180999755859375,21.270000457763672,21.253000259399414,7700.0,20.872297286987305
2018-08-30,21.309999465942383,21.16699981689453,21.309999465942383,21.190000534057617,7400.0,20.810426712036133
2018-08-31,21.239999771118164,21.1299991607666,21.200000762939453,21.1299991607666,2200.0,20.751501083374023
2018-09-04,21.239999771118164,21.083999633789062,21.239999771118164,21.239999771118164,2800.0,20.85953140258789
2018-09-05,21.158000946044922,21.030000686645508,21.059999465942383,21.100000381469727,9600.0,20.72203826904297
2018-09-06,21.15399932861328,21.058000564575195,21.15399932861328,21.058000564575195,2000.0,20.6807918548584
2018-09-07,21.040000915527344,21.007999420166016,21.040000915527344,21.007999420166016,1400.0,20.631685256958008
2018-09-10,21.170000076293945,21.136999130249023,21.170000076293945,21.136999130249023,6100.0,20.75837516784668
2018-09-11,21.200000762939453,21.006999969482422,21.15999984741211,21.190000534057617,3700.0,20.810426712036133
2018-09-12,21.19099998474121,21.08300018310547,21.19099998474121,21.11400032043457,3600.0,20.735788345336914
2018-09-13,21.31999969482422,21.25,21.309999465942383,21.31999969482422,2700.0,20.93809700012207
2018-09-14,21.354000091552734,21.298999786376953,21.354000091552734,21.319000244140625,2600.0,20.937116622924805
2018-09-17,21.31999969482422,21.229999542236328,21.31999969482422,21.239999771118164,3700.0,20.85953140258789
2018-09-18,21.34000015258789,21.266000747680664,21.299999237060547,21.34000015258789,5400.0,20.957738876342773
2018-09-19,21.350000381469727,21.250999450683594,21.350000381469727,21.266000747680664,5300.0,20.88506507873535
2018-09-20,21.43000030517578,21.33300018310547,21.43000030517578,21.402999877929688,2100.0,21.019611358642578
2018-09-21,21.524999618530273,21.420000076293945,21.524999618530273,21.459999084472656,5900.0,21.07558822631836
2018-09-24,21.469999313354492,21.26300048828125,21.469999313354492,21.329999923706055,1600.0,20.947917938232422
2018-09-25,21.43000030517578,21.243000030517578,21.270000457763672,21.243000030517578,2200.0,20.862476348876953
2018-09-26,21.347000122070312,21.183000564575195,21.26099967956543,21.183000564575195,5300.0,20.803552627563477
2018-09-27,21.354999542236328,21.277999877929688,21.280000686645508,21.309999465942383,3600.0,20.92827606201172
2018-09-28,21.301000595092773,21.219999313354492,21.270000457763672,21.26799964904785,6700.0,20.88702964782715
2018-10-01,21.40399932861328,21.309999465942383,21.365999221801758,21.327999114990234,7200.0,20.945953369140625
2018-10-02,21.399999618530273,21.290000915527344,21.399999618530273,21.309999465942383,5000.0,20.92827606201172
2018-10-03,21.40999984741211,21.25,21.40999984741211,21.290000915527344,6600.0,20.90863609313965
2018-10-04,21.256000518798828,20.982999801635742,21.256000518798828,21.030000686645508,3900.0,20.65329360961914
2018-10-05,21.170000076293945,20.924999237060547,21.0,21.0,7300.0,20.623828887939453
2018-10-08,21.0,20.829999923706055,21.0,20.958999633789062,4800.0,20.58356475830078
2018-10-09,20.95800018310547,20.885000228881836,20.937999725341797,20.90999984741211,3000.0,20.535442352294922
2018-10-10,20.739999771118164,20.18000030517578,20.739999771118164,20.200000762939453,31700.0,19.83816146850586
2018-10-11,20.25,19.799999237060547,20.1200008392334,19.799999237060547,9500.0,19.445323944091797
2018-10-12,20.091999053955078,19.850000381469727,19.979999542236328,20.06999969482422,3800.0,19.71048927307129
2018-10-15,20.139999389648438,20.010000228881836,20.09000015258789,20.010000228881836,4700.0,19.65156364440918
2018-10-16,20.3700008392334,20.020000457763672,20.020000457763672,20.3700008392334,3500.0,20.005115509033203
2018-10-17,20.408000946044922,20.329999923706055,20.34000015258789,20.35300064086914,5100.0,19.988420486450195
2018-10-18,20.43000030517578,20.091999053955078,20.43000030517578,20.12299919128418,1900.0,19.76253890991211
2018-10-19,20.26300048828125,19.98900032043457,20.079999923706055,20.07699966430664,4000.0,19.717363357543945
2018-10-22,20.049999237060547,19.940000534057617,20.020000457763672,20.04400062561035,7700.0,19.684955596923828
2018-10-23,19.913999557495117,19.649999618530273,19.65999984741211,19.913999557495117,4000.0,19.557283401489258
2018-10-24,19.8799991607666,19.440000534057617,19.780000686645508,19.4689998626709,8500.0,19.120254516601562
2018-10-25,19.649999618530273,19.40999984741211,19.469999313354492,19.530000686645508,4900.0,19.18016242980957
2018-10-26,19.496999740600586,19.25,19.270000457763672,19.25,12800.0,18.90517807006836
2018-10-29,19.6200008392334,19.1299991607666,19.601999282836914,19.1299991607666,5400.0,18.78732681274414
2018-10-30,19.719999313354492,19.415000915527344,19.511999130249023,19.719999313354492,9400.0,19.366758346557617
2018-10-31,19.989999771118164,19.790000915527344,19.809999465942383,19.860000610351562,10000.0,19.50425148010254
2018-11-01,20.070999145507812,19.959999084472656,19.959999084472656,20.070999145507812,2800.0,19.711469650268555
2018-11-02,20.260000228881836,19.902000427246094,20.170000076293945,19.98900032043457,5300.0,19.630939483642578
2018-11-05,20.149999618530273,20.03499984741211,20.1299991607666,20.121999740600586,6900.0,19.76155662536621
2018-11-06,20.27400016784668,20.225000381469727,20.229999542236328,20.27400016784668,1000.0,19.91083526611328
2018-11-07,20.606000900268555,20.40999984741211,20.40999984741211,20.606000900268555,2700.0,20.236888885498047
2018-11-08,20.68899917602539,20.589000701904297,20.68899917602539,20.589000701904297,37900.0,20.220191955566406
2018-11-09,20.65999984741211,20.3799991607666,20.65999984741211,20.5049991607666,1400.0,20.1376953125
2018-11-12,20.520000457763672,20.1299991607666,20.520000457763672,20.1299991607666,9700.0,19.769412994384766
2018-11-13,20.21299934387207,20.059999465942383,20.21299934387207,20.059999465942383,1100.0,19.700668334960938
2018-11-14,20.148000717163086,20.0,20.148000717163086,20.138999938964844,2600.0,19.77825355529785
2018-11-15,20.222999572753906,19.84000015258789,19.84000015258789,20.139999389648438,2500.0,19.779233932495117
2018-11-16,20.309999465942383,20.131999969482422,20.138999938964844,20.299999237060547,9000.0,19.936368942260742
2018-11-19,20.270000457763672,19.899999618530273,20.270000457763672,19.969999313354492,8400.0,19.612279891967773
2018-11-20,19.84000015258789,19.611000061035156,19.739999771118164,19.611000061035156,8600.0,19.25971031188965
2018-11-21,19.8799991607666,19.739999771118164,19.829999923706055,19.753000259399414,4300.0,19.399168014526367
2018-11-23,19.777999877929688,19.709999084472656,19.719999313354492,19.709999084472656,1300.0,19.356937408447266
2018-11-26,19.902999877929688,19.802000045776367,19.902999877929688,19.802000045776367,1800.0,19.447290420532227
2018-11-27,19.934999465942383,19.875999450683594,19.920000076293945,19.934999465942383,1500.0,19.577905654907227
2018-11-28,20.350000381469727,20.052000045776367,20.052000045776367,20.350000381469727,3100.0,19.9854736328125
2018-11-29,20.450000762939453,20.280000686645508,20.450000762939453,20.356000900268555,3200.0,19.99136734008789
2018-11-30,20.520000457763672,20.389999389648438,20.399999618530273,20.520000457763672,3900.0,20.152427673339844
2018-12-03,20.77199935913086,20.690000534057617,20.77199935913086,20.709999084472656,1400.0,20.33902359008789
2018-12-04,20.6299991607666,20.049999237060547,20.6299991607666,20.049999237060547,14700.0,19.690845489501953
2018-12-06,20.062999725341797,19.606000900268555,19.799999237060547,20.062999725341797,4700.0,19.70361328125
2018-12-07,19.743000030517578,19.59000015258789,19.700000762939453,19.59000015258789,6900.0,19.23908805847168
2018-12-10,19.639999389648438,19.277000427246094,19.639999389648438,19.461000442504883,2400.0,19.112398147583008
2018-12-11,19.857999801635742,19.479999542236328,19.857999801635742,19.729999542236328,2800.0,19.37657928466797
2018-12-12,19.90399932861328,19.670000076293945,19.809999465942383,19.670000076293945,3900.0,19.31765365600586
2018-12-13,19.739999771118164,19.56999969482422,19.739999771118164,19.56999969482422,2800.0,19.219444274902344
2018-12-14,19.559999465942383,19.290000915527344,19.559999465942383,19.290000915527344,11100.0,18.944461822509766
2018-12-17,19.399999618530273,18.889999389648438,19.399999618530273,18.90999984741211,6100.0,18.57126808166504
2018-12-18,19.10300064086914,18.899999618530273,19.010000228881836,18.940000534057617,8800.0,18.600730895996094
2018-12-19,19.190000534057617,18.520000457763672,18.920000076293945,18.56999969482422,8100.0,18.23735809326172
2018-12-20,18.6299991607666,18.363000869750977,18.6299991607666,18.363000869750977,3900.0,18.034067153930664
2018-12-21,18.562999725341797,18.100000381469727,18.5,18.100000381469727,4400.0,17.77577781677246
2018-12-24,17.8700008392334,17.70800018310547,17.799999237060547,17.70800018310547,6400.0,17.390798568725586
2018-12-26,18.106000900268555,17.549999237060547,17.788000106811523,18.106000900268555,3200.0,17.78166961669922
2018-12-27,18.59000015258789,17.920000076293945,18.09000015258789,18.59000015258789,24800.0,18.256999969482422
2018-12-28,18.392000198364258,18.200000762939453,18.299999237060547,18.290000915527344,64700.0,18.290000915527344
2018-12-31,18.388999938964844,18.239999771118164,18.309999465942383,18.329999923706055,12800.0,18.329999923706055
2019-01-02,18.388999938964844,18.25,18.25,18.309999465942383,4800.0,18.309999465942383
2019-01-03,18.136999130249023,18.038000106811523,18.040000915527344,18.038999557495117,3000.0,18.038999557495117
2019-01-04,18.610000610351562,18.283000946044922,18.301000595092773,18.549999237060547,16300.0,18.549999237060547
2019-01-07,18.90999984741211,18.520000457763672,18.639999389648438,18.80900001525879,3300.0,18.80900001525879
2019-01-08,18.979999542236328,18.75200080871582,18.9060001373291,18.950000762939453,5600.0,18.950000762939453
2019-01-09,19.149999618530273,18.989999771118164,19.059999465942383,19.13599967956543,19800.0,19.13599967956543
2019-01-10,19.209999084472656,18.884000778198242,18.884000778198242,19.18600082397461,36100.0,19.18600082397461
2019-01-11,19.190000534057617,19.136999130249023,19.177000045776367,19.17099952697754,2700.0,19.17099952697754
2019-01-14,19.086999893188477,18.969999313354492,18.969999313354492,19.086999893188477,6300.0,19.086999893188477
2019-01-15,19.31999969482422,19.030000686645508,19.030000686645508,19.270000457763672,7300.0,19.270000457763672
2019-01-16,19.489999771118164,19.229999542236328,19.489999771118164,19.239999771118164,2100.0,19.239999771118164
2019-01-17,19.464000701904297,19.260000228881836,19.260000228881836,19.408000946044922,8100.0,19.408000946044922
2019-01-18,19.760000228881836,19.577999114990234,19.577999114990234,19.666000366210938,13800.0,19.666000366210938
2019-01-22,19.8799991607666,19.43000030517578,19.8799991607666,19.510000228881836,16500.0,19.510000228881836
2019-01-23,19.597999572753906,19.367000579833984,19.597999572753906,19.56999969482422,20300.0,19.56999969482422
2019-01-24,19.770000457763672,19.513999938964844,19.770000457763672,19.6200008392334,3600.0,19.6200008392334
2019-01-25,19.790000915527344,19.68000030517578,19.68000030517578,19.735000610351562,7400.0,19.735000610351562
2019-01-28,19.690000534057617,19.513999938964844,19.690000534057617,19.610000610351562,6000.0,19.610000610351562
2019-01-29,19.8799991607666,19.639999389648438,19.8799991607666,19.639999389648438,6100.0,19.639999389648438
2019-01-30,19.899999618530273,19.670000076293945,19.780000686645508,19.868000030517578,9700.0,19.868000030517578
2019-01-31,20.200000762939453,19.850000381469727,20.200000762939453,19.959999084472656,12700.0,19.959999084472656
2019-02-01,20.090999603271484,19.979999542236328,20.0,20.020000457763672,24100.0,20.020000457763672
2019-02-04,20.149999618530273,19.950000762939453,19.950000762939453,20.149999618530273,13100.0,20.149999618530273
2019-02-05,20.267000198364258,20.209999084472656,20.253999710083008,20.267000198364258,2100.0,20.267000198364258
2019-02-06,20.489999771118164,20.229999542236328,20.489999771118164,20.275999069213867,8100.0,20.275999069213867
2019-02-07,20.145999908447266,19.975000381469727,20.145999908447266,20.040000915527344,2500.0,20.040000915527344
2019-02-08,20.058000564575195,19.952999114990234,19.959999084472656,20.055999755859375,2500.0,20.055999755859375
2019-02-11,20.170000076293945,19.899999618530273,19.920000076293945,20.1299991607666,4100.0,20.1299991607666
2019-02-12,20.600000381469727,20.149999618530273,20.600000381469727,20.445999145507812,2300.0,20.445999145507812
2019-02-13,20.520000457763672,20.450000762939453,20.459999084472656,20.520000457763672,7700.0,20.520000457763672
2019-02-14,20.520000457763672,20.34000015258789,20.34000015258789,20.520000457763672,8100.0,20.520000457763672
2019-02-15,20.6299991607666,20.58300018310547,20.583999633789062,20.621000289916992,22800.0,20.621000289916992
2019-02-19,20.889999389648438,20.68899917602539,20.889999389648438,20.753000259399414,2400.0,20.753000259399414
2019-02-20,21.010000228881836,20.7450008392334,21.010000228881836,20.770000457763672,2300.0,20.770000457763672
2019-02-21,20.719999313354492,20.6299991607666,20.709999084472656,20.719999313354492,3000.0,20.719999313354492
2019-02-22,20.860000610351562,20.459999084472656,20.459999084472656,20.820999145507812,15300.0,20.820999145507812
2019-02-25,21.280000686645508,20.850000381469727,21.280000686645508,20.850000381469727,51200.0,20.850000381469727
2019-02-26,20.90999984741211,20.868000030517578,20.90999984741211,20.868000030517578,3500.0,20.868000030517578
2019-02-27,20.902999877929688,20.799999237060547,20.799999237060547,20.902999877929688,23500.0,20.902999877929688
2019-02-28,20.975000381469727,20.809999465942383,20.81999969482422,20.856000900268555,1500.0,20.856000900268555
2019-03-01,21.049999237060547,20.709999084472656,20.709999084472656,20.965999603271484,5100.0,20.965999603271484
2019-03-04,21.309999465942383,20.729000091552734,21.309999465942383,20.799999237060547,5900.0,20.799999237060547
2019-03-05,21.209999084472656,20.856000900268555,21.209999084472656,20.8700008392334,4600.0,20.8700008392334
2019-03-06,20.760000228881836,20.649999618530273,20.73699951171875,20.649999618530273,13400.0,20.649999618530273
2019-03-07,20.799999237060547,20.459999084472656,20.799999237060547,20.459999084472656,7000.0,20.459999084472656
2019-03-08,20.43199920654297,20.18000030517578,20.239999771118164,20.43199920654297,4700.0,20.43199920654297
2019-03-11,20.770000457763672,20.6200008392334,20.770000457763672,20.718000411987305,6600.0,20.718000411987305
2019-03-12,20.819000244140625,20.760000228881836,20.770000457763672,20.760000228881836,3200.0,20.760000228881836
2019-03-13,20.976999282836914,20.923999786376953,20.923999786376953,20.966999053955078,1500.0,20.966999053955078
2019-03-14,20.940000534057617,20.649999618530273,20.649999618530273,20.89299964904785,12200.0,20.89299964904785
2019-03-15,21.049999237060547,20.920000076293945,20.989999771118164,21.040000915527344,5000.0,21.040000915527344
2019-03-18,21.139999389648438,20.989999771118164,21.139999389648438,21.040000915527344,2600.0,21.040000915527344
2019-03-19,21.179000854492188,21.079999923706055,21.139999389648438,21.079999923706055,60600.0,21.079999923706055
2019-03-20,21.18000030517578,20.87299919128418,21.18000030517578,20.940000534057617,20800.0,20.940000534057617
2019-03-21,21.174999237060547,20.856000900268555,20.9689998626709,21.12299919128418,6700.0,21.12299919128418
2019-03-22,21.299999237060547,20.742000579833984,21.299999237060547,20.742000579833984,11300.0,20.742000579833984
2019-03-25,20.729999542236328,20.549999237060547,20.549999237060547,20.709999084472656,7000.0,20.709999084472656
2019-03-26,20.93000030517578,20.856000900268555,20.93000030517578,20.856000900268555,1500.0,20.856000900268555
2019-03-27,21.197999954223633,20.849000930786133,21.197999954223633,20.889999389648438,1700.0,20.889999389648438
2019-03-28,21.049999237060547,20.8799991607666,21.049999237060547,20.94700050354004,8400.0,20.94700050354004
2019-03-29,21.139999389648438,21.0,21.139999389648438,21.06999969482422,6100.0,21.06999969482422
2019-04-01,21.3799991607666,21.270000457763672,21.3799991607666,21.361000061035156,1200.0,21.361000061035156
2019-04-02,21.31999969482422,21.079999923706055,21.079999923706055,21.31399917602539,2600.0,21.31399917602539
2019-04-03,21.47100067138672,21.31999969482422,21.31999969482422,21.360000610351562,5700.0,21.360000610351562
2019-04-04,21.450000762939453,21.344999313354492,21.420000076293945,21.41900062561035,12500.0,21.41900062561035
2019-04-05,21.56999969482422,21.483999252319336,21.530000686645508,21.56999969482422,9200.0,21.56999969482422
2019-04-08,21.579999923706055,21.496000289916992,21.579999923706055,21.523000717163086,3400.0,21.523000717163086
2019-04-09,21.600000381469727,21.1200008392334,21.600000381469727,21.375,8600.0,21.375
2019-04-10,21.709999084472656,21.45400047302246,21.489999771118164,21.520000457763672,12500.0,21.520000457763672
2019-04-11,21.700000762939453,21.454999923706055,21.700000762939453,21.530000686645508,8900.0,21.530000686645508
2019-04-12,21.709999084472656,21.639999389648438,21.64299964904785,21.639999389648438,5100.0,21.639999389648438
2019-04-15,21.770000457763672,21.56999969482422,21.770000457763672,21.597000122070312,5500.0,21.597000122070312
2019-04-16,21.799999237060547,21.67099952697754,21.719999313354492,21.67099952697754,9400.0,21.67099952697754
2019-04-17,22.049999237060547,21.601999282836914,22.049999237060547,21.601999282836914,6300.0,21.601999282836914
2019-04-18,21.895999908447266,21.6299991607666,21.895999908447266,21.690000534057617,6100.0,21.690000534057617
2019-04-22,21.709999084472656,21.601999282836914,21.709999084472656,21.649999618530273,11500.0,21.649999618530273
2019-04-23,21.860000610351562,21.680999755859375,21.709999084472656,21.80299949645996,10100.0,21.80299949645996
2019-04-24,21.969999313354492,21.805999755859375,21.969999313354492,21.809999465942383,6500.0,21.809999465942383
2019-04-25,21.740999221801758,21.600000381469727,21.670000076293945,21.715999603271484,15100.0,21.715999603271484
2019-04-26,21.81999969482422,21.621000289916992,21.621000289916992,21.766000747680664,9700.0,21.766000747680664
2019-04-29,21.979999542236328,21.687999725341797,21.90999984741211,21.860000610351562,14800.0,21.860000610351562
2019-04-30,21.891000747680664,21.809999465942383,21.809999465942383,21.878999710083008,4700.0,21.878999710083008
2019-05-01,21.940000534057617,21.71500015258789,21.850000381469727,21.71500015258789,4600.0,21.71500015258789
2019-05-02,21.780000686645508,21.695999145507812,21.780000686645508,21.722999572753906,6100.0,21.722999572753906
2019-05-03,22.054000854492188,21.659000396728516,21.899999618530273,21.920000076293945,8000.0,21.920000076293945
2019-05-06,21.8700008392334,21.610000610351562,21.8700008392334,21.764999389648438,5000.0,21.764999389648438
2019-05-07,21.889999389648438,21.31999969482422,21.889999389648438,21.334999084472656,11500.0,21.334999084472656
2019-05-08,21.48200035095215,21.110000610351562,21.110000610351562,21.479999542236328,8300.0,21.479999542236328
2019-05-09,21.440000534057617,21.084999084472656,21.440000534057617,21.39299964904785,4300.0,21.39299964904785
2019-05-10,21.459999084472656,21.010000228881836,21.209999084472656,21.459999084472656,5200.0,21.459999084472656
2019-05-13,21.389999389648438,20.804000854492188,21.389999389648438,20.861000061035156,11200.0,20.861000061035156
2019-05-14,21.200000762939453,20.670000076293945,20.68000030517578,21.19499969482422,5300.0,21.19499969482422
2019-05-15,21.21500015258789,20.65999984741211,20.65999984741211,21.21500015258789,10100.0,21.21500015258789
2019-05-16,21.44499969482422,21.308000564575195,21.31999969482422,21.308000564575195,2100.0,21.308000564575195
2019-05-17,21.489999771118164,21.259000778198242,21.489999771118164,21.290000915527344,1800.0,21.290000915527344
2019-05-20,21.143999099731445,21.062000274658203,21.09000015258789,21.1299991607666,3700.0,21.1299991607666
2019-05-21,21.31999969482422,20.969999313354492,20.969999313354492,21.253000259399414,6800.0,21.253000259399414
2019-05-22,21.299999237060547,21.149999618530273,21.299999237060547,21.18000030517578,7100.0,21.18000030517578
2019-05-23,21.139999389648438,20.834999084472656,21.139999389648438,20.85099983215332,4400.0,20.85099983215332
2019-05-24,21.059999465942383,20.860000610351562,21.01300048828125,20.996999740600586,3700.0,20.996999740600586
