Date,High,Low,Open,Close,Volume,Adj Close
2017-12-01,10.010000228881836,9.960000038146973,10.0,9.960000038146973,4733600,9.960000038146973
2017-12-04,9.960000038146973,9.930000305175781,9.949999809265137,9.930000305175781,53900,9.930000305175781
2017-12-05,9.949999809265137,9.300000190734863,9.949999809265137,9.90999984741211,37000,9.90999984741211
2017-12-06,9.925000190734863,9.880000114440918,9.911999702453613,9.899999618530273,1069800,9.899999618530273
2017-12-07,9.920000076293945,9.880000114440918,9.90999984741211,9.880999565124512,12800,9.880999565124512
2017-12-08,9.930000305175781,9.859999656677246,9.930000305175781,9.880000114440918,1800,9.880000114440918
2017-12-11,9.899999618530273,9.850000381469727,9.850000381469727,9.880000114440918,38200,9.880000114440918
2017-12-12,9.899999618530273,9.859999656677246,9.869999885559082,9.880000114440918,34600,9.880000114440918
2017-12-13,9.90999984741211,9.880000114440918,9.90999984741211,9.90999984741211,6000,9.90999984741211
2017-12-14,9.90999984741211,9.90999984741211,9.90999984741211,9.90999984741211,0,9.90999984741211
2017-12-15,9.920000076293945,9.869999885559082,9.899999618530273,9.899999618530273,3400,9.899999618530273
2017-12-18,9.913000106811523,9.880000114440918,9.899999618530273,9.899999618530273,18000,9.899999618530273
2017-12-19,9.899999618530273,9.899999618530273,9.899999618530273,9.899999618530273,0,9.899999618530273
2017-12-20,9.949999809265137,9.899999618530273,9.899999618530273,9.949999809265137,189000,9.949999809265137
2017-12-21,9.979000091552734,9.90999984741211,9.920000076293945,9.90999984741211,38700,9.90999984741211
2017-12-22,9.90999984741211,9.90999984741211,9.90999984741211,9.90999984741211,0,9.90999984741211
2017-12-26,9.90999984741211,9.90999984741211,9.90999984741211,9.90999984741211,0,9.90999984741211
2017-12-27,9.90999984741211,9.90999984741211,9.90999984741211,9.90999984741211,0,9.90999984741211
2017-12-28,9.90999984741211,9.90999984741211,9.90999984741211,9.90999984741211,0,9.90999984741211
2017-12-29,9.90999984741211,9.90999984741211,9.90999984741211,9.90999984741211,0,9.90999984741211
2018-01-02,9.90999984741211,9.90999984741211,9.90999984741211,9.90999984741211,0,9.90999984741211
2018-01-03,9.949999809265137,9.949999809265137,9.949999809265137,9.949999809265137,5000,9.949999809265137
2018-01-04,9.927000045776367,9.920000076293945,9.920000076293945,9.927000045776367,2000,9.927000045776367
2018-01-05,9.970000267028809,9.90999984741211,9.90999984741211,9.970000267028809,5900,9.970000267028809
2018-01-08,9.970000267028809,9.970000267028809,9.970000267028809,9.970000267028809,0,9.970000267028809
2018-01-09,9.970000267028809,9.970000267028809,9.970000267028809,9.970000267028809,0,9.970000267028809
2018-01-10,9.979999542236328,9.930000305175781,9.932999610900879,9.979999542236328,3000,9.979999542236328
2018-01-11,9.979999542236328,9.920000076293945,9.930000305175781,9.930000305175781,21100,9.930000305175781
2018-01-12,9.930000305175781,9.930000305175781,9.930000305175781,9.930000305175781,0,9.930000305175781
2018-01-16,9.930000305175781,9.930000305175781,9.930000305175781,9.930000305175781,0,9.930000305175781
2018-01-17,10.0,9.949999809265137,9.949999809265137,10.0,4800,10.0
2018-01-18,10.0,9.979999542236328,9.979999542236328,10.0,2400,10.0
2018-01-19,9.989999771118164,9.949999809265137,9.949999809265137,9.989999771118164,5300,9.989999771118164
2018-01-22,10.0,9.949999809265137,9.960000038146973,9.949999809265137,684700,9.949999809265137
2018-01-23,9.949999809265137,9.949999809265137,9.949999809265137,9.949999809265137,0,9.949999809265137
2018-01-24,9.979999542236328,9.899999618530273,9.9399995803833,9.949999809265137,258700,9.949999809265137
2018-01-25,9.9399995803833,9.9399995803833,9.9399995803833,9.9399995803833,1000,9.9399995803833
2018-01-26,9.949999809265137,9.9399995803833,9.9399995803833,9.9399995803833,800,9.9399995803833
2018-01-29,9.970000267028809,9.949999809265137,9.949999809265137,9.970000267028809,6200,9.970000267028809
2018-01-30,9.970000267028809,9.949999809265137,9.949999809265137,9.970000267028809,200,9.970000267028809
2018-01-31,9.949999809265137,9.932999610900879,9.949999809265137,9.949999809265137,62500,9.949999809265137
2018-02-01,9.960000038146973,9.930000305175781,9.930000305175781,9.960000038146973,800,9.960000038146973
2018-02-02,9.960000038146973,9.960000038146973,9.960000038146973,9.960000038146973,0,9.960000038146973
2018-02-05,9.960000038146973,9.960000038146973,9.960000038146973,9.960000038146973,0,9.960000038146973
2018-02-06,9.970000267028809,9.899999618530273,9.930000305175781,9.970000267028809,9700,9.970000267028809
2018-02-07,9.970000267028809,9.970000267028809,9.970000267028809,9.970000267028809,0,9.970000267028809
2018-02-08,9.970000267028809,9.970000267028809,9.970000267028809,9.970000267028809,0,9.970000267028809
2018-02-09,9.970000267028809,9.970000267028809,9.970000267028809,9.970000267028809,0,9.970000267028809
2018-02-12,9.970000267028809,9.970000267028809,9.970000267028809,9.970000267028809,0,9.970000267028809
2018-02-13,9.970000267028809,9.970000267028809,9.970000267028809,9.970000267028809,0,9.970000267028809
2018-02-14,9.970000267028809,9.970000267028809,9.970000267028809,9.970000267028809,0,9.970000267028809
2018-02-15,9.970000267028809,9.899999618530273,9.90999984741211,9.949999809265137,14100,9.949999809265137
2018-02-16,9.949999809265137,9.949999809265137,9.949999809265137,9.949999809265137,0,9.949999809265137
2018-02-20,9.949999809265137,9.920000076293945,9.920000076293945,9.949999809265137,1400,9.949999809265137
2018-02-21,9.949999809265137,9.949999809265137,9.949999809265137,9.949999809265137,1200,9.949999809265137
2018-02-22,9.949999809265137,9.899999618530273,9.90999984741211,9.949999809265137,101100,9.949999809265137
2018-02-23,9.965999603271484,9.965999603271484,9.965999603271484,9.965999603271484,100,9.965999603271484
2018-02-26,9.965999603271484,9.965999603271484,9.965999603271484,9.965999603271484,0,9.965999603271484
2018-02-27,9.965999603271484,9.965999603271484,9.965999603271484,9.965999603271484,0,9.965999603271484
2018-02-28,9.965999603271484,9.965999603271484,9.965999603271484,9.965999603271484,0,9.965999603271484
2018-03-01,9.979999542236328,9.930000305175781,9.960000038146973,9.949999809265137,30100,9.949999809265137
2018-03-02,9.949999809265137,9.899999618530273,9.90999984741211,9.899999618530273,174100,9.899999618530273
2018-03-05,9.899999618530273,9.899999618530273,9.899999618530273,9.899999618530273,0,9.899999618530273
2018-03-06,9.899999618530273,9.899999618530273,9.899999618530273,9.899999618530273,0,9.899999618530273
2018-03-07,9.899999618530273,9.899999618530273,9.899999618530273,9.899999618530273,0,9.899999618530273
2018-03-08,9.899999618530273,9.869999885559082,9.899999618530273,9.890000343322754,46000,9.890000343322754
2018-03-09,9.899999618530273,9.899999618530273,9.899999618530273,9.899999618530273,100,9.899999618530273
2018-03-12,9.899999618530273,9.899999618530273,9.899999618530273,9.899999618530273,37800,9.899999618530273
2018-03-13,9.899999618530273,9.859999656677246,9.880000114440918,9.899999618530273,63800,9.899999618530273
2018-03-14,9.920000076293945,9.899999618530273,9.90999984741211,9.899999618530273,64600,9.899999618530273
2018-03-15,9.899999618530273,9.899999618530273,9.899999618530273,9.899999618530273,0,9.899999618530273
2018-03-16,9.899999618530273,9.899999618530273,9.899999618530273,9.899999618530273,0,9.899999618530273
2018-03-19,9.897000312805176,9.850000381469727,9.859999656677246,9.897000312805176,42000,9.897000312805176
2018-03-20,9.897000312805176,9.897000312805176,9.897000312805176,9.897000312805176,0,9.897000312805176
2018-03-21,9.897000312805176,9.897000312805176,9.897000312805176,9.897000312805176,0,9.897000312805176
2018-03-22,9.880000114440918,9.880000114440918,9.880000114440918,9.880000114440918,100,9.880000114440918
2018-03-23,9.880000114440918,9.880000114440918,9.880000114440918,9.880000114440918,0,9.880000114440918
2018-03-26,9.880000114440918,9.880000114440918,9.880000114440918,9.880000114440918,0,9.880000114440918
2018-03-27,9.949999809265137,9.899999618530273,9.899999618530273,9.949999809265137,11000,9.949999809265137
2018-03-28,9.9399995803833,9.869999885559082,9.9399995803833,9.9350004196167,6000,9.9350004196167
2018-03-29,9.899999618530273,9.869999885559082,9.869999885559082,9.897000312805176,5200,9.897000312805176
2018-04-02,9.930000305175781,9.930000305175781,9.930000305175781,9.930000305175781,9000,9.930000305175781
2018-04-03,9.930000305175781,9.930000305175781,9.930000305175781,9.930000305175781,0,9.930000305175781
2018-04-04,9.916000366210938,9.890000343322754,9.916000366210938,9.899999618530273,3100,9.899999618530273
2018-04-05,9.960000038146973,9.960000038146973,9.960000038146973,9.960000038146973,100,9.960000038146973
2018-04-06,9.979999542236328,9.9399995803833,9.979999542236328,9.9399995803833,700,9.9399995803833
2018-04-09,9.9399995803833,9.9399995803833,9.9399995803833,9.9399995803833,0,9.9399995803833
2018-04-10,9.9399995803833,9.9399995803833,9.9399995803833,9.9399995803833,0,9.9399995803833
2018-04-11,9.9399995803833,9.9399995803833,9.9399995803833,9.9399995803833,0,9.9399995803833
2018-04-12,9.9399995803833,9.9399995803833,9.9399995803833,9.9399995803833,0,9.9399995803833
2018-04-13,9.9399995803833,9.9399995803833,9.9399995803833,9.9399995803833,0,9.9399995803833
2018-04-16,9.9399995803833,9.9399995803833,9.9399995803833,9.9399995803833,0,9.9399995803833
2018-04-17,9.920000076293945,9.890000343322754,9.920000076293945,9.90999984741211,75500,9.90999984741211
2018-04-18,9.90999984741211,9.90999984741211,9.90999984741211,9.90999984741211,0,9.90999984741211
2018-04-19,9.930000305175781,9.869999885559082,9.930000305175781,9.869999885559082,23300,9.869999885559082
2018-04-20,9.890000343322754,9.869999885559082,9.880000114440918,9.890000343322754,1800,9.890000343322754
2018-04-23,9.890000343322754,9.890000343322754,9.890000343322754,9.890000343322754,0,9.890000343322754
2018-04-24,9.880000114440918,9.880000114440918,9.880000114440918,9.880000114440918,1000,9.880000114440918
2018-04-25,9.880000114440918,9.880000114440918,9.880000114440918,9.880000114440918,0,9.880000114440918
2018-04-26,9.90999984741211,9.90999984741211,9.90999984741211,9.90999984741211,1000,9.90999984741211
2018-04-27,9.90999984741211,9.90999984741211,9.90999984741211,9.90999984741211,0,9.90999984741211
2018-04-30,9.899999618530273,9.899999618530273,9.899999618530273,9.899999618530273,200,9.899999618530273
2018-05-01,9.899999618530273,9.899999618530273,9.899999618530273,9.899999618530273,0,9.899999618530273
2018-05-02,9.899999618530273,9.899999618530273,9.899999618530273,9.899999618530273,2000,9.899999618530273
2018-05-03,9.890000343322754,9.890000343322754,9.890000343322754,9.890000343322754,100,9.890000343322754
2018-05-04,9.890000343322754,9.890000343322754,9.890000343322754,9.890000343322754,100,9.890000343322754
2018-05-07,9.890000343322754,9.890000343322754,9.890000343322754,9.890000343322754,0,9.890000343322754
2018-05-08,9.9399995803833,9.899999618530273,9.899999618530273,9.899999618530273,60400,9.899999618530273
2018-05-09,9.911999702453613,9.90999984741211,9.90999984741211,9.90999984741211,1100,9.90999984741211
2018-05-10,9.949999809265137,9.90999984741211,9.90999984741211,9.949999809265137,4500,9.949999809265137
2018-05-11,10.0,9.949999809265137,9.951000213623047,9.979999542236328,51800,9.979999542236328
2018-05-14,10.0,9.949999809265137,9.949999809265137,9.949999809265137,3800,9.949999809265137
2018-05-15,9.949999809265137,9.949999809265137,9.949999809265137,9.949999809265137,0,9.949999809265137
2018-05-16,9.949999809265137,9.949999809265137,9.949999809265137,9.949999809265137,0,9.949999809265137
2018-05-17,9.949999809265137,9.949999809265137,9.949999809265137,9.949999809265137,0,9.949999809265137
2018-05-18,9.949999809265137,9.949999809265137,9.949999809265137,9.949999809265137,0,9.949999809265137
2018-05-21,10.020000457763672,10.0,10.010000228881836,10.010000228881836,1400,10.010000228881836
2018-05-22,10.010000228881836,10.010000228881836,10.010000228881836,10.010000228881836,0,10.010000228881836
2018-05-23,10.010000228881836,10.010000228881836,10.010000228881836,10.010000228881836,0,10.010000228881836
2018-05-24,10.0,9.979999542236328,9.979999542236328,10.0,12700,10.0
2018-05-25,10.0,10.0,10.0,10.0,0,10.0
2018-05-29,10.0,10.0,10.0,10.0,0,10.0
2018-05-30,10.0,10.0,10.0,10.0,0,10.0
2018-05-31,10.0,10.0,10.0,10.0,0,10.0
2018-06-01,10.0,10.0,10.0,10.0,0,10.0
2018-06-04,9.979999542236328,9.949999809265137,9.949999809265137,9.97599983215332,1400,9.97599983215332
2018-06-05,9.97599983215332,9.97599983215332,9.97599983215332,9.97599983215332,0,9.97599983215332
2018-06-06,9.97599983215332,9.97599983215332,9.97599983215332,9.97599983215332,0,9.97599983215332
2018-06-07,9.97599983215332,9.97599983215332,9.97599983215332,9.97599983215332,0,9.97599983215332
2018-06-08,10.020000457763672,10.013999938964844,10.020000457763672,10.013999938964844,7500,10.013999938964844
2018-06-11,10.013999938964844,10.013999938964844,10.013999938964844,10.013999938964844,0,10.013999938964844
2018-06-12,10.029999732971191,10.020000457763672,10.020000457763672,10.020000457763672,23500,10.020000457763672
2018-06-13,10.029999732971191,10.029999732971191,10.029999732971191,10.029999732971191,4700,10.029999732971191
2018-06-14,10.03499984741211,10.020000457763672,10.020000457763672,10.03499984741211,31500,10.03499984741211
2018-06-15,10.03499984741211,10.03499984741211,10.03499984741211,10.03499984741211,0,10.03499984741211
2018-06-18,10.029999732971191,10.020000457763672,10.029999732971191,10.029999732971191,829900,10.029999732971191
2018-06-19,10.069999694824219,10.020000457763672,10.029999732971191,10.069999694824219,175700,10.069999694824219
2018-06-20,10.039999961853027,9.989999771118164,10.010000228881836,10.029999732971191,2900,10.029999732971191
2018-06-21,10.029999732971191,10.029999732971191,10.029999732971191,10.029999732971191,0,10.029999732971191
2018-06-22,10.029999732971191,10.029999732971191,10.029999732971191,10.029999732971191,0,10.029999732971191
2018-06-25,10.029999732971191,10.029999732971191,10.029999732971191,10.029999732971191,0,10.029999732971191
2018-06-26,10.050000190734863,10.039999961853027,10.039999961853027,10.050000190734863,39600,10.050000190734863
2018-06-27,10.050000190734863,10.050000190734863,10.050000190734863,10.050000190734863,0,10.050000190734863
2018-06-28,10.0600004196167,10.039999961853027,10.039999961853027,10.050000190734863,50100,10.050000190734863
2018-06-29,10.050000190734863,10.050000190734863,10.050000190734863,10.050000190734863,0,10.050000190734863
2018-07-02,10.079999923706055,10.079999923706055,10.079999923706055,10.079999923706055,1500,10.079999923706055
2018-07-03,10.079999923706055,10.079999923706055,10.079999923706055,10.079999923706055,0,10.079999923706055
2018-07-05,10.079999923706055,10.079999923706055,10.079999923706055,10.079999923706055,0,10.079999923706055
2018-07-06,10.079999923706055,10.079999923706055,10.079999923706055,10.079999923706055,0,10.079999923706055
2018-07-09,10.079999923706055,10.079999923706055,10.079999923706055,10.079999923706055,0,10.079999923706055
2018-07-10,10.079999923706055,10.079999923706055,10.079999923706055,10.079999923706055,0,10.079999923706055
2018-07-11,10.050000190734863,10.050000190734863,10.050000190734863,10.050000190734863,199000,10.050000190734863
2018-07-12,10.050000190734863,10.050000190734863,10.050000190734863,10.050000190734863,0,10.050000190734863
2018-07-13,10.050000190734863,10.050000190734863,10.050000190734863,10.050000190734863,0,10.050000190734863
2018-07-16,10.050000190734863,10.050000190734863,10.050000190734863,10.050000190734863,0,10.050000190734863
2018-07-17,10.100000381469727,10.069999694824219,10.069999694824219,10.100000381469727,263300,10.100000381469727
2018-07-18,10.100000381469727,10.100000381469727,10.100000381469727,10.100000381469727,0,10.100000381469727
2018-07-19,10.100000381469727,10.100000381469727,10.100000381469727,10.100000381469727,10100,10.100000381469727
2018-07-20,10.130000114440918,10.130000114440918,10.130000114440918,10.130000114440918,11200,10.130000114440918
2018-07-23,10.149999618530273,10.130000114440918,10.130000114440918,10.130000114440918,60500,10.130000114440918
2018-07-24,10.199999809265137,10.149999618530273,10.149999618530273,10.199999809265137,62000,10.199999809265137
2018-07-25,10.199999809265137,10.1899995803833,10.1899995803833,10.199999809265137,76000,10.199999809265137
2018-07-26,10.220000267028809,10.220000267028809,10.220000267028809,10.220000267028809,104600,10.220000267028809
2018-07-27,10.220000267028809,10.220000267028809,10.220000267028809,10.220000267028809,0,10.220000267028809
2018-07-30,10.279999732971191,10.210000038146973,10.220000267028809,10.25,211000,10.25
2018-07-31,10.194999694824219,10.194999694824219,10.194999694824219,10.194999694824219,2000,10.194999694824219
2018-08-01,10.25,10.25,10.25,10.25,1400,10.25
2018-08-02,10.25,10.25,10.25,10.25,0,10.25
2018-08-03,10.149999618530273,10.149999618530273,10.149999618530273,10.149999618530273,1100,10.149999618530273
2018-08-06,10.220000267028809,10.199999809265137,10.199999809265137,10.220000267028809,350000,10.220000267028809
2018-08-07,10.220000267028809,10.220000267028809,10.220000267028809,10.220000267028809,0,10.220000267028809
2018-08-08,10.220000267028809,10.220000267028809,10.220000267028809,10.220000267028809,20000,10.220000267028809
2018-08-09,10.220000267028809,10.220000267028809,10.220000267028809,10.220000267028809,0,10.220000267028809
2018-08-10,10.220000267028809,10.220000267028809,10.220000267028809,10.220000267028809,0,10.220000267028809
2018-08-13,10.220000267028809,10.220000267028809,10.220000267028809,10.220000267028809,0,10.220000267028809
2018-08-14,10.220000267028809,10.220000267028809,10.220000267028809,10.220000267028809,0,10.220000267028809
2018-08-15,10.220000267028809,10.220000267028809,10.220000267028809,10.220000267028809,0,10.220000267028809
2018-08-16,10.25,10.25,10.25,10.25,101000,10.25
2018-08-17,10.25,10.25,10.25,10.25,0,10.25
2018-08-20,10.25,10.25,10.25,10.25,0,10.25
2018-08-21,10.25,10.25,10.25,10.25,200,10.25
2018-08-22,10.25,10.25,10.25,10.25,0,10.25
2018-08-23,10.25,10.25,10.25,10.25,81700,10.25
2018-08-24,10.25,10.25,10.25,10.25,0,10.25
2018-08-27,10.199999809265137,10.1899995803833,10.199999809265137,10.1899995803833,300,10.1899995803833
2018-08-28,10.199999809265137,10.199999809265137,10.199999809265137,10.199999809265137,400,10.199999809265137
2018-08-29,10.199999809265137,10.199999809265137,10.199999809265137,10.199999809265137,0,10.199999809265137
2018-08-30,10.199999809265137,10.199999809265137,10.199999809265137,10.199999809265137,0,10.199999809265137
2018-08-31,10.199999809265137,10.199999809265137,10.199999809265137,10.199999809265137,0,10.199999809265137
2018-09-04,10.199999809265137,10.199999809265137,10.199999809265137,10.199999809265137,0,10.199999809265137
2018-09-05,10.199999809265137,10.199999809265137,10.199999809265137,10.199999809265137,0,10.199999809265137
2018-09-06,10.199999809265137,10.199999809265137,10.199999809265137,10.199999809265137,0,10.199999809265137
2018-09-07,10.180999755859375,10.180999755859375,10.180999755859375,10.180999755859375,1000,10.180999755859375
2018-09-10,10.180999755859375,10.180999755859375,10.180999755859375,10.180999755859375,0,10.180999755859375
2018-09-11,10.180999755859375,10.180999755859375,10.180999755859375,10.180999755859375,0,10.180999755859375
2018-09-12,10.190999984741211,10.149999618530273,10.15999984741211,10.149999618530273,6200,10.149999618530273
2018-09-13,10.149999618530273,10.149999618530273,10.149999618530273,10.149999618530273,700,10.149999618530273
2018-09-14,10.149999618530273,10.149999618530273,10.149999618530273,10.149999618530273,0,10.149999618530273
2018-09-17,10.149999618530273,10.149999618530273,10.149999618530273,10.149999618530273,0,10.149999618530273
2018-09-18,10.260000228881836,10.180000305175781,10.260000228881836,10.180000305175781,194100,10.180000305175781
2018-09-19,10.119999885559082,10.100000381469727,10.119999885559082,10.100000381469727,1000,10.100000381469727
2018-09-20,10.15999984741211,10.149999618530273,10.149999618530273,10.149999618530273,1500,10.149999618530273
2018-09-21,10.199999809265137,10.199999809265137,10.199999809265137,10.199999809265137,20800,10.199999809265137
2018-09-24,10.199999809265137,10.199999809265137,10.199999809265137,10.199999809265137,0,10.199999809265137
2018-09-25,10.260000228881836,10.220000267028809,10.260000228881836,10.220000267028809,2000,10.220000267028809
2018-09-26,10.199999809265137,10.180000305175781,10.199999809265137,10.180000305175781,600,10.180000305175781
2018-09-27,10.180000305175781,10.180000305175781,10.180000305175781,10.180000305175781,0,10.180000305175781
2018-09-28,10.180000305175781,10.180000305175781,10.180000305175781,10.180000305175781,0,10.180000305175781
2018-10-01,10.180000305175781,10.180000305175781,10.180000305175781,10.180000305175781,0,10.180000305175781
2018-10-02,10.180000305175781,10.180000305175781,10.180000305175781,10.180000305175781,0,10.180000305175781
2018-10-03,10.220000267028809,10.149999618530273,10.180000305175781,10.199999809265137,24500,10.199999809265137
2018-10-04,10.199999809265137,10.199999809265137,10.199999809265137,10.199999809265137,0,10.199999809265137
2018-10-05,10.199999809265137,10.199999809265137,10.199999809265137,10.199999809265137,1000,10.199999809265137
2018-10-08,10.210000038146973,10.199999809265137,10.210000038146973,10.199999809265137,2600,10.199999809265137
2018-10-09,10.199999809265137,10.199999809265137,10.199999809265137,10.199999809265137,0,10.199999809265137
2018-10-10,10.199999809265137,10.199999809265137,10.199999809265137,10.199999809265137,0,10.199999809265137
2018-10-11,10.199999809265137,10.199999809265137,10.199999809265137,10.199999809265137,0,10.199999809265137
2018-10-12,10.199999809265137,10.199999809265137,10.199999809265137,10.199999809265137,0,10.199999809265137
2018-10-15,10.199999809265137,10.199999809265137,10.199999809265137,10.199999809265137,0,10.199999809265137
2018-10-16,10.199999809265137,10.199999809265137,10.199999809265137,10.199999809265137,0,10.199999809265137
2018-10-17,10.25,10.199999809265137,10.199999809265137,10.25,30300,10.25
2018-10-18,10.25,10.25,10.25,10.25,0,10.25
2018-10-19,10.229999542236328,10.229999542236328,10.229999542236328,10.229999542236328,1000,10.229999542236328
2018-10-22,10.229999542236328,10.229999542236328,10.229999542236328,10.229999542236328,0,10.229999542236328
2018-10-23,10.220000267028809,10.180000305175781,10.220000267028809,10.199999809265137,562100,10.199999809265137
2018-10-24,10.300000190734863,10.225000381469727,10.225000381469727,10.300000190734863,55000,10.300000190734863
2018-10-25,10.300000190734863,10.300000190734863,10.300000190734863,10.300000190734863,100,10.300000190734863
2018-10-26,10.300000190734863,10.300000190734863,10.300000190734863,10.300000190734863,0,10.300000190734863
2018-10-29,10.300000190734863,10.300000190734863,10.300000190734863,10.300000190734863,0,10.300000190734863
2018-10-30,10.300000190734863,10.199999809265137,10.199999809265137,10.300000190734863,2800,10.300000190734863
2018-10-31,10.300000190734863,10.300000190734863,10.300000190734863,10.300000190734863,0,10.300000190734863
2018-11-01,10.300000190734863,10.300000190734863,10.300000190734863,10.300000190734863,0,10.300000190734863
2018-11-02,10.300000190734863,10.300000190734863,10.300000190734863,10.300000190734863,0,10.300000190734863
2018-11-05,10.300000190734863,10.300000190734863,10.300000190734863,10.300000190734863,0,10.300000190734863
2018-11-06,10.300000190734863,10.199999809265137,10.199999809265137,10.300000190734863,12500,10.300000190734863
2018-11-07,10.289999961853027,10.289999961853027,10.289999961853027,10.289999961853027,400,10.289999961853027
2018-11-08,10.279999732971191,10.279999732971191,10.279999732971191,10.279999732971191,400,10.279999732971191
2018-11-09,10.279999732971191,10.279999732971191,10.279999732971191,10.279999732971191,0,10.279999732971191
2018-11-12,10.229999542236328,10.229999542236328,10.229999542236328,10.229999542236328,1000,10.229999542236328
2018-11-13,10.199999809265137,10.199999809265137,10.199999809265137,10.199999809265137,1000,10.199999809265137
2018-11-14,10.199999809265137,10.1899995803833,10.1899995803833,10.199999809265137,3900,10.199999809265137
2018-11-15,10.199999809265137,10.199999809265137,10.199999809265137,10.199999809265137,0,10.199999809265137
2018-11-16,10.199999809265137,10.199999809265137,10.199999809265137,10.199999809265137,100,10.199999809265137
2018-11-19,10.199999809265137,10.199999809265137,10.199999809265137,10.199999809265137,1000,10.199999809265137
2018-11-20,10.1899995803833,10.1899995803833,10.1899995803833,10.1899995803833,100,10.1899995803833
2018-11-21,10.157999992370605,10.149999618530273,10.149999618530273,10.149999618530273,10000,10.149999618530273
2018-11-23,10.149999618530273,10.149999618530273,10.149999618530273,10.149999618530273,0,10.149999618530273
2018-11-26,10.1899995803833,10.1899995803833,10.1899995803833,10.1899995803833,300,10.1899995803833
2018-11-27,10.149999618530273,10.100000381469727,10.149999618530273,10.109999656677246,25400,10.109999656677246
2018-11-28,10.109999656677246,10.109999656677246,10.109999656677246,10.109999656677246,0,10.109999656677246
2018-11-29,10.100000381469727,10.100000381469727,10.100000381469727,10.100000381469727,1000,10.100000381469727
2018-11-30,10.100000381469727,10.100000381469727,10.100000381469727,10.100000381469727,2100,10.100000381469727
2018-12-03,10.100000381469727,10.100000381469727,10.100000381469727,10.100000381469727,0,10.100000381469727
2018-12-04,10.199999809265137,10.1899995803833,10.1899995803833,10.199999809265137,5000,10.199999809265137
2018-12-06,10.199999809265137,10.199999809265137,10.199999809265137,10.199999809265137,0,10.199999809265137
2018-12-07,10.180000305175781,10.180000305175781,10.180000305175781,10.180000305175781,300,10.180000305175781
2018-12-10,10.180000305175781,10.180000305175781,10.180000305175781,10.180000305175781,0,10.180000305175781
2018-12-11,10.170000076293945,10.170000076293945,10.170000076293945,10.170000076293945,400,10.170000076293945
2018-12-12,10.177000045776367,10.170000076293945,10.170000076293945,10.177000045776367,400,10.177000045776367
2018-12-13,10.177000045776367,10.177000045776367,10.177000045776367,10.177000045776367,0,10.177000045776367
2018-12-14,10.177000045776367,10.177000045776367,10.177000045776367,10.177000045776367,0,10.177000045776367
2018-12-17,10.177000045776367,10.177000045776367,10.177000045776367,10.177000045776367,0,10.177000045776367
2018-12-18,10.177000045776367,10.177000045776367,10.177000045776367,10.177000045776367,0,10.177000045776367
2018-12-19,10.177000045776367,10.177000045776367,10.177000045776367,10.177000045776367,0,10.177000045776367
2018-12-20,10.177000045776367,10.177000045776367,10.177000045776367,10.177000045776367,0,10.177000045776367
2018-12-21,10.199999809265137,10.130000114440918,10.130000114440918,10.199999809265137,38200,10.199999809265137
2018-12-24,10.199999809265137,10.199999809265137,10.199999809265137,10.199999809265137,0,10.199999809265137
2018-12-26,10.199999809265137,10.050000190734863,10.050000190734863,10.100000381469727,11300,10.100000381469727
2018-12-27,10.100000381469727,10.100000381469727,10.100000381469727,10.100000381469727,0,10.100000381469727
2018-12-28,10.100000381469727,10.100000381469727,10.100000381469727,10.100000381469727,0,10.100000381469727
2018-12-31,10.130000114440918,10.130000114440918,10.130000114440918,10.130000114440918,200,10.130000114440918
2019-01-02,10.149999618530273,10.10099983215332,10.10099983215332,10.149999618530273,1100,10.149999618530273
2019-01-03,10.149999618530273,10.149999618530273,10.149999618530273,10.149999618530273,0,10.149999618530273
2019-01-04,10.149999618530273,10.100000381469727,10.149999618530273,10.109999656677246,4200,10.109999656677246
2019-01-07,10.130000114440918,10.130000114440918,10.130000114440918,10.130000114440918,25000,10.130000114440918
2019-01-08,10.130000114440918,10.130000114440918,10.130000114440918,10.130000114440918,0,10.130000114440918
2019-01-09,10.130000114440918,10.130000114440918,10.130000114440918,10.130000114440918,0,10.130000114440918
2019-01-10,10.130000114440918,10.130000114440918,10.130000114440918,10.130000114440918,0,10.130000114440918
2019-01-11,10.180000305175781,10.15999984741211,10.15999984741211,10.180000305175781,3400,10.180000305175781
2019-01-14,10.180000305175781,10.180000305175781,10.180000305175781,10.180000305175781,0,10.180000305175781
2019-01-15,10.180000305175781,10.180000305175781,10.180000305175781,10.180000305175781,0,10.180000305175781
2019-01-16,10.180000305175781,10.180000305175781,10.180000305175781,10.180000305175781,0,10.180000305175781
2019-01-17,10.180000305175781,10.180000305175781,10.180000305175781,10.180000305175781,75000,10.180000305175781
2019-01-18,10.180000305175781,10.180000305175781,10.180000305175781,10.180000305175781,0,10.180000305175781
2019-01-22,10.180000305175781,10.180000305175781,10.180000305175781,10.180000305175781,1000,10.180000305175781
2019-01-23,10.180000305175781,10.180000305175781,10.180000305175781,10.180000305175781,500,10.180000305175781
2019-01-24,10.199999809265137,10.199999809265137,10.199999809265137,10.199999809265137,8100,10.199999809265137
2019-01-25,10.199999809265137,10.199999809265137,10.199999809265137,10.199999809265137,0,10.199999809265137
2019-01-28,10.199999809265137,10.199999809265137,10.199999809265137,10.199999809265137,0,10.199999809265137
2019-01-29,10.210000038146973,10.149999618530273,10.149999618530273,10.210000038146973,100600,10.210000038146973
2019-01-30,10.210000038146973,10.210000038146973,10.210000038146973,10.210000038146973,100,10.210000038146973
2019-01-31,10.22599983215332,10.22599983215332,10.22599983215332,10.22599983215332,200,10.22599983215332
2019-02-01,10.22599983215332,10.22599983215332,10.22599983215332,10.22599983215332,0,10.22599983215332
2019-02-04,10.229999542236328,10.229999542236328,10.229999542236328,10.229999542236328,400,10.229999542236328
2019-02-05,10.229999542236328,10.229999542236328,10.229999542236328,10.229999542236328,0,10.229999542236328
2019-02-06,10.229999542236328,10.229999542236328,10.229999542236328,10.229999542236328,0,10.229999542236328
2019-02-07,10.229999542236328,10.229999542236328,10.229999542236328,10.229999542236328,0,10.229999542236328
2019-02-08,10.229999542236328,10.229999542236328,10.229999542236328,10.229999542236328,0,10.229999542236328
2019-02-11,10.229999542236328,10.229999542236328,10.229999542236328,10.229999542236328,22000,10.229999542236328
2019-02-12,10.229999542236328,10.229999542236328,10.229999542236328,10.229999542236328,0,10.229999542236328
2019-02-13,10.229999542236328,10.229999542236328,10.229999542236328,10.229999542236328,0,10.229999542236328
2019-02-14,10.25,10.25,10.25,10.25,1000,10.25
2019-02-15,10.25,10.25,10.25,10.25,0,10.25
2019-02-19,10.25,10.25,10.25,10.25,0,10.25
2019-02-20,10.239999771118164,10.199999809265137,10.239999771118164,10.229999542236328,3200,10.229999542236328
2019-02-21,10.229999542236328,10.229999542236328,10.229999542236328,10.229999542236328,0,10.229999542236328
2019-02-22,10.229999542236328,10.229999542236328,10.229999542236328,10.229999542236328,100,10.229999542236328
2019-02-25,10.229999542236328,10.229999542236328,10.229999542236328,10.229999542236328,0,10.229999542236328
2019-02-26,10.229999542236328,10.229999542236328,10.229999542236328,10.229999542236328,1900,10.229999542236328
2019-02-27,10.300000190734863,10.300000190734863,10.300000190734863,10.300000190734863,2000,10.300000190734863
2019-02-28,10.300000190734863,10.300000190734863,10.300000190734863,10.300000190734863,0,10.300000190734863
2019-03-01,10.300000190734863,10.199999809265137,10.300000190734863,10.300000190734863,23000,10.300000190734863
2019-03-04,10.300000190734863,10.300000190734863,10.300000190734863,10.300000190734863,100,10.300000190734863
2019-03-05,10.300000190734863,10.300000190734863,10.300000190734863,10.300000190734863,0,10.300000190734863
2019-03-06,10.300000190734863,10.300000190734863,10.300000190734863,10.300000190734863,0,10.300000190734863
2019-03-07,10.319999694824219,10.300000190734863,10.300000190734863,10.319999694824219,25500,10.319999694824219
2019-03-08,10.300000190734863,10.25,10.300000190734863,10.300000190734863,26200,10.300000190734863
2019-03-11,10.300000190734863,10.300000190734863,10.300000190734863,10.300000190734863,0,10.300000190734863
2019-03-12,10.300000190734863,10.300000190734863,10.300000190734863,10.300000190734863,0,10.300000190734863
2019-03-13,10.300000190734863,10.300000190734863,10.300000190734863,10.300000190734863,0,10.300000190734863
2019-03-14,10.300000190734863,10.300000190734863,10.300000190734863,10.300000190734863,0,10.300000190734863
2019-03-15,10.300000190734863,10.300000190734863,10.300000190734863,10.300000190734863,0,10.300000190734863
2019-03-18,10.300000190734863,10.300000190734863,10.300000190734863,10.300000190734863,0,10.300000190734863
2019-03-19,10.300000190734863,10.300000190734863,10.300000190734863,10.300000190734863,0,10.300000190734863
2019-03-20,10.300000190734863,10.300000190734863,10.300000190734863,10.300000190734863,0,10.300000190734863
2019-03-21,10.25,10.25,10.25,10.25,1900,10.25
2019-03-22,10.25,10.25,10.25,10.25,100,10.25
2019-03-25,10.25,10.25,10.25,10.25,1600,10.25
2019-03-26,10.25,10.25,10.25,10.25,0,10.25
2019-03-27,10.25,10.25,10.25,10.25,100,10.25
2019-03-28,10.25,10.25,10.25,10.25,1900,10.25
2019-03-29,10.25,10.25,10.25,10.25,0,10.25
2019-04-01,10.25,10.25,10.25,10.25,0,10.25
2019-04-02,10.25,10.239999771118164,10.239999771118164,10.239999771118164,25400,10.239999771118164
2019-04-03,10.25,10.25,10.25,10.25,24600,10.25
2019-04-04,10.239999771118164,10.239999771118164,10.239999771118164,10.239999771118164,100,10.239999771118164
2019-04-05,10.239999771118164,10.239999771118164,10.239999771118164,10.239999771118164,0,10.239999771118164
2019-04-08,10.239999771118164,10.239999771118164,10.239999771118164,10.239999771118164,0,10.239999771118164
2019-04-09,10.282999992370605,10.260000228881836,10.260000228881836,10.279999732971191,11300,10.279999732971191
2019-04-10,10.279999732971191,10.279999732971191,10.279999732971191,10.279999732971191,0,10.279999732971191
2019-04-11,10.300000190734863,10.25,10.279999732971191,10.300000190734863,10500,10.300000190734863
2019-04-12,10.300000190734863,10.300000190734863,10.300000190734863,10.300000190734863,0,10.300000190734863
2019-04-15,10.319999694824219,10.25,10.270000457763672,10.295000076293945,12400,10.295000076293945
2019-04-16,10.300000190734863,10.300000190734863,10.300000190734863,10.300000190734863,2000,10.300000190734863
2019-04-17,10.300000190734863,10.300000190734863,10.300000190734863,10.300000190734863,0,10.300000190734863
2019-04-18,10.300000190734863,10.295000076293945,10.295999526977539,10.300000190734863,7000,10.300000190734863
2019-04-22,10.300000190734863,10.300000190734863,10.300000190734863,10.300000190734863,2400,10.300000190734863
2019-04-23,10.300000190734863,10.295000076293945,10.295000076293945,10.300000190734863,3800,10.300000190734863
2019-04-24,10.300000190734863,10.25,10.279999732971191,10.300000190734863,60500,10.300000190734863
2019-04-25,10.300000190734863,10.300000190734863,10.300000190734863,10.300000190734863,0,10.300000190734863
2019-04-26,10.300000190734863,10.300000190734863,10.300000190734863,10.300000190734863,0,10.300000190734863
2019-04-29,10.300000190734863,10.300000190734863,10.300000190734863,10.300000190734863,1700,10.300000190734863
2019-04-30,10.300000190734863,10.300000190734863,10.300000190734863,10.300000190734863,6300,10.300000190734863
2019-05-01,10.300000190734863,10.300000190734863,10.300000190734863,10.300000190734863,0,10.300000190734863
2019-05-02,10.300000190734863,10.300000190734863,10.300000190734863,10.300000190734863,0,10.300000190734863
2019-05-03,10.319999694824219,10.279999732971191,10.279999732971191,10.279999732971191,90100,10.279999732971191
2019-05-06,10.279999732971191,10.279999732971191,10.279999732971191,10.279999732971191,0,10.279999732971191
2019-05-07,10.319999694824219,10.319999694824219,10.319999694824219,10.319999694824219,100,10.319999694824219
2019-05-08,10.319999694824219,10.319999694824219,10.319999694824219,10.319999694824219,1000,10.319999694824219
2019-05-09,10.319999694824219,10.319999694824219,10.319999694824219,10.319999694824219,0,10.319999694824219
2019-05-10,10.319999694824219,10.319999694824219,10.319999694824219,10.319999694824219,0,10.319999694824219
2019-05-13,10.319999694824219,10.319999694824219,10.319999694824219,10.319999694824219,111300,10.319999694824219
2019-05-14,10.350000381469727,10.319999694824219,10.350000381469727,10.319999694824219,111500,10.319999694824219
2019-05-15,10.319999694824219,10.319999694824219,10.319999694824219,10.319999694824219,3200,10.319999694824219
2019-05-16,10.350000381469727,10.350000381469727,10.350000381469727,10.350000381469727,6100,10.350000381469727
2019-05-17,10.359999656677246,10.359999656677246,10.359999656677246,10.359999656677246,800,10.359999656677246
2019-05-20,10.359999656677246,10.359999656677246,10.359999656677246,10.359999656677246,0,10.359999656677246
2019-05-21,10.369999885559082,10.36400032043457,10.369999885559082,10.36400032043457,2000,10.36400032043457
2019-05-22,10.36400032043457,10.36400032043457,10.36400032043457,10.36400032043457,0,10.36400032043457
2019-05-23,10.36400032043457,10.36400032043457,10.36400032043457,10.36400032043457,100,10.36400032043457
2019-05-24,10.36400032043457,10.36400032043457,10.36400032043457,10.36400032043457,0,10.36400032043457
