Date,High,Low,Open,Close,Volume,Adj Close
2015-12-03,25.68000030517578,25.56999969482422,25.68000030517578,25.65999984741211,1000.0,25.123380661010742
2015-12-04,25.540000915527344,25.450000762939453,25.510000228881836,25.540000915527344,1900.0,25.005891799926758
2015-12-07,25.540000915527344,25.540000915527344,25.540000915527344,25.540000915527344,0.0,25.005891799926758
2015-12-08,25.049999237060547,24.8799991607666,24.8799991607666,25.049999237060547,200.0,24.526134490966797
2015-12-09,25.049999237060547,25.049999237060547,25.049999237060547,25.049999237060547,0.0,24.526134490966797
2015-12-10,25.350000381469727,25.350000381469727,25.350000381469727,25.350000381469727,500.0,24.819862365722656
2015-12-11,24.959999084472656,24.959999084472656,24.959999084472656,24.959999084472656,100.0,24.438018798828125
2015-12-14,24.959999084472656,24.959999084472656,24.959999084472656,24.959999084472656,0.0,24.438018798828125
2015-12-15,24.959999084472656,24.959999084472656,24.959999084472656,24.959999084472656,0.0,24.438018798828125
2015-12-16,24.549999237060547,24.549999237060547,24.549999237060547,24.549999237060547,2500.0,24.03659439086914
2015-12-17,24.549999237060547,24.549999237060547,24.549999237060547,24.549999237060547,0.0,24.03659439086914
2015-12-18,24.549999237060547,24.549999237060547,24.549999237060547,24.549999237060547,0.0,24.03659439086914
2015-12-21,24.549999237060547,24.549999237060547,24.549999237060547,24.549999237060547,0.0,24.03659439086914
2015-12-22,24.549999237060547,24.549999237060547,24.549999237060547,24.549999237060547,0.0,24.03659439086914
2015-12-23,24.549999237060547,24.549999237060547,24.549999237060547,24.549999237060547,0.0,24.03659439086914
2015-12-24,24.5,24.5,24.5,24.5,1000.0,23.987638473510742
2015-12-28,24.5,24.5,24.5,24.5,0.0,23.987638473510742
2015-12-29,24.5,24.5,24.5,24.5,0.0,23.987638473510742
2015-12-30,24.5,24.5,24.5,24.5,0.0,23.987638473510742
2015-12-31,24.5,24.5,24.5,24.5,0.0,23.987638473510742
2016-01-04,24.5,24.5,24.5,24.5,0.0,23.987638473510742
2016-01-05,24.5,24.5,24.5,24.5,0.0,23.987638473510742
2016-01-06,24.5,24.5,24.5,24.5,0.0,23.987638473510742
2016-01-07,24.5,24.5,24.5,24.5,0.0,23.987638473510742
2016-01-08,24.5,24.5,24.5,24.5,0.0,23.987638473510742
2016-01-11,24.5,24.5,24.5,24.5,0.0,23.987638473510742
2016-01-12,24.5,24.5,24.5,24.5,0.0,23.987638473510742
2016-01-13,24.5,24.5,24.5,24.5,0.0,23.987638473510742
2016-01-14,24.5,24.5,24.5,24.5,0.0,23.987638473510742
2016-01-15,24.5,24.5,24.5,24.5,0.0,23.987638473510742
2016-01-19,24.5,24.5,24.5,24.5,0.0,23.987638473510742
2016-01-20,24.5,24.5,24.5,24.5,0.0,23.987638473510742
2016-01-21,22.1200008392334,22.0,22.1200008392334,22.0,1500.0,21.539920806884766
2016-01-22,22.290000915527344,22.290000915527344,22.290000915527344,22.290000915527344,300.0,21.823856353759766
2016-01-25,22.100000381469727,22.100000381469727,22.100000381469727,22.100000381469727,1000.0,21.637828826904297
2016-01-26,22.309999465942383,22.309999465942383,22.309999465942383,22.309999465942383,1000.0,21.84343719482422
2016-01-27,22.219999313354492,21.993999481201172,22.170000076293945,21.993999481201172,1400.0,21.534046173095703
2016-01-28,21.993999481201172,21.993999481201172,21.993999481201172,21.993999481201172,0.0,21.534046173095703
2016-01-29,21.993999481201172,21.993999481201172,21.993999481201172,21.993999481201172,0.0,21.534046173095703
2016-02-01,21.993999481201172,21.993999481201172,21.993999481201172,21.993999481201172,0.0,21.534046173095703
2016-02-02,21.993999481201172,21.993999481201172,21.993999481201172,21.993999481201172,0.0,21.534046173095703
2016-02-03,21.993999481201172,21.993999481201172,21.993999481201172,21.993999481201172,0.0,21.534046173095703
2016-02-04,23.940000534057617,23.93000030517578,23.93000030517578,23.940000534057617,300.0,23.43935203552246
2016-02-05,23.940000534057617,23.940000534057617,23.940000534057617,23.940000534057617,0.0,23.43935203552246
2016-02-08,23.940000534057617,23.940000534057617,23.940000534057617,23.940000534057617,0.0,23.43935203552246
2016-02-09,23.940000534057617,23.940000534057617,23.940000534057617,23.940000534057617,0.0,23.43935203552246
2016-02-10,23.139999389648438,23.079999923706055,23.079999923706055,23.100000381469727,800.0,22.61691665649414
2016-02-11,23.100000381469727,23.100000381469727,23.100000381469727,23.100000381469727,0.0,22.61691665649414
2016-02-12,23.100000381469727,23.100000381469727,23.100000381469727,23.100000381469727,0.0,22.61691665649414
2016-02-16,23.100000381469727,23.100000381469727,23.100000381469727,23.100000381469727,0.0,22.61691665649414
2016-02-17,23.100000381469727,23.100000381469727,23.100000381469727,23.100000381469727,0.0,22.61691665649414
2016-02-18,23.100000381469727,23.100000381469727,23.100000381469727,23.100000381469727,0.0,22.61691665649414
2016-02-19,23.100000381469727,23.100000381469727,23.100000381469727,23.100000381469727,0.0,22.61691665649414
2016-02-22,23.100000381469727,23.100000381469727,23.100000381469727,23.100000381469727,0.0,22.61691665649414
2016-02-23,23.100000381469727,23.100000381469727,23.100000381469727,23.100000381469727,0.0,22.61691665649414
2016-02-24,23.100000381469727,23.100000381469727,23.100000381469727,23.100000381469727,0.0,22.61691665649414
2016-02-25,23.100000381469727,23.100000381469727,23.100000381469727,23.100000381469727,0.0,22.61691665649414
2016-02-26,23.100000381469727,23.100000381469727,23.100000381469727,23.100000381469727,0.0,22.61691665649414
2016-02-29,24.25,24.1200008392334,24.200000762939453,24.1299991607666,4800.0,23.62537384033203
2016-03-01,24.1299991607666,24.1299991607666,24.1299991607666,24.1299991607666,0.0,23.62537384033203
2016-03-02,24.1299991607666,24.1299991607666,24.1299991607666,24.1299991607666,100.0,23.62537384033203
2016-03-03,25.700000762939453,25.360000610351562,25.360000610351562,25.700000762939453,500.0,25.162546157836914
2016-03-04,26.43000030517578,26.40999984741211,26.40999984741211,26.43000030517578,200.0,25.877277374267578
2016-03-07,26.270000457763672,26.239999771118164,26.239999771118164,26.270000457763672,700.0,25.720623016357422
2016-03-08,26.270000457763672,26.270000457763672,26.270000457763672,26.270000457763672,0.0,25.720623016357422
2016-03-09,26.420000076293945,26.420000076293945,26.420000076293945,26.420000076293945,2000.0,25.86748695373535
2016-03-10,26.899999618530273,26.530000686645508,26.530000686645508,26.899999618530273,1700.0,26.337446212768555
2016-03-11,27.31999969482422,27.18000030517578,27.18000030517578,27.31999969482422,300.0,26.74866485595703
2016-03-14,27.1299991607666,27.107999801635742,27.107999801635742,27.1299991607666,300.0,26.562639236450195
2016-03-15,26.290000915527344,26.290000915527344,26.290000915527344,26.290000915527344,400.0,25.740205764770508
2016-03-16,26.290000915527344,26.290000915527344,26.290000915527344,26.290000915527344,0.0,25.740205764770508
2016-03-17,26.290000915527344,26.290000915527344,26.290000915527344,26.290000915527344,0.0,25.740205764770508
2016-03-18,28.18000030517578,28.0,28.0,28.18000030517578,300.0,27.590681076049805
2016-03-21,28.110000610351562,28.040000915527344,28.040000915527344,28.110000610351562,400.0,27.522144317626953
2016-03-22,28.309999465942383,28.1299991607666,28.149999618530273,28.309999465942383,12400.0,27.717960357666016
2016-03-23,28.309999465942383,28.309999465942383,28.309999465942383,28.309999465942383,0.0,27.717960357666016
2016-03-24,27.170000076293945,27.055999755859375,27.055999755859375,27.170000076293945,200.0,26.601802825927734
2016-03-28,27.170000076293945,27.170000076293945,27.170000076293945,27.170000076293945,0.0,26.601802825927734
2016-03-29,28.100000381469727,28.100000381469727,28.100000381469727,28.100000381469727,100.0,27.512353897094727
2016-03-30,28.100000381469727,28.100000381469727,28.100000381469727,28.100000381469727,0.0,27.512353897094727
2016-03-31,28.100000381469727,28.100000381469727,28.100000381469727,28.100000381469727,0.0,27.512353897094727
2016-04-01,28.31599998474121,28.31599998474121,28.31599998474121,28.31599998474121,100.0,27.72383689880371
2016-04-04,28.0,27.700000762939453,28.0,27.740999221801758,900.0,27.160860061645508
2016-04-05,27.549999237060547,27.450000762939453,27.549999237060547,27.450000762939453,600.0,26.875946044921875
2016-04-06,27.450000762939453,27.450000762939453,27.450000762939453,27.450000762939453,0.0,26.875946044921875
2016-04-07,27.1299991607666,27.1299991607666,27.1299991607666,27.1299991607666,400.0,26.562639236450195
2016-04-08,27.1299991607666,27.1299991607666,27.1299991607666,27.1299991607666,0.0,26.562639236450195
2016-04-11,28.489999771118164,28.489999771118164,28.489999771118164,28.489999771118164,500.0,27.894197463989258
2016-04-12,28.540000915527344,28.469999313354492,28.5,28.540000915527344,1800.0,27.943151473999023
2016-04-13,29.170000076293945,29.170000076293945,29.170000076293945,29.170000076293945,100.0,28.559978485107422
2016-04-14,29.170000076293945,29.170000076293945,29.170000076293945,29.170000076293945,0.0,28.559978485107422
2016-04-15,29.020000457763672,28.825000762939453,28.958999633789062,28.865999221801758,4900.0,28.262332916259766
2016-04-18,28.865999221801758,28.865999221801758,28.865999221801758,28.865999221801758,0.0,28.262332916259766
2016-04-19,28.899999618530273,28.899999618530273,28.899999618530273,28.899999618530273,100.0,28.295623779296875
2016-04-20,29.0,28.899999618530273,29.0,28.899999618530273,1300.0,28.295623779296875
2016-04-21,28.899999618530273,28.899999618530273,28.899999618530273,28.899999618530273,0.0,28.295623779296875
2016-04-22,28.59000015258789,28.59000015258789,28.59000015258789,28.59000015258789,700.0,27.99210548400879
2016-04-25,28.68000030517578,28.559999465942383,28.68000030517578,28.610000610351562,1200.0,28.011688232421875
2016-04-26,29.09000015258789,28.920000076293945,28.920000076293945,29.09000015258789,300.0,28.48164939880371
2016-04-27,29.3799991607666,28.899999618530273,28.902999877929688,29.3799991607666,2600.0,28.76558494567871
2016-04-28,29.450000762939453,29.389999389648438,29.389999389648438,29.42099952697754,700.0,28.805727005004883
2016-04-29,29.979999542236328,29.590999603271484,29.67300033569336,29.979999542236328,2200.0,29.353036880493164
2016-05-02,29.829999923706055,29.260000228881836,29.81999969482422,29.260000228881836,1000.0,28.648094177246094
2016-05-03,29.260000228881836,29.260000228881836,29.260000228881836,29.260000228881836,0.0,28.648094177246094
2016-05-04,28.69300079345703,28.69099998474121,28.69300079345703,28.69099998474121,500.0,28.090993881225586
2016-05-05,29.049999237060547,28.799999237060547,29.049999237060547,28.950000762939453,900.0,28.34457778930664
2016-05-06,28.979000091552734,28.93000030517578,28.93400001525879,28.979000091552734,1400.0,28.372970581054688
2016-05-09,28.55299949645996,28.260000228881836,28.5,28.36199951171875,1200.0,27.76887321472168
2016-05-10,29.219999313354492,29.139999389648438,29.149999618530273,29.219999313354492,800.0,28.608928680419922
2016-05-11,29.360000610351562,29.18000030517578,29.360000610351562,29.18000030517578,2100.0,28.569766998291016
2016-05-12,29.799999237060547,29.309999465942383,29.510000228881836,29.799999237060547,2900.0,29.176801681518555
2016-05-13,29.399999618530273,29.200000762939453,29.399999618530273,29.290000915527344,1300.0,28.67746925354004
2016-05-16,29.31999969482422,29.219999313354492,29.31999969482422,29.309999465942383,1300.0,28.697050094604492
2016-05-17,29.040000915527344,28.850000381469727,28.940000534057617,28.850000381469727,2300.0,28.246667861938477
2016-05-18,28.65999984741211,28.31999969482422,28.31999969482422,28.6200008392334,5900.0,28.0214786529541
2016-05-19,27.990999221801758,27.834999084472656,27.983999252319336,27.840999603271484,2500.0,27.25876808166504
2016-05-20,28.280000686645508,28.15999984741211,28.170000076293945,28.260000228881836,7800.0,27.66900634765625
2016-05-23,27.920000076293945,27.780000686645508,27.829999923706055,27.780000686645508,16100.0,27.199045181274414
2016-05-24,27.739999771118164,27.559999465942383,27.6200008392334,27.649999618530273,27800.0,27.07176399230957
2016-05-25,27.829999923706055,27.290000915527344,27.670000076293945,27.290000915527344,24200.0,26.71929359436035
2016-05-26,27.290000915527344,27.290000915527344,27.290000915527344,27.290000915527344,0.0,26.71929359436035
2016-05-27,27.290000915527344,27.290000915527344,27.290000915527344,27.290000915527344,0.0,26.71929359436035
2016-05-31,27.576000213623047,27.576000213623047,27.576000213623047,27.576000213623047,500.0,26.999313354492188
2016-06-01,27.389999389648438,27.200000762939453,27.219999313354492,27.389999389648438,2300.0,26.817201614379883
2016-06-02,27.459999084472656,27.100000381469727,27.100000381469727,27.360000610351562,3900.0,26.787830352783203
2016-06-03,27.360000610351562,27.360000610351562,27.360000610351562,27.360000610351562,0.0,26.787830352783203
2016-06-06,28.139999389648438,27.84000015258789,27.84000015258789,28.09600067138672,2600.0,27.508438110351562
2016-06-07,28.329999923706055,28.15999984741211,28.15999984741211,28.297000885009766,1200.0,27.705232620239258
2016-06-08,29.149999618530273,28.812000274658203,28.969999313354492,29.1299991607666,2700.0,28.52081298828125
2016-06-09,29.010000228881836,28.829999923706055,29.010000228881836,28.850000381469727,500.0,28.246667861938477
2016-06-10,28.850000381469727,28.850000381469727,28.850000381469727,28.850000381469727,0.0,28.246667861938477
2016-06-13,27.979999542236328,27.889999389648438,27.959999084472656,27.950000762939453,3300.0,27.36549186706543
2016-06-14,27.940000534057617,27.940000534057617,27.940000534057617,27.940000534057617,200.0,27.355701446533203
2016-06-15,27.940000534057617,27.940000534057617,27.940000534057617,27.940000534057617,0.0,27.355701446533203
2016-06-16,27.84000015258789,27.31100082397461,27.530000686645508,27.84000015258789,600.0,27.257789611816406
2016-06-17,28.149999618530273,28.149999618530273,28.149999618530273,28.149999618530273,200.0,27.56130599975586
2016-06-20,28.149999618530273,28.149999618530273,28.149999618530273,28.149999618530273,0.0,27.56130599975586
2016-06-21,28.520000457763672,28.450000762939453,28.450000762939453,28.469999313354492,3500.0,27.874614715576172
2016-06-22,28.469999313354492,28.469999313354492,28.469999313354492,28.469999313354492,0.0,27.874614715576172
2016-06-23,28.469999313354492,28.469999313354492,28.469999313354492,28.469999313354492,0.0,27.874614715576172
2016-06-24,28.299999237060547,27.969999313354492,28.299999237060547,27.969999313354492,1200.0,27.38507080078125
2016-06-27,27.969999313354492,27.969999313354492,27.969999313354492,27.969999313354492,0.0,27.38507080078125
2016-06-28,28.479999542236328,28.25,28.309999465942383,28.479999542236328,1800.0,27.8844051361084
2016-06-29,28.479999542236328,28.479999542236328,28.479999542236328,28.479999542236328,0.0,27.8844051361084
2016-06-30,29.200000762939453,29.200000762939453,29.200000762939453,29.200000762939453,200.0,28.5893497467041
2016-07-01,29.764999389648438,29.56800079345703,29.764999389648438,29.56800079345703,300.0,28.94965362548828
2016-07-05,29.56800079345703,29.56800079345703,29.56800079345703,29.56800079345703,0.0,28.94965362548828
2016-07-06,29.56800079345703,29.56800079345703,29.56800079345703,29.56800079345703,0.0,28.94965362548828
2016-07-07,28.332000732421875,28.332000732421875,28.332000732421875,28.332000732421875,400.0,27.739503860473633
2016-07-08,28.332000732421875,28.332000732421875,28.332000732421875,28.332000732421875,0.0,27.739503860473633
2016-07-11,29.5,29.25200080871582,29.5,29.25200080871582,1200.0,28.6402645111084
2016-07-12,29.25200080871582,29.25200080871582,29.25200080871582,29.25200080871582,100.0,28.6402645111084
2016-07-13,29.25200080871582,29.25200080871582,29.25200080871582,29.25200080871582,100.0,28.6402645111084
2016-07-14,29.25200080871582,29.25200080871582,29.25200080871582,29.25200080871582,0.0,28.6402645111084
2016-07-15,29.25200080871582,29.25200080871582,29.25200080871582,29.25200080871582,0.0,28.6402645111084
2016-07-18,30.520000457763672,30.360000610351562,30.360000610351562,30.520000457763672,4400.0,29.881746292114258
2016-07-19,30.68000030517578,30.68000030517578,30.68000030517578,30.68000030517578,1200.0,30.03839874267578
2016-07-20,30.68000030517578,30.68000030517578,30.68000030517578,30.68000030517578,0.0,30.03839874267578
2016-07-21,31.06999969482422,31.06999969482422,31.06999969482422,31.06999969482422,1600.0,30.420242309570312
2016-07-22,31.1299991607666,31.1299991607666,31.1299991607666,31.1299991607666,200.0,30.478986740112305
2016-07-25,31.1299991607666,31.1299991607666,31.1299991607666,31.1299991607666,0.0,30.478986740112305
2016-07-26,30.979999542236328,30.84000015258789,30.979999542236328,30.90999984741211,2400.0,30.263587951660156
2016-07-27,30.700000762939453,30.639999389648438,30.700000762939453,30.639999389648438,1400.0,29.999235153198242
2016-07-28,30.639999389648438,30.59600067138672,30.639999389648438,30.59600067138672,600.0,29.95615577697754
2016-07-29,31.200000762939453,31.200000762939453,31.200000762939453,31.200000762939453,900.0,30.54752540588379
2016-08-01,31.200000762939453,31.200000762939453,31.200000762939453,31.200000762939453,0.0,30.54752540588379
2016-08-02,30.84000015258789,30.743999481201172,30.84000015258789,30.829999923706055,1400.0,30.18526268005371
2016-08-03,31.1200008392334,31.1200008392334,31.1200008392334,31.1200008392334,500.0,30.46919822692871
2016-08-04,31.354999542236328,31.354999542236328,31.354999542236328,31.354999542236328,200.0,30.699281692504883
2016-08-05,31.829999923706055,31.829999923706055,31.829999923706055,31.829999923706055,5400.0,31.164348602294922
2016-08-08,31.889999389648438,31.790000915527344,31.889999389648438,31.790000915527344,1800.0,31.125186920166016
2016-08-09,32.2400016784668,32.029998779296875,32.040000915527344,32.099998474121094,2400.0,31.428701400756836
2016-08-10,32.099998474121094,32.099998474121094,32.099998474121094,32.099998474121094,0.0,31.428701400756836
2016-08-11,32.099998474121094,32.099998474121094,32.099998474121094,32.099998474121094,0.0,31.428701400756836
2016-08-12,32.099998474121094,32.099998474121094,32.099998474121094,32.099998474121094,0.0,31.428701400756836
2016-08-15,32.099998474121094,32.08000183105469,32.099998474121094,32.08000183105469,800.0,31.409122467041016
2016-08-16,31.908000946044922,31.790000915527344,31.908000946044922,31.790000915527344,1300.0,31.125186920166016
2016-08-17,31.790000915527344,31.790000915527344,31.790000915527344,31.790000915527344,0.0,31.125186920166016
2016-08-18,31.344999313354492,31.344999313354492,31.344999313354492,31.344999313354492,100.0,30.689489364624023
2016-08-19,31.209999084472656,31.209999084472656,31.209999084472656,31.209999084472656,100.0,30.557313919067383
2016-08-22,31.209999084472656,31.209999084472656,31.209999084472656,31.209999084472656,0.0,30.557313919067383
2016-08-23,31.299999237060547,31.260000228881836,31.299999237060547,31.260000228881836,700.0,30.606271743774414
2016-08-24,31.260000228881836,31.260000228881836,31.260000228881836,31.260000228881836,0.0,30.606271743774414
2016-08-25,31.10700035095215,31.10700035095215,31.10700035095215,31.10700035095215,100.0,30.45646858215332
2016-08-26,31.10700035095215,31.10700035095215,31.10700035095215,31.10700035095215,0.0,30.45646858215332
2016-08-29,31.10700035095215,31.10700035095215,31.10700035095215,31.10700035095215,0.0,30.45646858215332
2016-08-30,31.10700035095215,31.10700035095215,31.10700035095215,31.10700035095215,0.0,30.45646858215332
2016-08-31,31.10700035095215,31.10700035095215,31.10700035095215,31.10700035095215,0.0,30.45646858215332
2016-09-01,30.510000228881836,30.510000228881836,30.510000228881836,30.510000228881836,100.0,29.8719539642334
2016-09-02,31.209999084472656,31.19499969482422,31.209999084472656,31.209999084472656,800.0,30.557313919067383
2016-09-06,31.209999084472656,31.209999084472656,31.209999084472656,31.209999084472656,0.0,30.557313919067383
2016-09-07,31.209999084472656,31.209999084472656,31.209999084472656,31.209999084472656,0.0,30.557313919067383
2016-09-08,31.389999389648438,31.389999389648438,31.389999389648438,31.389999389648438,300.0,30.733549118041992
2016-09-09,31.389999389648438,31.389999389648438,31.389999389648438,31.389999389648438,0.0,30.733549118041992
2016-09-12,30.440000534057617,30.440000534057617,30.440000534057617,30.440000534057617,500.0,29.803417205810547
2016-09-13,30.440000534057617,30.440000534057617,30.440000534057617,30.440000534057617,0.0,29.803417205810547
2016-09-14,30.440000534057617,30.440000534057617,30.440000534057617,30.440000534057617,0.0,29.803417205810547
2016-09-15,29.31999969482422,29.31999969482422,29.31999969482422,29.31999969482422,400.0,28.706838607788086
2016-09-16,29.51799964904785,29.399999618530273,29.51799964904785,29.457000732421875,1100.0,28.84097671508789
2016-09-19,29.457000732421875,29.457000732421875,29.457000732421875,29.457000732421875,0.0,28.84097671508789
2016-09-20,29.457000732421875,29.457000732421875,29.457000732421875,29.457000732421875,0.0,28.84097671508789
2016-09-21,29.457000732421875,29.457000732421875,29.457000732421875,29.457000732421875,0.0,28.84097671508789
2016-09-22,30.459999084472656,30.459999084472656,30.459999084472656,30.459999084472656,300.0,29.822999954223633
2016-09-23,30.350000381469727,30.170000076293945,30.350000381469727,30.170000076293945,800.0,29.539064407348633
2016-09-26,30.170000076293945,30.170000076293945,30.170000076293945,30.170000076293945,0.0,29.539064407348633
2016-09-27,30.170000076293945,30.170000076293945,30.170000076293945,30.170000076293945,0.0,29.539064407348633
2016-09-28,30.6200008392334,30.350000381469727,30.350000381469727,30.6200008392334,300.0,29.97965431213379
2016-09-29,30.6200008392334,30.6200008392334,30.6200008392334,30.6200008392334,0.0,29.97965431213379
2016-09-30,30.364999771118164,30.364999771118164,30.364999771118164,30.364999771118164,100.0,29.7299861907959
2016-10-03,30.8799991607666,30.850000381469727,30.850000381469727,30.8799991607666,200.0,30.234214782714844
2016-10-04,30.8799991607666,30.8799991607666,30.8799991607666,30.8799991607666,0.0,30.234214782714844
2016-10-05,30.8799991607666,30.8799991607666,30.8799991607666,30.8799991607666,0.0,30.234214782714844
2016-10-06,30.81999969482422,30.81999969482422,30.81999969482422,30.81999969482422,400.0,30.17547035217285
2016-10-07,30.7189998626709,30.7189998626709,30.7189998626709,30.7189998626709,200.0,30.076581954956055
2016-10-10,31.100000381469727,30.940000534057617,30.940000534057617,31.100000381469727,1800.0,30.449613571166992
2016-10-11,31.04800033569336,31.04800033569336,31.04800033569336,31.04800033569336,800.0,30.39870262145996
2016-10-12,30.812999725341797,30.812999725341797,30.812999725341797,30.812999725341797,200.0,30.168615341186523
2016-10-13,30.812999725341797,30.812999725341797,30.812999725341797,30.812999725341797,0.0,30.168615341186523
2016-10-14,30.812999725341797,30.812999725341797,30.812999725341797,30.812999725341797,0.0,30.168615341186523
2016-10-17,30.812999725341797,30.812999725341797,30.812999725341797,30.812999725341797,0.0,30.168615341186523
2016-10-18,31.709999084472656,31.440000534057617,31.440000534057617,31.709999084472656,2100.0,31.046857833862305
2016-10-19,32.04999923706055,31.8700008392334,31.8700008392334,32.04999923706055,1200.0,31.37974739074707
2016-10-20,32.11000061035156,32.106998443603516,32.11000061035156,32.10900115966797,2400.0,31.437515258789062
2016-10-21,32.119998931884766,32.04999923706055,32.04999923706055,32.10900115966797,800.0,31.437515258789062
2016-10-24,32.10900115966797,32.10900115966797,32.10900115966797,32.10900115966797,0.0,31.437515258789062
2016-10-25,32.5,32.439998626708984,32.439998626708984,32.5,700.0,31.820337295532227
2016-10-26,32.2400016784668,31.940000534057617,32.2400016784668,32.040000915527344,2400.0,31.369958877563477
2016-10-27,31.969999313354492,31.878000259399414,31.969999313354492,31.878000259399414,500.0,31.211345672607422
2016-10-28,31.878000259399414,31.878000259399414,31.878000259399414,31.878000259399414,0.0,31.211345672607422
2016-10-31,31.719999313354492,31.719999313354492,31.719999313354492,31.719999313354492,200.0,31.05664825439453
2016-11-01,31.719999313354492,31.719999313354492,31.719999313354492,31.719999313354492,0.0,31.05664825439453
2016-11-02,30.360000610351562,30.28700065612793,30.360000610351562,30.28700065612793,1400.0,29.653615951538086
2016-11-03,30.40999984741211,30.40999984741211,30.40999984741211,30.40999984741211,600.0,29.774045944213867
2016-11-04,30.52199935913086,30.329999923706055,30.329999923706055,30.52199935913086,400.0,29.88370132446289
2016-11-07,30.52199935913086,30.52199935913086,30.52199935913086,30.52199935913086,0.0,29.88370132446289
2016-11-08,31.597999572753906,31.31999969482422,31.31999969482422,31.597999572753906,800.0,30.93720054626465
2016-11-09,30.469999313354492,29.93600082397461,29.93600082397461,30.469999313354492,1900.0,29.832788467407227
2016-11-10,28.75,28.389999389648438,28.75,28.399999618530273,1400.0,27.80607795715332
2016-11-11,27.464000701904297,26.979999542236328,27.125,27.18000030517578,2500.0,26.61159324645996
2016-11-14,27.211999893188477,26.902000427246094,27.09000015258789,27.211999893188477,3200.0,26.642921447753906
2016-11-15,28.0,28.0,28.0,28.0,600.0,27.414443969726562
2016-11-16,28.0,28.0,28.0,28.0,0.0,27.414443969726562
2016-11-17,27.763999938964844,27.763999938964844,27.763999938964844,27.763999938964844,300.0,27.183380126953125
2016-11-18,27.440000534057617,27.440000534057617,27.440000534057617,27.440000534057617,500.0,26.86615562438965
2016-11-21,27.700000762939453,27.663000106811523,27.700000762939453,27.663000106811523,1300.0,27.084491729736328
2016-11-22,27.540000915527344,27.540000915527344,27.540000915527344,27.540000915527344,400.0,26.964065551757812
2016-11-23,27.540000915527344,27.540000915527344,27.540000915527344,27.540000915527344,0.0,26.964065551757812
2016-11-25,27.540000915527344,27.540000915527344,27.540000915527344,27.540000915527344,0.0,26.964065551757812
2016-11-28,27.472999572753906,27.472999572753906,27.472999572753906,27.472999572753906,300.0,26.898466110229492
2016-11-29,27.472999572753906,27.472999572753906,27.472999572753906,27.472999572753906,0.0,26.898466110229492
2016-11-30,27.709999084472656,27.51099967956543,27.51099967956543,27.709999084472656,500.0,27.130508422851562
2016-12-01,26.94300079345703,26.94300079345703,26.94300079345703,26.94300079345703,400.0,26.379549026489258
2016-12-02,26.94300079345703,26.94300079345703,26.94300079345703,26.94300079345703,100.0,26.379549026489258
2016-12-05,27.21299934387207,26.219999313354492,27.190000534057617,27.21299934387207,600.0,26.643903732299805
2016-12-06,27.288999557495117,27.259000778198242,27.288999557495117,27.259000778198242,800.0,26.688941955566406
2016-12-07,27.790000915527344,27.749000549316406,27.790000915527344,27.749000549316406,1200.0,27.16869354248047
2016-12-08,27.93000030517578,27.729999542236328,27.729999542236328,27.93000030517578,800.0,27.34590721130371
2016-12-09,28.007999420166016,28.0,28.0,28.007999420166016,400.0,27.422277450561523
2016-12-12,28.076000213623047,28.076000213623047,28.076000213623047,28.076000213623047,500.0,27.488853454589844
2016-12-13,28.076000213623047,28.076000213623047,28.076000213623047,28.076000213623047,0.0,27.488853454589844
2016-12-14,28.076000213623047,28.076000213623047,28.076000213623047,28.076000213623047,0.0,27.488853454589844
2016-12-15,28.076000213623047,28.076000213623047,28.076000213623047,28.076000213623047,0.0,27.488853454589844
2016-12-16,27.469999313354492,27.417999267578125,27.458999633789062,27.420000076293945,2800.0,26.846572875976562
2016-12-19,27.347999572753906,27.149999618530273,27.347999572753906,27.19099998474121,3700.0,26.622364044189453
2016-12-20,27.43000030517578,27.09000015258789,27.43000030517578,27.09000015258789,2000.0,26.523475646972656
2016-12-21,27.209999084472656,27.209999084472656,27.209999084472656,27.209999084472656,800.0,26.64096450805664
2016-12-22,27.259000778198242,27.013999938964844,27.049999237060547,27.259000778198242,600.0,26.688941955566406
2016-12-23,27.259000778198242,27.259000778198242,27.259000778198242,27.259000778198242,0.0,26.688941955566406
2016-12-27,27.259000778198242,27.259000778198242,27.259000778198242,27.259000778198242,0.0,26.688941955566406
2016-12-28,24.719999313354492,24.719999313354492,24.719999313354492,24.719999313354492,200.0,24.20303726196289
2016-12-29,24.850000381469727,24.474000930786133,24.6299991607666,24.474000930786133,11100.0,23.96218490600586
2016-12-30,24.5,24.1299991607666,24.5,24.200000762939453,5700.0,23.693912506103516
2017-01-03,24.68199920654297,24.510000228881836,24.510000228881836,24.618000030517578,1300.0,24.10317039489746
2017-01-04,25.010000228881836,24.729999542236328,24.84000015258789,24.770000457763672,4000.0,24.25199317932129
2017-01-05,25.100000381469727,24.799999237060547,25.100000381469727,24.93000030517578,1500.0,24.408645629882812
2017-01-06,25.010000228881836,24.979999542236328,25.010000228881836,24.979999542236328,1300.0,24.457599639892578
2017-01-09,24.979999542236328,24.979999542236328,24.979999542236328,24.979999542236328,0.0,24.457599639892578
2017-01-10,24.738000869750977,24.738000869750977,24.738000869750977,24.738000869750977,300.0,24.220661163330078
2017-01-11,24.59000015258789,24.554000854492188,24.579999923706055,24.59000015258789,1000.0,24.07575798034668
2017-01-12,25.009000778198242,24.530000686645508,24.530000686645508,25.009000778198242,2800.0,24.48599624633789
2017-01-13,25.139999389648438,25.030000686645508,25.033000946044922,25.10300064086914,2900.0,24.578031539916992
2017-01-17,25.270000457763672,25.200000762939453,25.219999313354492,25.200000762939453,3600.0,24.67300033569336
2017-01-18,25.1200008392334,24.600000381469727,25.100000381469727,24.899999618530273,2600.0,24.379274368286133
2017-01-19,24.889999389648438,24.530000686645508,24.530000686645508,24.709999084472656,1200.0,24.193246841430664
2017-01-20,25.200000762939453,24.979999542236328,24.979999542236328,25.18000030517578,500.0,24.653419494628906
2017-01-23,25.799999237060547,25.29400062561035,25.389999389648438,25.780000686645508,11400.0,25.24087142944336
2017-01-24,25.799999237060547,25.700000762939453,25.700000762939453,25.799999237060547,300.0,25.260452270507812
2017-01-25,26.06999969482422,25.773000717163086,25.850000381469727,26.06999969482422,1100.0,25.52480697631836
2017-01-26,25.81999969482422,25.75,25.81999969482422,25.75,900.0,25.211496353149414
2017-01-27,26.020000457763672,25.860000610351562,25.969999313354492,25.8799991607666,5000.0,25.33877944946289
2017-01-30,26.010000228881836,25.8700008392334,26.010000228881836,25.8700008392334,1000.0,25.32898712158203
2017-01-31,25.989999771118164,25.889999389648438,25.985000610351562,25.899999618530273,2600.0,25.358360290527344
2017-02-01,26.200000762939453,25.69700050354004,25.69700050354004,26.200000762939453,1700.0,25.65208625793457
2017-02-02,26.54199981689453,26.170000076293945,26.219999313354492,26.54199981689453,2600.0,25.986934661865234
2017-02-03,26.979999542236328,26.784000396728516,26.857999801635742,26.979999542236328,600.0,26.415775299072266
2017-02-06,26.979999542236328,26.600000381469727,26.979999542236328,26.889999389648438,2700.0,26.32765769958496
2017-02-07,26.829999923706055,26.43000030517578,26.770000457763672,26.829999923706055,1900.0,26.268911361694336
2017-02-08,26.8799991607666,26.79400062561035,26.79400062561035,26.8799991607666,1100.0,26.3178653717041
2017-02-09,27.14699935913086,27.110000610351562,27.110000610351562,27.14699935913086,400.0,26.579280853271484
2017-02-10,27.40999984741211,27.34000015258789,27.34000015258789,27.3799991607666,1000.0,26.807409286499023
2017-02-13,27.5,27.1200008392334,27.1200008392334,27.5,5100.0,26.924901962280273
2017-02-14,27.530000686645508,27.200000762939453,27.459999084472656,27.530000686645508,1600.0,26.954275131225586
2017-02-15,27.75,27.590999603271484,27.6200008392334,27.75,1200.0,27.1696720123291
2017-02-16,27.565000534057617,27.565000534057617,27.565000534057617,27.565000534057617,200.0,26.988542556762695
2017-02-17,27.3700008392334,27.3700008392334,27.3700008392334,27.3700008392334,100.0,26.797618865966797
2017-02-21,28.059999465942383,27.350000381469727,27.350000381469727,28.059999465942383,800.0,27.473190307617188
2017-02-22,28.110000610351562,27.927000045776367,28.110000610351562,27.940000534057617,1300.0,27.355701446533203
2017-02-23,28.190000534057617,27.719999313354492,27.719999313354492,27.989999771118164,1900.0,27.404653549194336
2017-02-24,27.989999771118164,27.989999771118164,27.989999771118164,27.989999771118164,0.0,27.404653549194336
2017-02-27,27.829999923706055,27.739999771118164,27.829999923706055,27.75,2000.0,27.1696720123291
2017-02-28,27.59000015258789,27.5,27.59000015258789,27.5,800.0,26.924901962280273
2017-03-01,28.035999298095703,27.459999084472656,27.770000457763672,27.90999984741211,2600.0,27.326326370239258
2017-03-02,27.90999984741211,27.90999984741211,27.90999984741211,27.90999984741211,0.0,27.326326370239258
2017-03-03,27.878999710083008,27.722999572753906,27.850000381469727,27.76099967956543,2300.0,27.180442810058594
2017-03-06,28.110000610351562,27.739999771118164,28.06999969482422,27.739999771118164,2500.0,27.159881591796875
2017-03-07,28.190000534057617,27.760000228881836,27.760000228881836,28.08300018310547,600.0,27.495708465576172
2017-03-08,27.90999984741211,27.90999984741211,27.90999984741211,27.90999984741211,300.0,27.326326370239258
2017-03-09,27.08300018310547,27.08300018310547,27.08300018310547,27.08300018310547,1000.0,26.516620635986328
2017-03-10,27.899999618530273,27.799999237060547,27.799999237060547,27.899999618530273,1300.0,27.3165340423584
2017-03-13,27.899999618530273,27.82699966430664,27.899999618530273,27.82699966430664,400.0,27.24506187438965
2017-03-14,27.760000228881836,27.65999984741211,27.65999984741211,27.760000228881836,400.0,27.17946434020996
2017-03-15,28.219999313354492,27.700000762939453,27.700000762939453,28.219999313354492,600.0,27.62984275817871
2017-03-16,28.469999313354492,28.385000228881836,28.385000228881836,28.469999313354492,600.0,27.874614715576172
2017-03-17,28.39900016784668,28.343000411987305,28.343000411987305,28.398000717163086,5800.0,27.804121017456055
2017-03-20,28.719999313354492,28.514999389648438,28.639999389648438,28.677000045776367,2700.0,28.077287673950195
2017-03-21,28.600000381469727,27.958999633789062,28.600000381469727,28.327999114990234,1200.0,27.73558235168457
2017-03-22,28.139999389648438,27.760000228881836,28.139999389648438,27.760000228881836,3300.0,27.17946434020996
2017-03-23,27.760000228881836,27.760000228881836,27.760000228881836,27.760000228881836,0.0,27.17946434020996
2017-03-24,27.760000228881836,27.760000228881836,27.760000228881836,27.760000228881836,0.0,27.17946434020996
2017-03-27,28.358999252319336,28.239999771118164,28.239999771118164,28.29599952697754,3000.0,27.704254150390625
2017-03-28,28.440000534057617,28.315000534057617,28.354999542236328,28.378999710083008,2800.0,27.785518646240234
2017-03-29,28.25,28.25,28.25,28.25,200.0,27.659215927124023
2017-03-30,28.5,28.5,28.5,28.5,300.0,27.903987884521484
2017-03-31,28.639999389648438,28.639999389648438,28.639999389648438,28.639999389648438,1300.0,28.041059494018555
2017-04-03,29.0,28.969999313354492,28.969999313354492,29.0,3000.0,28.393531799316406
2017-04-04,29.0,28.865999221801758,29.0,29.0,1200.0,28.393531799316406
2017-04-05,29.450000762939453,29.14699935913086,29.301000595092773,29.224000930786133,2600.0,28.61284828186035
2017-04-06,29.152999877929688,29.152999877929688,29.152999877929688,29.152999877929688,300.0,28.543331146240234
2017-04-07,29.152999877929688,29.152999877929688,29.152999877929688,29.152999877929688,0.0,28.543331146240234
2017-04-10,29.253000259399414,29.253000259399414,29.253000259399414,29.253000259399414,700.0,28.6412410736084
2017-04-11,29.360000610351562,29.299999237060547,29.299999237060547,29.350000381469727,800.0,28.73621368408203
2017-04-12,29.420000076293945,29.100000381469727,29.420000076293945,29.100000381469727,5700.0,28.49144172668457
2017-04-13,29.049999237060547,29.049999237060547,29.049999237060547,29.049999237060547,400.0,28.442485809326172
2017-04-17,29.739999771118164,28.709999084472656,28.709999084472656,29.555999755859375,1500.0,28.937902450561523
2017-04-18,29.719999313354492,29.589000701904297,29.719999313354492,29.589000701904297,1900.0,28.97021484375
2017-04-19,29.540000915527344,29.350000381469727,29.540000915527344,29.350000381469727,2100.0,28.73621368408203
2017-04-20,29.22599983215332,29.22599983215332,29.22599983215332,29.22599983215332,300.0,28.614803314208984
2017-04-21,29.1560001373291,29.110000610351562,29.1560001373291,29.110000610351562,300.0,28.501230239868164
2017-04-24,29.959999084472656,29.610000610351562,29.959999084472656,29.610000610351562,400.0,28.99077606201172
2017-04-25,29.700000762939453,29.32200050354004,29.520000457763672,29.700000762939453,1700.0,29.078893661499023
2017-04-26,29.25,29.167999267578125,29.167999267578125,29.25,500.0,28.638303756713867
2017-04-27,29.28499984741211,29.25,29.28499984741211,29.25,400.0,28.638303756713867
2017-04-28,29.280000686645508,29.25,29.280000686645508,29.25,200.0,28.638303756713867
2017-05-01,29.6299991607666,29.5049991607666,29.6299991607666,29.5049991607666,1400.0,28.887969970703125
2017-05-02,30.09000015258789,30.09000015258789,30.09000015258789,30.09000015258789,200.0,29.460737228393555
2017-05-03,30.100000381469727,29.850000381469727,30.100000381469727,29.850000381469727,800.0,29.22575569152832
2017-05-04,29.670000076293945,29.600000381469727,29.635000228881836,29.613000869750977,1500.0,28.99371337890625
2017-05-05,29.56399917602539,29.56399917602539,29.56399917602539,29.56399917602539,400.0,28.945737838745117
2017-05-08,29.639999389648438,29.59600067138672,29.639999389648438,29.59600067138672,2000.0,28.977067947387695
2017-05-09,30.059999465942383,30.059999465942383,30.059999465942383,30.059999465942383,200.0,29.431364059448242
2017-05-10,30.450000762939453,30.32200050354004,30.389999389648438,30.450000762939453,3300.0,29.813209533691406
2017-05-11,30.540000915527344,30.540000915527344,30.540000915527344,30.540000915527344,600.0,29.90132713317871
2017-05-12,30.739999771118164,30.700000762939453,30.700000762939453,30.715999603271484,1100.0,30.073646545410156
2017-05-15,31.15999984741211,30.89299964904785,31.15999984741211,30.979999542236328,500.0,30.332122802734375
2017-05-16,31.108999252319336,31.00200080871582,31.108999252319336,31.09000015258789,2300.0,30.4398250579834
2017-05-17,30.8700008392334,30.520999908447266,30.520999908447266,30.8700008392334,300.0,30.22442626953125
2017-05-18,28.8799991607666,27.709999084472656,28.299999237060547,28.766000747680664,8700.0,28.164426803588867
2017-05-19,29.440000534057617,29.219999313354492,29.219999313354492,29.440000534057617,800.0,28.824329376220703
2017-05-22,29.051000595092773,28.75,29.051000595092773,29.006999969482422,1000.0,28.400386810302734
2017-05-23,29.009000778198242,29.009000778198242,29.009000778198242,29.009000778198242,200.0,28.40234375
2017-05-24,29.790000915527344,29.079999923706055,29.079999923706055,29.790000915527344,2200.0,29.167011260986328
2017-05-25,29.878999710083008,29.5,29.878999710083008,29.5,1000.0,28.883075714111328
2017-05-26,29.81999969482422,29.676000595092773,29.81999969482422,29.676000595092773,400.0,29.05539321899414
2017-05-30,29.829999923706055,29.040000915527344,29.829999923706055,29.290000915527344,800.0,28.67746925354004
2017-05-31,29.309999465942383,29.299999237060547,29.309999465942383,29.30900001525879,600.0,28.696069717407227
2017-06-01,29.5,29.10099983215332,29.5,29.43000030517578,1100.0,28.81454086303711
2017-06-02,29.434999465942383,29.360000610351562,29.434999465942383,29.360000610351562,600.0,28.746004104614258
2017-06-05,29.700000762939453,29.138999938964844,29.700000762939453,29.399999618530273,1900.0,28.785165786743164
2017-06-06,29.68000030517578,29.639999389648438,29.639999389648438,29.68000030517578,600.0,29.05931282043457
2017-06-07,29.790000915527344,29.53499984741211,29.790000915527344,29.75,1000.0,29.12784767150879
2017-06-08,29.75,29.75,29.75,29.75,0.0,29.12784767150879
2017-06-09,29.780000686645508,29.350000381469727,29.709999084472656,29.770000457763672,6900.0,29.147428512573242
2017-06-12,29.770000457763672,29.770000457763672,29.770000457763672,29.770000457763672,0.0,29.147428512573242
2017-06-13,29.770000457763672,29.770000457763672,29.770000457763672,29.770000457763672,0.0,29.147428512573242
2017-06-14,29.700000762939453,29.579999923706055,29.579999923706055,29.700000762939453,500.0,29.078893661499023
2017-06-15,29.700000762939453,29.700000762939453,29.700000762939453,29.700000762939453,0.0,29.078893661499023
2017-06-16,30.0,30.0,30.0,30.0,100.0,29.372617721557617
2017-06-19,30.010000228881836,30.010000228881836,30.010000228881836,30.010000228881836,800.0,29.38241195678711
2017-06-20,29.69300079345703,29.69300079345703,29.69300079345703,29.69300079345703,400.0,29.072040557861328
2017-06-21,29.290000915527344,29.290000915527344,29.290000915527344,29.290000915527344,300.0,28.67746925354004
2017-06-22,29.31999969482422,28.75,28.75,29.25,500.0,28.638303756713867
2017-06-23,29.327999114990234,28.770000457763672,29.229999542236328,29.26099967956543,11300.0,28.64907455444336
2017-06-26,29.649999618530273,29.649999618530273,29.649999618530273,29.649999618530273,100.0,29.029937744140625
2017-06-27,29.649999618530273,29.649999618530273,29.649999618530273,29.649999618530273,0.0,29.029937744140625
2017-06-28,29.649999618530273,29.649999618530273,29.649999618530273,29.649999618530273,0.0,29.029937744140625
2017-06-29,29.649999618530273,29.649999618530273,29.649999618530273,29.649999618530273,0.0,29.029937744140625
2017-06-30,29.639999389648438,29.18600082397461,29.549999237060547,29.639999389648438,400.0,29.02014923095703
2017-07-03,29.516000747680664,29.516000747680664,29.516000747680664,29.516000747680664,300.0,28.898740768432617
2017-07-05,29.516000747680664,29.516000747680664,29.516000747680664,29.516000747680664,0.0,28.898740768432617
2017-07-06,29.516000747680664,29.516000747680664,29.516000747680664,29.516000747680664,0.0,28.898740768432617
2017-07-07,29.1299991607666,29.1299991607666,29.1299991607666,29.1299991607666,300.0,28.52081298828125
2017-07-10,29.5,29.149999618530273,29.149999618530273,29.5,1000.0,28.883075714111328
2017-07-11,30.059999465942383,29.674999237060547,30.059999465942383,29.674999237060547,1600.0,29.054414749145508
2017-07-12,30.395000457763672,30.1200008392334,30.1200008392334,30.395000457763672,300.0,29.75935935974121
2017-07-13,30.260000228881836,30.15999984741211,30.15999984741211,30.260000228881836,900.0,29.627180099487305
2017-07-14,30.590999603271484,30.590999603271484,30.590999603271484,30.590999603271484,200.0,29.95125961303711
2017-07-17,31.118999481201172,31.059999465942383,31.059999465942383,31.118999481201172,200.0,30.468215942382812
2017-07-18,31.190000534057617,31.100000381469727,31.190000534057617,31.115999221801758,600.0,30.46527862548828
2017-07-19,31.115999221801758,31.115999221801758,31.115999221801758,31.115999221801758,0.0,30.46527862548828
2017-07-20,31.270000457763672,31.270000457763672,31.270000457763672,31.270000457763672,900.0,30.655467987060547
2017-07-21,31.270000457763672,31.270000457763672,31.270000457763672,31.270000457763672,0.0,30.655467987060547
2017-07-24,31.270000457763672,30.950000762939453,31.270000457763672,31.25,3800.0,30.635860443115234
2017-07-25,31.249000549316406,31.07900047302246,31.249000549316406,31.07900047302246,1100.0,30.46822166442871
2017-07-26,31.329999923706055,30.610000610351562,30.649999618530273,31.329999923706055,1600.0,30.71428871154785
2017-07-27,31.329999923706055,31.329999923706055,31.329999923706055,31.329999923706055,0.0,30.71428871154785
2017-07-28,31.329999923706055,31.329999923706055,31.329999923706055,31.329999923706055,0.0,30.71428871154785
2017-07-31,31.329999923706055,31.329999923706055,31.329999923706055,31.329999923706055,100.0,30.71428871154785
2017-08-01,31.329999923706055,31.329999923706055,31.329999923706055,31.329999923706055,400.0,30.71428871154785
2017-08-02,31.16900062561035,31.0,31.010000228881836,31.12700080871582,1500.0,30.51527976989746
2017-08-03,31.16900062561035,31.16699981689453,31.16699981689453,31.16900062561035,300.0,30.55645179748535
2017-08-04,31.170000076293945,31.0,31.170000076293945,31.0,2800.0,30.39077377319336
2017-08-07,31.100000381469727,31.100000381469727,31.100000381469727,31.100000381469727,100.0,30.488807678222656
2017-08-08,31.329999923706055,31.190000534057617,31.329999923706055,31.190000534057617,5000.0,30.577041625976562
2017-08-09,31.190000534057617,31.190000534057617,31.190000534057617,31.190000534057617,0.0,30.577041625976562
2017-08-10,31.0,30.540000915527344,31.0,30.93000030517578,6300.0,30.32215118408203
2017-08-11,30.93000030517578,30.93000030517578,30.93000030517578,30.93000030517578,0.0,30.32215118408203
2017-08-14,31.329999923706055,31.2450008392334,31.329999923706055,31.2450008392334,500.0,30.630958557128906
2017-08-15,30.850000381469727,30.770000457763672,30.770999908447266,30.850000381469727,8000.0,30.24372100830078
2017-08-16,31.09000015258789,31.0,31.049999237060547,31.048999786376953,7000.0,30.438810348510742
2017-08-17,31.040000915527344,30.715999603271484,31.014999389648438,30.84000015258789,2600.0,30.233917236328125
2017-08-18,31.110000610351562,30.584999084472656,30.600000381469727,31.110000610351562,3200.0,30.498613357543945
2017-08-21,31.110000610351562,31.110000610351562,31.110000610351562,31.110000610351562,0.0,30.498613357543945
2017-08-22,31.420000076293945,31.011999130249023,31.030000686645508,31.200000762939453,600.0,30.63608169555664
2017-08-23,31.163000106811523,30.989999771118164,30.989999771118164,31.163000106811523,300.0,30.599750518798828
2017-08-24,31.163000106811523,31.163000106811523,31.163000106811523,31.163000106811523,0.0,30.599750518798828
2017-08-25,31.18400001525879,31.100000381469727,31.17300033569336,31.100000381469727,1700.0,30.53788948059082
2017-08-28,31.29800033569336,31.229000091552734,31.229000091552734,31.29800033569336,300.0,30.732309341430664
2017-08-29,31.29800033569336,31.29800033569336,31.29800033569336,31.29800033569336,0.0,30.732309341430664
2017-08-30,31.350000381469727,31.166000366210938,31.350000381469727,31.166000366210938,400.0,30.60269546508789
2017-08-31,31.166000366210938,31.166000366210938,31.166000366210938,31.166000366210938,0.0,30.60269546508789
2017-09-01,31.639999389648438,31.339000701904297,31.639999389648438,31.420000076293945,2400.0,30.85210418701172
2017-09-05,31.899999618530273,31.600000381469727,31.899999618530273,31.7189998626709,1100.0,31.145700454711914
2017-09-06,32.029998779296875,31.799999237060547,32.029998779296875,31.878000259399414,600.0,31.30182647705078
2017-09-07,32.43000030517578,32.060001373291016,32.43000030517578,32.060001373291016,1800.0,31.48053741455078
2017-09-08,32.19900131225586,32.0880012512207,32.189998626708984,32.0880012512207,1700.0,31.508031845092773
2017-09-11,32.560001373291016,32.15399932861328,32.560001373291016,32.15399932861328,53700.0,31.572837829589844
2017-09-12,32.400001525878906,32.220001220703125,32.400001525878906,32.22999954223633,2900.0,31.647462844848633
2017-09-13,32.099998474121094,31.920000076293945,32.06999969482422,32.0,3200.0,31.421621322631836
2017-09-14,32.099998474121094,31.8799991607666,31.8799991607666,32.099998474121094,3100.0,31.519811630249023
2017-09-15,32.54100036621094,32.08000183105469,32.16999816894531,32.54100036621094,2900.0,31.952842712402344
2017-09-18,32.678001403808594,32.59000015258789,32.59000015258789,32.63999938964844,1500.0,32.050052642822266
2017-09-19,32.2400016784668,32.2400016784668,32.2400016784668,32.2400016784668,200.0,31.657285690307617
2017-09-20,32.689998626708984,32.25,32.25,32.56999969482422,1000.0,31.981319427490234
2017-09-21,32.459999084472656,32.33000183105469,32.33000183105469,32.36000061035156,700.0,31.775115966796875
2017-09-22,32.5,32.0,32.0,32.41999816894531,600.0,31.834028244018555
2017-09-25,32.0,31.7549991607666,32.0,32.0,1200.0,31.421621322631836
2017-09-26,32.0,32.0,32.0,32.0,900.0,31.421621322631836
2017-09-27,31.700000762939453,31.0,31.700000762939453,31.3799991607666,800.0,30.81282615661621
2017-09-28,31.3799991607666,31.3799991607666,31.3799991607666,31.3799991607666,0.0,30.81282615661621
2017-09-29,31.690000534057617,31.690000534057617,31.690000534057617,31.690000534057617,200.0,31.117225646972656
2017-10-02,31.690000534057617,31.690000534057617,31.690000534057617,31.690000534057617,0.0,31.117225646972656
2017-10-03,32.029998779296875,31.76300048828125,31.76300048828125,32.029998779296875,800.0,31.451078414916992
2017-10-04,32.20000076293945,32.20000076293945,32.20000076293945,32.20000076293945,100.0,31.61800765991211
2017-10-05,32.19499969482422,32.04999923706055,32.04999923706055,32.19499969482422,1500.0,31.613096237182617
2017-10-06,32.19499969482422,32.19499969482422,32.19499969482422,32.19499969482422,0.0,31.613096237182617
2017-10-09,31.780000686645508,31.1200008392334,31.780000686645508,31.229999542236328,7500.0,30.665538787841797
2017-10-10,31.530000686645508,31.010000228881836,31.420000076293945,31.020000457763672,1500.0,30.459335327148438
2017-10-11,30.969999313354492,30.969999313354492,30.969999313354492,30.969999313354492,300.0,30.410236358642578
2017-10-12,30.969999313354492,30.969999313354492,30.969999313354492,30.969999313354492,0.0,30.410236358642578
2017-10-13,31.1200008392334,31.1200008392334,31.1200008392334,31.1200008392334,400.0,30.557527542114258
2017-10-16,31.1200008392334,31.1200008392334,31.1200008392334,31.1200008392334,0.0,30.557527542114258
2017-10-17,31.149999618530273,30.920000076293945,31.149999618530273,30.920000076293945,5900.0,30.361141204833984
2017-10-18,31.263999938964844,31.263999938964844,31.263999938964844,31.263999938964844,800.0,30.698923110961914
2017-10-19,31.270000457763672,31.023000717163086,31.170000076293945,31.023000717163086,1200.0,30.4622802734375
2017-10-20,31.100000381469727,31.100000381469727,31.100000381469727,31.100000381469727,300.0,30.53788948059082
2017-10-23,30.920000076293945,30.350000381469727,30.822999954223633,30.350000381469727,5400.0,29.80144500732422
2017-10-24,30.426000595092773,30.15999984741211,30.426000595092773,30.15999984741211,3000.0,29.614877700805664
2017-10-25,30.420000076293945,30.111000061035156,30.420000076293945,30.219999313354492,2900.0,29.67379379272461
2017-10-26,30.54800033569336,30.450000762939453,30.54800033569336,30.450000762939453,300.0,29.89963722229004
2017-10-27,30.450000762939453,30.450000762939453,30.450000762939453,30.450000762939453,0.0,29.89963722229004
2017-10-30,29.8799991607666,29.739999771118164,29.8799991607666,29.739999771118164,2900.0,29.202468872070312
2017-10-31,29.739999771118164,29.739999771118164,29.739999771118164,29.739999771118164,0.0,29.202468872070312
2017-11-01,30.035999298095703,30.035999298095703,30.035999298095703,30.035999298095703,300.0,29.493118286132812
2017-11-02,30.360000610351562,30.219999313354492,30.360000610351562,30.219999313354492,400.0,29.67379379272461
2017-11-03,30.219999313354492,30.219999313354492,30.219999313354492,30.219999313354492,0.0,29.67379379272461
2017-11-06,30.219999313354492,30.219999313354492,30.219999313354492,30.219999313354492,0.0,29.67379379272461
2017-11-07,30.097999572753906,30.097999572753906,30.097999572753906,30.097999572753906,500.0,29.553998947143555
2017-11-08,30.200000762939453,29.989999771118164,30.09000015258789,30.200000762939453,3100.0,29.654155731201172
2017-11-09,30.208999633789062,30.013999938964844,30.208999633789062,30.020000457763672,1700.0,29.47740936279297
2017-11-10,29.850000381469727,29.709999084472656,29.709999084472656,29.75,2600.0,29.21228790283203
2017-11-13,29.690000534057617,29.209999084472656,29.690000534057617,29.496000289916992,4700.0,28.962879180908203
2017-11-14,29.649999618530273,29.089000701904297,29.649999618530273,29.149999618530273,4000.0,28.623132705688477
2017-11-15,29.099000930786133,28.600000381469727,29.040000915527344,28.97800064086914,3200.0,28.454242706298828
2017-11-16,29.52199935913086,29.139999389648438,29.149999618530273,29.43000030517578,12900.0,28.898073196411133
2017-11-17,29.889999389648438,29.6299991607666,29.889999389648438,29.76099967956543,5000.0,29.22308921813965
2017-11-20,29.979999542236328,29.531999588012695,29.979999542236328,29.600000381469727,8400.0,29.065000534057617
2017-11-21,29.701000213623047,29.440000534057617,29.5,29.540000915527344,5300.0,29.540000915527344
2017-11-22,29.639999389648438,29.22599983215332,29.639999389648438,29.548999786376953,5000.0,29.548999786376953
2017-11-24,29.8799991607666,29.649999618530273,29.8799991607666,29.73200035095215,4600.0,29.73200035095215
2017-11-27,29.760000228881836,29.700000762939453,29.700000762939453,29.729999542236328,10300.0,29.729999542236328
2017-11-28,30.07900047302246,29.534000396728516,29.81999969482422,29.940000534057617,14800.0,29.940000534057617
2017-11-29,30.110000610351562,29.760000228881836,30.110000610351562,29.760000228881836,6800.0,29.760000228881836
2017-11-30,29.709999084472656,29.350000381469727,29.709999084472656,29.350000381469727,2600.0,29.350000381469727
2017-12-01,29.549999237060547,29.25,29.260000228881836,29.520000457763672,5700.0,29.520000457763672
2017-12-04,29.75,29.445999145507812,29.75,29.604000091552734,15100.0,29.604000091552734
2017-12-05,29.829999923706055,29.530000686645508,29.829999923706055,29.549999237060547,10800.0,29.549999237060547
2017-12-06,29.510000228881836,29.187999725341797,29.209999084472656,29.329999923706055,7400.0,29.329999923706055
2017-12-07,29.200000762939453,28.983999252319336,29.139999389648438,29.132999420166016,7600.0,29.132999420166016
2017-12-08,29.469999313354492,29.09000015258789,29.469999313354492,29.094999313354492,5500.0,29.094999313354492
2017-12-11,29.350000381469727,29.100000381469727,29.350000381469727,29.118000030517578,13000.0,29.118000030517578
2017-12-12,29.28499984741211,28.649999618530273,29.110000610351562,29.28499984741211,11400.0,29.28499984741211
2017-12-13,29.549999237060547,29.135000228881836,29.549999237060547,29.139999389648438,7000.0,29.139999389648438
2017-12-14,29.25,28.944000244140625,29.25,29.030000686645508,4700.0,29.030000686645508
2017-12-15,29.229999542236328,28.96500015258789,29.229999542236328,29.135000228881836,12700.0,29.135000228881836
2017-12-18,29.899999618530273,29.625,29.739999771118164,29.739999771118164,19300.0,29.739999771118164
2017-12-19,29.799999237060547,29.25,29.799999237060547,29.375,9800.0,29.375
2017-12-20,29.420000076293945,29.15999984741211,29.420000076293945,29.200000762939453,10700.0,29.200000762939453
2017-12-21,29.25,29.049999237060547,29.25,29.15999984741211,23600.0,29.15999984741211
2017-12-22,29.274999618530273,29.0,29.229999542236328,29.243000030517578,24300.0,29.243000030517578
2017-12-22,29.274999618530273,29.0,29.229999542236328,29.24340057373047,24271.0,29.24340057373047
