Date,High,Low,Open,Close,Volume,Adj Close
2016-09-28,34.0,34.0,34.0,34.0,100.0,26.907426834106445
2016-09-29,34.0,34.0,34.0,34.0,28900.0,26.907426834106445
2016-09-30,37.400001525878906,32.900001525878906,33.04999923706055,37.400001525878906,37200.0,29.59817123413086
2016-10-03,36.88999938964844,26.510000228881836,36.79999923706055,28.610000610351562,2236700.0,22.64180564880371
2016-10-04,30.700000762939453,28.1299991607666,28.299999237060547,28.760000228881836,1783300.0,22.760515213012695
2016-10-05,28.520000457763672,26.56999969482422,28.3700008392334,27.079999923706055,894300.0,21.43096923828125
2016-10-06,27.739999771118164,26.010000228881836,26.739999771118164,26.889999389648438,1268900.0,21.280607223510742
2016-10-07,26.799999237060547,23.940000534057617,26.700000762939453,24.0,1101300.0,18.99347686767578
2016-10-10,25.309999465942383,23.68000030517578,23.68000030517578,24.549999237060547,727200.0,19.42874526977539
2016-10-11,25.239999771118164,23.739999771118164,24.350000381469727,24.8700008392334,1827300.0,19.681987762451172
2016-10-12,25.68000030517578,23.84000015258789,25.0,24.110000610351562,1257800.0,19.080530166625977
2016-10-13,24.239999771118164,23.3799991607666,23.639999389648438,23.700000762939453,871800.0,18.756057739257812
2016-10-14,23.93000030517578,23.350000381469727,23.700000762939453,23.850000381469727,412300.0,18.874767303466797
2016-10-17,24.979999542236328,23.510000228881836,23.75,24.719999313354492,626600.0,19.56328010559082
2016-10-18,26.094999313354492,24.350000381469727,24.75,25.770000457763672,451600.0,20.394241333007812
2016-10-19,26.260000228881836,24.760000228881836,25.360000610351562,24.8700008392334,432200.0,19.681987762451172
2016-10-20,24.790000915527344,23.829999923706055,24.299999237060547,24.190000534057617,396500.0,19.143842697143555
2016-10-21,24.799999237060547,23.8799991607666,24.25,24.75,239500.0,19.58702278137207
2016-10-24,25.0,24.110000610351562,24.549999237060547,24.90999984741211,166800.0,19.71364402770996
2016-10-25,25.360000610351562,24.59000015258789,24.649999618530273,24.8799991607666,486200.0,19.689905166625977
2016-10-26,26.1200008392334,24.65999984741211,24.65999984741211,25.81999969482422,434200.0,20.43381118774414
2016-10-27,25.989999771118164,24.719999313354492,25.700000762939453,25.100000381469727,541800.0,19.8640079498291
2016-10-28,25.739999771118164,24.381000518798828,24.8700008392334,25.200000762939453,767000.0,19.943151473999023
2016-10-31,25.100000381469727,24.170000076293945,25.010000228881836,24.239999771118164,328500.0,19.18341064453125
2016-11-01,24.6299991607666,23.930999755859375,24.1200008392334,24.079999923706055,292800.0,19.056787490844727
2016-11-02,24.079999923706055,23.399999618530273,23.8799991607666,23.690000534057617,255400.0,18.748140335083008
2016-11-03,23.75,23.139999389648438,23.489999771118164,23.219999313354492,269300.0,18.37618637084961
2016-11-04,24.0,22.829999923706055,23.040000915527344,23.719999313354492,470200.0,18.771886825561523
2016-11-07,24.110000610351562,22.90999984741211,23.760000228881836,23.15999984741211,251600.0,18.328702926635742
2016-11-08,23.299999237060547,22.299999237060547,22.899999618530273,23.010000228881836,306200.0,18.209991455078125
2016-11-09,23.0,21.760000228881836,22.600000381469727,22.420000076293945,360000.0,17.74307632446289
2016-11-10,22.75,18.700000762939453,22.350000381469727,19.1299991607666,1346600.0,15.139382362365723
2016-11-11,19.229999542236328,17.579999923706055,19.100000381469727,17.700000762939453,967100.0,14.007688522338867
2016-11-14,17.979999542236328,17.0,17.540000915527344,17.549999237060547,438500.0,14.087961196899414
2016-11-15,19.24799919128418,17.200000762939453,17.329999923706055,19.200000762939453,539200.0,15.412470817565918
2016-11-16,19.75,18.780000686645508,19.139999389648438,19.649999618530273,263600.0,15.773699760437012
2016-11-17,21.520000457763672,19.43000030517578,19.649999618530273,20.829999923706055,523500.0,16.720922470092773
2016-11-18,21.06999969482422,20.18000030517578,21.0,20.700000762939453,272700.0,16.6165714263916
2016-11-21,21.100000381469727,20.68400001525879,20.790000915527344,20.920000076293945,361200.0,16.79317283630371
2016-11-22,21.239999771118164,20.760000228881836,20.959999084472656,21.040000915527344,262200.0,16.889501571655273
2016-11-23,21.540000915527344,20.799999237060547,20.889999389648438,21.18000030517578,384200.0,17.001880645751953
2016-11-25,21.885000228881836,20.979999542236328,21.229999542236328,21.389999389648438,155900.0,17.170454025268555
2016-11-28,21.559999465942383,19.780000686645508,21.290000915527344,20.020000457763672,317200.0,16.07071304321289
2016-11-29,20.690000534057617,19.8799991607666,20.010000228881836,20.479999542236328,550100.0,16.439970016479492
2016-11-30,21.437999725341797,20.239999771118164,20.510000228881836,20.639999389648438,262900.0,16.568405151367188
2016-12-01,20.950000762939453,20.1299991607666,20.540000915527344,20.719999313354492,600900.0,16.63262367248535
2016-12-02,21.1299991607666,20.309999465942383,20.6200008392334,20.450000762939453,352200.0,16.41588592529297
2016-12-05,22.059999465942383,20.391000747680664,20.450000762939453,21.649999618530273,256000.0,17.37916374206543
2016-12-06,23.799999237060547,21.611000061035156,21.75,22.65999984741211,477200.0,18.189926147460938
2016-12-07,24.649999618530273,22.5,22.65999984741211,24.059999465942383,438900.0,19.313749313354492
2016-12-08,25.139999389648438,23.927000045776367,24.010000228881836,24.670000076293945,359500.0,19.80341911315918
2016-12-09,24.979999542236328,24.639999389648438,24.8799991607666,24.8799991607666,241600.0,19.97199058532715
2016-12-12,24.8799991607666,23.139999389648438,24.729999542236328,23.25,356200.0,18.66353988647461
2016-12-13,23.989999771118164,23.010000228881836,23.399999618530273,23.1299991607666,324700.0,18.567209243774414
2016-12-14,23.329999923706055,22.5,23.0,22.690000534057617,222500.0,18.214008331298828
2016-12-15,23.93000030517578,22.520000457763672,22.520000457763672,23.1299991607666,267600.0,18.567209243774414
2016-12-16,23.979999542236328,22.700000762939453,23.09000015258789,23.84000015258789,870900.0,19.137149810791016
2016-12-19,24.850000381469727,23.31999969482422,23.950000762939453,24.770000457763672,305100.0,19.88369369506836
2016-12-20,25.09000015258789,24.229999542236328,24.790000915527344,25.010000228881836,305400.0,20.07634925842285
2016-12-21,25.899999618530273,24.65999984741211,24.93000030517578,25.670000076293945,256600.0,20.60615348815918
2016-12-22,27.059999465942383,25.649999618530273,25.709999084472656,27.0,234800.0,21.673784255981445
2016-12-23,27.81999969482422,27.15999984741211,27.219999313354492,27.760000228881836,221400.0,22.283863067626953
2016-12-27,28.18000030517578,27.479999542236328,27.59000015258789,28.100000381469727,163700.0,22.556791305541992
2016-12-28,28.469999313354492,27.809999465942383,27.93000030517578,28.399999618530273,156000.0,22.7976131439209
2016-12-29,30.739999771118164,28.402999877929688,28.420000076293945,30.510000228881836,580500.0,24.491376876831055
2016-12-30,30.520000457763672,29.5,30.43000030517578,29.68000030517578,327200.0,23.82511329650879
2017-01-03,30.100000381469727,28.5,29.84000015258789,28.579999923706055,383000.0,22.942102432250977
2017-01-04,29.100000381469727,27.291000366210938,28.719999313354492,27.389999389648438,385000.0,21.98685073852539
2017-01-05,28.6200008392334,27.100000381469727,27.450000762939453,27.780000686645508,344300.0,22.29991912841797
2017-01-06,27.81999969482422,27.149999618530273,27.760000228881836,27.399999618530273,180200.0,21.9948787689209
2017-01-09,27.389999389648438,26.309999465942383,27.389999389648438,26.3700008392334,200400.0,21.168066024780273
2017-01-10,27.450000762939453,25.860000610351562,26.149999618530273,27.15999984741211,158800.0,21.802223205566406
2017-01-11,27.309999465942383,26.520000457763672,27.0,26.579999923706055,189900.0,21.336637496948242
2017-01-12,27.299999237060547,26.479999542236328,26.520000457763672,27.059999465942383,111400.0,21.72195053100586
2017-01-13,27.469999313354492,26.85700035095215,27.0,27.3700008392334,93900.0,21.970800399780273
2017-01-17,27.655000686645508,26.84000015258789,27.290000915527344,27.290000915527344,150600.0,21.90658187866211
2017-01-18,27.5,26.690000534057617,27.1200008392334,26.93000030517578,191400.0,21.617595672607422
2017-01-19,26.950000762939453,26.299999237060547,26.8799991607666,26.56999969482422,105000.0,21.328609466552734
2017-01-20,26.860000610351562,26.01099967956543,26.860000610351562,26.290000915527344,116900.0,21.103845596313477
2017-01-23,26.405000686645508,26.020000457763672,26.290000915527344,26.299999237060547,203400.0,21.11187171936035
2017-01-24,26.739999771118164,26.1299991607666,26.350000381469727,26.579999923706055,157900.0,21.336637496948242
2017-01-25,26.89900016784668,26.329999923706055,26.399999618530273,26.389999389648438,142400.0,21.184118270874023
2017-01-26,26.670000076293945,26.1299991607666,26.309999465942383,26.31999969482422,113000.0,21.127925872802734
2017-01-27,26.524999618530273,25.860000610351562,26.40999984741211,26.110000610351562,87600.0,20.959354400634766
2017-01-30,26.31999969482422,25.65999984741211,26.049999237060547,26.049999237060547,125100.0,20.911190032958984
2017-01-31,26.450000762939453,25.360000610351562,25.969999313354492,26.219999313354492,143100.0,21.047653198242188
2017-02-01,26.53499984741211,25.65999984741211,26.06999969482422,26.15999984741211,131100.0,20.99949073791504
2017-02-02,27.65999984741211,25.809999465942383,26.329999923706055,27.09000015258789,386000.0,21.746034622192383
2017-02-03,27.84000015258789,26.850000381469727,27.100000381469727,27.649999618530273,399000.0,22.195560455322266
2017-02-06,27.780000686645508,26.649999618530273,27.719999313354492,27.719999313354492,265700.0,22.251750946044922
2017-02-07,28.360000610351562,27.634000778198242,27.8700008392334,27.989999771118164,223000.0,22.468494415283203
2017-02-08,27.8799991607666,26.739999771118164,27.8799991607666,27.65999984741211,136300.0,22.203588485717773
2017-02-09,28.329999923706055,27.549999237060547,27.75,27.90999984741211,202500.0,22.404272079467773
2017-02-10,28.209999084472656,26.8700008392334,27.940000534057617,27.049999237060547,207000.0,21.71392250061035
2017-02-13,27.464000701904297,26.889999389648438,26.889999389648438,27.1299991607666,238500.0,21.98129653930664
2017-02-14,27.479999542236328,27.0,27.040000915527344,27.329999923706055,199500.0,22.143339157104492
2017-02-15,27.549999237060547,27.06999969482422,27.329999923706055,27.100000381469727,143000.0,21.95699119567871
2017-02-16,27.239999771118164,26.957000732421875,27.0,27.1299991607666,100300.0,21.98129653930664
2017-02-17,27.059999465942383,26.540000915527344,26.889999389648438,26.8799991607666,129400.0,21.77873992919922
2017-02-21,27.200000762939453,26.760000228881836,26.799999237060547,27.100000381469727,146300.0,21.95699119567871
2017-02-22,27.170000076293945,26.260000228881836,27.059999465942383,26.40999984741211,195600.0,21.39793586730957
2017-02-23,28.760000228881836,26.25,26.399999618530273,27.920000076293945,551400.0,22.621370315551758
2017-02-24,27.770000457763672,27.049999237060547,27.649999618530273,27.65999984741211,132200.0,22.41071128845215
2017-02-27,28.96299934387207,27.329999923706055,27.670000076293945,28.940000534057617,200400.0,23.447795867919922
2017-02-28,28.850000381469727,27.68000030517578,28.739999771118164,28.420000076293945,266200.0,23.02648162841797
2017-03-01,28.770000457763672,27.18000030517578,28.450000762939453,27.5,280100.0,22.281078338623047
2017-03-02,27.3700008392334,26.700000762939453,27.270000457763672,27.15999984741211,207200.0,22.00560188293457
2017-03-03,27.899999618530273,27.079999923706055,27.100000381469727,27.459999084472656,211800.0,22.248668670654297
2017-03-06,27.5,26.459999084472656,27.43000030517578,26.719999313354492,291000.0,21.649105072021484
2017-03-07,26.649999618530273,25.6299991607666,26.649999618530273,25.850000381469727,271700.0,20.944210052490234
2017-03-08,25.799999237060547,24.399999618530273,25.799999237060547,24.479999542236328,214000.0,19.834209442138672
2017-03-09,24.81999969482422,24.29800033569336,24.530000686645508,24.530000686645508,161300.0,19.874719619750977
2017-03-10,25.208999633789062,24.649999618530273,24.65999984741211,24.790000915527344,205100.0,20.085378646850586
2017-03-13,24.84000015258789,24.06999969482422,24.790000915527344,24.329999923706055,141500.0,19.712677001953125
2017-03-14,24.25,23.600000381469727,24.149999618530273,23.81999969482422,187900.0,19.299463272094727
2017-03-15,24.43000030517578,23.770000457763672,23.899999618530273,24.290000915527344,318300.0,19.680269241333008
2017-03-16,24.290000915527344,23.260000228881836,23.760000228881836,23.440000534057617,258500.0,18.991579055786133
2017-03-17,23.860000610351562,23.489999771118164,23.5,23.579999923706055,375100.0,19.105010986328125
2017-03-20,23.579999923706055,22.5,23.579999923706055,22.6299991607666,208200.0,18.335302352905273
2017-03-21,22.829999923706055,21.309999465942383,22.510000228881836,22.18000030517578,420500.0,17.970703125
2017-03-22,21.969999313354492,20.440000534057617,21.8700008392334,20.81999969482422,1114600.0,16.86880111694336
2017-03-23,24.729999542236328,21.399999618530273,21.56999969482422,24.510000228881836,6916900.0,19.858516693115234
2017-03-24,24.690000534057617,23.575000762939453,24.6299991607666,23.950000762939453,771600.0,19.404794692993164
2017-03-27,24.15999984741211,23.290000915527344,23.350000381469727,23.809999465942383,539100.0,19.291357040405273
2017-03-28,24.322999954223633,23.31999969482422,23.709999084472656,23.84000015258789,448100.0,19.3156681060791
2017-03-29,24.06999969482422,23.360000610351562,23.809999465942383,23.989999771118164,424000.0,19.437198638916016
2017-03-30,24.780000686645508,23.799999237060547,23.90999984741211,24.149999618530273,397000.0,19.566835403442383
2017-03-31,25.329999923706055,23.8799991607666,24.100000381469727,25.15999984741211,611900.0,20.385160446166992
2017-04-03,25.270000457763672,24.25,24.989999771118164,24.84000015258789,476800.0,20.12588882446289
2017-04-04,24.889999389648438,23.649999618530273,24.75,23.790000915527344,525200.0,19.275157928466797
2017-04-05,24.29599952697754,23.350000381469727,23.8799991607666,23.709999084472656,869000.0,19.210342407226562
2017-04-06,24.639999389648438,23.649999618530273,23.81999969482422,24.600000381469727,440300.0,19.931434631347656
2017-04-07,24.5,23.690000534057617,24.40999984741211,24.229999542236328,293300.0,19.63165283203125
2017-04-10,25.0,24.149999618530273,24.170000076293945,24.309999465942383,374500.0,19.696470260620117
2017-04-11,25.110000610351562,24.229999542236328,24.280000686645508,24.940000534057617,306900.0,20.206911087036133
2017-04-12,24.8799991607666,24.40999984741211,24.8799991607666,24.649999618530273,351700.0,19.971946716308594
2017-04-13,25.020000457763672,24.540000915527344,24.610000610351562,24.90999984741211,426100.0,20.182605743408203
2017-04-17,25.09000015258789,24.260000228881836,24.829999923706055,24.639999389648438,187400.0,19.963844299316406
2017-04-18,24.8700008392334,24.350000381469727,24.559999465942383,24.81999969482422,225000.0,20.10968589782715
2017-04-19,25.25,24.719999313354492,24.899999618530273,25.209999084472656,233600.0,20.425668716430664
2017-04-20,25.65999984741211,25.100000381469727,25.34000015258789,25.229999542236328,434600.0,20.441877365112305
2017-04-21,25.239999771118164,24.450000762939453,25.239999771118164,24.639999389648438,199700.0,19.963844299316406
2017-04-24,25.139999389648438,24.700000762939453,24.860000610351562,24.799999237060547,364700.0,20.093482971191406
2017-04-25,25.209999084472656,24.739999771118164,24.84000015258789,25.139999389648438,306200.0,20.368955612182617
2017-04-26,26.5,25.09000015258789,25.09000015258789,26.440000534057617,309400.0,21.4222469329834
2017-04-27,26.530000686645508,26.049999237060547,26.31999969482422,26.290000915527344,146900.0,21.300708770751953
2017-04-28,26.329999923706055,25.3799991607666,26.329999923706055,25.8700008392334,225000.0,20.96041488647461
2017-05-01,26.40999984741211,25.829999923706055,25.920000076293945,26.399999618530273,155800.0,21.389835357666016
2017-05-02,26.489999771118164,25.850000381469727,26.420000076293945,26.110000610351562,250800.0,21.154869079589844
2017-05-03,26.729999542236328,25.93000030517578,26.190000534057617,26.510000228881836,273900.0,21.478958129882812
2017-05-04,23.90999984741211,20.829999923706055,23.0,21.290000915527344,2256300.0,17.249603271484375
2017-05-05,22.780000686645508,21.079999923706055,21.270000457763672,22.68000030517578,455400.0,18.375812530517578
2017-05-08,23.3700008392334,22.290000915527344,22.600000381469727,23.06999969482422,370900.0,18.691797256469727
2017-05-09,23.209999084472656,21.829999923706055,22.979999542236328,22.25,366500.0,18.027420043945312
2017-05-10,22.579999923706055,21.81999969482422,22.1200008392334,22.15999984741211,367000.0,17.954496383666992
2017-05-11,22.719999313354492,21.790000915527344,21.790000915527344,22.670000076293945,370500.0,18.577289581298828
2017-05-12,22.65999984741211,21.850000381469727,22.65999984741211,22.200000762939453,261000.0,18.1921443939209
2017-05-15,22.354999542236328,21.6200008392334,22.299999237060547,21.780000686645508,272400.0,17.84796714782715
2017-05-16,22.459999084472656,21.65999984741211,21.739999771118164,22.360000610351562,253400.0,18.323257446289062
2017-05-17,22.360000610351562,21.485000610351562,22.360000610351562,21.559999465942383,341800.0,17.66768455505371
2017-05-18,21.90999984741211,21.274999618530273,21.56999969482422,21.75,245500.0,17.82338523864746
2017-05-19,22.190000534057617,21.600000381469727,21.809999465942383,21.93000030517578,155000.0,17.970884323120117
2017-05-22,22.21500015258789,21.600000381469727,22.0,21.649999618530273,419500.0,17.74143409729004
2017-05-23,22.079999923706055,21.540000915527344,21.729999542236328,21.780000686645508,170000.0,17.84796714782715
2017-05-24,21.899999618530273,21.1299991607666,21.450000762939453,21.260000228881836,199800.0,17.421846389770508
2017-05-25,21.479999542236328,20.940000534057617,21.299999237060547,21.010000228881836,144600.0,17.216981887817383
2017-05-26,21.3799991607666,21.010000228881836,21.010000228881836,21.170000076293945,185400.0,17.34809112548828
2017-05-30,21.100000381469727,20.639999389648438,20.989999771118164,20.700000762939453,147200.0,16.96294403076172
2017-05-31,21.399999618530273,20.190000534057617,20.68000030517578,21.270000457763672,410300.0,17.43004035949707
2017-06-01,22.260000228881836,21.06999969482422,21.3700008392334,22.1200008392334,366500.0,18.1265869140625
2017-06-02,22.43000030517578,21.969999313354492,22.110000610351562,22.149999618530273,168100.0,18.151166915893555
2017-06-05,22.1299991607666,21.010000228881836,22.1299991607666,21.209999084472656,210600.0,17.380868911743164
2017-06-06,21.1200008392334,20.790000915527344,21.040000915527344,20.81999969482422,200300.0,17.061279296875
2017-06-07,21.280000686645508,20.6200008392334,20.829999923706055,21.229999542236328,153200.0,17.397258758544922
2017-06-08,21.600000381469727,20.700000762939453,21.15999984741211,21.440000534057617,252700.0,17.569351196289062
2017-06-09,21.579999923706055,21.049999237060547,21.40999984741211,21.229999542236328,188800.0,17.397258758544922
2017-06-12,21.649999618530273,21.06999969482422,21.18000030517578,21.59000015258789,338900.0,17.69226837158203
2017-06-13,21.850000381469727,21.469999313354492,21.6200008392334,21.690000534057617,211200.0,17.774215698242188
2017-06-14,21.799999237060547,21.299999237060547,21.59000015258789,21.479999542236328,415100.0,17.60212516784668
2017-06-15,21.56999969482422,20.889999389648438,21.25,20.940000534057617,274200.0,17.15961456298828
2017-06-16,22.010000228881836,20.920000076293945,21.0,21.8799991607666,717600.0,17.929912567138672
2017-06-19,21.834999084472656,21.420000076293945,21.829999923706055,21.65999984741211,324100.0,17.7496280670166
2017-06-20,21.520000457763672,20.489999771118164,21.450000762939453,20.610000610351562,564500.0,16.889192581176758
2017-06-21,21.15999984741211,20.479999542236328,20.489999771118164,21.010000228881836,285400.0,17.216981887817383
2017-06-22,21.65999984741211,20.959999084472656,20.959999084472656,21.610000610351562,339700.0,17.708656311035156
2017-06-23,22.100000381469727,21.270000457763672,21.56999969482422,21.969999313354492,3041300.0,18.003664016723633
2017-06-26,22.114999771118164,21.739999771118164,21.90999984741211,21.8700008392334,284600.0,17.92171859741211
2017-06-27,22.110000610351562,21.729999542236328,21.889999389648438,21.75,204200.0,17.82338523864746
2017-06-28,22.3700008392334,21.799999237060547,21.940000534057617,21.979999542236328,350000.0,18.011859893798828
2017-06-29,22.06999969482422,21.010000228881836,22.040000915527344,21.149999618530273,284900.0,17.331701278686523
2017-06-30,21.56999969482422,20.972999572753906,21.170000076293945,21.399999618530273,373200.0,17.536571502685547
2017-07-03,21.829999923706055,21.45599937438965,21.530000686645508,21.65999984741211,143100.0,17.7496280670166
2017-07-05,21.860000610351562,21.459999084472656,21.700000762939453,21.670000076293945,181400.0,17.757827758789062
2017-07-06,21.790000915527344,21.280000686645508,21.450000762939453,21.600000381469727,326700.0,17.700462341308594
2017-07-07,21.6200008392334,20.65999984741211,21.6200008392334,20.90999984741211,294200.0,17.135032653808594
2017-07-10,20.799999237060547,20.479999542236328,20.739999771118164,20.520000457763672,159200.0,16.815439224243164
2017-07-11,20.700000762939453,20.190000534057617,20.549999237060547,20.3700008392334,184400.0,16.692520141601562
2017-07-12,20.649999618530273,20.149999618530273,20.6299991607666,20.15999984741211,251500.0,16.520431518554688
2017-07-13,20.309999465942383,19.760000228881836,20.190000534057617,20.040000915527344,253500.0,16.422096252441406
2017-07-14,20.59000015258789,19.799999237060547,20.059999465942383,20.3700008392334,302100.0,16.692520141601562
2017-07-17,20.8799991607666,20.079999923706055,20.399999618530273,20.420000076293945,375700.0,16.73349380493164
2017-07-18,20.399999618530273,19.639999389648438,20.399999618530273,20.09000015258789,330500.0,16.463069915771484
2017-07-19,21.389999389648438,20.1299991607666,20.1299991607666,21.3799991607666,271200.0,17.52018165588379
2017-07-20,21.309999465942383,20.766000747680664,21.280000686645508,21.239999771118164,169900.0,17.405452728271484
2017-07-21,21.59000015258789,20.665000915527344,21.59000015258789,20.81999969482422,174100.0,17.061279296875
2017-07-24,21.170000076293945,20.739999771118164,20.90999984741211,20.8799991607666,282400.0,17.110445022583008
2017-07-25,21.459999084472656,20.739999771118164,20.950000762939453,21.25,202300.0,17.413650512695312
2017-07-26,21.639999389648438,21.049999237060547,21.350000381469727,21.489999771118164,153900.0,17.610321044921875
2017-07-27,21.950000762939453,21.229999542236328,21.579999923706055,21.59000015258789,295100.0,17.69226837158203
2017-07-28,21.600000381469727,21.059999465942383,21.549999237060547,21.3700008392334,166300.0,17.511985778808594
2017-07-31,21.729999542236328,21.343000411987305,21.729999542236328,21.3799991607666,215800.0,17.52018165588379
2017-08-01,21.540000915527344,21.020000457763672,21.540000915527344,21.290000915527344,288200.0,17.446426391601562
2017-08-02,21.270000457763672,19.549999237060547,21.260000228881836,19.649999618530273,396200.0,16.102502822875977
2017-08-03,19.34000015258789,15.074999809265137,19.34000015258789,17.959999084472656,1300800.0,14.717606544494629
2017-08-04,18.110000610351562,16.799999237060547,17.950000762939453,17.149999618530273,800100.0,14.053841590881348
2017-08-07,17.709999084472656,16.959999084472656,16.959999084472656,17.020000457763672,591200.0,13.947309494018555
2017-08-08,18.149999618530273,17.139999389648438,17.3799991607666,17.399999618530273,298400.0,14.258705139160156
2017-08-09,17.280000686645508,16.450000762939453,17.280000686645508,16.559999465942383,354100.0,13.570354461669922
2017-08-10,16.920000076293945,16.229999542236328,16.420000076293945,16.479999542236328,426000.0,13.504796981811523
2017-08-11,16.940000534057617,15.670000076293945,15.670000076293945,16.510000228881836,185600.0,13.73778247833252
2017-08-14,16.989999771118164,16.520000457763672,16.59000015258789,16.829999923706055,188100.0,14.004051208496094
2017-08-15,16.860000610351562,16.049999237060547,16.850000381469727,16.229999542236328,237700.0,13.504796981811523
2017-08-16,16.40999984741211,15.899999618530273,16.209999084472656,15.930000305175781,159000.0,13.255171775817871
2017-08-17,16.149999618530273,15.59000015258789,15.899999618530273,15.640000343322754,232900.0,13.013866424560547
2017-08-18,15.970000267028809,15.369999885559082,15.59000015258789,15.4399995803833,211200.0,12.847447395324707
2017-08-21,15.90999984741211,15.449999809265137,15.449999809265137,15.619999885559082,261900.0,12.997223854064941
2017-08-22,15.8100004196167,15.359999656677246,15.640000343322754,15.399999618530273,168300.0,12.814164161682129
2017-08-23,15.670000076293945,15.270000457763672,15.350000381469727,15.449999809265137,148600.0,12.855767250061035
2017-08-24,15.729999542236328,15.145000457763672,15.510000228881836,15.359999656677246,135000.0,12.78088092803955
2017-08-25,15.550000190734863,15.170000076293945,15.390000343322754,15.3100004196167,115900.0,12.739276885986328
2017-08-28,15.920000076293945,15.210000038146973,15.350000381469727,15.829999923706055,205700.0,13.17196273803711
2017-08-29,16.100000381469727,15.5600004196167,15.770000457763672,15.640000343322754,198500.0,13.013866424560547
2017-08-30,15.869999885559082,15.479999542236328,15.649999618530273,15.720000267028809,156500.0,13.080431938171387
2017-08-31,16.184999465942383,15.75,15.75,16.110000610351562,268000.0,13.404947280883789
2017-09-01,16.389999389648438,15.90999984741211,16.149999618530273,16.209999084472656,176700.0,13.488154411315918
2017-09-05,16.399999618530273,15.789999961853027,16.219999313354492,16.110000610351562,267000.0,13.404947280883789
2017-09-06,16.399999618530273,15.989999771118164,16.139999389648438,16.200000762939453,182100.0,13.479835510253906
2017-09-07,16.469999313354492,16.15999984741211,16.25,16.3799991607666,155100.0,13.629610061645508
2017-09-08,16.469999313354492,16.110000610351562,16.34000015258789,16.3700008392334,91700.0,13.621292114257812
2017-09-11,16.69499969482422,16.18000030517578,16.459999084472656,16.469999313354492,167300.0,13.704498291015625
2017-09-12,17.3700008392334,16.600000381469727,16.600000381469727,16.989999771118164,202500.0,14.137186050415039
2017-09-13,17.170000076293945,16.1200008392334,16.899999618530273,16.700000762939453,203700.0,13.895879745483398
2017-09-14,16.850000381469727,16.3799991607666,16.65999984741211,16.440000534057617,183300.0,13.679536819458008
2017-09-15,16.780000686645508,16.190000534057617,16.469999313354492,16.75,428500.0,13.937483787536621
2017-09-18,16.989999771118164,16.510000228881836,16.739999771118164,16.6299991607666,137400.0,13.837632179260254
2017-09-19,16.75,16.22100067138672,16.639999389648438,16.34000015258789,186300.0,13.596327781677246
2017-09-20,16.65999984741211,16.274999618530273,16.299999237060547,16.389999389648438,443800.0,13.637932777404785
2017-09-21,16.420000076293945,16.049999237060547,16.360000610351562,16.200000762939453,229300.0,13.479835510253906
2017-09-22,16.84000015258789,16.149999618530273,16.260000228881836,16.65999984741211,340700.0,13.86259651184082
2017-09-25,16.700000762939453,16.049999237060547,16.700000762939453,16.389999389648438,268400.0,13.637932777404785
2017-09-26,17.110000610351562,16.40999984741211,16.40999984741211,16.989999771118164,337200.0,14.137186050415039
2017-09-27,17.969999313354492,16.93000030517578,17.149999618530273,17.719999313354492,333100.0,14.744607925415039
2017-09-28,17.989999771118164,17.520000457763672,17.649999618530273,17.780000686645508,317100.0,14.794533729553223
2017-09-29,16.6200008392334,15.050000190734863,16.510000228881836,16.510000228881836,1015400.0,13.73778247833252
2017-10-02,16.690000534057617,16.06999969482422,16.3799991607666,16.329999923706055,431800.0,13.588006019592285
2017-10-03,17.972000122070312,16.280000686645508,16.329999923706055,17.93000030517578,322300.0,14.919349670410156
2017-10-04,18.0,17.170000076293945,17.780000686645508,17.270000457763672,234800.0,14.370171546936035
2017-10-05,17.520000457763672,17.190000534057617,17.34000015258789,17.399999618530273,276200.0,14.478341102600098
2017-10-06,17.389999389648438,16.31999969482422,17.25,16.489999771118164,156600.0,13.721139907836914
2017-10-09,16.850000381469727,16.299999237060547,16.5,16.469999313354492,168800.0,13.704498291015625
2017-10-10,16.90999984741211,16.299999237060547,16.459999084472656,16.639999389648438,217400.0,13.845953941345215
2017-10-11,16.770000457763672,16.239999771118164,16.559999465942383,16.450000762939453,166800.0,13.687856674194336
2017-10-12,16.729999542236328,16.260000228881836,16.469999313354492,16.43000030517578,214000.0,13.671215057373047
2017-10-13,16.6299991607666,16.25,16.489999771118164,16.40999984741211,157300.0,13.654572486877441
2017-10-16,16.729999542236328,15.880000114440918,16.420000076293945,16.06999969482422,188400.0,13.371664047241211
2017-10-17,16.40999984741211,16.0,16.010000228881836,16.229999542236328,116800.0,13.504796981811523
2017-10-18,17.059999465942383,16.290000915527344,16.290000915527344,17.049999237060547,192700.0,14.187108993530273
2017-10-19,17.030000686645508,16.40999984741211,16.90999984741211,16.520000457763672,191100.0,13.74610424041748
2017-10-20,17.125,16.520000457763672,16.709999084472656,17.030000686645508,226900.0,14.170470237731934
2017-10-23,17.149999618530273,16.469999313354492,17.030000686645508,16.600000381469727,180700.0,13.812671661376953
2017-10-24,16.856000900268555,16.440000534057617,16.600000381469727,16.75,141600.0,13.937483787536621
2017-10-25,17.270000457763672,16.68000030517578,16.739999771118164,17.200000762939453,188600.0,14.31192398071289
2017-10-26,17.719999313354492,17.15999984741211,17.329999923706055,17.479999542236328,139000.0,14.54490852355957
2017-10-27,17.489999771118164,16.920000076293945,17.489999771118164,17.18000030517578,216300.0,14.295283317565918
2017-10-30,17.06999969482422,16.18000030517578,17.06999969482422,16.18000030517578,144600.0,13.463194847106934
2017-10-31,16.850000381469727,16.020000457763672,16.299999237060547,16.18000030517578,277500.0,13.463194847106934
2017-11-01,16.15999984741211,15.260000228881836,16.139999389648438,15.729999542236328,287000.0,13.088752746582031
2017-11-02,16.350000381469727,15.050000190734863,15.75,15.729999542236328,524800.0,13.088752746582031
2017-11-03,16.1299991607666,15.199999809265137,15.550000190734863,15.710000038146973,341900.0,13.072112083435059
2017-11-06,15.949999809265137,15.119999885559082,15.729999542236328,15.229999542236328,428500.0,12.672708511352539
2017-11-07,15.225000381469727,14.130000114440918,15.199999809265137,14.380000114440918,522800.0,11.965435028076172
2017-11-08,14.279999732971191,13.739999771118164,14.220000267028809,14.050000190734863,323700.0,11.690845489501953
2017-11-09,14.467000007629395,13.979999542236328,13.989999771118164,14.289999961853027,222900.0,11.890544891357422
2017-11-10,14.859999656677246,14.319999694824219,14.319999694824219,14.670000076293945,247100.0,12.20673942565918
2017-11-13,14.600000381469727,13.720000267028809,14.600000381469727,13.739999771118164,370500.0,11.432896614074707
2017-11-14,14.729999542236328,13.819999694824219,14.100000381469727,14.619999885559082,423400.0,12.390583038330078
2017-11-15,14.710000038146973,13.930000305175781,14.520000457763672,13.989999771118164,495000.0,11.856651306152344
2017-11-16,15.050000190734863,14.104999542236328,14.210000038146973,15.039999961853027,393100.0,12.746536254882812
2017-11-17,15.5649995803833,14.90999984741211,14.90999984741211,15.239999771118164,402300.0,12.916037559509277
2017-11-20,15.449999809265137,14.600000381469727,15.25,15.079999923706055,300000.0,12.780436515808105
2017-11-21,15.569999694824219,15.109999656677246,15.199999809265137,15.1899995803833,238400.0,12.873661994934082
2017-11-22,15.770000457763672,15.010000228881836,15.220000267028809,15.59000015258789,174200.0,13.212665557861328
2017-11-24,15.649999618530273,15.180000305175781,15.649999618530273,15.569999694824219,98300.0,13.195714950561523
2017-11-27,16.079999923706055,15.520000457763672,15.5600004196167,15.630000114440918,162700.0,13.246566772460938
2017-11-28,16.0,15.5,15.680000305175781,15.949999809265137,261400.0,13.517769813537598
2017-11-29,16.440000534057617,15.800000190734863,16.059999465942383,16.1299991607666,414000.0,13.670320510864258
2017-11-30,16.729999542236328,16.139999389648438,16.25,16.360000610351562,457400.0,13.865248680114746
2017-12-01,16.56999969482422,15.40999984741211,16.40999984741211,15.5600004196167,286700.0,13.187240600585938
2017-12-04,16.520000457763672,15.789999961853027,15.9399995803833,16.059999465942383,396100.0,13.610995292663574
2017-12-05,16.165000915527344,15.6899995803833,16.059999465942383,15.989999771118164,320100.0,13.551669120788574
2017-12-06,16.1299991607666,15.680000305175781,16.0,15.8100004196167,173900.0,13.399118423461914
2017-12-07,16.829999923706055,15.869999885559082,15.880000114440918,16.34000015258789,464900.0,13.848297119140625
2017-12-08,16.3700008392334,15.739999771118164,16.3700008392334,15.869999885559082,200600.0,13.449967384338379
2017-12-11,16.6299991607666,15.739999771118164,15.850000381469727,16.1299991607666,446100.0,13.670320510864258
2017-12-12,16.399999618530273,16.020000457763672,16.1299991607666,16.100000381469727,232500.0,13.644896507263184
2017-12-13,16.559999465942383,15.930000305175781,15.989999771118164,16.040000915527344,293900.0,13.594045639038086
2017-12-14,16.334999084472656,15.819999694824219,16.079999923706055,15.90999984741211,308600.0,13.483869552612305
2017-12-15,16.420000076293945,15.859999656677246,15.970000267028809,16.010000228881836,1195600.0,13.568618774414062
2017-12-18,16.420000076293945,15.210000038146973,16.1299991607666,15.649999618530273,385200.0,13.263517379760742
2017-12-19,15.9399995803833,15.25,15.579999923706055,15.34000015258789,265500.0,13.000788688659668
2017-12-20,15.720000267028809,15.319999694824219,15.40999984741211,15.609999656677246,242200.0,13.229616165161133
2017-12-21,16.1299991607666,15.569999694824219,15.640000343322754,16.079999923706055,289800.0,13.627945899963379
2017-12-22,16.0,15.579999923706055,16.0,15.770000457763672,231800.0,13.365219116210938
2017-12-26,16.479999542236328,15.5,15.729999542236328,15.569999694824219,161200.0,13.195714950561523
2017-12-27,15.869999885559082,15.180000305175781,15.529999732971191,15.239999771118164,174300.0,12.916037559509277
2017-12-28,15.300000190734863,14.956999778747559,15.199999809265137,15.279999732971191,173600.0,12.94993782043457
2017-12-29,15.529999732971191,15.149999618530273,15.329999923706055,15.149999618530273,239500.0,12.839761734008789
2018-01-02,15.15999984741211,14.630000114440918,15.109999656677246,14.75,251600.0,12.500758171081543
2018-01-03,14.699999809265137,14.109999656677246,14.699999809265137,14.1899995803833,406400.0,12.026152610778809
2018-01-04,14.6899995803833,14.109999656677246,14.279999732971191,14.510000228881836,216500.0,12.297356605529785
2018-01-05,14.970000267028809,14.319999694824219,14.489999771118164,14.520000457763672,263100.0,12.305831909179688
2018-01-08,14.850000381469727,14.270000457763672,14.5,14.75,249700.0,12.500758171081543
2018-01-09,14.916000366210938,14.100000381469727,14.710000038146973,14.109999656677246,201000.0,11.958353042602539
2018-01-10,14.175999641418457,13.760000228881836,14.029999732971191,14.149999618530273,172100.0,11.992252349853516
2018-01-11,14.380000114440918,13.859999656677246,14.140000343322754,14.140000343322754,202500.0,11.983778953552246
2018-01-12,14.680000305175781,13.90999984741211,14.119999885559082,14.390000343322754,205700.0,12.19565486907959
2018-01-16,14.609999656677246,13.960000038146973,14.449999809265137,13.960000038146973,251000.0,11.831225395202637
2018-01-17,14.399999618530273,13.949999809265137,14.029999732971191,14.369999885559082,231900.0,12.178704261779785
2018-01-18,14.409000396728516,13.890000343322754,14.329999923706055,13.899999618530273,207000.0,11.780375480651855
2018-01-19,14.470000267028809,13.869999885559082,13.949999809265137,14.420000076293945,205500.0,12.221080780029297
2018-01-22,14.75,14.09000015258789,14.380000114440918,14.710000038146973,309000.0,12.466856956481934
2018-01-23,14.765000343322754,14.020000457763672,14.65999984741211,14.5600004196167,251000.0,12.339733123779297
2018-01-24,14.6899995803833,14.140999794006348,14.670000076293945,14.279999732971191,192800.0,12.102429389953613
2018-01-25,14.619999885559082,14.194999694824219,14.359999656677246,14.609999656677246,323700.0,12.382107734680176
2018-01-26,14.649999618530273,14.260000228881836,14.619999885559082,14.550000190734863,260900.0,12.331256866455078
2018-01-29,14.529999732971191,14.25,14.489999771118164,14.34000015258789,149500.0,12.153279304504395
2018-01-30,14.300000190734863,13.960000038146973,14.210000038146973,14.029999732971191,255000.0,11.890551567077637
2018-01-31,14.131999969482422,13.600000381469727,14.079999923706055,13.680000305175781,289300.0,11.593923568725586
2018-02-01,13.779999732971191,13.279999732971191,13.680000305175781,13.710000038146973,345800.0,11.619349479675293
2018-02-02,13.600000381469727,12.8149995803833,13.59000015258789,12.829999923706055,297400.0,10.873540878295898
2018-02-05,13.050000190734863,12.710000038146973,12.789999961853027,12.760000228881836,316200.0,10.814214706420898
2018-02-06,13.180000305175781,12.520000457763672,12.65999984741211,13.170000076293945,435900.0,11.161694526672363
2018-02-07,13.460000038146973,12.8100004196167,13.09000015258789,13.300000190734863,242400.0,11.271870613098145
2018-02-08,13.399999618530273,12.800000190734863,13.380000114440918,12.8100004196167,194000.0,10.856592178344727
2018-02-09,13.010000228881836,12.300000190734863,12.930000305175781,12.890000343322754,309600.0,10.924391746520996
2018-02-12,12.920000076293945,12.460000038146973,12.920000076293945,12.489999771118164,201200.0,10.585387229919434
2018-02-13,12.819999694824219,12.180000305175781,12.420000076293945,12.229999542236328,195800.0,10.365035057067871
2018-02-14,12.520000457763672,11.789999961853027,11.800000190734863,12.489999771118164,253000.0,10.815312385559082
2018-02-15,12.815999984741211,12.34000015258789,12.579999923706055,12.619999885559082,287000.0,10.927881240844727
2018-02-16,13.15999984741211,12.550000190734863,12.550000190734863,12.979999542236328,242600.0,11.239611625671387
2018-02-20,13.220000267028809,12.850000381469727,12.970000267028809,13.0,258900.0,11.256932258605957
2018-02-21,14.119999885559082,12.949999809265137,13.069999694824219,13.850000381469727,376600.0,11.992960929870605
2018-02-22,15.130000114440918,13.4399995803833,14.510000228881836,13.449999809265137,576300.0,11.64659309387207
2018-02-23,15.479999542236328,13.619999885559082,13.710000038146973,15.039999961853027,578200.0,13.023402214050293
2018-02-26,15.510000228881836,14.229999542236328,15.029999732971191,15.390000343322754,426300.0,13.326475143432617
2018-02-27,16.100000381469727,14.640000343322754,15.40999984741211,14.699999809265137,421100.0,12.72899055480957
2018-02-28,14.979999542236328,14.5,14.680000305175781,14.5600004196167,383400.0,12.607763290405273
2018-03-01,14.680000305175781,14.039999961853027,14.539999961853027,14.109999656677246,442400.0,12.218099594116211
2018-03-02,15.100000381469727,13.90999984741211,14.010000228881836,15.029999732971191,369200.0,13.01474380493164
2018-03-05,15.539999961853027,14.979999542236328,15.0,15.329999923706055,264700.0,13.274519920349121
2018-03-06,15.890000343322754,15.40999984741211,15.4399995803833,15.850000381469727,546500.0,13.724797248840332
2018-03-07,16.8799991607666,15.720000267028809,15.720000267028809,16.68000030517578,1558300.0,14.443510055541992
2018-03-08,16.989999771118164,16.139999389648438,16.68000030517578,16.440000534057617,245800.0,14.235689163208008
2018-03-09,16.829999923706055,16.329999923706055,16.559999465942383,16.510000228881836,267800.0,14.29630184173584
2018-03-12,17.020000457763672,16.469999313354492,16.559999465942383,16.739999771118164,272700.0,14.495464324951172
2018-03-13,16.90999984741211,16.399999618530273,16.770000457763672,16.639999389648438,210900.0,14.408870697021484
2018-03-14,17.3700008392334,16.610000610351562,16.700000762939453,17.110000610351562,336300.0,14.8158540725708
2018-03-15,17.489999771118164,16.790000915527344,17.110000610351562,17.260000228881836,585900.0,14.945740699768066
2018-03-16,18.030000686645508,16.920000076293945,17.260000228881836,17.829999923706055,799700.0,15.439313888549805
2018-03-19,17.950000762939453,17.440000534057617,17.75,17.59000015258789,182800.0,15.231493949890137
2018-03-20,17.969999313354492,17.40999984741211,17.6299991607666,17.940000534057617,221600.0,15.534564971923828
2018-03-21,18.459999084472656,17.729999542236328,18.0,18.260000228881836,318300.0,15.811660766601562
2018-03-22,18.639999389648438,18.075000762939453,18.15999984741211,18.18000030517578,251500.0,15.742385864257812
2018-03-23,18.229999542236328,16.780000686645508,18.229999542236328,16.799999237060547,394500.0,14.547417640686035
2018-03-26,17.329999923706055,16.59000015258789,17.110000610351562,17.059999465942383,292000.0,14.77255630493164
2018-03-27,17.299999237060547,16.579999923706055,17.040000915527344,16.6299991607666,284800.0,14.400211334228516
2018-03-28,17.670000076293945,16.729999542236328,16.81999969482422,17.299999237060547,264700.0,14.980377197265625
2018-03-29,17.68000030517578,17.084999084472656,17.459999084472656,17.450000762939453,456300.0,15.110265731811523
2018-04-02,16.25,14.0600004196167,16.25,14.279999732971191,712600.0,12.365304946899414
2018-04-03,14.9399995803833,14.149999618530273,14.369999885559082,14.760000228881836,294400.0,12.780945777893066
2018-04-04,15.75,14.65999984741211,14.65999984741211,15.649999618530273,379600.0,13.551612854003906
2018-04-05,15.729999542236328,15.050000190734863,15.729999542236328,15.5,312500.0,13.421724319458008
2018-04-06,15.699999809265137,14.699999809265137,15.270000457763672,14.949999809265137,762700.0,12.945470809936523
2018-04-09,15.8100004196167,14.869999885559082,15.010000228881836,15.529999732971191,349100.0,13.447701454162598
2018-04-10,16.15999984741211,15.529999732971191,15.850000381469727,16.040000915527344,226300.0,13.889322280883789
2018-04-11,16.459999084472656,15.949999809265137,15.949999809265137,16.329999923706055,162100.0,14.140436172485352
2018-04-12,16.510000228881836,16.270000457763672,16.3700008392334,16.420000076293945,141500.0,14.218368530273438
2018-04-13,16.5,16.139999389648438,16.469999313354492,16.3799991607666,224200.0,14.183732986450195
2018-04-16,16.850000381469727,16.309999465942383,16.479999542236328,16.84000015258789,312600.0,14.582054138183594
2018-04-17,17.290000915527344,16.860000610351562,16.979999542236328,17.290000915527344,203200.0,14.97171688079834
2018-04-18,17.690000534057617,17.219999313354492,17.290000915527344,17.479999542236328,208900.0,15.136241912841797
2018-04-19,17.690000534057617,17.34000015258789,17.420000076293945,17.649999618530273,172200.0,15.283446311950684
2018-04-20,17.760000228881836,17.389999389648438,17.6299991607666,17.479999542236328,225500.0,15.136241912841797
2018-04-23,17.639999389648438,17.200000762939453,17.549999237060547,17.549999237060547,166600.0,15.196856498718262
2018-04-24,18.170000076293945,17.639999389648438,17.690000534057617,17.799999237060547,167100.0,15.413335800170898
2018-04-25,17.889999389648438,17.469999313354492,17.809999465942383,17.81999969482422,142400.0,15.43065357208252
2018-04-26,17.8799991607666,17.280000686645508,17.8799991607666,17.489999771118164,164200.0,15.14490032196045
2018-04-27,17.799999237060547,17.34000015258789,17.579999923706055,17.770000457763672,140700.0,15.387357711791992
2018-04-30,17.809999465942383,17.364999771118164,17.809999465942383,17.479999542236328,182100.0,15.136241912841797
2018-05-01,17.586000442504883,16.969999313354492,17.520000457763672,17.420000076293945,310700.0,15.08428955078125
2018-05-02,17.40999984741211,16.56999969482422,17.40999984741211,16.68000030517578,313700.0,14.443510055541992
2018-05-03,16.31999969482422,12.449999809265137,16.31999969482422,12.640000343322754,1195600.0,10.945201873779297
2018-05-04,12.979999542236328,12.100000381469727,12.75,12.399999618530273,800700.0,10.737380027770996
2018-05-07,12.569999694824219,12.039999961853027,12.449999809265137,12.069999694824219,1128600.0,10.451626777648926
2018-05-08,12.180000305175781,11.579999923706055,12.069999694824219,12.010000228881836,913800.0,10.399672508239746
2018-05-09,12.15999984741211,11.920000076293945,12.0600004196167,12.0,408300.0,10.391013145446777
2018-05-10,12.0600004196167,11.59000015258789,12.0600004196167,11.84000015258789,489500.0,10.252466201782227
2018-05-11,12.255000114440918,11.640000343322754,11.829999923706055,12.079999923706055,598300.0,10.460286140441895
2018-05-14,11.920000076293945,11.696000099182129,11.819999694824219,11.729999542236328,365100.0,10.38063907623291
2018-05-15,11.946999549865723,11.609999656677246,11.6899995803833,11.789999961853027,442300.0,10.433737754821777
2018-05-16,12.210000038146973,11.770000457763672,11.829999923706055,12.039999961853027,443600.0,10.654979705810547
2018-05-17,12.470000267028809,12.010000228881836,12.010000228881836,12.390000343322754,394200.0,10.964716911315918
2018-05-18,12.59000015258789,12.380000114440918,12.470000267028809,12.470000267028809,333200.0,11.035513877868652
2018-05-21,12.649999618530273,12.449999809265137,12.569999694824219,12.5600004196167,314500.0,11.115161895751953
2018-05-22,12.571999549865723,12.279999732971191,12.539999961853027,12.279999732971191,284400.0,10.86737060546875
2018-05-23,12.359999656677246,11.859999656677246,12.1899995803833,12.300000190734863,386200.0,10.885069847106934
2018-05-24,12.479999542236328,11.9399995803833,12.229999542236328,12.300000190734863,385400.0,10.885069847106934
2018-05-25,12.359999656677246,12.239999771118164,12.239999771118164,12.300000190734863,301100.0,10.885069847106934
2018-05-29,12.5,12.010000228881836,12.15999984741211,12.350000381469727,465800.0,10.929317474365234
2018-05-30,13.050000190734863,12.420000076293945,12.420000076293945,12.960000038146973,309600.0,11.469147682189941
2018-05-31,13.029999732971191,12.470000267028809,12.949999809265137,12.65999984741211,288600.0,11.203657150268555
2018-06-01,12.760000228881836,12.489999771118164,12.710000038146973,12.640000343322754,210600.0,11.185957908630371
2018-06-04,13.079999923706055,12.720000267028809,12.739999771118164,12.949999809265137,356400.0,11.460296630859375
2018-06-05,13.09000015258789,12.729999542236328,12.970000267028809,12.9399995803833,244400.0,11.451446533203125
2018-06-06,13.09000015258789,12.8100004196167,12.930000305175781,12.989999771118164,175600.0,11.495695114135742
2018-06-07,13.5,13.0600004196167,13.0600004196167,13.260000228881836,172400.0,11.734636306762695
2018-06-08,13.489999771118164,13.109999656677246,13.279999732971191,13.300000190734863,208700.0,11.770034790039062
2018-06-11,13.5600004196167,13.220000267028809,13.289999961853027,13.470000267028809,293100.0,11.920478820800781
2018-06-12,13.640000343322754,13.170000076293945,13.539999961853027,13.199999809265137,213800.0,11.681537628173828
2018-06-13,13.25,12.609999656677246,13.220000267028809,12.640000343322754,193200.0,11.185957908630371
2018-06-14,13.15999984741211,12.640999794006348,12.75,13.130000114440918,247700.0,11.619590759277344
2018-06-15,13.609999656677246,12.859999656677246,13.079999923706055,13.550000190734863,653600.0,11.991275787353516
2018-06-18,14.329999923706055,13.420000076293945,13.479999542236328,14.289999961853027,374200.0,12.646149635314941
2018-06-19,15.229999542236328,13.90999984741211,14.100000381469727,15.09000015258789,397800.0,13.354122161865234
2018-06-20,15.899999618530273,15.079999923706055,15.149999618530273,15.539999961853027,457600.0,13.752355575561523
2018-06-21,16.1299991607666,15.140000343322754,15.529999732971191,16.049999237060547,789800.0,14.20368766784668
2018-06-22,16.6299991607666,15.890000343322754,16.040000915527344,16.100000381469727,1527400.0,14.247937202453613
2018-06-25,16.65999984741211,15.920000076293945,16.149999618530273,16.520000457763672,555200.0,14.619623184204102
2018-06-26,16.639999389648438,15.859999656677246,16.520000457763672,16.389999389648438,201000.0,14.50457763671875
2018-06-27,16.549999237060547,15.729999542236328,16.479999542236328,15.739999771118164,235400.0,13.929349899291992
2018-06-28,16.030000686645508,15.63700008392334,15.729999542236328,15.84000015258789,214800.0,14.01784610748291
2018-06-29,16.1299991607666,15.640000343322754,15.960000038146973,15.65999984741211,228700.0,13.858551979064941
2018-07-02,15.9399995803833,15.369999885559082,15.5600004196167,15.899999618530273,239100.0,14.070943832397461
2018-07-03,16.459999084472656,15.930000305175781,15.970000267028809,16.049999237060547,165300.0,14.20368766784668
2018-07-05,16.260000228881836,15.59000015258789,16.1299991607666,16.239999771118164,213600.0,14.371829986572266
2018-07-06,15.75,13.850000381469727,15.140000343322754,13.9399995803833,994300.0,12.336411476135254
2018-07-09,14.64799976348877,13.949999809265137,13.949999809265137,14.210000038146973,234400.0,12.575353622436523
2018-07-10,14.289999961853027,13.770000457763672,14.239999771118164,14.050000190734863,286200.0,12.433758735656738
2018-07-11,14.9399995803833,13.819999694824219,13.9399995803833,14.630000114440918,308000.0,12.947038650512695
2018-07-12,14.779999732971191,14.15999984741211,14.630000114440918,14.699999809265137,384600.0,13.00898551940918
2018-07-13,15.130000114440918,14.479999542236328,14.65999984741211,14.550000190734863,487400.0,12.876240730285645
2018-07-16,14.579999923706055,14.0600004196167,14.430000305175781,14.119999885559082,190800.0,12.495706558227539
2018-07-17,14.3100004196167,13.770000457763672,14.069999694824219,13.869999885559082,640500.0,12.27446460723877
2018-07-18,14.300000190734863,13.699999809265137,13.850000381469727,14.220000267028809,231500.0,12.584202766418457
2018-07-19,15.100000381469727,14.220000267028809,14.25,14.789999961853027,243000.0,13.088632583618164
2018-07-20,15.010000228881836,14.609999656677246,14.720000267028809,14.670000076293945,280400.0,12.982436180114746
2018-07-23,14.619999885559082,13.800000190734863,14.619999885559082,14.069999694824219,225000.0,12.451457023620605
2018-07-24,14.298999786376953,13.859999656677246,14.069999694824219,13.979999542236328,122600.0,12.371809959411621
2018-07-25,14.180000305175781,13.875,14.029999732971191,14.149999618530273,141700.0,12.522254943847656
2018-07-26,14.260000228881836,13.800000190734863,14.149999618530273,14.220000267028809,312700.0,12.584202766418457
2018-07-27,14.420000076293945,13.90999984741211,14.239999771118164,14.140000343322754,161400.0,12.513405799865723
2018-07-30,14.8100004196167,14.170000076293945,14.1899995803833,14.729999542236328,146200.0,13.035533905029297
2018-07-31,15.229999542236328,14.699999809265137,14.8100004196167,15.020000457763672,371500.0,13.29217529296875
2018-08-01,15.880000114440918,14.930000305175781,14.989999771118164,15.050000190734863,308400.0,13.31872272491455
2018-08-02,14.430000305175781,11.989999771118164,14.0,12.029999732971191,1214600.0,10.646127700805664
2018-08-03,12.59000015258789,11.84000015258789,12.109999656677246,11.850000381469727,702200.0,10.486835479736328
2018-08-06,11.850000381469727,10.640000343322754,11.850000381469727,11.130000114440918,1097300.0,9.849660873413086
2018-08-07,11.569999694824219,10.960000038146973,11.199999809265137,11.279999732971191,262200.0,9.982404708862305
2018-08-08,11.850000381469727,11.210000038146973,11.329999923706055,11.729999542236328,245400.0,10.38063907623291
2018-08-09,12.140000343322754,11.510000228881836,11.699999809265137,12.039999961853027,397400.0,10.654979705810547
2018-08-10,11.979999542236328,11.545000076293945,11.979999542236328,11.670000076293945,265200.0,10.32754135131836
2018-08-13,11.710000038146973,11.3100004196167,11.630000114440918,11.600000381469727,476000.0,10.265593528747559
2018-08-14,11.699999809265137,11.180000305175781,11.350000381469727,11.220000267028809,292200.0,10.156963348388672
2018-08-15,11.265000343322754,10.989999771118164,11.220000267028809,11.119999885559082,247300.0,10.066437721252441
2018-08-16,11.619999885559082,11.029999732971191,11.270000457763672,11.140000343322754,438800.0,10.084542274475098
2018-08-17,11.329999923706055,10.960000038146973,11.130000114440918,11.220000267028809,297600.0,10.156963348388672
2018-08-20,11.920000076293945,11.270000457763672,11.319999694824219,11.800000190734863,307400.0,10.682011604309082
2018-08-21,12.039999961853027,11.78499984741211,11.859999656677246,12.0,272300.0,10.863061904907227
2018-08-22,12.430000305175781,11.970000267028809,11.970000267028809,12.329999923706055,237200.0,11.161796569824219
2018-08-23,12.399999618530273,12.180000305175781,12.350000381469727,12.239999771118164,125400.0,11.080324172973633
2018-08-24,12.4399995803833,12.220000267028809,12.34000015258789,12.34000015258789,127400.0,11.170849800109863
2018-08-27,12.529999732971191,12.220000267028809,12.420000076293945,12.270000457763672,196300.0,11.107481956481934
2018-08-28,12.329999923706055,12.069999694824219,12.3100004196167,12.140000343322754,112800.0,10.989798545837402
2018-08-29,12.239999771118164,11.899999618530273,12.149999618530273,12.0600004196167,370100.0,10.917377471923828
2018-08-30,12.109999656677246,11.854999542236328,12.010000228881836,12.0,515800.0,10.863061904907227
2018-08-31,12.239999771118164,11.84000015258789,12.010000228881836,12.229999542236328,234400.0,11.071270942687988
2018-09-04,12.906999588012695,12.210000038146973,12.210000038146973,12.6899995803833,221300.0,11.487688064575195
2018-09-05,13.255999565124512,12.670000076293945,12.670000076293945,13.130000114440918,166200.0,11.886000633239746
2018-09-06,13.210000038146973,12.65999984741211,13.100000381469727,12.710000038146973,181900.0,11.505793571472168
2018-09-07,12.720000267028809,12.140000343322754,12.65999984741211,12.1899995803833,203900.0,11.03506088256836
2018-09-10,12.5,11.987000465393066,12.220000267028809,12.149999618530273,176400.0,10.998849868774414
2018-09-11,12.229999542236328,11.765999794006348,12.149999618530273,11.920000076293945,159500.0,10.790642738342285
2018-09-12,12.25,11.619999885559082,11.9399995803833,12.109999656677246,266100.0,10.962639808654785
2018-09-13,12.25,11.989999771118164,12.180000305175781,12.199999809265137,138500.0,11.044113159179688
2018-09-14,12.430000305175781,12.079999923706055,12.1899995803833,12.289999961853027,119300.0,11.125587463378906
2018-09-17,12.630000114440918,12.239999771118164,12.239999771118164,12.529999732971191,257000.0,11.342846870422363
2018-09-18,12.569999694824219,12.279999732971191,12.5600004196167,12.289999961853027,157500.0,11.125587463378906
2018-09-19,12.550000190734863,12.220000267028809,12.289999961853027,12.479999542236328,212100.0,11.297584533691406
2018-09-20,12.670000076293945,12.414999961853027,12.5600004196167,12.59000015258789,172600.0,11.397163391113281
2018-09-21,12.699999809265137,12.329999923706055,12.579999923706055,12.369999885559082,562300.0,11.198006629943848
2018-09-24,12.336999893188477,11.979999542236328,12.329999923706055,12.25,135700.0,11.089376449584961
2018-09-25,12.319999694824219,11.6899995803833,12.270000457763672,11.720000267028809,226300.0,10.609591484069824
2018-09-26,11.770000457763672,11.430000305175781,11.720000267028809,11.4399995803833,196200.0,10.356119155883789
2018-09-27,11.5600004196167,11.229999542236328,11.520000457763672,11.319999694824219,194900.0,10.247488975524902
2018-09-28,11.394000053405762,11.0,11.329999923706055,11.0600004196167,264100.0,10.01212215423584
2018-10-01,11.520000457763672,10.489999771118164,11.350000381469727,10.569999694824219,385800.0,9.568548202514648
2018-10-02,10.635000228881836,10.01099967956543,10.579999923706055,10.079999923706055,306100.0,9.124972343444824
2018-10-03,10.3100004196167,9.861000061035156,10.149999618530273,10.199999809265137,484300.0,9.233602523803711
2018-10-04,10.199999809265137,9.649999618530273,10.199999809265137,9.720000267028809,402500.0,8.799080848693848
2018-10-05,9.979999542236328,9.109999656677246,9.770000457763672,9.930000305175781,590100.0,8.989184379577637
2018-10-08,10.289999961853027,9.84000015258789,9.9399995803833,10.140000343322754,203200.0,9.179287910461426
2018-10-09,10.180000305175781,9.529999732971191,10.149999618530273,9.59000015258789,245600.0,8.681397438049316
2018-10-10,9.84000015258789,9.210000038146973,9.600000381469727,9.319999694824219,381000.0,8.43697738647461
2018-10-11,9.390000343322754,8.779999732971191,9.25,8.800000190734863,413600.0,7.966245651245117
2018-10-12,9.15999984741211,8.609999656677246,8.989999771118164,8.75,439600.0,7.920982837677002
2018-10-15,9.210000038146973,8.699999809265137,8.819999694824219,9.140000343322754,399300.0,8.274033546447754
2018-10-16,9.220000267028809,8.760000228881836,9.220000267028809,9.109999656677246,297100.0,8.246875762939453
2018-10-17,9.40999984741211,9.020000457763672,9.130000114440918,9.220000267028809,194300.0,8.346452713012695
2018-10-18,9.199999809265137,8.550000190734863,9.180000305175781,8.729999542236328,412000.0,7.902876853942871
2018-10-19,8.84000015258789,8.130000114440918,8.729999542236328,8.210000038146973,516600.0,7.432145595550537
2018-10-22,8.680000305175781,8.25,8.270000457763672,8.4399995803833,327800.0,7.640353679656982
2018-10-23,8.640000343322754,8.229999542236328,8.3100004196167,8.40999984741211,344900.0,7.613195896148682
2018-10-24,8.680000305175781,8.100000381469727,8.420000076293945,8.130000114440918,342200.0,7.359724998474121
2018-10-25,8.279999732971191,7.940000057220459,8.1899995803833,8.15999984741211,629700.0,7.386882305145264
2018-10-26,8.229999542236328,7.78000020980835,8.15999984741211,7.920000076293945,555000.0,7.169620990753174
2018-10-29,8.630000114440918,7.909999847412109,8.020000457763672,8.109999656677246,285700.0,7.341619968414307
2018-10-30,8.520000457763672,7.800000190734863,8.09000015258789,8.489999771118164,394500.0,7.685616493225098
2018-10-31,11.180000305175781,9.350000381469727,10.850000381469727,9.430000305175781,4078300.0,8.5365571975708
2018-11-01,10.890000343322754,9.449999809265137,9.449999809265137,10.479999542236328,2334800.0,9.48707389831543
2018-11-02,11.109999656677246,10.170000076293945,10.449999809265137,10.920000076293945,1746400.0,9.885387420654297
2018-11-05,11.029999732971191,9.34000015258789,11.029999732971191,9.819999694824219,1605800.0,8.889606475830078
2018-11-06,10.770000457763672,9.770000457763672,9.770000457763672,10.1899995803833,1928300.0,9.224549293518066
2018-11-07,10.345000267028809,9.5600004196167,10.300000190734863,10.199999809265137,2272300.0,9.233602523803711
2018-11-08,10.630000114440918,10.0600004196167,10.09000015258789,10.460000038146973,697200.0,9.46897029876709
2018-11-09,10.789999961853027,10.300000190734863,10.420000076293945,10.4399995803833,739200.0,9.4508638381958
2018-11-12,10.550000190734863,10.164999961853027,10.4399995803833,10.380000114440918,331700.0,9.396549224853516
2018-11-13,10.630000114440918,10.34000015258789,10.470000267028809,10.449999809265137,347900.0,9.459917068481445
2018-11-14,10.4399995803833,10.069999694824219,10.319999694824219,10.34000015258789,428000.0,9.599170684814453
2018-11-15,10.420000076293945,9.6899995803833,10.260000228881836,10.369999885559082,829000.0,9.627020835876465
2018-11-16,10.28499984741211,9.979999542236328,10.25,10.15999984741211,511500.0,9.432065963745117
2018-11-19,10.399999618530273,10.0,10.1899995803833,10.0600004196167,478800.0,9.339232444763184
2018-11-20,10.069999694824219,9.239999771118164,9.899999618530273,9.25,553300.0,8.587265014648438
2018-11-21,9.779999732971191,9.140000343322754,9.260000228881836,9.5,742300.0,8.819354057312012
2018-11-23,10.15999984741211,9.470000267028809,9.479999542236328,9.819999694824219,332400.0,9.116426467895508
2018-11-26,10.220000267028809,9.84000015258789,9.9399995803833,10.15999984741211,661700.0,9.432065963745117
2018-11-27,10.430000305175781,9.829999923706055,10.09000015258789,9.920000076293945,486300.0,9.209261894226074
2018-11-28,10.3100004196167,9.65999984741211,9.949999809265137,10.180000305175781,931900.0,9.450634002685547
2018-11-29,10.1899995803833,9.859999656677246,10.130000114440918,9.9399995803833,305800.0,9.227828979492188
2018-11-30,10.100000381469727,9.8100004196167,9.930000305175781,10.020000457763672,571500.0,9.302098274230957
2018-12-03,10.149999618530273,9.869999885559082,10.149999618530273,10.010000228881836,332200.0,9.292814254760742
2018-12-04,10.069999694824219,9.399999618530273,9.989999771118164,9.420000076293945,577600.0,8.745085716247559
2018-12-06,9.489999771118164,9.069999694824219,9.369999885559082,9.460000038146973,693900.0,8.782219886779785
2018-12-07,9.430000305175781,8.6899995803833,9.390000343322754,8.729999542236328,551900.0,8.104520797729492
2018-12-10,8.699999809265137,8.3100004196167,8.699999809265137,8.59000015258789,720200.0,7.974552631378174
2018-12-11,8.770000457763672,8.1899995803833,8.720000267028809,8.279999732971191,352700.0,7.68676233291626
2018-12-12,8.510000228881836,8.180000305175781,8.430000305175781,8.319999694824219,386000.0,7.723896503448486
2018-12-13,8.444999694824219,8.1899995803833,8.34000015258789,8.229999542236328,303300.0,7.640345096588135
2018-12-14,8.229999542236328,7.690000057220459,8.119999885559082,7.760000228881836,572700.0,7.204019546508789
2018-12-17,7.880000114440918,7.590000152587891,7.75,7.730000019073486,688300.0,7.176168918609619
2018-12-18,8.069999694824219,7.659999847412109,7.789999961853027,7.820000171661377,610800.0,7.259720802307129
2018-12-19,7.949999809265137,7.409999847412109,7.849999904632568,7.460000038146973,411300.0,6.92551326751709
2018-12-20,7.610000133514404,7.059999942779541,7.429999828338623,7.150000095367432,636500.0,6.63772439956665
2018-12-21,7.349999904632568,7.03000020980835,7.119999885559082,7.25,940100.0,6.730559349060059
2018-12-24,7.25,7.070000171661377,7.190000057220459,7.099999904632568,283200.0,6.591306209564209
2018-12-26,7.164999961853027,6.909999847412109,7.099999904632568,7.050000190734863,660700.0,6.544888973236084
2018-12-27,7.079999923706055,6.599999904632568,7.0,6.690000057220459,581200.0,6.210681915283203
2018-12-28,7.03000020980835,6.670000076293945,6.670000076293945,6.880000114440918,430400.0,6.387068748474121
2018-12-31,7.03000020980835,6.699999809265137,6.880000114440918,7.0,308200.0,6.498470783233643
2019-01-02,7.429999828338623,6.820000171661377,6.949999809265137,7.420000076293945,325700.0,6.888379096984863
2019-01-03,7.449999809265137,7.099999904632568,7.300000190734863,7.260000228881836,328700.0,6.739842891693115
2019-01-04,7.849999904632568,7.368000030517578,7.380000114440918,7.599999904632568,700000.0,7.055482864379883
2019-01-07,7.989999771118164,7.519999980926514,7.599999904632568,7.909999847412109,336300.0,7.3432722091674805
2019-01-08,8.119999885559082,7.861000061035156,8.0,8.109999656677246,291100.0,7.528943061828613
2019-01-09,8.529999732971191,8.069999694824219,8.180000305175781,8.449999809265137,404100.0,7.844582557678223
2019-01-10,8.4399995803833,8.0600004196167,8.369999885559082,8.350000381469727,350700.0,7.7517476081848145
2019-01-11,8.479999542236328,8.220000267028809,8.3100004196167,8.449999809265137,275900.0,7.844582557678223
2019-01-14,8.739999771118164,8.34000015258789,8.380000114440918,8.5600004196167,391700.0,7.946702480316162
2019-01-15,8.640000343322754,8.369999885559082,8.569999694824219,8.390000343322754,211800.0,7.788881778717041
2019-01-16,8.760000228881836,8.25,8.369999885559082,8.270000457763672,506400.0,7.677479267120361
2019-01-17,8.390000343322754,7.989999771118164,8.270000457763672,8.140000343322754,530500.0,7.556793689727783
2019-01-18,8.220000267028809,8.0,8.119999885559082,8.140000343322754,612600.0,7.556793689727783
2019-01-22,8.069999694824219,7.610000133514404,8.050000190734863,7.71999979019165,378600.0,7.166884899139404
2019-01-23,7.989999771118164,7.760000228881836,7.769999980926514,7.920000076293945,316400.0,7.352555751800537
2019-01-24,8.029999732971191,7.835000038146973,7.920000076293945,7.96999979019165,195000.0,7.39897346496582
2019-01-25,8.270000457763672,7.96999979019165,8.039999961853027,8.1899995803833,550300.0,7.603210926055908
2019-01-28,8.300000190734863,7.989999771118164,8.180000305175781,8.020000457763672,426100.0,7.445391654968262
2019-01-29,8.09000015258789,7.71999979019165,8.020000457763672,7.800000190734863,230600.0,7.241153717041016
2019-01-30,8.09000015258789,7.730000019073486,7.929999828338623,7.96999979019165,309700.0,7.39897346496582
2019-01-31,8.010000228881836,7.820000171661377,7.929999828338623,7.929999828338623,351200.0,7.361839294433594
2019-02-01,7.980000019073486,7.760000228881836,7.929999828338623,7.96999979019165,561900.0,7.39897346496582
2019-02-04,8.069000244140625,7.909999847412109,7.96999979019165,8.050000190734863,251700.0,7.473242282867432
2019-02-05,8.289999961853027,8.069999694824219,8.130000114440918,8.180000305175781,261000.0,7.59392786026001
2019-02-06,8.3100004196167,8.140000343322754,8.180000305175781,8.220000267028809,187100.0,7.631062030792236
2019-02-07,8.359999656677246,7.949999809265137,8.1899995803833,8.140000343322754,359300.0,7.556793689727783
2019-02-08,8.15999984741211,7.960000038146973,8.079999923706055,8.140000343322754,249700.0,7.556793689727783
2019-02-11,8.399999618530273,8.050000190734863,8.180000305175781,8.390000343322754,442700.0,7.788881778717041
2019-02-12,8.600000381469727,8.369999885559082,8.430000305175781,8.529999732971191,319300.0,7.918850898742676
2019-02-13,8.619999885559082,8.430000305175781,8.529999732971191,8.4399995803833,484100.0,7.835299015045166
2019-02-14,8.489999771118164,8.116000175476074,8.149999618530273,8.270000457763672,467000.0,7.921507358551025
2019-02-15,8.460000038146973,8.220000267028809,8.3100004196167,8.300000190734863,299200.0,7.95024299621582
2019-02-19,8.359999656677246,8.199999809265137,8.319999694824219,8.289999961853027,397400.0,7.940664291381836
2019-02-20,9.694999694824219,8.420000076293945,8.5,9.40999984741211,1054900.0,9.013467788696289
2019-02-21,9.529999732971191,9.140000343322754,9.489999771118164,9.399999618530273,505600.0,9.003889083862305
2019-02-22,9.569999694824219,9.050000190734863,9.460000038146973,9.270000457763672,534300.0,8.87936782836914
2019-02-25,9.710000038146973,9.260000228881836,9.380000114440918,9.319999694824219,504800.0,8.927260398864746
2019-02-26,9.369999885559082,9.069999694824219,9.319999694824219,9.329999923706055,263000.0,8.93683910369873
2019-02-27,9.260000228881836,8.729999542236328,9.260000228881836,8.859999656677246,713600.0,8.486644744873047
2019-02-28,8.890000343322754,8.430000305175781,8.859999656677246,8.460000038146973,487500.0,8.103500366210938
2019-03-01,8.640000343322754,8.34000015258789,8.579999923706055,8.420000076293945,491200.0,8.065186500549316
2019-03-04,8.428000450134277,7.809999942779541,8.420000076293945,7.829999923706055,556400.0,7.5000481605529785
2019-03-05,7.909999847412109,7.619999885559082,7.900000095367432,7.800000190734863,592800.0,7.471312999725342
2019-03-06,7.929999828338623,7.369999885559082,7.78000020980835,7.420000076293945,429400.0,7.107325553894043
2019-03-07,7.400000095367432,7.059999942779541,7.400000095367432,7.28000020980835,432200.0,6.973225116729736
2019-03-08,7.309999942779541,7.090000152587891,7.25,7.159999847412109,319400.0,6.85828161239624
2019-03-11,7.449999809265137,7.114999771118164,7.159999847412109,7.25,401800.0,6.944489479064941
2019-03-12,7.269999980926514,6.909999847412109,7.269999980926514,7.050000190734863,268700.0,6.752917289733887
2019-03-13,7.110000133514404,6.960000038146973,7.090000152587891,7.050000190734863,514300.0,6.752917289733887
2019-03-14,7.079999923706055,6.889999866485596,7.050000190734863,6.96999979019165,388200.0,6.67628812789917
2019-03-15,7.25,6.909999847412109,7.019999980926514,7.0,2262200.0,6.705024242401123
2019-03-18,7.139999866485596,6.769999980926514,7.0,6.800000190734863,517200.0,6.513452053070068
2019-03-19,6.909999847412109,6.539999961853027,6.840000152587891,6.559999942779541,554500.0,6.283565521240234
2019-03-20,6.610000133514404,6.090000152587891,6.579999923706055,6.349999904632568,571500.0,6.082414627075195
2019-03-21,6.550000190734863,6.320000171661377,6.320000171661377,6.460000038146973,446800.0,6.187779426574707
2019-03-22,6.46999979019165,6.090000152587891,6.460000038146973,6.190000057220459,530900.0,5.929157257080078
2019-03-25,6.360000133514404,6.010000228881836,6.239999771118164,6.190000057220459,380000.0,5.929157257080078
2019-03-26,6.320000171661377,6.179999828338623,6.190000057220459,6.289999961853027,324300.0,6.024942874908447
2019-03-27,6.630000114440918,6.260000228881836,6.289999961853027,6.510000228881836,358900.0,6.235672473907471
2019-03-28,6.789999961853027,6.550000190734863,6.610000133514404,6.630000114440918,328500.0,6.350615978240967
2019-03-29,6.800000190734863,6.53000020980835,6.679999828338623,6.53000020980835,607000.0,6.2548298835754395
2019-04-01,6.769999980926514,6.559999942779541,6.579999923706055,6.670000076293945,233500.0,6.388930320739746
2019-04-02,6.849999904632568,6.650000095367432,6.670000076293945,6.760000228881836,267600.0,6.475137710571289
2019-04-03,6.940000057220459,6.599999904632568,6.800000190734863,6.599999904632568,380600.0,6.321879863739014
2019-04-04,6.789999961853027,6.610000133514404,6.610000133514404,6.78000020980835,259100.0,6.494295120239258
2019-04-05,6.940000057220459,6.760000228881836,6.769999980926514,6.929999828338623,106300.0,6.637973785400391
2019-04-08,7.139999866485596,6.809999942779541,6.880000114440918,7.090000152587891,220500.0,6.791231632232666
2019-04-09,7.058000087738037,6.820000171661377,7.019999980926514,6.820000171661377,485800.0,6.532609462738037
2019-04-10,6.980000019073486,6.789999961853027,6.849999904632568,6.920000076293945,193600.0,6.6283955574035645
2019-04-11,7.159999847412109,6.925000190734863,6.929999828338623,7.070000171661377,159100.0,6.7720746994018555
2019-04-12,7.264999866485596,7.099999904632568,7.139999866485596,7.25,126000.0,6.944489479064941
2019-04-15,7.320000171661377,6.869999885559082,7.25,6.920000076293945,260000.0,6.6283955574035645
2019-04-16,6.989999771118164,6.769999980926514,6.949999809265137,6.860000133514404,252800.0,6.570923805236816
2019-04-17,7.199999809265137,6.860000133514404,6.860000133514404,7.039999961853027,379300.0,6.743338584899902
2019-04-18,7.159999847412109,6.940000057220459,7.0,7.0,322200.0,6.705024242401123
2019-04-22,7.150000095367432,6.699999809265137,7.0,6.71999979019165,346900.0,6.436822891235352
2019-04-23,6.860000133514404,6.559999942779541,6.710000038146973,6.840000152587891,217900.0,6.551766395568848
2019-04-24,7.0,6.7789998054504395,6.840000152587891,7.0,162300.0,6.705024242401123
2019-04-25,6.920000076293945,6.505000114440918,6.920000076293945,6.630000114440918,694200.0,6.350615978240967
2019-04-26,6.909999847412109,6.559999942779541,6.579999923706055,6.869999885559082,139200.0,6.580502033233643
2019-04-29,7.0,6.800000190734863,6.869999885559082,6.980000019073486,159400.0,6.685866832733154
2019-04-30,7.070000171661377,6.889999866485596,7.0,6.989999771118164,376000.0,6.6954450607299805
2019-05-01,7.099999904632568,6.400000095367432,7.059999942779541,6.489999771118164,1834100.0,6.216515064239502
2019-05-02,6.5289998054504395,6.019999980926514,6.510000228881836,6.239999771118164,554200.0,5.977049827575684
2019-05-03,6.670000076293945,6.28000020980835,6.28000020980835,6.659999847412109,357800.0,6.3793511390686035
2019-05-06,6.769999980926514,6.480000019073486,6.489999771118164,6.690000057220459,563200.0,6.408087253570557
2019-05-07,6.710000038146973,6.489999771118164,6.599999904632568,6.539999961853027,348900.0,6.264408111572266
2019-05-08,6.605000019073486,6.170000076293945,6.590000152587891,6.380000114440918,469400.0,6.111150741577148
2019-05-09,6.485000133514404,6.21999979019165,6.269999980926514,6.400000095367432,265900.0,6.130307674407959
2019-05-10,6.46999979019165,6.269999980926514,6.369999885559082,6.449999809265137,243500.0,6.178200721740723
2019-05-13,6.349999904632568,6.110000133514404,6.309999942779541,6.170000076293945,519000.0,5.909999847412109
2019-05-14,5.980000019073486,5.650000095367432,5.900000095367432,5.940000057220459,506000.0,5.940000057220459
2019-05-15,6.0,5.710000038146973,5.929999828338623,5.96999979019165,214300.0,5.96999979019165
2019-05-16,6.010000228881836,5.829999923706055,5.900000095367432,5.889999866485596,322500.0,5.889999866485596
2019-05-17,5.849999904632568,5.320000171661377,5.800000190734863,5.449999809265137,774300.0,5.449999809265137
2019-05-20,5.46999979019165,5.269999980926514,5.360000133514404,5.400000095367432,274400.0,5.400000095367432
2019-05-21,5.489999771118164,5.360000133514404,5.429999828338623,5.480000019073486,200000.0,5.480000019073486
2019-05-22,5.730000019073486,5.340000152587891,5.449999809265137,5.579999923706055,890800.0,5.579999923706055
2019-05-23,5.510000228881836,5.28000020980835,5.510000228881836,5.349999904632568,282300.0,5.349999904632568
2019-05-24,5.414999961853027,5.25,5.409999847412109,5.340000152587891,163700.0,5.340000152587891
