Date,High,Low,Open,Close,Volume,Adj Close
2016-08-19,25.0,24.899999618530273,24.950000762939453,24.93000030517578,255800.0,22.58841323852539
2016-08-22,24.969999313354492,24.875,24.950000762939453,24.93000030517578,350600.0,22.58841323852539
2016-08-23,25.0,24.90999984741211,25.0,24.979999542236328,444200.0,22.633716583251953
2016-08-24,25.010000228881836,24.950000762939453,24.989999771118164,25.0,344400.0,22.651836395263672
2016-08-25,25.020000457763672,24.969999313354492,25.010000228881836,25.010000228881836,359800.0,22.660898208618164
2016-08-26,25.040000915527344,24.969999313354492,25.010000228881836,25.010000228881836,255100.0,22.660898208618164
2016-08-29,25.079999923706055,25.020000457763672,25.049999237060547,25.049999237060547,443900.0,22.697139739990234
2016-08-30,25.15999984741211,25.059999465942383,25.06999969482422,25.149999618530273,510700.0,22.787748336791992
2016-08-31,25.190000534057617,25.100000381469727,25.15999984741211,25.15999984741211,585600.0,22.796810150146484
2016-09-01,25.170000076293945,25.030000686645508,25.139999389648438,25.06999969482422,238700.0,22.715261459350586
2016-09-02,25.15999984741211,25.040000915527344,25.149999618530273,25.06999969482422,364400.0,22.715261459350586
2016-09-06,25.149999618530273,25.100000381469727,25.1299991607666,25.108999252319336,324900.0,22.750598907470703
2016-09-07,25.15999984741211,25.089000701904297,25.149999618530273,25.149999618530273,393800.0,22.787748336791992
2016-09-08,25.15999984741211,25.09000015258789,25.15999984741211,25.108999252319336,272300.0,22.750598907470703
2016-09-09,25.1200008392334,24.799999237060547,25.1200008392334,24.8799991607666,468500.0,22.543109893798828
2016-09-12,25.06999969482422,24.850000381469727,24.989999771118164,24.940000534057617,385200.0,22.597475051879883
2016-09-13,24.920000076293945,24.670000076293945,24.920000076293945,24.760000228881836,238700.0,22.434383392333984
2016-09-14,24.889999389648438,24.799999237060547,24.850000381469727,24.889999389648438,214500.0,22.552169799804688
2016-09-15,25.0,24.799999237060547,24.8700008392334,24.950000762939453,232000.0,22.606534957885742
2016-09-16,25.06999969482422,24.84000015258789,25.0,24.969999313354492,225100.0,22.62465476989746
2016-09-19,25.059999465942383,25.010000228881836,25.040000915527344,25.040000915527344,130400.0,22.688079833984375
2016-09-20,25.100000381469727,25.020000457763672,25.100000381469727,25.020000457763672,274000.0,22.66996192932129
2016-09-21,25.18000030517578,25.020000457763672,25.100000381469727,25.110000610351562,305300.0,22.751506805419922
2016-09-22,25.229999542236328,25.100000381469727,25.170000076293945,25.190000534057617,405800.0,22.823991775512695
2016-09-23,25.3799991607666,25.139999389648438,25.200000762939453,25.34000015258789,214400.0,22.95990562438965
2016-09-26,25.299999237060547,25.170000076293945,25.299999237060547,25.18000030517578,117600.0,22.814929962158203
2016-09-27,25.290000915527344,25.149999618530273,25.260000228881836,25.25,170100.0,22.87835693359375
2016-09-28,25.290000915527344,25.209999084472656,25.25,25.209999084472656,159400.0,22.842111587524414
2016-09-29,25.280000686645508,24.899999618530273,25.270000457763672,24.920000076293945,143400.0,22.579349517822266
2016-09-30,25.200000762939453,25.010000228881836,25.059999465942383,25.040000915527344,113600.0,22.688079833984375
2016-10-03,25.1299991607666,25.049999237060547,25.1200008392334,25.049999237060547,106500.0,22.697139739990234
2016-10-04,25.100000381469727,24.93000030517578,25.100000381469727,24.969999313354492,133800.0,22.62465476989746
2016-10-05,25.1299991607666,25.010000228881836,25.010000228881836,25.079999923706055,157300.0,22.724323272705078
2016-10-06,25.110000610351562,25.0,25.110000610351562,25.040000915527344,176400.0,22.688079833984375
2016-10-07,25.09000015258789,25.0,25.079999923706055,25.059999465942383,111800.0,22.706199645996094
2016-10-10,25.059999465942383,24.889999389648438,25.059999465942383,24.90999984741211,146400.0,22.57029151916504
2016-10-11,24.950000762939453,24.760000228881836,24.950000762939453,24.799999237060547,123500.0,22.470623016357422
2016-10-12,24.899999618530273,24.760000228881836,24.889999389648438,24.829999923706055,89300.0,22.497804641723633
2016-10-13,24.950000762939453,24.84000015258789,24.950000762939453,24.8700008392334,131700.0,22.53404998779297
2016-10-14,25.0,24.899999618530273,24.950000762939453,24.90999984741211,122900.0,22.57029151916504
2016-10-17,25.049999237060547,24.979999542236328,25.030000686645508,25.020000457763672,145200.0,22.66996192932129
2016-10-18,25.14900016784668,25.020000457763672,25.1200008392334,25.059999465942383,89200.0,22.706199645996094
2016-10-19,25.149999618530273,25.059999465942383,25.149999618530273,25.139999389648438,84800.0,22.778688430786133
2016-10-20,25.190000534057617,25.09000015258789,25.139999389648438,25.18000030517578,79200.0,22.814929962158203
2016-10-21,25.19099998474121,25.100000381469727,25.190000534057617,25.110000610351562,92100.0,22.751506805419922
2016-10-24,25.190000534057617,25.079999923706055,25.190000534057617,25.15999984741211,119300.0,22.796810150146484
2016-10-25,25.200000762939453,25.1200008392334,25.190000534057617,25.190000534057617,74800.0,22.823991775512695
2016-10-26,25.239999771118164,25.1299991607666,25.200000762939453,25.190000534057617,183300.0,22.823991775512695
2016-10-27,25.18000030517578,24.889999389648438,25.18000030517578,25.100000381469727,105700.0,22.742448806762695
2016-10-28,25.149999618530273,25.010000228881836,25.139999389648438,25.059999465942383,75600.0,22.706199645996094
2016-10-31,25.09000015258789,24.799999237060547,25.09000015258789,24.889999389648438,113500.0,22.552169799804688
2016-11-01,24.940000534057617,24.530000686645508,24.90999984741211,24.729999542236328,151500.0,22.407197952270508
2016-11-02,24.809999465942383,24.729999542236328,24.75,24.780000686645508,95400.0,22.452503204345703
2016-11-03,24.829999923706055,24.65999984741211,24.829999923706055,24.68000030517578,98800.0,22.361896514892578
2016-11-04,24.770000457763672,24.549999237060547,24.700000762939453,24.600000381469727,113900.0,22.289409637451172
2016-11-07,24.84000015258789,24.719999313354492,24.75,24.739999771118164,66800.0,22.416259765625
2016-11-08,24.90999984741211,24.700000762939453,24.8799991607666,24.770000457763672,66300.0,22.44344139099121
2016-11-09,24.700000762939453,23.809999465942383,24.690000534057617,24.0,156300.0,21.74576759338379
2016-11-10,24.450000762939453,23.1299991607666,24.239999771118164,23.559999465942383,311000.0,21.347091674804688
2016-11-11,23.649999618530273,22.424999237060547,23.649999618530273,22.56999969482422,216600.0,20.45008087158203
2016-11-14,23.0,21.1299991607666,22.649999618530273,21.3700008392334,291800.0,19.362791061401367
2016-11-15,22.395000457763672,21.59000015258789,21.649999618530273,22.31999969482422,172300.0,20.223562240600586
2016-11-16,23.440000534057617,22.690000534057617,22.700000762939453,23.190000534057617,187100.0,21.011844635009766
2016-11-17,23.84000015258789,22.940000534057617,23.649999618530273,23.09000015258789,301200.0,20.92123794555664
2016-11-18,23.25,22.760000228881836,23.200000762939453,22.950000762939453,146200.0,20.794387817382812
2016-11-21,22.989999771118164,22.6299991607666,22.950000762939453,22.670000076293945,108100.0,20.54068946838379
2016-11-22,23.149999618530273,22.670000076293945,22.770000457763672,23.010000228881836,114000.0,20.848752975463867
2016-11-23,23.049999237060547,22.719999313354492,23.040000915527344,22.950000762939453,98100.0,20.794387817382812
2016-11-25,23.400999069213867,23.18000030517578,23.18000030517578,23.260000228881836,56300.0,21.075271606445312
2016-11-28,23.474000930786133,23.1200008392334,23.3799991607666,23.290000915527344,161100.0,21.102453231811523
2016-11-29,23.540000915527344,23.290000915527344,23.5,23.530000686645508,188800.0,21.31991195678711
2016-11-30,23.399999618530273,22.739999771118164,23.399999618530273,22.90999984741211,104300.0,20.758146286010742
2016-12-01,22.8799991607666,22.309999465942383,22.8799991607666,22.530000686645508,152500.0,20.413837432861328
2016-12-02,22.649999618530273,22.280000686645508,22.530000686645508,22.540000915527344,91000.0,20.42289924621582
2016-12-05,22.707000732421875,22.170000076293945,22.540000915527344,22.280000686645508,98500.0,20.18731689453125
2016-12-06,22.579999923706055,22.280000686645508,22.440000534057617,22.399999618530273,58200.0,20.296045303344727
2016-12-07,22.538999557495117,22.25,22.43000030517578,22.40999984741211,88700.0,20.305105209350586
2016-12-08,22.530000686645508,22.239999771118164,22.440000534057617,22.25,128000.0,20.160133361816406
2016-12-09,22.309999465942383,22.010000228881836,22.239999771118164,22.18000030517578,140200.0,20.096710205078125
2016-12-12,21.75,21.1200008392334,21.690000534057617,21.280000686645508,197000.0,19.2812442779541
2016-12-13,21.499000549316406,21.020000457763672,21.309999465942383,21.1200008392334,140700.0,19.136274337768555
2016-12-14,21.3799991607666,21.079999923706055,21.219999313354492,21.110000610351562,173300.0,19.127214431762695
2016-12-15,21.108999252319336,20.809999465942383,21.100000381469727,21.0,187500.0,19.027542114257812
2016-12-16,21.219999313354492,21.040000915527344,21.219999313354492,21.079999923706055,132900.0,19.10002899169922
2016-12-19,21.299999237060547,21.108999252319336,21.190000534057617,21.170000076293945,209000.0,19.181577682495117
2016-12-20,21.350000381469727,21.149999618530273,21.239999771118164,21.260000228881836,200300.0,19.26312255859375
2016-12-21,21.450000762939453,21.299999237060547,21.3700008392334,21.420000076293945,145300.0,19.40809440612793
2016-12-22,21.73699951171875,21.530000686645508,21.579999923706055,21.700000762939453,135700.0,19.661794662475586
2016-12-23,21.90999984741211,21.670000076293945,21.809999465942383,21.760000228881836,107900.0,19.716157913208008
2016-12-27,21.829999923706055,21.600000381469727,21.829999923706055,21.65999984741211,154800.0,19.625553131103516
2016-12-28,21.739999771118164,21.459999084472656,21.690000534057617,21.610000610351562,142300.0,19.58024787902832
2016-12-29,21.642000198364258,21.530000686645508,21.610000610351562,21.610000610351562,123400.0,19.58024787902832
2016-12-30,21.729999542236328,21.559999465942383,21.6299991607666,21.610000610351562,121400.0,19.58024787902832
2017-01-03,21.969999313354492,21.610000610351562,21.610000610351562,21.850000381469727,86700.0,19.797706604003906
2017-01-04,22.41699981689453,21.959999084472656,22.0,22.260000228881836,103700.0,20.16919708251953
2017-01-05,22.429000854492188,22.110000610351562,22.329999923706055,22.290000915527344,117100.0,20.196380615234375
2017-01-06,22.40999984741211,22.23200035095215,22.3799991607666,22.371999740600586,102800.0,20.270675659179688
2017-01-09,22.56999969482422,22.260000228881836,22.440000534057617,22.489999771118164,112400.0,20.377593994140625
2017-01-10,22.6299991607666,22.530000686645508,22.549999237060547,22.559999465942383,132200.0,20.44101905822754
2017-01-11,22.75,22.6200008392334,22.709999084472656,22.75,118900.0,20.61317253112793
2017-01-12,22.829999923706055,22.700000762939453,22.809999465942383,22.81999969482422,96100.0,20.676597595214844
2017-01-13,22.8799991607666,22.75,22.8700008392334,22.8799991607666,94600.0,20.730960845947266
2017-01-17,23.18000030517578,22.920000076293945,22.989999771118164,23.059999465942383,144400.0,20.894058227539062
2017-01-18,23.049999237060547,22.950000762939453,23.049999237060547,23.0,94400.0,20.83969497680664
2017-01-19,22.989999771118164,22.68000030517578,22.969999313354492,22.760000228881836,140700.0,20.622234344482422
2017-01-20,22.920000076293945,22.68000030517578,22.760000228881836,22.809999465942383,58000.0,20.66753578186035
2017-01-23,23.011999130249023,22.790000915527344,22.920000076293945,22.972000122070312,692600.0,20.8143253326416
2017-01-24,23.079999923706055,22.882999420166016,23.010000228881836,22.959999084472656,152000.0,20.80344581604004
2017-01-25,22.91699981689453,22.6200008392334,22.899999618530273,22.760000228881836,87400.0,20.622234344482422
2017-01-26,22.84000015258789,22.700000762939453,22.760000228881836,22.739999771118164,96000.0,20.60411262512207
2017-01-27,22.790000915527344,22.719999313354492,22.739999771118164,22.719999313354492,55300.0,20.585988998413086
2017-01-30,22.829999923706055,22.690000534057617,22.739999771118164,22.790000915527344,42300.0,20.649417877197266
2017-01-31,22.90999984741211,22.709999084472656,22.729999542236328,22.770000457763672,104400.0,20.631296157836914
2017-02-01,22.84000015258789,22.700000762939453,22.75,22.81999969482422,42500.0,20.676597595214844
2017-02-02,22.98900032043457,22.8700008392334,22.8799991607666,22.93000030517578,27200.0,20.77626609802246
2017-02-03,23.100000381469727,22.950000762939453,23.0,23.059999465942383,86400.0,20.894058227539062
2017-02-06,23.059999465942383,22.926000595092773,23.059999465942383,22.969999313354492,142400.0,20.812509536743164
2017-02-07,23.139999389648438,23.030000686645508,23.06999969482422,23.09000015258789,97100.0,20.92123794555664
2017-02-08,23.25,23.139999389648438,23.170000076293945,23.219999313354492,164600.0,21.03902816772461
2017-02-09,23.28499984741211,23.170000076293945,23.25,23.239999771118164,116700.0,21.05714988708496
2017-02-10,23.309999465942383,23.200000762939453,23.280000686645508,23.290000915527344,275100.0,21.102453231811523
2017-02-13,23.31999969482422,23.25,23.290000915527344,23.309999465942383,103600.0,21.120574951171875
2017-02-14,23.3700008392334,23.200000762939453,23.34000015258789,23.290000915527344,126600.0,21.102453231811523
2017-02-15,23.270000457763672,23.110000610351562,23.239999771118164,23.1200008392334,307000.0,20.948421478271484
2017-02-16,23.190000534057617,23.049999237060547,23.190000534057617,23.09000015258789,113700.0,20.92123794555664
2017-02-17,23.190000534057617,23.100000381469727,23.190000534057617,23.110000610351562,104900.0,20.939361572265625
2017-02-21,23.242000579833984,23.1299991607666,23.229999542236328,23.18000030517578,370300.0,21.002784729003906
2017-02-22,23.239999771118164,23.1299991607666,23.200000762939453,23.18000030517578,168600.0,21.002784729003906
2017-02-23,23.34000015258789,23.200000762939453,23.270000457763672,23.329999923706055,122600.0,21.138696670532227
2017-02-24,23.399999618530273,23.25,23.389999389648438,23.399999618530273,147100.0,21.20212173461914
2017-02-27,23.450000762939453,23.329999923706055,23.3799991607666,23.3700008392334,51500.0,21.17494010925293
2017-02-28,23.3700008392334,23.260000228881836,23.3700008392334,23.3700008392334,115200.0,21.17494010925293
2017-03-01,23.299999237060547,23.079999923706055,23.280000686645508,23.170000076293945,155300.0,20.993724822998047
2017-03-02,23.209999084472656,23.152000427246094,23.170000076293945,23.15999984741211,90300.0,20.984661102294922
2017-03-03,23.239999771118164,23.110000610351562,23.200000762939453,23.165000915527344,113300.0,20.989194869995117
2017-03-06,23.239999771118164,23.100000381469727,23.200000762939453,23.239999771118164,139800.0,21.05714988708496
2017-03-07,23.299999237060547,23.149999618530273,23.260000228881836,23.239999771118164,123800.0,21.05714988708496
2017-03-08,23.229999542236328,23.1200008392334,23.229999542236328,23.139999389648438,282900.0,20.966543197631836
2017-03-09,23.100000381469727,22.899999618530273,23.100000381469727,22.959999084472656,175700.0,20.80344581604004
2017-03-10,22.829999923706055,22.549999237060547,22.829999923706055,22.690000534057617,212800.0,20.558809280395508
2017-03-13,22.770000457763672,22.65999984741211,22.770000457763672,22.670000076293945,82900.0,20.54068946838379
2017-03-14,22.780000686645508,22.670000076293945,22.75,22.780000686645508,81900.0,20.640357971191406
2017-03-15,23.0,22.719999313354492,22.81999969482422,22.969999313354492,117400.0,20.812509536743164
2017-03-16,23.100000381469727,22.90999984741211,23.06999969482422,23.010000228881836,130100.0,20.848752975463867
2017-03-17,23.100000381469727,22.959999084472656,23.010000228881836,23.040000915527344,85200.0,20.875934600830078
2017-03-20,23.1200008392334,23.040000915527344,23.040000915527344,23.06999969482422,122800.0,20.903118133544922
2017-03-21,23.1200008392334,23.010000228881836,23.1200008392334,23.059999465942383,86600.0,20.894058227539062
2017-03-22,23.100000381469727,23.040000915527344,23.079999923706055,23.059999465942383,73800.0,20.894058227539062
2017-03-23,23.1299991607666,23.0,23.079999923706055,23.110000610351562,144700.0,20.939361572265625
2017-03-24,23.170000076293945,23.049999237060547,23.149999618530273,23.149999618530273,167500.0,20.975601196289062
2017-03-27,23.25,23.15999984741211,23.209999084472656,23.229999542236328,180000.0,21.0480899810791
2017-03-28,23.299999237060547,23.200000762939453,23.280000686645508,23.270000457763672,110800.0,21.084331512451172
2017-03-29,23.3799991607666,23.270000457763672,23.350000381469727,23.3799991607666,86500.0,21.183998107910156
2017-03-30,23.430999755859375,23.31999969482422,23.399999618530273,23.350000381469727,85500.0,21.156816482543945
2017-03-31,23.420000076293945,23.3700008392334,23.389999389648438,23.399999618530273,89100.0,21.20212173461914
2017-04-03,23.6200008392334,23.440000534057617,23.440000534057617,23.549999237060547,79800.0,21.338031768798828
2017-04-04,23.610000610351562,23.450000762939453,23.503999710083008,23.530000686645508,92400.0,21.31991195678711
2017-04-05,23.6200008392334,23.530000686645508,23.530000686645508,23.549999237060547,187600.0,21.338031768798828
2017-04-06,23.809999465942383,23.56999969482422,23.56999969482422,23.799999237060547,132600.0,21.564552307128906
2017-04-07,23.889999389648438,23.799999237060547,23.889999389648438,23.809999465942383,114800.0,21.573610305786133
2017-04-10,23.905000686645508,23.763999938964844,23.809999465942383,23.84000015258789,180700.0,21.600793838500977
2017-04-11,23.84000015258789,23.75,23.84000015258789,23.780000686645508,97400.0,21.546430587768555
2017-04-12,23.889999389648438,23.81999969482422,23.8799991607666,23.829999923706055,65700.0,21.591732025146484
2017-04-13,23.950000762939453,23.850000381469727,23.950000762939453,23.940000534057617,170000.0,21.691402435302734
2017-04-17,23.940000534057617,23.84000015258789,23.940000534057617,23.899999618530273,77500.0,21.655155181884766
2017-04-18,23.899999618530273,23.700000762939453,23.899999618530273,23.799999237060547,124200.0,21.564552307128906
2017-04-19,23.799999237060547,23.700000762939453,23.780000686645508,23.75,196300.0,21.51924705505371
2017-04-20,23.729999542236328,23.601999282836914,23.700000762939453,23.65999984741211,134800.0,21.437700271606445
2017-04-21,23.75,23.6299991607666,23.700000762939453,23.670000076293945,173100.0,21.446760177612305
2017-04-24,23.84000015258789,23.700000762939453,23.719999313354492,23.799999237060547,127600.0,21.564552307128906
2017-04-25,23.899999618530273,23.799999237060547,23.8799991607666,23.809999465942383,110300.0,21.573610305786133
2017-04-26,23.940000534057617,23.860000610351562,23.899999618530273,23.860000610351562,101300.0,21.618915557861328
2017-04-27,23.989999771118164,23.92099952697754,23.940000534057617,23.950000762939453,72600.0,21.700462341308594
2017-04-28,23.989999771118164,23.860000610351562,23.989999771118164,23.920000076293945,62200.0,21.67327880859375
2017-05-01,23.940000534057617,23.829999923706055,23.940000534057617,23.84000015258789,61200.0,21.600793838500977
2017-05-02,23.93000030517578,23.850000381469727,23.850000381469727,23.889999389648438,67100.0,21.646095275878906
2017-05-03,23.969999313354492,23.899999618530273,23.899999618530273,23.969999313354492,65300.0,21.718582153320312
2017-05-04,23.969999313354492,23.899999618530273,23.969999313354492,23.920000076293945,52800.0,21.67327880859375
2017-05-05,23.969999313354492,23.920000076293945,23.950000762939453,23.940000534057617,55400.0,21.691402435302734
2017-05-08,24.06999969482422,23.948999404907227,24.020000457763672,23.959999084472656,109100.0,21.709518432617188
2017-05-09,23.989999771118164,23.899999618530273,23.959999084472656,23.899999618530273,87600.0,21.655155181884766
2017-05-10,24.059999465942383,23.950000762939453,23.989999771118164,24.059999465942383,103700.0,21.800127029418945
2017-05-11,24.059999465942383,23.950000762939453,24.049999237060547,24.059999465942383,83300.0,21.800127029418945
2017-05-12,24.139999389648438,24.0,24.049999237060547,24.1200008392334,77900.0,21.854494094848633
2017-05-15,24.170000076293945,24.049999237060547,24.149999618530273,24.059999465942383,130400.0,21.800127029418945
2017-05-16,24.149999618530273,23.958999633789062,24.059999465942383,24.020000457763672,150300.0,21.76388931274414
2017-05-17,24.020000457763672,23.969999313354492,24.010000228881836,24.010000228881836,86200.0,21.75482749938965
2017-05-18,24.049999237060547,23.959999084472656,23.979999542236328,24.049999237060547,101000.0,21.791067123413086
2017-05-19,24.09000015258789,24.049999237060547,24.049999237060547,24.09000015258789,104200.0,21.82731056213379
2017-05-22,24.1299991607666,24.059999465942383,24.1200008392334,24.059999465942383,144400.0,21.800127029418945
2017-05-23,24.15999984741211,24.06999969482422,24.149999618530273,24.1200008392334,127000.0,21.854494094848633
2017-05-24,24.190000534057617,24.1200008392334,24.1200008392334,24.139999389648438,114200.0,21.87261390686035
2017-05-25,24.190000534057617,24.1299991607666,24.15999984741211,24.190000534057617,82900.0,21.91792106628418
2017-05-26,24.219999313354492,24.15999984741211,24.200000762939453,24.219999313354492,67700.0,21.94510269165039
2017-05-30,24.3799991607666,24.15999984741211,24.200000762939453,24.329999923706055,62200.0,22.044769287109375
2017-05-31,24.329999923706055,24.25,24.329999923706055,24.309999465942383,94200.0,22.026647567749023
2017-06-01,24.389999389648438,24.309999465942383,24.350000381469727,24.389999389648438,121000.0,22.09913444519043
2017-06-02,24.540000915527344,24.459999084472656,24.5,24.530000686645508,59200.0,22.225984573364258
2017-06-05,24.579999923706055,24.440000534057617,24.549999237060547,24.579999923706055,141400.0,22.27128791809082
2017-06-06,24.719999313354492,24.610000610351562,24.6200008392334,24.709999084472656,105100.0,22.389076232910156
2017-06-07,24.829999923706055,24.709999084472656,24.799999237060547,24.729999542236328,134900.0,22.407197952270508
2017-06-08,24.850000381469727,24.610000610351562,24.799999237060547,24.780000686645508,191200.0,22.452503204345703
2017-06-09,24.899999618530273,24.739999771118164,24.780000686645508,24.899999618530273,169900.0,22.56123161315918
2017-06-12,24.68000030517578,24.450000762939453,24.65999984741211,24.530000686645508,154000.0,22.225984573364258
2017-06-13,24.649999618530273,24.530000686645508,24.530000686645508,24.549999237060547,81700.0,22.24410629272461
2017-06-14,24.65999984741211,24.43000030517578,24.549999237060547,24.469999313354492,94600.0,22.171619415283203
2017-06-15,24.639999389648438,24.459999084472656,24.479999542236328,24.540000915527344,168800.0,22.23504638671875
2017-06-16,24.540000915527344,24.420000076293945,24.540000915527344,24.420000076293945,108300.0,22.12631607055664
2017-06-19,24.510000228881836,24.399999618530273,24.420000076293945,24.459999084472656,137600.0,22.16255760192871
2017-06-20,24.540000915527344,24.489999771118164,24.540000915527344,24.5,120900.0,22.19879913330078
2017-06-21,24.610000610351562,24.510000228881836,24.56999969482422,24.520000457763672,138800.0,22.216922760009766
2017-06-22,24.68000030517578,24.549999237060547,24.6200008392334,24.579999923706055,110500.0,22.27128791809082
2017-06-23,24.700000762939453,24.579999923706055,24.579999923706055,24.700000762939453,111100.0,22.380014419555664
2017-06-26,24.81999969482422,24.729999542236328,24.81999969482422,24.790000915527344,112600.0,22.461565017700195
2017-06-27,24.850000381469727,24.639999389648438,24.790000915527344,24.709999084472656,288200.0,22.389076232910156
2017-06-28,24.799999237060547,24.65999984741211,24.739999771118164,24.799999237060547,154100.0,22.470623016357422
2017-06-29,24.790000915527344,24.639999389648438,24.790000915527344,24.649999618530273,85700.0,22.334712982177734
2017-06-30,24.690000534057617,24.600000381469727,24.600000381469727,24.670000076293945,112200.0,22.352832794189453
2017-07-03,24.729999542236328,24.65399932861328,24.68000030517578,24.729999542236328,28700.0,22.407197952270508
2017-07-05,24.780000686645508,24.719999313354492,24.760000228881836,24.770000457763672,95700.0,22.44344139099121
2017-07-06,24.75,24.65999984741211,24.700000762939453,24.670000076293945,115800.0,22.352832794189453
2017-07-07,24.780000686645508,24.670000076293945,24.670000076293945,24.780000686645508,53900.0,22.452503204345703
2017-07-10,24.770000457763672,24.659000396728516,24.729999542236328,24.770000457763672,58600.0,22.44344139099121
2017-07-11,24.770000457763672,24.6200008392334,24.770000457763672,24.649999618530273,97200.0,22.334712982177734
2017-07-12,24.799999237060547,24.729999542236328,24.75,24.799999237060547,123000.0,22.470623016357422
2017-07-13,24.940000534057617,24.860000610351562,24.899999618530273,24.940000534057617,199700.0,22.597475051879883
2017-07-14,24.940000534057617,24.84000015258789,24.940000534057617,24.8799991607666,153700.0,22.543109893798828
2017-07-17,24.92099952697754,24.81999969482422,24.920000076293945,24.860000610351562,114900.0,22.524988174438477
2017-07-18,24.860000610351562,24.81999969482422,24.84000015258789,24.860000610351562,96000.0,22.524988174438477
2017-07-19,24.899999618530273,24.860000610351562,24.860000610351562,24.8799991607666,77600.0,22.543109893798828
2017-07-20,24.899999618530273,24.860000610351562,24.8700008392334,24.899999618530273,64100.0,22.56123161315918
2017-07-21,24.940000534057617,24.8799991607666,24.899999618530273,24.940000534057617,102900.0,22.597475051879883
2017-07-24,24.940000534057617,24.899999618530273,24.899999618530273,24.90999984741211,72100.0,22.57029151916504
2017-07-25,24.93400001525879,24.799999237060547,24.93000030517578,24.81999969482422,107600.0,22.488744735717773
2017-07-26,24.8700008392334,24.799999237060547,24.809999465942383,24.850000381469727,106900.0,22.515926361083984
2017-07-27,24.940000534057617,24.8700008392334,24.899999618530273,24.940000534057617,42400.0,22.597475051879883
2017-07-28,24.940000534057617,24.860000610351562,24.860000610351562,24.940000534057617,61600.0,22.597475051879883
2017-07-31,24.950000762939453,24.860000610351562,24.940000534057617,24.90999984741211,64400.0,22.57029151916504
2017-08-01,24.979999542236328,24.90999984741211,24.969999313354492,24.950000762939453,98500.0,22.606534957885742
2017-08-02,24.979999542236328,24.90999984741211,24.950000762939453,24.940000534057617,84000.0,22.597475051879883
2017-08-03,25.0,24.940000534057617,24.940000534057617,25.0,58800.0,22.651836395263672
2017-08-04,25.104999542236328,25.020000457763672,25.09000015258789,25.049999237060547,281200.0,22.697139739990234
2017-08-07,25.06800079345703,24.950000762939453,25.049999237060547,25.0,69000.0,22.651836395263672
2017-08-08,24.979999542236328,24.90999984741211,24.90999984741211,24.90999984741211,136700.0,22.57029151916504
2017-08-09,24.950000762939453,24.850000381469727,24.90999984741211,24.889999389648438,80400.0,22.552169799804688
2017-08-10,24.920000076293945,24.5310001373291,24.899999618530273,24.700000762939453,112800.0,22.380014419555664
2017-08-11,24.889999389648438,24.700000762939453,24.700000762939453,24.8799991607666,98400.0,22.543109893798828
2017-08-14,25.0,24.899999618530273,24.899999618530273,24.940000534057617,52500.0,22.597475051879883
2017-08-15,24.979999542236328,24.8799991607666,24.959999084472656,24.979999542236328,103100.0,22.633716583251953
2017-08-16,24.979999542236328,24.899999618530273,24.979999542236328,24.969999313354492,73400.0,22.62465476989746
2017-08-17,25.0,24.930999755859375,24.969999313354492,25.0,111500.0,22.651836395263672
2017-08-18,25.0,24.951000213623047,25.0,25.0,71400.0,22.651836395263672
2017-08-21,25.09000015258789,25.0,25.0,25.079999923706055,60300.0,22.724323272705078
2017-08-22,25.079999923706055,25.010000228881836,25.079999923706055,25.010000228881836,68000.0,22.660898208618164
2017-08-23,25.09000015258789,25.0,25.010000228881836,25.049999237060547,83700.0,22.697139739990234
2017-08-24,25.170000076293945,25.049999237060547,25.049999237060547,25.170000076293945,63100.0,22.805870056152344
2017-08-25,25.170000076293945,25.020000457763672,25.15999984741211,25.059999465942383,55400.0,22.706199645996094
2017-08-28,25.149999618530273,24.979999542236328,25.139999389648438,25.049999237060547,110200.0,22.697139739990234
2017-08-29,25.18000030517578,25.06100082397461,25.09000015258789,25.18000030517578,100500.0,22.814929962158203
2017-08-30,25.18000030517578,25.06999969482422,25.149999618530273,25.18000030517578,57200.0,22.814929962158203
2017-08-31,25.219999313354492,25.1200008392334,25.1200008392334,25.219999313354492,57200.0,22.851173400878906
2017-09-01,25.290000915527344,25.200000762939453,25.229999542236328,25.270000457763672,42800.0,22.8964786529541
2017-09-05,25.34000015258789,25.1299991607666,25.34000015258789,25.260000228881836,115400.0,22.88741683959961
2017-09-06,25.270000457763672,25.219999313354492,25.260000228881836,25.239999771118164,51400.0,22.869293212890625
2017-09-07,25.25,25.139999389648438,25.239999771118164,25.190000534057617,104200.0,22.823991775512695
2017-09-08,25.200000762939453,25.139999389648438,25.18000030517578,25.190000534057617,43300.0,22.823991775512695
2017-09-11,25.25,25.15999984741211,25.190000534057617,25.190000534057617,85400.0,22.823991775512695
2017-09-12,25.229999542236328,25.190000534057617,25.219999313354492,25.190000534057617,113300.0,22.823991775512695
2017-09-13,25.100000381469727,24.8700008392334,24.940000534057617,25.059999465942383,138800.0,23.017797470092773
2017-09-14,25.149999618530273,25.059999465942383,25.059999465942383,25.059999465942383,81000.0,23.017797470092773
2017-09-15,25.1299991607666,25.059999465942383,25.100000381469727,25.079999923706055,73200.0,23.03616714477539
2017-09-18,25.100000381469727,25.020000457763672,25.079999923706055,25.020000457763672,48600.0,22.981060028076172
2017-09-19,25.059999465942383,24.93000030517578,25.020000457763672,24.93000030517578,87500.0,22.89838981628418
2017-09-20,25.1299991607666,24.979999542236328,25.0,25.1200008392334,78800.0,23.072906494140625
2017-09-21,25.1299991607666,25.066999435424805,25.100000381469727,25.110000610351562,51600.0,23.063722610473633
2017-09-22,25.229999542236328,25.08799934387207,25.110000610351562,25.229999542236328,49700.0,23.17394256591797
2017-09-25,25.190000534057617,25.1200008392334,25.149999618530273,25.1200008392334,26900.0,23.072906494140625
2017-09-26,25.200000762939453,25.079999923706055,25.1200008392334,25.1200008392334,90900.0,23.072906494140625
2017-09-27,25.1200008392334,25.020000457763672,25.059999465942383,25.100000381469727,89500.0,23.054536819458008
2017-09-28,25.09000015258789,24.979999542236328,25.020000457763672,25.0,94600.0,22.962688446044922
2017-09-29,25.118999481201172,24.920000076293945,25.0,25.030000686645508,74500.0,22.99024200439453
2017-10-02,25.030000686645508,24.93000030517578,24.969999313354492,24.950000762939453,67200.0,22.91676139831543
2017-10-03,25.049999237060547,24.90999984741211,24.950000762939453,25.020999908447266,71500.0,22.981975555419922
2017-10-04,25.06999969482422,24.950000762939453,25.030000686645508,25.010000228881836,49300.0,22.971874237060547
2017-10-05,25.049999237060547,24.969999313354492,25.0,25.030000686645508,41100.0,22.99024200439453
2017-10-06,25.0,24.885000228881836,25.0,24.93000030517578,81200.0,22.89838981628418
2017-10-09,24.969999313354492,24.770000457763672,24.969999313354492,24.969999313354492,42800.0,22.935131072998047
2017-10-10,25.1200008392334,24.881000518798828,24.969999313354492,25.020000457763672,54000.0,22.981060028076172
2017-10-11,25.049999237060547,24.940000534057617,24.969999313354492,25.030000686645508,59200.0,22.99024200439453
2017-10-12,25.100000381469727,24.992000579833984,25.020000457763672,25.09000015258789,33300.0,23.045352935791016
2017-10-13,25.079999923706055,25.0,25.079999923706055,25.040000915527344,37400.0,22.999427795410156
2017-10-16,25.219999313354492,25.040000915527344,25.040000915527344,25.200000762939453,58700.0,23.14638900756836
2017-10-17,25.139999389648438,25.079999923706055,25.079999923706055,25.100000381469727,81500.0,23.054536819458008
2017-10-18,25.06999969482422,24.959999084472656,25.06999969482422,25.0,67900.0,22.962688446044922
2017-10-19,25.170000076293945,25.049999237060547,25.049999237060547,25.170000076293945,64000.0,23.118831634521484
2017-10-20,25.170000076293945,25.059999465942383,25.139999389648438,25.149999618530273,43000.0,23.100461959838867
2017-10-23,25.18000030517578,25.09000015258789,25.1200008392334,25.18000030517578,32800.0,23.128019332885742
2017-10-24,25.18000030517578,25.09000015258789,25.100000381469727,25.18000030517578,90500.0,23.128019332885742
2017-10-25,25.149999618530273,25.020000457763672,25.149999618530273,25.079999923706055,90000.0,23.03616714477539
2017-10-26,25.125,25.010000228881836,25.079999923706055,25.040000915527344,63700.0,22.999427795410156
2017-10-27,25.079999923706055,25.0,25.040000915527344,25.079999923706055,45700.0,23.03616714477539
2017-10-30,25.100000381469727,25.020000457763672,25.030000686645508,25.100000381469727,32700.0,23.054536819458008
2017-10-31,25.149999618530273,25.062999725341797,25.079999923706055,25.149999618530273,66300.0,23.100461959838867
2017-11-01,25.190000534057617,25.111000061035156,25.149999618530273,25.139999389648438,22100.0,23.091278076171875
2017-11-02,25.22800064086914,25.149999618530273,25.149999618530273,25.190000534057617,40100.0,23.137203216552734
2017-11-03,25.190000534057617,25.100000381469727,25.18000030517578,25.190000534057617,26500.0,23.137203216552734
2017-11-06,25.190000534057617,25.059999465942383,25.100000381469727,25.100000381469727,45100.0,23.054536819458008
2017-11-07,25.190000534057617,25.100000381469727,25.100000381469727,25.149999618530273,45800.0,23.100461959838867
2017-11-08,25.170000076293945,25.110000610351562,25.149999618530273,25.1200008392334,29800.0,23.072906494140625
2017-11-09,25.149999618530273,25.035999298095703,25.100000381469727,25.079999923706055,44600.0,23.03616714477539
2017-11-10,25.1200008392334,25.049999237060547,25.09000015258789,25.110000610351562,56000.0,23.063722610473633
2017-11-13,25.100000381469727,25.030000686645508,25.100000381469727,25.100000381469727,49400.0,23.054536819458008
2017-11-14,25.100000381469727,25.030000686645508,25.100000381469727,25.059999465942383,80600.0,23.017797470092773
2017-11-15,25.190000534057617,25.020000457763672,25.059999465942383,25.100000381469727,99600.0,23.054536819458008
2017-11-16,25.15999984741211,25.06999969482422,25.100000381469727,25.1299991607666,91300.0,23.082094192504883
2017-11-17,25.239999771118164,25.115999221801758,25.1299991607666,25.239999771118164,84800.0,23.183128356933594
2017-11-20,25.3700008392334,25.18000030517578,25.219999313354492,25.360000610351562,58800.0,23.293352127075195
2017-11-21,25.350000381469727,25.280000686645508,25.309999465942383,25.3439998626709,38900.0,23.278654098510742
2017-11-22,25.299999237060547,25.260000228881836,25.299999237060547,25.280000686645508,46300.0,23.219867706298828
2017-11-24,25.290000915527344,25.18000030517578,25.280000686645508,25.200000762939453,69200.0,23.14638900756836
2017-11-27,25.290000915527344,25.209999084472656,25.25,25.209999084472656,56600.0,23.15557098388672
2017-11-28,25.280000686645508,25.200000762939453,25.25,25.229999542236328,44100.0,23.17394256591797
2017-11-29,25.290000915527344,25.200000762939453,25.290000915527344,25.270000457763672,99600.0,23.210681915283203
2017-11-30,25.299999237060547,25.219999313354492,25.260000228881836,25.219999313354492,46700.0,23.164756774902344
2017-12-01,25.729999542236328,25.270000457763672,25.34000015258789,25.3799991607666,67100.0,23.31171989440918
2017-12-04,25.469999313354492,25.336999893188477,25.350000381469727,25.459999084472656,52300.0,23.38520050048828
2017-12-05,25.479999542236328,25.399999618530273,25.459999084472656,25.399999618530273,59000.0,23.330089569091797
2017-12-06,25.469999313354492,25.360000610351562,25.399999618530273,25.389999389648438,63300.0,23.32090187072754
2017-12-07,25.459999084472656,25.399999618530273,25.399999618530273,25.459999084472656,26500.0,23.38520050048828
2017-12-08,25.448999404907227,25.40999984741211,25.420000076293945,25.40999984741211,29500.0,23.33927345275879
2017-12-11,25.43000030517578,25.360000610351562,25.40999984741211,25.420000076293945,74100.0,23.348459243774414
2017-12-12,25.459999084472656,25.350000381469727,25.450000762939453,25.360000610351562,41000.0,23.293352127075195
2017-12-13,25.139999389648438,25.030000686645508,25.139999389648438,25.110000610351562,42200.0,23.37807273864746
2017-12-14,25.1200008392334,25.030000686645508,25.110000610351562,25.030000686645508,51200.0,23.303592681884766
2017-12-15,25.30500030517578,25.049999237060547,25.049999237060547,25.299999237060547,86200.0,23.554969787597656
2017-12-18,25.299999237060547,25.18000030517578,25.299999237060547,25.280000686645508,42700.0,23.536348342895508
2017-12-19,25.3799991607666,25.25,25.280000686645508,25.34000015258789,218300.0,23.59221076965332
2017-12-20,25.420000076293945,25.260000228881836,25.34000015258789,25.420000076293945,48400.0,23.666690826416016
2017-12-21,25.399999618530273,25.350000381469727,25.360000610351562,25.3799991607666,51200.0,23.62944984436035
2017-12-22,25.440000534057617,25.34000015258789,25.350000381469727,25.399999618530273,38900.0,23.6480712890625
2017-12-26,25.299999237060547,25.15999984741211,25.18000030517578,25.219999313354492,212800.0,23.480484008789062
2017-12-27,25.299999237060547,25.239999771118164,25.270000457763672,25.299999237060547,25500.0,23.554969787597656
2017-12-28,25.34000015258789,25.270000457763672,25.270000457763672,25.299999237060547,226900.0,23.554969787597656
2017-12-29,25.34000015258789,25.25,25.290000915527344,25.260000228881836,55400.0,23.51772689819336
2018-01-02,25.341999053955078,24.8799991607666,25.290000915527344,25.110000610351562,80700.0,23.37807273864746
2018-01-03,25.18000030517578,24.899999618530273,25.15999984741211,25.09000015258789,82500.0,23.359453201293945
2018-01-04,25.280000686645508,25.0,25.0,25.15999984741211,33600.0,23.424623489379883
2018-01-05,25.280000686645508,25.155000686645508,25.15999984741211,25.280000686645508,25000.0,23.536348342895508
2018-01-08,25.270000457763672,25.06999969482422,25.260000228881836,25.200000762939453,48200.0,23.461864471435547
2018-01-09,25.200000762939453,25.149999618530273,25.200000762939453,25.18000030517578,21900.0,23.44324493408203
2018-01-10,25.163000106811523,24.959999084472656,25.15999984741211,24.959999084472656,60500.0,23.238420486450195
2018-01-11,24.940000534057617,24.850000381469727,24.940000534057617,24.940000534057617,81500.0,23.219799041748047
2018-01-12,24.981000900268555,24.709999084472656,24.940000534057617,24.709999084472656,89500.0,23.005661010742188
2018-01-16,24.850000381469727,24.719999313354492,24.719999313354492,24.84000015258789,65100.0,23.12669563293457
2018-01-17,24.8799991607666,24.700000762939453,24.8799991607666,24.700000762939453,47900.0,22.996353149414062
2018-01-18,24.891000747680664,24.6299991607666,24.719999313354492,24.8700008392334,91200.0,23.154626846313477
2018-01-19,24.889999389648438,24.75,24.8700008392334,24.799999237060547,36100.0,23.089454650878906
2018-01-22,24.899999618530273,24.799999237060547,24.799999237060547,24.799999237060547,43900.0,23.089454650878906
2018-01-23,24.888999938964844,24.799999237060547,24.829999923706055,24.799999237060547,42900.0,23.089454650878906
2018-01-24,24.799999237060547,24.68000030517578,24.799999237060547,24.799999237060547,47300.0,23.089454650878906
2018-01-25,24.790000915527344,24.389999389648438,24.790000915527344,24.40999984741211,72000.0,22.72635269165039
2018-01-26,24.53499984741211,24.209999084472656,24.479999542236328,24.209999084472656,56700.0,22.54014778137207
2018-01-29,24.149999618530273,23.59000015258789,24.149999618530273,23.59000015258789,109200.0,21.962913513183594
2018-01-30,23.746000289916992,23.3700008392334,23.540000915527344,23.579999923706055,89200.0,21.953601837158203
2018-01-31,23.881000518798828,23.670000076293945,23.790000915527344,23.780000686645508,80300.0,22.139808654785156
2018-02-01,24.030000686645508,23.809999465942383,23.899999618530273,23.81999969482422,94500.0,22.177047729492188
2018-02-02,23.920000076293945,23.6299991607666,23.700000762939453,23.920000076293945,152100.0,22.270151138305664
2018-02-05,24.100000381469727,23.649999618530273,23.920000076293945,23.809999465942383,337900.0,22.16773796081543
2018-02-06,23.950000762939453,23.719999313354492,23.799999237060547,23.8799991607666,96800.0,22.23291015625
2018-02-07,24.079999923706055,23.920000076293945,24.0,23.920000076293945,114900.0,22.270151138305664
2018-02-08,24.030000686645508,23.700000762939453,23.920000076293945,23.74799919128418,69800.0,22.110013961791992
2018-02-09,23.850000381469727,23.479999542236328,23.850000381469727,23.84000015258789,66300.0,22.195669174194336
2018-02-12,23.78700065612793,23.68000030517578,23.739999771118164,23.739999771118164,46600.0,22.10256576538086
2018-02-13,23.809999465942383,23.69300079345703,23.739999771118164,23.770000457763672,87600.0,22.1304988861084
2018-02-14,23.780000686645508,23.65999984741211,23.75,23.65999984741211,41400.0,22.028085708618164
2018-02-15,23.783000946044922,23.649999618530273,23.760000228881836,23.75,44300.0,22.111875534057617
2018-02-16,23.850000381469727,23.670000076293945,23.75,23.739999771118164,43200.0,22.10256576538086
2018-02-20,23.889999389648438,23.729999542236328,23.790000915527344,23.84000015258789,104100.0,22.195669174194336
2018-02-21,24.15999984741211,23.84000015258789,23.84000015258789,24.020000457763672,108100.0,22.36325454711914
2018-02-22,24.079999923706055,23.799999237060547,24.079999923706055,24.0,465700.0,22.344635009765625
2018-02-23,24.079999923706055,23.93000030517578,24.030000686645508,24.0,117300.0,22.344635009765625
2018-02-26,24.149999618530273,23.959999084472656,24.100000381469727,24.030000686645508,58500.0,22.3725643157959
2018-02-27,24.18000030517578,24.030000686645508,24.100000381469727,24.100000381469727,62000.0,22.43773651123047
2018-02-28,24.219999313354492,24.07200050354004,24.100000381469727,24.149999618530273,73000.0,22.48428726196289
2018-03-01,24.25,24.149999618530273,24.25,24.209999084472656,45400.0,22.54014778137207
2018-03-02,24.280000686645508,24.170000076293945,24.209999084472656,24.25,48000.0,22.577392578125
2018-03-05,24.34000015258789,24.209999084472656,24.25,24.31999969482422,59200.0,22.64256477355957
2018-03-06,24.3799991607666,24.260000228881836,24.31999969482422,24.3439998626709,73900.0,22.664907455444336
2018-03-07,24.43000030517578,24.299999237060547,24.34000015258789,24.309999465942383,76200.0,22.63325309753418
2018-03-08,24.459999084472656,24.299999237060547,24.3799991607666,24.459999084472656,114600.0,22.772905349731445
2018-03-09,24.489999771118164,24.420000076293945,24.459999084472656,24.489999771118164,53000.0,22.80083465576172
2018-03-12,24.639999389648438,24.40999984741211,24.40999984741211,24.6299991607666,81400.0,22.931180953979492
2018-03-13,24.489999771118164,24.270000457763672,24.360000610351562,24.489999771118164,112200.0,23.120943069458008
2018-03-14,24.639999389648438,24.540000915527344,24.549999237060547,24.600000381469727,84000.0,23.224794387817383
2018-03-15,24.579999923706055,24.420000076293945,24.510000228881836,24.43000030517578,67000.0,23.064298629760742
2018-03-16,24.43000030517578,24.360000610351562,24.43000030517578,24.399999618530273,59300.0,23.035974502563477
2018-03-19,24.479999542236328,24.309999465942383,24.479999542236328,24.350000381469727,41400.0,22.988771438598633
2018-03-20,24.469999313354492,24.260000228881836,24.399999618530273,24.350000381469727,61500.0,22.988771438598633
2018-03-21,24.350000381469727,24.229999542236328,24.350000381469727,24.229999542236328,29600.0,22.875478744506836
2018-03-22,24.219999313354492,24.139999389648438,24.219999313354492,24.18000030517578,137200.0,22.82827377319336
2018-03-23,24.200000762939453,24.15999984741211,24.200000762939453,24.190000534057617,45600.0,22.83771514892578
2018-03-26,24.29400062561035,24.149999618530273,24.18000030517578,24.18000030517578,63700.0,22.82827377319336
2018-03-27,24.239999771118164,24.149999618530273,24.239999771118164,24.170000076293945,44100.0,22.818832397460938
2018-03-28,24.200000762939453,24.149999618530273,24.200000762939453,24.200000762939453,28700.0,22.847156524658203
2018-03-29,24.31999969482422,24.110000610351562,24.31999969482422,24.18000030517578,77100.0,22.82827377319336
2018-04-02,24.18000030517578,24.1299991607666,24.170000076293945,24.170000076293945,28900.0,22.818832397460938
2018-04-03,24.18000030517578,24.049999237060547,24.18000030517578,24.10700035095215,36700.0,22.759353637695312
2018-04-04,24.1200008392334,24.013999938964844,24.030000686645508,24.040000915527344,128400.0,22.69610023498535
2018-04-05,24.139999389648438,23.959999084472656,24.139999389648438,24.030000686645508,34700.0,22.68665885925293
2018-04-06,24.047000885009766,23.93000030517578,24.0,23.93000030517578,28200.0,22.592248916625977
2018-04-09,24.09000015258789,24.020000457763672,24.030000686645508,24.09000015258789,24700.0,22.743305206298828
2018-04-10,24.190000534057617,24.049999237060547,24.139999389648438,24.049999237060547,54300.0,22.70553970336914
2018-04-11,24.139999389648438,24.059999465942383,24.1200008392334,24.110000610351562,61100.0,22.76218605041504
2018-04-12,24.149999618530273,24.110000610351562,24.139999389648438,24.149999618530273,54700.0,22.799949645996094
2018-04-13,24.190000534057617,24.079999923706055,24.190000534057617,24.1299991607666,64800.0,22.781068801879883
2018-04-16,24.1299991607666,24.06999969482422,24.1299991607666,24.1299991607666,49200.0,22.781068801879883
2018-04-17,24.149999618530273,24.09000015258789,24.1299991607666,24.1299991607666,44200.0,22.781068801879883
2018-04-18,24.200000762939453,24.08099937438965,24.190000534057617,24.1299991607666,103800.0,22.781068801879883
2018-04-19,24.08799934387207,24.035999298095703,24.079999923706055,24.06100082397461,16600.0,22.715927124023438
2018-04-20,24.06999969482422,24.020000457763672,24.06999969482422,24.059999465942383,26000.0,22.714981079101562
2018-04-23,24.100000381469727,24.027000427246094,24.059999465942383,24.09000015258789,56600.0,22.743305206298828
2018-04-24,24.09000015258789,24.020000457763672,24.079999923706055,24.020000457763672,37000.0,22.67721939086914
2018-04-25,24.020000457763672,23.90999984741211,24.020000457763672,23.969999313354492,55700.0,22.63001251220703
2018-04-26,23.93000030517578,23.739999771118164,23.93000030517578,23.790000915527344,64500.0,22.4600772857666
2018-04-27,23.940000534057617,23.805999755859375,23.860000610351562,23.899999618530273,28200.0,22.563928604125977
2018-04-30,23.920000076293945,23.799999237060547,23.899999618530273,23.920000076293945,28000.0,22.582807540893555
2018-05-01,23.940000534057617,23.8799991607666,23.899999618530273,23.93000030517578,16200.0,22.592248916625977
2018-05-02,23.969999313354492,23.920000076293945,23.93000030517578,23.969999313354492,35000.0,22.63001251220703
2018-05-03,24.010000228881836,23.969999313354492,24.0,23.979999542236328,31200.0,22.639453887939453
2018-05-04,24.0,23.940000534057617,23.959999084472656,23.940000534057617,35800.0,22.6016902923584
2018-05-07,23.989999771118164,23.899999618530273,23.979999542236328,23.989999771118164,43500.0,22.648895263671875
2018-05-08,24.049999237060547,24.0,24.0,24.049999237060547,53900.0,22.70553970336914
2018-05-09,24.09000015258789,24.020000457763672,24.079999923706055,24.06999969482422,22100.0,22.724422454833984
2018-05-10,24.149999618530273,24.030000686645508,24.079999923706055,24.1200008392334,46900.0,22.77162742614746
2018-05-11,24.200000762939453,24.100000381469727,24.1200008392334,24.200000762939453,38800.0,22.847156524658203
2018-05-14,24.25,24.110000610351562,24.200000762939453,24.209999084472656,37400.0,22.856595993041992
2018-05-15,24.25,24.149999618530273,24.200000762939453,24.200000762939453,113500.0,22.847156524658203
2018-05-16,24.239999771118164,24.180999755859375,24.200000762939453,24.239999771118164,35000.0,22.884920120239258
2018-05-17,24.200000762939453,24.06999969482422,24.18000030517578,24.09000015258789,32600.0,22.743305206298828
2018-05-18,24.15999984741211,24.040000915527344,24.09000015258789,24.110000610351562,105200.0,22.76218605041504
2018-05-21,24.18000030517578,24.1299991607666,24.18000030517578,24.1299991607666,35800.0,22.781068801879883
2018-05-22,24.170000076293945,24.059999465942383,24.170000076293945,24.139999389648438,42000.0,22.790508270263672
2018-05-23,24.170000076293945,24.100000381469727,24.100000381469727,24.170000076293945,31400.0,22.818832397460938
2018-05-24,24.270000457763672,24.1299991607666,24.170000076293945,24.270000457763672,53000.0,22.913244247436523
2018-05-25,24.530000686645508,24.270000457763672,24.270000457763672,24.450000762939453,20200.0,23.083181381225586
2018-05-29,24.649999618530273,24.399999618530273,24.450000762939453,24.641000747680664,57900.0,23.263505935668945
2018-05-30,24.690000534057617,24.520000457763672,24.530000686645508,24.610000610351562,68800.0,23.234235763549805
2018-05-31,24.59000015258789,24.450000762939453,24.489999771118164,24.59000015258789,41700.0,23.21535301208496
2018-06-01,24.65999984741211,24.540000915527344,24.600000381469727,24.65999984741211,60300.0,23.281442642211914
2018-06-04,24.700000762939453,24.649999618530273,24.65999984741211,24.68000030517578,39300.0,23.300325393676758
2018-06-05,24.850000381469727,24.709999084472656,24.799999237060547,24.790000915527344,61600.0,23.4041748046875
2018-06-06,24.850000381469727,24.790000915527344,24.790000915527344,24.84000015258789,53700.0,23.451377868652344
2018-06-07,24.84000015258789,24.75,24.84000015258789,24.809999465942383,44300.0,23.423053741455078
2018-06-08,24.850000381469727,24.809999465942383,24.81999969482422,24.84000015258789,36200.0,23.451377868652344
2018-06-11,24.8700008392334,24.75,24.84000015258789,24.75,82300.0,23.36640739440918
2018-06-12,24.829999923706055,24.611000061035156,24.760000228881836,24.829999923706055,93900.0,23.441936492919922
2018-06-13,24.6299991607666,24.469999313354492,24.549999237060547,24.6200008392334,49200.0,23.567337036132812
2018-06-14,24.6200008392334,24.5,24.6200008392334,24.540000915527344,40000.0,23.49075698852539
2018-06-15,24.540000915527344,24.510000228881836,24.540000915527344,24.540000915527344,45000.0,23.49075698852539
2018-06-18,24.670000076293945,24.54599952697754,24.549999237060547,24.639999389648438,33300.0,23.58648109436035
2018-06-19,24.579999923706055,24.510000228881836,24.510000228881836,24.530000686645508,34800.0,23.481184005737305
2018-06-20,24.68000030517578,24.510000228881836,24.520000457763672,24.530000686645508,40400.0,23.481184005737305
2018-06-21,24.6299991607666,24.520000457763672,24.530000686645508,24.59000015258789,33000.0,23.538618087768555
2018-06-22,24.6200008392334,24.530000686645508,24.59000015258789,24.6200008392334,22800.0,23.567337036132812
2018-06-25,24.579999923706055,24.540000915527344,24.549999237060547,24.579999923706055,32900.0,23.5290470123291
2018-06-26,24.579999923706055,24.43000030517578,24.579999923706055,24.540000915527344,53900.0,23.49075698852539
2018-06-27,24.540000915527344,24.5,24.520000457763672,24.520000457763672,50200.0,23.47161102294922
2018-06-28,24.649999618530273,24.500999450683594,24.520000457763672,24.639999389648438,43500.0,23.58648109436035
2018-06-29,24.649999618530273,24.579999923706055,24.639999389648438,24.579999923706055,26400.0,23.5290470123291
2018-07-02,24.579999923706055,24.459999084472656,24.5,24.579999923706055,82800.0,23.5290470123291
2018-07-03,24.68000030517578,24.56999969482422,24.579999923706055,24.6299991607666,69300.0,23.576908111572266
2018-07-05,24.6299991607666,24.600000381469727,24.600000381469727,24.6299991607666,35900.0,23.576908111572266
2018-07-06,24.729999542236328,24.628999710083008,24.6299991607666,24.700000762939453,82800.0,23.643917083740234
2018-07-09,24.68000030517578,24.582000732421875,24.639999389648438,24.68000030517578,20900.0,23.624773025512695
2018-07-10,24.600000381469727,24.520000457763672,24.549999237060547,24.549999237060547,107900.0,23.500328063964844
2018-07-11,24.579999923706055,24.190000534057617,24.549999237060547,24.209999084472656,87400.0,23.17486572265625
2018-07-12,24.489999771118164,24.239999771118164,24.329999923706055,24.3700008392334,53200.0,23.328025817871094
2018-07-13,24.56999969482422,24.459999084472656,24.510000228881836,24.479999542236328,92100.0,23.433320999145508
2018-07-16,24.520000457763672,24.388999938964844,24.479999542236328,24.479999542236328,41100.0,23.433320999145508
2018-07-17,24.510000228881836,24.40999984741211,24.479999542236328,24.40999984741211,49500.0,23.366313934326172
2018-07-18,24.489999771118164,24.43000030517578,24.459999084472656,24.43000030517578,47200.0,23.385459899902344
2018-07-19,24.489999771118164,24.43000030517578,24.43000030517578,24.479999542236328,23300.0,23.433320999145508
2018-07-20,24.479999542236328,24.43000030517578,24.43000030517578,24.479999542236328,22900.0,23.433320999145508
2018-07-23,24.639999389648438,24.5,24.559999465942383,24.600000381469727,64800.0,23.54819107055664
2018-07-24,24.6200008392334,24.549999237060547,24.549999237060547,24.59000015258789,39900.0,23.538618087768555
2018-07-25,24.59000015258789,24.459999084472656,24.59000015258789,24.510000228881836,52300.0,23.462038040161133
2018-07-26,24.510000228881836,24.399999618530273,24.5,24.43899917602539,43000.0,23.394075393676758
2018-07-27,24.440000534057617,24.399999618530273,24.440000534057617,24.399999618530273,32400.0,23.356740951538086
2018-07-30,24.399999618530273,24.34000015258789,24.399999618530273,24.399999618530273,21000.0,23.356740951538086
2018-07-31,24.5,24.459999084472656,24.489999771118164,24.5,37300.0,23.45246696472168
2018-08-01,24.5,24.360000610351562,24.5,24.360000610351562,44900.0,23.31845474243164
2018-08-02,24.440000534057617,24.360000610351562,24.3700008392334,24.399999618530273,38200.0,23.356740951538086
2018-08-03,24.559999465942383,24.440000534057617,24.450000762939453,24.485000610351562,33100.0,23.438108444213867
2018-08-06,24.510000228881836,24.3700008392334,24.489999771118164,24.385000228881836,48700.0,23.342382431030273
2018-08-07,24.389999389648438,24.253999710083008,24.389999389648438,24.280000686645508,60100.0,23.24187469482422
2018-08-08,24.389999389648438,24.280000686645508,24.280000686645508,24.389999389648438,22700.0,23.34716796875
2018-08-09,24.469999313354492,24.280000686645508,24.280000686645508,24.360000610351562,28300.0,23.31845474243164
2018-08-10,24.440000534057617,24.360000610351562,24.39900016784668,24.3799991607666,14600.0,23.337596893310547
2018-08-13,24.3799991607666,24.31999969482422,24.3799991607666,24.3799991607666,36900.0,23.337596893310547
2018-08-14,24.389999389648438,24.365999221801758,24.3799991607666,24.375999450683594,13300.0,23.33376693725586
2018-08-15,24.450000762939453,24.329999923706055,24.360000610351562,24.450000762939453,18800.0,23.404605865478516
2018-08-16,24.530000686645508,24.499000549316406,24.520000457763672,24.530000686645508,24500.0,23.481184005737305
2018-08-17,24.56999969482422,24.47100067138672,24.530000686645508,24.559999465942383,45400.0,23.50990104675293
2018-08-20,24.59000015258789,24.520000457763672,24.559999465942383,24.59000015258789,26300.0,23.538618087768555
2018-08-21,24.639999389648438,24.600000381469727,24.6299991607666,24.610000610351562,33600.0,23.557764053344727
2018-08-22,24.770000457763672,24.666000366210938,24.709999084472656,24.770000457763672,56600.0,23.710922241210938
2018-08-23,24.770000457763672,24.6299991607666,24.770000457763672,24.639999389648438,30100.0,23.58648109436035
2018-08-24,24.700000762939453,24.59000015258789,24.6200008392334,24.700000762939453,29300.0,23.643917083740234
2018-08-27,24.711999893188477,24.59000015258789,24.700000762939453,24.618999481201172,27100.0,23.566377639770508
2018-08-28,24.68000030517578,24.6200008392334,24.68000030517578,24.625999450683594,39000.0,23.57308006286621
2018-08-29,24.739999771118164,24.65999984741211,24.670000076293945,24.690000534057617,25900.0,23.63434600830078
2018-08-30,24.75,24.645000457763672,24.690000534057617,24.67799949645996,41200.0,23.62285614013672
2018-08-31,24.799999237060547,24.719999313354492,24.75,24.719999313354492,36200.0,23.66305923461914
2018-09-04,24.809999465942383,24.75,24.799999237060547,24.799999237060547,58300.0,23.739639282226562
2018-09-05,24.799999237060547,24.600000381469727,24.799999237060547,24.610000610351562,58300.0,23.557764053344727
2018-09-06,24.700000762939453,24.56800079345703,24.649999618530273,24.68000030517578,33500.0,23.624773025512695
2018-09-07,24.68000030517578,24.47599983215332,24.68000030517578,24.559999465942383,75700.0,23.50990104675293
2018-09-10,24.6299991607666,24.559999465942383,24.59000015258789,24.593000411987305,58600.0,23.54149055480957
2018-09-11,24.670000076293945,24.520000457763672,24.59000015258789,24.59000015258789,37900.0,23.538618087768555
2018-09-12,24.850000381469727,24.709999084472656,24.709999084472656,24.799999237060547,53400.0,23.739639282226562
2018-09-13,24.579999923706055,24.5,24.559999465942383,24.579999923706055,54000.0,23.85708236694336
2018-09-14,24.579999923706055,24.459999084472656,24.56999969482422,24.579999923706055,50900.0,23.85708236694336
2018-09-17,24.549999237060547,24.489999771118164,24.520000457763672,24.5,38300.0,23.779434204101562
2018-09-18,24.483999252319336,24.389999389648438,24.469999313354492,24.399999618530273,50200.0,23.682374954223633
2018-09-19,24.450000762939453,24.239999771118164,24.420000076293945,24.25,50200.0,23.536787033081055
2018-09-20,24.260000228881836,24.12299919128418,24.25,24.15999984741211,45700.0,23.449434280395508
2018-09-21,24.25,24.15999984741211,24.15999984741211,24.18000030517578,14300.0,23.468847274780273
2018-09-24,24.229999542236328,24.1299991607666,24.229999542236328,24.190000534057617,19400.0,23.478551864624023
2018-09-25,24.201000213623047,24.030000686645508,24.190000534057617,24.059999465942383,33900.0,23.352375030517578
2018-09-26,24.170000076293945,24.09000015258789,24.139999389648438,24.15999984741211,39900.0,23.449434280395508
2018-09-27,24.18000030517578,24.139999389648438,24.18000030517578,24.18000030517578,21600.0,23.468847274780273
2018-09-28,24.360000610351562,24.18000030517578,24.260000228881836,24.18000030517578,27500.0,23.468847274780273
2018-10-01,24.261999130249023,23.829999923706055,24.260000228881836,23.93000030517578,54100.0,23.226200103759766
2018-10-02,24.100000381469727,23.84000015258789,23.989999771118164,23.8700008392334,63900.0,23.167964935302734
2018-10-03,23.899999618530273,23.260000228881836,23.850000381469727,23.450000762939453,40800.0,22.760316848754883
2018-10-04,23.549999237060547,23.062999725341797,23.399999618530273,23.489999771118164,63300.0,22.79913902282715
2018-10-05,23.38800048828125,23.18000030517578,23.200000762939453,23.260000228881836,60600.0,22.575904846191406
2018-10-08,23.420000076293945,23.25,23.260000228881836,23.280000686645508,27500.0,22.59531593322754
2018-10-09,23.459999084472656,23.308000564575195,23.329999923706055,23.43000030517578,28100.0,22.740903854370117
2018-10-10,23.440000534057617,23.110000610351562,23.3700008392334,23.149999618530273,50800.0,22.469139099121094
2018-10-11,23.229999542236328,23.049999237060547,23.149999618530273,23.049999237060547,33500.0,22.372079849243164
2018-10-12,23.190000534057617,23.06999969482422,23.190000534057617,23.1299991607666,21400.0,22.449726104736328
2018-10-15,23.14900016784668,23.049999237060547,23.1299991607666,23.049999237060547,17000.0,22.372079849243164
2018-10-16,23.174999237060547,23.079999923706055,23.170000076293945,23.15999984741211,22000.0,22.478843688964844
2018-10-17,23.280000686645508,23.200000762939453,23.280000686645508,23.200000762939453,22100.0,22.517669677734375
2018-10-18,23.329999923706055,23.219999313354492,23.31999969482422,23.31599998474121,31000.0,22.63025665283203
2018-10-19,23.510000228881836,23.31999969482422,23.31999969482422,23.329999923706055,26900.0,22.64384651184082
2018-10-22,23.469999313354492,23.35300064086914,23.450000762939453,23.469999313354492,16000.0,22.779726028442383
2018-10-23,23.56999969482422,23.350000381469727,23.469999313354492,23.479999542236328,45800.0,22.789432525634766
2018-10-24,23.64900016784668,23.43000030517578,23.510000228881836,23.43000030517578,54900.0,22.740903854370117
2018-10-25,23.489999771118164,23.3700008392334,23.43000030517578,23.413999557495117,23900.0,22.725374221801758
2018-10-26,23.479999542236328,23.34000015258789,23.450000762939453,23.479999542236328,20000.0,22.789432525634766
2018-10-29,23.579999923706055,23.420000076293945,23.579999923706055,23.489999771118164,13400.0,22.79913902282715
2018-10-30,23.5,23.420000076293945,23.420000076293945,23.420000076293945,23300.0,22.731197357177734
2018-10-31,23.479999542236328,23.40999984741211,23.420000076293945,23.479999542236328,21100.0,22.789432525634766
2018-11-01,23.489999771118164,23.399999618530273,23.399999618530273,23.43000030517578,11900.0,22.740903854370117
2018-11-02,23.549999237060547,23.450000762939453,23.549999237060547,23.4689998626709,8400.0,22.77875518798828
2018-11-05,23.49799919128418,23.363000869750977,23.469999313354492,23.479999542236328,11300.0,22.789432525634766
2018-11-06,23.510000228881836,23.409000396728516,23.479999542236328,23.510000228881836,14500.0,22.818552017211914
2018-11-07,23.54599952697754,23.389999389648438,23.459999084472656,23.420000076293945,48500.0,22.731197357177734
2018-11-08,23.530000686645508,23.3700008392334,23.420000076293945,23.3700008392334,15500.0,22.68267059326172
2018-11-09,23.399999618530273,23.277000427246094,23.3700008392334,23.3799991607666,20000.0,22.692373275756836
2018-11-12,23.469999313354492,23.329999923706055,23.469999313354492,23.329999923706055,24600.0,22.64384651184082
2018-11-13,23.426000595092773,23.329999923706055,23.329999923706055,23.389999389648438,13300.0,22.70207977294922
2018-11-14,23.489999771118164,23.3700008392334,23.479999542236328,23.3700008392334,14600.0,22.68267059326172
2018-11-15,23.389999389648438,23.18000030517578,23.3799991607666,23.209999084472656,15300.0,22.527374267578125
2018-11-16,23.270000457763672,23.100000381469727,23.100000381469727,23.15999984741211,17500.0,22.478843688964844
2018-11-19,23.25,23.100000381469727,23.25,23.200000762939453,17100.0,22.517669677734375
2018-11-20,23.100000381469727,22.5,23.100000381469727,22.64299964904785,62600.0,21.97705078125
2018-11-21,22.829999923706055,22.642000198364258,22.670000076293945,22.81999969482422,20900.0,22.14884376525879
2018-11-23,23.006999969482422,22.774999618530273,22.81999969482422,22.950000762939453,11300.0,22.275022506713867
2018-11-26,23.020000457763672,22.719999313354492,23.020000457763672,22.770000457763672,14700.0,22.10031509399414
2018-11-27,22.89699935913086,22.559999465942383,22.8799991607666,22.559999465942383,27200.0,21.8964900970459
2018-11-28,22.628999710083008,22.450000762939453,22.56999969482422,22.450000762939453,26700.0,21.78972625732422
2018-11-29,22.469999313354492,22.200000762939453,22.450000762939453,22.200000762939453,21800.0,21.54707908630371
2018-11-30,22.309999465942383,22.010000228881836,22.309999465942383,22.010000228881836,26100.0,21.362668991088867
2018-12-03,22.166000366210938,22.030000686645508,22.100000381469727,22.079999923706055,25100.0,21.43060874938965
2018-12-04,22.149999618530273,21.5,22.149999618530273,21.690000534057617,39400.0,21.052080154418945
2018-12-06,21.822999954223633,21.389999389648438,21.690000534057617,21.530000686645508,37800.0,20.89678382873535
2018-12-07,21.790000915527344,21.329999923706055,21.639999389648438,21.40999984741211,34500.0,20.78031349182129
2018-12-10,21.634000778198242,21.209999084472656,21.450000762939453,21.389999389648438,45400.0,20.760902404785156
2018-12-11,21.75,21.440000534057617,21.56999969482422,21.600000381469727,65300.0,20.964725494384766
2018-12-12,21.809999465942383,21.649999618530273,21.770000457763672,21.719999313354492,42300.0,21.081195831298828
2018-12-13,21.579999923706055,21.09000015258789,21.579999923706055,21.270000457763672,39900.0,20.97371482849121
2018-12-14,21.200000762939453,21.049999237060547,21.15999984741211,21.149999618530273,65300.0,20.85538673400879
2018-12-17,21.118999481201172,20.829999923706055,21.010000228881836,20.899999618530273,55800.0,20.608867645263672
2018-12-18,20.989999771118164,20.30500030517578,20.989999771118164,20.81999969482422,135700.0,20.529983520507812
2018-12-19,20.950000762939453,20.43000030517578,20.729999542236328,20.43000030517578,73400.0,20.145416259765625
2018-12-20,20.5,19.56999969482422,20.399999618530273,19.979999542236328,114600.0,19.701683044433594
2018-12-21,20.31999969482422,19.979999542236328,20.020000457763672,20.06999969482422,98900.0,19.790430068969727
2018-12-24,20.020000457763672,19.610000610351562,20.0,19.760000228881836,50400.0,19.48474884033203
2018-12-26,20.270000457763672,19.867000579833984,20.0,20.100000381469727,72000.0,19.82001304626465
2018-12-27,20.200000762939453,19.649999618530273,20.200000762939453,19.799999237060547,107500.0,19.52419090270996
2018-12-28,20.280000686645508,19.93000030517578,20.040000915527344,20.079999923706055,83600.0,19.800291061401367
2018-12-31,20.709999084472656,20.179000854492188,20.209999084472656,20.399999618530273,64200.0,20.115833282470703
2019-01-02,21.15999984741211,20.340999603271484,20.3700008392334,21.1200008392334,65000.0,20.8258056640625
2019-01-03,21.329999923706055,20.90999984741211,21.1200008392334,21.31999969482422,35200.0,21.02301788330078
2019-01-04,21.850000381469727,21.5,21.5,21.799999237060547,48500.0,21.4963321685791
2019-01-07,22.100000381469727,21.84000015258789,21.84000015258789,22.020000457763672,61800.0,21.713268280029297
2019-01-08,22.31999969482422,22.07900047302246,22.100000381469727,22.31999969482422,61800.0,22.00908851623535
2019-01-09,22.511999130249023,22.299999237060547,22.299999237060547,22.40999984741211,78000.0,22.097835540771484
2019-01-10,22.43000030517578,22.209999084472656,22.299999237060547,22.420000076293945,43300.0,22.107696533203125
2019-01-11,22.700000762939453,22.43000030517578,22.479999542236328,22.700000762939453,65100.0,22.38379669189453
2019-01-14,22.8799991607666,22.600000381469727,22.700000762939453,22.780000686645508,47500.0,22.46268081665039
2019-01-15,22.899999618530273,22.68000030517578,22.8700008392334,22.899999618530273,34300.0,22.581008911132812
2019-01-16,23.0,22.81999969482422,22.829999923706055,22.920000076293945,52100.0,22.600730895996094
2019-01-17,22.979999542236328,22.81399917602539,22.969999313354492,22.860000610351562,27400.0,22.541566848754883
2019-01-18,22.989999771118164,22.799999237060547,22.8799991607666,22.940000534057617,36200.0,22.620452880859375
2019-01-22,22.979999542236328,22.799999237060547,22.979999542236328,22.850000381469727,43400.0,22.531705856323242
2019-01-23,22.860000610351562,22.649999618530273,22.850000381469727,22.649999618530273,53900.0,22.334491729736328
2019-01-24,22.790000915527344,22.510000228881836,22.649999618530273,22.65999984741211,40400.0,22.34435272216797
2019-01-25,22.75,22.6299991607666,22.700000762939453,22.729999542236328,36700.0,22.41337776184082
2019-01-28,23.18000030517578,22.56999969482422,22.700000762939453,23.149999618530273,74200.0,22.827526092529297
2019-01-29,23.440000534057617,23.200000762939453,23.25,23.280000686645508,59300.0,22.955717086791992
2019-01-30,23.440000534057617,23.079999923706055,23.280000686645508,23.440000534057617,54500.0,23.113487243652344
2019-01-31,24.350000381469727,23.483999252319336,23.510000228881836,24.350000381469727,235200.0,24.01081085205078
2019-02-01,24.0,23.850000381469727,23.989999771118164,23.950000762939453,100900.0,23.616384506225586
2019-02-04,24.010000228881836,23.829999923706055,23.850000381469727,23.90999984741211,75000.0,23.576940536499023
2019-02-05,24.010000228881836,23.749000549316406,23.790000915527344,24.010000228881836,34000.0,23.675546646118164
2019-02-06,24.18000030517578,23.958999633789062,24.010000228881836,24.18000030517578,26400.0,23.84317970275879
2019-02-07,24.18000030517578,24.020000457763672,24.1299991607666,24.08799934387207,34600.0,23.752460479736328
2019-02-08,24.268999099731445,23.86199951171875,24.020000457763672,24.200000762939453,39300.0,23.86290168762207
2019-02-11,24.18000030517578,23.996999740600586,24.0,24.059999465942383,74500.0,23.724849700927734
2019-02-12,24.049999237060547,23.959999084472656,23.959999084472656,24.020000457763672,53800.0,23.685407638549805
2019-02-13,24.059999465942383,23.959999084472656,23.959999084472656,24.010000228881836,49500.0,23.675546646118164
2019-02-14,24.100000381469727,24.010000228881836,24.06999969482422,24.09000015258789,32900.0,23.754432678222656
2019-02-15,24.079999923706055,23.969999313354492,24.0,24.06999969482422,46300.0,23.734710693359375
2019-02-19,24.062999725341797,23.950000762939453,24.0,24.049999237060547,84400.0,23.714988708496094
2019-02-20,24.040000915527344,23.959999084472656,24.0,24.030000686645508,41900.0,23.695268630981445
2019-02-21,23.989999771118164,23.790000915527344,23.989999771118164,23.899999618530273,31400.0,23.567079544067383
2019-02-22,24.049999237060547,23.8799991607666,23.899999618530273,24.040000915527344,40000.0,23.705129623413086
2019-02-25,24.040000915527344,23.899999618530273,24.040000915527344,24.010000228881836,56200.0,23.675546646118164
2019-02-26,24.100000381469727,23.959999084472656,24.049999237060547,24.100000381469727,50300.0,23.764293670654297
2019-02-27,24.0,23.90999984741211,23.989999771118164,23.979999542236328,88700.0,23.645965576171875
2019-02-28,24.34000015258789,23.899999618530273,23.959999084472656,24.34000015258789,250300.0,24.00094985961914
2019-03-01,24.549999237060547,24.264999389648438,24.34000015258789,24.549999237060547,57900.0,24.208024978637695
2019-03-04,24.405000686645508,24.3700008392334,24.399999618530273,24.399999618530273,58600.0,24.06011390686035
2019-03-05,24.489999771118164,24.350000381469727,24.3799991607666,24.469999313354492,65900.0,24.129138946533203
2019-03-06,24.469999313354492,24.329999923706055,24.399999618530273,24.469999313354492,44500.0,24.129138946533203
2019-03-07,24.459999084472656,24.299999237060547,24.350000381469727,24.43000030517578,71500.0,24.089696884155273
2019-03-08,24.43000030517578,24.299999237060547,24.309999465942383,24.399999618530273,28100.0,24.06011390686035
2019-03-11,24.469999313354492,24.309999465942383,24.31999969482422,24.420000076293945,43500.0,24.079835891723633
2019-03-12,24.540000915527344,24.400999069213867,24.420000076293945,24.479999542236328,52400.0,24.138999938964844
2019-03-13,24.43899917602539,24.22800064086914,24.299999237060547,24.389999389648438,51500.0,24.389999389648438
2019-03-14,24.280000686645508,24.15999984741211,24.229999542236328,24.219999313354492,68900.0,24.219999313354492
2019-03-15,24.34000015258789,24.219999313354492,24.219999313354492,24.325000762939453,35500.0,24.325000762939453
2019-03-18,24.31999969482422,24.219999313354492,24.309999465942383,24.309999465942383,49700.0,24.309999465942383
2019-03-19,24.239999771118164,24.15999984741211,24.200000762939453,24.209999084472656,58900.0,24.209999084472656
2019-03-20,24.209999084472656,23.950000762939453,24.100000381469727,24.100000381469727,67600.0,24.100000381469727
2019-03-21,24.219999313354492,23.969999313354492,24.030000686645508,24.079999923706055,40600.0,24.079999923706055
2019-03-22,24.1299991607666,23.739999771118164,24.1299991607666,23.850000381469727,77400.0,23.850000381469727
2019-03-25,23.899999618530273,23.600000381469727,23.899999618530273,23.68000030517578,91800.0,23.68000030517578
2019-03-26,23.780000686645508,23.530000686645508,23.719999313354492,23.579999923706055,65800.0,23.579999923706055
2019-03-27,23.860000610351562,23.660999298095703,23.68000030517578,23.809999465942383,67400.0,23.809999465942383
2019-03-28,24.18000030517578,23.719999313354492,23.8799991607666,24.110000610351562,104300.0,24.110000610351562
2019-03-29,24.399999618530273,24.110000610351562,24.200000762939453,24.299999237060547,236000.0,24.299999237060547
2019-04-01,24.360000610351562,24.18000030517578,24.18000030517578,24.270000457763672,48900.0,24.270000457763672
2019-04-02,24.25,24.1299991607666,24.149999618530273,24.239999771118164,61500.0,24.239999771118164
2019-04-03,24.360000610351562,24.174999237060547,24.219999313354492,24.280000686645508,53100.0,24.280000686645508
2019-04-04,24.389999389648438,24.25,24.3700008392334,24.350000381469727,37800.0,24.350000381469727
2019-04-05,24.450000762939453,24.299999237060547,24.389999389648438,24.309999465942383,46100.0,24.309999465942383
2019-04-08,24.399999618530273,24.25,24.309999465942383,24.25,39700.0,24.25
2019-04-09,24.299999237060547,24.222000122070312,24.25,24.260000228881836,37400.0,24.260000228881836
2019-04-10,24.290000915527344,24.170000076293945,24.209999084472656,24.170000076293945,33000.0,24.170000076293945
2019-04-11,24.170000076293945,24.09000015258789,24.170000076293945,24.15999984741211,27500.0,24.15999984741211
2019-04-12,24.200000762939453,24.100000381469727,24.15999984741211,24.100000381469727,26200.0,24.100000381469727
2019-04-15,24.290000915527344,24.100000381469727,24.100000381469727,24.260000228881836,43200.0,24.260000228881836
2019-04-16,24.299999237060547,24.22800064086914,24.260000228881836,24.299999237060547,45700.0,24.299999237060547
2019-04-17,24.290000915527344,24.15999984741211,24.219999313354492,24.260000228881836,46000.0,24.260000228881836
2019-04-18,24.3700008392334,24.260000228881836,24.260000228881836,24.309999465942383,30200.0,24.309999465942383
2019-04-22,24.440000534057617,24.25,24.25,24.350000381469727,69100.0,24.350000381469727
2019-04-23,24.489999771118164,24.270999908447266,24.350000381469727,24.489999771118164,87500.0,24.489999771118164
2019-04-24,24.549999237060547,24.3799991607666,24.540000915527344,24.549999237060547,53200.0,24.549999237060547
2019-04-25,24.56999969482422,24.53499984741211,24.549999237060547,24.559999465942383,43200.0,24.559999465942383
2019-04-26,24.559999465942383,24.5,24.559999465942383,24.510000228881836,30100.0,24.510000228881836
2019-04-29,24.65999984741211,24.510000228881836,24.510000228881836,24.649999618530273,40400.0,24.649999618530273
2019-04-30,24.950000762939453,24.59000015258789,24.600000381469727,24.950000762939453,209300.0,24.950000762939453
2019-05-01,24.950000762939453,24.790000915527344,24.899999618530273,24.850000381469727,37700.0,24.850000381469727
2019-05-02,24.83300018310547,24.709999084472656,24.790000915527344,24.809999465942383,23500.0,24.809999465942383
2019-05-03,24.809999465942383,24.649999618530273,24.809999465942383,24.790000915527344,36500.0,24.790000915527344
2019-05-06,24.739999771118164,24.600000381469727,24.600000381469727,24.739999771118164,21400.0,24.739999771118164
2019-05-07,24.700000762939453,24.549999237060547,24.700000762939453,24.68000030517578,36700.0,24.68000030517578
2019-05-08,24.649999618530273,24.549999237060547,24.559999465942383,24.59000015258789,26500.0,24.59000015258789
2019-05-09,24.59000015258789,24.531999588012695,24.59000015258789,24.579999923706055,23000.0,24.579999923706055
2019-05-10,24.549999237060547,24.450000762939453,24.5,24.549999237060547,28700.0,24.549999237060547
2019-05-13,24.549999237060547,24.329999923706055,24.549999237060547,24.549999237060547,64900.0,24.549999237060547
2019-05-14,24.549999237060547,24.43000030517578,24.5,24.542999267578125,43300.0,24.542999267578125
2019-05-15,24.6299991607666,24.459999084472656,24.459999084472656,24.6200008392334,102400.0,24.6200008392334
2019-05-16,24.719999313354492,24.638999938964844,24.649999618530273,24.700000762939453,58900.0,24.700000762939453
2019-05-17,24.790000915527344,24.642000198364258,24.700000762939453,24.760000228881836,34900.0,24.760000228881836
2019-05-20,24.799999237060547,24.610000610351562,24.760000228881836,24.639999389648438,53900.0,24.639999389648438
2019-05-21,24.6299991607666,24.540000915527344,24.59000015258789,24.600000381469727,56800.0,24.600000381469727
2019-05-22,24.68000030517578,24.600000381469727,24.6200008392334,24.649999618530273,74800.0,24.649999618530273
2019-05-23,24.649999618530273,24.610000610351562,24.649999618530273,24.649999618530273,41300.0,24.649999618530273
2019-05-24,24.760000228881836,24.65999984741211,24.670000076293945,24.75,34900.0,24.75
