Date,High,Low,Open,Close,Volume,Adj Close
2015-01-02,54.34000015258789,54.34000015258789,54.34000015258789,54.34000015258789,300,54.34000015258789
2015-01-05,54.56999969482422,54.349998474121094,54.5099983215332,54.56999969482422,2000,54.56999969482422
2015-01-06,54.56999969482422,54.56999969482422,54.56999969482422,54.56999969482422,0,54.56999969482422
2015-01-07,53.959999084472656,53.83000183105469,53.90999984741211,53.83000183105469,800,53.83000183105469
2015-01-08,54.09000015258789,53.720001220703125,54.09000015258789,53.81999969482422,1100,53.81999969482422
2015-01-09,52.59000015258789,52.06999969482422,52.59000015258789,52.06999969482422,1600,52.06999969482422
2015-01-12,52.349998474121094,52.349998474121094,52.349998474121094,52.349998474121094,200,52.349998474121094
2015-01-13,52.349998474121094,52.349998474121094,52.349998474121094,52.349998474121094,0,52.349998474121094
2015-01-14,49.59000015258789,49.59000015258789,49.59000015258789,49.59000015258789,0,49.59000015258789
2015-01-15,51.08000183105469,51.08000183105469,51.08000183105469,51.08000183105469,0,51.08000183105469
2015-01-16,50.869998931884766,50.63999938964844,50.869998931884766,50.650001525878906,500,50.650001525878906
2015-01-20,50.650001525878906,50.650001525878906,50.650001525878906,50.650001525878906,0,50.650001525878906
2015-01-21,49.88999938964844,49.88999938964844,49.88999938964844,49.88999938964844,0,49.88999938964844
2015-01-22,50.369998931884766,50.369998931884766,50.369998931884766,50.369998931884766,200,50.369998931884766
2015-01-23,50.369998931884766,50.369998931884766,50.369998931884766,50.369998931884766,0,50.369998931884766
2015-01-26,49.36000061035156,49.349998474121094,49.36000061035156,49.349998474121094,500,49.349998474121094
2015-01-27,49.349998474121094,49.349998474121094,49.349998474121094,49.349998474121094,0,49.349998474121094
2015-01-28,50.20000076293945,50.16999816894531,50.16999816894531,50.20000076293945,900,50.20000076293945
2015-01-29,50.20000076293945,50.20000076293945,50.20000076293945,50.20000076293945,0,50.20000076293945
2015-01-30,49.369998931884766,49.369998931884766,49.369998931884766,49.369998931884766,0,49.369998931884766
2015-02-02,49.75,49.689998626708984,49.689998626708984,49.75,6500,49.75
2015-02-03,49.75,49.75,49.75,49.75,0,49.75
2015-02-04,48.790000915527344,48.790000915527344,48.790000915527344,48.790000915527344,0,48.790000915527344
2015-02-05,47.900001525878906,47.900001525878906,47.900001525878906,47.900001525878906,0,47.900001525878906
2015-02-06,48.869998931884766,48.869998931884766,48.869998931884766,48.869998931884766,200,48.869998931884766
2015-02-09,48.97999954223633,48.97999954223633,48.97999954223633,48.97999954223633,1000,48.97999954223633
2015-02-10,48.97999954223633,48.97999954223633,48.97999954223633,48.97999954223633,0,48.97999954223633
2015-02-11,48.189998626708984,48.15999984741211,48.15999984741211,48.16999816894531,1200,48.16999816894531
2015-02-12,48.16999816894531,48.16999816894531,48.16999816894531,48.16999816894531,0,48.16999816894531
2015-02-13,48.34000015258789,48.34000015258789,48.34000015258789,48.34000015258789,0,48.34000015258789
2015-02-17,48.91999816894531,48.91999816894531,48.91999816894531,48.91999816894531,0,48.91999816894531
2015-02-18,48.36000061035156,48.36000061035156,48.36000061035156,48.36000061035156,0,48.36000061035156
2015-02-19,48.630001068115234,48.630001068115234,48.630001068115234,48.630001068115234,0,48.630001068115234
2015-02-20,48.959999084472656,48.959999084472656,48.959999084472656,48.959999084472656,0,48.959999084472656
2015-02-23,48.470001220703125,48.470001220703125,48.470001220703125,48.470001220703125,0,48.470001220703125
2015-02-24,48.38999938964844,48.189998626708984,48.369998931884766,48.189998626708984,1200,48.189998626708984
2015-02-25,48.189998626708984,48.189998626708984,48.189998626708984,48.189998626708984,0,48.189998626708984
2015-02-26,48.7400016784668,48.7400016784668,48.7400016784668,48.7400016784668,0,48.7400016784668
2015-02-27,48.86000061035156,48.86000061035156,48.86000061035156,48.86000061035156,0,48.86000061035156
2015-03-02,49.11000061035156,49.11000061035156,49.11000061035156,49.11000061035156,0,49.11000061035156
2015-03-03,49.470001220703125,49.470001220703125,49.470001220703125,49.470001220703125,0,49.470001220703125
2015-03-04,49.58000183105469,48.16999816894531,48.16999816894531,49.58000183105469,1500,49.58000183105469
2015-03-05,49.58000183105469,49.58000183105469,49.58000183105469,49.58000183105469,200,49.58000183105469
2015-03-06,49.5,49.5,49.5,49.5,100,49.5
2015-03-09,49.5,49.5,49.5,49.5,0,49.5
2015-03-10,49.11000061035156,49.11000061035156,49.11000061035156,49.11000061035156,0,49.11000061035156
2015-03-11,48.880001068115234,48.880001068115234,48.880001068115234,48.880001068115234,0,48.880001068115234
2015-03-12,48.40999984741211,48.40999984741211,48.40999984741211,48.40999984741211,0,48.40999984741211
2015-03-13,48.25,48.25,48.25,48.25,0,48.25
2015-03-16,47.689998626708984,47.689998626708984,47.689998626708984,47.689998626708984,0,47.689998626708984
2015-03-17,47.66999816894531,47.66999816894531,47.66999816894531,47.66999816894531,0,47.66999816894531
2015-03-18,45.15999984741211,45.15999984741211,45.15999984741211,45.15999984741211,0,45.15999984741211
2015-03-19,48.22999954223633,48.22999954223633,48.22999954223633,48.22999954223633,0,48.22999954223633
2015-03-20,48.20000076293945,48.20000076293945,48.20000076293945,48.20000076293945,0,48.20000076293945
2015-03-23,46.279998779296875,46.279998779296875,46.279998779296875,46.279998779296875,0,46.279998779296875
2015-03-24,48.58000183105469,48.58000183105469,48.58000183105469,48.58000183105469,4000,48.58000183105469
2015-03-25,49.04999923706055,49.04999923706055,49.04999923706055,49.04999923706055,0,49.04999923706055
2015-03-26,49.11000061035156,49.0099983215332,49.0099983215332,49.11000061035156,500,49.11000061035156
2015-03-27,49.15999984741211,48.97999954223633,48.97999954223633,49.15999984741211,500,49.15999984741211
2015-03-30,49.06999969482422,48.619998931884766,48.619998931884766,49.06999969482422,300,49.06999969482422
2015-03-31,49.56999969482422,49.56999969482422,49.56999969482422,49.56999969482422,300,49.56999969482422
2015-04-01,49.72999954223633,49.72999954223633,49.72999954223633,49.72999954223633,300,49.72999954223633
2015-04-02,49.72999954223633,49.72999954223633,49.72999954223633,49.72999954223633,0,49.72999954223633
2015-04-06,49.72999954223633,49.72999954223633,49.72999954223633,49.72999954223633,0,49.72999954223633
2015-04-07,49.72999954223633,49.72999954223633,49.72999954223633,49.72999954223633,0,49.72999954223633
2015-04-08,49.72999954223633,49.72999954223633,49.72999954223633,49.72999954223633,0,49.72999954223633
2015-04-09,49.72999954223633,49.72999954223633,49.72999954223633,49.72999954223633,0,49.72999954223633
2015-04-10,49.72999954223633,49.72999954223633,49.72999954223633,49.72999954223633,0,49.72999954223633
2015-04-13,49.72999954223633,49.72999954223633,49.72999954223633,49.72999954223633,0,49.72999954223633
2015-04-14,49.72999954223633,49.72999954223633,49.72999954223633,49.72999954223633,0,49.72999954223633
2015-04-15,49.72999954223633,49.72999954223633,49.72999954223633,49.72999954223633,0,49.72999954223633
2015-04-16,49.72999954223633,49.72999954223633,49.72999954223633,49.72999954223633,0,49.72999954223633
2015-04-17,49.72999954223633,49.72999954223633,49.72999954223633,49.72999954223633,0,49.72999954223633
2015-04-20,46.790000915527344,46.790000915527344,46.790000915527344,46.790000915527344,0,46.790000915527344
2015-04-21,49.72999954223633,49.72999954223633,49.72999954223633,49.72999954223633,0,49.72999954223633
2015-04-22,49.72999954223633,49.72999954223633,49.72999954223633,49.72999954223633,0,49.72999954223633
2015-04-23,49.72999954223633,49.72999954223633,49.72999954223633,49.72999954223633,0,49.72999954223633
2015-04-24,49.72999954223633,49.72999954223633,49.72999954223633,49.72999954223633,0,49.72999954223633
2015-04-27,49.72999954223633,49.72999954223633,49.72999954223633,49.72999954223633,0,49.72999954223633
2015-04-28,49.72999954223633,49.72999954223633,49.72999954223633,49.72999954223633,0,49.72999954223633
2015-04-29,49.72999954223633,49.72999954223633,49.72999954223633,49.72999954223633,0,49.72999954223633
2015-04-30,49.72999954223633,49.72999954223633,49.72999954223633,49.72999954223633,0,49.72999954223633
2015-05-01,49.72999954223633,49.72999954223633,49.72999954223633,49.72999954223633,0,49.72999954223633
2015-05-04,49.20000076293945,49.20000076293945,49.20000076293945,49.20000076293945,0,49.20000076293945
2015-05-05,49.20000076293945,49.20000076293945,49.20000076293945,49.20000076293945,0,49.20000076293945
2015-05-06,49.20000076293945,49.20000076293945,49.20000076293945,49.20000076293945,0,49.20000076293945
2015-05-07,50.52000045776367,50.52000045776367,50.52000045776367,50.52000045776367,0,50.52000045776367
2015-05-08,50.52000045776367,50.52000045776367,50.52000045776367,50.52000045776367,0,50.52000045776367
2015-05-11,50.52000045776367,50.52000045776367,50.52000045776367,50.52000045776367,0,50.52000045776367
2015-05-12,50.540000915527344,50.540000915527344,50.540000915527344,50.540000915527344,200,50.540000915527344
2015-05-13,50.650001525878906,50.650001525878906,50.650001525878906,50.650001525878906,200,50.650001525878906
2015-05-14,50.650001525878906,50.650001525878906,50.650001525878906,50.650001525878906,0,50.650001525878906
2015-05-15,50.650001525878906,50.650001525878906,50.650001525878906,50.650001525878906,0,50.650001525878906
2015-05-18,50.650001525878906,50.650001525878906,50.650001525878906,50.650001525878906,0,50.650001525878906
2015-05-19,50.650001525878906,50.650001525878906,50.650001525878906,50.650001525878906,0,50.650001525878906
2015-05-20,50.77000045776367,50.560001373291016,50.560001373291016,50.77000045776367,400,50.77000045776367
2015-05-21,50.77000045776367,50.77000045776367,50.77000045776367,50.77000045776367,0,50.77000045776367
2015-05-22,50.77000045776367,50.77000045776367,50.77000045776367,50.77000045776367,0,50.77000045776367
2015-05-26,50.77000045776367,50.77000045776367,50.77000045776367,50.77000045776367,0,50.77000045776367
2015-05-27,50.77000045776367,50.77000045776367,50.77000045776367,50.77000045776367,0,50.77000045776367
2015-05-28,50.77000045776367,50.77000045776367,50.77000045776367,50.77000045776367,0,50.77000045776367
2015-05-29,50.77000045776367,50.77000045776367,50.77000045776367,50.77000045776367,0,50.77000045776367
2015-06-01,50.77000045776367,50.77000045776367,50.77000045776367,50.77000045776367,0,50.77000045776367
2015-06-02,50.77000045776367,50.77000045776367,50.77000045776367,50.77000045776367,0,50.77000045776367
2015-06-03,50.77000045776367,50.77000045776367,50.77000045776367,50.77000045776367,0,50.77000045776367
2015-06-04,50.77000045776367,50.77000045776367,50.77000045776367,50.77000045776367,0,50.77000045776367
2015-06-05,50.77000045776367,50.77000045776367,50.77000045776367,50.77000045776367,0,50.77000045776367
2015-06-08,50.77000045776367,50.77000045776367,50.77000045776367,50.77000045776367,0,50.77000045776367
2015-06-09,50.77000045776367,50.77000045776367,50.77000045776367,50.77000045776367,0,50.77000045776367
2015-06-10,50.77000045776367,50.77000045776367,50.77000045776367,50.77000045776367,0,50.77000045776367
2015-06-11,50.77000045776367,50.77000045776367,50.77000045776367,50.77000045776367,0,50.77000045776367
2015-06-12,50.77000045776367,50.77000045776367,50.77000045776367,50.77000045776367,0,50.77000045776367
2015-06-15,50.77000045776367,50.77000045776367,50.77000045776367,50.77000045776367,0,50.77000045776367
2015-06-16,50.77000045776367,50.77000045776367,50.77000045776367,50.77000045776367,0,50.77000045776367
2015-06-17,50.77000045776367,50.77000045776367,50.77000045776367,50.77000045776367,0,50.77000045776367
2015-06-18,50.77000045776367,50.77000045776367,50.77000045776367,50.77000045776367,0,50.77000045776367
2015-06-19,50.77000045776367,50.77000045776367,50.77000045776367,50.77000045776367,0,50.77000045776367
2015-06-22,48.369998931884766,48.369998931884766,48.369998931884766,48.369998931884766,100,48.369998931884766
2015-06-23,48.369998931884766,48.369998931884766,48.369998931884766,48.369998931884766,0,48.369998931884766
2015-06-24,48.369998931884766,48.369998931884766,48.369998931884766,48.369998931884766,0,48.369998931884766
2015-06-25,48.369998931884766,48.369998931884766,48.369998931884766,48.369998931884766,0,48.369998931884766
2015-06-26,48.369998931884766,48.369998931884766,48.369998931884766,48.369998931884766,0,48.369998931884766
2015-06-29,48.369998931884766,48.369998931884766,48.369998931884766,48.369998931884766,0,48.369998931884766
2015-06-30,48.369998931884766,48.369998931884766,48.369998931884766,48.369998931884766,0,48.369998931884766
2015-07-01,48.369998931884766,48.369998931884766,48.369998931884766,48.369998931884766,0,48.369998931884766
2015-07-02,48.369998931884766,48.369998931884766,48.369998931884766,48.369998931884766,0,48.369998931884766
2015-07-06,49.099998474121094,49.099998474121094,49.099998474121094,49.099998474121094,0,49.099998474121094
2015-07-07,49.099998474121094,49.099998474121094,49.099998474121094,49.099998474121094,0,49.099998474121094
2015-07-08,49.099998474121094,49.099998474121094,49.099998474121094,49.099998474121094,0,49.099998474121094
2015-07-09,49.099998474121094,49.099998474121094,49.099998474121094,49.099998474121094,0,49.099998474121094
2015-07-10,49.099998474121094,49.099998474121094,49.099998474121094,49.099998474121094,0,49.099998474121094
2015-07-13,49.099998474121094,49.099998474121094,49.099998474121094,49.099998474121094,0,49.099998474121094
2015-07-14,49.099998474121094,49.099998474121094,49.099998474121094,49.099998474121094,0,49.099998474121094
2015-07-15,48.0,47.880001068115234,47.93000030517578,47.88999938964844,2700,47.88999938964844
2015-07-16,47.900001525878906,47.63999938964844,47.900001525878906,47.72999954223633,900,47.72999954223633
2015-07-17,47.70000076293945,47.470001220703125,47.70000076293945,47.470001220703125,4400,47.470001220703125
2015-07-20,47.470001220703125,47.470001220703125,47.470001220703125,47.470001220703125,0,47.470001220703125
2015-07-21,47.470001220703125,47.470001220703125,47.470001220703125,47.470001220703125,0,47.470001220703125
2015-07-22,47.290000915527344,47.290000915527344,47.290000915527344,47.290000915527344,600,47.290000915527344
2015-07-23,47.290000915527344,47.290000915527344,47.290000915527344,47.290000915527344,0,47.290000915527344
2015-07-24,47.290000915527344,47.290000915527344,47.290000915527344,47.290000915527344,0,47.290000915527344
2015-07-27,47.290000915527344,47.290000915527344,47.290000915527344,47.290000915527344,0,47.290000915527344
2015-07-28,47.290000915527344,47.290000915527344,47.290000915527344,47.290000915527344,0,47.290000915527344
2015-07-29,47.560001373291016,47.560001373291016,47.560001373291016,47.560001373291016,300,47.560001373291016
2015-07-30,47.279998779296875,47.279998779296875,47.279998779296875,47.279998779296875,100,47.279998779296875
2015-07-31,46.68000030517578,46.650001525878906,46.650001525878906,46.66999816894531,5700,46.66999816894531
2015-08-03,46.66999816894531,46.66999816894531,46.66999816894531,46.66999816894531,0,46.66999816894531
2015-08-04,47.439998626708984,47.439998626708984,47.439998626708984,47.439998626708984,600,47.439998626708984
2015-08-05,47.720001220703125,47.41999816894531,47.70000076293945,47.70000076293945,28700,47.70000076293945
2015-08-06,47.810001373291016,47.31999969482422,47.810001373291016,47.31999969482422,11600,47.31999969482422
2015-08-07,47.31999969482422,47.31999969482422,47.31999969482422,47.31999969482422,0,47.31999969482422
2015-08-10,47.29999923706055,47.15999984741211,47.15999984741211,47.29999923706055,2200,47.29999923706055
2015-08-11,47.29999923706055,47.29999923706055,47.29999923706055,47.29999923706055,0,47.29999923706055
2015-08-12,47.29999923706055,47.29999923706055,47.29999923706055,47.29999923706055,0,47.29999923706055
2015-08-13,46.619998931884766,46.61000061035156,46.619998931884766,46.61000061035156,1800,46.61000061035156
2015-08-14,47.15999984741211,46.650001525878906,46.65999984741211,47.15999984741211,1900,47.15999984741211
2015-08-17,47.15999984741211,47.15999984741211,47.15999984741211,47.15999984741211,0,47.15999984741211
2015-08-18,47.15999984741211,47.15999984741211,47.15999984741211,47.15999984741211,0,47.15999984741211
2015-08-19,46.86000061035156,46.86000061035156,46.86000061035156,46.86000061035156,300,46.86000061035156
2015-08-20,46.86000061035156,46.86000061035156,46.86000061035156,46.86000061035156,0,46.86000061035156
2015-08-21,45.79999923706055,45.79999923706055,45.79999923706055,45.79999923706055,900,45.79999923706055
2015-08-24,45.86000061035156,45.31999969482422,45.31999969482422,45.86000061035156,6200,45.86000061035156
2015-08-25,45.86000061035156,45.86000061035156,45.86000061035156,45.86000061035156,0,45.86000061035156
2015-08-26,46.189998626708984,45.79999923706055,46.189998626708984,45.79999923706055,1800,45.79999923706055
2015-08-27,45.79999923706055,45.79999923706055,45.79999923706055,45.79999923706055,0,45.79999923706055
2015-08-28,45.79999923706055,45.79999923706055,45.79999923706055,45.79999923706055,0,45.79999923706055
2015-08-31,45.79999923706055,45.79999923706055,45.79999923706055,45.79999923706055,0,45.79999923706055
2015-09-01,45.9900016784668,45.9900016784668,45.9900016784668,45.9900016784668,600,45.9900016784668
2015-09-02,45.9900016784668,45.9900016784668,45.9900016784668,45.9900016784668,0,45.9900016784668
2015-09-03,46.5,46.5,46.5,46.5,900,46.5
2015-09-04,46.36000061035156,46.09000015258789,46.189998626708984,46.09000015258789,2900,46.09000015258789
2015-09-08,46.09000015258789,46.09000015258789,46.09000015258789,46.09000015258789,0,46.09000015258789
2015-09-09,46.09000015258789,46.09000015258789,46.09000015258789,46.09000015258789,0,46.09000015258789
2015-09-10,46.09000015258789,46.09000015258789,46.09000015258789,46.09000015258789,0,46.09000015258789
2015-09-11,46.06999969482422,45.81999969482422,46.06999969482422,45.83000183105469,2600,45.83000183105469
2015-09-14,45.810001373291016,45.630001068115234,45.790000915527344,45.810001373291016,1600,45.810001373291016
2015-09-15,46.189998626708984,46.06999969482422,46.189998626708984,46.06999969482422,600,46.06999969482422
2015-09-16,45.59000015258789,45.13999938964844,45.59000015258789,45.13999938964844,900,45.13999938964844
2015-09-17,45.75,45.75,45.75,45.75,100,45.75
2015-09-18,45.40999984741211,45.380001068115234,45.40999984741211,45.400001525878906,2200,45.400001525878906
2015-09-21,45.400001525878906,45.400001525878906,45.400001525878906,45.400001525878906,0,45.400001525878906
2015-09-22,45.59000015258789,45.59000015258789,45.59000015258789,45.59000015258789,2500,45.59000015258789
2015-09-23,45.59000015258789,45.59000015258789,45.59000015258789,45.59000015258789,0,45.59000015258789
2015-09-24,45.59000015258789,45.59000015258789,45.59000015258789,45.59000015258789,0,45.59000015258789
2015-09-25,45.38999938964844,45.36000061035156,45.36000061035156,45.369998931884766,2700,45.369998931884766
2015-09-28,45.369998931884766,45.369998931884766,45.369998931884766,45.369998931884766,0,45.369998931884766
2015-09-29,44.869998931884766,44.84000015258789,44.869998931884766,44.84000015258789,700,44.84000015258789
2015-09-30,44.22999954223633,44.22999954223633,44.22999954223633,44.22999954223633,100,44.22999954223633
2015-10-01,44.22999954223633,44.22999954223633,44.22999954223633,44.22999954223633,0,44.22999954223633
2015-10-02,43.97999954223633,43.900001525878906,43.900001525878906,43.959999084472656,3600,43.959999084472656
2015-10-05,43.959999084472656,43.959999084472656,43.959999084472656,43.959999084472656,0,43.959999084472656
2015-10-06,44.939998626708984,44.90999984741211,44.90999984741211,44.93000030517578,1200,44.93000030517578
2015-10-07,44.93000030517578,44.93000030517578,44.93000030517578,44.93000030517578,0,44.93000030517578
2015-10-08,44.93000030517578,44.93000030517578,44.93000030517578,44.93000030517578,0,44.93000030517578
2015-10-09,45.720001220703125,45.720001220703125,45.720001220703125,45.720001220703125,100,45.720001220703125
2015-10-12,45.720001220703125,45.720001220703125,45.720001220703125,45.720001220703125,0,45.720001220703125
2015-10-13,45.720001220703125,45.720001220703125,45.720001220703125,45.720001220703125,0,45.720001220703125
2015-10-14,45.720001220703125,45.720001220703125,45.720001220703125,45.720001220703125,0,45.720001220703125
2015-10-15,45.720001220703125,45.720001220703125,45.720001220703125,45.720001220703125,0,45.720001220703125
2015-10-16,45.68000030517578,45.66999816894531,45.66999816894531,45.66999816894531,1400,45.66999816894531
2015-10-19,45.66999816894531,45.66999816894531,45.66999816894531,45.66999816894531,0,45.66999816894531
2015-10-20,45.66999816894531,45.66999816894531,45.66999816894531,45.66999816894531,0,45.66999816894531
2015-10-21,45.66999816894531,45.66999816894531,45.66999816894531,45.66999816894531,0,45.66999816894531
2015-10-22,45.66999816894531,45.66999816894531,45.66999816894531,45.66999816894531,0,45.66999816894531
2015-10-23,45.86000061035156,45.849998474121094,45.849998474121094,45.86000061035156,4200,45.86000061035156
2015-10-26,45.86000061035156,45.86000061035156,45.86000061035156,45.86000061035156,0,45.86000061035156
2015-10-27,45.86000061035156,45.86000061035156,45.86000061035156,45.86000061035156,0,45.86000061035156
2015-10-28,45.86000061035156,45.86000061035156,45.86000061035156,45.86000061035156,0,45.86000061035156
2015-10-29,45.86000061035156,45.86000061035156,45.86000061035156,45.86000061035156,0,45.86000061035156
2015-10-30,44.900001525878906,44.900001525878906,44.900001525878906,44.900001525878906,300,44.900001525878906
2015-11-02,44.95000076293945,44.86000061035156,44.95000076293945,44.86000061035156,1100,44.86000061035156
2015-11-03,44.95000076293945,44.5099983215332,44.95000076293945,44.5099983215332,1900,44.5099983215332
2015-11-04,44.5099983215332,44.5099983215332,44.5099983215332,44.5099983215332,0,44.5099983215332
2015-11-05,44.5099983215332,44.5099983215332,44.5099983215332,44.5099983215332,0,44.5099983215332
2015-11-06,44.5099983215332,44.5099983215332,44.5099983215332,44.5099983215332,0,44.5099983215332
2015-11-09,44.5099983215332,44.5099983215332,44.5099983215332,44.5099983215332,0,44.5099983215332
2015-11-10,41.4900016784668,41.47999954223633,41.4900016784668,41.4900016784668,700,41.4900016784668
2015-11-11,41.4900016784668,41.4900016784668,41.4900016784668,41.4900016784668,0,41.4900016784668
2015-11-12,41.4900016784668,41.4900016784668,41.4900016784668,41.4900016784668,0,41.4900016784668
2015-11-13,41.4900016784668,41.4900016784668,41.4900016784668,41.4900016784668,0,41.4900016784668
2015-11-16,41.4900016784668,41.4900016784668,41.4900016784668,41.4900016784668,0,41.4900016784668
2015-11-17,41.4900016784668,41.4900016784668,41.4900016784668,41.4900016784668,0,41.4900016784668
2015-11-18,41.4900016784668,41.4900016784668,41.4900016784668,41.4900016784668,0,41.4900016784668
2015-11-19,41.4900016784668,41.4900016784668,41.4900016784668,41.4900016784668,0,41.4900016784668
2015-11-20,41.4900016784668,41.4900016784668,41.4900016784668,41.4900016784668,0,41.4900016784668
2015-11-23,42.2400016784668,42.209999084472656,42.2400016784668,42.209999084472656,300,42.209999084472656
2015-11-24,42.209999084472656,42.209999084472656,42.209999084472656,42.209999084472656,0,42.209999084472656
2015-11-25,42.06999969482422,42.029998779296875,42.029998779296875,42.06999969482422,300,42.06999969482422
2015-11-27,42.06999969482422,42.06999969482422,42.06999969482422,42.06999969482422,0,42.06999969482422
2015-11-30,41.849998474121094,41.849998474121094,41.849998474121094,41.849998474121094,700,41.849998474121094
2015-12-01,42.470001220703125,42.470001220703125,42.470001220703125,42.470001220703125,2800,42.470001220703125
2015-12-02,42.470001220703125,42.470001220703125,42.470001220703125,42.470001220703125,0,42.470001220703125
2015-12-03,42.470001220703125,42.470001220703125,42.470001220703125,42.470001220703125,0,42.470001220703125
2015-12-04,41.400001525878906,41.380001068115234,41.400001525878906,41.380001068115234,11100,41.380001068115234
2015-12-07,40.939998626708984,40.91999816894531,40.939998626708984,40.91999816894531,500,40.91999816894531
2015-12-08,40.91999816894531,40.91999816894531,40.91999816894531,40.91999816894531,11000,40.91999816894531
2015-12-09,40.91999816894531,40.91999816894531,40.91999816894531,40.91999816894531,0,40.91999816894531
2015-12-10,40.91999816894531,40.91999816894531,40.91999816894531,40.91999816894531,0,40.91999816894531
2015-12-11,40.91999816894531,40.91999816894531,40.91999816894531,40.91999816894531,0,40.91999816894531
2015-12-14,40.91999816894531,40.91999816894531,40.91999816894531,40.91999816894531,0,40.91999816894531
2015-12-15,40.65999984741211,40.65999984741211,40.65999984741211,40.65999984741211,900,40.65999984741211
2015-12-16,40.65999984741211,40.65999984741211,40.65999984741211,40.65999984741211,0,40.65999984741211
2015-12-17,40.470001220703125,40.470001220703125,40.470001220703125,40.470001220703125,100,40.470001220703125
2015-12-18,41.029998779296875,40.9900016784668,40.9900016784668,41.029998779296875,21000,41.029998779296875
2015-12-21,41.029998779296875,41.029998779296875,41.029998779296875,41.029998779296875,0,41.029998779296875
2015-12-22,41.72999954223633,41.72999954223633,41.72999954223633,41.72999954223633,100,41.72999954223633
2015-12-23,42.59000015258789,42.0099983215332,42.02000045776367,42.59000015258789,14300,42.59000015258789
2015-12-24,42.79999923706055,42.79999923706055,42.79999923706055,42.79999923706055,300,42.79999923706055
2015-12-28,42.79999923706055,42.79999923706055,42.79999923706055,42.79999923706055,0,42.79999923706055
2015-12-29,42.79999923706055,42.79999923706055,42.79999923706055,42.79999923706055,7000,42.79999923706055
2015-12-30,42.79999923706055,42.79999923706055,42.79999923706055,42.79999923706055,0,42.79999923706055
2015-12-31,42.79999923706055,42.79999923706055,42.79999923706055,42.79999923706055,0,42.79999923706055
2016-01-04,42.79999923706055,42.79999923706055,42.79999923706055,42.79999923706055,0,42.79999923706055
2016-01-05,42.79999923706055,42.79999923706055,42.79999923706055,42.79999923706055,0,42.79999923706055
2016-01-06,42.79999923706055,42.79999923706055,42.79999923706055,42.79999923706055,0,42.79999923706055
2016-01-07,42.459999084472656,42.45000076293945,42.459999084472656,42.45000076293945,10800,42.45000076293945
2016-01-08,42.45000076293945,42.45000076293945,42.45000076293945,42.45000076293945,0,42.45000076293945
2016-01-11,42.45000076293945,42.45000076293945,42.45000076293945,42.45000076293945,0,42.45000076293945
2016-01-12,42.45000076293945,42.45000076293945,42.45000076293945,42.45000076293945,0,42.45000076293945
2016-01-13,42.45000076293945,42.45000076293945,42.45000076293945,42.45000076293945,0,42.45000076293945
2016-01-14,42.33000183105469,42.33000183105469,42.33000183105469,42.33000183105469,400,42.33000183105469
2016-01-15,42.33000183105469,42.33000183105469,42.33000183105469,42.33000183105469,0,42.33000183105469
2016-01-19,42.33000183105469,42.33000183105469,42.33000183105469,42.33000183105469,0,42.33000183105469
2016-01-20,42.33000183105469,42.33000183105469,42.33000183105469,42.33000183105469,0,42.33000183105469
2016-01-21,42.33000183105469,42.33000183105469,42.33000183105469,42.33000183105469,0,42.33000183105469
2016-01-22,42.33000183105469,42.33000183105469,42.33000183105469,42.33000183105469,0,42.33000183105469
2016-01-25,42.58000183105469,42.58000183105469,42.58000183105469,42.58000183105469,1000,42.58000183105469
2016-01-26,42.7599983215332,42.709999084472656,42.709999084472656,42.7599983215332,500,42.7599983215332
2016-01-27,42.7599983215332,42.7599983215332,42.7599983215332,42.7599983215332,0,42.7599983215332
2016-01-28,42.7599983215332,42.7599983215332,42.7599983215332,42.7599983215332,0,42.7599983215332
2016-01-29,42.86000061035156,42.86000061035156,42.86000061035156,42.86000061035156,600,42.86000061035156
2016-02-01,42.86000061035156,42.86000061035156,42.86000061035156,42.86000061035156,0,42.86000061035156
2016-02-02,43.130001068115234,43.130001068115234,43.130001068115234,43.130001068115234,600,43.130001068115234
2016-02-03,43.130001068115234,43.130001068115234,43.130001068115234,43.130001068115234,0,43.130001068115234
2016-02-04,43.130001068115234,43.130001068115234,43.130001068115234,43.130001068115234,0,43.130001068115234
2016-02-05,43.130001068115234,43.130001068115234,43.130001068115234,43.130001068115234,0,43.130001068115234
2016-02-08,43.130001068115234,43.130001068115234,43.130001068115234,43.130001068115234,0,43.130001068115234
2016-02-09,43.130001068115234,43.130001068115234,43.130001068115234,43.130001068115234,0,43.130001068115234
2016-02-10,42.439998626708984,42.439998626708984,42.439998626708984,42.439998626708984,600,42.439998626708984
2016-02-11,42.439998626708984,42.439998626708984,42.439998626708984,42.439998626708984,0,42.439998626708984
2016-02-12,42.04999923706055,42.04999923706055,42.04999923706055,42.04999923706055,900,42.04999923706055
2016-02-16,42.04999923706055,42.04999923706055,42.04999923706055,42.04999923706055,2400,42.04999923706055
2016-02-17,42.04999923706055,42.04999923706055,42.04999923706055,42.04999923706055,0,42.04999923706055
2016-02-18,42.04999923706055,42.04999923706055,42.04999923706055,42.04999923706055,0,42.04999923706055
2016-02-19,42.04999923706055,42.04999923706055,42.04999923706055,42.04999923706055,0,42.04999923706055
2016-02-22,42.04999923706055,42.04999923706055,42.04999923706055,42.04999923706055,0,42.04999923706055
2016-02-23,42.04999923706055,42.04999923706055,42.04999923706055,42.04999923706055,0,42.04999923706055
2016-02-24,42.04999923706055,42.04999923706055,42.04999923706055,42.04999923706055,0,42.04999923706055
2016-02-25,42.04999923706055,42.04999923706055,42.04999923706055,42.04999923706055,0,42.04999923706055
2016-02-26,42.04999923706055,42.04999923706055,42.04999923706055,42.04999923706055,0,42.04999923706055
2016-02-29,42.04999923706055,42.04999923706055,42.04999923706055,42.04999923706055,0,42.04999923706055
2016-03-01,43.54999923706055,43.41999816894531,43.41999816894531,43.54999923706055,900,43.54999923706055
2016-03-02,43.54999923706055,43.54999923706055,43.54999923706055,43.54999923706055,0,43.54999923706055
2016-03-03,43.54999923706055,43.54999923706055,43.54999923706055,43.54999923706055,0,43.54999923706055
2016-03-04,43.54999923706055,43.54999923706055,43.54999923706055,43.54999923706055,0,43.54999923706055
2016-03-07,43.599998474121094,43.599998474121094,43.599998474121094,43.599998474121094,300,43.599998474121094
2016-03-08,43.599998474121094,43.599998474121094,43.599998474121094,43.599998474121094,0,43.599998474121094
2016-03-09,43.599998474121094,43.599998474121094,43.599998474121094,43.599998474121094,0,43.599998474121094
2016-03-10,43.599998474121094,43.599998474121094,43.599998474121094,43.599998474121094,0,43.599998474121094
2016-03-11,43.599998474121094,43.599998474121094,43.599998474121094,43.599998474121094,0,43.599998474121094
2016-03-14,43.599998474121094,43.599998474121094,43.599998474121094,43.599998474121094,0,43.599998474121094
2016-03-15,43.599998474121094,43.599998474121094,43.599998474121094,43.599998474121094,0,43.599998474121094
2016-03-16,43.599998474121094,43.599998474121094,43.599998474121094,43.599998474121094,0,43.599998474121094
2016-03-17,43.599998474121094,43.599998474121094,43.599998474121094,43.599998474121094,0,43.599998474121094
2016-03-18,43.599998474121094,43.599998474121094,43.599998474121094,43.599998474121094,0,43.599998474121094
2016-03-21,43.599998474121094,43.599998474121094,43.599998474121094,43.599998474121094,0,43.599998474121094
2016-03-22,43.4900016784668,43.4900016784668,43.4900016784668,43.4900016784668,10600,43.4900016784668
2016-03-23,43.4900016784668,43.4900016784668,43.4900016784668,43.4900016784668,0,43.4900016784668
2016-03-24,43.41999816894531,43.27000045776367,43.41999816894531,43.27000045776367,5300,43.27000045776367
2016-03-28,43.70000076293945,43.68000030517578,43.70000076293945,43.68000030517578,4800,43.68000030517578
2016-03-29,43.68000030517578,43.68000030517578,43.68000030517578,43.68000030517578,0,43.68000030517578
2016-03-30,43.599998474121094,43.18000030517578,43.599998474121094,43.18000030517578,400,43.18000030517578
2016-03-31,43.18000030517578,43.18000030517578,43.18000030517578,43.18000030517578,0,43.18000030517578
2016-04-01,43.18000030517578,43.18000030517578,43.18000030517578,43.18000030517578,0,43.18000030517578
2016-04-04,43.18000030517578,43.18000030517578,43.18000030517578,43.18000030517578,0,43.18000030517578
2016-04-05,43.18000030517578,43.18000030517578,43.18000030517578,43.18000030517578,0,43.18000030517578
2016-04-06,43.18000030517578,43.18000030517578,43.18000030517578,43.18000030517578,0,43.18000030517578
2016-04-07,43.18000030517578,43.18000030517578,43.18000030517578,43.18000030517578,0,43.18000030517578
2016-04-08,43.18000030517578,43.18000030517578,43.18000030517578,43.18000030517578,0,43.18000030517578
2016-04-11,43.18000030517578,43.18000030517578,43.18000030517578,43.18000030517578,0,43.18000030517578
2016-04-12,43.18000030517578,43.18000030517578,43.18000030517578,43.18000030517578,0,43.18000030517578
2016-04-13,43.18000030517578,43.18000030517578,43.18000030517578,43.18000030517578,0,43.18000030517578
2016-04-14,43.18000030517578,43.18000030517578,43.18000030517578,43.18000030517578,0,43.18000030517578
2016-04-15,43.18000030517578,43.18000030517578,43.18000030517578,43.18000030517578,0,43.18000030517578
2016-04-18,43.18000030517578,43.18000030517578,43.18000030517578,43.18000030517578,0,43.18000030517578
2016-04-19,43.18000030517578,43.18000030517578,43.18000030517578,43.18000030517578,0,43.18000030517578
2016-04-20,42.2400016784668,42.08000183105469,42.2400016784668,42.08000183105469,600,42.08000183105469
2016-04-21,42.08000183105469,42.08000183105469,42.08000183105469,42.08000183105469,0,42.08000183105469
2016-04-22,42.08000183105469,42.08000183105469,42.08000183105469,42.08000183105469,0,42.08000183105469
2016-04-25,42.08000183105469,42.08000183105469,42.08000183105469,42.08000183105469,0,42.08000183105469
2016-04-26,42.08000183105469,42.08000183105469,42.08000183105469,42.08000183105469,11000,42.08000183105469
2016-04-27,42.08000183105469,42.08000183105469,42.08000183105469,42.08000183105469,0,42.08000183105469
2016-04-28,42.08000183105469,42.08000183105469,42.08000183105469,42.08000183105469,10900,42.08000183105469
2016-04-29,42.08000183105469,42.08000183105469,42.08000183105469,42.08000183105469,0,42.08000183105469
2016-05-02,42.08000183105469,42.08000183105469,42.08000183105469,42.08000183105469,0,42.08000183105469
2016-05-03,42.08000183105469,42.08000183105469,42.08000183105469,42.08000183105469,0,42.08000183105469
2016-05-04,42.08000183105469,42.08000183105469,42.08000183105469,42.08000183105469,0,42.08000183105469
2016-05-05,42.72999954223633,42.72999954223633,42.72999954223633,42.72999954223633,600,42.72999954223633
2016-05-06,43.11000061035156,43.099998474121094,43.11000061035156,43.099998474121094,600,43.099998474121094
2016-05-09,43.099998474121094,43.099998474121094,43.099998474121094,43.099998474121094,0,43.099998474121094
2016-05-10,43.099998474121094,43.099998474121094,43.099998474121094,43.099998474121094,0,43.099998474121094
2016-05-11,43.5099983215332,43.5099983215332,43.5099983215332,43.5099983215332,600,43.5099983215332
2016-05-12,43.290000915527344,43.27000045776367,43.27000045776367,43.27000045776367,1500,43.27000045776367
2016-05-13,43.290000915527344,43.209999084472656,43.290000915527344,43.209999084472656,700,43.209999084472656
2016-05-16,43.209999084472656,43.209999084472656,43.209999084472656,43.209999084472656,100,43.209999084472656
2016-05-17,43.650001525878906,43.599998474121094,43.619998931884766,43.61000061035156,10500,43.61000061035156
2016-05-18,43.61000061035156,43.61000061035156,43.61000061035156,43.61000061035156,100,43.61000061035156
2016-05-19,43.47999954223633,43.13999938964844,43.47999954223633,43.13999938964844,3700,43.13999938964844
2016-05-20,42.9900016784668,42.869998931884766,42.880001068115234,42.9900016784668,2300,42.9900016784668
2016-05-23,42.13999938964844,41.84000015258789,42.13999938964844,41.86000061035156,2000,41.86000061035156
2016-05-24,41.86000061035156,41.86000061035156,41.86000061035156,41.86000061035156,900,41.86000061035156
2016-05-25,41.90999984741211,41.779998779296875,41.90999984741211,41.869998931884766,2400,41.869998931884766
2016-05-26,42.43000030517578,42.34000015258789,42.380001068115234,42.400001525878906,6900,42.400001525878906
2016-05-27,42.68000030517578,42.619998931884766,42.619998931884766,42.650001525878906,1000,42.650001525878906
2016-05-31,42.88999938964844,42.779998779296875,42.81999969482422,42.88999938964844,4700,42.88999938964844
2016-06-01,42.7599983215332,42.75,42.7599983215332,42.75,200,42.75
2016-06-02,43.2599983215332,43.119998931884766,43.22999954223633,43.189998626708984,1700,43.189998626708984
2016-06-03,43.36000061035156,43.290000915527344,43.29999923706055,43.29999923706055,1400,43.29999923706055
2016-06-06,43.380001068115234,42.95000076293945,43.33000183105469,43.130001068115234,2300,43.130001068115234
2016-06-07,43.4900016784668,43.31999969482422,43.41999816894531,43.31999969482422,12500,43.31999969482422
2016-06-08,43.31999969482422,43.31999969482422,43.31999969482422,43.31999969482422,0,43.31999969482422
2016-06-09,43.31999969482422,43.31999969482422,43.31999969482422,43.31999969482422,0,43.31999969482422
2016-06-10,43.31999969482422,43.31999969482422,43.31999969482422,43.31999969482422,0,43.31999969482422
2016-06-13,43.31999969482422,43.31999969482422,43.31999969482422,43.31999969482422,0,43.31999969482422
2016-06-14,43.31999969482422,43.31999969482422,43.31999969482422,43.31999969482422,0,43.31999969482422
2016-06-15,43.31999969482422,43.31999969482422,43.31999969482422,43.31999969482422,0,43.31999969482422
2016-06-16,43.31999969482422,43.31999969482422,43.31999969482422,43.31999969482422,0,43.31999969482422
2016-06-17,43.31999969482422,43.31999969482422,43.31999969482422,43.31999969482422,0,43.31999969482422
2016-06-20,43.31999969482422,43.31999969482422,43.31999969482422,43.31999969482422,0,43.31999969482422
2016-06-21,43.31999969482422,43.31999969482422,43.31999969482422,43.31999969482422,0,43.31999969482422
2016-06-22,43.31999969482422,43.31999969482422,43.31999969482422,43.31999969482422,0,43.31999969482422
2016-06-23,43.31999969482422,43.31999969482422,43.31999969482422,43.31999969482422,0,43.31999969482422
2016-06-24,43.31999969482422,43.31999969482422,43.31999969482422,43.31999969482422,0,43.31999969482422
2016-06-27,43.31999969482422,43.31999969482422,43.31999969482422,43.31999969482422,0,43.31999969482422
2016-06-28,43.31999969482422,43.31999969482422,43.31999969482422,43.31999969482422,0,43.31999969482422
2016-06-29,43.31999969482422,43.31999969482422,43.31999969482422,43.31999969482422,0,43.31999969482422
2016-06-30,43.31999969482422,43.31999969482422,43.31999969482422,43.31999969482422,0,43.31999969482422
2016-07-01,43.31999969482422,43.31999969482422,43.31999969482422,43.31999969482422,0,43.31999969482422
2016-07-05,43.31999969482422,43.31999969482422,43.31999969482422,43.31999969482422,0,43.31999969482422
2016-07-06,43.31999969482422,43.31999969482422,43.31999969482422,43.31999969482422,0,43.31999969482422
2016-07-07,43.31999969482422,43.31999969482422,43.31999969482422,43.31999969482422,0,43.31999969482422
2016-07-08,43.31999969482422,43.31999969482422,43.31999969482422,43.31999969482422,2700,43.31999969482422
2016-07-11,43.31999969482422,43.31999969482422,43.31999969482422,43.31999969482422,0,43.31999969482422
2016-07-12,43.31999969482422,43.31999969482422,43.31999969482422,43.31999969482422,0,43.31999969482422
2016-07-13,43.31999969482422,43.31999969482422,43.31999969482422,43.31999969482422,0,43.31999969482422
2016-07-14,43.31999969482422,43.31999969482422,43.31999969482422,43.31999969482422,0,43.31999969482422
2016-07-15,43.31999969482422,43.31999969482422,43.31999969482422,43.31999969482422,0,43.31999969482422
2016-07-18,43.31999969482422,43.31999969482422,43.31999969482422,43.31999969482422,0,43.31999969482422
2016-07-19,43.31999969482422,43.31999969482422,43.31999969482422,43.31999969482422,0,43.31999969482422
2016-07-20,43.31999969482422,43.31999969482422,43.31999969482422,43.31999969482422,0,43.31999969482422
2016-07-21,43.31999969482422,43.31999969482422,43.31999969482422,43.31999969482422,0,43.31999969482422
2016-07-22,43.31999969482422,43.31999969482422,43.31999969482422,43.31999969482422,0,43.31999969482422
2016-07-25,43.31999969482422,43.31999969482422,43.31999969482422,43.31999969482422,3900,43.31999969482422
2016-07-26,43.31999969482422,43.31999969482422,43.31999969482422,43.31999969482422,6600,43.31999969482422
2016-07-27,43.31999969482422,43.31999969482422,43.31999969482422,43.31999969482422,0,43.31999969482422
2016-07-28,43.31999969482422,43.31999969482422,43.31999969482422,43.31999969482422,0,43.31999969482422
2016-07-29,43.31999969482422,43.31999969482422,43.31999969482422,43.31999969482422,0,43.31999969482422
2016-08-01,43.31999969482422,43.31999969482422,43.31999969482422,43.31999969482422,0,43.31999969482422
2016-08-02,40.06999969482422,40.06999969482422,40.06999969482422,40.06999969482422,100,40.06999969482422
2016-08-03,40.06999969482422,40.06999969482422,40.06999969482422,40.06999969482422,0,40.06999969482422
2016-08-04,40.06999969482422,40.06999969482422,40.06999969482422,40.06999969482422,0,40.06999969482422
2016-08-05,40.06999969482422,40.06999969482422,40.06999969482422,40.06999969482422,4500,40.06999969482422
2016-08-08,40.06999969482422,40.06999969482422,40.06999969482422,40.06999969482422,0,40.06999969482422
2016-08-09,40.06999969482422,40.06999969482422,40.06999969482422,40.06999969482422,0,40.06999969482422
2016-08-10,40.06999969482422,40.06999969482422,40.06999969482422,40.06999969482422,0,40.06999969482422
2016-08-11,40.13999938964844,40.11000061035156,40.119998931884766,40.13999938964844,1000,40.13999938964844
2016-08-12,40.13999938964844,40.13999938964844,40.13999938964844,40.13999938964844,0,40.13999938964844
2016-08-15,40.13999938964844,40.13999938964844,40.13999938964844,40.13999938964844,0,40.13999938964844
2016-08-16,40.13999938964844,40.13999938964844,40.13999938964844,40.13999938964844,3500,40.13999938964844
2016-08-17,40.13999938964844,40.13999938964844,40.13999938964844,40.13999938964844,0,40.13999938964844
2016-08-18,40.13999938964844,40.13999938964844,40.13999938964844,40.13999938964844,0,40.13999938964844
2016-08-19,40.13999938964844,40.13999938964844,40.13999938964844,40.13999938964844,0,40.13999938964844
2016-08-22,40.13999938964844,40.13999938964844,40.13999938964844,40.13999938964844,0,40.13999938964844
2016-08-23,40.13999938964844,40.13999938964844,40.13999938964844,40.13999938964844,0,40.13999938964844
2016-08-24,40.13999938964844,40.13999938964844,40.13999938964844,40.13999938964844,0,40.13999938964844
2016-08-25,40.13999938964844,40.13999938964844,40.13999938964844,40.13999938964844,0,40.13999938964844
2016-08-26,40.13999938964844,40.13999938964844,40.13999938964844,40.13999938964844,0,40.13999938964844
2016-08-29,40.13999938964844,40.13999938964844,40.13999938964844,40.13999938964844,0,40.13999938964844
2016-08-30,40.13999938964844,40.13999938964844,40.13999938964844,40.13999938964844,0,40.13999938964844
2016-08-31,40.13999938964844,40.13999938964844,40.13999938964844,40.13999938964844,0,40.13999938964844
2016-09-01,40.13999938964844,40.13999938964844,40.13999938964844,40.13999938964844,0,40.13999938964844
2016-09-02,40.13999938964844,40.13999938964844,40.13999938964844,40.13999938964844,0,40.13999938964844
2016-09-06,40.13999938964844,40.13999938964844,40.13999938964844,40.13999938964844,100,40.13999938964844
2016-09-07,40.13999938964844,40.13999938964844,40.13999938964844,40.13999938964844,9700,40.13999938964844
2016-09-08,40.13999938964844,40.13999938964844,40.13999938964844,40.13999938964844,0,40.13999938964844
2016-09-09,40.13999938964844,40.13999938964844,40.13999938964844,40.13999938964844,0,40.13999938964844
2016-09-12,40.13999938964844,40.13999938964844,40.13999938964844,40.13999938964844,0,40.13999938964844
2016-09-13,40.13999938964844,40.13999938964844,40.13999938964844,40.13999938964844,0,40.13999938964844
2016-09-14,40.13999938964844,40.13999938964844,40.13999938964844,40.13999938964844,0,40.13999938964844
2016-09-15,40.13999938964844,40.13999938964844,40.13999938964844,40.13999938964844,0,40.13999938964844
2016-09-16,40.13999938964844,40.13999938964844,40.13999938964844,40.13999938964844,0,40.13999938964844
2016-09-19,40.13999938964844,40.13999938964844,40.13999938964844,40.13999938964844,0,40.13999938964844
2016-09-20,40.13999938964844,40.13999938964844,40.13999938964844,40.13999938964844,0,40.13999938964844
2016-09-21,40.13999938964844,40.13999938964844,40.13999938964844,40.13999938964844,0,40.13999938964844
2016-09-22,40.13999938964844,40.13999938964844,40.13999938964844,40.13999938964844,0,40.13999938964844
2016-09-23,40.13999938964844,40.13999938964844,40.13999938964844,40.13999938964844,0,40.13999938964844
2016-09-26,36.0,36.0,36.0,36.0,5000,36.0
2016-09-27,35.5,35.5,35.5,35.5,2000,35.5
2016-09-28,35.38999938964844,35.20000076293945,35.38999938964844,35.20000076293945,1100,35.20000076293945
2016-09-29,35.20000076293945,35.20000076293945,35.20000076293945,35.20000076293945,0,35.20000076293945
2016-09-30,34.400001525878906,34.400001525878906,34.400001525878906,34.400001525878906,1100,34.400001525878906
2016-10-03,34.400001525878906,34.400001525878906,34.400001525878906,34.400001525878906,0,34.400001525878906
2016-10-04,34.93000030517578,34.63999938964844,34.689998626708984,34.77000045776367,8600,34.77000045776367
2016-10-05,34.77000045776367,34.77000045776367,34.77000045776367,34.77000045776367,0,34.77000045776367
2016-10-06,34.77000045776367,34.77000045776367,34.77000045776367,34.77000045776367,0,34.77000045776367
2016-10-07,34.77000045776367,34.77000045776367,34.77000045776367,34.77000045776367,0,34.77000045776367
2016-10-10,34.34000015258789,34.290000915527344,34.290000915527344,34.34000015258789,3700,34.34000015258789
2016-10-11,34.720001220703125,34.720001220703125,34.720001220703125,34.720001220703125,500,34.720001220703125
2016-10-12,34.15999984741211,34.15999984741211,34.15999984741211,34.15999984741211,200,34.15999984741211
2016-10-13,34.15999984741211,34.15999984741211,34.15999984741211,34.15999984741211,0,34.15999984741211
2016-10-14,33.900001525878906,33.900001525878906,33.900001525878906,33.900001525878906,500,33.900001525878906
2016-10-17,34.27000045776367,34.27000045776367,34.27000045776367,34.27000045776367,1400,34.27000045776367
2016-10-18,34.02000045776367,34.02000045776367,34.02000045776367,34.02000045776367,500,34.02000045776367
2016-10-19,34.06999969482422,33.459999084472656,34.029998779296875,33.5,35400,33.5
2016-10-20,34.13999938964844,33.54999923706055,33.58000183105469,34.060001373291016,14500,34.060001373291016
2016-10-21,34.630001068115234,34.04999923706055,34.119998931884766,34.54999923706055,9700,34.54999923706055
2016-10-24,35.220001220703125,34.97999954223633,35.099998474121094,35.09000015258789,4900,35.09000015258789
2016-10-25,35.650001525878906,35.25,35.5,35.34000015258789,13500,35.34000015258789
2016-10-26,35.63999938964844,35.349998474121094,35.349998474121094,35.540000915527344,1200,35.540000915527344
2016-10-27,36.06999969482422,35.540000915527344,35.540000915527344,35.95000076293945,6800,35.95000076293945
2016-10-28,36.279998779296875,36.0,36.0,36.279998779296875,1800,36.279998779296875
2016-10-31,36.43000030517578,36.04999923706055,36.2400016784668,36.18000030517578,12200,36.18000030517578
2016-11-01,36.56999969482422,36.11000061035156,36.16999816894531,36.38999938964844,8100,36.38999938964844
2016-11-02,36.59000015258789,36.36000061035156,36.5,36.5,14300,36.5
2016-11-03,36.22999954223633,36.060001373291016,36.099998474121094,36.209999084472656,2500,36.209999084472656
2016-11-04,36.04999923706055,35.68000030517578,36.04999923706055,36.0,2100,36.0
2016-11-07,35.959999084472656,35.45000076293945,35.959999084472656,35.7400016784668,3100,35.7400016784668
2016-11-08,36.13999938964844,36.06999969482422,36.06999969482422,36.13999938964844,2100,36.13999938964844
2016-11-09,36.279998779296875,36.2400016784668,36.2400016784668,36.279998779296875,600,36.279998779296875
2016-11-10,36.52000045776367,36.34000015258789,36.380001068115234,36.52000045776367,2300,36.52000045776367
2016-11-11,36.599998474121094,36.599998474121094,36.599998474121094,36.599998474121094,200,36.599998474121094
2016-11-14,36.599998474121094,36.189998626708984,36.599998474121094,36.54999923706055,3000,36.54999923706055
2016-11-15,36.45000076293945,36.22999954223633,36.22999954223633,36.45000076293945,4600,36.45000076293945
2016-11-16,36.650001525878906,36.5,36.5,36.650001525878906,600,36.650001525878906
2016-11-17,37.20000076293945,36.90999984741211,37.119998931884766,37.15999984741211,1400,37.15999984741211
2016-11-18,37.15999984741211,37.15999984741211,37.15999984741211,37.15999984741211,0,37.15999984741211
2016-11-21,37.630001068115234,37.540000915527344,37.540000915527344,37.56999969482422,1200,37.56999969482422
2016-11-22,37.56999969482422,37.56999969482422,37.56999969482422,37.56999969482422,10600,37.56999969482422
2016-11-23,37.63999938964844,37.47999954223633,37.630001068115234,37.63999938964844,10200,37.63999938964844
2016-11-25,38.06999969482422,37.97999954223633,37.97999954223633,38.06999969482422,3300,38.06999969482422
2016-11-28,38.209999084472656,38.029998779296875,38.029998779296875,38.029998779296875,1000,38.029998779296875
2016-11-29,38.029998779296875,38.029998779296875,38.029998779296875,38.029998779296875,0,38.029998779296875
2016-11-30,37.79999923706055,36.630001068115234,36.630001068115234,37.79999923706055,1600,37.79999923706055
2016-12-01,37.4900016784668,37.4900016784668,37.4900016784668,37.4900016784668,400,37.4900016784668
2016-12-02,37.4900016784668,37.4900016784668,37.4900016784668,37.4900016784668,1600,37.4900016784668
2016-12-05,37.20000076293945,37.040000915527344,37.040000915527344,37.08000183105469,4500,37.08000183105469
2016-12-06,37.5,37.5,37.5,37.5,1700,37.5
2016-12-07,37.5,37.5,37.5,37.5,0,37.5
2016-12-08,38.04999923706055,38.04999923706055,38.04999923706055,38.04999923706055,300,38.04999923706055
2016-12-09,38.04999923706055,38.04999923706055,38.04999923706055,38.04999923706055,300,38.04999923706055
2016-12-12,38.0099983215332,38.0099983215332,38.0099983215332,38.0099983215332,100,38.0099983215332
2016-12-13,39.13999938964844,39.04999923706055,39.08000183105469,39.13999938964844,3200,39.13999938964844
2016-12-14,39.279998779296875,38.97999954223633,39.16999816894531,38.97999954223633,800,38.97999954223633
2016-12-15,39.31999969482422,37.77000045776367,37.77000045776367,39.31999969482422,2300,39.31999969482422
2016-12-16,39.540000915527344,39.459999084472656,39.459999084472656,39.540000915527344,9000,39.540000915527344
2016-12-19,39.189998626708984,39.189998626708984,39.189998626708984,39.189998626708984,200,39.189998626708984
2016-12-20,39.380001068115234,39.22999954223633,39.29999923706055,39.369998931884766,8300,39.369998931884766
2016-12-21,39.470001220703125,39.349998474121094,39.470001220703125,39.349998474121094,700,39.349998474121094
2016-12-22,39.4900016784668,39.4900016784668,39.4900016784668,39.4900016784668,100,39.4900016784668
2016-12-23,39.4900016784668,39.4900016784668,39.4900016784668,39.4900016784668,0,39.4900016784668
2016-12-27,39.119998931884766,33.310001373291016,38.47999954223633,39.119998931884766,2000,39.119998931884766
2016-12-28,39.38999938964844,39.06999969482422,39.2400016784668,39.279998779296875,2100,39.279998779296875
2016-12-29,39.349998474121094,39.349998474121094,39.349998474121094,39.349998474121094,300,39.349998474121094
2016-12-30,39.349998474121094,39.349998474121094,39.349998474121094,39.349998474121094,0,39.349998474121094
2017-01-03,39.52000045776367,39.470001220703125,39.470001220703125,39.52000045776367,4100,39.52000045776367
2017-01-04,39.52000045776367,39.52000045776367,39.52000045776367,39.52000045776367,100,39.52000045776367
2017-01-05,39.66999816894531,39.279998779296875,39.61000061035156,39.279998779296875,1800,39.279998779296875
2017-01-06,39.27000045776367,39.130001068115234,39.15999984741211,39.27000045776367,3200,39.27000045776367
2017-01-09,39.22999954223633,39.16999816894531,39.22999954223633,39.16999816894531,400,39.16999816894531
2017-01-10,40.0,40.0,40.0,40.0,200,40.0
2017-01-11,40.470001220703125,40.40999984741211,40.470001220703125,40.470001220703125,1400,40.470001220703125
2017-01-12,40.470001220703125,40.470001220703125,40.470001220703125,40.470001220703125,0,40.470001220703125
2017-01-13,40.470001220703125,40.470001220703125,40.470001220703125,40.470001220703125,0,40.470001220703125
2017-01-17,40.70000076293945,40.70000076293945,40.70000076293945,40.70000076293945,300,40.70000076293945
2017-01-18,40.91999816894531,40.79999923706055,40.79999923706055,40.88999938964844,3300,40.88999938964844
2017-01-19,40.88999938964844,40.88999938964844,40.88999938964844,40.88999938964844,0,40.88999938964844
2017-01-20,40.880001068115234,40.880001068115234,40.880001068115234,40.880001068115234,200,40.880001068115234
2017-01-23,40.880001068115234,40.880001068115234,40.880001068115234,40.880001068115234,0,40.880001068115234
2017-01-24,40.880001068115234,40.880001068115234,40.880001068115234,40.880001068115234,0,40.880001068115234
2017-01-25,40.7599983215332,40.65999984741211,40.65999984741211,40.7599983215332,200,40.7599983215332
2017-01-26,40.7599983215332,40.7599983215332,40.7599983215332,40.7599983215332,0,40.7599983215332
2017-01-27,40.22999954223633,40.189998626708984,40.189998626708984,40.22999954223633,15600,40.22999954223633
2017-01-30,40.22999954223633,40.22999954223633,40.22999954223633,40.22999954223633,0,40.22999954223633
2017-01-31,39.7400016784668,39.63999938964844,39.7400016784668,39.63999938964844,16800,39.63999938964844
2017-02-01,39.709999084472656,39.54999923706055,39.54999923706055,39.709999084472656,400,39.709999084472656
2017-02-02,39.900001525878906,39.75,39.75,39.900001525878906,300,39.900001525878906
2017-02-03,40.04999923706055,39.959999084472656,39.959999084472656,40.04999923706055,200,40.04999923706055
2017-02-06,40.20000076293945,40.119998931884766,40.150001525878906,40.20000076293945,1200,40.20000076293945
2017-02-07,40.369998931884766,40.130001068115234,40.130001068115234,40.27000045776367,500,40.27000045776367
2017-02-08,40.27000045776367,40.27000045776367,40.27000045776367,40.27000045776367,0,40.27000045776367
2017-02-09,40.04999923706055,40.0099983215332,40.0099983215332,40.04999923706055,400,40.04999923706055
2017-02-10,40.04999923706055,40.04999923706055,40.04999923706055,40.04999923706055,0,40.04999923706055
2017-02-13,39.75,39.52000045776367,39.52000045776367,39.61000061035156,900,39.61000061035156
2017-02-14,39.68000030517578,39.68000030517578,39.68000030517578,39.68000030517578,200,39.68000030517578
2017-02-15,39.68000030517578,39.68000030517578,39.68000030517578,39.68000030517578,0,39.68000030517578
2017-02-16,39.68000030517578,39.68000030517578,39.68000030517578,39.68000030517578,0,39.68000030517578
2017-02-17,40.15999984741211,40.02000045776367,40.02000045776367,40.08000183105469,9000,40.08000183105469
2017-02-21,40.08000183105469,40.08000183105469,40.08000183105469,40.08000183105469,11000,40.08000183105469
2017-02-22,40.08000183105469,40.08000183105469,40.08000183105469,40.08000183105469,0,40.08000183105469
2017-02-23,40.13999938964844,40.06999969482422,40.06999969482422,40.13999938964844,200,40.13999938964844
2017-02-24,39.970001220703125,39.849998474121094,39.970001220703125,39.88999938964844,600,39.88999938964844
2017-02-27,40.0,40.0,40.0,40.0,1000,40.0
2017-02-28,40.0,40.0,40.0,40.0,0,40.0
2017-03-01,40.0,40.0,40.0,40.0,0,40.0
2017-03-02,40.599998474121094,40.540000915527344,40.540000915527344,40.599998474121094,200,40.599998474121094
2017-03-03,40.20000076293945,39.97999954223633,39.97999954223633,40.099998474121094,3300,40.099998474121094
2017-03-06,40.0099983215332,40.0099983215332,40.0099983215332,40.0099983215332,500,40.0099983215332
2017-03-07,40.09000015258789,39.88999938964844,39.939998626708984,39.88999938964844,2000,39.88999938964844
2017-03-08,40.20000076293945,40.20000076293945,40.20000076293945,40.20000076293945,200,40.20000076293945
2017-03-09,40.20000076293945,40.20000076293945,40.20000076293945,40.20000076293945,0,40.20000076293945
2017-03-10,40.310001373291016,40.29999923706055,40.310001373291016,40.29999923706055,300,40.29999923706055
2017-03-13,40.75,40.619998931884766,40.709999084472656,40.75,1600,40.75
2017-03-14,40.75,40.75,40.75,40.75,0,40.75
2017-03-15,40.68000030517578,40.619998931884766,40.619998931884766,40.68000030517578,600,40.68000030517578
2017-03-16,41.189998626708984,40.900001525878906,40.900001525878906,41.189998626708984,700,41.189998626708984
2017-03-17,41.189998626708984,41.189998626708984,41.189998626708984,41.189998626708984,0,41.189998626708984
2017-03-20,41.189998626708984,41.189998626708984,41.189998626708984,41.189998626708984,0,41.189998626708984
2017-03-21,41.189998626708984,41.189998626708984,41.189998626708984,41.189998626708984,0,41.189998626708984
2017-03-22,41.2400016784668,41.2400016784668,41.2400016784668,41.2400016784668,700,41.2400016784668
2017-03-23,41.66999816894531,41.540000915527344,41.540000915527344,41.66999816894531,1300,41.66999816894531
2017-03-24,41.66999816894531,41.66999816894531,41.66999816894531,41.66999816894531,0,41.66999816894531
2017-03-27,41.66999816894531,41.66999816894531,41.66999816894531,41.66999816894531,0,41.66999816894531
2017-03-28,41.66999816894531,41.66999816894531,41.66999816894531,41.66999816894531,5100,41.66999816894531
2017-03-29,41.66999816894531,41.66999816894531,41.66999816894531,41.66999816894531,0,41.66999816894531
2017-03-30,41.66999816894531,41.66999816894531,41.66999816894531,41.66999816894531,0,41.66999816894531
2017-03-31,40.54999923706055,40.54999923706055,40.54999923706055,40.54999923706055,700,40.54999923706055
2017-04-03,40.779998779296875,40.779998779296875,40.779998779296875,40.779998779296875,100,40.779998779296875
2017-04-04,40.779998779296875,40.779998779296875,40.779998779296875,40.779998779296875,0,40.779998779296875
2017-04-05,40.779998779296875,40.779998779296875,40.779998779296875,40.779998779296875,0,40.779998779296875
2017-04-06,40.779998779296875,40.779998779296875,40.779998779296875,40.779998779296875,0,40.779998779296875
2017-04-07,40.779998779296875,40.779998779296875,40.779998779296875,40.779998779296875,0,40.779998779296875
2017-04-10,40.779998779296875,40.779998779296875,40.779998779296875,40.779998779296875,0,40.779998779296875
2017-04-11,40.779998779296875,40.779998779296875,40.779998779296875,40.779998779296875,0,40.779998779296875
2017-04-12,41.68000030517578,41.09000015258789,41.09000015258789,41.68000030517578,200,41.68000030517578
2017-04-13,41.68000030517578,41.68000030517578,41.68000030517578,41.68000030517578,0,41.68000030517578
2017-04-17,41.77000045776367,41.77000045776367,41.77000045776367,41.77000045776367,100,41.77000045776367
2017-04-18,42.060001373291016,42.060001373291016,42.060001373291016,42.060001373291016,4400,42.060001373291016
2017-04-19,42.08000183105469,42.04999923706055,42.08000183105469,42.04999923706055,1900,42.04999923706055
2017-04-20,42.04999923706055,42.04999923706055,42.04999923706055,42.04999923706055,0,42.04999923706055
2017-04-21,42.150001525878906,42.060001373291016,42.09000015258789,42.060001373291016,1000,42.060001373291016
2017-04-24,41.720001220703125,41.5,41.720001220703125,41.5,400,41.5
2017-04-25,41.5,41.5,41.5,41.5,0,41.5
2017-04-26,41.5,41.5,41.5,41.5,0,41.5
2017-04-27,43.45000076293945,43.45000076293945,43.45000076293945,43.45000076293945,100,43.45000076293945
2017-04-28,43.45000076293945,43.45000076293945,43.45000076293945,43.45000076293945,0,43.45000076293945
2017-05-01,43.45000076293945,43.45000076293945,43.45000076293945,43.45000076293945,0,43.45000076293945
2017-05-02,44.18000030517578,44.18000030517578,44.18000030517578,44.18000030517578,100,44.18000030517578
2017-05-03,44.18000030517578,44.18000030517578,44.18000030517578,44.18000030517578,0,44.18000030517578
2017-05-04,45.13999938964844,45.13999938964844,45.13999938964844,45.13999938964844,200,45.13999938964844
2017-05-05,45.13999938964844,45.13999938964844,45.13999938964844,45.13999938964844,0,45.13999938964844
2017-05-08,45.13999938964844,45.13999938964844,45.13999938964844,45.13999938964844,2200,45.13999938964844
2017-05-09,45.13999938964844,45.13999938964844,45.13999938964844,45.13999938964844,0,45.13999938964844
2017-05-10,45.13999938964844,45.13999938964844,45.13999938964844,45.13999938964844,0,45.13999938964844
2017-05-11,45.13999938964844,45.13999938964844,45.13999938964844,45.13999938964844,0,45.13999938964844
2017-05-12,44.970001220703125,44.7400016784668,44.7400016784668,44.970001220703125,900,44.970001220703125
2017-05-15,44.970001220703125,44.970001220703125,44.970001220703125,44.970001220703125,0,44.970001220703125
2017-05-16,44.970001220703125,44.970001220703125,44.970001220703125,44.970001220703125,0,44.970001220703125
2017-05-17,44.130001068115234,44.130001068115234,44.130001068115234,44.130001068115234,200,44.130001068115234
2017-05-18,44.130001068115234,44.130001068115234,44.130001068115234,44.130001068115234,2000,44.130001068115234
2017-05-19,44.130001068115234,44.130001068115234,44.130001068115234,44.130001068115234,0,44.130001068115234
2017-05-22,44.93000030517578,44.47999954223633,44.5099983215332,44.93000030517578,2800,44.93000030517578
2017-05-23,44.93000030517578,44.93000030517578,44.93000030517578,44.93000030517578,3700,44.93000030517578
2017-05-24,44.93000030517578,44.93000030517578,44.93000030517578,44.93000030517578,0,44.93000030517578
2017-05-25,44.93000030517578,44.93000030517578,44.93000030517578,44.93000030517578,0,44.93000030517578
2017-05-26,44.11000061035156,43.900001525878906,44.11000061035156,43.900001525878906,500,43.900001525878906
2017-05-30,44.349998474121094,44.349998474121094,44.349998474121094,44.349998474121094,200,44.349998474121094
2017-05-31,45.0,45.0,45.0,45.0,200,45.0
2017-06-01,45.66999816894531,45.56999969482422,45.56999969482422,45.599998474121094,500,45.599998474121094
2017-06-02,45.599998474121094,45.599998474121094,45.599998474121094,45.599998474121094,5100,45.599998474121094
2017-06-05,45.599998474121094,45.599998474121094,45.599998474121094,45.599998474121094,0,45.599998474121094
2017-06-06,45.599998474121094,45.599998474121094,45.599998474121094,45.599998474121094,0,45.599998474121094
2017-06-07,45.540000915527344,45.540000915527344,45.540000915527344,45.540000915527344,200,45.540000915527344
2017-06-08,45.540000915527344,45.540000915527344,45.540000915527344,45.540000915527344,0,45.540000915527344
2017-06-09,45.540000915527344,45.540000915527344,45.540000915527344,45.540000915527344,0,45.540000915527344
2017-06-12,45.45000076293945,45.45000076293945,45.45000076293945,45.45000076293945,200,45.45000076293945
2017-06-13,45.45000076293945,45.45000076293945,45.45000076293945,45.45000076293945,0,45.45000076293945
2017-06-14,45.45000076293945,45.45000076293945,45.45000076293945,45.45000076293945,0,45.45000076293945
2017-06-15,43.97999954223633,43.709999084472656,43.88999938964844,43.779998779296875,1500,43.779998779296875
2017-06-16,43.90999984741211,43.70000076293945,43.70000076293945,43.90999984741211,1300,43.90999984741211
2017-06-19,44.08000183105469,44.029998779296875,44.08000183105469,44.08000183105469,1000,44.08000183105469
2017-06-20,43.650001525878906,43.650001525878906,43.650001525878906,43.650001525878906,200,43.650001525878906
2017-06-21,43.650001525878906,43.650001525878906,43.650001525878906,43.650001525878906,0,43.650001525878906
2017-06-22,43.61000061035156,43.59000015258789,43.59000015258789,43.61000061035156,600,43.61000061035156
2017-06-23,43.11000061035156,43.06999969482422,43.06999969482422,43.11000061035156,400,43.11000061035156
2017-06-26,43.220001220703125,43.18000030517578,43.18000030517578,43.220001220703125,400,43.220001220703125
2017-06-27,43.220001220703125,43.220001220703125,43.220001220703125,43.220001220703125,0,43.220001220703125
2017-06-28,43.220001220703125,43.220001220703125,43.220001220703125,43.220001220703125,0,43.220001220703125
2017-06-29,44.27000045776367,44.189998626708984,44.189998626708984,44.27000045776367,300,44.27000045776367
2017-06-30,44.400001525878906,44.38999938964844,44.38999938964844,44.400001525878906,400,44.400001525878906
2017-07-03,44.400001525878906,44.400001525878906,44.400001525878906,44.400001525878906,0,44.400001525878906
2017-07-05,44.7400016784668,44.650001525878906,44.7400016784668,44.68000030517578,400,44.68000030517578
2017-07-06,44.68000030517578,44.68000030517578,44.68000030517578,44.68000030517578,0,44.68000030517578
2017-07-07,44.25,44.25,44.25,44.25,100,44.25
2017-07-10,44.31999969482422,44.220001220703125,44.220001220703125,44.31999969482422,400,44.31999969482422
2017-07-11,44.400001525878906,44.400001525878906,44.400001525878906,44.400001525878906,100,44.400001525878906
2017-07-12,45.2400016784668,45.2400016784668,45.2400016784668,45.2400016784668,200,45.2400016784668
2017-07-13,45.2400016784668,45.2400016784668,45.2400016784668,45.2400016784668,0,45.2400016784668
2017-07-14,44.900001525878906,44.880001068115234,44.900001525878906,44.88999938964844,3300,44.88999938964844
2017-07-17,44.88999938964844,44.88999938964844,44.88999938964844,44.88999938964844,0,44.88999938964844
2017-07-18,44.88999938964844,44.88999938964844,44.88999938964844,44.88999938964844,0,44.88999938964844
2017-07-19,44.88999938964844,44.88999938964844,44.88999938964844,44.88999938964844,0,44.88999938964844
2017-07-20,44.88999938964844,44.88999938964844,44.88999938964844,44.88999938964844,0,44.88999938964844
2017-07-21,44.88999938964844,44.88999938964844,44.88999938964844,44.88999938964844,0,44.88999938964844
2017-07-24,44.88999938964844,44.88999938964844,44.88999938964844,44.88999938964844,0,44.88999938964844
2017-07-25,44.88999938964844,44.88999938964844,44.88999938964844,44.88999938964844,0,44.88999938964844
2017-07-26,44.88999938964844,44.88999938964844,44.88999938964844,44.88999938964844,0,44.88999938964844
2017-07-27,44.88999938964844,44.88999938964844,44.88999938964844,44.88999938964844,0,44.88999938964844
2017-07-28,44.88999938964844,44.88999938964844,44.88999938964844,44.88999938964844,0,44.88999938964844
2017-07-31,43.36000061035156,43.36000061035156,43.36000061035156,43.36000061035156,100,43.36000061035156
2017-08-01,43.0,42.939998626708984,42.939998626708984,43.0,500,43.0
2017-08-02,43.689998626708984,43.689998626708984,43.689998626708984,43.689998626708984,900,43.689998626708984
2017-08-03,43.689998626708984,43.689998626708984,43.689998626708984,43.689998626708984,0,43.689998626708984
2017-08-04,43.689998626708984,43.689998626708984,43.689998626708984,43.689998626708984,0,43.689998626708984
2017-08-07,43.689998626708984,43.689998626708984,43.689998626708984,43.689998626708984,0,43.689998626708984
2017-08-08,43.689998626708984,43.689998626708984,43.689998626708984,43.689998626708984,0,43.689998626708984
2017-08-09,43.689998626708984,43.689998626708984,43.689998626708984,43.689998626708984,0,43.689998626708984
2017-08-10,42.5,42.5,42.5,42.5,500,42.5
2017-08-11,42.43000030517578,42.369998931884766,42.369998931884766,42.43000030517578,2600,42.43000030517578
2017-08-14,42.31999969482422,42.2400016784668,42.25,42.31999969482422,1300,42.31999969482422
2017-08-15,42.31999969482422,42.31999969482422,42.31999969482422,42.31999969482422,0,42.31999969482422
2017-08-16,42.31999969482422,42.31999969482422,42.31999969482422,42.31999969482422,0,42.31999969482422
2017-08-17,42.31999969482422,42.31999969482422,42.31999969482422,42.31999969482422,0,42.31999969482422
2017-08-18,41.619998931884766,41.619998931884766,41.619998931884766,41.619998931884766,100,41.619998931884766
2017-08-21,41.619998931884766,41.619998931884766,41.619998931884766,41.619998931884766,0,41.619998931884766
2017-08-22,41.619998931884766,41.619998931884766,41.619998931884766,41.619998931884766,0,41.619998931884766
2017-08-23,41.619998931884766,41.619998931884766,41.619998931884766,41.619998931884766,0,41.619998931884766
2017-08-24,41.619998931884766,41.619998931884766,41.619998931884766,41.619998931884766,0,41.619998931884766
2017-08-25,41.619998931884766,41.619998931884766,41.619998931884766,41.619998931884766,0,41.619998931884766
2017-08-28,41.540000915527344,41.540000915527344,41.540000915527344,41.540000915527344,200,41.540000915527344
2017-08-29,41.540000915527344,41.540000915527344,41.540000915527344,41.540000915527344,0,41.540000915527344
2017-08-30,41.0,41.0,41.0,41.0,600,41.0
2017-08-31,41.52000045776367,41.060001373291016,41.060001373291016,41.52000045776367,600,41.52000045776367
2017-09-01,41.38999938964844,41.08000183105469,41.08000183105469,41.38999938964844,1100,41.38999938964844
2017-09-05,41.209999084472656,41.209999084472656,41.209999084472656,41.209999084472656,300,41.209999084472656
2017-09-06,41.209999084472656,41.209999084472656,41.209999084472656,41.209999084472656,0,41.209999084472656
2017-09-07,41.209999084472656,41.209999084472656,41.209999084472656,41.209999084472656,0,41.209999084472656
2017-09-08,41.209999084472656,41.209999084472656,41.209999084472656,41.209999084472656,0,41.209999084472656
2017-09-11,41.209999084472656,41.209999084472656,41.209999084472656,41.209999084472656,0,41.209999084472656
2017-09-12,41.209999084472656,41.209999084472656,41.209999084472656,41.209999084472656,0,41.209999084472656
2017-09-13,41.209999084472656,41.209999084472656,41.209999084472656,41.209999084472656,0,41.209999084472656
2017-09-14,42.52000045776367,42.52000045776367,42.52000045776367,42.52000045776367,1800,42.52000045776367
2017-09-15,42.5,42.29999923706055,42.34000015258789,42.4900016784668,5700,42.4900016784668
2017-09-18,42.4900016784668,42.4900016784668,42.4900016784668,42.4900016784668,0,42.4900016784668
2017-09-19,42.4900016784668,42.4900016784668,42.4900016784668,42.4900016784668,0,42.4900016784668
2017-09-20,43.400001525878906,43.369998931884766,43.369998931884766,43.400001525878906,400,43.400001525878906
2017-09-21,43.400001525878906,43.400001525878906,43.400001525878906,43.400001525878906,0,43.400001525878906
2017-09-22,43.400001525878906,43.400001525878906,43.400001525878906,43.400001525878906,0,43.400001525878906
2017-09-25,42.75,42.7400016784668,42.75,42.7400016784668,5600,42.7400016784668
2017-09-26,42.7400016784668,42.7400016784668,42.7400016784668,42.7400016784668,0,42.7400016784668
2017-09-27,42.7400016784668,42.7400016784668,42.7400016784668,42.7400016784668,0,42.7400016784668
2017-09-28,42.7400016784668,42.7400016784668,42.7400016784668,42.7400016784668,0,42.7400016784668
2017-09-29,43.119998931884766,43.119998931884766,43.119998931884766,43.119998931884766,100,43.119998931884766
2017-10-02,43.2400016784668,43.2400016784668,43.2400016784668,43.2400016784668,100,43.2400016784668
2017-10-03,43.2400016784668,43.2400016784668,43.2400016784668,43.2400016784668,0,43.2400016784668
2017-10-04,43.2400016784668,43.2400016784668,43.2400016784668,43.2400016784668,0,43.2400016784668
2017-10-05,43.2400016784668,43.2400016784668,43.2400016784668,43.2400016784668,0,43.2400016784668
2017-10-06,43.2400016784668,43.2400016784668,43.2400016784668,43.2400016784668,0,43.2400016784668
2017-10-09,43.2400016784668,43.2400016784668,43.2400016784668,43.2400016784668,0,43.2400016784668
2017-10-10,43.2400016784668,43.2400016784668,43.2400016784668,43.2400016784668,0,43.2400016784668
2017-10-11,43.2400016784668,43.2400016784668,43.2400016784668,43.2400016784668,0,43.2400016784668
2017-10-12,44.529998779296875,44.529998779296875,44.529998779296875,44.529998779296875,5400,44.529998779296875
2017-10-13,44.529998779296875,44.529998779296875,44.529998779296875,44.529998779296875,0,44.529998779296875
2017-10-16,44.529998779296875,44.529998779296875,44.529998779296875,44.529998779296875,0,44.529998779296875
2017-10-17,44.529998779296875,44.529998779296875,44.529998779296875,44.529998779296875,0,44.529998779296875
2017-10-18,44.529998779296875,44.529998779296875,44.529998779296875,44.529998779296875,0,44.529998779296875
2017-10-19,44.529998779296875,44.529998779296875,44.529998779296875,44.529998779296875,0,44.529998779296875
2017-10-20,44.529998779296875,44.529998779296875,44.529998779296875,44.529998779296875,0,44.529998779296875
2017-10-23,44.619998931884766,44.619998931884766,44.619998931884766,44.619998931884766,100,44.619998931884766
2017-10-24,45.02000045776367,45.02000045776367,45.02000045776367,45.02000045776367,200,45.02000045776367
2017-10-25,45.02000045776367,45.02000045776367,45.02000045776367,45.02000045776367,0,45.02000045776367
2017-10-26,45.02000045776367,45.02000045776367,45.02000045776367,45.02000045776367,0,45.02000045776367
2017-10-27,45.02000045776367,45.02000045776367,45.02000045776367,45.02000045776367,0,45.02000045776367
2017-10-30,46.65999984741211,46.56999969482422,46.56999969482422,46.65999984741211,600,46.65999984741211
2017-10-31,47.380001068115234,47.20000076293945,47.380001068115234,47.220001220703125,3300,47.220001220703125
2017-11-01,47.529998779296875,47.529998779296875,47.529998779296875,47.529998779296875,1300,47.529998779296875
2017-11-02,47.529998779296875,47.529998779296875,47.529998779296875,47.529998779296875,0,47.529998779296875
2017-11-03,47.529998779296875,47.529998779296875,47.529998779296875,47.529998779296875,0,47.529998779296875
2017-11-06,47.529998779296875,47.529998779296875,47.529998779296875,47.529998779296875,0,47.529998779296875
2017-11-07,47.529998779296875,47.529998779296875,47.529998779296875,47.529998779296875,0,47.529998779296875
2017-11-08,47.529998779296875,47.529998779296875,47.529998779296875,47.529998779296875,0,47.529998779296875
2017-11-09,47.529998779296875,47.529998779296875,47.529998779296875,47.529998779296875,0,47.529998779296875
2017-11-10,47.529998779296875,47.529998779296875,47.529998779296875,47.529998779296875,0,47.529998779296875
2017-11-13,47.529998779296875,47.529998779296875,47.529998779296875,47.529998779296875,0,47.529998779296875
2017-11-14,45.97999954223633,45.84000015258789,45.95000076293945,45.84000015258789,18400,45.84000015258789
2017-11-15,45.84000015258789,45.84000015258789,45.84000015258789,45.84000015258789,0,45.84000015258789
2017-11-16,45.720001220703125,45.70000076293945,45.720001220703125,45.709999084472656,400,45.709999084472656
2017-11-17,45.709999084472656,45.709999084472656,45.709999084472656,45.709999084472656,0,45.709999084472656
2017-11-20,45.400001525878906,45.02000045776367,45.400001525878906,45.279998779296875,3900,45.279998779296875
2017-11-21,45.36000061035156,45.279998779296875,45.279998779296875,45.36000061035156,200,45.36000061035156
2017-11-22,46.08000183105469,45.689998626708984,45.689998626708984,45.84000015258789,3000,45.84000015258789
2017-11-24,46.0,45.93000030517578,45.93000030517578,46.0,1100,46.0
2017-11-27,46.36000061035156,46.349998474121094,46.36000061035156,46.349998474121094,300,46.349998474121094
2017-11-28,46.349998474121094,46.349998474121094,46.349998474121094,46.349998474121094,17000,46.349998474121094
2017-11-29,46.349998474121094,46.349998474121094,46.349998474121094,46.349998474121094,0,46.349998474121094
2017-11-30,46.349998474121094,46.349998474121094,46.349998474121094,46.349998474121094,100,46.349998474121094
2017-12-01,46.0099983215332,45.099998474121094,45.099998474121094,45.36000061035156,1400,45.36000061035156
2017-12-04,45.529998779296875,45.529998779296875,45.529998779296875,45.529998779296875,200,45.529998779296875
2017-12-05,45.31999969482422,45.189998626708984,45.27000045776367,45.189998626708984,400,45.189998626708984
2017-12-06,45.189998626708984,45.189998626708984,45.189998626708984,45.189998626708984,0,45.189998626708984
2017-12-07,45.189998626708984,45.189998626708984,45.189998626708984,45.189998626708984,0,45.189998626708984
2017-12-08,44.72999954223633,44.72999954223633,44.72999954223633,44.72999954223633,200,44.72999954223633
2017-12-11,44.72999954223633,44.72999954223633,44.72999954223633,44.72999954223633,0,44.72999954223633
2017-12-12,44.72999954223633,44.72999954223633,44.72999954223633,44.72999954223633,0,44.72999954223633
2017-12-13,44.720001220703125,44.650001525878906,44.720001220703125,44.650001525878906,2900,44.650001525878906
2017-12-14,44.93000030517578,44.5099983215332,44.529998779296875,44.93000030517578,10700,44.93000030517578
2017-12-15,44.93000030517578,44.93000030517578,44.93000030517578,44.93000030517578,0,44.93000030517578
2017-12-18,44.93000030517578,44.93000030517578,44.93000030517578,44.93000030517578,0,44.93000030517578
2017-12-19,44.93000030517578,44.93000030517578,44.93000030517578,44.93000030517578,0,44.93000030517578
2017-12-20,44.619998931884766,44.619998931884766,44.619998931884766,44.619998931884766,100,44.619998931884766
2017-12-21,44.619998931884766,44.619998931884766,44.619998931884766,44.619998931884766,0,44.619998931884766
2017-12-22,44.619998931884766,44.619998931884766,44.619998931884766,44.619998931884766,0,44.619998931884766
2017-12-26,44.79999923706055,44.79999923706055,44.79999923706055,44.79999923706055,700,44.79999923706055
2017-12-27,44.79999923706055,44.79999923706055,44.79999923706055,44.79999923706055,0,44.79999923706055
2017-12-28,44.79999923706055,44.79999923706055,44.79999923706055,44.79999923706055,0,44.79999923706055
2017-12-29,44.79999923706055,44.79999923706055,44.79999923706055,44.79999923706055,0,44.79999923706055
2018-01-02,45.16999816894531,43.529998779296875,43.529998779296875,45.16999816894531,600,45.16999816894531
2018-01-03,45.16999816894531,45.16999816894531,45.16999816894531,45.16999816894531,0,45.16999816894531
2018-01-04,45.16999816894531,45.16999816894531,45.16999816894531,45.16999816894531,0,45.16999816894531
2018-01-05,45.16999816894531,45.16999816894531,45.16999816894531,45.16999816894531,0,45.16999816894531
2018-01-08,45.16999816894531,45.16999816894531,45.16999816894531,45.16999816894531,0,45.16999816894531
2018-01-09,45.16999816894531,45.16999816894531,45.16999816894531,45.16999816894531,0,45.16999816894531
2018-01-10,45.16999816894531,45.16999816894531,45.16999816894531,45.16999816894531,0,45.16999816894531
2018-01-11,45.16999816894531,45.16999816894531,45.16999816894531,45.16999816894531,0,45.16999816894531
2018-01-12,45.16999816894531,45.16999816894531,45.16999816894531,45.16999816894531,0,45.16999816894531
2018-01-16,45.16999816894531,45.16999816894531,45.16999816894531,45.16999816894531,0,45.16999816894531
2018-01-17,45.16999816894531,45.16999816894531,45.16999816894531,45.16999816894531,0,45.16999816894531
2018-01-18,45.16999816894531,45.16999816894531,45.16999816894531,45.16999816894531,0,45.16999816894531
2018-01-19,45.16999816894531,45.16999816894531,45.16999816894531,45.16999816894531,4400,45.16999816894531
2018-01-22,45.16999816894531,45.16999816894531,45.16999816894531,45.16999816894531,0,45.16999816894531
2018-01-23,45.939998626708984,45.939998626708984,45.939998626708984,45.939998626708984,300,45.939998626708984
2018-01-24,45.939998626708984,45.939998626708984,45.939998626708984,45.939998626708984,0,45.939998626708984
2018-01-25,45.939998626708984,45.939998626708984,45.939998626708984,45.939998626708984,0,45.939998626708984
2018-01-26,45.939998626708984,45.939998626708984,45.939998626708984,45.939998626708984,0,45.939998626708984
2018-01-29,45.869998931884766,45.75,45.869998931884766,45.75,500,45.75
2018-01-30,45.75,45.75,45.75,45.75,0,45.75
2018-01-31,45.75,45.75,45.75,45.75,0,45.75
2018-02-01,46.09000015258789,46.0,46.0,46.09000015258789,2700,46.09000015258789
2018-02-02,46.09000015258789,46.09000015258789,46.09000015258789,46.09000015258789,0,46.09000015258789
2018-02-05,46.02000045776367,46.02000045776367,46.02000045776367,46.02000045776367,900,46.02000045776367
2018-02-06,46.02000045776367,46.02000045776367,46.02000045776367,46.02000045776367,0,46.02000045776367
2018-02-07,45.11000061035156,45.08000183105469,45.11000061035156,45.08000183105469,600,45.08000183105469
2018-02-08,45.08000183105469,45.08000183105469,45.08000183105469,45.08000183105469,0,45.08000183105469
2018-02-09,45.08000183105469,45.08000183105469,45.08000183105469,45.08000183105469,0,45.08000183105469
2018-02-12,45.08000183105469,45.08000183105469,45.08000183105469,45.08000183105469,0,45.08000183105469
2018-02-13,45.08000183105469,45.08000183105469,45.08000183105469,45.08000183105469,0,45.08000183105469
2018-02-14,45.08000183105469,45.08000183105469,45.08000183105469,45.08000183105469,0,45.08000183105469
2018-02-15,45.08000183105469,45.08000183105469,45.08000183105469,45.08000183105469,0,45.08000183105469
2018-02-16,45.08000183105469,45.08000183105469,45.08000183105469,45.08000183105469,0,45.08000183105469
2018-02-20,45.08000183105469,45.08000183105469,45.08000183105469,45.08000183105469,0,45.08000183105469
2018-02-21,45.900001525878906,45.900001525878906,45.900001525878906,45.900001525878906,2200,45.900001525878906
2018-02-22,45.7400016784668,45.7400016784668,45.7400016784668,45.7400016784668,300,45.7400016784668
2018-02-23,45.7400016784668,45.7400016784668,45.7400016784668,45.7400016784668,0,45.7400016784668
2018-02-26,45.7400016784668,45.7400016784668,45.7400016784668,45.7400016784668,0,45.7400016784668
2018-02-27,45.83000183105469,45.83000183105469,45.83000183105469,45.83000183105469,2300,45.83000183105469
2018-02-28,45.83000183105469,45.83000183105469,45.83000183105469,45.83000183105469,0,45.83000183105469
2018-03-01,45.83000183105469,45.83000183105469,45.83000183105469,45.83000183105469,0,45.83000183105469
2018-03-02,45.83000183105469,45.83000183105469,45.83000183105469,45.83000183105469,0,45.83000183105469
2018-03-05,45.83000183105469,45.83000183105469,45.83000183105469,45.83000183105469,0,45.83000183105469
2018-03-06,45.83000183105469,45.83000183105469,45.83000183105469,45.83000183105469,0,45.83000183105469
2018-03-07,45.83000183105469,45.83000183105469,45.83000183105469,45.83000183105469,0,45.83000183105469
2018-03-08,45.83000183105469,45.83000183105469,45.83000183105469,45.83000183105469,0,45.83000183105469
2018-03-09,45.83000183105469,45.83000183105469,45.83000183105469,45.83000183105469,0,45.83000183105469
2018-03-12,45.83000183105469,45.83000183105469,45.83000183105469,45.83000183105469,0,45.83000183105469
2018-03-13,45.83000183105469,45.83000183105469,45.83000183105469,45.83000183105469,0,45.83000183105469
2018-03-14,45.83000183105469,45.83000183105469,45.83000183105469,45.83000183105469,0,45.83000183105469
2018-03-15,44.25,44.25,44.25,44.25,300,44.25
2018-03-16,44.25,44.25,44.25,44.25,0,44.25
2018-03-19,43.369998931884766,43.36000061035156,43.369998931884766,43.369998931884766,800,43.369998931884766
2018-03-20,43.369998931884766,43.369998931884766,43.369998931884766,43.369998931884766,0,43.369998931884766
2018-03-21,43.369998931884766,43.369998931884766,43.369998931884766,43.369998931884766,0,43.369998931884766
2018-03-22,43.369998931884766,43.369998931884766,43.369998931884766,43.369998931884766,0,43.369998931884766
2018-03-23,43.369998931884766,43.369998931884766,43.369998931884766,43.369998931884766,0,43.369998931884766
2018-03-26,41.61000061035156,41.61000061035156,41.61000061035156,41.61000061035156,217,41.61000061035156
2018-03-27,41.61000061035156,41.61000061035156,41.61000061035156,41.61000061035156,0,41.61000061035156
2018-03-28,41.75,41.75,41.75,41.75,2450,41.75
2018-03-29,41.540000915527344,41.540000915527344,41.540000915527344,41.540000915527344,800,41.540000915527344
2018-04-02,41.540000915527344,41.540000915527344,41.540000915527344,41.540000915527344,125,41.540000915527344
2018-04-03,40.56999969482422,40.189998626708984,40.56999969482422,40.189998626708984,801,40.189998626708984
2018-04-04,41.25,39.790000915527344,39.790000915527344,41.25,398,41.25
2018-04-05,42.0,42.0,42.0,42.0,100,42.0
2018-04-06,42.060001373291016,41.709999084472656,41.709999084472656,42.060001373291016,13100,42.060001373291016
2018-04-09,42.05619812011719,42.05619812011719,42.05619812011719,42.05619812011719,0,42.05619812011719
2018-04-10,42.05619812011719,42.05619812011719,42.05619812011719,42.05619812011719,0,42.05619812011719
2018-04-11,42.099998474121094,42.099998474121094,42.099998474121094,42.099998474121094,1293,42.099998474121094
2018-04-12,42.099998474121094,42.099998474121094,42.099998474121094,42.099998474121094,0,42.099998474121094
2018-04-13,42.099998474121094,42.099998474121094,42.099998474121094,42.099998474121094,0,42.099998474121094
2018-04-16,42.099998474121094,42.099998474121094,42.099998474121094,42.099998474121094,0,42.099998474121094
2018-04-17,42.099998474121094,42.099998474121094,42.099998474121094,42.099998474121094,0,42.099998474121094
2018-04-18,42.099998474121094,42.099998474121094,42.099998474121094,42.099998474121094,0,42.099998474121094
2018-04-19,42.099998474121094,42.099998474121094,42.099998474121094,42.099998474121094,0,42.099998474121094
