Date,High,Low,Open,Close,Volume,Adj Close
2016-07-15,25.229999542236328,25.229999542236328,25.229999542236328,25.229999542236328,100,25.229999542236328
2016-07-18,25.229999542236328,25.229999542236328,25.229999542236328,25.229999542236328,0,25.229999542236328
2016-07-19,25.229999542236328,25.229999542236328,25.229999542236328,25.229999542236328,0,25.229999542236328
2016-07-20,25.229999542236328,25.229999542236328,25.229999542236328,25.229999542236328,0,25.229999542236328
2016-07-21,25.229999542236328,25.229999542236328,25.229999542236328,25.229999542236328,0,25.229999542236328
2016-07-22,25.229999542236328,25.229999542236328,25.229999542236328,25.229999542236328,0,25.229999542236328
2016-07-25,25.229999542236328,25.229999542236328,25.229999542236328,25.229999542236328,0,25.229999542236328
2016-07-26,25.229999542236328,25.229999542236328,25.229999542236328,25.229999542236328,0,25.229999542236328
2016-07-27,25.229999542236328,25.229999542236328,25.229999542236328,25.229999542236328,0,25.229999542236328
2016-07-28,25.229999542236328,25.229999542236328,25.229999542236328,25.229999542236328,0,25.229999542236328
2016-07-29,25.229999542236328,25.229999542236328,25.229999542236328,25.229999542236328,0,25.229999542236328
2016-08-01,25.229999542236328,25.229999542236328,25.229999542236328,25.229999542236328,0,25.229999542236328
2016-08-02,25.229999542236328,25.229999542236328,25.229999542236328,25.229999542236328,0,25.229999542236328
2016-08-03,25.229999542236328,25.229999542236328,25.229999542236328,25.229999542236328,0,25.229999542236328
2016-08-04,25.229999542236328,25.229999542236328,25.229999542236328,25.229999542236328,0,25.229999542236328
2016-08-05,25.229999542236328,25.229999542236328,25.229999542236328,25.229999542236328,0,25.229999542236328
2016-08-08,25.229999542236328,25.229999542236328,25.229999542236328,25.229999542236328,0,25.229999542236328
2016-08-09,25.229999542236328,25.229999542236328,25.229999542236328,25.229999542236328,0,25.229999542236328
2016-08-10,25.229999542236328,25.229999542236328,25.229999542236328,25.229999542236328,0,25.229999542236328
2016-08-11,25.229999542236328,25.229999542236328,25.229999542236328,25.229999542236328,0,25.229999542236328
2016-08-12,25.229999542236328,25.229999542236328,25.229999542236328,25.229999542236328,0,25.229999542236328
2016-08-15,25.229999542236328,25.229999542236328,25.229999542236328,25.229999542236328,0,25.229999542236328
2016-08-16,25.229999542236328,25.229999542236328,25.229999542236328,25.229999542236328,0,25.229999542236328
2016-08-17,25.229999542236328,25.229999542236328,25.229999542236328,25.229999542236328,0,25.229999542236328
2016-08-18,25.229999542236328,25.229999542236328,25.229999542236328,25.229999542236328,0,25.229999542236328
2016-08-19,27.700000762939453,27.700000762939453,27.700000762939453,27.700000762939453,200,27.700000762939453
2016-08-22,27.700000762939453,27.700000762939453,27.700000762939453,27.700000762939453,0,27.700000762939453
2016-08-23,27.700000762939453,27.700000762939453,27.700000762939453,27.700000762939453,0,27.700000762939453
2016-08-24,27.700000762939453,27.700000762939453,27.700000762939453,27.700000762939453,0,27.700000762939453
2016-08-25,27.700000762939453,27.700000762939453,27.700000762939453,27.700000762939453,0,27.700000762939453
2016-08-26,27.700000762939453,27.700000762939453,27.700000762939453,27.700000762939453,0,27.700000762939453
2016-08-29,27.700000762939453,27.700000762939453,27.700000762939453,27.700000762939453,0,27.700000762939453
2016-08-30,27.700000762939453,27.700000762939453,27.700000762939453,27.700000762939453,0,27.700000762939453
2016-08-31,27.3700008392334,27.350000381469727,27.350000381469727,27.3700008392334,200,27.3700008392334
2016-09-01,27.3700008392334,27.3700008392334,27.3700008392334,27.3700008392334,0,27.3700008392334
2016-09-02,27.3700008392334,27.3700008392334,27.3700008392334,27.3700008392334,100,27.3700008392334
2016-09-06,27.3700008392334,27.3700008392334,27.3700008392334,27.3700008392334,0,27.3700008392334
2016-09-07,27.3700008392334,27.3700008392334,27.3700008392334,27.3700008392334,100,27.3700008392334
2016-09-08,28.270000457763672,28.19499969482422,28.270000457763672,28.19499969482422,400,28.19499969482422
2016-09-09,29.59000015258789,27.610000610351562,29.59000015258789,27.610000610351562,1400,27.610000610351562
2016-09-12,27.610000610351562,27.610000610351562,27.610000610351562,27.610000610351562,0,27.610000610351562
2016-09-13,25.910999298095703,25.910999298095703,25.910999298095703,25.910999298095703,200,25.910999298095703
2016-09-14,25.910999298095703,25.910999298095703,25.910999298095703,25.910999298095703,0,25.910999298095703
2016-09-15,25.969999313354492,25.969999313354492,25.969999313354492,25.969999313354492,800,25.969999313354492
2016-09-16,25.969999313354492,25.969999313354492,25.969999313354492,25.969999313354492,0,25.969999313354492
2016-09-19,25.969999313354492,25.969999313354492,25.969999313354492,25.969999313354492,0,25.969999313354492
2016-09-20,25.969999313354492,25.969999313354492,25.969999313354492,25.969999313354492,0,25.969999313354492
2016-09-21,25.969999313354492,25.969999313354492,25.969999313354492,25.969999313354492,0,25.969999313354492
2016-09-22,25.969999313354492,25.969999313354492,25.969999313354492,25.969999313354492,0,25.969999313354492
2016-09-23,25.969999313354492,25.969999313354492,25.969999313354492,25.969999313354492,0,25.969999313354492
2016-09-26,25.969999313354492,25.969999313354492,25.969999313354492,25.969999313354492,0,25.969999313354492
2016-09-27,26.540000915527344,26.511999130249023,26.530000686645508,26.511999130249023,2100,26.511999130249023
2016-09-28,26.511999130249023,26.511999130249023,26.511999130249023,26.511999130249023,0,26.511999130249023
2016-09-29,26.511999130249023,26.511999130249023,26.511999130249023,26.511999130249023,0,26.511999130249023
2016-09-30,26.511999130249023,26.511999130249023,26.511999130249023,26.511999130249023,0,26.511999130249023
2016-10-03,26.511999130249023,26.511999130249023,26.511999130249023,26.511999130249023,0,26.511999130249023
2016-10-04,26.610000610351562,26.360000610351562,26.600000381469727,26.389999389648438,2300,26.389999389648438
2016-10-05,26.389999389648438,26.389999389648438,26.389999389648438,26.389999389648438,0,26.389999389648438
2016-10-06,26.389999389648438,26.389999389648438,26.389999389648438,26.389999389648438,0,26.389999389648438
2016-10-07,26.389999389648438,26.389999389648438,26.389999389648438,26.389999389648438,0,26.389999389648438
2016-10-10,26.389999389648438,26.389999389648438,26.389999389648438,26.389999389648438,0,26.389999389648438
2016-10-11,26.389999389648438,26.389999389648438,26.389999389648438,26.389999389648438,0,26.389999389648438
2016-10-12,26.389999389648438,26.389999389648438,26.389999389648438,26.389999389648438,0,26.389999389648438
2016-10-13,26.389999389648438,26.389999389648438,26.389999389648438,26.389999389648438,0,26.389999389648438
2016-10-14,26.389999389648438,26.389999389648438,26.389999389648438,26.389999389648438,0,26.389999389648438
2016-10-17,26.389999389648438,26.389999389648438,26.389999389648438,26.389999389648438,0,26.389999389648438
2016-10-18,26.389999389648438,26.389999389648438,26.389999389648438,26.389999389648438,0,26.389999389648438
2016-10-19,26.389999389648438,26.389999389648438,26.389999389648438,26.389999389648438,0,26.389999389648438
2016-10-20,26.389999389648438,26.389999389648438,26.389999389648438,26.389999389648438,600,26.389999389648438
2016-10-21,26.389999389648438,26.389999389648438,26.389999389648438,26.389999389648438,0,26.389999389648438
2016-10-24,26.389999389648438,26.389999389648438,26.389999389648438,26.389999389648438,0,26.389999389648438
2016-10-25,26.389999389648438,26.389999389648438,26.389999389648438,26.389999389648438,0,26.389999389648438
2016-10-26,26.389999389648438,26.389999389648438,26.389999389648438,26.389999389648438,0,26.389999389648438
2016-10-27,26.389999389648438,26.389999389648438,26.389999389648438,26.389999389648438,0,26.389999389648438
2016-10-28,26.389999389648438,26.389999389648438,26.389999389648438,26.389999389648438,0,26.389999389648438
2016-10-31,26.389999389648438,26.389999389648438,26.389999389648438,26.389999389648438,0,26.389999389648438
2016-11-01,26.389999389648438,26.389999389648438,26.389999389648438,26.389999389648438,0,26.389999389648438
2016-11-02,26.389999389648438,26.389999389648438,26.389999389648438,26.389999389648438,0,26.389999389648438
2016-11-03,26.399999618530273,26.399999618530273,26.399999618530273,26.399999618530273,600,26.399999618530273
2016-11-04,26.399999618530273,26.399999618530273,26.399999618530273,26.399999618530273,0,26.399999618530273
2016-11-07,26.399999618530273,26.399999618530273,26.399999618530273,26.399999618530273,0,26.399999618530273
2016-11-08,26.399999618530273,26.399999618530273,26.399999618530273,26.399999618530273,0,26.399999618530273
2016-11-09,26.399999618530273,26.399999618530273,26.399999618530273,26.399999618530273,0,26.399999618530273
2016-11-10,26.399999618530273,26.399999618530273,26.399999618530273,26.399999618530273,0,26.399999618530273
2016-11-11,26.399999618530273,26.399999618530273,26.399999618530273,26.399999618530273,0,26.399999618530273
2016-11-14,26.399999618530273,26.399999618530273,26.399999618530273,26.399999618530273,0,26.399999618530273
2016-11-15,26.399999618530273,26.399999618530273,26.399999618530273,26.399999618530273,0,26.399999618530273
2016-11-16,26.399999618530273,26.399999618530273,26.399999618530273,26.399999618530273,0,26.399999618530273
2016-11-17,26.399999618530273,26.399999618530273,26.399999618530273,26.399999618530273,0,26.399999618530273
2016-11-18,26.399999618530273,26.399999618530273,26.399999618530273,26.399999618530273,100,26.399999618530273
2016-11-21,26.399999618530273,26.399999618530273,26.399999618530273,26.399999618530273,0,26.399999618530273
2016-11-22,26.399999618530273,26.399999618530273,26.399999618530273,26.399999618530273,0,26.399999618530273
2016-11-23,26.399999618530273,26.399999618530273,26.399999618530273,26.399999618530273,0,26.399999618530273
2016-11-25,26.399999618530273,26.399999618530273,26.399999618530273,26.399999618530273,0,26.399999618530273
2016-11-28,26.399999618530273,26.399999618530273,26.399999618530273,26.399999618530273,0,26.399999618530273
2016-11-29,26.399999618530273,26.399999618530273,26.399999618530273,26.399999618530273,0,26.399999618530273
2016-11-30,26.399999618530273,26.399999618530273,26.399999618530273,26.399999618530273,0,26.399999618530273
2016-12-01,26.399999618530273,26.399999618530273,26.399999618530273,26.399999618530273,0,26.399999618530273
2016-12-02,26.399999618530273,26.399999618530273,26.399999618530273,26.399999618530273,100,26.399999618530273
2016-12-05,26.260000228881836,26.260000228881836,26.260000228881836,26.260000228881836,200,26.260000228881836
2016-12-06,26.260000228881836,26.260000228881836,26.260000228881836,26.260000228881836,0,26.260000228881836
2016-12-07,26.260000228881836,26.260000228881836,26.260000228881836,26.260000228881836,0,26.260000228881836
2016-12-08,26.260000228881836,26.260000228881836,26.260000228881836,26.260000228881836,0,26.260000228881836
2016-12-09,26.260000228881836,26.260000228881836,26.260000228881836,26.260000228881836,0,26.260000228881836
2016-12-12,26.260000228881836,26.260000228881836,26.260000228881836,26.260000228881836,0,26.260000228881836
2016-12-13,26.260000228881836,26.260000228881836,26.260000228881836,26.260000228881836,0,26.260000228881836
2016-12-14,26.260000228881836,26.260000228881836,26.260000228881836,26.260000228881836,0,26.260000228881836
2016-12-15,26.510000228881836,26.510000228881836,26.510000228881836,26.510000228881836,400,26.510000228881836
2016-12-16,26.510000228881836,26.510000228881836,26.510000228881836,26.510000228881836,0,26.510000228881836
2016-12-19,27.0,27.0,27.0,27.0,200,27.0
2016-12-20,27.09000015258789,27.09000015258789,27.09000015258789,27.09000015258789,200,27.09000015258789
2016-12-21,27.09000015258789,27.09000015258789,27.09000015258789,27.09000015258789,0,27.09000015258789
2016-12-22,27.34000015258789,27.34000015258789,27.34000015258789,27.34000015258789,200,27.34000015258789
2016-12-23,27.174999237060547,27.174999237060547,27.174999237060547,27.174999237060547,1000,27.174999237060547
2016-12-27,27.299999237060547,27.299999237060547,27.299999237060547,27.299999237060547,500,27.299999237060547
2016-12-28,27.319000244140625,27.312999725341797,27.312999725341797,27.319000244140625,700,27.319000244140625
2016-12-29,26.860000610351562,26.860000610351562,26.860000610351562,26.860000610351562,1500,26.860000610351562
2016-12-30,26.75,26.75,26.75,26.75,200,26.75
2017-01-03,26.75,26.75,26.75,26.75,0,26.75
2017-01-04,27.68000030517578,27.360000610351562,27.360000610351562,27.68000030517578,1000,27.68000030517578
2017-01-05,27.709999084472656,27.40999984741211,27.540000915527344,27.6299991607666,500,27.6299991607666
2017-01-06,28.020000457763672,27.780000686645508,27.780000686645508,27.899999618530273,1800,27.899999618530273
2017-01-09,27.760000228881836,27.760000228881836,27.760000228881836,27.760000228881836,400,27.760000228881836
2017-01-10,27.964000701904297,27.964000701904297,27.964000701904297,27.964000701904297,200,27.964000701904297
2017-01-11,27.84000015258789,27.84000015258789,27.84000015258789,27.84000015258789,500,27.84000015258789
2017-01-12,27.989999771118164,27.75,27.989999771118164,27.75,400,27.75
2017-01-13,27.75,27.75,27.75,27.75,0,27.75
2017-01-17,27.75,27.75,27.75,27.75,0,27.75
2017-01-18,28.270000457763672,27.520000457763672,27.799999237060547,28.270000457763672,700,28.270000457763672
2017-01-19,28.270000457763672,28.270000457763672,28.270000457763672,28.270000457763672,0,28.270000457763672
2017-01-20,28.270000457763672,28.270000457763672,28.270000457763672,28.270000457763672,0,28.270000457763672
2017-01-23,28.270000457763672,28.270000457763672,28.270000457763672,28.270000457763672,0,28.270000457763672
2017-01-24,28.270000457763672,28.270000457763672,28.270000457763672,28.270000457763672,0,28.270000457763672
2017-01-25,29.579999923706055,29.385000228881836,29.385000228881836,29.579999923706055,600,29.579999923706055
2017-01-26,29.579999923706055,29.579999923706055,29.579999923706055,29.579999923706055,0,29.579999923706055
2017-01-27,29.670000076293945,29.459999084472656,29.459999084472656,29.670000076293945,2900,29.670000076293945
2017-01-30,29.350000381469727,28.690000534057617,29.350000381469727,28.690000534057617,900,28.690000534057617
2017-01-31,29.040000915527344,29.040000915527344,29.040000915527344,29.040000915527344,100,29.040000915527344
2017-02-01,29.040000915527344,29.040000915527344,29.040000915527344,29.040000915527344,0,29.040000915527344
2017-02-02,29.479999542236328,29.457000732421875,29.479999542236328,29.457000732421875,400,29.457000732421875
2017-02-03,29.729999542236328,29.649999618530273,29.649999618530273,29.65999984741211,1000,29.65999984741211
2017-02-06,29.65999984741211,29.65999984741211,29.65999984741211,29.65999984741211,0,29.65999984741211
2017-02-07,29.670000076293945,29.614999771118164,29.670000076293945,29.614999771118164,300,29.614999771118164
2017-02-08,29.56999969482422,29.56999969482422,29.56999969482422,29.56999969482422,600,29.56999969482422
2017-02-09,29.56999969482422,29.56999969482422,29.56999969482422,29.56999969482422,0,29.56999969482422
2017-02-10,30.010000228881836,29.889999389648438,29.90999984741211,30.010000228881836,1500,30.010000228881836
2017-02-13,30.34600067138672,30.110000610351562,30.190000534057617,30.34600067138672,1200,30.34600067138672
2017-02-14,30.40999984741211,30.3700008392334,30.3700008392334,30.40999984741211,300,30.40999984741211
2017-02-15,30.940000534057617,30.43000030517578,30.43000030517578,30.5,1200,30.5
2017-02-16,30.25,30.0,30.0,30.25,200,30.25
2017-02-17,30.25,30.25,30.25,30.25,200,30.25
2017-02-21,30.18000030517578,30.1299991607666,30.170000076293945,30.1299991607666,2100,30.1299991607666
2017-02-22,30.0,30.0,30.0,30.0,2800,30.0
2017-02-23,30.0,30.0,30.0,30.0,0,30.0
2017-02-24,29.829999923706055,29.643999099731445,29.665000915527344,29.76300048828125,900,29.76300048828125
2017-02-27,30.0,29.969999313354492,30.0,29.969999313354492,2200,29.969999313354492
2017-02-28,29.850000381469727,29.850000381469727,29.850000381469727,29.850000381469727,100,29.850000381469727
2017-03-01,30.100000381469727,30.0,30.0,30.100000381469727,800,30.100000381469727
2017-03-02,29.899999618530273,29.81999969482422,29.8799991607666,29.829999923706055,600,29.829999923706055
2017-03-03,30.100000381469727,30.100000381469727,30.100000381469727,30.100000381469727,600,30.100000381469727
2017-03-06,30.08300018310547,30.040000915527344,30.08300018310547,30.065000534057617,1100,30.065000534057617
2017-03-07,30.065000534057617,30.065000534057617,30.065000534057617,30.065000534057617,0,30.065000534057617
2017-03-08,30.065000534057617,30.065000534057617,30.065000534057617,30.065000534057617,0,30.065000534057617
2017-03-09,30.100000381469727,30.100000381469727,30.100000381469727,30.100000381469727,600,30.100000381469727
2017-03-10,30.100000381469727,30.100000381469727,30.100000381469727,30.100000381469727,0,30.100000381469727
2017-03-13,30.100000381469727,30.100000381469727,30.100000381469727,30.100000381469727,0,30.100000381469727
2017-03-14,30.358999252319336,30.288999557495117,30.290000915527344,30.358999252319336,1400,30.358999252319336
2017-03-15,30.649999618530273,30.649999618530273,30.649999618530273,30.649999618530273,300,30.649999618530273
2017-03-16,30.81999969482422,30.81999969482422,30.81999969482422,30.81999969482422,300,30.81999969482422
2017-03-17,30.989999771118164,30.8700008392334,30.8700008392334,30.989999771118164,2100,30.989999771118164
2017-03-20,30.979999542236328,30.979999542236328,30.979999542236328,30.979999542236328,300,30.979999542236328
2017-03-21,31.209999084472656,30.540000915527344,31.200000762939453,30.600000381469727,1700,30.600000381469727
2017-03-22,30.540000915527344,30.350000381469727,30.5,30.3700008392334,2100,30.3700008392334
2017-03-23,30.299999237060547,30.299999237060547,30.299999237060547,30.299999237060547,300,30.299999237060547
2017-03-24,30.149999618530273,30.149999618530273,30.149999618530273,30.149999618530273,200,30.149999618530273
2017-03-27,30.350000381469727,30.0,30.239999771118164,30.000999450683594,2000,30.000999450683594
2017-03-28,30.000999450683594,30.000999450683594,30.000999450683594,30.000999450683594,0,30.000999450683594
2017-03-29,30.989999771118164,30.93000030517578,30.93000030517578,30.989999771118164,1000,30.989999771118164
2017-03-30,30.989999771118164,30.989999771118164,30.989999771118164,30.989999771118164,0,30.989999771118164
2017-03-31,30.989999771118164,30.989999771118164,30.989999771118164,30.989999771118164,0,30.989999771118164
2017-04-03,30.760000228881836,30.479999542236328,30.760000228881836,30.479999542236328,500,30.479999542236328
2017-04-04,30.479999542236328,30.479999542236328,30.479999542236328,30.479999542236328,0,30.479999542236328
2017-04-05,30.799999237060547,30.59000015258789,30.799999237060547,30.59000015258789,200,30.59000015258789
2017-04-06,30.59000015258789,30.59000015258789,30.59000015258789,30.59000015258789,0,30.59000015258789
2017-04-07,30.270000457763672,30.260000228881836,30.260000228881836,30.270000457763672,700,30.270000457763672
2017-04-10,30.270000457763672,30.270000457763672,30.270000457763672,30.270000457763672,0,30.270000457763672
2017-04-11,30.0,30.0,30.0,30.0,1400,30.0
2017-04-12,29.959999084472656,29.950000762939453,29.959999084472656,29.950000762939453,2300,29.950000762939453
2017-04-13,29.950000762939453,29.950000762939453,29.950000762939453,29.950000762939453,0,29.950000762939453
2017-04-17,29.950000762939453,29.950000762939453,29.950000762939453,29.950000762939453,0,29.950000762939453
2017-04-18,29.950000762939453,29.950000762939453,29.950000762939453,29.950000762939453,0,29.950000762939453
2017-04-19,29.799999237060547,29.799999237060547,29.799999237060547,29.799999237060547,400,29.799999237060547
2017-04-20,29.799999237060547,29.799999237060547,29.799999237060547,29.799999237060547,0,29.799999237060547
2017-04-21,29.850000381469727,29.850000381469727,29.850000381469727,29.850000381469727,3300,29.850000381469727
2017-04-24,29.850000381469727,29.850000381469727,29.850000381469727,29.850000381469727,0,29.850000381469727
2017-04-25,30.030000686645508,30.030000686645508,30.030000686645508,30.030000686645508,100,30.030000686645508
2017-04-26,30.030000686645508,30.030000686645508,30.030000686645508,30.030000686645508,0,30.030000686645508
2017-04-27,30.110000610351562,30.06999969482422,30.09000015258789,30.110000610351562,1400,30.110000610351562
2017-04-28,30.100000381469727,30.075000762939453,30.09000015258789,30.075000762939453,900,30.075000762939453
2017-05-01,30.075000762939453,30.075000762939453,30.075000762939453,30.075000762939453,0,30.075000762939453
2017-05-02,30.3700008392334,30.350000381469727,30.3700008392334,30.350000381469727,600,30.350000381469727
2017-05-03,30.350000381469727,30.350000381469727,30.350000381469727,30.350000381469727,0,30.350000381469727
2017-05-04,30.360000610351562,30.25,30.25,30.325000762939453,400,30.325000762939453
2017-05-05,30.299999237060547,30.299999237060547,30.299999237060547,30.299999237060547,1000,30.299999237060547
2017-05-08,30.579999923706055,30.5,30.5,30.579999923706055,6300,30.579999923706055
2017-05-09,30.6200008392334,30.6200008392334,30.6200008392334,30.6200008392334,1000,30.6200008392334
2017-05-10,30.6200008392334,30.6200008392334,30.6200008392334,30.6200008392334,0,30.6200008392334
2017-05-11,30.5,30.25,30.5,30.273000717163086,600,30.273000717163086
2017-05-12,30.273000717163086,30.273000717163086,30.273000717163086,30.273000717163086,0,30.273000717163086
2017-05-15,30.850000381469727,30.674999237060547,30.674999237060547,30.770000457763672,5900,30.770000457763672
2017-05-16,30.8700008392334,30.729999542236328,30.8700008392334,30.729999542236328,200,30.729999542236328
2017-05-17,30.200000762939453,29.149999618530273,30.200000762939453,29.149999618530273,1100,29.149999618530273
2017-05-18,29.1200008392334,28.90999984741211,28.90999984741211,29.030000686645508,4400,29.030000686645508
2017-05-19,29.051000595092773,29.051000595092773,29.051000595092773,29.051000595092773,100,29.051000595092773
2017-05-22,29.260000228881836,29.219999313354492,29.260000228881836,29.25,1400,29.25
2017-05-23,29.25,29.25,29.25,29.25,0,29.25
2017-05-24,29.31999969482422,29.25,29.25,29.31999969482422,700,29.31999969482422
2017-05-25,29.489999771118164,29.440000534057617,29.450000762939453,29.489999771118164,600,29.489999771118164
2017-05-26,29.540000915527344,29.5,29.523000717163086,29.51300048828125,2100,29.51300048828125
2017-05-30,29.51300048828125,29.51300048828125,29.51300048828125,29.51300048828125,0,29.51300048828125
2017-05-31,29.398000717163086,29.386999130249023,29.386999130249023,29.398000717163086,700,29.398000717163086
2017-06-01,29.719999313354492,29.614999771118164,29.614999771118164,29.719999313354492,900,29.719999313354492
2017-06-02,29.719999313354492,29.719999313354492,29.719999313354492,29.719999313354492,0,29.719999313354492
2017-06-05,29.81999969482422,29.799999237060547,29.799999237060547,29.809999465942383,1100,29.809999465942383
2017-06-06,29.809999465942383,29.809999465942383,29.809999465942383,29.809999465942383,0,29.809999465942383
2017-06-07,29.530000686645508,29.3799991607666,29.530000686645508,29.3799991607666,400,29.3799991607666
2017-06-08,29.690000534057617,29.600000381469727,29.600000381469727,29.690000534057617,1200,29.690000534057617
2017-06-09,29.690000534057617,29.690000534057617,29.690000534057617,29.690000534057617,0,29.690000534057617
2017-06-12,29.43000030517578,29.43000030517578,29.43000030517578,29.43000030517578,200,29.43000030517578
2017-06-13,29.760000228881836,29.722999572753906,29.760000228881836,29.722999572753906,500,29.722999572753906
2017-06-14,29.75,29.670000076293945,29.75,29.670000076293945,500,29.670000076293945
2017-06-15,29.559999465942383,29.559999465942383,29.559999465942383,29.559999465942383,600,29.559999465942383
2017-06-16,29.559999465942383,29.559999465942383,29.559999465942383,29.559999465942383,0,29.559999465942383
2017-06-19,29.8799991607666,29.8799991607666,29.8799991607666,29.8799991607666,200,29.8799991607666
2017-06-20,29.8799991607666,29.8799991607666,29.8799991607666,29.8799991607666,0,29.8799991607666
2017-06-21,29.8799991607666,29.8799991607666,29.8799991607666,29.8799991607666,0,29.8799991607666
2017-06-22,29.90999984741211,29.84000015258789,29.84000015258789,29.889999389648438,400,29.889999389648438
2017-06-23,29.889999389648438,29.889999389648438,29.889999389648438,29.889999389648438,0,29.889999389648438
2017-06-26,30.075000762939453,30.075000762939453,30.075000762939453,30.075000762939453,100,30.075000762939453
2017-06-27,30.190000534057617,30.190000534057617,30.190000534057617,30.190000534057617,100,30.190000534057617
2017-06-28,30.110000610351562,30.110000610351562,30.110000610351562,30.110000610351562,300,30.110000610351562
2017-06-29,30.110000610351562,30.110000610351562,30.110000610351562,30.110000610351562,0,30.110000610351562
2017-06-30,29.923999786376953,29.81999969482422,29.885000228881836,29.81999969482422,400,29.81999969482422
2017-07-03,29.81999969482422,29.81999969482422,29.81999969482422,29.81999969482422,0,29.81999969482422
2017-07-05,29.81999969482422,29.81999969482422,29.81999969482422,29.81999969482422,0,29.81999969482422
2017-07-06,29.81999969482422,29.81999969482422,29.81999969482422,29.81999969482422,0,29.81999969482422
2017-07-07,29.530000686645508,29.440000534057617,29.440000534057617,29.530000686645508,600,29.530000686645508
2017-07-10,29.530000686645508,29.530000686645508,29.530000686645508,29.530000686645508,0,29.530000686645508
2017-07-11,29.530000686645508,29.530000686645508,29.530000686645508,29.530000686645508,0,29.530000686645508
2017-07-12,29.530000686645508,29.530000686645508,29.530000686645508,29.530000686645508,0,29.530000686645508
2017-07-13,29.530000686645508,29.530000686645508,29.530000686645508,29.530000686645508,0,29.530000686645508
2017-07-14,30.040000915527344,30.040000915527344,30.040000915527344,30.040000915527344,300,30.040000915527344
2017-07-17,30.040000915527344,30.040000915527344,30.040000915527344,30.040000915527344,0,30.040000915527344
2017-07-18,30.040000915527344,30.040000915527344,30.040000915527344,30.040000915527344,0,30.040000915527344
2017-07-19,30.350000381469727,30.350000381469727,30.350000381469727,30.350000381469727,500,30.350000381469727
2017-07-20,30.350000381469727,30.350000381469727,30.350000381469727,30.350000381469727,0,30.350000381469727
2017-07-21,30.350000381469727,30.350000381469727,30.350000381469727,30.350000381469727,0,30.350000381469727
2017-07-24,30.350000381469727,30.350000381469727,30.350000381469727,30.350000381469727,0,30.350000381469727
2017-07-25,30.350000381469727,30.350000381469727,30.350000381469727,30.350000381469727,0,30.350000381469727
2017-07-26,30.350000381469727,30.350000381469727,30.350000381469727,30.350000381469727,0,30.350000381469727
2017-07-27,30.5,30.5,30.5,30.5,200,30.5
2017-07-28,30.5,30.5,30.5,30.5,0,30.5
2017-07-31,30.6200008392334,30.6200008392334,30.6200008392334,30.6200008392334,200,30.6200008392334
2017-08-01,30.652999877929688,30.649999618530273,30.649999618530273,30.652999877929688,600,30.652999877929688
2017-08-02,30.54800033569336,30.54800033569336,30.54800033569336,30.54800033569336,700,30.54800033569336
2017-08-03,30.54800033569336,30.54800033569336,30.54800033569336,30.54800033569336,0,30.54800033569336
2017-08-04,30.559999465942383,30.559999465942383,30.559999465942383,30.559999465942383,100,30.559999465942383
2017-08-07,30.63599967956543,30.63599967956543,30.63599967956543,30.63599967956543,600,30.63599967956543
2017-08-08,30.458999633789062,30.437999725341797,30.458999633789062,30.437999725341797,200,30.437999725341797
2017-08-09,30.299999237060547,30.163000106811523,30.25,30.163000106811523,800,30.163000106811523
2017-08-10,30.15999984741211,29.6200008392334,30.15999984741211,29.6200008392334,2200,29.6200008392334
2017-08-11,29.11400032043457,29.11400032043457,29.11400032043457,29.11400032043457,100,29.11400032043457
2017-08-14,28.65999984741211,28.64699935913086,28.65999984741211,28.64900016784668,400,28.64900016784668
2017-08-15,28.56999969482422,28.566999435424805,28.566999435424805,28.569000244140625,1200,28.569000244140625
2017-08-16,28.56999969482422,28.56999969482422,28.56999969482422,28.56999969482422,800,28.56999969482422
2017-08-17,28.56999969482422,28.3700008392334,28.540000915527344,28.3700008392334,2700,28.3700008392334
2017-08-18,28.149999618530273,28.0,28.149999618530273,28.020000457763672,2200,28.020000457763672
2017-08-21,28.118000030517578,28.110000610351562,28.118000030517578,28.110000610351562,1000,28.110000610351562
2017-08-22,28.110000610351562,28.110000610351562,28.110000610351562,28.110000610351562,0,28.110000610351562
2017-08-23,27.68000030517578,27.6200008392334,27.68000030517578,27.6200008392334,1000,27.6200008392334
2017-08-24,27.6200008392334,27.6200008392334,27.6200008392334,27.6200008392334,0,27.6200008392334
2017-08-25,27.679000854492188,27.679000854492188,27.679000854492188,27.679000854492188,200,27.679000854492188
2017-08-28,27.690000534057617,27.64900016784668,27.690000534057617,27.65999984741211,3600,27.65999984741211
2017-08-29,27.65999984741211,27.65999984741211,27.65999984741211,27.65999984741211,0,27.65999984741211
2017-08-30,27.649999618530273,27.62700080871582,27.639999389648438,27.634000778198242,1600,27.634000778198242
2017-08-31,27.65999984741211,27.645000457763672,27.65999984741211,27.645000457763672,1000,27.645000457763672
2017-09-01,27.670000076293945,27.635000228881836,27.670000076293945,27.635000228881836,2100,27.635000228881836
2017-09-05,27.559999465942383,27.510000228881836,27.559999465942383,27.510000228881836,600,27.510000228881836
2017-09-06,27.510000228881836,27.510000228881836,27.510000228881836,27.510000228881836,0,27.510000228881836
2017-09-07,27.565000534057617,27.549999237060547,27.565000534057617,27.549999237060547,700,27.549999237060547
2017-09-08,27.670000076293945,27.559999465942383,27.670000076293945,27.559999465942383,1900,27.559999465942383
2017-09-11,27.559999465942383,27.559999465942383,27.559999465942383,27.559999465942383,0,27.559999465942383
2017-09-12,27.559999465942383,27.559999465942383,27.559999465942383,27.559999465942383,0,27.559999465942383
2017-09-13,27.559999465942383,27.559999465942383,27.559999465942383,27.559999465942383,0,27.559999465942383
2017-09-14,27.690000534057617,27.639999389648438,27.690000534057617,27.649999618530273,1200,27.649999618530273
2017-09-15,27.649999618530273,27.649999618530273,27.649999618530273,27.649999618530273,0,27.649999618530273
2017-09-18,27.950000762939453,27.92099952697754,27.92099952697754,27.950000762939453,200,27.950000762939453
2017-09-19,27.917999267578125,27.899999618530273,27.899999618530273,27.917999267578125,1200,27.917999267578125
2017-09-20,27.90399932861328,27.760000228881836,27.90399932861328,27.760000228881836,500,27.760000228881836
2017-09-21,27.760000228881836,27.760000228881836,27.760000228881836,27.760000228881836,0,27.760000228881836
2017-09-22,27.760000228881836,27.760000228881836,27.760000228881836,27.760000228881836,0,27.760000228881836
2017-09-25,27.760000228881836,27.760000228881836,27.760000228881836,27.760000228881836,0,27.760000228881836
2017-09-26,27.952999114990234,27.93000030517578,27.952999114990234,27.950000762939453,1400,27.950000762939453
2017-09-27,27.989999771118164,27.989999771118164,27.989999771118164,27.989999771118164,100,27.989999771118164
2017-09-28,28.06999969482422,28.06999969482422,28.06999969482422,28.06999969482422,100,28.06999969482422
2017-09-29,28.06999969482422,28.06999969482422,28.06999969482422,28.06999969482422,0,28.06999969482422
2017-10-02,28.06999969482422,28.06999969482422,28.06999969482422,28.06999969482422,0,28.06999969482422
2017-10-03,28.406999588012695,28.399999618530273,28.399999618530273,28.406999588012695,400,28.406999588012695
2017-10-04,28.406999588012695,28.406999588012695,28.406999588012695,28.406999588012695,0,28.406999588012695
2017-10-05,28.65999984741211,28.65999984741211,28.65999984741211,28.65999984741211,200,28.65999984741211
2017-10-06,28.579999923706055,28.579999923706055,28.579999923706055,28.579999923706055,400,28.579999923706055
2017-10-09,28.579999923706055,28.579999923706055,28.579999923706055,28.579999923706055,0,28.579999923706055
2017-10-10,28.670000076293945,28.670000076293945,28.670000076293945,28.670000076293945,300,28.670000076293945
2017-10-11,28.670000076293945,28.670000076293945,28.670000076293945,28.670000076293945,0,28.670000076293945
2017-10-12,28.670000076293945,28.670000076293945,28.670000076293945,28.670000076293945,0,28.670000076293945
2017-10-13,29.100000381469727,29.100000381469727,29.100000381469727,29.100000381469727,100,29.100000381469727
2017-10-16,29.100000381469727,29.100000381469727,29.100000381469727,29.100000381469727,0,29.100000381469727
2017-10-17,29.100000381469727,29.100000381469727,29.100000381469727,29.100000381469727,0,29.100000381469727
2017-10-18,29.100000381469727,29.100000381469727,29.100000381469727,29.100000381469727,0,29.100000381469727
2017-10-19,29.100000381469727,29.100000381469727,29.100000381469727,29.100000381469727,0,29.100000381469727
2017-10-20,29.100000381469727,29.100000381469727,29.100000381469727,29.100000381469727,0,29.100000381469727
2017-10-23,29.6299991607666,29.6299991607666,29.6299991607666,29.6299991607666,200,29.6299991607666
2017-10-24,29.6299991607666,29.6299991607666,29.6299991607666,29.6299991607666,0,29.6299991607666
2017-10-25,28.56999969482422,28.263999938964844,28.263999938964844,28.56999969482422,1100,28.56999969482422
2017-10-26,28.989999771118164,28.889999389648438,28.889999389648438,28.979999542236328,1500,28.979999542236328
2017-10-27,28.979999542236328,28.979999542236328,28.979999542236328,28.979999542236328,0,28.979999542236328
2017-10-30,29.100000381469727,29.100000381469727,29.100000381469727,29.100000381469727,200,29.100000381469727
2017-10-31,29.336999893188477,29.270000457763672,29.270000457763672,29.336999893188477,700,29.336999893188477
2017-11-01,29.336999893188477,29.336999893188477,29.336999893188477,29.336999893188477,0,29.336999893188477
2017-11-02,29.336999893188477,29.336999893188477,29.336999893188477,29.336999893188477,0,29.336999893188477
2017-11-03,29.336999893188477,29.336999893188477,29.336999893188477,29.336999893188477,0,29.336999893188477
2017-11-06,29.510000228881836,29.489999771118164,29.489999771118164,29.510000228881836,200,29.510000228881836
2017-11-07,29.299999237060547,29.299999237060547,29.299999237060547,29.299999237060547,200,29.299999237060547
2017-11-08,29.299999237060547,29.299999237060547,29.299999237060547,29.299999237060547,0,29.299999237060547
2017-11-09,29.110000610351562,28.899999618530273,29.07699966430664,29.110000610351562,1200,29.110000610351562
2017-11-10,29.139999389648438,29.139999389648438,29.139999389648438,29.139999389648438,100,29.139999389648438
2017-11-13,29.15999984741211,29.15999984741211,29.15999984741211,29.15999984741211,200,29.15999984741211
2017-11-14,28.915000915527344,28.915000915527344,28.915000915527344,28.915000915527344,400,28.915000915527344
2017-11-15,28.719999313354492,28.711999893188477,28.719999313354492,28.711999893188477,1300,28.711999893188477
2017-11-16,28.711999893188477,28.711999893188477,28.711999893188477,28.711999893188477,0,28.711999893188477
2017-11-17,28.711999893188477,28.711999893188477,28.711999893188477,28.711999893188477,0,28.711999893188477
2017-11-20,28.711999893188477,28.711999893188477,28.711999893188477,28.711999893188477,0,28.711999893188477
2017-11-21,29.56999969482422,29.5310001373291,29.56999969482422,29.5310001373291,1100,29.5310001373291
2017-11-22,29.5310001373291,29.5310001373291,29.5310001373291,29.5310001373291,0,29.5310001373291
2017-11-24,29.5310001373291,29.5310001373291,29.5310001373291,29.5310001373291,100,29.5310001373291
2017-11-27,29.725000381469727,29.69499969482422,29.725000381469727,29.69499969482422,1400,29.69499969482422
2017-11-28,29.84000015258789,29.84000015258789,29.84000015258789,29.84000015258789,400,29.84000015258789
2017-11-29,29.84000015258789,29.84000015258789,29.84000015258789,29.84000015258789,0,29.84000015258789
2017-11-30,29.84000015258789,29.84000015258789,29.84000015258789,29.84000015258789,100,29.84000015258789
2017-12-01,29.59000015258789,29.040000915527344,29.540000915527344,29.079999923706055,125000,29.079999923706055
2017-12-04,29.649999618530273,29.559999465942383,29.649999618530273,29.559999465942383,600,29.559999465942383
2017-12-05,29.559999465942383,29.559999465942383,29.559999465942383,29.559999465942383,0,29.559999465942383
2017-12-06,29.559999465942383,29.559999465942383,29.559999465942383,29.559999465942383,0,29.559999465942383
2017-12-07,29.635000228881836,29.635000228881836,29.635000228881836,29.635000228881836,400,29.635000228881836
2017-12-08,29.756999969482422,29.756999969482422,29.756999969482422,29.756999969482422,600,29.756999969482422
2017-12-11,30.1200008392334,30.1200008392334,30.1200008392334,30.1200008392334,100,30.1200008392334
2017-12-12,30.239999771118164,30.222999572753906,30.239999771118164,30.222999572753906,1400,30.222999572753906
2017-12-13,30.240999221801758,30.240999221801758,30.240999221801758,30.240999221801758,100,30.240999221801758
2017-12-14,30.239999771118164,30.239999771118164,30.239999771118164,30.239999771118164,600,30.239999771118164
2017-12-15,30.239999771118164,30.239999771118164,30.239999771118164,30.239999771118164,0,30.239999771118164
2017-12-18,30.239999771118164,30.239999771118164,30.239999771118164,30.239999771118164,0,30.239999771118164
2017-12-19,30.239999771118164,30.239999771118164,30.239999771118164,30.239999771118164,0,30.239999771118164
2017-12-20,30.239999771118164,30.239999771118164,30.239999771118164,30.239999771118164,200,30.239999771118164
2017-12-21,30.239999771118164,30.239999771118164,30.239999771118164,30.239999771118164,0,30.239999771118164
2017-12-22,30.649999618530273,30.600000381469727,30.649999618530273,30.600000381469727,200,30.600000381469727
2017-12-26,30.600000381469727,30.600000381469727,30.600000381469727,30.600000381469727,0,30.600000381469727
2017-12-27,30.600000381469727,30.600000381469727,30.600000381469727,30.600000381469727,0,30.600000381469727
2017-12-28,30.600000381469727,30.600000381469727,30.600000381469727,30.600000381469727,0,30.600000381469727
2017-12-29,30.600000381469727,30.600000381469727,30.600000381469727,30.600000381469727,0,30.600000381469727
2018-01-02,30.75,30.600000381469727,30.600000381469727,30.75,2400,30.75
2018-01-03,31.079999923706055,31.049999237060547,31.079999923706055,31.049999237060547,600,31.049999237060547
2018-01-04,31.260000228881836,31.18000030517578,31.25,31.18000030517578,96200,31.18000030517578
2018-01-05,31.18000030517578,31.18000030517578,31.18000030517578,31.18000030517578,0,31.18000030517578
2018-01-08,31.18000030517578,31.18000030517578,31.18000030517578,31.18000030517578,0,31.18000030517578
2018-01-09,31.309999465942383,31.280000686645508,31.280000686645508,31.309999465942383,400,31.309999465942383
2018-01-10,31.059999465942383,31.0,31.0,31.059999465942383,700,31.059999465942383
2018-01-11,31.290000915527344,31.290000915527344,31.290000915527344,31.290000915527344,200,31.290000915527344
2018-01-12,31.299999237060547,31.299999237060547,31.299999237060547,31.299999237060547,300,31.299999237060547
2018-01-16,31.09000015258789,30.709999084472656,31.09000015258789,30.709999084472656,500,30.709999084472656
2018-01-17,30.670000076293945,30.670000076293945,30.670000076293945,30.670000076293945,100,30.670000076293945
2018-01-18,30.799999237060547,30.700000762939453,30.799999237060547,30.770000457763672,100600,30.770000457763672
2018-01-19,30.8700008392334,30.799999237060547,30.8700008392334,30.799999237060547,400,30.799999237060547
2018-01-22,30.799999237060547,30.799999237060547,30.799999237060547,30.799999237060547,0,30.799999237060547
2018-01-23,30.90999984741211,30.90999984741211,30.90999984741211,30.90999984741211,200,30.90999984741211
2018-01-24,30.770000457763672,30.770000457763672,30.770000457763672,30.770000457763672,200,30.770000457763672
2018-01-25,30.770000457763672,30.770000457763672,30.770000457763672,30.770000457763672,0,30.770000457763672
2018-01-26,30.770000457763672,30.770000457763672,30.770000457763672,30.770000457763672,0,30.770000457763672
2018-01-29,30.479999542236328,30.479999542236328,30.479999542236328,30.479999542236328,700,30.479999542236328
2018-01-30,30.479999542236328,30.479999542236328,30.479999542236328,30.479999542236328,0,30.479999542236328
2018-01-31,30.479999542236328,30.479999542236328,30.479999542236328,30.479999542236328,0,30.479999542236328
2018-02-01,30.479999542236328,30.479999542236328,30.479999542236328,30.479999542236328,0,30.479999542236328
2018-02-02,30.479999542236328,30.479999542236328,30.479999542236328,30.479999542236328,0,30.479999542236328
2018-02-05,33.39500045776367,30.709999084472656,30.760000228881836,33.39500045776367,900,33.39500045776367
2018-02-06,33.209999084472656,12.319999694824219,33.209999084472656,12.390000343322754,19500,12.390000343322754
2018-02-07,16.010000228881836,14.0,15.890000343322754,15.010000228881836,25000,15.010000228881836
2018-02-08,22.6200008392334,16.610000610351562,16.610000610351562,22.6200008392334,339900,22.6200008392334
2018-02-09,23.68000030517578,19.280000686645508,20.139999389648438,19.280000686645508,9000,19.280000686645508
2018-02-12,19.6200008392334,17.450000762939453,18.260000228881836,17.729999542236328,13400,17.729999542236328
2018-02-13,18.700000762939453,18.010000228881836,18.670000076293945,18.010000228881836,4500,18.010000228881836
2018-02-14,17.0,15.479999542236328,16.959999084472656,15.489999771118164,6400,15.489999771118164
2018-02-15,14.07800006866455,13.609999656677246,13.609999656677246,14.07800006866455,1300,14.07800006866455
2018-02-16,14.07800006866455,14.07800006866455,14.07800006866455,14.07800006866455,0,14.07800006866455
2018-02-20,14.901000022888184,14.800000190734863,14.800000190734863,14.901000022888184,1500,14.901000022888184
2018-02-21,14.609999656677246,13.609999656677246,14.609999656677246,13.609999656677246,1100,13.609999656677246
2018-02-22,15.350000381469727,14.71399974822998,15.140000343322754,15.208999633789062,4300,15.208999633789062
2018-02-23,14.362000465393066,13.960000038146973,14.362000465393066,13.960000038146973,300,13.960000038146973
2018-02-26,12.979999542236328,12.770000457763672,12.779999732971191,12.848999977111816,2000,12.848999977111816
2018-02-27,14.343000411987305,12.848999977111816,12.848999977111816,14.343000411987305,500,14.343000411987305
2018-02-28,14.720000267028809,13.579999923706055,13.59000015258789,14.720000267028809,800,14.720000267028809
2018-03-01,17.030000686645508,16.0,16.0,16.950000762939453,6400,16.950000762939453
2018-03-02,16.950000762939453,16.950000762939453,16.950000762939453,16.950000762939453,0,16.950000762939453
2018-03-05,14.699999809265137,14.5,14.699999809265137,14.5,1300,14.5
2018-03-06,14.789999961853027,14.789999961853027,14.789999961853027,14.789999961853027,300,14.789999961853027
2018-03-07,15.069999694824219,14.920000076293945,15.069999694824219,14.920000076293945,300,14.920000076293945
2018-03-08,14.069999694824219,13.979999542236328,14.069999694824219,13.979999542236328,300,13.979999542236328
2018-03-09,13.029999732971191,13.010000228881836,13.029999732971191,13.010000228881836,500,13.010000228881836
2018-03-12,13.0,13.0,13.0,13.0,5700,13.0
2018-03-13,13.0,13.0,13.0,13.0,0,13.0
2018-03-14,13.630000114440918,13.630000114440918,13.630000114440918,13.630000114440918,200,13.630000114440918
2018-03-15,13.800000190734863,13.380000114440918,13.800000190734863,13.380000114440918,300,13.380000114440918
2018-03-16,12.947999954223633,12.784000396728516,12.947999954223633,12.82699966430664,1500,12.82699966430664
2018-03-19,14.6899995803833,13.890000343322754,13.890000343322754,14.359000205993652,5600,14.359000205993652
2018-03-20,14.359000205993652,14.359000205993652,14.359000205993652,14.359000205993652,0,14.359000205993652
2018-03-21,13.729999542236328,13.720000267028809,13.729999542236328,13.720000267028809,1500,13.720000267028809
2018-03-22,14.84000015258789,14.640000343322754,14.789999961853027,14.651000022888184,3400,14.651000022888184
2018-03-23,16.25,14.789999961853027,14.789999961853027,16.25,4400,16.25
2018-03-26,16.25,16.25,16.25,16.25,0,16.25
2018-03-27,16.208999633789062,15.649999618530273,15.649999618530273,16.208999633789062,1700,16.208999633789062
2018-03-28,17.0,16.597000122070312,16.649999618530273,17.0,1700,17.0
2018-03-29,17.0,17.0,17.0,17.0,0,17.0
2018-04-02,17.149999618530273,16.030000686645508,16.030000686645508,17.149999618530273,2400,17.149999618530273
2018-04-03,17.149999618530273,17.149999618530273,17.149999618530273,17.149999618530273,0,17.149999618530273
2018-04-04,16.790000915527344,16.450000762939453,16.790000915527344,16.450000762939453,1000,16.450000762939453
2018-04-05,15.4399995803833,15.34000015258789,15.40999984741211,15.34000015258789,1600,15.34000015258789
2018-04-06,15.34000015258789,15.34000015258789,15.34000015258789,15.34000015258789,1200,15.34000015258789
2018-04-09,15.829999923706055,15.829999923706055,15.829999923706055,15.829999923706055,300,15.829999923706055
2018-04-10,15.84000015258789,15.680000305175781,15.6899995803833,15.84000015258789,1300,15.84000015258789
2018-04-11,15.84000015258789,15.84000015258789,15.84000015258789,15.84000015258789,0,15.84000015258789
2018-04-12,15.35200023651123,15.321000099182129,15.321000099182129,15.35200023651123,400,15.35200023651123
2018-04-13,15.35200023651123,15.35200023651123,15.35200023651123,15.35200023651123,0,15.35200023651123
2018-04-16,15.0,14.989999771118164,15.0,14.989999771118164,400,14.989999771118164
2018-04-17,14.989999771118164,14.989999771118164,14.989999771118164,14.989999771118164,0,14.989999771118164
2018-04-18,14.6899995803833,14.548999786376953,14.680000305175781,14.548999786376953,600,14.548999786376953
2018-04-19,14.548999786376953,14.548999786376953,14.548999786376953,14.548999786376953,0,14.548999786376953
2018-04-20,14.548999786376953,14.548999786376953,14.548999786376953,14.548999786376953,0,14.548999786376953
2018-04-23,14.595000267028809,14.595000267028809,14.595000267028809,14.595000267028809,200,14.595000267028809
2018-04-24,14.595000267028809,14.595000267028809,14.595000267028809,14.595000267028809,0,14.595000267028809
2018-04-25,14.595000267028809,14.595000267028809,14.595000267028809,14.595000267028809,0,14.595000267028809
2018-04-26,14.595000267028809,14.595000267028809,14.595000267028809,14.595000267028809,0,14.595000267028809
2018-04-27,14.595000267028809,14.595000267028809,14.595000267028809,14.595000267028809,0,14.595000267028809
2018-04-30,14.595000267028809,14.595000267028809,14.595000267028809,14.595000267028809,0,14.595000267028809
2018-05-01,14.595000267028809,14.595000267028809,14.595000267028809,14.595000267028809,0,14.595000267028809
2018-05-02,14.595000267028809,14.595000267028809,14.595000267028809,14.595000267028809,0,14.595000267028809
2018-05-03,14.595000267028809,14.595000267028809,14.595000267028809,14.595000267028809,0,14.595000267028809
2018-05-04,14.630000114440918,14.539999961853027,14.539999961853027,14.630000114440918,300,14.630000114440918
2018-05-07,14.75,14.75,14.75,14.75,100,14.75
2018-05-08,14.75,14.75,14.75,14.75,0,14.75
2018-05-09,14.75100040435791,14.75,14.75100040435791,14.75,1100,14.75
2018-05-10,14.75,14.75,14.75,14.75,0,14.75
2018-05-11,14.75,14.75,14.75,14.75,0,14.75
2018-05-14,15.289999961853027,15.28499984741211,15.28499984741211,15.289999961853027,300,15.289999961853027
2018-05-15,14.875,14.829999923706055,14.875,14.829999923706055,500,14.829999923706055
2018-05-16,15.069999694824219,15.069999694824219,15.069999694824219,15.069999694824219,100,15.069999694824219
2018-05-17,15.069999694824219,15.069999694824219,15.069999694824219,15.069999694824219,0,15.069999694824219
2018-05-18,15.069999694824219,15.069999694824219,15.069999694824219,15.069999694824219,0,15.069999694824219
2018-05-21,15.069999694824219,15.069999694824219,15.069999694824219,15.069999694824219,0,15.069999694824219
2018-05-22,15.069999694824219,15.069999694824219,15.069999694824219,15.069999694824219,0,15.069999694824219
2018-05-23,15.069999694824219,15.069999694824219,15.069999694824219,15.069999694824219,0,15.069999694824219
2018-05-24,15.069999694824219,15.069999694824219,15.069999694824219,15.069999694824219,0,15.069999694824219
2018-05-25,15.069999694824219,15.069999694824219,15.069999694824219,15.069999694824219,0,15.069999694824219
2018-05-29,15.069999694824219,15.069999694824219,15.069999694824219,15.069999694824219,0,15.069999694824219
2018-05-30,15.069999694824219,15.069999694824219,15.069999694824219,15.069999694824219,0,15.069999694824219
2018-05-31,15.069999694824219,15.069999694824219,15.069999694824219,15.069999694824219,0,15.069999694824219
2018-06-01,15.069999694824219,15.069999694824219,15.069999694824219,15.069999694824219,0,15.069999694824219
2018-06-04,15.069999694824219,15.069999694824219,15.069999694824219,15.069999694824219,0,15.069999694824219
2018-06-05,15.069999694824219,15.069999694824219,15.069999694824219,15.069999694824219,0,15.069999694824219
2018-06-06,15.095999717712402,15.09000015258789,15.09000015258789,15.095999717712402,1300,15.095999717712402
2018-06-07,15.095999717712402,15.095999717712402,15.095999717712402,15.095999717712402,0,15.095999717712402
2018-06-08,15.0,15.0,15.0,15.0,200,15.0
2018-06-11,15.0,15.0,15.0,15.0,0,15.0
2018-06-12,15.0,15.0,15.0,15.0,0,15.0
2018-06-13,15.0,15.0,15.0,15.0,0,15.0
2018-06-14,15.366000175476074,15.34000015258789,15.34000015258789,15.366000175476074,1200,15.366000175476074
2018-06-15,15.366000175476074,15.366000175476074,15.366000175476074,15.366000175476074,0,15.366000175476074
2018-06-18,15.366000175476074,15.366000175476074,15.366000175476074,15.366000175476074,0,15.366000175476074
2018-06-19,15.01099967956543,15.01099967956543,15.01099967956543,15.01099967956543,100,15.01099967956543
2018-06-20,15.01099967956543,15.01099967956543,15.01099967956543,15.01099967956543,0,15.01099967956543
2018-06-21,15.01099967956543,15.01099967956543,15.01099967956543,15.01099967956543,0,15.01099967956543
2018-06-22,15.050000190734863,15.050000190734863,15.050000190734863,15.050000190734863,1100,15.050000190734863
2018-06-25,15.300000190734863,14.880000114440918,15.300000190734863,14.880000114440918,300,14.880000114440918
