Date,High,Low,Open,Close,Volume,Adj Close
2017-11-08,39.0,37.060001373291016,38.95000076293945,37.209999084472656,2582500,37.209999084472656
2017-11-09,37.16999816894531,36.5,36.81999969482422,37.02000045776367,355700,37.02000045776367
2017-11-10,37.04999923706055,36.349998474121094,36.75,36.9900016784668,67000,36.9900016784668
2017-11-13,38.22999954223633,36.95000076293945,36.95000076293945,37.939998626708984,39700,37.939998626708984
2017-11-14,38.16999816894531,36.900001525878906,37.84000015258789,37.099998474121094,104800,37.099998474121094
2017-11-15,39.04999923706055,36.770999908447266,36.79999923706055,38.7400016784668,107300,38.7400016784668
2017-11-16,39.290000915527344,37.66999816894531,38.849998474121094,39.13999938964844,148500,39.13999938964844
2017-11-17,39.650001525878906,38.65999984741211,39.060001373291016,39.59000015258789,30000,39.59000015258789
2017-11-20,41.75,39.75,39.75,41.31999969482422,79900,41.31999969482422
2017-11-21,42.3650016784668,40.93000030517578,41.349998474121094,42.06999969482422,87800,42.06999969482422
2017-11-22,42.20000076293945,41.7599983215332,42.189998626708984,41.939998626708984,14800,41.939998626708984
2017-11-24,42.349998474121094,41.79999923706055,42.0,42.150001525878906,12800,42.150001525878906
2017-11-27,42.689998626708984,42.0,42.150001525878906,42.540000915527344,28600,42.540000915527344
2017-11-28,43.290000915527344,42.34000015258789,42.52000045776367,42.4900016784668,46400,42.4900016784668
2017-11-29,44.525001525878906,42.45000076293945,42.45000076293945,43.650001525878906,85200,43.650001525878906
2017-11-30,44.3849983215332,43.470001220703125,43.95000076293945,43.7599983215332,114600,43.7599983215332
2017-12-01,44.20000076293945,43.150001525878906,43.86000061035156,43.95000076293945,52500,43.95000076293945
2017-12-04,45.13999938964844,43.9900016784668,43.9900016784668,44.65999984741211,101800,44.65999984741211
2017-12-05,45.04999923706055,44.25,45.0,44.58000183105469,124300,44.58000183105469
2017-12-06,45.63999938964844,44.599998474121094,44.599998474121094,44.63999938964844,47000,44.63999938964844
2017-12-07,48.869998931884766,44.63999938964844,44.63999938964844,46.0099983215332,234100,46.0099983215332
2017-12-08,48.209999084472656,45.880001068115234,46.5099983215332,47.2599983215332,174800,47.2599983215332
2017-12-11,48.26499938964844,47.52000045776367,47.9900016784668,47.81999969482422,131900,47.81999969482422
2017-12-12,50.15999984741211,47.939998626708984,48.25,50.029998779296875,252500,50.029998779296875
2017-12-13,51.29999923706055,45.0099983215332,49.95000076293945,46.15999984741211,371800,46.15999984741211
2017-12-14,45.93000030517578,43.0,45.93000030517578,43.459999084472656,277600,43.459999084472656
2017-12-15,45.630001068115234,43.09000015258789,43.5,44.54999923706055,647500,44.54999923706055
2017-12-18,49.5,44.66999816894531,44.709999084472656,47.4900016784668,445700,47.4900016784668
2017-12-19,49.0,43.060001373291016,48.349998474121094,44.5,422800,44.5
2017-12-20,47.34000015258789,44.560001373291016,46.20000076293945,45.75,313100,45.75
2017-12-21,46.78900146484375,45.060001373291016,45.95000076293945,45.5,168800,45.5
2017-12-22,44.75,43.02000045776367,44.5,43.18000030517578,155000,43.18000030517578
2017-12-26,44.65999984741211,43.29999923706055,43.29999923706055,43.75,100300,43.75
2017-12-27,44.0,43.31999969482422,43.939998626708984,43.41999816894531,56900,43.41999816894531
2017-12-28,43.47999954223633,42.2400016784668,43.47999954223633,43.11000061035156,80600,43.11000061035156
2017-12-29,43.54999923706055,41.619998931884766,43.5,42.099998474121094,140100,42.099998474121094
2018-01-02,45.4900016784668,42.20000076293945,42.45000076293945,45.4900016784668,172900,45.4900016784668
2018-01-03,45.900001525878906,44.209999084472656,45.689998626708984,45.209999084472656,136300,45.209999084472656
2018-01-04,46.290000915527344,45.130001068115234,45.22999954223633,45.9900016784668,126900,45.9900016784668
2018-01-05,46.70000076293945,45.7599983215332,46.220001220703125,45.81999969482422,153200,45.81999969482422
2018-01-08,45.959999084472656,44.599998474121094,45.959999084472656,45.58000183105469,128700,45.58000183105469
2018-01-09,45.75,44.52000045776367,45.47999954223633,45.66999816894531,109700,45.66999816894531
2018-01-10,45.9900016784668,44.86000061035156,45.599998474121094,45.2400016784668,116300,45.2400016784668
2018-01-11,45.45000076293945,43.95000076293945,45.279998779296875,44.86000061035156,134100,44.86000061035156
2018-01-12,45.0,44.375,44.880001068115234,44.95000076293945,35100,44.95000076293945
2018-01-16,45.349998474121094,43.7400016784668,43.9900016784668,44.81999969482422,109100,44.81999969482422
2018-01-17,44.93000030517578,43.09000015258789,44.93000030517578,44.060001373291016,130100,44.060001373291016
2018-01-18,44.25,42.90999984741211,43.91999816894531,43.0,85900,43.0
2018-01-19,44.349998474121094,42.689998626708984,42.939998626708984,42.93000030517578,71800,42.93000030517578
2018-01-22,43.59000015258789,42.34600067138672,43.0,43.36000061035156,57700,43.36000061035156
2018-01-23,44.34000015258789,42.91999816894531,43.349998474121094,44.209999084472656,124100,44.209999084472656
2018-01-24,44.54999923706055,43.720001220703125,44.29999923706055,44.209999084472656,29500,44.209999084472656
2018-01-25,44.279998779296875,43.14500045776367,43.959999084472656,43.650001525878906,81500,43.650001525878906
2018-01-26,43.93000030517578,42.75,43.81999969482422,43.15999984741211,31700,43.15999984741211
2018-01-29,44.400001525878906,42.630001068115234,43.15999984741211,43.5,70700,43.5
2018-01-30,44.70000076293945,43.380001068115234,43.380001068115234,44.54999923706055,127500,44.54999923706055
2018-01-31,47.7599983215332,44.500999450683594,44.70000076293945,47.4900016784668,161500,47.4900016784668
2018-02-01,48.45000076293945,46.63999938964844,47.310001373291016,48.040000915527344,103700,48.040000915527344
2018-02-02,48.83000183105469,46.55400085449219,47.810001373291016,46.70000076293945,106700,46.70000076293945
2018-02-05,47.209999084472656,45.6870002746582,46.29999923706055,46.220001220703125,63700,46.220001220703125
2018-02-06,46.36000061035156,44.68000030517578,45.40999984741211,45.279998779296875,43300,45.279998779296875
2018-02-07,45.29999923706055,44.66999816894531,45.11000061035156,45.060001373291016,41000,45.060001373291016
2018-02-08,45.50299835205078,44.720001220703125,45.0099983215332,44.90999984741211,40400,44.90999984741211
2018-02-09,45.439998626708984,43.900001525878906,45.439998626708984,44.70000076293945,49300,44.70000076293945
2018-02-12,46.13999938964844,44.3650016784668,45.150001525878906,45.5099983215332,24800,45.5099983215332
2018-02-13,45.5099983215332,44.81999969482422,45.5,45.0,16300,45.0
2018-02-14,45.81999969482422,44.54600143432617,44.79999923706055,45.189998626708984,49400,45.189998626708984
2018-02-15,45.599998474121094,44.599998474121094,45.25,45.130001068115234,33000,45.130001068115234
2018-02-16,46.09000015258789,45.150001525878906,45.189998626708984,45.65999984741211,16300,45.65999984741211
2018-02-20,46.09000015258789,45.11000061035156,45.63999938964844,45.45000076293945,21900,45.45000076293945
2018-02-21,45.88999938964844,45.40999984741211,45.40999984741211,45.56999969482422,15200,45.56999969482422
2018-02-22,45.75,44.689998626708984,45.75,44.95000076293945,29900,44.95000076293945
2018-02-23,45.380001068115234,44.68000030517578,45.08000183105469,45.2599983215332,17900,45.2599983215332
2018-02-26,45.5099983215332,44.69499969482422,45.41999816894531,45.16999816894531,23700,45.16999816894531
2018-02-27,45.72999954223633,44.939998626708984,45.25,45.04999923706055,24000,45.04999923706055
2018-02-28,45.25,44.11000061035156,45.25,44.41999816894531,24600,44.41999816894531
2018-03-01,45.630001068115234,44.029998779296875,44.68000030517578,44.63999938964844,42000,44.63999938964844
2018-03-02,45.4900016784668,44.0,44.290000915527344,45.29999923706055,47600,45.29999923706055
2018-03-05,47.45000076293945,44.40999984741211,44.84000015258789,46.5,45300,46.5
2018-03-06,46.689998626708984,46.099998474121094,46.40999984741211,46.43000030517578,16100,46.43000030517578
2018-03-07,47.43000030517578,46.130001068115234,46.130001068115234,46.720001220703125,13600,46.720001220703125
2018-03-08,47.25,46.16999816894531,46.75,46.20000076293945,26000,46.20000076293945
2018-03-09,47.099998474121094,46.220001220703125,46.25,46.790000915527344,21800,46.790000915527344
2018-03-12,46.720001220703125,44.540000915527344,46.720001220703125,44.560001373291016,85000,44.560001373291016
2018-03-13,45.810001373291016,44.709999084472656,44.869998931884766,45.41999816894531,30100,45.41999816894531
2018-03-14,45.41999816894531,43.814998626708984,45.369998931884766,44.09000015258789,66600,44.09000015258789
2018-03-15,44.63999938964844,43.31999969482422,44.279998779296875,43.689998626708984,40500,43.689998626708984
2018-03-16,44.099998474121094,43.244998931884766,43.619998931884766,43.880001068115234,37200,43.880001068115234
2018-03-19,43.90999984741211,42.810001373291016,43.7400016784668,42.900001525878906,43900,42.900001525878906
2018-03-20,43.11600112915039,41.95000076293945,42.900001525878906,42.58000183105469,142400,42.58000183105469
2018-03-21,44.040000915527344,42.52000045776367,42.52000045776367,42.66999816894531,42900,42.66999816894531
2018-03-22,43.06999969482422,41.95000076293945,42.470001220703125,42.099998474121094,45600,42.099998474121094
2018-03-23,43.11000061035156,41.5099983215332,42.27000045776367,41.66999816894531,34700,41.66999816894531
2018-03-26,42.70000076293945,42.029998779296875,42.27000045776367,42.43000030517578,18800,42.43000030517578
2018-03-27,42.349998474121094,41.63999938964844,42.349998474121094,41.650001525878906,18200,41.650001525878906
2018-03-28,41.68000030517578,41.16999816894531,41.65999984741211,41.45000076293945,17500,41.45000076293945
2018-03-29,42.79999923706055,41.09000015258789,41.209999084472656,42.11000061035156,47600,42.11000061035156
2018-04-02,42.59000015258789,42.119998931884766,42.34000015258789,42.5,31700,42.5
2018-04-03,43.5099983215332,42.599998474121094,42.709999084472656,43.099998474121094,45600,43.099998474121094
2018-04-04,43.93000030517578,42.720001220703125,42.790000915527344,43.779998779296875,55200,43.779998779296875
2018-04-05,44.459999084472656,43.75,43.93000030517578,44.189998626708984,25300,44.189998626708984
2018-04-06,44.448001861572266,43.529998779296875,43.880001068115234,43.65999984741211,35300,43.65999984741211
2018-04-09,44.36000061035156,43.709999084472656,43.95000076293945,44.279998779296875,29100,44.279998779296875
2018-04-10,45.150001525878906,44.150001525878906,44.689998626708984,44.279998779296875,59500,44.279998779296875
2018-04-11,44.0099983215332,43.15999984741211,44.0099983215332,43.279998779296875,53800,43.279998779296875
2018-04-12,44.630001068115234,43.38199996948242,43.400001525878906,44.25,54400,44.25
2018-04-13,44.43000030517578,42.88999938964844,44.43000030517578,43.5,30300,43.5
2018-04-16,44.79999923706055,43.619998931884766,43.650001525878906,44.66999816894531,55300,44.66999816894531
2018-04-17,44.98500061035156,44.2400016784668,44.83000183105469,44.290000915527344,35100,44.290000915527344
2018-04-18,44.540000915527344,43.900001525878906,44.540000915527344,44.06999969482422,13000,44.06999969482422
2018-04-19,43.95000076293945,43.4900016784668,43.95000076293945,43.54999923706055,10000,43.54999923706055
2018-04-20,44.36000061035156,43.310001373291016,43.47999954223633,43.93000030517578,21700,43.93000030517578
2018-04-23,44.4900016784668,43.58000183105469,43.90999984741211,44.25,19100,44.25
2018-04-24,44.959999084472656,44.224998474121094,44.2599983215332,44.95000076293945,36500,44.95000076293945
2018-04-25,46.689998626708984,44.779998779296875,44.97999954223633,46.529998779296875,37000,46.529998779296875
2018-04-26,47.040000915527344,46.0,46.72999954223633,46.97999954223633,41700,46.97999954223633
2018-04-27,47.2599983215332,46.57099914550781,47.04999923706055,47.220001220703125,25000,47.220001220703125
2018-04-30,47.900001525878906,47.0099983215332,47.40999984741211,47.33000183105469,36200,47.33000183105469
2018-05-01,48.58000183105469,47.034000396728516,47.33000183105469,48.45000076293945,43000,48.45000076293945
2018-05-02,50.474998474121094,47.900001525878906,48.41999816894531,49.25,54600,49.25
2018-05-03,49.16999816894531,48.150001525878906,49.16999816894531,48.36000061035156,27800,48.36000061035156
2018-05-04,49.150001525878906,48.09000015258789,48.290000915527344,48.599998474121094,26300,48.599998474121094
2018-05-07,48.95000076293945,47.709999084472656,48.84000015258789,48.709999084472656,40900,48.709999084472656
2018-05-08,50.18000030517578,48.54999923706055,48.75,48.58000183105469,54900,48.58000183105469
2018-05-09,49.86000061035156,48.400001525878906,48.7400016784668,48.72999954223633,59800,48.72999954223633
2018-05-10,50.09000015258789,48.04999923706055,48.849998474121094,48.7400016784668,81800,48.7400016784668
2018-05-11,48.88999938964844,47.900001525878906,48.88999938964844,48.599998474121094,49700,48.599998474121094
2018-05-14,48.84000015258789,48.310001373291016,48.599998474121094,48.4900016784668,26300,48.4900016784668
2018-05-15,50.040000915527344,47.869998931884766,47.869998931884766,48.689998626708984,38400,48.689998626708984
2018-05-16,50.70000076293945,47.93000030517578,48.810001373291016,48.65999984741211,99700,48.65999984741211
2018-05-17,50.06999969482422,48.61000061035156,48.61000061035156,49.279998779296875,27300,49.279998779296875
2018-05-18,49.810001373291016,48.119998931884766,49.38999938964844,48.72999954223633,50600,48.72999954223633
2018-05-21,50.36000061035156,48.900001525878906,49.06999969482422,49.84000015258789,47700,49.84000015258789
2018-05-22,51.41999816894531,49.91999816894531,49.91999816894531,50.65999984741211,52100,50.65999984741211
2018-05-23,51.470001220703125,49.529998779296875,50.72999954223633,50.29999923706055,70700,50.29999923706055
2018-05-24,50.72999954223633,50.150001525878906,50.18000030517578,50.33000183105469,30600,50.33000183105469
2018-05-25,50.63999938964844,48.959999084472656,50.279998779296875,48.9900016784668,57000,48.9900016784668
2018-05-29,50.27000045776367,48.209999084472656,48.81999969482422,50.209999084472656,58100,50.209999084472656
2018-05-30,50.80500030517578,49.7599983215332,50.45000076293945,50.20000076293945,56700,50.20000076293945
2018-05-31,51.41999816894531,50.130001068115234,50.15999984741211,51.060001373291016,34100,51.060001373291016
2018-06-01,53.150001525878906,51.349998474121094,51.36000061035156,52.70000076293945,66300,52.70000076293945
2018-06-04,53.08000183105469,51.959999084472656,52.959999084472656,52.58000183105469,82500,52.58000183105469
2018-06-05,54.09000015258789,52.209999084472656,52.45000076293945,52.95000076293945,65400,52.95000076293945
2018-06-06,53.290000915527344,52.790000915527344,52.97999954223633,53.060001373291016,62600,53.060001373291016
2018-06-07,54.0099983215332,51.86000061035156,53.34000015258789,52.380001068115234,111500,52.380001068115234
2018-06-08,54.099998474121094,52.529998779296875,52.529998779296875,53.38999938964844,50400,53.38999938964844
2018-06-11,54.7400016784668,53.22999954223633,53.470001220703125,53.349998474121094,76300,53.349998474121094
2018-06-12,53.45000076293945,52.7400016784668,53.400001525878906,52.939998626708984,60800,52.939998626708984
2018-06-13,53.15999984741211,51.189998626708984,52.959999084472656,51.86000061035156,106400,51.86000061035156
2018-06-14,52.84000015258789,51.119998931884766,52.02000045776367,52.61000061035156,72500,52.61000061035156
2018-06-15,54.04999923706055,52.400001525878906,52.540000915527344,53.61000061035156,70000,53.61000061035156
2018-06-18,54.33000183105469,53.40999984741211,53.86000061035156,54.16999816894531,44700,54.16999816894531
2018-06-19,54.61000061035156,53.22999954223633,53.83000183105469,54.33000183105469,52000,54.33000183105469
2018-06-20,55.0,54.33000183105469,54.43000030517578,54.619998931884766,29100,54.619998931884766
2018-06-21,54.869998931884766,53.810001373291016,54.869998931884766,53.9900016784668,35000,53.9900016784668
2018-06-22,54.75,52.72999954223633,54.5,53.349998474121094,386500,53.349998474121094
2018-06-25,54.7400016784668,53.119998931884766,53.349998474121094,53.220001220703125,99400,53.220001220703125
2018-06-26,53.439998626708984,52.470001220703125,53.439998626708984,52.86000061035156,53500,52.86000061035156
2018-06-27,52.61000061035156,51.47999954223633,52.61000061035156,51.630001068115234,53400,51.630001068115234
2018-06-28,52.599998474121094,51.529998779296875,51.709999084472656,52.29999923706055,34200,52.29999923706055
2018-06-29,52.599998474121094,52.06999969482422,52.560001373291016,52.47999954223633,50400,52.47999954223633
2018-07-02,53.65999984741211,52.310001373291016,52.310001373291016,53.470001220703125,22400,53.470001220703125
2018-07-03,53.900001525878906,52.83000183105469,53.86000061035156,52.83000183105469,16100,52.83000183105469
2018-07-05,54.2599983215332,53.060001373291016,53.16999816894531,53.9900016784668,18700,53.9900016784668
2018-07-06,53.95000076293945,52.470001220703125,53.95000076293945,52.810001373291016,26800,52.810001373291016
2018-07-09,53.60499954223633,52.779998779296875,52.84000015258789,53.5,29300,53.5
2018-07-10,53.70000076293945,52.290000915527344,53.66999816894531,52.91999816894531,13000,52.91999816894531
2018-07-11,52.849998474121094,51.75299835205078,52.77000045776367,52.36000061035156,13500,52.36000061035156
2018-07-12,52.91999816894531,51.935001373291016,52.68000030517578,52.38999938964844,40600,52.38999938964844
2018-07-13,53.04999923706055,50.970001220703125,53.04999923706055,51.40999984741211,13300,51.40999984741211
2018-07-16,52.59000015258789,51.13999938964844,51.43000030517578,51.7599983215332,16000,51.7599983215332
2018-07-17,52.2599983215332,51.56999969482422,51.88999938964844,51.90999984741211,14700,51.90999984741211
2018-07-18,52.34000015258789,51.16999816894531,51.97999954223633,51.43000030517578,18800,51.43000030517578
2018-07-19,52.08000183105469,51.34000015258789,51.5,51.77000045776367,43000,51.77000045776367
2018-07-20,52.83000183105469,51.7400016784668,51.7400016784668,52.54999923706055,17200,52.54999923706055
2018-07-23,52.45000076293945,50.93000030517578,52.45000076293945,51.470001220703125,23200,51.470001220703125
2018-07-24,51.60499954223633,50.470001220703125,51.220001220703125,50.88999938964844,17300,50.88999938964844
2018-07-25,50.66999816894531,46.959999084472656,50.66999816894531,49.5,141200,49.5
2018-07-26,50.84000015258789,49.5,49.5,50.63999938964844,48700,50.63999938964844
2018-07-27,51.099998474121094,50.220001220703125,50.61000061035156,50.41999816894531,30100,50.41999816894531
2018-07-30,50.84000015258789,49.0099983215332,50.470001220703125,49.040000915527344,28700,49.040000915527344
2018-07-31,49.2599983215332,48.25,49.119998931884766,49.13999938964844,27000,49.13999938964844
2018-08-01,50.36000061035156,48.869998931884766,49.04999923706055,50.0099983215332,25700,50.0099983215332
2018-08-02,50.959999084472656,49.720001220703125,49.720001220703125,49.95000076293945,22800,49.95000076293945
2018-08-03,50.349998474121094,48.06999969482422,50.08000183105469,48.5,13300,48.5
2018-08-06,48.36000061035156,47.279998779296875,48.36000061035156,47.349998474121094,8000,47.349998474121094
2018-08-07,47.52000045776367,45.61000061035156,47.52000045776367,46.04999923706055,38400,46.04999923706055
2018-08-08,46.13999938964844,45.58000183105469,45.95000076293945,45.86000061035156,24100,45.86000061035156
2018-08-09,46.20000076293945,45.63999938964844,45.86000061035156,45.779998779296875,20400,45.779998779296875
2018-08-10,47.016998291015625,45.834999084472656,45.900001525878906,46.41999816894531,31900,46.41999816894531
2018-08-13,47.040000915527344,45.58000183105469,46.599998474121094,45.93000030517578,29000,45.93000030517578
2018-08-14,47.119998931884766,45.720001220703125,45.720001220703125,46.66999816894531,17500,46.66999816894531
2018-08-15,46.41999816894531,45.22999954223633,46.41999816894531,45.22999954223633,13800,45.22999954223633
2018-08-16,46.59000015258789,45.34000015258789,45.34000015258789,46.11000061035156,10800,46.11000061035156
2018-08-17,46.70000076293945,45.492000579833984,45.939998626708984,46.439998626708984,22500,46.439998626708984
2018-08-20,46.4739990234375,41.779998779296875,46.25,43.25,49800,43.25
2018-08-21,44.310001373291016,43.34000015258789,43.34000015258789,43.650001525878906,18900,43.650001525878906
2018-08-22,43.689998626708984,42.7599983215332,43.52000045776367,43.11000061035156,24900,43.11000061035156
2018-08-23,43.400001525878906,42.790000915527344,43.11000061035156,43.130001068115234,34700,43.130001068115234
2018-08-24,43.0,42.099998474121094,43.0,42.349998474121094,14300,42.349998474121094
2018-08-27,42.356998443603516,40.61000061035156,42.356998443603516,40.75,22200,40.75
2018-08-28,41.20000076293945,40.5099983215332,41.0,41.16999816894531,45900,41.16999816894531
2018-08-29,42.349998474121094,40.79499816894531,41.27000045776367,41.150001525878906,28400,41.150001525878906
2018-08-30,41.220001220703125,40.75,40.9900016784668,41.150001525878906,14100,41.150001525878906
2018-08-31,41.25,40.56999969482422,40.93000030517578,41.2400016784668,14300,41.2400016784668
2018-09-04,42.2400016784668,41.0099983215332,41.209999084472656,42.06999969482422,25100,42.06999969482422
2018-09-05,43.36000061035156,42.0,42.06999969482422,42.5,47600,42.5
2018-09-06,42.72999954223633,42.279998779296875,42.66999816894531,42.68000030517578,27100,42.68000030517578
2018-09-07,43.13999938964844,42.43000030517578,43.13999938964844,42.619998931884766,24500,42.619998931884766
2018-09-10,43.45000076293945,42.599998474121094,42.810001373291016,43.060001373291016,24000,43.060001373291016
2018-09-11,44.2400016784668,43.369998931884766,43.369998931884766,43.70000076293945,29000,43.70000076293945
2018-09-12,44.0099983215332,43.25,43.47999954223633,43.66999816894531,21000,43.66999816894531
2018-09-13,44.31999969482422,42.47999954223633,44.11000061035156,43.33000183105469,23900,43.33000183105469
2018-09-14,43.880001068115234,42.62699890136719,42.62699890136719,43.599998474121094,13000,43.599998474121094
2018-09-17,44.70000076293945,43.630001068115234,44.099998474121094,43.95000076293945,44200,43.95000076293945
2018-09-18,44.61000061035156,43.25,43.84000015258789,44.47999954223633,25600,44.47999954223633
2018-09-19,45.220001220703125,44.41999816894531,44.41999816894531,45.0,23000,45.0
2018-09-20,46.41999816894531,45.0,45.25,45.779998779296875,66700,45.779998779296875
2018-09-21,46.130001068115234,43.02000045776367,45.810001373291016,43.13999938964844,94400,43.13999938964844
2018-09-24,43.11000061035156,41.43000030517578,43.11000061035156,41.70000076293945,22200,41.70000076293945
2018-09-25,42.25,41.5,42.15999984741211,41.68000030517578,11200,41.68000030517578
2018-09-26,42.880001068115234,41.04999923706055,42.29999923706055,41.310001373291016,14800,41.310001373291016
2018-09-27,41.5099983215332,40.06999969482422,41.5099983215332,40.75,13500,40.75
2018-09-28,41.349998474121094,40.06999969482422,40.619998931884766,41.119998931884766,20100,41.119998931884766
2018-10-01,41.380001068115234,40.0,41.380001068115234,40.20000076293945,9000,40.20000076293945
2018-10-02,40.459999084472656,39.029998779296875,40.029998779296875,40.15999984741211,24400,40.15999984741211
2018-10-03,41.654998779296875,39.93000030517578,40.2400016784668,41.43000030517578,32600,41.43000030517578
2018-10-04,41.7599983215332,40.79399871826172,41.189998626708984,41.63999938964844,49800,41.63999938964844
2018-10-05,41.52000045776367,39.43000030517578,41.52000045776367,40.18000030517578,23800,40.18000030517578
2018-10-08,41.75,40.0,40.04999923706055,41.220001220703125,21100,41.220001220703125
2018-10-09,42.43000030517578,40.810001373291016,41.0,41.709999084472656,22200,41.709999084472656
2018-10-10,43.04999923706055,41.334999084472656,41.619998931884766,41.75,33600,41.75
2018-10-11,42.29999923706055,40.58000183105469,41.70000076293945,41.65999984741211,23400,41.65999984741211
2018-10-12,41.29999923706055,38.88999938964844,41.19900131225586,39.45000076293945,15900,39.45000076293945
2018-10-15,40.65999984741211,38.939998626708984,39.33000183105469,40.599998474121094,40700,40.599998474121094
2018-10-16,41.400001525878906,40.43000030517578,40.630001068115234,41.27000045776367,13900,41.27000045776367
2018-10-17,41.97999954223633,40.849998474121094,41.2599983215332,41.40999984741211,16800,41.40999984741211
2018-10-18,40.88999938964844,38.4900016784668,40.672000885009766,39.02000045776367,16600,39.02000045776367
2018-10-19,40.0099983215332,38.0099983215332,38.95000076293945,38.220001220703125,18700,38.220001220703125
2018-10-22,38.43000030517578,37.0099983215332,38.0,38.43000030517578,38700,38.43000030517578
2018-10-23,38.189998626708984,37.52000045776367,37.970001220703125,37.7400016784668,28500,37.7400016784668
2018-10-24,37.290000915527344,35.362998962402344,37.290000915527344,35.650001525878906,32900,35.650001525878906
2018-10-25,36.595001220703125,35.0,36.0,36.36000061035156,17400,36.36000061035156
2018-10-26,37.13999938964844,35.654998779296875,36.0,36.70000076293945,18400,36.70000076293945
2018-10-29,37.8120002746582,36.20500183105469,36.27000045776367,37.08000183105469,26400,37.08000183105469
2018-10-30,37.290000915527344,35.70000076293945,35.959999084472656,36.81999969482422,33500,36.81999969482422
2018-10-31,37.20000076293945,35.790000915527344,37.20000076293945,36.86000061035156,24300,36.86000061035156
2018-11-01,37.380001068115234,36.43000030517578,36.91999816894531,37.209999084472656,26400,37.209999084472656
2018-11-02,38.70000076293945,37.41999816894531,37.41999816894531,38.04999923706055,17400,38.04999923706055
2018-11-05,38.38999938964844,37.63999938964844,38.310001373291016,38.150001525878906,6000,38.150001525878906
2018-11-06,39.630001068115234,37.5,37.5,39.279998779296875,13400,39.279998779296875
2018-11-07,39.36000061035156,38.36000061035156,39.36000061035156,38.86000061035156,9200,38.86000061035156
2018-11-08,39.7599983215332,38.5,38.75,39.5,20600,39.5
2018-11-09,39.36000061035156,38.150001525878906,39.36000061035156,38.7599983215332,10400,38.7599983215332
2018-11-12,37.9900016784668,37.279998779296875,37.279998779296875,37.33000183105469,5800,37.33000183105469
2018-11-13,38.93000030517578,36.65999984741211,37.369998931884766,38.75,26400,38.75
2018-11-14,38.220001220703125,37.150001525878906,38.11000061035156,37.150001525878906,9000,37.150001525878906
2018-11-15,37.650001525878906,36.5,37.04999923706055,37.470001220703125,8100,37.470001220703125
2018-11-16,38.185001373291016,35.83000183105469,37.27000045776367,37.33000183105469,14600,37.33000183105469
2018-11-19,38.720001220703125,36.310001373291016,36.310001373291016,38.720001220703125,6500,38.720001220703125
2018-11-20,38.25,36.334999084472656,38.15999984741211,37.15999984741211,14300,37.15999984741211
2018-11-21,38.060001373291016,36.93000030517578,37.29399871826172,38.04999923706055,3900,38.04999923706055
2018-11-23,38.900001525878906,36.70000076293945,37.779998779296875,38.040000915527344,5600,38.040000915527344
2018-11-26,38.904998779296875,37.95000076293945,38.869998931884766,38.5,17800,38.5
2018-11-27,38.41999816894531,37.130001068115234,38.41999816894531,37.34000015258789,3000,37.34000015258789
2018-11-28,38.439998626708984,37.38999938964844,37.52000045776367,38.060001373291016,5200,38.060001373291016
2018-11-29,37.779998779296875,36.4900016784668,37.70000076293945,36.4900016784668,7700,36.4900016784668
2018-11-30,37.790000915527344,35.80500030517578,36.529998779296875,35.97999954223633,66800,35.97999954223633
2018-12-03,36.810001373291016,35.66999816894531,36.810001373291016,36.0,19000,36.0
2018-12-04,37.349998474121094,35.7599983215332,35.7599983215332,35.95000076293945,10200,35.95000076293945
2018-12-06,35.5099983215332,34.06999969482422,35.5099983215332,34.5099983215332,12200,34.5099983215332
2018-12-07,34.66999816894531,33.22999954223633,34.66999816894531,33.9900016784668,11700,33.9900016784668
2018-12-10,33.790000915527344,33.20000076293945,33.790000915527344,33.75,11100,33.75
2018-12-11,34.26499938964844,33.54999923706055,34.029998779296875,33.93000030517578,3500,33.93000030517578
2018-12-12,34.22999954223633,33.310001373291016,33.310001373291016,34.189998626708984,6300,34.189998626708984
2018-12-13,34.83399963378906,33.459999084472656,34.83399963378906,33.91999816894531,4600,33.91999816894531
2018-12-14,34.400001525878906,33.310001373291016,33.849998474121094,33.41999816894531,5700,33.41999816894531
2018-12-17,33.38999938964844,31.885000228881836,33.38999938964844,32.77000045776367,25200,32.77000045776367
2018-12-18,33.4900016784668,31.84000015258789,32.91999816894531,32.880001068115234,7500,32.880001068115234
2018-12-19,33.279998779296875,30.829999923706055,32.709999084472656,31.1299991607666,38800,31.1299991607666
2018-12-20,31.09000015258789,29.959999084472656,31.09000015258789,30.770000457763672,29400,30.770000457763672
2018-12-21,31.73699951171875,30.0,30.690000534057617,31.139999389648438,30800,31.139999389648438
2018-12-24,31.399999618530273,30.079999923706055,30.940000534057617,30.079999923706055,5300,30.079999923706055
2018-12-26,31.25,30.0,30.3799991607666,30.75,18500,30.75
2018-12-27,30.239999771118164,29.15999984741211,30.239999771118164,29.979999542236328,13700,29.979999542236328
2018-12-28,30.829999923706055,29.049999237060547,30.0,30.700000762939453,25600,30.700000762939453
2018-12-31,30.989999771118164,29.579999923706055,30.6299991607666,30.850000381469727,18500,30.850000381469727
2019-01-02,30.8700008392334,30.03499984741211,30.46500015258789,30.309999465942383,28000,30.309999465942383
2019-01-03,30.989999771118164,30.1200008392334,30.280000686645508,30.75,31100,30.75
2019-01-04,31.25,30.5,30.75,31.100000381469727,61600,31.100000381469727
2019-01-07,32.060001373291016,30.799999237060547,31.15999984741211,32.060001373291016,10600,32.060001373291016
2019-01-08,33.08000183105469,32.0099983215332,32.31999969482422,32.93000030517578,13100,32.93000030517578
2019-01-09,33.20000076293945,31.850000381469727,32.70000076293945,32.650001525878906,43800,32.650001525878906
2019-01-10,32.70500183105469,31.59000015258789,32.26499938964844,32.63999938964844,35300,32.63999938964844
2019-01-11,33.119998931884766,32.29999923706055,32.5099983215332,32.72999954223633,14700,32.72999954223633
2019-01-14,33.09000015258789,32.19499969482422,32.560001373291016,32.650001525878906,35500,32.650001525878906
2019-01-15,33.36000061035156,32.31999969482422,32.31999969482422,33.36000061035156,9000,33.36000061035156
2019-01-16,33.959999084472656,33.0,33.369998931884766,33.70000076293945,120200,33.70000076293945
2019-01-17,35.21900177001953,33.54999923706055,33.54999923706055,34.400001525878906,14500,34.400001525878906
2019-01-18,35.70000076293945,34.560001373291016,34.560001373291016,35.470001220703125,22200,35.470001220703125
2019-01-22,36.689998626708984,35.470001220703125,35.470001220703125,36.09000015258789,17000,36.09000015258789
2019-01-23,36.7400016784668,35.40999984741211,36.0,35.869998931884766,14900,35.869998931884766
2019-01-24,36.733001708984375,35.63999938964844,36.439998626708984,35.900001525878906,10400,35.900001525878906
2019-01-25,36.5,35.13800048828125,36.0,36.5,15600,36.5
2019-01-28,37.03499984741211,35.06999969482422,36.91400146484375,35.599998474121094,26400,35.599998474121094
2019-01-29,35.650001525878906,34.685001373291016,34.9109992980957,35.150001525878906,21400,35.150001525878906
2019-01-30,36.099998474121094,34.96099853515625,35.189998626708984,35.5099983215332,10800,35.5099983215332
2019-01-31,35.5,33.36000061035156,35.40999984741211,35.0,24400,35.0
2019-02-01,36.099998474121094,34.733001708984375,34.97999954223633,35.380001068115234,25700,35.380001068115234
2019-02-04,36.91999816894531,35.34700012207031,35.400001525878906,36.06999969482422,6700,36.06999969482422
2019-02-05,35.619998931884766,35.380001068115234,35.380001068115234,35.619998931884766,2800,35.619998931884766
2019-02-06,36.150001525878906,35.45000076293945,35.63999938964844,36.099998474121094,10300,36.099998474121094
2019-02-07,36.939998626708984,36.0,36.369998931884766,36.61000061035156,17400,36.61000061035156
2019-02-08,36.869998931884766,36.09000015258789,36.61000061035156,36.72999954223633,10200,36.72999954223633
2019-02-11,36.9900016784668,36.560001373291016,36.7599983215332,36.720001220703125,2800,36.720001220703125
2019-02-12,36.75,36.45000076293945,36.75,36.45000076293945,1700,36.45000076293945
2019-02-13,37.349998474121094,35.9900016784668,35.9900016784668,37.09000015258789,3400,37.09000015258789
2019-02-14,37.13999938964844,36.34000015258789,36.93000030517578,36.43000030517578,5900,36.43000030517578
2019-02-15,37.5,36.599998474121094,36.650001525878906,37.29999923706055,11200,37.29999923706055
2019-02-19,38.119998931884766,37.04999923706055,37.04999923706055,37.88999938964844,12500,37.88999938964844
2019-02-20,38.43000030517578,37.75,38.29899978637695,38.11000061035156,11600,38.11000061035156
2019-02-21,38.54199981689453,37.63999938964844,38.54199981689453,38.04999923706055,5000,38.04999923706055
2019-02-22,38.9900016784668,38.11000061035156,38.869998931884766,38.720001220703125,8400,38.720001220703125
2019-02-25,39.316001892089844,38.290000915527344,38.720001220703125,38.290000915527344,10000,38.290000915527344
2019-02-26,39.082000732421875,38.08000183105469,39.082000732421875,38.45000076293945,10800,38.45000076293945
2019-02-27,39.220001220703125,38.5099983215332,38.80500030517578,38.70000076293945,4000,38.70000076293945
2019-02-28,39.150001525878906,38.15999984741211,38.59199905395508,38.529998779296875,8900,38.529998779296875
2019-03-01,38.91999816894531,38.369998931884766,38.369998931884766,38.779998779296875,5200,38.779998779296875
2019-03-04,38.7599983215332,38.349998474121094,38.7599983215332,38.349998474121094,8000,38.349998474121094
2019-03-05,38.69499969482422,37.75,38.349998474121094,38.27000045776367,28800,38.27000045776367
2019-03-06,38.720001220703125,37.52399826049805,38.16999816894531,37.779998779296875,13100,37.779998779296875
2019-03-07,38.31999969482422,36.880001068115234,38.16999816894531,36.939998626708984,10900,36.939998626708984
2019-03-08,37.474998474121094,36.41999816894531,36.75,36.689998626708984,27800,36.689998626708984
2019-03-11,37.540000915527344,36.84000015258789,36.84000015258789,37.43000030517578,10600,37.43000030517578
2019-03-12,37.77000045776367,36.90999984741211,37.709999084472656,37.459999084472656,16900,37.459999084472656
2019-03-13,38.45000076293945,36.880001068115234,37.630001068115234,37.34000015258789,21800,37.34000015258789
2019-03-14,37.474998474121094,36.7599983215332,37.380001068115234,37.2400016784668,16800,37.2400016784668
2019-03-15,38.16999816894531,36.470001220703125,37.27000045776367,38.16999816894531,77300,38.16999816894531
2019-03-18,38.279998779296875,37.31999969482422,38.02000045776367,37.349998474121094,18100,37.349998474121094
2019-03-19,38.08000183105469,36.0099983215332,37.540000915527344,36.31999969482422,18500,36.31999969482422
2019-03-20,36.290000915527344,35.56999969482422,35.9900016784668,35.900001525878906,18000,35.900001525878906
2019-03-21,36.099998474121094,34.95000076293945,35.779998779296875,35.06999969482422,13800,35.06999969482422
2019-03-22,34.83000183105469,32.599998474121094,34.83000183105469,33.630001068115234,63800,33.630001068115234
2019-03-25,34.0,33.2599983215332,33.720001220703125,33.88999938964844,20500,33.88999938964844
2019-03-26,34.529998779296875,33.70000076293945,34.040000915527344,34.029998779296875,45900,34.029998779296875
2019-03-27,34.400001525878906,33.611000061035156,33.91999816894531,34.099998474121094,15900,34.099998474121094
2019-03-28,34.7400016784668,34.150001525878906,34.150001525878906,34.5,12500,34.5
2019-03-29,34.86000061035156,33.38999938964844,34.66999816894531,34.790000915527344,41100,34.790000915527344
2019-04-01,36.38999938964844,34.529998779296875,34.9900016784668,35.79999923706055,28500,35.79999923706055
2019-04-02,36.17499923706055,35.40999984741211,35.7599983215332,35.40999984741211,13100,35.40999984741211
2019-04-03,36.25,35.20000076293945,35.20000076293945,35.91999816894531,14700,35.91999816894531
2019-04-04,36.724998474121094,35.77000045776367,35.77000045776367,36.52000045776367,13900,36.52000045776367
2019-04-05,36.869998931884766,36.15999984741211,36.43000030517578,36.349998474121094,14800,36.349998474121094
2019-04-08,36.970001220703125,36.2760009765625,36.54999923706055,36.29999923706055,11400,36.29999923706055
2019-04-09,36.72999954223633,35.86000061035156,36.20000076293945,36.38999938964844,11300,36.38999938964844
2019-04-10,37.11000061035156,36.244998931884766,36.880001068115234,37.11000061035156,14200,37.11000061035156
2019-04-11,37.150001525878906,36.61000061035156,37.150001525878906,36.91999816894531,23300,36.91999816894531
2019-04-12,37.310001373291016,36.599998474121094,37.220001220703125,36.9900016784668,9700,36.9900016784668
2019-04-15,36.970001220703125,36.599998474121094,36.790000915527344,36.779998779296875,9100,36.779998779296875
2019-04-16,37.310001373291016,36.2599983215332,36.2599983215332,36.97999954223633,10300,36.97999954223633
2019-04-17,37.09000015258789,36.75,37.09000015258789,36.75,6700,36.75
2019-04-18,37.16999816894531,36.779998779296875,36.779998779296875,37.0099983215332,15100,37.0099983215332
2019-04-22,37.25,35.86000061035156,37.03499984741211,35.95000076293945,9300,35.95000076293945
2019-04-23,36.849998474121094,35.29600143432617,35.29600143432617,36.7599983215332,15000,36.7599983215332
2019-04-24,37.279998779296875,36.54999923706055,36.54999923706055,36.61000061035156,5300,36.61000061035156
2019-04-25,38.880001068115234,37.150001525878906,37.150001525878906,38.7599983215332,14500,38.7599983215332
2019-04-26,38.72999954223633,37.959999084472656,38.709999084472656,38.459999084472656,11100,38.459999084472656
2019-04-29,39.79999923706055,37.72999954223633,38.52000045776367,39.470001220703125,26700,39.470001220703125
2019-04-30,40.67499923706055,39.10599899291992,39.540000915527344,39.90999984741211,53600,39.90999984741211
2019-05-01,41.470001220703125,39.810001373291016,40.0,41.22999954223633,37700,41.22999954223633
2019-05-02,41.79999923706055,40.78499984741211,41.150001525878906,40.810001373291016,25000,40.810001373291016
2019-05-03,42.0,40.900001525878906,40.96500015258789,41.900001525878906,24800,41.900001525878906
2019-05-06,42.0,41.43000030517578,41.43000030517578,41.72999954223633,18700,41.72999954223633
2019-05-07,42.4900016784668,41.415000915527344,41.59000015258789,41.61000061035156,36000,41.61000061035156
2019-05-08,42.150001525878906,41.560001373291016,41.79999923706055,41.959999084472656,12100,41.959999084472656
2019-05-09,42.04999923706055,41.33000183105469,41.7400016784668,41.65999984741211,13800,41.65999984741211
2019-05-10,42.58000183105469,41.63999938964844,41.65999984741211,42.33000183105469,16900,42.33000183105469
2019-05-13,41.83000183105469,41.34000015258789,41.689998626708984,41.5099983215332,16300,41.5099983215332
2019-05-14,42.349998474121094,41.119998931884766,41.65999984741211,42.099998474121094,20400,42.099998474121094
2019-05-15,42.029998779296875,41.060001373291016,41.84000015258789,41.459999084472656,16900,41.459999084472656
2019-05-16,41.95500183105469,41.040000915527344,41.90999984741211,41.25,17600,41.25
2019-05-17,41.02000045776367,40.10100173950195,40.939998626708984,41.0,14700,41.0
2019-05-20,41.244998931884766,40.560001373291016,40.849998474121094,40.95000076293945,13800,40.95000076293945
2019-05-21,41.5,40.803001403808594,40.803001403808594,41.09000015258789,10800,41.09000015258789
2019-05-22,41.029998779296875,39.16999816894531,41.029998779296875,40.0,16600,40.0
2019-05-23,39.93000030517578,38.79999923706055,39.60100173950195,38.95000076293945,12400,38.95000076293945
2019-05-24,39.720001220703125,38.540000915527344,39.02000045776367,39.66999816894531,8900,39.66999816894531
