Date,High,Low,Open,Close,Volume,Adj Close
2017-02-03,14.779999732971191,13.5,14.550000190734863,13.550000190734863,3843226,13.550000190734863
2017-02-06,13.640000343322754,13.0,13.550000190734863,13.0,965300,13.0
2017-02-07,13.09000015258789,12.5,13.0,12.800000190734863,640600,12.800000190734863
2017-02-08,12.800000190734863,12.119999885559082,12.619999885559082,12.149999618530273,300600,12.149999618530273
2017-02-09,12.40999984741211,11.819999694824219,12.100000381469727,11.890000343322754,551000,11.890000343322754
2017-02-10,12.0,11.40999984741211,11.569999694824219,11.890000343322754,734300,11.890000343322754
2017-02-13,13.0,11.779999732971191,11.899999618530273,12.149999618530273,259500,12.149999618530273
2017-02-14,12.430000305175781,11.020000457763672,12.069999694824219,11.149999618530273,434000,11.149999618530273
2017-02-15,11.600000381469727,11.0,11.199999809265137,11.300000190734863,596900,11.300000190734863
2017-02-16,11.84000015258789,10.970000267028809,11.199999809265137,11.100000381469727,157400,11.100000381469727
2017-02-17,11.3100004196167,10.739999771118164,11.0,10.9399995803833,242900,10.9399995803833
2017-02-21,11.300000190734863,10.890000343322754,10.890000343322754,11.199999809265137,147600,11.199999809265137
2017-02-22,11.300000190734863,10.899999618530273,11.010000228881836,10.989999771118164,172500,10.989999771118164
2017-02-23,11.15999984741211,10.8100004196167,10.8100004196167,11.020000457763672,102800,11.020000457763672
2017-02-24,11.069999694824219,10.829999923706055,11.0,10.920000076293945,67400,10.920000076293945
2017-02-27,11.109999656677246,10.75,10.869999885559082,10.890000343322754,124600,10.890000343322754
2017-02-28,11.100000381469727,10.8100004196167,10.899999618530273,10.899999618530273,201700,10.899999618530273
2017-03-01,11.949999809265137,10.970000267028809,10.970000267028809,11.90999984741211,383500,11.90999984741211
2017-03-02,13.100000381469727,11.949999809265137,12.0,12.489999771118164,359000,12.489999771118164
2017-03-03,13.550000190734863,12.579999923706055,12.59000015258789,13.0,308700,13.0
2017-03-06,13.260000228881836,12.59000015258789,13.010000228881836,12.84000015258789,144300,12.84000015258789
2017-03-07,13.140000343322754,12.170000076293945,12.819999694824219,12.329999923706055,148100,12.329999923706055
2017-03-08,12.329999923706055,10.079999923706055,12.039999961853027,10.619999885559082,368900,10.619999885559082
2017-03-09,10.90999984741211,10.220000267028809,10.40999984741211,10.699999809265137,288500,10.699999809265137
2017-03-10,10.949999809265137,10.350000381469727,10.5,10.489999771118164,313700,10.489999771118164
2017-03-13,10.829999923706055,10.119999885559082,10.4399995803833,10.600000381469727,179400,10.600000381469727
2017-03-14,10.819999694824219,10.210000038146973,10.520000457763672,10.579999923706055,114800,10.579999923706055
2017-03-15,10.710000038146973,10.210000038146973,10.550000190734863,10.59000015258789,151200,10.59000015258789
2017-03-16,10.649999618530273,9.949999809265137,10.59000015258789,10.25,139200,10.25
2017-03-17,10.489999771118164,9.550000190734863,10.350000381469727,9.779999732971191,279700,9.779999732971191
2017-03-20,9.899999618530273,8.819999694824219,9.899999618530273,9.029999732971191,304900,9.029999732971191
2017-03-21,9.399999618530273,8.5600004196167,9.09000015258789,9.260000228881836,190100,9.260000228881836
2017-03-22,9.289999961853027,8.739999771118164,9.289999961853027,8.8100004196167,198400,8.8100004196167
2017-03-23,9.0,8.600000381469727,8.850000381469727,8.859999656677246,158400,8.859999656677246
2017-03-24,8.920000076293945,8.5600004196167,8.8100004196167,8.75,96500,8.75
2017-03-27,9.1899995803833,8.529999732971191,8.680000305175781,8.84000015258789,277600,8.84000015258789
2017-03-28,10.050000190734863,8.899999618530273,8.899999618530273,10.0,456900,10.0
2017-03-29,11.069999694824219,9.4399995803833,9.609999656677246,10.270000457763672,417300,10.270000457763672
2017-03-30,10.869999885559082,10.079999923706055,10.270000457763672,10.489999771118164,243100,10.489999771118164
2017-03-31,10.430000305175781,9.4399995803833,10.430000305175781,9.670000076293945,815600,9.670000076293945
2017-04-03,10.180000305175781,9.510000228881836,9.75,9.520000457763672,250400,9.520000457763672
2017-04-04,10.039999961853027,9.09000015258789,9.5600004196167,9.239999771118164,213600,9.239999771118164
2017-04-05,9.800000190734863,9.130000114440918,9.130000114440918,9.380000114440918,264000,9.380000114440918
2017-04-06,9.579999923706055,9.350000381469727,9.449999809265137,9.420000076293945,127500,9.420000076293945
2017-04-07,9.640000343322754,9.3100004196167,9.489999771118164,9.4399995803833,204000,9.4399995803833
2017-04-10,9.510000228881836,8.890000343322754,9.489999771118164,8.90999984741211,136400,8.90999984741211
2017-04-11,9.039999961853027,8.829999923706055,8.859999656677246,9.0,117700,9.0
2017-04-12,9.039999961853027,8.550000190734863,9.039999961853027,8.609999656677246,201300,8.609999656677246
2017-04-13,8.84000015258789,8.199999809265137,8.670000076293945,8.350000381469727,145300,8.350000381469727
2017-04-17,8.5,7.599999904632568,8.5,7.730000019073486,191300,7.730000019073486
2017-04-18,7.889999866485596,7.420000076293945,7.71999979019165,7.519999980926514,135800,7.519999980926514
2017-04-19,7.590000152587891,7.019999980926514,7.579999923706055,7.150000095367432,127900,7.150000095367432
2017-04-20,7.440000057220459,7.059999942779541,7.210000038146973,7.239999771118164,107100,7.239999771118164
2017-04-21,7.28000020980835,7.099999904632568,7.170000076293945,7.230000019073486,44100,7.230000019073486
2017-04-24,7.679999828338623,7.260000228881836,7.300000190734863,7.590000152587891,475400,7.590000152587891
2017-04-25,7.909999847412109,7.559999942779541,7.679999828338623,7.679999828338623,101300,7.679999828338623
2017-04-26,7.920000076293945,7.630000114440918,7.630000114440918,7.809999942779541,99000,7.809999942779541
2017-04-27,8.010000228881836,7.739999771118164,7.75,7.849999904632568,122200,7.849999904632568
2017-04-28,8.140000343322754,7.75,7.849999904632568,7.760000228881836,158800,7.760000228881836
2017-05-01,7.809999942779541,7.349999904632568,7.809999942779541,7.400000095367432,228900,7.400000095367432
2017-05-02,7.489999771118164,6.920000076293945,7.349999904632568,7.429999828338623,217500,7.429999828338623
2017-05-03,7.480000019073486,7.050000190734863,7.420000076293945,7.150000095367432,131600,7.150000095367432
2017-05-04,7.289999961853027,6.429999828338623,7.150000095367432,6.449999809265137,195300,6.449999809265137
2017-05-05,6.650000095367432,6.050000190734863,6.510000228881836,6.119999885559082,180600,6.119999885559082
2017-05-08,6.159999847412109,5.849999904632568,6.150000095367432,6.079999923706055,286700,6.079999923706055
2017-05-09,6.110000133514404,5.860000133514404,6.099999904632568,5.940000057220459,133800,5.940000057220459
2017-05-10,5.989999771118164,5.659999847412109,5.960000038146973,5.869999885559082,231500,5.869999885559082
2017-05-11,6.460000038146973,5.78000020980835,6.059999942779541,6.110000133514404,270100,6.110000133514404
2017-05-12,6.489999771118164,6.119999885559082,6.150000095367432,6.320000171661377,357300,6.320000171661377
2017-05-15,6.739999771118164,6.21999979019165,6.519999980926514,6.420000076293945,281800,6.420000076293945
2017-05-16,6.429999828338623,5.739999771118164,6.429999828338623,5.909999847412109,285800,5.909999847412109
2017-05-17,6.670000076293945,5.849999904632568,5.849999904632568,6.349999904632568,429900,6.349999904632568
2017-05-18,6.409999847412109,6.139999866485596,6.349999904632568,6.309999942779541,143300,6.309999942779541
2017-05-19,6.739999771118164,6.139999866485596,6.349999904632568,6.519999980926514,227900,6.519999980926514
2017-05-22,7.21999979019165,6.539999961853027,6.539999961853027,7.079999923706055,187000,7.079999923706055
2017-05-23,7.699999809265137,7.039999961853027,7.139999866485596,7.409999847412109,214600,7.409999847412109
2017-05-24,7.5,6.78000020980835,7.480000019073486,6.880000114440918,183100,6.880000114440918
2017-05-25,7.059999942779541,6.570000171661377,6.980000019073486,6.659999847412109,206700,6.659999847412109
2017-05-26,6.960000038146973,6.309999942779541,6.679999828338623,6.570000171661377,199600,6.570000171661377
2017-05-30,6.849999904632568,6.420000076293945,6.53000020980835,6.449999809265137,181200,6.449999809265137
2017-05-31,6.570000171661377,6.170000076293945,6.300000190734863,6.28000020980835,169500,6.28000020980835
2017-06-01,6.360000133514404,6.099999904632568,6.099999904632568,6.139999866485596,69300,6.139999866485596
2017-06-02,6.320000171661377,5.860000133514404,6.159999847412109,5.889999866485596,212700,5.889999866485596
2017-06-05,5.989999771118164,5.53000020980835,5.849999904632568,5.579999923706055,241300,5.579999923706055
2017-06-06,5.920000076293945,5.510000228881836,5.559999942779541,5.849999904632568,105800,5.849999904632568
2017-06-07,5.929999828338623,5.710000038146973,5.829999923706055,5.760000228881836,98500,5.760000228881836
2017-06-08,5.75,5.269999980926514,5.5,5.480000019073486,198400,5.480000019073486
2017-06-09,5.670000076293945,5.340000152587891,5.489999771118164,5.400000095367432,51900,5.400000095367432
2017-06-12,5.78000020980835,5.25,5.409999847412109,5.309999942779541,97300,5.309999942779541
2017-06-13,5.699999809265137,5.170000076293945,5.329999923706055,5.329999923706055,113300,5.329999923706055
2017-06-14,5.579999923706055,5.199999809265137,5.340000152587891,5.239999771118164,124900,5.239999771118164
2017-06-15,5.300000190734863,5.010000228881836,5.289999961853027,5.139999866485596,177500,5.139999866485596
2017-06-16,5.289999961853027,5.03000020980835,5.099999904632568,5.119999885559082,127000,5.119999885559082
2017-06-19,5.380000114440918,5.130000114440918,5.130000114440918,5.199999809265137,71300,5.199999809265137
2017-06-20,5.309999942779541,5.039999961853027,5.159999847412109,5.190000057220459,72800,5.190000057220459
2017-06-21,5.360000133514404,5.159999847412109,5.199999809265137,5.21999979019165,157500,5.21999979019165
2017-06-22,5.699999809265137,5.21999979019165,5.21999979019165,5.599999904632568,132000,5.599999904632568
2017-06-23,5.539999961853027,5.25,5.489999771118164,5.46999979019165,313300,5.46999979019165
2017-06-26,5.639999866485596,5.320000171661377,5.489999771118164,5.420000076293945,91500,5.420000076293945
2017-06-27,6.340000152587891,5.079999923706055,5.420000076293945,5.769999980926514,295900,5.769999980926514
2017-06-28,6.099999904632568,5.599999904632568,5.809999942779541,5.820000171661377,211400,5.820000171661377
2017-06-29,6.360000133514404,5.449999809265137,5.800000190734863,6.230000019073486,303500,6.230000019073486
2017-06-30,6.46999979019165,5.849999904632568,6.289999961853027,6.050000190734863,220700,6.050000190734863
2017-07-03,6.409999847412109,5.889999866485596,6.090000152587891,6.03000020980835,45000,6.03000020980835
2017-07-05,6.0,5.75,5.860000133514404,5.800000190734863,57300,5.800000190734863
2017-07-06,6.320000171661377,5.300000190734863,5.559999942779541,5.980000019073486,203100,5.980000019073486
2017-07-07,6.119999885559082,5.809999942779541,6.010000228881836,5.880000114440918,60800,5.880000114440918
2017-07-10,6.190000057220459,5.760000228881836,5.760000228881836,6.019999980926514,69600,6.019999980926514
2017-07-11,6.320000171661377,5.75,5.989999771118164,6.320000171661377,58900,6.320000171661377
2017-07-12,6.400000095367432,6.019999980926514,6.320000171661377,6.340000152587891,85800,6.340000152587891
2017-07-13,6.349999904632568,6.010000228881836,6.289999961853027,6.239999771118164,58500,6.239999771118164
2017-07-14,6.380000114440918,6.170000076293945,6.170000076293945,6.320000171661377,36500,6.320000171661377
2017-07-17,6.809999942779541,6.179999828338623,6.420000076293945,6.550000190734863,170400,6.550000190734863
2017-07-18,6.619999885559082,6.420000076293945,6.510000228881836,6.579999923706055,100300,6.579999923706055
2017-07-19,7.139999866485596,6.639999866485596,6.639999866485596,7.110000133514404,72000,7.110000133514404
2017-07-20,7.079999923706055,6.739999771118164,7.070000171661377,6.760000228881836,102900,6.760000228881836
2017-07-21,6.909999847412109,6.46999979019165,6.909999847412109,6.659999847412109,222300,6.659999847412109
2017-07-24,6.989999771118164,6.5,6.989999771118164,6.579999923706055,57300,6.579999923706055
2017-07-25,6.889999866485596,6.489999771118164,6.579999923706055,6.78000020980835,153700,6.78000020980835
2017-07-26,6.940000057220459,6.300000190734863,6.710000038146973,6.869999885559082,153500,6.869999885559082
2017-07-27,6.880000114440918,6.619999885559082,6.869999885559082,6.679999828338623,102600,6.679999828338623
2017-07-28,6.760000228881836,6.119999885559082,6.730000019073486,6.25,155300,6.25
2017-07-31,6.699999809265137,6.130000114440918,6.25,6.309999942779541,154400,6.309999942779541
2017-08-01,6.650000095367432,6.329999923706055,6.360000133514404,6.460000038146973,105600,6.460000038146973
2017-08-02,6.599999904632568,6.349999904632568,6.46999979019165,6.53000020980835,143100,6.53000020980835
2017-08-03,6.949999809265137,6.449999809265137,6.599999904632568,6.659999847412109,200200,6.659999847412109
2017-08-04,7.489999771118164,6.710000038146973,6.789999961853027,7.099999904632568,317700,7.099999904632568
2017-08-07,7.630000114440918,7.190000057220459,7.190000057220459,7.46999979019165,196500,7.46999979019165
2017-08-08,7.869999885559082,7.320000171661377,7.619999885559082,7.829999923706055,210600,7.829999923706055
2017-08-09,7.940000057220459,7.420000076293945,7.940000057220459,7.599999904632568,117900,7.599999904632568
2017-08-10,7.75,7.449999809265137,7.550000190734863,7.5,68300,7.5
2017-08-11,7.699999809265137,7.110000133514404,7.460000038146973,7.199999809265137,125500,7.199999809265137
2017-08-14,7.260000228881836,6.619999885559082,7.170000076293945,6.800000190734863,191200,6.800000190734863
2017-08-15,7.380000114440918,6.360000133514404,6.5,6.590000152587891,158400,6.590000152587891
2017-08-16,6.78000020980835,6.480000019073486,6.699999809265137,6.699999809265137,65600,6.699999809265137
2017-08-17,7.019999980926514,6.670000076293945,6.670000076293945,7.010000228881836,105100,7.010000228881836
2017-08-18,7.099999904632568,6.909999847412109,6.949999809265137,7.019999980926514,88400,7.019999980926514
2017-08-21,7.349999904632568,7.010000228881836,7.079999923706055,7.130000114440918,146400,7.130000114440918
2017-08-22,7.5,7.260000228881836,7.289999961853027,7.429999828338623,92700,7.429999828338623
2017-08-23,8.300000190734863,7.349999904632568,7.349999904632568,7.880000114440918,221600,7.880000114440918
2017-08-24,8.039999961853027,7.710000038146973,7.940000057220459,7.739999771118164,74300,7.739999771118164
2017-08-25,8.079999923706055,7.619999885559082,7.769999980926514,7.980000019073486,233500,7.980000019073486
2017-08-28,8.300000190734863,7.909999847412109,8.029999732971191,8.130000114440918,134500,8.130000114440918
2017-08-29,8.220000267028809,7.800000190734863,8.029999732971191,7.920000076293945,145900,7.920000076293945
2017-08-30,8.119999885559082,7.760000228881836,7.920000076293945,7.840000152587891,50500,7.840000152587891
2017-08-31,8.199999809265137,7.590000152587891,7.840000152587891,7.769999980926514,122900,7.769999980926514
2017-09-01,8.069999694824219,7.699999809265137,7.699999809265137,7.829999923706055,215600,7.829999923706055
2017-09-05,7.980000019073486,7.510000228881836,7.769999980926514,7.679999828338623,145400,7.679999828338623
2017-09-06,7.960000038146973,7.53000020980835,7.679999828338623,7.590000152587891,121800,7.590000152587891
2017-09-07,7.860000133514404,7.380000114440918,7.550000190734863,7.5,171900,7.5
2017-09-08,7.690000057220459,7.269999980926514,7.510000228881836,7.349999904632568,210600,7.349999904632568
2017-09-11,7.920000076293945,7.260000228881836,7.5,7.289999961853027,127600,7.289999961853027
2017-09-12,7.349999904632568,6.960000038146973,7.25,6.980000019073486,97800,6.980000019073486
2017-09-13,7.420000076293945,6.909999847412109,7.03000020980835,7.110000133514404,107000,7.110000133514404
2017-09-14,7.239999771118164,6.960000038146973,7.239999771118164,7.099999904632568,71200,7.099999904632568
2017-09-15,7.070000171661377,6.920000076293945,7.070000171661377,6.96999979019165,201400,6.96999979019165
2017-09-18,7.050000190734863,6.800000190734863,6.909999847412109,6.840000152587891,100000,6.840000152587891
2017-09-19,7.019999980926514,6.539999961853027,6.860000133514404,6.739999771118164,41700,6.739999771118164
2017-09-20,7.059999942779541,6.510000228881836,6.920000076293945,6.889999866485596,110400,6.889999866485596
2017-09-21,6.920000076293945,6.679999828338623,6.869999885559082,6.769999980926514,61700,6.769999980926514
2017-09-22,7.090000152587891,6.670000076293945,6.690000057220459,6.809999942779541,142500,6.809999942779541
2017-09-25,7.059999942779541,6.849999904632568,6.849999904632568,6.949999809265137,115000,6.949999809265137
2017-09-26,7.070000171661377,6.78000020980835,7.0,6.820000171661377,81300,6.820000171661377
2017-09-27,7.039999961853027,6.619999885559082,6.760000228881836,6.869999885559082,110500,6.869999885559082
2017-09-28,6.900000095367432,6.610000133514404,6.800000190734863,6.739999771118164,155900,6.739999771118164
2017-09-29,6.900000095367432,6.429999828338623,6.730000019073486,6.630000114440918,181900,6.630000114440918
2017-10-02,6.949999809265137,6.630000114440918,6.659999847412109,6.909999847412109,123300,6.909999847412109
2017-10-03,6.949999809265137,6.800000190734863,6.869999885559082,6.849999904632568,57600,6.849999904632568
2017-10-04,6.949999809265137,6.78000020980835,6.860000133514404,6.800000190734863,84600,6.800000190734863
2017-10-05,6.920000076293945,6.800000190734863,6.900000095367432,6.840000152587891,80300,6.840000152587891
2017-10-06,6.880000114440918,6.610000133514404,6.760000228881836,6.619999885559082,67000,6.619999885559082
2017-10-09,6.579999923706055,6.449999809265137,6.570000171661377,6.510000228881836,53200,6.510000228881836
2017-10-10,6.519999980926514,6.139999866485596,6.489999771118164,6.269999980926514,70400,6.269999980926514
2017-10-11,6.53000020980835,6.179999828338623,6.239999771118164,6.429999828338623,65700,6.429999828338623
2017-10-12,6.489999771118164,6.289999961853027,6.360000133514404,6.340000152587891,50200,6.340000152587891
2017-10-13,6.409999847412109,6.190000057220459,6.380000114440918,6.210000038146973,64100,6.210000038146973
2017-10-16,6.389999866485596,6.0,6.369999885559082,6.039999961853027,52500,6.039999961853027
2017-10-17,6.460000038146973,6.03000020980835,6.460000038146973,6.260000228881836,44000,6.260000228881836
2017-10-18,6.300000190734863,5.96999979019165,6.260000228881836,6.079999923706055,160700,6.079999923706055
2017-10-19,6.210000038146973,6.03000020980835,6.050000190734863,6.110000133514404,235300,6.110000133514404
2017-10-20,6.420000076293945,6.139999866485596,6.139999866485596,6.309999942779541,57200,6.309999942779541
2017-10-23,6.539999961853027,6.139999866485596,6.349999904632568,6.199999809265137,67200,6.199999809265137
2017-10-24,6.409999847412109,6.130000114440918,6.409999847412109,6.170000076293945,49700,6.170000076293945
2017-10-25,6.409999847412109,6.050000190734863,6.150000095367432,6.119999885559082,54200,6.119999885559082
2017-10-26,6.119999885559082,6.0,6.119999885559082,6.010000228881836,50000,6.010000228881836
2017-10-27,6.139999866485596,5.889999866485596,6.03000020980835,5.920000076293945,105100,5.920000076293945
2017-10-30,5.989999771118164,5.630000114440918,5.900000095367432,5.739999771118164,80200,5.739999771118164
2017-10-31,5.909999847412109,5.650000095367432,5.78000020980835,5.860000133514404,81900,5.860000133514404
2017-11-01,6.179999828338623,5.769999980926514,5.809999942779541,6.039999961853027,153800,6.039999961853027
2017-11-02,6.369999885559082,5.96999979019165,5.980000019073486,6.099999904632568,104400,6.099999904632568
2017-11-03,6.25,6.039999961853027,6.199999809265137,6.090000152587891,71800,6.090000152587891
2017-11-06,6.269999980926514,5.880000114440918,6.190000057220459,5.980000019073486,67000,5.980000019073486
2017-11-07,6.050000190734863,5.829999923706055,5.980000019073486,5.829999923706055,28500,5.829999923706055
2017-11-08,6.170000076293945,5.849999904632568,5.929999828338623,6.0,75300,6.0
2017-11-09,5.800000190734863,4.610000133514404,5.699999809265137,4.760000228881836,567500,4.760000228881836
2017-11-10,4.769999980926514,4.230000019073486,4.619999885559082,4.289999961853027,600000,4.289999961853027
2017-11-13,4.429999828338623,4.010000228881836,4.25,4.300000190734863,568600,4.300000190734863
2017-11-14,4.360000133514404,4.059999942779541,4.260000228881836,4.099999904632568,327300,4.099999904632568
2017-11-15,4.210000038146973,3.809999942779541,4.0,3.990000009536743,371800,3.990000009536743
2017-11-16,4.300000190734863,4.0,4.0,4.110000133514404,228400,4.110000133514404
2017-11-17,4.289999961853027,4.119999885559082,4.199999809265137,4.210000038146973,249600,4.210000038146973
2017-11-20,4.300000190734863,4.159999847412109,4.199999809265137,4.199999809265137,187300,4.199999809265137
2017-11-21,4.349999904632568,4.119999885559082,4.170000076293945,4.150000095367432,165500,4.150000095367432
2017-11-22,4.190000057220459,4.039999961853027,4.170000076293945,4.090000152587891,96000,4.090000152587891
2017-11-24,4.5,4.099999904632568,4.170000076293945,4.409999847412109,230300,4.409999847412109
2017-11-27,4.889999866485596,4.449999809265137,4.449999809265137,4.739999771118164,494600,4.739999771118164
2017-11-28,4.900000095367432,4.690000057220459,4.699999809265137,4.829999923706055,138200,4.829999923706055
2017-11-29,5.21999979019165,4.71999979019165,4.860000133514404,4.800000190734863,265300,4.800000190734863
2017-11-30,5.059999942779541,4.670000076293945,4.670000076293945,4.75,197000,4.75
2017-12-01,5.03000020980835,4.71999979019165,4.849999904632568,4.769999980926514,204600,4.769999980926514
2017-12-04,5.039999961853027,4.820000171661377,4.949999809265137,4.869999885559082,102500,4.869999885559082
2017-12-05,4.869999885559082,4.690000057220459,4.869999885559082,4.710000038146973,182500,4.710000038146973
2017-12-06,4.909999847412109,4.699999809265137,4.699999809265137,4.860000133514404,224500,4.860000133514404
2017-12-07,4.980000019073486,4.800000190734863,4.880000114440918,4.840000152587891,156500,4.840000152587891
2017-12-08,4.980000019073486,4.809999942779541,4.889999866485596,4.929999828338623,56100,4.929999828338623
2017-12-11,5.510000228881836,4.840000152587891,4.840000152587891,5.210000038146973,116500,5.210000038146973
2017-12-12,5.449999809265137,4.920000076293945,5.21999979019165,5.0,93700,5.0
2017-12-13,5.260000228881836,4.929999828338623,5.010000228881836,5.03000020980835,101700,5.03000020980835
2017-12-14,5.420000076293945,4.989999771118164,5.0,5.03000020980835,95600,5.03000020980835
2017-12-15,5.389999866485596,4.929999828338623,5.070000171661377,5.039999961853027,132300,5.039999961853027
2017-12-18,5.28000020980835,4.849999904632568,4.849999904632568,5.21999979019165,75800,5.21999979019165
2017-12-19,5.619999885559082,5.210000038146973,5.260000228881836,5.389999866485596,95800,5.389999866485596
2017-12-20,5.940000057220459,5.409999847412109,5.460000038146973,5.679999828338623,117800,5.679999828338623
2017-12-21,6.050000190734863,5.539999961853027,5.690000057220459,5.619999885559082,53500,5.619999885559082
2017-12-22,6.210000038146973,5.619999885559082,5.679999828338623,6.110000133514404,142200,6.110000133514404
2017-12-26,7.159999847412109,6.28000020980835,6.289999961853027,7.019999980926514,258800,7.019999980926514
2017-12-27,7.25,6.739999771118164,7.25,6.849999904632568,222700,6.849999904632568
2017-12-28,7.03000020980835,6.75,6.800000190734863,7.0,113900,7.0
2017-12-29,7.199999809265137,6.800000190734863,7.0,6.880000114440918,103000,6.880000114440918
2018-01-02,7.199999809265137,6.800000190734863,7.0,6.840000152587891,107200,6.840000152587891
2018-01-03,6.900000095367432,6.46999979019165,6.840000152587891,6.78000020980835,148800,6.78000020980835
2018-01-04,7.179999828338623,6.78000020980835,6.800000190734863,7.079999923706055,126300,7.079999923706055
2018-01-05,7.400000095367432,6.960000038146973,7.099999904632568,7.239999771118164,178500,7.239999771118164
2018-01-08,7.349999904632568,6.920000076293945,7.239999771118164,7.300000190734863,108900,7.300000190734863
2018-01-09,7.300000190734863,6.650000095367432,7.300000190734863,6.940000057220459,129900,6.940000057220459
2018-01-10,7.150000095367432,6.78000020980835,6.900000095367432,7.110000133514404,81300,7.110000133514404
2018-01-11,7.539999961853027,7.050000190734863,7.050000190734863,7.300000190734863,112600,7.300000190734863
2018-01-12,7.539999961853027,7.170000076293945,7.320000171661377,7.260000228881836,45900,7.260000228881836
2018-01-16,7.550000190734863,7.110000133514404,7.269999980926514,7.28000020980835,97600,7.28000020980835
2018-01-17,8.350000381469727,7.320000171661377,7.389999866485596,8.239999771118164,225500,8.239999771118164
2018-01-18,9.350000381469727,8.260000228881836,8.40999984741211,8.890000343322754,475700,8.890000343322754
2018-01-19,9.25,8.779999732971191,9.0,9.0,335000,9.0
2018-01-22,9.029999732971191,8.010000228881836,9.029999732971191,8.369999885559082,216000,8.369999885559082
2018-01-23,8.40999984741211,7.690000057220459,8.350000381469727,7.809999942779541,202400,7.809999942779541
2018-01-24,8.890000343322754,7.659999847412109,7.949999809265137,8.010000228881836,402500,8.010000228881836
2018-01-25,8.180000305175781,7.699999809265137,8.020000457763672,7.769999980926514,77300,7.769999980926514
2018-01-26,7.949999809265137,7.449999809265137,7.75,7.800000190734863,93400,7.800000190734863
2018-01-29,7.980000019073486,7.409999847412109,7.75,7.840000152587891,72600,7.840000152587891
2018-01-30,8.220000267028809,7.869999885559082,7.880000114440918,8.069999694824219,129700,8.069999694824219
2018-01-31,8.329999923706055,7.599999904632568,8.029999732971191,8.039999961853027,137000,8.039999961853027
2018-02-01,7.980000019073486,7.210000038146973,7.980000019073486,7.210000038146973,77000,7.210000038146973
2018-02-02,7.360000133514404,6.739999771118164,7.079999923706055,7.170000076293945,197900,7.170000076293945
2018-02-05,7.239999771118164,6.75,7.070000171661377,6.760000228881836,116100,6.760000228881836
2018-02-06,7.260000228881836,6.75,6.75,7.070000171661377,93800,7.070000171661377
2018-02-07,7.110000133514404,6.599999904632568,7.110000133514404,6.630000114440918,83800,6.630000114440918
2018-02-08,6.670000076293945,6.28000020980835,6.570000171661377,6.380000114440918,85200,6.380000114440918
2018-02-09,6.840000152587891,6.320000171661377,6.440000057220459,6.449999809265137,153000,6.449999809265137
2018-02-12,6.869999885559082,6.400000095367432,6.5,6.800000190734863,57700,6.800000190734863
2018-02-13,7.159999847412109,6.559999942779541,6.769999980926514,7.010000228881836,73800,7.010000228881836
2018-02-14,7.519999980926514,6.860000133514404,6.900000095367432,7.329999923706055,79700,7.329999923706055
2018-02-15,7.369999885559082,6.71999979019165,7.360000133514404,7.210000038146973,62200,7.210000038146973
2018-02-16,7.369999885559082,7.150000095367432,7.150000095367432,7.289999961853027,59100,7.289999961853027
2018-02-20,7.559999942779541,7.039999961853027,7.320000171661377,7.139999866485596,37200,7.139999866485596
2018-02-21,7.300000190734863,7.010000228881836,7.159999847412109,7.079999923706055,43600,7.079999923706055
2018-02-22,7.309999942779541,6.820000171661377,7.159999847412109,7.039999961853027,24600,7.039999961853027
2018-02-23,7.519999980926514,7.010000228881836,7.119999885559082,7.079999923706055,163100,7.079999923706055
2018-02-26,7.119999885559082,6.829999923706055,7.119999885559082,6.880000114440918,46700,6.880000114440918
2018-02-27,7.230000019073486,6.889999866485596,6.909999847412109,7.150000095367432,93700,7.150000095367432
2018-02-28,7.199999809265137,6.789999961853027,7.199999809265137,6.849999904632568,90000,6.849999904632568
2018-03-01,7.119999885559082,6.769999980926514,6.78000020980835,6.889999866485596,61000,6.889999866485596
2018-03-02,7.059999942779541,6.559999942779541,6.820000171661377,6.579999923706055,148800,6.579999923706055
2018-03-05,6.820000171661377,6.550000190734863,6.619999885559082,6.559999942779541,89500,6.559999942779541
2018-03-06,6.599999904632568,5.889999866485596,6.599999904632568,6.179999828338623,186700,6.179999828338623
2018-03-07,6.460000038146973,6.119999885559082,6.199999809265137,6.349999904632568,88600,6.349999904632568
2018-03-08,6.46999979019165,6.260000228881836,6.260000228881836,6.389999866485596,33700,6.389999866485596
2018-03-09,7.0,6.309999942779541,6.340000152587891,6.840000152587891,47600,6.840000152587891
2018-03-12,7.070000171661377,6.059999942779541,6.820000171661377,6.139999866485596,122000,6.139999866485596
2018-03-13,6.210000038146973,6.019999980926514,6.130000114440918,6.119999885559082,42900,6.119999885559082
2018-03-14,6.46999979019165,6.130000114440918,6.130000114440918,6.380000114440918,48200,6.380000114440918
2018-03-15,6.610000133514404,6.170000076293945,6.369999885559082,6.579999923706055,36600,6.579999923706055
2018-03-16,6.889999866485596,6.179999828338623,6.559999942779541,6.800000190734863,59000,6.800000190734863
2018-03-19,7.019999980926514,6.590000152587891,6.739999771118164,6.96999979019165,59100,6.96999979019165
2018-03-20,7.639999866485596,6.840000152587891,7.019999980926514,6.96999979019165,50300,6.96999979019165
2018-03-21,7.269999980926514,6.460000038146973,6.940000057220459,7.139999866485596,38500,7.139999866485596
2018-03-22,7.239999771118164,6.380000114440918,6.599999904632568,7.050000190734863,47600,7.050000190734863
2018-03-23,7.460000038146973,7.03000020980835,7.03000020980835,7.119999885559082,46400,7.119999885559082
2018-03-26,7.539999961853027,7.079999923706055,7.199999809265137,7.440000057220459,51100,7.440000057220459
2018-03-27,7.730000019073486,7.090000152587891,7.590000152587891,7.159999847412109,71700,7.159999847412109
2018-03-28,7.699999809265137,6.760000228881836,7.210000038146973,7.190000057220459,19600,7.190000057220459
2018-03-29,7.28000020980835,6.989999771118164,7.130000114440918,7.190000057220459,79900,7.190000057220459
2018-04-02,7.489999771118164,7.010000228881836,7.110000133514404,7.429999828338623,53300,7.429999828338623
2018-04-03,7.670000076293945,7.170000076293945,7.429999828338623,7.190000057220459,43600,7.190000057220459
2018-04-04,7.599999904632568,7.340000152587891,7.340000152587891,7.369999885559082,51200,7.369999885559082
2018-04-05,7.300000190734863,6.920000076293945,7.300000190734863,7.0,23900,7.0
2018-04-06,7.0,6.489999771118164,7.0,6.630000114440918,81400,6.630000114440918
2018-04-09,6.940000057220459,6.340000152587891,6.769999980926514,6.429999828338623,91900,6.429999828338623
2018-04-10,6.699999809265137,6.269999980926514,6.599999904632568,6.320000171661377,148700,6.320000171661377
2018-04-11,6.5,6.260000228881836,6.369999885559082,6.340000152587891,77500,6.340000152587891
2018-04-12,6.659999847412109,6.059999942779541,6.380000114440918,6.130000114440918,54400,6.130000114440918
2018-04-13,6.590000152587891,6.150000095367432,6.179999828338623,6.420000076293945,47100,6.420000076293945
2018-04-16,6.590000152587891,6.210000038146973,6.5,6.28000020980835,39100,6.28000020980835
2018-04-17,6.539999961853027,6.230000019073486,6.329999923706055,6.309999942779541,110300,6.309999942779541
2018-04-18,6.480000019073486,6.210000038146973,6.400000095367432,6.260000228881836,109100,6.260000228881836
2018-04-19,6.420000076293945,6.190000057220459,6.309999942779541,6.300000190734863,52600,6.300000190734863
2018-04-20,6.440000057220459,6.230000019073486,6.300000190734863,6.329999923706055,44700,6.329999923706055
2018-04-23,6.679999828338623,6.25,6.349999904632568,6.380000114440918,161900,6.380000114440918
2018-04-24,6.690000057220459,6.360000133514404,6.5,6.559999942779541,86000,6.559999942779541
2018-04-25,6.96999979019165,6.420000076293945,6.590000152587891,6.769999980926514,54900,6.769999980926514
2018-04-26,7.079999923706055,6.789999961853027,6.829999923706055,6.980000019073486,53700,6.980000019073486
2018-04-27,7.349999904632568,6.880000114440918,7.010000228881836,7.21999979019165,29800,7.21999979019165
2018-04-30,7.289999961853027,6.789999961853027,7.139999866485596,6.829999923706055,74400,6.829999923706055
2018-05-01,7.0,6.510000228881836,6.880000114440918,6.940000057220459,65300,6.940000057220459
2018-05-02,7.25,6.420000076293945,6.920000076293945,7.059999942779541,69600,7.059999942779541
2018-05-03,7.139999866485596,6.869999885559082,7.090000152587891,7.079999923706055,40900,7.079999923706055
2018-05-04,7.289999961853027,7.090000152587891,7.090000152587891,7.159999847412109,53700,7.159999847412109
2018-05-07,7.420000076293945,7.019999980926514,7.139999866485596,7.179999828338623,56300,7.179999828338623
2018-05-08,7.320000171661377,6.880000114440918,7.320000171661377,7.260000228881836,47800,7.260000228881836
2018-05-09,7.25,6.949999809265137,7.25,7.099999904632568,29200,7.099999904632568
2018-05-10,7.309999942779541,6.579999923706055,7.059999942779541,7.289999961853027,38100,7.289999961853027
2018-05-11,7.699999809265137,7.289999961853027,7.349999904632568,7.360000133514404,76700,7.360000133514404
2018-05-14,7.929999828338623,7.320000171661377,7.429999828338623,7.389999866485596,78600,7.389999866485596
2018-05-15,7.730000019073486,7.050000190734863,7.579999923706055,7.210000038146973,126500,7.210000038146973
2018-05-16,7.400000095367432,6.670000076293945,6.949999809265137,7.369999885559082,87300,7.369999885559082
2018-05-17,7.829999923706055,7.369999885559082,7.409999847412109,7.78000020980835,79700,7.78000020980835
2018-05-18,7.940000057220459,7.570000171661377,7.820000171661377,7.630000114440918,24300,7.630000114440918
2018-05-21,7.769999980926514,7.46999979019165,7.630000114440918,7.659999847412109,19800,7.659999847412109
2018-05-22,7.789999961853027,7.519999980926514,7.619999885559082,7.650000095367432,27500,7.650000095367432
2018-05-23,7.869999885559082,7.440000057220459,7.5,7.78000020980835,36200,7.78000020980835
2018-05-24,7.880000114440918,7.320000171661377,7.800000190734863,7.510000228881836,41900,7.510000228881836
2018-05-25,7.880000114440918,7.539999961853027,7.559999942779541,7.78000020980835,98300,7.78000020980835
2018-05-29,8.5,7.699999809265137,7.840000152587891,8.149999618530273,187500,8.149999618530273
2018-05-30,8.229999542236328,7.900000095367432,8.149999618530273,7.909999847412109,75300,7.909999847412109
2018-05-31,8.239999771118164,7.949999809265137,7.949999809265137,8.079999923706055,79400,8.079999923706055
2018-06-01,8.5,8.010000228881836,8.5,8.069999694824219,89600,8.069999694824219
2018-06-04,8.25,7.599999904632568,8.09000015258789,7.820000171661377,47600,7.820000171661377
2018-06-05,8.40999984741211,7.510000228881836,7.800000190734863,8.220000267028809,215400,8.220000267028809
2018-06-06,8.470000267028809,8.210000038146973,8.300000190734863,8.279999732971191,63300,8.279999732971191
2018-06-07,8.470000267028809,8.010000228881836,8.300000190734863,8.399999618530273,57200,8.399999618530273
2018-06-08,8.40999984741211,7.800000190734863,8.40999984741211,7.860000133514404,45300,7.860000133514404
2018-06-11,8.0,7.849999904632568,7.849999904632568,7.949999809265137,56600,7.949999809265137
2018-06-12,8.359999656677246,7.949999809265137,7.989999771118164,8.09000015258789,45100,8.09000015258789
2018-06-13,8.220000267028809,7.949999809265137,8.0600004196167,8.130000114440918,81600,8.130000114440918
2018-06-14,8.399999618530273,8.100000381469727,8.15999984741211,8.359999656677246,54600,8.359999656677246
2018-06-15,8.470000267028809,8.079999923706055,8.279999732971191,8.350000381469727,70100,8.350000381469727
2018-06-18,8.460000038146973,8.020000457763672,8.350000381469727,8.260000228881836,89000,8.260000228881836
2018-06-19,8.229999542236328,7.820000171661377,8.229999542236328,8.1899995803833,44300,8.1899995803833
2018-06-20,8.3100004196167,8.109999656677246,8.229999542236328,8.279999732971191,25500,8.279999732971191
2018-06-21,8.4399995803833,8.1899995803833,8.260000228881836,8.229999542236328,83800,8.229999542236328
2018-06-22,8.5,8.180000305175781,8.260000228881836,8.470000267028809,250600,8.470000267028809
2018-06-25,8.539999961853027,7.519999980926514,8.5,7.639999866485596,62600,7.639999866485596
2018-06-26,7.849999904632568,7.5,7.639999866485596,7.519999980926514,64600,7.519999980926514
2018-06-27,7.679999828338623,7.0,7.559999942779541,7.039999961853027,188800,7.039999961853027
2018-06-28,7.28000020980835,7.0,7.0,7.110000133514404,62500,7.110000133514404
2018-06-29,7.289999961853027,6.880000114440918,7.170000076293945,6.960000038146973,197900,6.960000038146973
2018-07-02,7.130000114440918,6.849999904632568,6.940000057220459,6.920000076293945,109500,6.920000076293945
2018-07-03,6.989999771118164,6.650000095367432,6.949999809265137,6.920000076293945,122100,6.920000076293945
2018-07-05,6.920000076293945,6.210000038146973,6.880000114440918,6.880000114440918,190900,6.880000114440918
2018-07-06,6.900000095367432,6.730000019073486,6.880000114440918,6.849999904632568,52800,6.849999904632568
2018-07-09,6.920000076293945,6.599999904632568,6.889999866485596,6.730000019073486,76100,6.730000019073486
2018-07-10,6.829999923706055,6.610000133514404,6.739999771118164,6.739999771118164,148900,6.739999771118164
2018-07-11,6.75,6.210000038146973,6.71999979019165,6.630000114440918,234000,6.630000114440918
2018-07-12,6.730000019073486,6.269999980926514,6.599999904632568,6.53000020980835,310400,6.53000020980835
2018-07-13,6.800000190734863,6.510000228881836,6.510000228881836,6.659999847412109,111900,6.659999847412109
2018-07-16,6.760000228881836,6.21999979019165,6.630000114440918,6.349999904632568,52400,6.349999904632568
2018-07-17,6.559999942779541,6.349999904632568,6.349999904632568,6.519999980926514,90400,6.519999980926514
2018-07-18,6.800000190734863,6.489999771118164,6.539999961853027,6.75,26400,6.75
2018-07-19,6.760000228881836,6.570000171661377,6.699999809265137,6.610000133514404,24200,6.610000133514404
2018-07-20,6.590000152587891,6.440000057220459,6.570000171661377,6.480000019073486,79100,6.480000019073486
2018-07-23,6.590000152587891,6.440000057220459,6.489999771118164,6.510000228881836,59600,6.510000228881836
2018-07-24,6.679999828338623,6.409999847412109,6.559999942779541,6.550000190734863,130700,6.550000190734863
2018-07-25,6.630000114440918,6.429999828338623,6.550000190734863,6.599999904632568,23400,6.599999904632568
2018-07-26,6.949999809265137,6.559999942779541,6.590000152587891,6.769999980926514,44200,6.769999980926514
2018-07-27,6.769999980926514,6.460000038146973,6.769999980926514,6.570000171661377,31900,6.570000171661377
2018-07-30,6.760000228881836,6.519999980926514,6.570000171661377,6.570000171661377,21300,6.570000171661377
2018-07-31,6.619999885559082,6.5,6.519999980926514,6.53000020980835,52000,6.53000020980835
2018-08-01,6.650000095367432,6.349999904632568,6.5,6.5,34900,6.5
2018-08-02,6.570000171661377,6.369999885559082,6.449999809265137,6.550000190734863,89700,6.550000190734863
2018-08-03,6.5,6.260000228881836,6.320000171661377,6.260000228881836,50400,6.260000228881836
2018-08-06,6.480000019073486,6.150000095367432,6.150000095367432,6.25,82100,6.25
2018-08-07,7.0,6.480000019073486,7.0,6.630000114440918,206800,6.630000114440918
2018-08-08,7.389999866485596,6.539999961853027,6.579999923706055,7.28000020980835,83100,7.28000020980835
2018-08-09,7.460000038146973,7.210000038146973,7.349999904632568,7.309999942779541,36000,7.309999942779541
2018-08-10,7.820000171661377,7.239999771118164,7.260000228881836,7.78000020980835,88600,7.78000020980835
2018-08-13,7.840000152587891,7.25,7.840000152587891,7.380000114440918,26200,7.380000114440918
2018-08-14,7.820000171661377,6.599999904632568,7.190000057220459,6.840000152587891,392000,6.840000152587891
2018-08-15,6.949999809265137,6.699999809265137,6.849999904632568,6.900000095367432,128700,6.900000095367432
2018-08-16,7.190000057220459,6.920000076293945,6.949999809265137,7.150000095367432,185000,7.150000095367432
2018-08-17,7.519999980926514,7.199999809265137,7.199999809265137,7.510000228881836,182300,7.510000228881836
2018-08-20,7.889999866485596,7.510000228881836,7.880000114440918,7.679999828338623,224100,7.679999828338623
2018-08-21,8.130000114440918,7.809999942779541,7.809999942779541,7.989999771118164,163800,7.989999771118164
2018-08-22,8.100000381469727,7.909999847412109,7.989999771118164,8.029999732971191,96100,8.029999732971191
2018-08-23,8.329999923706055,8.010000228881836,8.010000228881836,8.300000190734863,61900,8.300000190734863
2018-08-24,8.9399995803833,8.319999694824219,8.430000305175781,8.619999885559082,231400,8.619999885559082
2018-08-27,8.770000457763672,8.449999809265137,8.75,8.65999984741211,192200,8.65999984741211
2018-08-28,8.779999732971191,8.279999732971191,8.600000381469727,8.5,121200,8.5
2018-08-29,8.1899995803833,7.800000190734863,8.079999923706055,7.860000133514404,335900,7.860000133514404
2018-08-30,7.840000152587891,7.5,7.75,7.760000228881836,134900,7.760000228881836
2018-08-31,8.050000190734863,7.659999847412109,7.699999809265137,7.949999809265137,107100,7.949999809265137
2018-09-04,7.900000095367432,7.519999980926514,7.900000095367432,7.650000095367432,107600,7.650000095367432
2018-09-05,7.71999979019165,7.380000114440918,7.599999904632568,7.570000171661377,143700,7.570000171661377
2018-09-06,7.880000114440918,7.599999904632568,7.690000057220459,7.739999771118164,63500,7.739999771118164
2018-09-07,7.75,7.349999904632568,7.690000057220459,7.389999866485596,94900,7.389999866485596
2018-09-10,7.800000190734863,7.349999904632568,7.349999904632568,7.630000114440918,139600,7.630000114440918
2018-09-11,7.75,7.349999904632568,7.599999904632568,7.679999828338623,38800,7.679999828338623
2018-09-12,8.010000228881836,7.570000171661377,7.670000076293945,7.980000019073486,120100,7.980000019073486
2018-09-13,8.020000457763672,7.809999942779541,8.020000457763672,7.909999847412109,33700,7.909999847412109
2018-09-14,8.239999771118164,7.739999771118164,7.960000038146973,7.800000190734863,157700,7.800000190734863
2018-09-17,8.220000267028809,7.699999809265137,7.820000171661377,7.809999942779541,124800,7.809999942779541
2018-09-18,8.010000228881836,7.599999904632568,7.849999904632568,7.659999847412109,62000,7.659999847412109
2018-09-19,7.929999828338623,7.559999942779541,7.690000057220459,7.699999809265137,108100,7.699999809265137
2018-09-20,7.840000152587891,7.409999847412109,7.769999980926514,7.460000038146973,113300,7.460000038146973
2018-09-21,7.510000228881836,7.320000171661377,7.460000038146973,7.400000095367432,129500,7.400000095367432
2018-09-24,8.029999732971191,7.28000020980835,7.400000095367432,7.28000020980835,72900,7.28000020980835
2018-09-25,7.909999847412109,7.289999961853027,7.380000114440918,7.820000171661377,162200,7.820000171661377
2018-09-26,7.900000095367432,7.550000190734863,7.860000133514404,7.820000171661377,56700,7.820000171661377
2018-09-27,8.0,7.519999980926514,8.0,7.550000190734863,66100,7.550000190734863
2018-09-28,7.829999923706055,7.409999847412109,7.559999942779541,7.460000038146973,57500,7.460000038146973
2018-10-01,8.029999732971191,7.489999771118164,7.5,7.739999771118164,117300,7.739999771118164
2018-10-02,8.109999656677246,7.730000019073486,7.820000171661377,7.949999809265137,74700,7.949999809265137
2018-10-03,8.279999732971191,7.960000038146973,7.960000038146973,8.25,133800,8.25
2018-10-04,8.359999656677246,8.029999732971191,8.25,8.119999885559082,121000,8.119999885559082
2018-10-05,8.199999809265137,7.989999771118164,8.119999885559082,8.1899995803833,101500,8.1899995803833
2018-10-08,8.3100004196167,8.039999961853027,8.210000038146973,8.220000267028809,92700,8.220000267028809
2018-10-09,8.5,8.079999923706055,8.270000457763672,8.3100004196167,104900,8.3100004196167
2018-10-10,8.300000190734863,8.010000228881836,8.279999732971191,8.029999732971191,40900,8.029999732971191
2018-10-11,8.199999809265137,7.670000076293945,8.020000457763672,8.069999694824219,48200,8.069999694824219
2018-10-12,8.220000267028809,7.860000133514404,8.09000015258789,7.980000019073486,40700,7.980000019073486
2018-10-15,8.460000038146973,8.0600004196167,8.0600004196167,8.229999542236328,49000,8.229999542236328
2018-10-16,8.350000381469727,8.199999809265137,8.220000267028809,8.260000228881836,54500,8.260000228881836
2018-10-17,8.289999961853027,8.029999732971191,8.25,8.279999732971191,31200,8.279999732971191
2018-10-18,8.34000015258789,7.949999809265137,8.260000228881836,8.020000457763672,74700,8.020000457763672
2018-10-19,8.039999961853027,7.519999980926514,8.010000228881836,7.820000171661377,81600,7.820000171661377
2018-10-22,7.840000152587891,7.599999904632568,7.789999961853027,7.760000228881836,32700,7.760000228881836
2018-10-23,7.760000228881836,7.420000076293945,7.670000076293945,7.550000190734863,42300,7.550000190734863
2018-10-24,7.559999942779541,7.0,7.5,7.010000228881836,105000,7.010000228881836
2018-10-25,7.170000076293945,6.820000171661377,6.96999979019165,7.099999904632568,59000,7.099999904632568
2018-10-26,7.420000076293945,6.989999771118164,7.0,7.199999809265137,62300,7.199999809265137
2018-10-29,7.400000095367432,6.699999809265137,7.260000228881836,6.869999885559082,61600,6.869999885559082
2018-10-30,7.019999980926514,6.739999771118164,6.820000171661377,6.840000152587891,36500,6.840000152587891
2018-10-31,7.650000095367432,6.849999904632568,6.920000076293945,7.449999809265137,68000,7.449999809265137
2018-11-01,7.940000057220459,7.300000190734863,7.46999979019165,7.840000152587891,48600,7.840000152587891
2018-11-02,7.860000133514404,7.650000095367432,7.800000190734863,7.769999980926514,53200,7.769999980926514
2018-11-05,7.929999828338623,7.590000152587891,7.78000020980835,7.789999961853027,41500,7.789999961853027
2018-11-06,7.820000171661377,7.139999866485596,7.820000171661377,7.369999885559082,147900,7.369999885559082
2018-11-07,7.389999866485596,6.75,7.360000133514404,6.860000133514404,117600,6.860000133514404
2018-11-08,6.53000020980835,5.849999904632568,6.489999771118164,6.059999942779541,333300,6.059999942779541
2018-11-09,6.340000152587891,5.75,6.039999961853027,5.960000038146973,250400,5.960000038146973
2018-11-12,5.96999979019165,5.510000228881836,5.960000038146973,5.929999828338623,103800,5.929999828338623
2018-11-13,5.929999828338623,5.659999847412109,5.929999828338623,5.670000076293945,95700,5.670000076293945
2018-11-14,6.599999904632568,5.579999923706055,5.619999885559082,5.940000057220459,318800,5.940000057220459
2018-11-15,5.920000076293945,5.570000171661377,5.869999885559082,5.699999809265137,102600,5.699999809265137
2018-11-16,5.96999979019165,5.650000095367432,5.679999828338623,5.860000133514404,126900,5.860000133514404
2018-11-19,6.130000114440918,5.460000038146973,5.860000133514404,5.53000020980835,130600,5.53000020980835
2018-11-20,5.5,4.849999904632568,5.5,5.329999923706055,219100,5.329999923706055
2018-11-21,5.760000228881836,5.400000095367432,5.400000095367432,5.760000228881836,37800,5.760000228881836
2018-11-23,5.710000038146973,5.260000228881836,5.710000038146973,5.400000095367432,30700,5.400000095367432
2018-11-26,5.409999847412109,4.860000133514404,5.400000095367432,4.889999866485596,75400,4.889999866485596
2018-11-27,5.300000190734863,4.809999942779541,4.869999885559082,5.300000190734863,66800,5.300000190734863
2018-11-28,5.699999809265137,5.070000171661377,5.300000190734863,5.670000076293945,66100,5.670000076293945
2018-11-29,5.699999809265137,5.179999828338623,5.659999847412109,5.199999809265137,46900,5.199999809265137
2018-11-30,5.5,5.110000133514404,5.230000019073486,5.300000190734863,95100,5.300000190734863
2018-12-03,5.550000190734863,5.28000020980835,5.400000095367432,5.510000228881836,70200,5.510000228881836
2018-12-04,5.679999828338623,5.170000076293945,5.559999942779541,5.199999809265137,73800,5.199999809265137
2018-12-06,5.260000228881836,4.739999771118164,5.110000133514404,5.090000152587891,76600,5.090000152587891
2018-12-07,5.25,4.900000095367432,4.900000095367432,5.170000076293945,70100,5.170000076293945
2018-12-10,5.139999866485596,4.949999809265137,5.130000114440918,5.019999980926514,43600,5.019999980926514
2018-12-11,5.199999809265137,4.960000038146973,5.090000152587891,5.090000152587891,24600,5.090000152587891
2018-12-12,5.239999771118164,5.039999961853027,5.079999923706055,5.070000171661377,46300,5.070000171661377
2018-12-13,5.21999979019165,4.849999904632568,5.070000171661377,4.949999809265137,95600,4.949999809265137
2018-12-14,5.059999942779541,4.619999885559082,5.019999980926514,4.690000057220459,68400,4.690000057220459
2018-12-17,5.039999961853027,4.590000152587891,4.699999809265137,4.78000020980835,47900,4.78000020980835
2018-12-18,4.909999847412109,4.699999809265137,4.809999942779541,4.710000038146973,51600,4.710000038146973
2018-12-19,5.300000190734863,4.619999885559082,4.619999885559082,4.989999771118164,98600,4.989999771118164
2018-12-20,4.96999979019165,4.460000038146973,4.949999809265137,4.690000057220459,110700,4.690000057220459
2018-12-21,4.739999771118164,4.539999961853027,4.699999809265137,4.679999828338623,126200,4.679999828338623
2018-12-24,4.940000057220459,4.5,4.699999809265137,4.5,50700,4.5
2018-12-26,4.659999847412109,4.349999904632568,4.590000152587891,4.590000152587891,90400,4.590000152587891
2018-12-27,4.630000114440918,4.53000020980835,4.53000020980835,4.590000152587891,68800,4.590000152587891
2018-12-28,4.739999771118164,4.5,4.690000057220459,4.599999904632568,161600,4.599999904632568
2018-12-31,5.159999847412109,4.610000133514404,4.809999942779541,4.949999809265137,184700,4.949999809265137
2019-01-02,5.320000171661377,4.769999980926514,4.789999961853027,4.909999847412109,162400,4.909999847412109
2019-01-03,4.949999809265137,4.599999904632568,4.909999847412109,4.630000114440918,53500,4.630000114440918
2019-01-04,5.099999904632568,4.690000057220459,4.760000228881836,4.980000019073486,130000,4.980000019073486
2019-01-07,5.329999923706055,4.929999828338623,5.0,5.329999923706055,107900,5.329999923706055
2019-01-08,5.349999904632568,5.079999923706055,5.349999904632568,5.230000019073486,42200,5.230000019073486
2019-01-09,5.320000171661377,5.210000038146973,5.21999979019165,5.300000190734863,29900,5.300000190734863
2019-01-10,5.519999980926514,5.019999980926514,5.25,5.349999904632568,59000,5.349999904632568
2019-01-11,5.5,5.320000171661377,5.329999923706055,5.360000133514404,29900,5.360000133514404
2019-01-14,5.420000076293945,5.199999809265137,5.289999961853027,5.309999942779541,34900,5.309999942779541
2019-01-15,5.480000019073486,5.170000076293945,5.329999923706055,5.360000133514404,74300,5.360000133514404
2019-01-16,5.71999979019165,5.440000057220459,5.440000057220459,5.679999828338623,74200,5.679999828338623
2019-01-17,5.840000152587891,5.639999866485596,5.679999828338623,5.679999828338623,72600,5.679999828338623
2019-01-18,5.809999942779541,5.679999828338623,5.71999979019165,5.75,43300,5.75
2019-01-22,6.019999980926514,5.619999885559082,6.019999980926514,5.619999885559082,65600,5.619999885559082
2019-01-23,5.71999979019165,5.630000114440918,5.630000114440918,5.690000057220459,24800,5.690000057220459
2019-01-24,5.699999809265137,5.539999961853027,5.699999809265137,5.559999942779541,33000,5.559999942779541
2019-01-25,5.739999771118164,5.480000019073486,5.630000114440918,5.489999771118164,26300,5.489999771118164
2019-01-28,5.699999809265137,5.360000133514404,5.460000038146973,5.429999828338623,24200,5.429999828338623
2019-01-29,5.590000152587891,5.400000095367432,5.400000095367432,5.46999979019165,15500,5.46999979019165
2019-01-30,6.0,5.429999828338623,5.519999980926514,5.940000057220459,92200,5.940000057220459
2019-01-31,6.159999847412109,5.889999866485596,6.050000190734863,6.059999942779541,56600,6.059999942779541
2019-02-01,6.239999771118164,5.960000038146973,6.170000076293945,6.059999942779541,106400,6.059999942779541
2019-02-04,6.400000095367432,5.900000095367432,6.070000171661377,5.900000095367432,76700,5.900000095367432
2019-02-05,6.050000190734863,5.909999847412109,5.909999847412109,6.03000020980835,29600,6.03000020980835
2019-02-06,6.119999885559082,5.960000038146973,6.119999885559082,6.010000228881836,32300,6.010000228881836
2019-02-07,5.989999771118164,5.809999942779541,5.960000038146973,5.900000095367432,53500,5.900000095367432
2019-02-08,5.980000019073486,5.869999885559082,5.920000076293945,5.949999809265137,93700,5.949999809265137
2019-02-11,5.960000038146973,5.840000152587891,5.960000038146973,5.900000095367432,44800,5.900000095367432
2019-02-12,6.019999980926514,5.860000133514404,5.929999828338623,5.989999771118164,28200,5.989999771118164
2019-02-13,6.019999980926514,5.940000057220459,6.019999980926514,5.980000019073486,19100,5.980000019073486
2019-02-14,6.119999885559082,5.880000114440918,5.920000076293945,6.0,16500,6.0
2019-02-15,6.059999942779541,5.849999904632568,6.059999942779541,5.909999847412109,71900,5.909999847412109
2019-02-19,6.0,5.840000152587891,5.900000095367432,5.900000095367432,48200,5.900000095367432
2019-02-20,6.070000171661377,5.809999942779541,5.889999866485596,5.860000133514404,100100,5.860000133514404
2019-02-21,6.010000228881836,5.860000133514404,5.869999885559082,5.900000095367432,26300,5.900000095367432
2019-02-22,6.090000152587891,5.900000095367432,6.070000171661377,5.920000076293945,44000,5.920000076293945
2019-02-25,6.0,5.03000020980835,5.949999809265137,5.289999961853027,253100,5.289999961853027
2019-02-26,5.559999942779541,5.300000190734863,5.340000152587891,5.409999847412109,105600,5.409999847412109
2019-02-27,5.670000076293945,5.420000076293945,5.420000076293945,5.619999885559082,36600,5.619999885559082
2019-02-28,5.699999809265137,5.300000190734863,5.619999885559082,5.329999923706055,52900,5.329999923706055
2019-03-01,5.5,5.400000095367432,5.400000095367432,5.440000057220459,47500,5.440000057220459
2019-03-04,5.570000171661377,5.349999904632568,5.429999828338623,5.429999828338623,35900,5.429999828338623
2019-03-05,5.539999961853027,5.360000133514404,5.440000057220459,5.489999771118164,28500,5.489999771118164
2019-03-06,5.550000190734863,5.010000228881836,5.550000190734863,5.25,101700,5.25
2019-03-07,5.440000057220459,5.110000133514404,5.25,5.309999942779541,57800,5.309999942779541
2019-03-08,5.320000171661377,5.099999904632568,5.320000171661377,5.199999809265137,27800,5.199999809265137
2019-03-11,5.420000076293945,5.050000190734863,5.28000020980835,5.260000228881836,38600,5.260000228881836
2019-03-12,5.539999961853027,5.289999961853027,5.309999942779541,5.449999809265137,42700,5.449999809265137
2019-03-13,5.639999866485596,5.150000095367432,5.409999847412109,5.460000038146973,33400,5.460000038146973
2019-03-14,5.510000228881836,5.420000076293945,5.5,5.440000057220459,67800,5.440000057220459
2019-03-15,5.489999771118164,5.289999961853027,5.429999828338623,5.320000171661377,47800,5.320000171661377
2019-03-18,5.690000057220459,5.309999942779541,5.380000114440918,5.570000171661377,95300,5.570000171661377
2019-03-19,5.679999828338623,5.460000038146973,5.619999885559082,5.659999847412109,88800,5.659999847412109
2019-03-20,6.440000057220459,5.5,6.070000171661377,6.059999942779541,166800,6.059999942779541
2019-03-21,6.809999942779541,6.159999847412109,6.159999847412109,6.519999980926514,61100,6.519999980926514
2019-03-22,6.75,6.239999771118164,6.599999904632568,6.239999771118164,92600,6.239999771118164
2019-03-25,6.360000133514404,6.059999942779541,6.230000019073486,6.139999866485596,35600,6.139999866485596
2019-03-26,5.840000152587891,5.389999866485596,5.840000152587891,5.75,332900,5.75
2019-03-27,5.829999923706055,5.519999980926514,5.820000171661377,5.690000057220459,118300,5.690000057220459
2019-03-28,5.96999979019165,5.579999923706055,5.690000057220459,5.849999904632568,88900,5.849999904632568
2019-03-29,6.0,5.769999980926514,5.869999885559082,5.800000190734863,47700,5.800000190734863
2019-04-01,6.03000020980835,5.789999961853027,5.829999923706055,5.96999979019165,92100,5.96999979019165
2019-04-02,6.010000228881836,5.710000038146973,6.010000228881836,5.900000095367432,101100,5.900000095367432
2019-04-03,6.179999828338623,5.75,5.960000038146973,6.099999904632568,108400,6.099999904632568
2019-04-04,6.289999961853027,6.090000152587891,6.099999904632568,6.230000019073486,120100,6.230000019073486
2019-04-05,6.570000171661377,6.239999771118164,6.260000228881836,6.53000020980835,137400,6.53000020980835
2019-04-08,6.550000190734863,6.260000228881836,6.429999828338623,6.269999980926514,120800,6.269999980926514
2019-04-09,6.329999923706055,5.809999942779541,6.289999961853027,5.829999923706055,129800,5.829999923706055
2019-04-10,5.929999828338623,5.739999771118164,5.820000171661377,5.789999961853027,44900,5.789999961853027
2019-04-11,5.840000152587891,5.579999923706055,5.769999980926514,5.599999904632568,42100,5.599999904632568
2019-04-12,5.769999980926514,5.590000152587891,5.650000095367432,5.730000019073486,55700,5.730000019073486
2019-04-15,5.800000190734863,5.690000057220459,5.789999961853027,5.760000228881836,30600,5.760000228881836
2019-04-16,5.760000228881836,5.550000190734863,5.710000038146973,5.559999942779541,32200,5.559999942779541
2019-04-17,5.800000190734863,5.619999885559082,5.619999885559082,5.690000057220459,34000,5.690000057220459
2019-04-18,5.820000171661377,5.639999866485596,5.699999809265137,5.71999979019165,16700,5.71999979019165
2019-04-22,5.840000152587891,5.690000057220459,5.71999979019165,5.800000190734863,17400,5.800000190734863
2019-04-23,5.96999979019165,5.78000020980835,5.78000020980835,5.880000114440918,25500,5.880000114440918
2019-04-24,5.880000114440918,5.690000057220459,5.840000152587891,5.869999885559082,23600,5.869999885559082
2019-04-25,5.880000114440918,5.71999979019165,5.840000152587891,5.849999904632568,17600,5.849999904632568
2019-04-26,6.090000152587891,5.789999961853027,5.849999904632568,5.980000019073486,73900,5.980000019073486
2019-04-29,6.170000076293945,5.940000057220459,6.0,6.170000076293945,65100,6.170000076293945
2019-04-30,6.840000152587891,6.5,6.510000228881836,6.71999979019165,215600,6.71999979019165
2019-05-01,6.789999961853027,6.5,6.71999979019165,6.519999980926514,83000,6.519999980926514
2019-05-02,6.789999961853027,6.5,6.5,6.619999885559082,41000,6.619999885559082
2019-05-03,7.150000095367432,6.789999961853027,6.820000171661377,7.010000228881836,69200,7.010000228881836
2019-05-06,7.21999979019165,6.809999942779541,7.21999979019165,6.940000057220459,39000,6.940000057220459
2019-05-07,7.119999885559082,6.75,6.929999828338623,7.079999923706055,79100,7.079999923706055
2019-05-08,7.079999923706055,6.559999942779541,6.800000190734863,6.639999866485596,170400,6.639999866485596
2019-05-09,6.739999771118164,6.570000171661377,6.599999904632568,6.710000038146973,40900,6.710000038146973
2019-05-10,6.929999828338623,6.510000228881836,6.71999979019165,6.590000152587891,30600,6.590000152587891
2019-05-13,6.639999866485596,6.25,6.550000190734863,6.260000228881836,95500,6.260000228881836
2019-05-14,6.559999942779541,6.260000228881836,6.260000228881836,6.5,39000,6.5
2019-05-15,6.579999923706055,6.420000076293945,6.5,6.550000190734863,30900,6.550000190734863
2019-05-16,6.760000228881836,6.460000038146973,6.619999885559082,6.610000133514404,34100,6.610000133514404
2019-05-17,6.739999771118164,6.25,6.539999961853027,6.28000020980835,70100,6.28000020980835
2019-05-20,6.429999828338623,6.099999904632568,6.25,6.409999847412109,53200,6.409999847412109
2019-05-21,6.78000020980835,6.46999979019165,6.519999980926514,6.769999980926514,50700,6.769999980926514
2019-05-22,6.949999809265137,6.429999828338623,6.940000057220459,6.46999979019165,29300,6.46999979019165
2019-05-23,6.400000095367432,5.900000095367432,6.400000095367432,6.210000038146973,35900,6.210000038146973
2019-05-24,6.300000190734863,6.079999923706055,6.21999979019165,6.199999809265137,47500,6.199999809265137
