Date,High,Low,Open,Close,Volume,Adj Close
2015-07-01,9.989999771118164,7.5,7.5,9.989999771118164,3300.0,9.989999771118164
2015-07-02,9.149999618530273,7.5,9.149999618530273,7.5,200.0,7.5
2015-07-06,9.989999771118164,8.5,8.5,8.75,1200.0,8.75
2015-07-07,8.5,6.5,8.5,6.5,4100.0,6.5
2015-07-08,6.800000190734863,5.800000190734863,6.800000190734863,6.0,1400.0,6.0
2015-07-09,6.0,3.0999999046325684,6.0,6.0,3900.0,6.0
2015-07-10,5.25,5.0,5.0,5.0,600.0,5.0
2015-07-13,5.119999885559082,5.099999904632568,5.099999904632568,5.119999885559082,400.0,5.119999885559082
2015-07-14,5.099999904632568,5.0,5.099999904632568,5.0,300.0,5.0
2015-07-15,4.75,3.75,4.75,3.75,4900.0,3.75
2015-07-16,5.25,4.5,4.599999904632568,4.5,400.0,4.5
2015-07-17,4.5,4.25,4.5,4.25,1200.0,4.25
2015-07-20,4.199999809265137,4.199999809265137,4.199999809265137,4.199999809265137,100.0,4.199999809265137
2015-07-21,5.0,4.309999942779541,4.5,4.309999942779541,1000.0,4.309999942779541
2015-07-22,4.739999771118164,4.309999942779541,4.309999942779541,4.697000026702881,500.0,4.697000026702881
2015-07-23,4.5,4.5,4.5,4.5,600.0,4.5
2015-07-24,5.050000190734863,4.5,4.5,5.050000190734863,1800.0,5.050000190734863
2015-07-27,4.25,4.25,4.25,4.25,800.0,4.25
2015-07-28,4.25,4.25,4.25,4.25,0.0,4.25
2015-07-29,4.099999904632568,3.7709999084472656,3.809999942779541,4.0,1500.0,4.0
2015-07-30,4.0,4.0,4.0,4.0,100.0,4.0
2015-07-31,3.75,3.75,3.75,3.75,100.0,3.75
2015-08-03,3.75,3.75,3.75,3.75,600.0,3.75
2015-08-04,3.614000082015991,3.559999942779541,3.5999999046325684,3.559999942779541,500.0,3.559999942779541
2015-08-05,5.949999809265137,3.490000009536743,3.5399999618530273,5.099999904632568,900.0,5.099999904632568
2015-08-06,5.25,5.0,5.25,5.0,1900.0,5.0
2015-08-07,5.0,5.0,5.0,5.0,0.0,5.0
2015-08-10,4.060999870300293,4.0,4.0,4.0,600.0,4.0
2015-08-11,4.5,4.0,4.0,4.0,1100.0,4.0
2015-08-12,4.0,3.75,4.0,3.75,10500.0,3.75
2015-08-13,3.75,3.75,3.75,3.75,0.0,3.75
2015-08-14,3.5380001068115234,3.5,3.5380001068115234,3.5,500.0,3.5
2015-08-17,3.990000009536743,3.990000009536743,3.990000009536743,3.990000009536743,100.0,3.990000009536743
2015-08-18,3.990000009536743,3.700000047683716,3.990000009536743,3.700000047683716,400.0,3.700000047683716
2015-08-19,3.5999999046325684,3.200000047683716,3.5999999046325684,3.3399999141693115,3200.0,3.3399999141693115
2015-08-20,3.5999999046325684,3.4000000953674316,3.5999999046325684,3.4000000953674316,1100.0,3.4000000953674316
2015-08-21,3.4000000953674316,3.4000000953674316,3.4000000953674316,3.4000000953674316,0.0,3.4000000953674316
2015-08-24,3.4000000953674316,3.4000000953674316,3.4000000953674316,3.4000000953674316,0.0,3.4000000953674316
2015-08-25,3.4000000953674316,3.4000000953674316,3.4000000953674316,3.4000000953674316,0.0,3.4000000953674316
2015-08-26,3.4000000953674316,3.4000000953674316,3.4000000953674316,3.4000000953674316,0.0,3.4000000953674316
2015-08-27,3.049999952316284,2.8499999046325684,3.0,2.8499999046325684,400.0,2.8499999046325684
2015-08-28,2.8499999046325684,2.8499999046325684,2.8499999046325684,2.8499999046325684,0.0,2.8499999046325684
2015-08-31,2.8499999046325684,2.8499999046325684,2.8499999046325684,2.8499999046325684,0.0,2.8499999046325684
2015-09-01,3.0,3.0,3.0,3.0,1000.0,3.0
2015-09-02,3.0,3.0,3.0,3.0,0.0,3.0
2015-09-03,3.0,3.0,3.0,3.0,200.0,3.0
2015-09-04,3.0,3.0,3.0,3.0,0.0,3.0
2015-09-08,3.0,3.0,3.0,3.0,0.0,3.0
2015-09-09,2.700000047683716,2.700000047683716,2.700000047683716,2.700000047683716,1000.0,2.700000047683716
2015-09-10,2.700000047683716,2.700000047683716,2.700000047683716,2.700000047683716,0.0,2.700000047683716
2015-09-11,3.0,2.7100000381469727,2.950000047683716,3.0,2400.0,3.0
2015-09-14,3.299999952316284,2.8499999046325684,3.0,3.299999952316284,6100.0,3.299999952316284
2015-09-15,3.299999952316284,3.299999952316284,3.299999952316284,3.299999952316284,200.0,3.299999952316284
2015-09-16,3.299999952316284,3.0999999046325684,3.0999999046325684,3.25,1800.0,3.25
2015-09-17,3.0999999046325684,2.9000000953674316,3.0999999046325684,2.9000000953674316,800.0,2.9000000953674316
2015-09-18,2.9000000953674316,2.9000000953674316,2.9000000953674316,2.9000000953674316,400.0,2.9000000953674316
2015-09-21,3.25,3.1700000762939453,3.1700000762939453,3.25,400.0,3.25
2015-09-22,3.200000047683716,3.0,3.200000047683716,3.0,2800.0,3.0
2015-09-23,3.0,3.0,3.0,3.0,300.0,3.0
2015-09-24,3.0,2.9000000953674316,2.9000000953674316,2.990000009536743,1000.0,2.990000009536743
2015-09-25,3.200000047683716,2.950000047683716,3.0,3.190000057220459,900.0,3.190000057220459
2015-09-28,3.200000047683716,3.0,3.200000047683716,3.180000066757202,1800.0,3.180000066757202
2015-09-29,3.0,2.9000000953674316,3.0,2.9000000953674316,2000.0,2.9000000953674316
2015-09-30,3.0799999237060547,2.950000047683716,3.0799999237060547,2.950000047683716,400.0,2.950000047683716
2015-10-01,3.0,2.8499999046325684,2.8499999046325684,2.950000047683716,3200.0,2.950000047683716
2015-10-02,2.75,2.75,2.75,2.75,600.0,2.75
2015-10-05,2.9000000953674316,2.559999942779541,2.9000000953674316,2.569999933242798,1000.0,2.569999933242798
2015-10-06,2.9000000953674316,2.559999942779541,2.75,2.559999942779541,1400.0,2.559999942779541
2015-10-07,2.559999942779541,2.559999942779541,2.559999942779541,2.559999942779541,0.0,2.559999942779541
2015-10-08,2.509999990463257,2.5,2.509999990463257,2.5,700.0,2.5
2015-10-09,2.7019999027252197,2.359999895095825,2.7019999027252197,2.359999895095825,3100.0,2.359999895095825
2015-10-12,2.509999990463257,2.5,2.5,2.509999990463257,200.0,2.509999990463257
2015-10-13,3.25,2.359999895095825,2.359999895095825,3.25,2000.0,3.25
2015-10-14,3.5,3.0999999046325684,3.25,3.5,7500.0,3.5
2015-10-15,3.75,3.5,3.5,3.75,3100.0,3.75
2015-10-16,3.75,3.5999999046325684,3.75,3.75,2300.0,3.75
2015-10-19,4.099999904632568,3.5,3.75,3.5999999046325684,5800.0,3.5999999046325684
2015-10-20,3.5999999046325684,3.5999999046325684,3.5999999046325684,3.5999999046325684,0.0,3.5999999046325684
2015-10-21,3.5,3.2799999713897705,3.2799999713897705,3.5,1500.0,3.5
2015-10-22,3.5,3.5,3.5,3.5,800.0,3.5
2015-10-23,3.1500000953674316,3.0,3.0299999713897705,3.1500000953674316,2600.0,3.1500000953674316
2015-10-26,3.0999999046325684,3.0999999046325684,3.0999999046325684,3.0999999046325684,400.0,3.0999999046325684
2015-10-27,3.069000005722046,3.069000005722046,3.069000005722046,3.069000005722046,500.0,3.069000005722046
2015-10-28,3.069000005722046,3.069000005722046,3.069000005722046,3.069000005722046,0.0,3.069000005722046
2015-10-29,3.430000066757202,2.9760000705718994,3.0,3.2300000190734863,4900.0,3.2300000190734863
2015-10-30,3.450000047683716,3.450000047683716,3.450000047683716,3.450000047683716,1600.0,3.450000047683716
2015-11-02,3.25,3.200000047683716,3.200000047683716,3.25,3000.0,3.25
2015-11-03,3.059999942779541,2.990000009536743,3.0199999809265137,3.059999942779541,1300.0,3.059999942779541
2015-11-04,3.059999942779541,3.059999942779541,3.059999942779541,3.059999942779541,0.0,3.059999942779541
2015-11-05,3.440000057220459,2.75,2.930000066757202,3.440000057220459,600.0,3.440000057220459
2015-11-06,3.440000057220459,3.440000057220459,3.440000057220459,3.440000057220459,0.0,3.440000057220459
2015-11-09,3.440000057220459,3.440000057220459,3.440000057220459,3.440000057220459,0.0,3.440000057220459
2015-11-10,3.0,2.75,2.75,3.0,1400.0,3.0
2015-11-11,3.25,3.25,3.25,3.25,500.0,3.25
2015-11-12,3.25,3.25,3.25,3.25,0.0,3.25
2015-11-13,3.450000047683716,3.450000047683716,3.450000047683716,3.450000047683716,300.0,3.450000047683716
2015-11-16,3.2899999618530273,3.25,3.2899999618530273,3.25,500.0,3.25
2015-11-17,3.25,3.25,3.25,3.25,0.0,3.25
2015-11-18,3.200000047683716,3.200000047683716,3.200000047683716,3.200000047683716,300.0,3.200000047683716
2015-11-19,3.200000047683716,2.2100000381469727,3.200000047683716,2.3499999046325684,2000.0,2.3499999046325684
2015-11-20,3.1500000953674316,3.0999999046325684,3.0999999046325684,3.1500000953674316,1100.0,3.1500000953674316
2015-11-23,3.1500000953674316,3.1500000953674316,3.1500000953674316,3.1500000953674316,0.0,3.1500000953674316
2015-11-24,3.9000000953674316,3.385999917984009,3.5,3.700000047683716,12600.0,3.700000047683716
2015-11-25,3.9000000953674316,3.4100000858306885,3.9000000953674316,3.700000047683716,2200.0,3.700000047683716
2015-11-27,3.9000000953674316,3.9000000953674316,3.9000000953674316,3.9000000953674316,600.0,3.9000000953674316
2015-11-30,3.950000047683716,3.799999952316284,3.950000047683716,3.799999952316284,500.0,3.799999952316284
2015-12-01,3.950000047683716,3.950000047683716,3.950000047683716,3.950000047683716,1900.0,3.950000047683716
2015-12-02,4.099999904632568,3.950000047683716,3.950000047683716,4.099999904632568,4700.0,4.099999904632568
2015-12-03,4.099999904632568,3.9830000400543213,4.050000190734863,3.9830000400543213,6800.0,3.9830000400543213
2015-12-04,4.199999809265137,4.099999904632568,4.099999904632568,4.150000095367432,7600.0,4.150000095367432
2015-12-07,4.199999809265137,3.940000057220459,4.199999809265137,3.950000047683716,2100.0,3.950000047683716
2015-12-08,4.0,4.0,4.0,4.0,1400.0,4.0
2015-12-09,4.0,3.990000009536743,4.0,3.990000009536743,700.0,3.990000009536743
2015-12-10,4.0,3.9800000190734863,4.0,3.9800000190734863,800.0,3.9800000190734863
2015-12-11,4.260000228881836,3.990000009536743,4.0,4.190000057220459,12800.0,4.190000057220459
2015-12-14,4.300000190734863,4.099999904632568,4.289999961853027,4.300000190734863,3700.0,4.300000190734863
2015-12-15,4.199999809265137,3.0,4.099999904632568,4.139999866485596,6900.0,4.139999866485596
2015-12-16,4.150000095367432,3.809999942779541,4.0,4.150000095367432,2000.0,4.150000095367432
2015-12-17,4.25,4.099999904632568,4.150000095367432,4.099999904632568,2900.0,4.099999904632568
2015-12-18,4.25,4.150000095367432,4.150000095367432,4.25,2700.0,4.25
2015-12-21,4.150000095367432,4.090000152587891,4.150000095367432,4.099999904632568,2400.0,4.099999904632568
2015-12-22,4.150000095367432,4.099999904632568,4.099999904632568,4.150000095367432,1400.0,4.150000095367432
2015-12-23,4.199999809265137,4.150000095367432,4.150000095367432,4.150000095367432,6300.0,4.150000095367432
2015-12-24,4.150000095367432,4.099999904632568,4.150000095367432,4.099999904632568,300.0,4.099999904632568
2015-12-28,4.090000152587891,4.0,4.090000152587891,4.0,600.0,4.0
2015-12-29,3.950000047683716,3.9000000953674316,3.9000000953674316,3.950000047683716,700.0,3.950000047683716
2015-12-30,4.099999904632568,3.690000057220459,3.799999952316284,4.099999904632568,3600.0,4.099999904632568
2015-12-31,4.099999904632568,4.099999904632568,4.099999904632568,4.099999904632568,1100.0,4.099999904632568
2016-01-04,4.119999885559082,4.099999904632568,4.099999904632568,4.119999885559082,3000.0,4.119999885559082
2016-01-05,4.099999904632568,4.050000190734863,4.099999904632568,4.050000190734863,1700.0,4.050000190734863
2016-01-06,4.139999866485596,4.0,4.0,4.139999866485596,7700.0,4.139999866485596
2016-01-07,4.099999904632568,3.5999999046325684,4.099999904632568,3.5999999046325684,5500.0,3.5999999046325684
2016-01-08,4.0,3.9000000953674316,3.9000000953674316,4.0,4700.0,4.0
2016-01-11,3.990000009536743,3.700000047683716,3.990000009536743,3.799999952316284,1700.0,3.799999952316284
2016-01-12,3.799999952316284,3.700000047683716,3.799999952316284,3.799999952316284,4400.0,3.799999952316284
2016-01-13,3.799999952316284,3.5,3.700000047683716,3.549999952316284,12100.0,3.549999952316284
2016-01-14,3.640000104904175,3.4800000190734863,3.490000009536743,3.4800000190734863,2700.0,3.4800000190734863
2016-01-15,3.450000047683716,3.299999952316284,3.450000047683716,3.299999952316284,500.0,3.299999952316284
2016-01-19,3.450000047683716,3.3499999046325684,3.450000047683716,3.4000000953674316,5900.0,3.4000000953674316
2016-01-20,3.3499999046325684,3.0399999618530273,3.3499999046325684,3.049999952316284,3200.0,3.049999952316284
2016-01-21,3.9700000286102295,3.299999952316284,3.319999933242798,3.9700000286102295,29100.0,3.9700000286102295
2016-01-22,4.090000152587891,3.950000047683716,3.990000009536743,4.090000152587891,17200.0,4.090000152587891
2016-01-25,4.269999980926514,4.090000152587891,4.090000152587891,4.199999809265137,11500.0,4.199999809265137
2016-01-26,4.800000190734863,4.199999809265137,4.199999809265137,4.599999904632568,13500.0,4.599999904632568
2016-01-27,5.0,4.400000095367432,4.489999771118164,4.849999904632568,10300.0,4.849999904632568
2016-01-28,4.889999866485596,4.349999904632568,4.880000114440918,4.599999904632568,8800.0,4.599999904632568
2016-01-29,4.461999893188477,4.0,4.409999847412109,4.461999893188477,13300.0,4.461999893188477
2016-02-01,4.0,3.2100000381469727,3.9800000190734863,3.9000000953674316,4100.0,3.9000000953674316
2016-02-02,3.8499999046325684,3.6500000953674316,3.8499999046325684,3.6500000953674316,400.0,3.6500000953674316
2016-02-03,3.75,3.0999999046325684,3.75,3.1500000953674316,3400.0,3.1500000953674316
2016-02-04,3.299999952316284,3.049999952316284,3.299999952316284,3.049999952316284,1400.0,3.049999952316284
2016-02-05,3.049999952316284,2.75,3.049999952316284,2.75,1100.0,2.75
2016-02-08,3.0,2.990000009536743,2.990000009536743,3.0,1500.0,3.0
2016-02-09,3.200000047683716,3.0,3.0,3.200000047683716,5900.0,3.200000047683716
2016-02-10,3.200000047683716,3.0999999046325684,3.200000047683716,3.0999999046325684,400.0,3.0999999046325684
2016-02-11,3.0,2.859999895095825,2.859999895095825,2.9660000801086426,1700.0,2.9660000801086426
2016-02-12,2.8499999046325684,2.049999952316284,2.8499999046325684,2.5999999046325684,4700.0,2.5999999046325684
2016-02-16,2.5999999046325684,2.5999999046325684,2.5999999046325684,2.5999999046325684,200.0,2.5999999046325684
2016-02-17,2.700000047683716,2.5899999141693115,2.5999999046325684,2.700000047683716,4300.0,2.700000047683716
2016-02-18,2.700000047683716,2.700000047683716,2.700000047683716,2.700000047683716,1300.0,2.700000047683716
2016-02-19,2.6500000953674316,2.5999999046325684,2.5999999046325684,2.6500000953674316,600.0,2.6500000953674316
2016-02-22,2.6500000953674316,2.6500000953674316,2.6500000953674316,2.6500000953674316,0.0,2.6500000953674316
2016-02-23,2.6500000953674316,2.640000104904175,2.640000104904175,2.6500000953674316,2300.0,2.6500000953674316
2016-02-24,2.549999952316284,1.75,2.549999952316284,2.549999952316284,4700.0,2.549999952316284
2016-02-25,2.299999952316284,1.75,2.299999952316284,2.25,2000.0,2.25
2016-02-26,2.0999999046325684,1.100000023841858,2.0,1.7000000476837158,10600.0,1.7000000476837158
2016-02-29,1.7999999523162842,1.7000000476837158,1.7000000476837158,1.7999999523162842,700.0,1.7999999523162842
2016-03-01,2.390000104904175,1.8930000066757202,1.9500000476837158,2.234999895095825,8700.0,2.234999895095825
2016-03-02,2.4800000190734863,2.200000047683716,2.200000047683716,2.4800000190734863,10500.0,2.4800000190734863
2016-03-03,2.549999952316284,2.450000047683716,2.5299999713897705,2.5,8600.0,2.5
2016-03-04,3.25,2.5,2.619999885559082,3.25,34500.0,3.25
2016-03-07,3.25,3.0999999046325684,3.25,3.200000047683716,16000.0,3.200000047683716
2016-03-08,3.1700000762939453,2.890000104904175,3.1700000762939453,2.890000104904175,3900.0,2.890000104904175
2016-03-09,2.9000000953674316,2.619999885559082,2.88100004196167,2.619999885559082,15600.0,2.619999885559082
2016-03-10,2.6700000762939453,2.4200000762939453,2.563999891281128,2.5899999141693115,7800.0,2.5899999141693115
2016-03-11,2.5299999713897705,2.490000009536743,2.490000009536743,2.5299999713897705,2400.0,2.5299999713897705
2016-03-14,2.5,2.3399999141693115,2.3499999046325684,2.450000047683716,6300.0,2.450000047683716
2016-03-15,2.450000047683716,2.450000047683716,2.450000047683716,2.450000047683716,0.0,2.450000047683716
2016-03-16,2.140000104904175,1.909999966621399,2.140000104904175,2.0,8300.0,2.0
2016-03-17,2.0399999618530273,2.0,2.0,2.0399999618530273,700.0,2.0399999618530273
2016-03-18,1.9900000095367432,1.690000057220459,1.9900000095367432,1.840000033378601,3900.0,1.840000033378601
2016-03-21,2.140000104904175,1.8079999685287476,1.8079999685287476,2.0,12200.0,2.0
2016-03-22,2.180000066757202,2.0,2.1700000762939453,2.0,2300.0,2.0
2016-03-23,2.1500000953674316,2.1500000953674316,2.1500000953674316,2.1500000953674316,200.0,2.1500000953674316
2016-03-24,1.9500000476837158,1.9500000476837158,1.9500000476837158,1.9500000476837158,3400.0,1.9500000476837158
2016-03-28,1.9500000476837158,1.649999976158142,1.9500000476837158,1.649999976158142,4200.0,1.649999976158142
2016-03-29,1.9800000190734863,1.8700000047683716,1.9700000286102295,1.8700000047683716,4100.0,1.8700000047683716
2016-03-30,1.9800000190734863,1.899999976158142,1.9800000190734863,1.899999976158142,2200.0,1.899999976158142
2016-03-31,1.9390000104904175,1.9390000104904175,1.9390000104904175,1.9390000104904175,1100.0,1.9390000104904175
2016-04-01,2.140000104904175,2.130000114440918,2.140000104904175,2.130000114440918,500.0,2.130000114440918
2016-04-04,2.119999885559082,1.9539999961853027,2.119999885559082,1.9539999961853027,1400.0,1.9539999961853027
2016-04-05,1.909999966621399,1.7100000381469727,1.909999966621399,1.909999966621399,4200.0,1.909999966621399
2016-04-06,1.9500000476837158,1.850000023841858,1.8899999856948853,1.9500000476837158,6800.0,1.9500000476837158
2016-04-07,2.0999999046325684,1.9500000476837158,1.9500000476837158,2.0,16500.0,2.0
2016-04-08,2.0999999046325684,2.0,2.0,2.007999897003174,4700.0,2.007999897003174
2016-04-11,2.0399999618530273,1.9739999771118164,2.0199999809265137,2.0,5700.0,2.0
2016-04-12,2.0199999809265137,1.6799999475479126,2.0199999809265137,1.7999999523162842,7000.0,1.7999999523162842
2016-04-13,2.049999952316284,1.940000057220459,1.940000057220459,2.049999952316284,13500.0,2.049999952316284
2016-04-14,1.9500000476837158,1.7100000381469727,1.9500000476837158,1.7100000381469727,1500.0,1.7100000381469727
2016-04-15,1.9900000095367432,1.9190000295639038,1.9800000190734863,1.9299999475479126,3000.0,1.9299999475479126
2016-04-18,1.9500000476837158,1.899999976158142,1.899999976158142,1.9500000476837158,6700.0,1.9500000476837158
2016-04-19,2.049999952316284,1.9199999570846558,1.9900000095367432,1.9900000095367432,15100.0,1.9900000095367432
2016-04-20,1.9199999570846558,1.690000057220459,1.9199999570846558,1.7000000476837158,6500.0,1.7000000476837158
2016-04-21,1.9700000286102295,1.8899999856948853,1.8899999856948853,1.9700000286102295,500.0,1.9700000286102295
2016-04-22,2.069999933242798,1.9700000286102295,2.0,2.069999933242798,3800.0,2.069999933242798
2016-04-25,2.1500000953674316,1.9500000476837158,2.069999933242798,2.1500000953674316,5600.0,2.1500000953674316
2016-04-26,2.299999952316284,2.0,2.1700000762939453,2.2699999809265137,3300.0,2.2699999809265137
2016-04-27,2.1500000953674316,2.049999952316284,2.059999942779541,2.140000104904175,8200.0,2.140000104904175
2016-04-28,2.190000057220459,1.9199999570846558,1.9199999570846558,2.0999999046325684,10300.0,2.0999999046325684
2016-04-29,2.109999895095825,1.940000057220459,2.109999895095825,1.9900000095367432,13000.0,1.9900000095367432
2016-05-02,1.9900000095367432,1.9900000095367432,1.9900000095367432,1.9900000095367432,0.0,1.9900000095367432
2016-05-03,2.0,2.0,2.0,2.0,4000.0,2.0
2016-05-04,2.0,1.4500000476837158,2.0,1.850000023841858,7500.0,1.850000023841858
2016-05-05,2.0,1.899999976158142,1.899999976158142,2.0,5600.0,2.0
2016-05-06,2.049999952316284,1.940000057220459,1.940000057220459,2.049999952316284,4100.0,2.049999952316284
2016-05-09,2.0899999141693115,2.009999990463257,2.0899999141693115,2.009999990463257,800.0,2.009999990463257
2016-05-10,2.0810000896453857,1.899999976158142,2.0810000896453857,1.899999976158142,2900.0,1.899999976158142
2016-05-11,1.899999976158142,1.7999999523162842,1.899999976158142,1.850000023841858,7400.0,1.850000023841858
2016-05-12,1.7999999523162842,1.5770000219345093,1.7999999523162842,1.5770000219345093,5300.0,1.5770000219345093
2016-05-13,1.6200000047683716,1.6200000047683716,1.6200000047683716,1.6200000047683716,4100.0,1.6200000047683716
2016-05-16,1.7000000476837158,1.3300000429153442,1.7000000476837158,1.590000033378601,2600.0,1.590000033378601
2016-05-17,1.6399999856948853,1.5499999523162842,1.590000033378601,1.590000033378601,3900.0,1.590000033378601
2016-05-18,1.7999999523162842,1.600000023841858,1.600000023841858,1.600000023841858,20900.0,1.600000023841858
2016-05-19,1.840000033378601,1.600000023841858,1.7400000095367432,1.75,3900.0,1.75
2016-05-20,1.6699999570846558,1.6100000143051147,1.6699999570846558,1.649999976158142,3100.0,1.649999976158142
2016-05-23,1.9500000476837158,1.840000033378601,1.840000033378601,1.899999976158142,1800.0,1.899999976158142
2016-05-24,2.0999999046325684,1.899999976158142,1.899999976158142,2.0999999046325684,900.0,2.0999999046325684
2016-05-25,2.0799999237060547,2.0,2.009999990463257,2.059999942779541,11400.0,2.059999942779541
2016-05-26,2.059999942779541,2.0,2.0399999618530273,2.059999942779541,9600.0,2.059999942779541
2016-05-27,2.319999933242798,2.1700000762939453,2.1700000762939453,2.319999933242798,4500.0,2.319999933242798
2016-05-31,3.8499999046325684,2.1700000762939453,2.319999933242798,3.049999952316284,9000.0,3.049999952316284
2016-06-01,3.252000093460083,2.255000114440918,2.255000114440918,3.252000093460083,17200.0,3.252000093460083
2016-06-02,3.75,3.0,3.3369998931884766,3.5999999046325684,16500.0,3.5999999046325684
2016-06-03,3.25,3.0,3.25,3.1500000953674316,6200.0,3.1500000953674316
2016-06-06,3.5,2.25,3.5,2.9000000953674316,17500.0,2.9000000953674316
2016-06-07,3.0999999046325684,3.0,3.0,3.0999999046325684,13100.0,3.0999999046325684
2016-06-08,3.0999999046325684,2.990000009536743,3.009999990463257,3.0999999046325684,4800.0,3.0999999046325684
2016-06-09,3.049999952316284,3.049999952316284,3.049999952316284,3.049999952316284,800.0,3.049999952316284
2016-06-10,2.940000057220459,2.9000000953674316,2.940000057220459,2.9000000953674316,400.0,2.9000000953674316
2016-06-13,3.049999952316284,2.9000000953674316,2.9000000953674316,3.049999952316284,800.0,3.049999952316284
2016-06-14,3.0,2.4600000381469727,3.0,2.819999933242798,4300.0,2.819999933242798
2016-06-15,2.9200000762939453,2.809999942779541,2.880000114440918,2.9200000762939453,3600.0,2.9200000762939453
2016-06-16,2.869999885559082,2.799999952316284,2.869999885559082,2.799999952316284,3000.0,2.799999952316284
2016-06-17,2.799999952316284,2.700000047683716,2.75,2.799999952316284,2500.0,2.799999952316284
2016-06-20,2.8499999046325684,2.440000057220459,2.8499999046325684,2.5399999618530273,6800.0,2.5399999618530273
2016-06-21,2.9000000953674316,2.5,2.5,2.799999952316284,11000.0,2.799999952316284
2016-06-22,2.9000000953674316,2.6500000953674316,2.9000000953674316,2.7100000381469727,4500.0,2.7100000381469727
2016-06-23,2.950000047683716,2.6500000953674316,2.809999942779541,2.6500000953674316,9700.0,2.6500000953674316
2016-06-24,2.950000047683716,2.0,2.5999999046325684,2.5,8100.0,2.5
2016-06-27,2.5999999046325684,2.109999895095825,2.5999999046325684,2.299999952316284,7100.0,2.299999952316284
2016-06-28,2.299999952316284,2.0799999237060547,2.299999952316284,2.200000047683716,6200.0,2.200000047683716
2016-06-29,2.5,2.200000047683716,2.200000047683716,2.4000000953674316,8900.0,2.4000000953674316
2016-06-30,2.5999999046325684,2.3499999046325684,2.4700000286102295,2.490000009536743,7600.0,2.490000009536743
2016-07-01,2.490000009536743,2.3399999141693115,2.490000009536743,2.3399999141693115,1100.0,2.3399999141693115
2016-07-05,2.25,2.2179999351501465,2.25,2.2179999351501465,1200.0,2.2179999351501465
2016-07-06,2.3499999046325684,1.7100000381469727,2.240000009536743,2.0,3400.0,2.0
2016-07-07,2.25,1.8600000143051147,2.0,2.109999895095825,6400.0,2.109999895095825
2016-07-08,2.2799999713897705,2.135999917984009,2.200000047683716,2.2799999713897705,5900.0,2.2799999713897705
2016-07-11,2.200000047683716,2.119999885559082,2.200000047683716,2.119999885559082,2800.0,2.119999885559082
2016-07-12,2.2699999809265137,2.0299999713897705,2.0999999046325684,2.180000066757202,30400.0,2.180000066757202
2016-07-13,2.2799999713897705,2.25,2.25,2.2799999713897705,1000.0,2.2799999713897705
2016-07-14,2.5,2.009999990463257,2.25,2.4000000953674316,17000.0,2.4000000953674316
2016-07-15,2.9800000190734863,2.4000000953674316,2.5,2.75,45200.0,2.75
2016-07-18,2.5999999046325684,2.4000000953674316,2.549999952316284,2.5999999046325684,4000.0,2.5999999046325684
2016-07-19,2.549999952316284,2.200000047683716,2.5,2.549999952316284,13400.0,2.549999952316284
2016-07-20,2.700000047683716,2.549999952316284,2.5899999141693115,2.700000047683716,10300.0,2.700000047683716
2016-07-21,2.9000000953674316,2.5,2.9000000953674316,2.75,5400.0,2.75
2016-07-22,2.690000057220459,2.3499999046325684,2.4100000858306885,2.690000057220459,3300.0,2.690000057220459
2016-07-25,2.690000057220459,2.390000104904175,2.4200000762939453,2.390000104904175,3800.0,2.390000104904175
2016-07-26,2.390000104904175,2.3499999046325684,2.380000114440918,2.372999906539917,3700.0,2.372999906539917
2016-07-27,2.700000047683716,2.4800000190734863,2.4800000190734863,2.700000047683716,13700.0,2.700000047683716
2016-07-28,2.7300000190734863,2.700000047683716,2.7300000190734863,2.700000047683716,2200.0,2.700000047683716
2016-07-29,2.5399999618530273,2.4800000190734863,2.4800000190734863,2.5399999618530273,2000.0,2.5399999618530273
2016-08-01,2.9000000953674316,2.5,2.5,2.5999999046325684,5700.0,2.5999999046325684
2016-08-02,2.9000000953674316,2.509999990463257,2.509999990463257,2.559999942779541,2400.0,2.559999942779541
2016-08-03,2.799999952316284,2.559999942779541,2.559999942779541,2.700000047683716,9200.0,2.700000047683716
2016-08-04,2.700000047683716,2.549999952316284,2.700000047683716,2.549999952316284,3600.0,2.549999952316284
2016-08-05,2.799999952316284,2.619999885559082,2.619999885559082,2.75,3000.0,2.75
2016-08-08,2.700000047683716,2.680000066757202,2.700000047683716,2.700000047683716,8400.0,2.700000047683716
2016-08-09,2.740000009536743,2.700000047683716,2.740000009536743,2.700000047683716,3700.0,2.700000047683716
2016-08-10,2.759999990463257,2.509999990463257,2.7300000190734863,2.509999990463257,9300.0,2.509999990463257
2016-08-11,2.700000047683716,2.4100000858306885,2.4100000858306885,2.700000047683716,2900.0,2.700000047683716
2016-08-12,2.690000057220459,2.0,2.690000057220459,2.5899999141693115,9500.0,2.5899999141693115
2016-08-15,2.75,2.558000087738037,2.5899999141693115,2.75,10400.0,2.75
2016-08-16,3.0,2.75,2.75,2.9000000953674316,10500.0,2.9000000953674316
2016-08-17,3.450000047683716,2.990000009536743,2.990000009536743,3.450000047683716,23400.0,3.450000047683716
2016-08-18,3.9000000953674316,3.38100004196167,3.450000047683716,3.9000000953674316,8200.0,3.9000000953674316
2016-08-19,3.950000047683716,3.6500000953674316,3.75,3.950000047683716,16700.0,3.950000047683716
2016-08-22,4.340000152587891,4.0,4.050000190734863,4.099999904632568,10900.0,4.099999904632568
2016-08-23,4.349999904632568,4.099999904632568,4.150000095367432,4.239999771118164,21000.0,4.239999771118164
2016-08-24,4.349999904632568,4.139999866485596,4.21999979019165,4.139999866485596,19000.0,4.139999866485596
2016-08-25,4.199999809265137,4.099999904632568,4.139999866485596,4.199999809265137,8800.0,4.199999809265137
2016-08-26,4.199999809265137,4.190000057220459,4.190000057220459,4.199999809265137,2300.0,4.199999809265137
2016-08-29,4.190000057220459,3.9000000953674316,4.190000057220459,3.990000009536743,8900.0,3.990000009536743
2016-08-30,4.010000228881836,3.930000066757202,3.990000009536743,3.930000066757202,5900.0,3.930000066757202
2016-08-31,3.8499999046325684,3.6600000858306885,3.799999952316284,3.799999952316284,16200.0,3.799999952316284
2016-09-01,3.799999952316284,3.5,3.799999952316284,3.5,24800.0,3.5
2016-09-02,3.490000009536743,3.299999952316284,3.490000009536743,3.440000057220459,3600.0,3.440000057220459
2016-09-06,3.5,3.2899999618530273,3.430000066757202,3.3499999046325684,3400.0,3.3499999046325684
2016-09-07,3.359999895095825,3.359999895095825,3.359999895095825,3.359999895095825,2500.0,3.359999895095825
2016-09-08,3.4000000953674316,3.2100000381469727,3.2100000381469727,3.3499999046325684,16500.0,3.3499999046325684
2016-09-09,3.38100004196167,3.3499999046325684,3.3499999046325684,3.38100004196167,1300.0,3.38100004196167
2016-09-12,3.4000000953674316,3.0999999046325684,3.4000000953674316,3.109999895095825,1500.0,3.109999895095825
2016-09-13,3.119999885559082,3.0999999046325684,3.109999895095825,3.0999999046325684,5000.0,3.0999999046325684
2016-09-14,3.0999999046325684,2.8399999141693115,3.0999999046325684,3.049999952316284,5900.0,3.049999952316284
2016-09-15,3.0799999237060547,3.0,3.0,3.0799999237060547,900.0,3.0799999237060547
2016-09-16,3.0799999237060547,3.0799999237060547,3.0799999237060547,3.0799999237060547,300.0,3.0799999237060547
2016-09-19,3.0999999046325684,2.950000047683716,2.950000047683716,2.950000047683716,5100.0,2.950000047683716
2016-09-20,3.0,2.950000047683716,2.950000047683716,3.0,9800.0,3.0
2016-09-21,3.0,2.5,2.950000047683716,2.63100004196167,17200.0,2.63100004196167
2016-09-22,2.6700000762939453,2.5999999046325684,2.609999895095825,2.630000114440918,7000.0,2.630000114440918
2016-09-23,2.75,2.4600000381469727,2.549999952316284,2.75,11900.0,2.75
2016-09-26,2.75,2.4600000381469727,2.75,2.5999999046325684,2000.0,2.5999999046325684
2016-09-27,2.75,2.739000082015991,2.740000009536743,2.75,8000.0,2.75
2016-09-28,2.75,2.5,2.75,2.5999999046325684,9900.0,2.5999999046325684
2016-09-29,2.5999999046325684,2.5,2.5999999046325684,2.5,2100.0,2.5
2016-09-30,2.950000047683716,2.3499999046325684,2.4000000953674316,2.5,12500.0,2.5
2016-10-03,3.200000047683716,2.700000047683716,2.950000047683716,3.130000114440918,11100.0,3.130000114440918
2016-10-04,3.0999999046325684,3.0,3.0,3.0999999046325684,6200.0,3.0999999046325684
2016-10-05,3.0,2.700000047683716,2.799999952316284,2.799999952316284,8500.0,2.799999952316284
2016-10-06,2.799999952316284,2.6500000953674316,2.799999952316284,2.700000047683716,2800.0,2.700000047683716
2016-10-07,2.680000066757202,2.6500000953674316,2.680000066757202,2.6500000953674316,2800.0,2.6500000953674316
2016-10-10,2.5,2.5,2.5,2.5,1500.0,2.5
2016-10-11,3.0,2.5,2.6500000953674316,3.0,7600.0,3.0
2016-10-12,2.9000000953674316,2.75,2.75,2.9000000953674316,9500.0,2.9000000953674316
2016-10-13,2.9000000953674316,2.75,2.9000000953674316,2.759999990463257,6500.0,2.759999990463257
2016-10-14,3.049999952316284,2.509999990463257,2.8299999237060547,2.799999952316284,17000.0,2.799999952316284
2016-10-17,2.950000047683716,2.869999885559082,2.9000000953674316,2.9000000953674316,8300.0,2.9000000953674316
2016-10-18,2.950000047683716,2.609999895095825,2.930000066757202,2.799999952316284,4600.0,2.799999952316284
2016-10-19,2.799999952316284,2.5,2.609999895095825,2.799999952316284,15200.0,2.799999952316284
2016-10-20,2.75,2.3499999046325684,2.5999999046325684,2.5299999713897705,12900.0,2.5299999713897705
2016-10-21,2.6600000858306885,2.549999952316284,2.549999952316284,2.6600000858306885,14400.0,2.6600000858306885
2016-10-24,2.690000057220459,2.509999990463257,2.680000066757202,2.5999999046325684,11300.0,2.5999999046325684
2016-10-25,2.6500000953674316,2.109999895095825,2.6500000953674316,2.2799999713897705,18700.0,2.2799999713897705
2016-10-26,3.450000047683716,2.4700000286102295,2.4700000286102295,3.1500000953674316,49900.0,3.1500000953674316
2016-10-27,3.0999999046325684,2.799999952316284,3.0899999141693115,3.049999952316284,6300.0,3.049999952316284
2016-10-28,3.049999952316284,2.8499999046325684,3.0399999618530273,3.049999952316284,1200.0,3.049999952316284
2016-10-31,3.049999952316284,2.8499999046325684,3.049999952316284,2.9700000286102295,6500.0,2.9700000286102295
2016-11-01,2.859999895095825,2.4000000953674316,2.8499999046325684,2.5999999046325684,16000.0,2.5999999046325684
2016-11-02,3.0,2.7200000286102295,2.7200000286102295,3.0,16300.0,3.0
2016-11-03,3.0,2.8499999046325684,2.8499999046325684,2.950000047683716,6500.0,2.950000047683716
2016-11-04,2.950000047683716,2.7899999618530273,2.8499999046325684,2.819999933242798,11100.0,2.819999933242798
2016-11-07,2.950000047683716,2.9200000762939453,2.940000057220459,2.9200000762939453,2400.0,2.9200000762939453
2016-11-08,2.9000000953674316,2.819999933242798,2.8399999141693115,2.9000000953674316,5100.0,2.9000000953674316
2016-11-09,2.819999933242798,2.6500000953674316,2.819999933242798,2.6500000953674316,2500.0,2.6500000953674316
2016-11-10,2.6500000953674316,2.6500000953674316,2.6500000953674316,2.6500000953674316,2000.0,2.6500000953674316
2016-11-11,2.7799999713897705,2.5799999237060547,2.6500000953674316,2.7799999713897705,1000.0,2.7799999713897705
2016-11-14,2.9000000953674316,2.6500000953674316,2.7699999809265137,2.8889999389648438,10100.0,2.8889999389648438
2016-11-15,2.9000000953674316,2.5399999618530273,2.859999895095825,2.9000000953674316,6200.0,2.9000000953674316
2016-11-16,2.799999952316284,2.634999990463257,2.799999952316284,2.634999990463257,7700.0,2.634999990463257
2016-11-17,2.7200000286102295,2.5999999046325684,2.7200000286102295,2.700000047683716,2400.0,2.700000047683716
2016-11-18,2.619999885559082,2.5899999141693115,2.5999999046325684,2.619999885559082,7100.0,2.619999885559082
2016-11-21,2.950000047683716,2.5999999046325684,2.700000047683716,2.5999999046325684,2500.0,2.5999999046325684
2016-11-22,2.700000047683716,2.5299999713897705,2.5999999046325684,2.700000047683716,19500.0,2.700000047683716
2016-11-23,2.75,2.5299999713897705,2.5999999046325684,2.75,12400.0,2.75
2016-11-25,2.7899999618530273,2.549999952316284,2.75,2.549999952316284,5300.0,2.549999952316284
2016-11-28,2.549999952316284,2.5399999618530273,2.549999952316284,2.5399999618530273,31000.0,2.5399999618530273
2016-11-29,2.5999999046325684,2.549999952316284,2.549999952316284,2.5999999046325684,7100.0,2.5999999046325684
2016-11-30,2.7739999294281006,2.5399999618530273,2.700000047683716,2.7200000286102295,75800.0,2.7200000286102295
2016-12-01,2.799999952316284,2.5999999046325684,2.700000047683716,2.799999952316284,24300.0,2.799999952316284
2016-12-02,2.799999952316284,2.6500000953674316,2.753999948501587,2.799999952316284,14300.0,2.799999952316284
2016-12-05,2.7899999618530273,2.5,2.7100000381469727,2.5,20900.0,2.5
2016-12-06,2.7200000286102295,2.509999990463257,2.509999990463257,2.549999952316284,8800.0,2.549999952316284
2016-12-07,2.799999952316284,2.549999952316284,2.571000099182129,2.700000047683716,5200.0,2.700000047683716
2016-12-08,2.799999952316284,2.5999999046325684,2.5999999046325684,2.5999999046325684,2100.0,2.5999999046325684
2016-12-09,2.700000047683716,2.5999999046325684,2.700000047683716,2.5999999046325684,6900.0,2.5999999046325684
2016-12-12,2.6500000953674316,2.6500000953674316,2.6500000953674316,2.6500000953674316,14400.0,2.6500000953674316
2016-12-13,2.6089999675750732,2.299999952316284,2.6089999675750732,2.299999952316284,15500.0,2.299999952316284
2016-12-14,2.444999933242798,2.0,2.3499999046325684,2.2200000286102295,15600.0,2.2200000286102295
2016-12-15,2.1500000953674316,2.0,2.049999952316284,2.109999895095825,8200.0,2.109999895095825
2016-12-16,2.0,2.0,2.0,2.0,2100.0,2.0
2016-12-19,2.0,2.0,2.0,2.0,1300.0,2.0
2016-12-20,2.2200000286102295,1.9500000476837158,1.9500000476837158,2.0199999809265137,20700.0,2.0199999809265137
2016-12-21,2.630000114440918,2.069999933242798,2.0899999141693115,2.190000057220459,6300.0,2.190000057220459
2016-12-22,2.5,2.299999952316284,2.5,2.390000104904175,5600.0,2.390000104904175
2016-12-23,2.450000047683716,2.450000047683716,2.450000047683716,2.450000047683716,3900.0,2.450000047683716
2016-12-27,2.4800000190734863,2.4800000190734863,2.4800000190734863,2.4800000190734863,4500.0,2.4800000190734863
2016-12-28,2.450000047683716,2.259999990463257,2.450000047683716,2.259999990463257,4200.0,2.259999990463257
2016-12-29,2.390000104904175,2.25,2.25,2.390000104904175,1200.0,2.390000104904175
2016-12-30,2.5,2.259999990463257,2.259999990463257,2.490000009536743,7300.0,2.490000009536743
2017-01-03,2.5,2.25,2.450000047683716,2.390000104904175,10000.0,2.390000104904175
2017-01-04,2.2799999713897705,2.200000047683716,2.2799999713897705,2.2699999809265137,7000.0,2.2699999809265137
2017-01-05,2.4000000953674316,2.2100000381469727,2.4000000953674316,2.2100000381469727,9500.0,2.2100000381469727
2017-01-06,2.3499999046325684,2.2899999618530273,2.2899999618530273,2.318000078201294,10800.0,2.318000078201294
2017-01-09,2.3499999046325684,2.3499999046325684,2.3499999046325684,2.3499999046325684,600.0,2.3499999046325684
2017-01-10,2.450000047683716,2.2200000286102295,2.3369998931884766,2.450000047683716,9000.0,2.450000047683716
2017-01-11,2.4000000953674316,2.309999942779541,2.4000000953674316,2.4000000953674316,3100.0,2.4000000953674316
2017-01-12,2.450000047683716,2.239000082015991,2.2699999809265137,2.450000047683716,5800.0,2.450000047683716
2017-01-13,2.4000000953674316,2.0999999046325684,2.3499999046325684,2.200000047683716,23000.0,2.200000047683716
2017-01-17,2.490000009536743,2.490000009536743,2.490000009536743,2.490000009536743,100.0,2.490000009536743
2017-01-18,2.450000047683716,2.3499999046325684,2.450000047683716,2.3499999046325684,8400.0,2.3499999046325684
2017-01-19,2.3499999046325684,2.2100000381469727,2.2100000381469727,2.3499999046325684,300.0,2.3499999046325684
2017-01-20,2.3499999046325684,2.3499999046325684,2.3499999046325684,2.3499999046325684,0.0,2.3499999046325684
2017-01-23,2.3499999046325684,2.3499999046325684,2.3499999046325684,2.3499999046325684,200.0,2.3499999046325684
2017-01-24,2.5999999046325684,2.2100000381469727,2.3499999046325684,2.5999999046325684,13800.0,2.5999999046325684
2017-01-25,2.549999952316284,2.2100000381469727,2.549999952316284,2.2799999713897705,12300.0,2.2799999713897705
2017-01-26,2.25,2.25,2.25,2.25,600.0,2.25
2017-01-27,2.299999952316284,2.25,2.25,2.259999990463257,10600.0,2.259999990463257
2017-01-30,2.259999990463257,2.259999990463257,2.259999990463257,2.259999990463257,0.0,2.259999990463257
2017-01-31,2.4000000953674316,2.049999952316284,2.049999952316284,2.4000000953674316,9400.0,2.4000000953674316
2017-02-01,2.390000104904175,2.390000104904175,2.390000104904175,2.390000104904175,1100.0,2.390000104904175
2017-02-02,2.5,2.4000000953674316,2.5,2.4000000953674316,3900.0,2.4000000953674316
2017-02-03,2.3499999046325684,2.299999952316284,2.3499999046325684,2.299999952316284,1900.0,2.299999952316284
2017-02-06,2.5,2.309999942779541,2.5,2.309999942779541,3200.0,2.309999942779541
2017-02-07,2.450000047683716,2.25,2.309999942779541,2.3499999046325684,8300.0,2.3499999046325684
2017-02-08,2.5,2.049999952316284,2.4000000953674316,2.3429999351501465,33100.0,2.3429999351501465
2017-02-09,2.490000009536743,2.299999952316284,2.4000000953674316,2.450000047683716,6900.0,2.450000047683716
2017-02-10,2.4800000190734863,2.009999990463257,2.299999952316284,2.4800000190734863,8200.0,2.4800000190734863
2017-02-13,2.5,2.3499999046325684,2.3499999046325684,2.3499999046325684,9200.0,2.3499999046325684
2017-02-14,2.5,2.3499999046325684,2.369999885559082,2.490000009536743,8600.0,2.490000009536743
2017-02-15,2.4800000190734863,2.4100000858306885,2.430000066757202,2.4800000190734863,8300.0,2.4800000190734863
2017-02-16,2.4800000190734863,2.450000047683716,2.4800000190734863,2.4800000190734863,2700.0,2.4800000190734863
2017-02-17,2.5,2.4000000953674316,2.450000047683716,2.5,8200.0,2.5
2017-02-21,2.5,2.3499999046325684,2.3499999046325684,2.4000000953674316,11800.0,2.4000000953674316
2017-02-22,2.4000000953674316,2.4000000953674316,2.4000000953674316,2.4000000953674316,2300.0,2.4000000953674316
2017-02-23,2.375,2.25,2.25,2.375,4800.0,2.375
2017-02-24,2.5,2.325000047683716,2.3499999046325684,2.5,3400.0,2.5
2017-02-27,2.299999952316284,2.299999952316284,2.299999952316284,2.299999952316284,2200.0,2.299999952316284
2017-02-28,2.4000000953674316,2.299999952316284,2.4000000953674316,2.299999952316284,2400.0,2.299999952316284
2017-03-01,2.4000000953674316,2.4000000953674316,2.4000000953674316,2.4000000953674316,2400.0,2.4000000953674316
2017-03-02,2.5,2.450000047683716,2.5,2.4769999980926514,5500.0,2.4769999980926514
2017-03-03,2.549999952316284,2.259999990463257,2.450000047683716,2.299999952316284,19300.0,2.299999952316284
2017-03-06,2.5,2.25,2.4000000953674316,2.5,15600.0,2.5
2017-03-07,2.5399999618530273,2.5,2.5,2.5399999618530273,1100.0,2.5399999618530273
2017-03-08,2.549999952316284,2.5299999713897705,2.5299999713897705,2.549999952316284,1900.0,2.549999952316284
2017-03-09,2.549999952316284,2.549999952316284,2.549999952316284,2.549999952316284,6000.0,2.549999952316284
2017-03-10,2.700000047683716,2.509999990463257,2.549999952316284,2.509999990463257,34600.0,2.509999990463257
2017-03-13,2.890000104904175,2.75,2.75,2.890000104904175,6300.0,2.890000104904175
2017-03-14,2.8499999046325684,2.8499999046325684,2.8499999046325684,2.8499999046325684,2500.0,2.8499999046325684
2017-03-15,3.0999999046325684,2.359999895095825,2.890000104904175,2.7899999618530273,18000.0,2.7899999618530273
2017-03-16,3.0,2.799999952316284,2.799999952316284,2.950000047683716,14000.0,2.950000047683716
2017-03-17,3.0999999046325684,2.9000000953674316,3.0,3.0999999046325684,23900.0,3.0999999046325684
2017-03-20,3.25,3.0999999046325684,3.200000047683716,3.0999999046325684,23400.0,3.0999999046325684
2017-03-21,3.1500000953674316,2.799999952316284,3.0999999046325684,2.859999895095825,19100.0,2.859999895095825
2017-03-22,3.0,2.990000009536743,3.0,2.990000009536743,1000.0,2.990000009536743
2017-03-23,2.9700000286102295,2.7100000381469727,2.8499999046325684,2.75,6600.0,2.75
2017-03-24,2.9000000953674316,2.799999952316284,2.9000000953674316,2.799999952316284,4500.0,2.799999952316284
2017-03-27,2.950000047683716,2.6500000953674316,2.6600000858306885,2.8299999237060547,4700.0,2.8299999237060547
2017-03-28,3.0,2.680000066757202,2.700000047683716,3.0,5500.0,3.0
2017-03-29,3.0,2.950000047683716,3.0,2.950000047683716,800.0,2.950000047683716
2017-03-30,3.0,2.549999952316284,3.0,2.8499999046325684,3100.0,2.8499999046325684
2017-03-31,3.0,2.674999952316284,2.8499999046325684,3.0,1800.0,3.0
2017-04-03,3.0,2.8450000286102295,3.0,2.8499999046325684,9100.0,2.8499999046325684
2017-04-04,2.799999952316284,2.6500000953674316,2.799999952316284,2.75,2600.0,2.75
2017-04-05,2.7699999809265137,2.7699999809265137,2.7699999809265137,2.7699999809265137,400.0,2.7699999809265137
2017-04-06,2.819999933242798,2.7699999809265137,2.7699999809265137,2.799999952316284,7600.0,2.799999952316284
2017-04-07,2.819999933242798,2.740000009536743,2.799999952316284,2.819999933242798,2100.0,2.819999933242798
2017-04-10,2.75,2.5199999809265137,2.75,2.5199999809265137,4900.0,2.5199999809265137
2017-04-11,2.6600000858306885,2.619999885559082,2.619999885559082,2.6600000858306885,900.0,2.6600000858306885
2017-04-12,2.6600000858306885,2.6600000858306885,2.6600000858306885,2.6600000858306885,300.0,2.6600000858306885
2017-04-13,2.6500000953674316,2.549999952316284,2.549999952316284,2.6500000953674316,4100.0,2.6500000953674316
2017-04-17,2.6500000953674316,2.5999999046325684,2.6500000953674316,2.6500000953674316,15500.0,2.6500000953674316
2017-04-18,2.799999952316284,2.680000066757202,2.680000066757202,2.75,26100.0,2.75
2017-04-19,2.799999952316284,2.309999942779541,2.75,2.680000066757202,24000.0,2.680000066757202
2017-04-20,2.75,2.575000047683716,2.690000057220459,2.75,6800.0,2.75
2017-04-21,2.799999952316284,2.700000047683716,2.799999952316284,2.700000047683716,800.0,2.700000047683716
2017-04-24,2.7799999713897705,2.7799999713897705,2.7799999713897705,2.7799999713897705,200.0,2.7799999713897705
2017-04-25,2.799999952316284,2.7799999713897705,2.7799999713897705,2.7799999713897705,2200.0,2.7799999713897705
2017-04-26,2.6559998989105225,2.6540000438690186,2.6540000438690186,2.6559998989105225,400.0,2.6559998989105225
2017-04-27,2.6500000953674316,2.2799999713897705,2.609999895095825,2.6500000953674316,4700.0,2.6500000953674316
2017-04-28,2.680000066757202,2.6500000953674316,2.6500000953674316,2.680000066757202,5900.0,2.680000066757202
2017-05-01,2.8499999046325684,2.799999952316284,2.809999942779541,2.8499999046325684,3600.0,2.8499999046325684
2017-05-02,2.9000000953674316,2.8499999046325684,2.8499999046325684,2.869999885559082,5000.0,2.869999885559082
2017-05-03,2.8499999046325684,2.8499999046325684,2.8499999046325684,2.8499999046325684,100.0,2.8499999046325684
2017-05-04,2.8499999046325684,2.549999952316284,2.6600000858306885,2.549999952316284,14600.0,2.549999952316284
2017-05-05,2.75,2.640000104904175,2.640000104904175,2.7300000190734863,10300.0,2.7300000190734863
2017-05-08,2.75,2.6500000953674316,2.75,2.7300000190734863,5800.0,2.7300000190734863
2017-05-09,2.700000047683716,2.4769999980926514,2.700000047683716,2.4769999980926514,1400.0,2.4769999980926514
2017-05-10,2.5,2.5,2.5,2.5,100.0,2.5
2017-05-11,2.7300000190734863,2.25,2.7300000190734863,2.4000000953674316,14500.0,2.4000000953674316
2017-05-12,2.4000000953674316,2.2300000190734863,2.4000000953674316,2.4000000953674316,5300.0,2.4000000953674316
2017-05-15,2.3499999046325684,2.3499999046325684,2.3499999046325684,2.3499999046325684,2500.0,2.3499999046325684
2017-05-16,2.3499999046325684,2.3399999141693115,2.3499999046325684,2.3499999046325684,3300.0,2.3499999046325684
2017-05-17,2.3399999141693115,1.7999999523162842,2.3399999141693115,2.1500000953674316,8600.0,2.1500000953674316
2017-05-18,2.25,2.2300000190734863,2.25,2.25,2200.0,2.25
2017-05-19,2.25,2.0,2.25,2.059999942779541,4100.0,2.059999942779541
2017-05-22,2.2160000801086426,2.0460000038146973,2.049999952316284,2.180000066757202,5800.0,2.180000066757202
2017-05-23,2.180000066757202,2.180000066757202,2.180000066757202,2.180000066757202,2100.0,2.180000066757202
2017-05-24,2.25,2.180000066757202,2.200000047683716,2.180000066757202,6700.0,2.180000066757202
2017-05-25,2.3499999046325684,2.0,2.200000047683716,2.200000047683716,22600.0,2.200000047683716
2017-05-26,2.200000047683716,1.8200000524520874,2.200000047683716,2.0999999046325684,14200.0,2.0999999046325684
2017-05-30,2.119999885559082,2.0999999046325684,2.119999885559082,2.0999999046325684,1100.0,2.0999999046325684
2017-05-31,2.3499999046325684,2.069999933242798,2.134999990463257,2.3499999046325684,22600.0,2.3499999046325684
2017-06-01,2.819999933242798,2.299999952316284,2.3389999866485596,2.6500000953674316,2700.0,2.6500000953674316
2017-06-02,2.75,2.4800000190734863,2.7249999046325684,2.4800000190734863,13900.0,2.4800000190734863
2017-06-05,2.7899999618530273,2.490000009536743,2.5,2.5999999046325684,6500.0,2.5999999046325684
2017-06-06,2.5999999046325684,2.5899999141693115,2.5999999046325684,2.5899999141693115,1200.0,2.5899999141693115
2017-06-07,2.5999999046325684,2.5999999046325684,2.5999999046325684,2.5999999046325684,1700.0,2.5999999046325684
2017-06-08,2.640000104904175,2.490000009536743,2.640000104904175,2.640000104904175,600.0,2.640000104904175
2017-06-09,2.559999942779541,2.450000047683716,2.5,2.450000047683716,6600.0,2.450000047683716
2017-06-12,2.5,2.490000009536743,2.490000009536743,2.5,1300.0,2.5
2017-06-13,2.5,2.5,2.5,2.5,0.0,2.5
2017-06-14,2.5,2.490000009536743,2.5,2.490000009536743,1100.0,2.490000009536743
2017-06-15,2.450000047683716,2.450000047683716,2.450000047683716,2.450000047683716,200.0,2.450000047683716
2017-06-16,2.3499999046325684,2.25,2.3499999046325684,2.25,17000.0,2.25
2017-06-19,2.299999952316284,2.299999952316284,2.299999952316284,2.299999952316284,1000.0,2.299999952316284
2017-06-20,2.7899999618530273,2.450000047683716,2.450000047683716,2.549999952316284,5500.0,2.549999952316284
2017-06-21,2.799999952316284,2.6500000953674316,2.6500000953674316,2.6500000953674316,1000.0,2.6500000953674316
2017-06-22,2.75,2.5,2.549999952316284,2.549999952316284,9500.0,2.549999952316284
2017-06-23,2.5999999046325684,2.549999952316284,2.5999999046325684,2.5999999046325684,1600.0,2.5999999046325684
2017-06-26,2.5999999046325684,2.5999999046325684,2.5999999046325684,2.5999999046325684,0.0,2.5999999046325684
2017-06-27,2.5999999046325684,2.009999990463257,2.5,2.4000000953674316,2400.0,2.4000000953674316
2017-06-28,2.5999999046325684,2.009999990463257,2.5999999046325684,2.380000114440918,5600.0,2.380000114440918
2017-06-29,2.5,2.2699999809265137,2.4000000953674316,2.5,3100.0,2.5
2017-06-30,2.549999952316284,2.200000047683716,2.549999952316284,2.549999952316284,9900.0,2.549999952316284
2017-07-03,2.549999952316284,2.549999952316284,2.549999952316284,2.549999952316284,0.0,2.549999952316284
2017-07-05,2.450000047683716,2.4000000953674316,2.450000047683716,2.4000000953674316,800.0,2.4000000953674316
2017-07-06,2.549999952316284,2.3499999046325684,2.549999952316284,2.3499999046325684,2300.0,2.3499999046325684
2017-07-07,2.450000047683716,2.434999942779541,2.450000047683716,2.434999942779541,1400.0,2.434999942779541
2017-07-10,2.549999952316284,2.549999952316284,2.549999952316284,2.549999952316284,300.0,2.549999952316284
2017-07-11,2.450000047683716,2.1600000858306885,2.450000047683716,2.1600000858306885,2500.0,2.1600000858306885
2017-07-12,2.3949999809265137,2.2200000286102295,2.240000009536743,2.299999952316284,4400.0,2.299999952316284
2017-07-13,2.299999952316284,2.1600000858306885,2.299999952316284,2.25,2500.0,2.25
2017-07-14,2.25,2.190000057220459,2.200000047683716,2.25,4200.0,2.25
2017-07-17,2.25,2.240000009536743,2.25,2.25,2200.0,2.25
2017-07-18,2.25,2.200000047683716,2.25,2.200000047683716,4000.0,2.200000047683716
2017-07-19,2.549999952316284,2.200000047683716,2.322999954223633,2.505000114440918,16200.0,2.505000114440918
2017-07-20,2.5,2.5,2.5,2.5,3700.0,2.5
2017-07-21,2.4700000286102295,2.3499999046325684,2.4700000286102295,2.446000099182129,5300.0,2.446000099182129
2017-07-24,2.450000047683716,2.25,2.450000047683716,2.25,2300.0,2.25
2017-07-25,2.549999952316284,2.0999999046325684,2.190000057220459,2.299999952316284,3500.0,2.299999952316284
2017-07-26,2.4000000953674316,2.200000047683716,2.3499999046325684,2.200000047683716,2700.0,2.200000047683716
2017-07-27,2.3499999046325684,2.130000114440918,2.130000114440918,2.25,14500.0,2.25
2017-07-28,2.3499999046325684,2.25,2.3499999046325684,2.25,800.0,2.25
2017-07-31,2.3499999046325684,2.25,2.25,2.3499999046325684,9000.0,2.3499999046325684
2017-08-01,2.549999952316284,2.2750000953674316,2.4000000953674316,2.430000066757202,25300.0,2.430000066757202
2017-08-02,2.450000047683716,2.299999952316284,2.430000066757202,2.380000114440918,8600.0,2.380000114440918
2017-08-03,2.25,2.0899999141693115,2.2200000286102295,2.2200000286102295,9300.0,2.2200000286102295
2017-08-04,2.4200000762939453,2.2149999141693115,2.25,2.4200000762939453,5900.0,2.4200000762939453
2017-08-07,2.390000104904175,2.200000047683716,2.390000104904175,2.3499999046325684,3000.0,2.3499999046325684
2017-08-08,2.450000047683716,2.200000047683716,2.200000047683716,2.4000000953674316,5800.0,2.4000000953674316
2017-08-09,2.299999952316284,2.140000104904175,2.299999952316284,2.299999952316284,2100.0,2.299999952316284
2017-08-10,2.240000009536743,1.75,2.2300000190734863,2.069999933242798,10400.0,2.069999933242798
2017-08-11,2.549999952316284,2.0899999141693115,2.0899999141693115,2.4800000190734863,20300.0,2.4800000190734863
2017-08-14,2.5,2.200000047683716,2.5,2.430000066757202,6000.0,2.430000066757202
2017-08-15,2.450000047683716,2.450000047683716,2.450000047683716,2.450000047683716,4100.0,2.450000047683716
2017-08-16,2.5999999046325684,2.25,2.259999990463257,2.5399999618530273,8300.0,2.5399999618530273
2017-08-17,2.700000047683716,2.4000000953674316,2.5999999046325684,2.549999952316284,10400.0,2.549999952316284
2017-08-18,2.700000047683716,2.4100000858306885,2.5,2.630000114440918,10800.0,2.630000114440918
2017-08-21,2.75,2.390000104904175,2.6500000953674316,2.4000000953674316,4100.0,2.4000000953674316
2017-08-22,2.8499999046325684,2.309999942779541,2.4000000953674316,2.5899999141693115,10300.0,2.5899999141693115
2017-08-23,2.8499999046325684,2.200000047683716,2.4700000286102295,2.7699999809265137,11300.0,2.7699999809265137
2017-08-24,2.5999999046325684,2.3499999046325684,2.4800000190734863,2.4000000953674316,17400.0,2.4000000953674316
2017-08-25,2.7699999809265137,2.2699999809265137,2.5,2.490000009536743,13300.0,2.490000009536743
2017-08-28,2.75,2.4100000858306885,2.4100000858306885,2.440000057220459,4800.0,2.440000057220459
2017-08-29,2.4100000858306885,2.2799999713897705,2.4100000858306885,2.4000000953674316,6300.0,2.4000000953674316
2017-08-30,2.430000066757202,2.2100000381469727,2.4200000762939453,2.4000000953674316,9500.0,2.4000000953674316
2017-08-31,2.690000057220459,2.4000000953674316,2.5999999046325684,2.490000009536743,8800.0,2.490000009536743
2017-09-01,2.4200000762939453,2.2100000381469727,2.4100000858306885,2.309999942779541,4500.0,2.309999942779541
2017-09-05,2.309999942779541,2.2100000381469727,2.309999942779541,2.2100000381469727,8600.0,2.2100000381469727
2017-09-06,2.299999952316284,2.2100000381469727,2.25,2.2100000381469727,9500.0,2.2100000381469727
2017-09-07,2.450000047683716,2.450000047683716,2.450000047683716,2.450000047683716,100.0,2.450000047683716
2017-09-08,2.299999952316284,2.130000114440918,2.2200000286102295,2.1500000953674316,6400.0,2.1500000953674316
2017-09-11,2.25,2.119999885559082,2.1500000953674316,2.119999885559082,8800.0,2.119999885559082
2017-09-12,2.200000047683716,2.0999999046325684,2.1500000953674316,2.0999999046325684,4600.0,2.0999999046325684
2017-09-13,2.1500000953674316,2.0799999237060547,2.1500000953674316,2.0799999237060547,7500.0,2.0799999237060547
2017-09-14,2.1500000953674316,1.9279999732971191,2.1500000953674316,2.0,11700.0,2.0
2017-09-15,2.25,1.7000000476837158,2.0,1.9500000476837158,22700.0,1.9500000476837158
2017-09-18,2.200000047683716,1.7599999904632568,1.9500000476837158,1.7999999523162842,30900.0,1.7999999523162842
2017-09-19,1.850000023841858,1.7599999904632568,1.7999999523162842,1.7599999904632568,6400.0,1.7599999904632568
2017-09-20,1.850000023841858,1.75,1.7999999523162842,1.75,24100.0,1.75
2017-09-21,2.0,1.690000057220459,1.7599999904632568,1.75,36500.0,1.75
2017-09-22,1.7949999570846558,1.7000000476837158,1.75,1.75,16300.0,1.75
2017-09-25,1.875,1.690000057220459,1.75,1.75,23000.0,1.75
2017-09-26,1.8600000143051147,1.690000057220459,1.75,1.7899999618530273,33400.0,1.7899999618530273
2017-09-27,1.7999999523162842,1.7000000476837158,1.7899999618530273,1.7000000476837158,55600.0,1.7000000476837158
2017-09-28,1.7949999570846558,1.690000057220459,1.7899999618530273,1.7400000095367432,54500.0,1.7400000095367432
2017-09-29,2.0,1.7400000095367432,1.7400000095367432,2.0,36800.0,2.0
2017-10-02,2.0,1.8600000143051147,2.0,1.9600000381469727,10200.0,1.9600000381469727
2017-10-03,2.0,1.809999942779541,1.850000023841858,1.899999976158142,12000.0,1.899999976158142
2017-10-04,1.9800000190734863,1.8200000524520874,1.899999976158142,1.8200000524520874,14100.0,1.8200000524520874
2017-10-05,2.200000047683716,1.850000023841858,1.850000023841858,2.0999999046325684,37100.0,2.0999999046325684
2017-10-06,2.200000047683716,1.909999966621399,2.1500000953674316,2.1500000953674316,22600.0,2.1500000953674316
2017-10-09,2.25,2.0999999046325684,2.200000047683716,2.109999895095825,17100.0,2.109999895095825
2017-10-10,2.5,2.0999999046325684,2.1500000953674316,2.359999895095825,28400.0,2.359999895095825
2017-10-11,2.559999942779541,2.25,2.25,2.4000000953674316,30300.0,2.4000000953674316
2017-10-12,2.6500000953674316,2.3299999237060547,2.5,2.625999927520752,29400.0,2.625999927520752
2017-10-13,2.7200000286102295,2.509999990463257,2.700000047683716,2.569999933242798,19100.0,2.569999933242798
2017-10-16,2.5999999046325684,2.509999990463257,2.5999999046325684,2.509999990463257,13700.0,2.509999990463257
2017-10-17,3.049999952316284,2.509999990463257,2.5999999046325684,3.049999952316284,37700.0,3.049999952316284
2017-10-18,3.180000066757202,2.8499999046325684,3.0,2.940000057220459,50800.0,2.940000057220459
2017-10-19,3.0,2.869999885559082,2.950000047683716,2.950000047683716,32900.0,2.950000047683716
2017-10-20,2.9000000953674316,2.75,2.9000000953674316,2.8499999046325684,18000.0,2.8499999046325684
2017-10-23,2.9700000286102295,2.799999952316284,2.819999933242798,2.9700000286102295,20400.0,2.9700000286102295
2017-10-24,2.950000047683716,2.700000047683716,2.950000047683716,2.8399999141693115,23300.0,2.8399999141693115
2017-10-25,2.9000000953674316,2.640000104904175,2.9000000953674316,2.75,43800.0,2.75
2017-10-26,2.865000009536743,2.6419999599456787,2.865000009536743,2.6500000953674316,7200.0,2.6500000953674316
2017-10-27,2.6500000953674316,2.3499999046325684,2.6500000953674316,2.6500000953674316,15400.0,2.6500000953674316
2017-10-30,2.549999952316284,2.0290000438690186,2.4800000190734863,2.440000057220459,28500.0,2.440000057220459
2017-10-31,2.4600000381469727,2.200000047683716,2.450000047683716,2.4600000381469727,20900.0,2.4600000381469727
2017-11-01,2.490000009536743,2.2699999809265137,2.2699999809265137,2.490000009536743,6900.0,2.490000009536743
2017-11-02,6.135000228881836,5.925000190734863,6.135000228881836,6.099999904632568,6600.0,6.099999904632568
2017-11-03,6.25,5.800000190734863,5.925000190734863,6.25,8800.0,6.25
2017-11-06,6.300000190734863,6.0,6.300000190734863,6.125,7400.0,6.125
2017-11-07,2.490000009536743,2.319999933242798,2.4600000381469727,2.490000009536743,5300.0,2.490000009536743
2017-11-08,2.4000000953674316,2.299999952316284,2.299999952316284,2.390000104904175,10400.0,2.390000104904175
2017-11-09,2.369999885559082,2.3499999046325684,2.369999885559082,2.3499999046325684,1600.0,2.3499999046325684
2017-11-10,2.3499999046325684,2.259999990463257,2.259999990463257,2.3499999046325684,2200.0,2.3499999046325684
2017-11-13,2.4260001182556152,2.3499999046325684,2.3499999046325684,2.4260001182556152,2100.0,2.4260001182556152
2017-11-14,2.3499999046325684,2.299999952316284,2.3499999046325684,2.299999952316284,2800.0,2.299999952316284
2017-11-15,2.299999952316284,2.240000009536743,2.299999952316284,2.25,3800.0,2.25
2017-11-16,2.3499999046325684,2.119999885559082,2.2899999618530273,2.25,15900.0,2.25
2017-11-17,2.3499999046325684,2.25,2.25,2.3499999046325684,10600.0,2.3499999046325684
2017-11-20,2.3499999046325684,2.200000047683716,2.3499999046325684,2.3450000286102295,5300.0,2.3450000286102295
2017-11-21,2.5,2.4000000953674316,2.4000000953674316,2.4100000858306885,6900.0,2.4100000858306885
2017-11-22,2.5,2.184999942779541,2.5,2.299999952316284,7900.0,2.299999952316284
2017-11-24,2.4000000953674316,2.299999952316284,2.299999952316284,2.299999952316284,4400.0,2.299999952316284
2017-11-27,2.4000000953674316,2.200000047683716,2.299999952316284,2.299999952316284,23100.0,2.299999952316284
2017-11-28,2.200000047683716,2.200000047683716,2.200000047683716,2.200000047683716,2000.0,2.200000047683716
2017-11-29,2.299999952316284,2.2200000286102295,2.299999952316284,2.2899999618530273,3300.0,2.2899999618530273
2017-11-30,2.299999952316284,2.1500000953674316,2.299999952316284,2.299999952316284,10000.0,2.299999952316284
2017-12-01,2.25,2.25,2.25,2.25,3000.0,2.25
2017-12-04,2.299999952316284,2.130000114440918,2.299999952316284,2.130000114440918,3100.0,2.130000114440918
2017-12-05,2.299999952316284,2.140000104904175,2.25,2.299999952316284,12900.0,2.299999952316284
2017-12-06,2.299999952316284,2.130000114440918,2.200000047683716,2.299999952316284,5200.0,2.299999952316284
2017-12-07,2.299999952316284,2.299999952316284,2.299999952316284,2.299999952316284,100.0,2.299999952316284
2017-12-08,2.700000047683716,2.25,2.2899999618530273,2.5,8000.0,2.5
2017-12-11,2.5999999046325684,2.490000009536743,2.5999999046325684,2.490000009536743,2600.0,2.490000009536743
2017-12-12,2.4000000953674316,2.130000114440918,2.4000000953674316,2.390000104904175,10100.0,2.390000104904175
2017-12-13,2.299999952316284,2.1500000953674316,2.299999952316284,2.299999952316284,4000.0,2.299999952316284
2017-12-14,2.319999933242798,2.2899999618530273,2.2899999618530273,2.316999912261963,4300.0,2.316999912261963
2017-12-15,2.319999933242798,2.244999885559082,2.319999933242798,2.319999933242798,3700.0,2.319999933242798
2017-12-18,2.4000000953674316,2.200000047683716,2.25,2.259999990463257,5500.0,2.259999990463257
2017-12-19,2.2200000286102295,2.194999933242798,2.2200000286102295,2.194999933242798,3100.0,2.194999933242798
2017-12-20,2.2200000286102295,2.1500000953674316,2.1500000953674316,2.1600000858306885,10100.0,2.1600000858306885
2017-12-21,2.390000104904175,2.0999999046325684,2.1700000762939453,2.0999999046325684,9400.0,2.0999999046325684
2017-12-22,2.200000047683716,2.140000104904175,2.200000047683716,2.140000104904175,900.0,2.140000104904175
2017-12-26,2.200000047683716,1.8680000305175781,2.1700000762939453,2.1700000762939453,36600.0,2.1700000762939453
2017-12-27,2.1700000762939453,2.0,2.0,2.1700000762939453,9600.0,2.1700000762939453
2017-12-28,2.4000000953674316,2.190000057220459,2.190000057220459,2.319999933242798,6900.0,2.319999933242798
2017-12-29,2.4000000953674316,2.1500000953674316,2.2860000133514404,2.299999952316284,6600.0,2.299999952316284
2018-01-02,2.490000009536743,2.140000104904175,2.299999952316284,2.490000009536743,11600.0,2.490000009536743
2018-01-03,2.3499999046325684,2.25,2.25,2.3499999046325684,3400.0,2.3499999046325684
2018-01-04,2.299999952316284,2.049999952316284,2.299999952316284,2.25,5100.0,2.25
2018-01-05,2.200000047683716,2.1500000953674316,2.1549999713897705,2.1500000953674316,5300.0,2.1500000953674316
2018-01-08,2.3499999046325684,2.1500000953674316,2.200000047683716,2.3499999046325684,3100.0,2.3499999046325684
2018-01-09,2.2899999618530273,2.2799999713897705,2.2799999713897705,2.2899999618530273,4200.0,2.2899999618530273
2018-01-10,2.200000047683716,2.049999952316284,2.1500000953674316,2.200000047683716,7800.0,2.200000047683716
2018-01-11,2.2799999713897705,2.1500000953674316,2.200000047683716,2.200000047683716,8600.0,2.200000047683716
2018-01-12,2.299999952316284,2.200000047683716,2.2200000286102295,2.200000047683716,8600.0,2.200000047683716
2018-01-16,5.625,5.0625,5.375,5.375,3300.0,5.375
2018-01-17,5.25,5.125,5.25,5.25,14500.0,5.25
2018-01-18,5.375,5.324999809265137,5.375,5.324999809265137,4200.0,5.324999809265137
2018-01-19,5.375,4.75,5.375,5.375,33200.0,5.375
2018-01-22,5.722499847412109,5.0,5.199999809265137,5.425000190734863,20500.0,5.425000190734863
2018-01-23,5.400000095367432,5.125,5.400000095367432,5.25,4100.0,5.25
2018-01-24,5.199999809265137,5.125,5.175000190734863,5.125,7900.0,5.125
2018-01-25,5.175000190734863,4.925000190734863,5.125,5.150000095367432,17100.0,5.150000095367432
2018-01-26,5.125,5.0,5.125,5.125,10000.0,5.125
2018-01-29,5.0,5.0,5.0,5.0,2000.0,5.0
2018-01-30,5.0,4.974999904632568,5.0,5.0,15200.0,5.0
2018-01-31,5.125,4.800000190734863,5.0,5.0,7500.0,5.0
2018-02-01,4.925000190734863,4.925000190734863,4.925000190734863,4.925000190734863,500.0,4.925000190734863
2018-02-02,5.125,4.875,4.875,5.0,9400.0,5.0
2018-02-05,5.224999904632568,4.675000190734863,5.125,4.974999904632568,9900.0,4.974999904632568
2018-02-06,4.940000057220459,4.699999809265137,4.699999809265137,4.940000057220459,5200.0,4.940000057220459
2018-02-07,5.0,4.925000190734863,5.0,4.925000190734863,3300.0,4.925000190734863
2018-02-08,4.900000095367432,4.625,4.900000095367432,4.75,9800.0,4.75
2018-02-09,5.0,4.625,4.724999904632568,4.952499866485596,5200.0,4.952499866485596
2018-02-14,4.949999809265137,4.699999809265137,4.949999809265137,4.699999809265137,1300.0,4.699999809265137
2018-02-15,4.960000038146973,4.940000057220459,4.949999809265137,4.940000057220459,700.0,4.940000057220459
2018-02-16,5.0,4.559999942779541,4.559999942779541,5.0,5500.0,5.0
2018-02-20,4.929999828338623,4.789999961853027,4.929999828338623,4.800000190734863,600.0,4.800000190734863
2018-02-21,5.0,4.900000095367432,4.949999809265137,4.900000095367432,3000.0,4.900000095367432
2018-02-22,4.900000095367432,4.900000095367432,4.900000095367432,4.900000095367432,0.0,4.900000095367432
2018-02-26,4.949999809265137,4.409999847412109,4.921000003814697,4.627999782562256,6600.0,4.627999782562256
2018-02-27,4.75,4.349999904632568,4.409999847412109,4.75,2000.0,4.75
2018-02-28,4.75,4.568999767303467,4.75,4.739999771118164,4000.0,4.739999771118164
2018-03-01,4.800000190734863,4.309999942779541,4.349999904632568,4.690000057220459,9300.0,4.690000057220459
2018-03-02,4.8420000076293945,4.5,4.539999961853027,4.704999923706055,900.0,4.704999923706055
2018-03-05,4.849999904632568,4.409999847412109,4.49399995803833,4.739999771118164,4100.0,4.739999771118164
2018-03-06,4.739999771118164,4.699999809265137,4.739999771118164,4.703999996185303,6500.0,4.703999996185303
2018-03-07,4.75,4.550000190734863,4.739999771118164,4.64300012588501,11000.0,4.64300012588501
2018-03-08,4.699999809265137,4.201000213623047,4.599999904632568,4.670000076293945,23100.0,4.670000076293945
2018-03-09,4.650000095367432,4.5,4.599999904632568,4.625,9200.0,4.625
2018-03-12,4.60099983215332,4.270999908447266,4.599999904632568,4.400000095367432,5600.0,4.400000095367432
2018-03-13,4.550000190734863,4.3420000076293945,4.400000095367432,4.409999847412109,8300.0,4.409999847412109
2018-03-14,4.5,4.25,4.5,4.478000164031982,2500.0,4.478000164031982
2018-03-15,4.5,3.950000047683716,4.5,4.25,4400.0,4.25
2018-03-16,4.489999771118164,4.408999919891357,4.449999809265137,4.449999809265137,7500.0,4.449999809265137
2018-03-19,4.449999809265137,4.320000171661377,4.440000057220459,4.336999893188477,2300.0,4.336999893188477
2018-03-20,4.449999809265137,4.349999904632568,4.349999904632568,4.449999809265137,300.0,4.449999809265137
2018-03-21,4.449999809265137,4.25,4.25,4.400000095367432,8500.0,4.400000095367432
2018-03-22,4.400000095367432,4.150000095367432,4.270999908447266,4.369999885559082,11800.0,4.369999885559082
2018-03-23,4.400000095367432,4.150000095367432,4.275000095367432,4.349999904632568,11600.0,4.349999904632568
2018-03-26,4.5,4.400000095367432,4.5,4.400000095367432,2800.0,4.400000095367432
2018-03-27,4.5,4.224999904632568,4.224999904632568,4.427999973297119,15100.0,4.427999973297119
2018-03-28,4.304999828338623,4.2220001220703125,4.250999927520752,4.260000228881836,3900.0,4.260000228881836
2018-03-29,4.235000133514404,4.150000095367432,4.199999809265137,4.175000190734863,5900.0,4.175000190734863
2018-04-02,4.150000095367432,3.700000047683716,4.150000095367432,3.950000047683716,4000.0,3.950000047683716
2018-04-03,3.9189999103546143,3.8529999256134033,3.8529999256134033,3.9189999103546143,1100.0,3.9189999103546143
2018-04-04,3.9200000762939453,3.75,3.9200000762939453,3.750999927520752,5900.0,3.750999927520752
2018-04-05,3.9000000953674316,3.799999952316284,3.9000000953674316,3.8499999046325684,6700.0,3.8499999046325684
2018-04-06,3.9000000953674316,3.7100000381469727,3.8540000915527344,3.7100000381469727,6200.0,3.7100000381469727
2018-04-09,3.7100000381469727,3.569999933242798,3.7100000381469727,3.569999933242798,1400.0,3.569999933242798
2018-04-10,3.549999952316284,3.5399999618530273,3.5399999618530273,3.549999952316284,400.0,3.549999952316284
2018-04-11,3.4700000286102295,3.375999927520752,3.450000047683716,3.4700000286102295,2900.0,3.4700000286102295
2018-04-12,3.3989999294281006,3.3499999046325684,3.3499999046325684,3.3959999084472656,5500.0,3.3959999084472656
2018-04-13,3.390000104904175,3.3499999046325684,3.390000104904175,3.3499999046325684,5900.0,3.3499999046325684
2018-04-16,3.450000047683716,3.441999912261963,3.450000047683716,3.450000047683716,1500.0,3.450000047683716
2018-04-17,3.381999969482422,3.3499999046325684,3.3499999046325684,3.369999885559082,4200.0,3.369999885559082
2018-04-18,3.328000068664551,3.0,3.299999952316284,3.0,4800.0,3.0
2018-04-19,3.369999885559082,2.6700000762939453,3.0,2.76200008392334,15900.0,2.76200008392334
2018-04-20,2.4719998836517334,2.0,2.0,2.4719998836517334,15100.0,2.4719998836517334
2018-04-23,2.5,2.4590001106262207,2.4700000286102295,2.493000030517578,8700.0,2.493000030517578
2018-04-24,2.450000047683716,2.359999895095825,2.359999895095825,2.440000057220459,15100.0,2.440000057220459
2018-04-25,2.4179999828338623,2.3410000801086426,2.3410000801086426,2.4179999828338623,6700.0,2.4179999828338623
2018-04-26,2.4779999256134033,2.2820000648498535,2.369999885559082,2.4779999256134033,4000.0,2.4779999256134033
2018-04-27,2.390000104904175,2.3610000610351562,2.390000104904175,2.369999885559082,1400.0,2.369999885559082
2018-04-30,2.443000078201294,2.240000009536743,2.3499999046325684,2.2850000858306885,5800.0,2.2850000858306885
2018-05-01,2.322999954223633,2.315000057220459,2.315000057220459,2.322999954223633,4000.0,2.322999954223633
2018-05-02,2.265000104904175,2.0299999713897705,2.2219998836517334,2.0840001106262207,12400.0,2.0840001106262207
2018-05-03,4.889999866485596,2.0299999713897705,2.0299999713897705,2.450000047683716,1140800.0,2.450000047683716
2018-05-04,3.24399995803833,2.450000047683716,2.450000047683716,2.7300000190734863,106200.0,2.7300000190734863
2018-05-07,3.2200000286102295,2.75,2.75,3.049999952316284,52400.0,3.049999952316284
2018-05-08,3.065000057220459,2.7699999809265137,3.000999927520752,2.819999933242798,40100.0,2.819999933242798
2018-05-09,2.9049999713897705,2.614000082015991,2.614000082015991,2.8989999294281006,10900.0,2.8989999294281006
2018-05-10,2.9200000762939453,2.6500000953674316,2.819000005722046,2.6670000553131104,24900.0,2.6670000553131104
2018-05-11,2.941999912261963,2.700000047683716,2.7899999618530273,2.799999952316284,55700.0,2.799999952316284
2018-05-14,3.0,2.7699999809265137,3.0,2.7809998989105225,19500.0,2.7809998989105225
2018-05-15,3.1500000953674316,2.799999952316284,2.9010000228881836,2.884999990463257,94700.0,2.884999990463257
2018-05-16,2.934999942779541,2.628999948501587,2.869999885559082,2.75,14500.0,2.75
2018-05-17,2.8540000915527344,2.75,2.799999952316284,2.799999952316284,18300.0,2.799999952316284
2018-05-18,2.989000082015991,2.809000015258789,2.809000015258789,2.950000047683716,17800.0,2.950000047683716
2018-05-21,2.9700000286102295,2.9000000953674316,2.950000047683716,2.924999952316284,8200.0,2.924999952316284
2018-05-22,2.9059998989105225,2.7809998989105225,2.9059998989105225,2.864000082015991,9600.0,2.864000082015991
2018-05-23,2.9600000381469727,2.8499999046325684,2.930000066757202,2.880000114440918,8300.0,2.880000114440918
2018-05-24,2.9100000858306885,2.815999984741211,2.9100000858306885,2.8499999046325684,8800.0,2.8499999046325684
2018-05-25,2.9200000762939453,2.8499999046325684,2.8589999675750732,2.9200000762939453,3000.0,2.9200000762939453
2018-05-29,2.884999990463257,2.6600000858306885,2.869999885559082,2.6600000858306885,2900.0,2.6600000858306885
2018-05-30,2.9000000953674316,2.680000066757202,2.680000066757202,2.880000114440918,8200.0,2.880000114440918
2018-05-31,2.9000000953674316,2.759000062942505,2.799999952316284,2.890000104904175,9600.0,2.890000104904175
2018-06-01,2.890000104904175,2.803999900817871,2.803999900817871,2.890000104904175,4100.0,2.890000104904175
2018-06-04,3.0,2.8440001010894775,3.0,2.8499999046325684,7100.0,2.8499999046325684
2018-06-05,2.9800000190734863,2.700000047683716,2.8499999046325684,2.7899999618530273,6000.0,2.7899999618530273
2018-06-06,2.8499999046325684,2.680000066757202,2.809999942779541,2.8399999141693115,17100.0,2.8399999141693115
2018-06-07,2.890000104904175,2.799999952316284,2.8499999046325684,2.859999895095825,15600.0,2.859999895095825
2018-06-08,3.0,2.819999933242798,2.8350000381469727,2.8499999046325684,28600.0,2.8499999046325684
2018-06-11,3.440000057220459,2.880000114440918,2.950000047683716,3.190000057220459,50700.0,3.190000057220459
2018-06-12,3.7799999713897705,3.200000047683716,3.2100000381469727,3.509999990463257,54800.0,3.509999990463257
2018-06-13,3.7699999809265137,3.450000047683716,3.569999933242798,3.509999990463257,75900.0,3.509999990463257
2018-06-14,3.5799999237060547,3.0999999046325684,3.51200008392334,3.3499999046325684,36100.0,3.3499999046325684
2018-06-15,3.450000047683716,2.5999999046325684,3.3499999046325684,2.799999952316284,20300.0,2.799999952316284
2018-06-18,3.5399999618530273,2.799999952316284,2.799999952316284,2.9000000953674316,13700.0,2.9000000953674316
2018-06-19,3.190000057220459,2.9100000858306885,2.9100000858306885,3.059999942779541,12900.0,3.059999942779541
2018-06-20,3.059999942779541,2.9000000953674316,3.059999942779541,3.0,5200.0,3.0
2018-06-21,3.0399999618530273,2.990000009536743,3.00600004196167,3.0399999618530273,1200.0,3.0399999618530273
2018-06-22,3.009999990463257,2.815999984741211,3.009999990463257,2.9200000762939453,23700.0,2.9200000762939453
2018-06-25,2.890000104904175,2.4600000381469727,2.8510000705718994,2.5999999046325684,19400.0,2.5999999046325684
2018-06-26,2.505000114440918,2.4000000953674316,2.4149999618530273,2.430000066757202,19400.0,2.430000066757202
2018-06-27,2.5850000381469727,2.4579999446868896,2.4579999446868896,2.509999990463257,10400.0,2.509999990463257
2018-06-28,2.569999933242798,2.309999942779541,2.569999933242798,2.309999942779541,3900.0,2.309999942779541
2018-06-29,2.3510000705718994,1.7400000095367432,2.3299999237060547,2.3499999046325684,62200.0,2.3499999046325684
2018-07-02,2.371999979019165,1.9980000257492065,2.200000047683716,2.0,17600.0,2.0
2018-07-03,2.450000047683716,2.049999952316284,2.049999952316284,2.4100000858306885,15400.0,2.4100000858306885
2018-07-05,2.440000057220459,2.130000114440918,2.440000057220459,2.319999933242798,6400.0,2.319999933242798
2018-07-06,2.3299999237060547,2.059999942779541,2.3299999237060547,2.240000009536743,11300.0,2.240000009536743
2018-07-09,2.6570000648498535,2.25,2.25,2.440000057220459,27100.0,2.440000057220459
2018-07-10,2.5999999046325684,2.440999984741211,2.5999999046325684,2.4700000286102295,5000.0,2.4700000286102295
2018-07-11,2.8399999141693115,2.3399999141693115,2.484999895095825,2.7260000705718994,26700.0,2.7260000705718994
2018-07-12,3.430000066757202,2.549999952316284,2.549999952316284,3.0999999046325684,100500.0,3.0999999046325684
2018-07-13,3.299999952316284,2.7799999713897705,3.240000009536743,3.109999895095825,36800.0,3.109999895095825
2018-07-16,3.309999942779541,2.9800000190734863,3.309999942779541,2.9800000190734863,19400.0,2.9800000190734863
2018-07-17,3.1700000762939453,2.694000005722046,3.1700000762939453,2.819999933242798,4900.0,2.819999933242798
2018-07-18,2.990000009536743,2.632999897003174,2.632999897003174,2.990000009536743,6500.0,2.990000009536743
2018-07-19,3.003000020980835,2.809999942779541,2.809999942779541,2.941999912261963,11000.0,2.941999912261963
2018-07-20,3.066999912261963,3.066999912261963,3.066999912261963,3.066999912261963,100.0,3.066999912261963
2018-07-23,3.549999952316284,2.877000093460083,3.549999952316284,3.259999990463257,14800.0,3.259999990463257
2018-07-24,3.6500000953674316,3.0799999237060547,3.390000104904175,3.240000009536743,45200.0,3.240000009536743
2018-07-25,3.4200000762939453,3.0299999713897705,3.109999895095825,3.375,12900.0,3.375
2018-07-26,3.390000104904175,3.049999952316284,3.2300000190734863,3.2100000381469727,12500.0,3.2100000381469727
2018-07-27,3.0999999046325684,2.950000047683716,3.0999999046325684,2.950000047683716,11300.0,2.950000047683716
2018-07-30,2.9839999675750732,2.4200000762939453,2.9600000381469727,2.490000009536743,33600.0,2.490000009536743
2018-07-31,3.069999933242798,2.549999952316284,3.069999933242798,2.7699999809265137,15200.0,2.7699999809265137
2018-08-01,3.0899999141693115,2.5299999713897705,2.890000104904175,2.5299999713897705,25900.0,2.5299999713897705
2018-08-02,2.6700000762939453,2.3499999046325684,2.5399999618530273,2.6700000762939453,15500.0,2.6700000762939453
2018-08-03,2.680000066757202,2.119999885559082,2.680000066757202,2.309999942779541,44000.0,2.309999942779541
2018-08-06,2.430000066757202,2.1989998817443848,2.309999942779541,2.430000066757202,5800.0,2.430000066757202
2018-08-07,2.4200000762939453,2.119999885559082,2.4200000762939453,2.130000114440918,3800.0,2.130000114440918
2018-08-08,2.299999952316284,2.119999885559082,2.25,2.299999952316284,4600.0,2.299999952316284
2018-08-09,2.180000066757202,2.0399999618530273,2.109999895095825,2.180000066757202,46000.0,2.180000066757202
2018-08-10,2.122999906539917,2.059999942779541,2.059999942779541,2.0899999141693115,1600.0,2.0899999141693115
2018-08-13,2.059999942779541,2.0,2.059999942779541,2.0,6900.0,2.0
2018-08-14,2.252000093460083,2.049999952316284,2.049999952316284,2.2290000915527344,6900.0,2.2290000915527344
2018-08-15,2.1500000953674316,2.0,2.1500000953674316,2.059999942779541,5200.0,2.059999942779541
2018-08-16,2.071000099182129,2.059999942779541,2.071000099182129,2.059999942779541,2000.0,2.059999942779541
2018-08-17,2.23799991607666,2.0999999046325684,2.119999885559082,2.190000057220459,6000.0,2.190000057220459
2018-08-20,2.1670000553131104,2.119999885559082,2.130000114440918,2.1670000553131104,1000.0,2.1670000553131104
2018-08-21,2.257999897003174,2.0999999046325684,2.119999885559082,2.0999999046325684,11300.0,2.0999999046325684
2018-08-22,2.2300000190734863,2.187999963760376,2.2179999351501465,2.187999963760376,1900.0,2.187999963760376
2018-08-23,2.609999895095825,2.119999885559082,2.2300000190734863,2.247999906539917,18500.0,2.247999906539917
2018-08-24,2.299999952316284,2.200000047683716,2.240000009536743,2.259999990463257,9900.0,2.259999990463257
2018-08-27,2.5510001182556152,2.240000009536743,2.450000047683716,2.240000009536743,28100.0,2.240000009536743
2018-08-28,2.380000114440918,2.25,2.25,2.380000114440918,14400.0,2.380000114440918
2018-08-29,2.299999952316284,2.200000047683716,2.259999990463257,2.2880001068115234,13400.0,2.2880001068115234
2018-08-30,2.25600004196167,2.190000057220459,2.2200000286102295,2.190000057220459,7700.0,2.190000057220459
2018-08-31,2.200000047683716,1.8700000047683716,2.200000047683716,2.0969998836517334,22600.0,2.0969998836517334
2018-09-04,2.438999891281128,2.0999999046325684,2.438999891281128,2.0999999046325684,5000.0,2.0999999046325684
2018-09-05,2.440000057220459,2.184999942779541,2.197999954223633,2.2699999809265137,7400.0,2.2699999809265137
2018-09-06,2.359999895095825,2.1500000953674316,2.259999990463257,2.180000066757202,14100.0,2.180000066757202
2018-09-07,2.3499999046325684,2.2300000190734863,2.3299999237060547,2.240000009536743,5100.0,2.240000009536743
2018-09-10,2.440000057220459,2.1600000858306885,2.3399999141693115,2.2100000381469727,4700.0,2.2100000381469727
2018-09-11,2.2100000381469727,2.1500000953674316,2.2100000381469727,2.180000066757202,5600.0,2.180000066757202
2018-09-12,2.384000062942505,2.2049999237060547,2.2049999237060547,2.319999933242798,18900.0,2.319999933242798
2018-09-13,2.3499999046325684,2.299999952316284,2.299999952316284,2.299999952316284,112700.0,2.299999952316284
2018-09-14,2.3399999141693115,2.1500000953674316,2.299999952316284,2.1700000762939453,13100.0,2.1700000762939453
2018-09-17,2.2750000953674316,2.25,2.25,2.25,3400.0,2.25
2018-09-18,2.305000066757202,2.010999917984009,2.299999952316284,2.181999921798706,14800.0,2.181999921798706
2018-09-19,2.5850000381469727,2.200000047683716,2.259999990463257,2.2869999408721924,43300.0,2.2869999408721924
2018-09-20,2.619999885559082,2.299999952316284,2.4000000953674316,2.619999885559082,5200.0,2.619999885559082
2018-09-21,2.809999942779541,2.6549999713897705,2.75,2.809999942779541,20500.0,2.809999942779541
2018-09-24,2.950000047683716,2.756999969482422,2.756999969482422,2.8299999237060547,3300.0,2.8299999237060547
2018-09-25,3.0,2.950000047683716,2.950000047683716,2.9800000190734863,6000.0,2.9800000190734863
2018-09-26,3.009000062942505,2.7699999809265137,3.0,2.7699999809265137,33800.0,2.7699999809265137
2018-09-27,2.9739999771118164,2.690000057220459,2.799999952316284,2.8499999046325684,38400.0,2.8499999046325684
2018-09-28,2.5999999046325684,2.1500000953674316,2.5999999046325684,2.1500000953674316,27600.0,2.1500000953674316
2018-10-01,2.309999942779541,2.0999999046325684,2.309999942779541,2.0999999046325684,16300.0,2.0999999046325684
2018-10-02,2.1410000324249268,1.4700000286102295,2.121000051498413,1.9500000476837158,39700.0,1.9500000476837158
2018-10-03,1.9500000476837158,1.850000023841858,1.940999984741211,1.9500000476837158,4600.0,1.9500000476837158
2018-10-04,2.0,1.809999942779541,2.0,1.940000057220459,10900.0,1.940000057220459
2018-10-05,1.8799999952316284,1.7599999904632568,1.8700000047683716,1.8600000143051147,3200.0,1.8600000143051147
2018-10-08,1.8700000047683716,1.690000057220459,1.8700000047683716,1.718999981880188,11500.0,1.718999981880188
2018-10-09,1.7999999523162842,1.690000057220459,1.7999999523162842,1.690000057220459,5400.0,1.690000057220459
2018-10-10,1.7000000476837158,1.5499999523162842,1.690000057220459,1.5800000429153442,14500.0,1.5800000429153442
2018-10-11,1.7400000095367432,1.590000033378601,1.600000023841858,1.7000000476837158,9200.0,1.7000000476837158
2018-10-12,1.7799999713897705,1.7000000476837158,1.7799999713897705,1.7100000381469727,2200.0,1.7100000381469727
2018-10-15,1.7400000095367432,1.7100000381469727,1.7400000095367432,1.7300000190734863,3100.0,1.7300000190734863
2018-10-16,1.8969999551773071,1.5700000524520874,1.5700000524520874,1.75,15300.0,1.75
2018-10-17,1.840000033378601,1.7009999752044678,1.7009999752044678,1.75,25000.0,1.75
2018-10-18,1.7599999904632568,1.7200000286102295,1.7599999904632568,1.7200000286102295,3700.0,1.7200000286102295
2018-10-19,1.75,1.7000000476837158,1.75,1.75,6500.0,1.75
2018-10-22,1.7000000476837158,1.5700000524520874,1.7000000476837158,1.600000023841858,8600.0,1.600000023841858
2018-10-23,1.6399999856948853,1.5700000524520874,1.6100000143051147,1.5700000524520874,14800.0,1.5700000524520874
2018-10-24,1.7300000190734863,1.5700000524520874,1.7300000190734863,1.6100000143051147,5200.0,1.6100000143051147
2018-10-25,1.6399999856948853,1.590000033378601,1.6180000305175781,1.590000033378601,4500.0,1.590000033378601
2018-10-26,1.6200000047683716,1.5,1.5700000524520874,1.5099999904632568,17900.0,1.5099999904632568
2018-10-29,1.5099999904632568,1.3589999675750732,1.5099999904632568,1.3700000047683716,10800.0,1.3700000047683716
2018-10-30,1.3700000047683716,1.2100000381469727,1.3700000047683716,1.350000023841858,17600.0,1.350000023841858
2018-10-31,1.4459999799728394,1.3600000143051147,1.3669999837875366,1.440000057220459,14900.0,1.440000057220459
2018-11-01,1.600000023841858,1.4500000476837158,1.4500000476837158,1.5399999618530273,5600.0,1.5399999618530273
2018-11-02,1.600000023841858,1.399999976158142,1.440000057220459,1.4600000381469727,8300.0,1.4600000381469727
2018-11-05,1.5499999523162842,1.4800000190734863,1.4900000095367432,1.4800000190734863,3700.0,1.4800000190734863
2018-11-06,1.5180000066757202,1.4500000476837158,1.5099999904632568,1.4500000476837158,25000.0,1.4500000476837158
2018-11-07,1.559999942779541,1.4500000476837158,1.4600000381469727,1.4500000476837158,3400.0,1.4500000476837158
2018-11-08,1.4700000286102295,1.350000023841858,1.4600000381469727,1.399999976158142,16700.0,1.399999976158142
2018-11-09,1.399999976158142,1.350000023841858,1.399999976158142,1.350000023841858,7000.0,1.350000023841858
2018-11-12,1.3700000047683716,1.25,1.350000023841858,1.25,9100.0,1.25
2018-11-13,1.3200000524520874,1.2599999904632568,1.2799999713897705,1.2799999713897705,10000.0,1.2799999713897705
2018-11-14,1.350000023841858,1.2899999618530273,1.350000023841858,1.2899999618530273,4700.0,1.2899999618530273
2018-11-15,1.5499999523162842,1.2699999809265137,1.340000033378601,1.4500000476837158,43600.0,1.4500000476837158
2018-11-16,1.4700000286102295,1.3700000047683716,1.4500000476837158,1.440000057220459,10900.0,1.440000057220459
2018-11-19,1.690000057220459,1.3700000047683716,1.3700000047683716,1.5,8700.0,1.5
2018-11-20,1.5,1.350000023841858,1.5,1.4900000095367432,7600.0,1.4900000095367432
2018-11-21,1.4700000286102295,1.350000023841858,1.409999966621399,1.4700000286102295,8200.0,1.4700000286102295
2018-11-23,1.5099999904632568,1.4700000286102295,1.4900000095367432,1.4700000286102295,5500.0,1.4700000286102295
2018-11-26,1.559999942779541,1.4700000286102295,1.559999942779541,1.4700000286102295,1800.0,1.4700000286102295
2018-11-27,1.4700000286102295,1.371999979019165,1.4700000286102295,1.3799999952316284,5100.0,1.3799999952316284
2018-11-28,1.399999976158142,1.350000023841858,1.399999976158142,1.399999976158142,4200.0,1.399999976158142
2018-11-29,1.5,1.350000023841858,1.3700000047683716,1.5,12300.0,1.5
2018-11-30,1.4600000381469727,1.3799999952316284,1.4600000381469727,1.399999976158142,44900.0,1.399999976158142
2018-12-03,1.4199999570846558,1.3799999952316284,1.409999966621399,1.4199999570846558,14400.0,1.4199999570846558
2018-12-04,1.4429999589920044,1.309999942779541,1.4429999589920044,1.3459999561309814,21100.0,1.3459999561309814
2018-12-06,1.6299999952316284,1.3200000524520874,1.5199999809265137,1.4299999475479126,262400.0,1.4299999475479126
2018-12-07,1.531999945640564,1.3700000047683716,1.531999945640564,1.399999976158142,49700.0,1.399999976158142
2018-12-10,1.4500000476837158,1.340000033378601,1.4500000476837158,1.340000033378601,28900.0,1.340000033378601
2018-12-11,1.3550000190734863,1.309999942779541,1.340000033378601,1.309999942779541,19100.0,1.309999942779541
2018-12-12,1.3839999437332153,1.25,1.2999999523162842,1.2599999904632568,13000.0,1.2599999904632568
2018-12-13,1.2599999904632568,1.2000000476837158,1.2599999904632568,1.2300000190734863,11800.0,1.2300000190734863
2018-12-14,1.2999999523162842,1.1799999475479126,1.1799999475479126,1.2899999618530273,24300.0,1.2899999618530273
2018-12-17,1.3700000047683716,1.2000000476837158,1.2200000286102295,1.2999999523162842,37100.0,1.2999999523162842
2018-12-18,1.2999999523162842,1.25,1.2999999523162842,1.25,17300.0,1.25
2018-12-19,1.3200000524520874,1.25,1.309999942779541,1.2699999809265137,67300.0,1.2699999809265137
2018-12-20,1.25,1.0,1.25,1.1299999952316284,86800.0,1.1299999952316284
2018-12-21,1.1399999856948853,1.059999942779541,1.1299999952316284,1.100000023841858,26000.0,1.100000023841858
2018-12-24,1.1200000047683716,0.9549999833106995,1.0399999618530273,1.0099999904632568,43100.0,1.0099999904632568
2018-12-26,1.2899999618530273,0.9100000262260437,1.0099999904632568,0.9200000166893005,94100.0,0.9200000166893005
2018-12-27,1.149999976158142,0.8500000238418579,0.9200000166893005,0.8500000238418579,86400.0,0.8500000238418579
2018-12-28,1.3040000200271606,0.8519999980926514,0.8999999761581421,1.2000000476837158,83500.0,1.2000000476837158
2018-12-31,1.2599999904632568,1.0399999618530273,1.2599999904632568,1.2000000476837158,10900.0,1.2000000476837158
2019-01-02,1.3700000047683716,1.2259999513626099,1.2259999513626099,1.3700000047683716,900.0,1.3700000047683716
2019-01-03,1.4900000095367432,1.3309999704360962,1.350000023841858,1.4900000095367432,7900.0,1.4900000095367432
2019-01-04,1.600000023841858,1.399999976158142,1.5,1.5800000429153442,20100.0,1.5800000429153442
2019-01-07,1.625,1.5299999713897705,1.600000023841858,1.5729999542236328,15500.0,1.5729999542236328
2019-01-08,1.7999999523162842,1.6299999952316284,1.6480000019073486,1.7589999437332153,11700.0,1.7589999437332153
2019-01-09,1.8949999809265137,1.7999999523162842,1.8300000429153442,1.7999999523162842,6700.0,1.7999999523162842
2019-01-10,2.135999917984009,1.850000023841858,1.850000023841858,1.9900000095367432,10800.0,1.9900000095367432
2019-01-11,2.194000005722046,2.009999990463257,2.194000005722046,2.069999933242798,29000.0,2.069999933242798
2019-01-14,2.200000047683716,2.0999999046325684,2.1510000228881836,2.188999891281128,22300.0,2.188999891281128
2019-01-15,2.5,2.1489999294281006,2.25,2.430000066757202,56500.0,2.430000066757202
2019-01-16,2.5799999237060547,2.450000047683716,2.5,2.5799999237060547,31800.0,2.5799999237060547
2019-01-17,2.8499999046325684,2.5810000896453857,2.6500000953674316,2.609999895095825,97000.0,2.609999895095825
2019-01-18,2.8499999046325684,2.6500000953674316,2.759999990463257,2.700000047683716,36500.0,2.700000047683716
2019-01-22,2.700000047683716,2.509999990463257,2.700000047683716,2.549999952316284,11200.0,2.549999952316284
2019-01-23,2.6059999465942383,2.4119999408721924,2.6059999465942383,2.4800000190734863,26500.0,2.4800000190734863
2019-01-24,2.6500000953674316,2.2709999084472656,2.6500000953674316,2.4600000381469727,15900.0,2.4600000381469727
2019-01-25,2.490000009536743,2.2799999713897705,2.4600000381469727,2.315000057220459,13600.0,2.315000057220459
2019-01-28,2.5399999618530273,2.369999885559082,2.4000000953674316,2.450000047683716,23700.0,2.450000047683716
2019-01-29,2.4100000858306885,2.319999933242798,2.4000000953674316,2.3499999046325684,22400.0,2.3499999046325684
2019-01-30,2.4000000953674316,2.2300000190734863,2.4000000953674316,2.2300000190734863,15300.0,2.2300000190734863
2019-01-31,2.2890000343322754,2.239000082015991,2.2699999809265137,2.2699999809265137,31500.0,2.2699999809265137
2019-02-01,2.388000011444092,2.299999952316284,2.319999933242798,2.299999952316284,98000.0,2.299999952316284
2019-02-04,2.5,2.25,2.359999895095825,2.5,24500.0,2.5
2019-02-05,2.4790000915527344,2.1500000953674316,2.4200000762939453,2.1500000953674316,29600.0,2.1500000953674316
2019-02-06,2.240000009536743,2.200000047683716,2.200000047683716,2.2100000381469727,6600.0,2.2100000381469727
2019-02-07,2.2790000438690186,2.2200000286102295,2.259999990463257,2.2750000953674316,7000.0,2.2750000953674316
2019-02-08,2.390000104904175,2.259999990463257,2.299999952316284,2.309999942779541,43100.0,2.309999942779541
2019-02-11,2.3299999237060547,2.260999917984009,2.319999933242798,2.299999952316284,16600.0,2.299999952316284
2019-02-12,2.5299999713897705,2.359999895095825,2.359999895095825,2.5299999713897705,21900.0,2.5299999713897705
2019-02-13,2.609999895095825,2.4630000591278076,2.5290000438690186,2.502000093460083,26600.0,2.502000093460083
2019-02-14,2.559999942779541,2.4110000133514404,2.450000047683716,2.509999990463257,11300.0,2.509999990463257
2019-02-15,2.6600000858306885,2.509999990463257,2.5999999046325684,2.5299999713897705,12200.0,2.5299999713897705
2019-02-19,2.6700000762939453,2.5390000343322754,2.558000087738037,2.559999942779541,28800.0,2.559999942779541
2019-02-20,2.5880000591278076,2.549999952316284,2.559999942779541,2.549999952316284,20800.0,2.549999952316284
2019-02-21,2.569999933242798,2.5,2.569999933242798,2.5,15000.0,2.5
2019-02-22,2.566999912261963,2.3580000400543213,2.566999912261963,2.4100000858306885,16200.0,2.4100000858306885
2019-02-25,2.5290000438690186,2.4600000381469727,2.4600000381469727,2.5,1200.0,2.5
2019-02-26,2.5179998874664307,2.4000000953674316,2.4119999408721924,2.4000000953674316,4500.0,2.4000000953674316
2019-02-27,2.5299999713897705,2.4200000762939453,2.440000057220459,2.4200000762939453,6900.0,2.4200000762939453
2019-02-28,2.4800000190734863,2.427000045776367,2.427000045776367,2.4800000190734863,18100.0,2.4800000190734863
2019-03-01,2.4660000801086426,2.369999885559082,2.4660000801086426,2.369999885559082,11900.0,2.369999885559082
2019-03-04,2.365000009536743,2.244999885559082,2.365000009536743,2.2699999809265137,5400.0,2.2699999809265137
2019-03-05,2.309999942779541,2.2200000286102295,2.309999942779541,2.25,9900.0,2.25
2019-03-06,2.5,2.2690000534057617,2.2899999618530273,2.5,40400.0,2.5
2019-03-07,2.5,2.4019999504089355,2.450000047683716,2.431999921798706,10100.0,2.431999921798706
2019-03-08,2.5,2.4100000858306885,2.4800000190734863,2.5,26100.0,2.5
2019-03-11,2.5999999046325684,2.390000104904175,2.5,2.3929998874664307,21100.0,2.3929998874664307
2019-03-12,2.5989999771118164,2.4200000762939453,2.440000057220459,2.4200000762939453,12000.0,2.4200000762939453
2019-03-13,2.5999999046325684,2.4100000858306885,2.427999973297119,2.5899999141693115,27000.0,2.5899999141693115
2019-03-14,2.6600000858306885,2.430000066757202,2.5999999046325684,2.5199999809265137,24100.0,2.5199999809265137
2019-03-15,2.5,2.4019999504089355,2.493000030517578,2.4100000858306885,14000.0,2.4100000858306885
2019-03-18,2.5,2.2699999809265137,2.4600000381469727,2.5,12000.0,2.5
2019-03-19,2.5,2.299999952316284,2.490000009536743,2.3499999046325684,22900.0,2.3499999046325684
2019-03-20,2.440000057220459,2.309999942779541,2.4100000858306885,2.3399999141693115,17700.0,2.3399999141693115
2019-03-21,2.378000020980835,2.140000104904175,2.365000009536743,2.200000047683716,50100.0,2.200000047683716
2019-03-22,2.25,2.0999999046325684,2.200000047683716,2.180000066757202,25400.0,2.180000066757202
2019-03-25,2.190000057220459,1.899999976158142,2.1500000953674316,1.930999994277954,17600.0,1.930999994277954
2019-03-26,2.0199999809265137,1.850000023841858,1.9910000562667847,2.0,22100.0,2.0
2019-03-27,2.069000005722046,1.9199999570846558,2.069000005722046,1.9299999475479126,13900.0,1.9299999475479126
2019-03-28,2.0199999809265137,1.9600000381469727,1.9900000095367432,2.0,17200.0,2.0
2019-03-29,2.0799999237060547,1.9500000476837158,2.0799999237060547,2.0299999713897705,32000.0,2.0299999713897705
2019-04-01,2.049999952316284,1.9199999570846558,1.9800000190734863,2.049999952316284,11100.0,2.049999952316284
2019-04-02,2.049999952316284,1.899999976158142,2.049999952316284,1.9800000190734863,18900.0,1.9800000190734863
2019-04-03,2.0299999713897705,1.906999945640564,1.9190000295639038,2.0299999713897705,31600.0,2.0299999713897705
2019-04-04,2.0199999809265137,1.899999976158142,1.899999976158142,2.0,4500.0,2.0
2019-04-05,2.015000104904175,1.9700000286102295,2.015000104904175,1.9850000143051147,7200.0,1.9850000143051147
2019-04-08,1.9800000190734863,1.840000033378601,1.9800000190734863,1.899999976158142,12900.0,1.899999976158142
2019-04-09,1.9789999723434448,1.9010000228881836,1.9789999723434448,1.909999966621399,3400.0,1.909999966621399
2019-04-10,1.899999976158142,1.7999999523162842,1.899999976158142,1.899999976158142,4600.0,1.899999976158142
2019-04-11,1.899999976158142,1.840000033378601,1.840000033378601,1.899999976158142,2000.0,1.899999976158142
2019-04-12,1.899999976158142,1.840000033378601,1.840000033378601,1.8910000324249268,3600.0,1.8910000324249268
2019-04-15,2.200000047683716,1.899999976158142,1.899999976158142,2.0999999046325684,69800.0,2.0999999046325684
2019-04-16,2.3399999141693115,2.130000114440918,2.200000047683716,2.309999942779541,11600.0,2.309999942779541
2019-04-17,2.5,2.3310000896453857,2.5,2.430000066757202,24200.0,2.430000066757202
2019-04-18,2.497999906539917,2.4719998836517334,2.497999906539917,2.4800000190734863,9100.0,2.4800000190734863
2019-04-22,2.680000066757202,2.440000057220459,2.490000009536743,2.680000066757202,75200.0,2.680000066757202
2019-04-23,2.7320001125335693,2.559999942779541,2.6500000953674316,2.6500000953674316,78700.0,2.6500000953674316
2019-04-24,2.753000020980835,2.4700000286102295,2.753000020980835,2.5,21000.0,2.5
2019-04-25,1.9900000095367432,1.909999966621399,1.9500000476837158,1.940000057220459,400200.0,1.940000057220459
2019-04-26,2.0,1.940000057220459,2.0,1.9600000381469727,70300.0,1.9600000381469727
2019-04-29,2.255000114440918,1.9249999523162842,1.9500000476837158,2.049999952316284,239200.0,2.049999952316284
2019-04-30,2.4000000953674316,2.052999973297119,2.069999933242798,2.4000000953674316,103500.0,2.4000000953674316
2019-05-01,2.809999942779541,2.4000000953674316,2.430000066757202,2.5999999046325684,77900.0,2.5999999046325684
2019-05-02,2.950000047683716,2.5299999713897705,2.75,2.5999999046325684,35800.0,2.5999999046325684
2019-05-03,3.134999990463257,2.562999963760376,2.562999963760376,2.996999979019165,52200.0,2.996999979019165
2019-05-06,3.4200000762939453,3.0299999713897705,3.0799999237060547,3.3399999141693115,77500.0,3.3399999141693115
2019-05-07,3.4800000190734863,3.1700000762939453,3.359999895095825,3.380000114440918,59000.0,3.380000114440918
2019-05-08,3.5899999141693115,3.299999952316284,3.4000000953674316,3.380000114440918,65300.0,3.380000114440918
2019-05-09,3.6530001163482666,3.2799999713897705,3.4700000286102295,3.427999973297119,36200.0,3.427999973297119
2019-05-10,3.549999952316284,3.25,3.5,3.2699999809265137,30300.0,3.2699999809265137
2019-05-13,3.490000009536743,3.0999999046325684,3.299999952316284,3.3399999141693115,23600.0,3.3399999141693115
2019-05-14,3.6500000953674316,3.247999906539917,3.247999906539917,3.609999895095825,112700.0,3.609999895095825
2019-05-15,3.7100000381469727,3.3499999046325684,3.5799999237060547,3.369999885559082,52700.0,3.369999885559082
2019-05-16,3.2739999294281006,3.1500000953674316,3.196000099182129,3.2200000286102295,21600.0,3.2200000286102295
2019-05-17,3.25,2.859999895095825,3.1600000858306885,3.0399999618530273,15000.0,3.0399999618530273
2019-05-20,3.0889999866485596,2.9539999961853027,2.9539999961853027,3.0889999866485596,300.0,3.0889999866485596
2019-05-21,3.4200000762939453,2.859999895095825,2.859999895095825,3.299999952316284,33400.0,3.299999952316284
2019-05-22,3.309999942779541,3.0880000591278076,3.309999942779541,3.259999990463257,14600.0,3.259999990463257
2019-05-23,3.2699999809265137,3.200000047683716,3.2219998836517334,3.2100000381469727,11500.0,3.2100000381469727
2019-05-24,3.200000047683716,2.943000078201294,3.200000047683716,3.0,21200.0,3.0
