Date,High,Low,Open,Close,Volume,Adj Close
2016-10-07,9.989999771118164,8.0,9.100000381469727,8.020000457763672,1793700,8.020000457763672
2016-10-10,8.376999855041504,8.0,8.0,8.0,267600,8.0
2016-10-11,8.140000343322754,7.449999809265137,8.0,7.5,282400,7.5
2016-10-12,7.590000152587891,7.5,7.5,7.5,99000,7.5
2016-10-13,7.627999782562256,6.150000095367432,7.5,6.78000020980835,145400,6.78000020980835
2016-10-14,6.800000190734863,6.28000020980835,6.579999923706055,6.5,115300,6.5
2016-10-17,6.690000057220459,6.25,6.650000095367432,6.690000057220459,162200,6.690000057220459
2016-10-18,6.75,6.400000095367432,6.75,6.619999885559082,82100,6.619999885559082
2016-10-19,6.75,6.400000095367432,6.75,6.559999942779541,22000,6.559999942779541
2016-10-20,6.679999828338623,6.409999847412109,6.409999847412109,6.610000133514404,49400,6.610000133514404
2016-10-21,6.650000095367432,6.449999809265137,6.510000228881836,6.5,90500,6.5
2016-10-24,6.590000152587891,6.429999828338623,6.539999961853027,6.460000038146973,19100,6.460000038146973
2016-10-25,6.692999839782715,6.25,6.460000038146973,6.329999923706055,57100,6.329999923706055
2016-10-26,7.360000133514404,6.260000228881836,6.289999961853027,7.360000133514404,98000,7.360000133514404
2016-10-27,7.650000095367432,6.860000133514404,7.300000190734863,7.5,275300,7.5
2016-10-28,7.519999980926514,6.590000152587891,7.510000228881836,6.820000171661377,55300,6.820000171661377
2016-10-31,6.900000095367432,6.590000152587891,6.880000114440918,6.659999847412109,39600,6.659999847412109
2016-11-01,7.300000190734863,6.400000095367432,6.400000095367432,7.25,19000,7.25
2016-11-02,7.420000076293945,6.75,7.420000076293945,6.980000019073486,54100,6.980000019073486
2016-11-03,7.199999809265137,6.449999809265137,7.199999809265137,6.590000152587891,68400,6.590000152587891
2016-11-04,7.0,6.46999979019165,6.929999828338623,6.869999885559082,44300,6.869999885559082
2016-11-07,7.25,6.75,7.25,6.840000152587891,24000,6.840000152587891
2016-11-08,7.190000057220459,6.75,6.869999885559082,7.039999961853027,19300,7.039999961853027
2016-11-09,7.25,6.900000095367432,6.980000019073486,6.920000076293945,13200,6.920000076293945
2016-11-10,7.25,6.900000095367432,7.25,7.03000020980835,9600,7.03000020980835
2016-11-11,7.0,6.800000190734863,7.0,6.800000190734863,9700,6.800000190734863
2016-11-14,7.164999961853027,6.771999835968018,6.800000190734863,6.929999828338623,36100,6.929999828338623
2016-11-15,7.599999904632568,6.809999942779541,7.489999771118164,6.909999847412109,33900,6.909999847412109
2016-11-16,7.5279998779296875,6.949999809265137,7.199999809265137,6.960000038146973,17600,6.960000038146973
2016-11-17,7.039999961853027,6.860000133514404,7.039999961853027,6.860000133514404,22800,6.860000133514404
2016-11-18,7.480000019073486,6.800000190734863,7.480000019073486,7.199999809265137,30800,7.199999809265137
2016-11-21,7.21999979019165,7.0,7.190000057220459,7.21999979019165,36600,7.21999979019165
2016-11-22,7.25,7.150000095367432,7.199999809265137,7.230000019073486,27000,7.230000019073486
2016-11-23,7.28000020980835,6.900000095367432,7.28000020980835,7.070000171661377,136900,7.070000171661377
2016-11-25,7.289999961853027,7.070000171661377,7.070000171661377,7.289999961853027,9500,7.289999961853027
2016-11-28,7.239999771118164,7.0,7.170000076293945,7.230000019073486,18400,7.230000019073486
2016-11-29,7.329999923706055,7.150000095367432,7.170000076293945,7.329999923706055,21100,7.329999923706055
2016-11-30,7.400000095367432,7.199999809265137,7.28000020980835,7.340000152587891,8300,7.340000152587891
2016-12-01,7.590000152587891,7.300000190734863,7.349999904632568,7.5,22900,7.5
2016-12-02,7.5,7.210000038146973,7.5,7.369999885559082,28200,7.369999885559082
2016-12-05,7.639999866485596,7.170000076293945,7.440000057220459,7.389999866485596,42100,7.389999866485596
2016-12-06,7.449999809265137,7.21999979019165,7.449999809265137,7.300000190734863,100700,7.300000190734863
2016-12-07,7.5,7.28000020980835,7.28000020980835,7.349999904632568,29000,7.349999904632568
2016-12-08,7.480000019073486,7.25,7.349999904632568,7.349999904632568,30800,7.349999904632568
2016-12-09,7.349999904632568,7.199999809265137,7.349999904632568,7.340000152587891,21100,7.340000152587891
2016-12-12,7.738999843597412,7.340000152587891,7.340000152587891,7.440000057220459,96700,7.440000057220459
2016-12-13,7.449999809265137,7.360000133514404,7.449999809265137,7.440000057220459,44300,7.440000057220459
2016-12-14,7.414999961853027,7.150000095367432,7.389999866485596,7.25,26700,7.25
2016-12-15,7.440000057220459,7.150000095367432,7.400000095367432,7.170000076293945,26700,7.170000076293945
2016-12-16,7.434999942779541,6.630000114440918,7.199999809265137,6.630000114440918,158100,6.630000114440918
2016-12-19,7.135000228881836,6.769999980926514,6.769999980926514,6.909999847412109,38500,6.909999847412109
2016-12-20,7.234000205993652,6.940000057220459,6.940000057220459,7.090000152587891,74600,7.090000152587891
2016-12-21,7.340000152587891,7.059999942779541,7.119999885559082,7.070000171661377,71400,7.070000171661377
2016-12-22,7.349999904632568,7.070000171661377,7.070000171661377,7.349999904632568,74000,7.349999904632568
2016-12-23,7.449999809265137,7.1539998054504395,7.360000133514404,7.329999923706055,23500,7.329999923706055
2016-12-27,7.340000152587891,7.130000114440918,7.340000152587891,7.289999961853027,14800,7.289999961853027
2016-12-28,7.5,7.28000020980835,7.5,7.28000020980835,28000,7.28000020980835
2016-12-29,7.400000095367432,7.309999942779541,7.400000095367432,7.380000114440918,115500,7.380000114440918
2016-12-30,8.300000190734863,7.340000152587891,7.5,8.289999961853027,67700,8.289999961853027
2017-01-03,8.260000228881836,7.599999904632568,8.260000228881836,7.630000114440918,20700,7.630000114440918
2017-01-04,7.939000129699707,7.300000190734863,7.650000095367432,7.610000133514404,14900,7.610000133514404
2017-01-05,8.239999771118164,7.449999809265137,7.46999979019165,7.579999923706055,10100,7.579999923706055
2017-01-06,8.189000129699707,7.639999866485596,7.730000019073486,7.659999847412109,102400,7.659999847412109
2017-01-09,8.039999961853027,7.710000038146973,7.710000038146973,8.0,3500,8.0
2017-01-10,8.079999923706055,7.769999980926514,8.020000457763672,7.775000095367432,5400,7.775000095367432
2017-01-11,8.489999771118164,8.0,8.199999809265137,8.40999984741211,52300,8.40999984741211
2017-01-12,8.600000381469727,8.029999732971191,8.600000381469727,8.029999732971191,29000,8.029999732971191
2017-01-13,8.41100025177002,8.039999961853027,8.050000190734863,8.050000190734863,29300,8.050000190734863
2017-01-17,8.204999923706055,8.029999732971191,8.029999732971191,8.109999656677246,35300,8.109999656677246
2017-01-18,8.399999618530273,8.244000434875488,8.329999923706055,8.260000228881836,18300,8.260000228881836
2017-01-19,8.5,8.220000267028809,8.470000267028809,8.239999771118164,32700,8.239999771118164
2017-01-20,8.319999694824219,8.032999992370605,8.293999671936035,8.319999694824219,23000,8.319999694824219
2017-01-23,8.319999694824219,8.0,8.319999694824219,8.25,20200,8.25
2017-01-24,8.300000190734863,7.909999847412109,8.260000228881836,8.029999732971191,31000,8.029999732971191
2017-01-25,8.319999694824219,8.029999732971191,8.029999732971191,8.180000305175781,31700,8.180000305175781
2017-01-26,8.260000228881836,8.14900016784668,8.149999618530273,8.260000228881836,33200,8.260000228881836
2017-01-27,8.4399995803833,8.210000038146973,8.430000305175781,8.239999771118164,10300,8.239999771118164
2017-01-30,8.489999771118164,8.199999809265137,8.229999542236328,8.239999771118164,10400,8.239999771118164
2017-01-31,8.449999809265137,8.010000228881836,8.449999809265137,8.109999656677246,16000,8.109999656677246
2017-02-01,8.100000381469727,7.949999809265137,8.100000381469727,7.989999771118164,23700,7.989999771118164
2017-02-02,8.010000228881836,7.860000133514404,7.860000133514404,7.96999979019165,24900,7.96999979019165
2017-02-03,8.119999885559082,7.949999809265137,8.100000381469727,8.050000190734863,21900,8.050000190734863
2017-02-06,8.100000381469727,7.940000057220459,7.989999771118164,8.010000228881836,5600,8.010000228881836
2017-02-07,8.079999923706055,8.0,8.079999923706055,8.0,7800,8.0
2017-02-08,8.0,7.900000095367432,7.929999828338623,7.920000076293945,40600,7.920000076293945
2017-02-09,7.986000061035156,7.7829999923706055,7.980000019073486,7.849999904632568,18600,7.849999904632568
2017-02-10,8.020000457763672,7.849999904632568,7.849999904632568,7.989999771118164,3900,7.989999771118164
2017-02-13,7.989999771118164,7.949999809265137,7.949999809265137,7.949999809265137,2000,7.949999809265137
2017-02-14,8.710000038146973,7.949999809265137,7.949999809265137,8.699999809265137,114300,8.699999809265137
2017-02-15,9.430000305175781,8.699999809265137,9.25,9.09000015258789,276600,9.09000015258789
2017-02-16,9.380000114440918,8.819999694824219,9.180000305175781,9.039999961853027,42200,9.039999961853027
2017-02-17,9.470000267028809,9.024999618530273,9.039999961853027,9.329999923706055,52900,9.329999923706055
2017-02-21,10.0,9.413000106811523,9.4399995803833,9.989999771118164,120900,9.989999771118164
2017-02-22,10.15999984741211,9.899999618530273,10.079999923706055,10.130000114440918,64300,10.130000114440918
2017-02-23,10.220000267028809,9.760000228881836,10.220000267028809,9.90999984741211,41300,9.90999984741211
2017-02-24,10.149999618530273,9.510000228881836,9.880000114440918,10.149999618530273,37900,10.149999618530273
2017-02-27,10.1899995803833,9.789999961853027,10.1899995803833,9.869999885559082,17000,9.869999885559082
2017-02-28,10.25,9.699999809265137,9.826000213623047,10.029999732971191,47600,10.029999732971191
2017-03-01,10.277999877929688,9.59000015258789,10.050000190734863,9.779999732971191,48100,9.779999732971191
2017-03-02,10.050000190734863,9.756999969482422,9.920000076293945,10.029999732971191,32100,10.029999732971191
2017-03-03,9.970000267028809,8.949999809265137,9.970000267028809,9.010000228881836,79400,9.010000228881836
2017-03-06,9.411999702453613,8.970000267028809,8.989999771118164,8.989999771118164,13500,8.989999771118164
2017-03-07,9.050000190734863,8.90999984741211,8.949999809265137,9.0,22600,9.0
2017-03-08,9.010000228881836,8.880000114440918,8.949999809265137,8.949999809265137,12800,8.949999809265137
2017-03-09,8.960000038146973,8.729999542236328,8.899999618530273,8.789999961853027,22300,8.789999961853027
2017-03-10,8.824999809265137,8.25,8.75,8.510000228881836,86800,8.510000228881836
2017-03-13,8.579999923706055,8.380000114440918,8.579999923706055,8.5,34000,8.5
2017-03-14,8.609999656677246,8.289999961853027,8.420000076293945,8.300000190734863,28300,8.300000190734863
2017-03-15,8.36400032043457,7.559999942779541,8.319999694824219,7.559999942779541,42700,7.559999942779541
2017-03-16,8.07800006866455,7.489999771118164,7.5,8.039999961853027,34800,8.039999961853027
2017-03-17,8.380000114440918,8.010000228881836,8.15999984741211,8.09000015258789,29400,8.09000015258789
2017-03-20,8.399999618530273,8.0,8.210000038146973,8.029999732971191,31800,8.029999732971191
2017-03-21,8.199999809265137,7.5,7.96999979019165,7.5,32300,7.5
2017-03-22,8.079000473022461,7.519999980926514,7.519999980926514,7.730000019073486,53400,7.730000019073486
2017-03-23,8.020000457763672,7.0,7.690000057220459,7.800000190734863,57300,7.800000190734863
2017-03-24,7.960000038146973,7.590000152587891,7.869999885559082,7.880000114440918,15800,7.880000114440918
2017-03-27,8.0600004196167,7.610000133514404,7.809999942779541,7.650000095367432,24800,7.650000095367432
2017-03-28,7.949999809265137,7.46999979019165,7.46999979019165,7.699999809265137,23700,7.699999809265137
2017-03-29,7.849999904632568,7.5,7.5,7.820000171661377,18100,7.820000171661377
2017-03-30,8.050000190734863,7.736999988555908,7.769999980926514,7.929999828338623,122500,7.929999828338623
2017-03-31,8.930000305175781,7.958000183105469,7.980000019073486,8.380000114440918,135900,8.380000114440918
2017-04-03,8.75,8.149999618530273,8.319999694824219,8.3100004196167,54500,8.3100004196167
2017-04-04,8.5,8.149999618530273,8.347999572753906,8.149999618530273,68300,8.149999618530273
2017-04-05,8.600000381469727,7.800000190734863,8.600000381469727,7.949999809265137,37900,7.949999809265137
2017-04-06,8.899999618530273,7.900000095367432,8.020000457763672,8.890000343322754,54600,8.890000343322754
2017-04-07,9.210000038146973,8.5,9.210000038146973,8.699999809265137,41700,8.699999809265137
2017-04-10,8.920000076293945,8.5,8.890000343322754,8.5,7900,8.5
2017-04-11,8.899999618530273,8.119999885559082,8.484000205993652,8.380000114440918,8200,8.380000114440918
2017-04-12,8.779999732971191,8.289999961853027,8.380000114440918,8.59000015258789,14700,8.59000015258789
2017-04-13,8.694999694824219,8.350000381469727,8.65999984741211,8.460000038146973,6100,8.460000038146973
2017-04-17,8.779999732971191,8.402999877929688,8.59000015258789,8.741000175476074,8200,8.741000175476074
2017-04-18,8.859999656677246,8.656000137329102,8.699999809265137,8.680000305175781,31400,8.680000305175781
2017-04-19,9.220000267028809,8.680000305175781,8.680000305175781,9.15999984741211,67000,9.15999984741211
2017-04-20,9.319999694824219,9.100000381469727,9.222999572753906,9.270000457763672,52700,9.270000457763672
2017-04-21,9.399999618530273,8.819999694824219,9.369999885559082,9.149999618530273,40400,9.149999618530273
2017-04-24,9.350000381469727,8.979999542236328,9.220000267028809,9.289999961853027,79800,9.289999961853027
2017-04-25,9.729999542236328,9.020000457763672,9.390000343322754,9.40999984741211,74500,9.40999984741211
2017-04-26,9.739999771118164,9.350000381469727,9.640000343322754,9.739999771118164,34500,9.739999771118164
2017-04-27,9.979999542236328,9.270000457763672,9.979999542236328,9.300000190734863,36100,9.300000190734863
2017-04-28,10.0,9.3100004196167,9.420000076293945,10.0,28800,10.0
2017-05-01,10.100000381469727,9.760000228881836,10.0,10.020000457763672,105600,10.020000457763672
2017-05-02,10.0600004196167,9.399999618530273,10.050000190734863,9.630000114440918,49700,9.630000114440918
2017-05-03,9.600000381469727,8.868000030517578,9.600000381469727,9.34000015258789,15000,9.34000015258789
2017-05-04,9.350000381469727,8.880000114440918,8.880000114440918,9.3100004196167,16000,9.3100004196167
2017-05-05,9.25,9.100000381469727,9.25,9.210000038146973,5000,9.210000038146973
2017-05-08,9.4399995803833,9.130999565124512,9.289999961853027,9.4399995803833,7900,9.4399995803833
2017-05-09,9.585000038146973,9.229999542236328,9.300000190734863,9.5,22900,9.5
2017-05-10,9.586000442504883,9.399999618530273,9.420000076293945,9.399999618530273,10400,9.399999618530273
2017-05-11,9.711999893188477,9.109999656677246,9.430000305175781,9.109999656677246,41600,9.109999656677246
2017-05-12,10.199999809265137,9.020000457763672,9.020000457763672,10.0600004196167,93800,10.0600004196167
2017-05-15,10.614999771118164,9.880000114440918,10.0,10.15999984741211,51100,10.15999984741211
2017-05-16,10.289999961853027,9.609999656677246,10.25,10.289999961853027,47500,10.289999961853027
2017-05-17,9.75,9.029999732971191,9.6899995803833,9.34000015258789,82400,9.34000015258789
2017-05-18,9.989999771118164,9.100000381469727,9.289999961853027,9.850000381469727,60700,9.850000381469727
2017-05-19,9.899999618530273,9.390000343322754,9.800000190734863,9.899999618530273,24900,9.899999618530273
2017-05-22,12.0,10.130000114440918,10.140000343322754,11.079999923706055,628200,11.079999923706055
2017-05-23,12.699999809265137,11.489999771118164,11.899999618530273,12.489999771118164,432800,12.489999771118164
2017-05-24,13.741000175476074,12.5,12.5,13.199999809265137,314100,13.199999809265137
2017-05-25,13.649999618530273,11.640000343322754,13.5,12.970000267028809,292700,12.970000267028809
2017-05-26,13.104000091552734,12.550000190734863,13.0,13.020000457763672,90700,13.020000457763672
2017-05-30,14.75,12.75,13.15999984741211,14.569999694824219,265400,14.569999694824219
2017-05-31,18.479999542236328,15.010000228881836,15.149999618530273,17.979999542236328,737600,17.979999542236328
2017-06-01,20.5,17.31999969482422,18.5,17.850000381469727,736100,17.850000381469727
2017-06-02,17.600000381469727,15.050000190734863,17.450000762939453,16.639999389648438,540400,16.639999389648438
2017-06-05,17.149999618530273,15.65999984741211,17.149999618530273,16.31999969482422,308700,16.31999969482422
2017-06-06,16.72599983215332,15.8100004196167,16.350000381469727,15.960000038146973,253000,15.960000038146973
2017-06-07,16.5,15.199999809265137,15.960000038146973,15.329999923706055,322100,15.329999923706055
2017-06-08,18.260000228881836,14.770000457763672,15.199999809265137,18.030000686645508,461300,18.030000686645508
2017-06-09,21.440000534057617,16.549999237060547,18.25,18.219999313354492,627400,18.219999313354492
2017-06-12,19.200000762939453,17.03499984741211,17.860000610351562,17.760000228881836,192000,17.760000228881836
2017-06-13,19.100000381469727,17.6200008392334,17.75,18.59000015258789,226700,18.59000015258789
2017-06-14,19.0,16.770000457763672,19.0,17.739999771118164,150300,17.739999771118164
2017-06-15,18.0,17.010000228881836,17.899999618530273,17.43000030517578,92000,17.43000030517578
2017-06-16,19.0,17.134000778198242,17.700000762939453,18.809999465942383,415500,18.809999465942383
2017-06-19,20.049999237060547,19.01099967956543,19.100000381469727,20.0,441500,20.0
2017-06-20,22.0,19.930999755859375,20.389999389648438,21.899999618530273,442000,21.899999618530273
2017-06-21,22.649999618530273,21.020000457763672,21.700000762939453,22.549999237060547,349500,22.549999237060547
2017-06-22,23.104999542236328,21.34000015258789,22.809999465942383,21.979999542236328,248400,21.979999542236328
2017-06-23,21.84000015258789,19.709999084472656,21.84000015258789,21.3799991607666,282600,21.3799991607666
2017-06-26,22.229000091552734,20.524999618530273,21.190000534057617,21.649999618530273,201300,21.649999618530273
2017-06-27,22.0,21.18000030517578,21.3799991607666,21.200000762939453,192000,21.200000762939453
2017-06-28,22.350000381469727,20.332000732421875,20.950000762939453,21.889999389648438,252400,21.889999389648438
2017-06-29,22.0,18.75,22.0,20.530000686645508,374500,20.530000686645508
2017-06-30,20.974000930786133,19.489999771118164,20.719999313354492,19.979999542236328,141400,19.979999542236328
2017-07-03,21.200000762939453,19.739999771118164,19.739999771118164,21.18000030517578,102400,21.18000030517578
2017-07-05,23.31999969482422,20.408000946044922,20.950000762939453,23.110000610351562,311500,23.110000610351562
2017-07-06,23.209999084472656,22.09000015258789,23.209999084472656,22.350000381469727,241800,22.350000381469727
2017-07-07,22.950000762939453,22.020000457763672,22.3799991607666,22.15999984741211,180000,22.15999984741211
2017-07-10,24.989999771118164,22.17300033569336,22.309999465942383,24.010000228881836,617400,24.010000228881836
2017-07-11,24.829999923706055,23.510000228881836,24.25,23.979999542236328,209800,23.979999542236328
2017-07-12,24.606000900268555,23.06999969482422,24.479999542236328,23.06999969482422,219800,23.06999969482422
2017-07-13,24.5,23.09000015258789,23.09000015258789,23.940000534057617,184000,23.940000534057617
2017-07-14,24.989999771118164,23.809999465942383,24.06999969482422,23.81999969482422,172200,23.81999969482422
2017-07-17,24.899999618530273,23.850000381469727,23.850000381469727,24.8799991607666,182700,24.8799991607666
2017-07-18,25.389999389648438,23.049999237060547,25.100000381469727,23.360000610351562,281400,23.360000610351562
2017-07-19,23.500999450683594,21.209999084472656,23.239999771118164,21.90999984741211,473200,21.90999984741211
2017-07-20,21.913999557495117,20.010000228881836,21.799999237060547,20.670000076293945,424700,20.670000076293945
2017-07-21,21.790000915527344,20.100000381469727,20.799999237060547,21.15999984741211,239600,21.15999984741211
2017-07-24,21.0,18.06999969482422,21.0,18.469999313354492,464200,18.469999313354492
2017-07-25,18.770000457763672,17.1200008392334,18.549999237060547,18.309999465942383,467700,18.309999465942383
2017-07-26,20.959999084472656,18.0,18.190000534057617,20.84000015258789,524300,20.84000015258789
2017-07-27,21.190000534057617,19.510000228881836,21.0,19.809999465942383,304100,19.809999465942383
2017-07-28,21.488000869750977,19.780000686645508,20.06999969482422,21.280000686645508,258000,21.280000686645508
2017-07-31,21.399999618530273,19.280000686645508,21.309999465942383,19.440000534057617,273200,19.440000534057617
2017-08-01,19.719999313354492,19.020000457763672,19.40999984741211,19.31999969482422,151300,19.31999969482422
2017-08-02,19.459999084472656,17.733999252319336,19.350000381469727,18.520000457763672,292700,18.520000457763672
2017-08-03,18.94499969482422,17.739999771118164,18.520000457763672,17.889999389648438,122900,17.889999389648438
2017-08-04,18.190000534057617,17.079999923706055,17.639999389648438,17.600000381469727,130500,17.600000381469727
2017-08-07,17.979999542236328,16.645000457763672,17.649999618530273,17.760000228881836,236200,17.760000228881836
2017-08-08,18.851999282836914,17.732999801635742,17.81999969482422,18.639999389648438,169800,18.639999389648438
2017-08-09,19.059999465942383,17.641000747680664,18.510000228881836,17.979999542236328,263300,17.979999542236328
2017-08-10,16.520000457763672,14.140000343322754,15.260000228881836,15.229999542236328,1013300,15.229999542236328
2017-08-11,15.59000015258789,14.229999542236328,15.100000381469727,14.479999542236328,336900,14.479999542236328
2017-08-14,16.510000228881836,14.829999923706055,15.029999732971191,15.300000190734863,365200,15.300000190734863
2017-08-15,16.013999938964844,14.5,15.5600004196167,14.75,155100,14.75
2017-08-16,15.149999618530273,14.460000038146973,14.720000267028809,15.109999656677246,108900,15.109999656677246
2017-08-17,15.1899995803833,14.479999542236328,15.140000343322754,14.699999809265137,217100,14.699999809265137
2017-08-18,15.819999694824219,14.600000381469727,14.600000381469727,15.569999694824219,162000,15.569999694824219
2017-08-21,15.685999870300293,14.729999542236328,15.59000015258789,14.920000076293945,133500,14.920000076293945
2017-08-22,15.5,14.800000190734863,14.949999809265137,15.220000267028809,127900,15.220000267028809
2017-08-23,17.950000762939453,15.350000381469727,15.479999542236328,16.90999984741211,509000,16.90999984741211
2017-08-24,17.933000564575195,16.329999923706055,16.899999618530273,16.459999084472656,298800,16.459999084472656
2017-08-25,16.593000411987305,15.050000190734863,16.420000076293945,15.170000076293945,206800,15.170000076293945
2017-08-28,15.670000076293945,15.0,15.350000381469727,15.399999618530273,120500,15.399999618530273
2017-08-29,15.59000015258789,15.100000381469727,15.319999694824219,15.40999984741211,92300,15.40999984741211
2017-08-30,15.680000305175781,15.229999542236328,15.460000038146973,15.59000015258789,128500,15.59000015258789
2017-08-31,16.575000762939453,15.59000015258789,15.59000015258789,16.299999237060547,250800,16.299999237060547
2017-09-01,16.93000030517578,16.020000457763672,16.43000030517578,16.25,189900,16.25
2017-09-05,16.881000518798828,15.670000076293945,16.170000076293945,16.020000457763672,138200,16.020000457763672
2017-09-06,16.479000091552734,15.699999809265137,16.149999618530273,15.819999694824219,74800,15.819999694824219
2017-09-07,16.280000686645508,15.720000267028809,15.84000015258789,16.010000228881836,50400,16.010000228881836
2017-09-08,16.069000244140625,15.75,16.020000457763672,15.890000343322754,52000,15.890000343322754
2017-09-11,16.1299991607666,15.75,15.979999542236328,15.84000015258789,82000,15.84000015258789
2017-09-12,16.59000015258789,15.699999809265137,15.84000015258789,16.520000457763672,128500,16.520000457763672
2017-09-13,16.614999771118164,15.930000305175781,16.549999237060547,16.030000686645508,73800,16.030000686645508
2017-09-14,16.209999084472656,15.739999771118164,15.90999984741211,16.0,73000,16.0
2017-09-15,16.979999542236328,15.859999656677246,16.0,16.950000762939453,190000,16.950000762939453
2017-09-18,17.5,16.790000915527344,17.049999237060547,17.1200008392334,139500,17.1200008392334
2017-09-19,17.739999771118164,17.110000610351562,17.200000762939453,17.709999084472656,135100,17.709999084472656
2017-09-20,18.959999084472656,17.709999084472656,17.799999237060547,18.579999923706055,367500,18.579999923706055
2017-09-21,19.25,17.5,18.649999618530273,17.614999771118164,277400,17.614999771118164
2017-09-22,17.625,16.5,17.56999969482422,16.649999618530273,199500,16.649999618530273
2017-09-25,17.350000381469727,15.699999809265137,16.639999389648438,15.979999542236328,145500,15.979999542236328
2017-09-26,16.299999237060547,15.699999809265137,16.100000381469727,15.920000076293945,87700,15.920000076293945
2017-09-27,16.93000030517578,15.99899959564209,16.200000762939453,16.389999389648438,114900,16.389999389648438
2017-09-28,17.267000198364258,16.461999893188477,16.549999237060547,17.0,115200,17.0
2017-09-29,17.479000091552734,16.59000015258789,17.15999984741211,17.09000015258789,81800,17.09000015258789
2017-10-02,17.16200065612793,15.399999618530273,17.149999618530273,15.510000228881836,243800,15.510000228881836
2017-10-03,16.190000534057617,15.449999809265137,15.449999809265137,15.920000076293945,149100,15.920000076293945
2017-10-04,15.859999656677246,15.5,15.770000457763672,15.649999618530273,80000,15.649999618530273
2017-10-05,15.656000137329102,15.229999542236328,15.649999618530273,15.329999923706055,92000,15.329999923706055
2017-10-06,15.199999809265137,13.09000015258789,15.15999984741211,13.369999885559082,529900,13.369999885559082
2017-10-09,13.350000381469727,12.5,13.180000305175781,12.65999984741211,274900,12.65999984741211
2017-10-10,12.59000015258789,11.489999771118164,12.079999923706055,11.720000267028809,644900,11.720000267028809
2017-10-11,13.170000076293945,11.649999618530273,11.649999618530273,12.600000381469727,279300,12.600000381469727
2017-10-12,13.109999656677246,12.399999618530273,12.399999618530273,12.520000457763672,238500,12.520000457763672
2017-10-13,12.72599983215332,11.640000343322754,12.470000267028809,11.699999809265137,248700,11.699999809265137
2017-10-16,12.053999900817871,11.279999732971191,11.8100004196167,11.3100004196167,215100,11.3100004196167
2017-10-17,11.350000381469727,10.770000457763672,11.350000381469727,10.869999885559082,265900,10.869999885559082
2017-10-18,10.869999885559082,10.550000190734863,10.720000267028809,10.8100004196167,177900,10.8100004196167
2017-10-19,10.829999923706055,10.600000381469727,10.609999656677246,10.800000190734863,105000,10.800000190734863
2017-10-20,11.430000305175781,10.779999732971191,10.789999961853027,11.170000076293945,145300,11.170000076293945
2017-10-23,11.75,11.0600004196167,11.210000038146973,11.149999618530273,147600,11.149999618530273
2017-10-24,11.972000122070312,11.149999618530273,11.149999618530273,11.779999732971191,153400,11.779999732971191
2017-10-25,11.720000267028809,10.899999618530273,11.5600004196167,10.920000076293945,161700,10.920000076293945
2017-10-26,10.90999984741211,10.420000076293945,10.859999656677246,10.529999732971191,161800,10.529999732971191
2017-10-27,11.109999656677246,10.300000190734863,10.630000114440918,10.619999885559082,123600,10.619999885559082
2017-10-30,10.680000305175781,10.199999809265137,10.609999656677246,10.350000381469727,113400,10.350000381469727
2017-10-31,10.539999961853027,10.199999809265137,10.270000457763672,10.289999961853027,104000,10.289999961853027
2017-11-01,10.289999961853027,9.40999984741211,10.289999961853027,9.489999771118164,201900,9.489999771118164
2017-11-02,9.3100004196167,8.119999885559082,9.279999732971191,8.300000190734863,488200,8.300000190734863
2017-11-03,8.350000381469727,8.050000190734863,8.220000267028809,8.119999885559082,177300,8.119999885559082
2017-11-06,8.699999809265137,8.029999732971191,8.050000190734863,8.489999771118164,275800,8.489999771118164
2017-11-07,8.949999809265137,8.149999618530273,8.5600004196167,8.890000343322754,221800,8.890000343322754
2017-11-08,9.5600004196167,8.946999549865723,9.25,9.359999656677246,253900,9.359999656677246
2017-11-09,9.305000305175781,8.640000343322754,9.289999961853027,8.899999618530273,110900,8.899999618530273
2017-11-10,9.40999984741211,8.699999809265137,9.140000343322754,9.149999618530273,107300,9.149999618530273
2017-11-13,9.869999885559082,8.920000076293945,9.050000190734863,9.619999885559082,280300,9.619999885559082
2017-11-14,9.5,8.149999618530273,9.5,8.260000228881836,486600,8.260000228881836
2017-11-15,8.359999656677246,7.769999980926514,8.109999656677246,7.800000190734863,206700,7.800000190734863
2017-11-16,8.029999732971191,7.5,7.889999866485596,7.650000095367432,208500,7.650000095367432
2017-11-17,8.149999618530273,7.360000133514404,7.659999847412109,7.980000019073486,195400,7.980000019073486
2017-11-20,8.23799991607666,7.75,8.109999656677246,8.199999809265137,210600,8.199999809265137
2017-11-21,9.399999618530273,8.229999542236328,8.329999923706055,9.020000457763672,363500,9.020000457763672
2017-11-22,9.149999618530273,8.600000381469727,9.149999618530273,8.760000228881836,158300,8.760000228881836
2017-11-24,8.920000076293945,8.640000343322754,8.90999984741211,8.819999694824219,40800,8.819999694824219
2017-11-27,8.829999923706055,8.319999694824219,8.779999732971191,8.399999618530273,135200,8.399999618530273
2017-11-28,8.449999809265137,8.300000190734863,8.430000305175781,8.3100004196167,69700,8.3100004196167
2017-11-29,8.329999923706055,7.75,8.329999923706055,7.860000133514404,238700,7.860000133514404
2017-11-30,8.380000114440918,7.900000095367432,8.010000228881836,8.039999961853027,171200,8.039999961853027
2017-12-01,8.130000114440918,7.678999900817871,8.020000457763672,7.739999771118164,113900,7.739999771118164
2017-12-04,7.870999813079834,7.250999927520752,7.800000190734863,7.599999904632568,197500,7.599999904632568
2017-12-05,7.86899995803833,7.559999942779541,7.650000095367432,7.610000133514404,117200,7.610000133514404
2017-12-06,7.670000076293945,7.46999979019165,7.650000095367432,7.489999771118164,88400,7.489999771118164
2017-12-07,7.599999904632568,7.320000171661377,7.510000228881836,7.429999828338623,94800,7.429999828338623
2017-12-08,7.829999923706055,7.460000038146973,7.590000152587891,7.690000057220459,141700,7.690000057220459
2017-12-11,8.149999618530273,7.389999866485596,8.149999618530273,7.480000019073486,144500,7.480000019073486
2017-12-12,7.550000190734863,7.449999809265137,7.550000190734863,7.5,88000,7.5
2017-12-13,7.550000190734863,6.800000190734863,7.510000228881836,6.960000038146973,320200,6.960000038146973
2017-12-14,7.099999904632568,6.860000133514404,7.0,6.880000114440918,134100,6.880000114440918
2017-12-15,6.949999809265137,6.690000057220459,6.949999809265137,6.690000057220459,159900,6.690000057220459
2017-12-18,7.860000133514404,6.730000019073486,7.25,7.579999923706055,291500,7.579999923706055
2017-12-19,7.848999977111816,7.322999954223633,7.710000038146973,7.519999980926514,171900,7.519999980926514
2017-12-20,7.760000228881836,7.349999904632568,7.599999904632568,7.369999885559082,86800,7.369999885559082
2017-12-21,7.699999809265137,7.300000190734863,7.449999809265137,7.380000114440918,88500,7.380000114440918
2017-12-22,7.519999980926514,7.210000038146973,7.380000114440918,7.239999771118164,102400,7.239999771118164
2017-12-26,7.28000020980835,7.010000228881836,7.239999771118164,7.019999980926514,79500,7.019999980926514
2017-12-27,7.309999942779541,7.019999980926514,7.050000190734863,7.260000228881836,91900,7.260000228881836
2017-12-28,8.199999809265137,7.25,7.300000190734863,7.679999828338623,257700,7.679999828338623
2017-12-29,7.929999828338623,7.429999828338623,7.699999809265137,7.5,260600,7.5
2018-01-02,7.84499979019165,7.5,7.5,7.53000020980835,78600,7.53000020980835
2018-01-03,7.826000213623047,7.53000020980835,7.659999847412109,7.639999866485596,74400,7.639999866485596
2018-01-04,8.109999656677246,7.659999847412109,7.75,7.909999847412109,67700,7.909999847412109
2018-01-05,9.59000015258789,7.900000095367432,7.900000095367432,9.470000267028809,466500,9.470000267028809
2018-01-08,9.838000297546387,8.5,9.710000038146973,9.229999542236328,284000,9.229999542236328
2018-01-09,9.25,8.569999694824219,9.149999618530273,9.010000228881836,199200,9.010000228881836
2018-01-10,8.729999542236328,8.25,8.729999542236328,8.399999618530273,104300,8.399999618530273
2018-01-11,8.399999618530273,8.279999732971191,8.390000343322754,8.390000343322754,104600,8.390000343322754
2018-01-12,8.479999542236328,8.260000228881836,8.350000381469727,8.350000381469727,188100,8.350000381469727
2018-01-16,8.600000381469727,8.180000305175781,8.40999984741211,8.399999618530273,254900,8.399999618530273
2018-01-17,8.800000190734863,8.100000381469727,8.5,8.210000038146973,229900,8.210000038146973
2018-01-18,10.640000343322754,8.220000267028809,8.220000267028809,10.020000457763672,1001600,10.020000457763672
2018-01-19,10.329999923706055,9.59000015258789,10.010000228881836,9.800000190734863,574600,9.800000190734863
2018-01-22,9.989999771118164,9.3100004196167,9.90999984741211,9.640000343322754,192700,9.640000343322754
2018-01-23,9.9399995803833,9.3100004196167,9.600000381469727,9.59000015258789,163500,9.59000015258789
2018-01-24,9.869000434875488,9.300000190734863,9.59000015258789,9.59000015258789,153100,9.59000015258789
2018-01-25,10.279999732971191,9.59000015258789,9.680000305175781,10.220000267028809,175400,10.220000267028809
2018-01-26,11.477999687194824,10.149999618530273,10.350000381469727,10.65999984741211,457400,10.65999984741211
2018-01-29,10.489999771118164,9.489999771118164,10.489999771118164,9.760000228881836,234500,9.760000228881836
2018-01-30,10.180000305175781,9.489999771118164,9.539999961853027,9.59000015258789,232000,9.59000015258789
2018-01-31,9.989999771118164,9.210000038146973,9.75,9.4399995803833,207600,9.4399995803833
2018-02-01,9.619999885559082,8.925000190734863,9.4399995803833,9.069999694824219,100700,9.069999694824219
2018-02-02,8.899999618530273,8.3100004196167,8.899999618530273,8.640000343322754,151700,8.640000343322754
2018-02-05,8.800000190734863,8.260000228881836,8.369999885559082,8.399999618530273,120100,8.399999618530273
2018-02-06,8.59000015258789,8.0,8.100000381469727,8.529999732971191,137000,8.529999732971191
2018-02-07,9.08899974822998,8.40999984741211,8.640000343322754,8.680000305175781,58300,8.680000305175781
2018-02-08,7.5,6.400000095367432,7.429999828338623,6.960000038146973,2065600,6.960000038146973
2018-02-09,7.349999904632568,6.701000213623047,7.050000190734863,7.139999866485596,244200,7.139999866485596
2018-02-12,7.489999771118164,7.0,7.269999980926514,7.320000171661377,214300,7.320000171661377
2018-02-13,7.449999809265137,6.949999809265137,7.349999904632568,7.239999771118164,139000,7.239999771118164
2018-02-14,7.900000095367432,7.199999809265137,7.690000057220459,7.730000019073486,255300,7.730000019073486
2018-02-15,8.107000350952148,7.321000099182129,7.800000190734863,7.789999961853027,91900,7.789999961853027
2018-02-16,7.988999843597412,7.449999809265137,7.659999847412109,7.670000076293945,93800,7.670000076293945
2018-02-20,8.0649995803833,7.498000144958496,7.5,7.730000019073486,136900,7.730000019073486
2018-02-21,7.940000057220459,7.520999908447266,7.71999979019165,7.610000133514404,104200,7.610000133514404
2018-02-22,7.89900016784668,7.619999885559082,7.630000114440918,7.639999866485596,59800,7.639999866485596
2018-02-23,7.798999786376953,7.409999847412109,7.710000038146973,7.599999904632568,187900,7.599999904632568
2018-02-26,7.989999771118164,7.679999828338623,7.679999828338623,7.820000171661377,70100,7.820000171661377
2018-02-27,8.020000457763672,7.829999923706055,7.849999904632568,7.880000114440918,67000,7.880000114440918
2018-02-28,7.920000076293945,7.5,7.920000076293945,7.690000057220459,73000,7.690000057220459
2018-03-01,7.900000095367432,7.179999828338623,7.739999771118164,7.320000171661377,110100,7.320000171661377
2018-03-02,7.619999885559082,7.0,7.25,7.559999942779541,83100,7.559999942779541
2018-03-05,7.900000095367432,7.579999923706055,7.599999904632568,7.829999923706055,92700,7.829999923706055
2018-03-06,8.324999809265137,7.889999866485596,7.889999866485596,8.229999542236328,146400,8.229999542236328
2018-03-07,9.218999862670898,8.100000381469727,8.130000114440918,9.09000015258789,253300,9.09000015258789
2018-03-08,9.25,8.470999717712402,9.09000015258789,8.930000305175781,92300,8.930000305175781
2018-03-09,9.5,8.508000373840332,8.729999542236328,9.300000190734863,128400,9.300000190734863
2018-03-12,9.569999694824219,9.210000038146973,9.390000343322754,9.350000381469727,117800,9.350000381469727
2018-03-13,9.460000038146973,9.0,9.380000114440918,9.119999885559082,128000,9.119999885559082
2018-03-14,9.319999694824219,8.899999618530273,9.15999984741211,9.279999732971191,102500,9.279999732971191
2018-03-15,9.369999885559082,8.829999923706055,9.369999885559082,9.010000228881836,80100,9.010000228881836
2018-03-16,8.979999542236328,7.519999980926514,8.979999542236328,7.920000076293945,476100,7.920000076293945
2018-03-19,8.520000457763672,7.900000095367432,8.020000457763672,8.460000038146973,148700,8.460000038146973
2018-03-20,8.473999977111816,8.010000228881836,8.449999809265137,8.100000381469727,85900,8.100000381469727
2018-03-21,8.279000282287598,7.960000038146973,8.020000457763672,8.109999656677246,74800,8.109999656677246
2018-03-22,8.067000389099121,7.550000190734863,7.920000076293945,7.619999885559082,158100,7.619999885559082
2018-03-23,7.75,7.429999828338623,7.699999809265137,7.559999942779541,75400,7.559999942779541
2018-03-26,7.894999980926514,7.300000190734863,7.769999980926514,7.75,120700,7.75
2018-03-27,7.929999828338623,7.269999980926514,7.835000038146973,7.409999847412109,70100,7.409999847412109
2018-03-28,7.590000152587891,7.25,7.320000171661377,7.46999979019165,54000,7.46999979019165
2018-03-29,7.71999979019165,7.199999809265137,7.539999961853027,7.550000190734863,57300,7.550000190734863
2018-04-02,7.46999979019165,6.940000057220459,7.440000057220459,7.139999866485596,87300,7.139999866485596
2018-04-03,7.440000057220459,6.960000038146973,7.210000038146973,7.409999847412109,59400,7.409999847412109
2018-04-04,7.710000038146973,7.150000095367432,7.25,7.639999866485596,65900,7.639999866485596
2018-04-05,7.96999979019165,7.664999961853027,7.789999961853027,7.730000019073486,44900,7.730000019073486
2018-04-06,7.704999923706055,7.21999979019165,7.659999847412109,7.389999866485596,43200,7.389999866485596
2018-04-09,7.829999923706055,7.289999961853027,7.460000038146973,7.599999904632568,60900,7.599999904632568
2018-04-10,7.800000190734863,7.440000057220459,7.800000190734863,7.75,37900,7.75
2018-04-11,7.920000076293945,7.570000171661377,7.75,7.659999847412109,23900,7.659999847412109
2018-04-12,8.069999694824219,7.610000133514404,7.679999828338623,8.020000457763672,42500,8.020000457763672
2018-04-13,8.348999977111816,7.900000095367432,8.039999961853027,8.154999732971191,46700,8.154999732971191
2018-04-16,8.300000190734863,8.0600004196167,8.289999961853027,8.300000190734863,28500,8.300000190734863
2018-04-17,8.5,8.303000450134277,8.319999694824219,8.310999870300293,51300,8.310999870300293
2018-04-18,8.5,8.260000228881836,8.380000114440918,8.289999961853027,47900,8.289999961853027
2018-04-19,8.227999687194824,7.635000228881836,8.210000038146973,7.920000076293945,60300,7.920000076293945
2018-04-20,7.889999866485596,7.599999904632568,7.889999866485596,7.610000133514404,19000,7.610000133514404
2018-04-23,7.920000076293945,7.670000076293945,7.670000076293945,7.889999866485596,13600,7.889999866485596
2018-04-24,7.96999979019165,7.389999866485596,7.949999809265137,7.389999866485596,64600,7.389999866485596
2018-04-25,7.489999771118164,7.300000190734863,7.420000076293945,7.349999904632568,35400,7.349999904632568
2018-04-26,7.889999866485596,7.309999942779541,7.369999885559082,7.389999866485596,27600,7.389999866485596
2018-04-27,7.556000232696533,7.300000190734863,7.519999980926514,7.300000190734863,29800,7.300000190734863
2018-04-30,7.489999771118164,6.75,7.25,6.829999923706055,127600,6.829999923706055
2018-05-01,6.980000019073486,6.679999828338623,6.900000095367432,6.929999828338623,108900,6.929999828338623
2018-05-02,7.409999847412109,6.860000133514404,7.190000057220459,6.920000076293945,114100,6.920000076293945
2018-05-03,7.300000190734863,6.920000076293945,7.010000228881836,7.099999904632568,44400,7.099999904632568
2018-05-04,7.599999904632568,6.980000019073486,6.980000019073486,7.289999961853027,134500,7.289999961853027
2018-05-07,7.429999828338623,7.210000038146973,7.300000190734863,7.269999980926514,59500,7.269999980926514
2018-05-08,7.400000095367432,7.065000057220459,7.130000114440918,7.400000095367432,57600,7.400000095367432
2018-05-09,7.599999904632568,7.300000190734863,7.380000114440918,7.420000076293945,73900,7.420000076293945
2018-05-10,9.729999542236328,8.779999732971191,8.819999694824219,8.9399995803833,893000,8.9399995803833
2018-05-11,8.96500015258789,8.3149995803833,8.760000228881836,8.579999923706055,189100,8.579999923706055
2018-05-14,8.930000305175781,8.529999732971191,8.729999542236328,8.8100004196167,96300,8.8100004196167
2018-05-15,8.829999923706055,8.52299976348877,8.630000114440918,8.8100004196167,59400,8.8100004196167
2018-05-16,8.789999961853027,8.380000114440918,8.739999771118164,8.640000343322754,77300,8.640000343322754
2018-05-17,8.75,8.380000114440918,8.5,8.59000015258789,114700,8.59000015258789
2018-05-18,8.770000457763672,8.460000038146973,8.460000038146973,8.640000343322754,65300,8.640000343322754
2018-05-21,9.0,8.079999923706055,8.779999732971191,8.15999984741211,172500,8.15999984741211
2018-05-22,8.300000190734863,7.849999904632568,8.270000457763672,8.0,96800,8.0
2018-05-23,8.079000473022461,7.709000110626221,7.96999979019165,7.849999904632568,134500,7.849999904632568
2018-05-24,8.109999656677246,7.671000003814697,7.800000190734863,7.929999828338623,151600,7.929999828338623
2018-05-25,8.0600004196167,7.829999923706055,7.960000038146973,8.039999961853027,37100,8.039999961853027
2018-05-29,8.100000381469727,7.900000095367432,8.0,7.989999771118164,68300,7.989999771118164
2018-05-30,7.989999771118164,7.610000133514404,7.989999771118164,7.670000076293945,208100,7.670000076293945
2018-05-31,7.949999809265137,7.550000190734863,7.710000038146973,7.670000076293945,110700,7.670000076293945
2018-06-01,7.800000190734863,7.500999927520752,7.75,7.75,70200,7.75
2018-06-04,7.800000190734863,7.519999980926514,7.800000190734863,7.599999904632568,66200,7.599999904632568
2018-06-05,7.880000114440918,7.5,7.639999866485596,7.840000152587891,85100,7.840000152587891
2018-06-06,8.079999923706055,7.769999980926514,7.909999847412109,7.989999771118164,41300,7.989999771118164
2018-06-07,8.09000015258789,7.730000019073486,8.039999961853027,7.869999885559082,32600,7.869999885559082
2018-06-08,8.289999961853027,7.885000228881836,7.900000095367432,8.239999771118164,50700,8.239999771118164
2018-06-11,8.380000114440918,8.093000411987305,8.199999809265137,8.109999656677246,75200,8.109999656677246
2018-06-12,8.329000473022461,8.029999732971191,8.039999961853027,8.15999984741211,103200,8.15999984741211
2018-06-13,8.569999694824219,8.130000114440918,8.170000076293945,8.5,103800,8.5
2018-06-14,9.279999732971191,8.550000190734863,8.600000381469727,9.25,267500,9.25
2018-06-15,9.28499984741211,8.90999984741211,9.25,9.0,140900,9.0
2018-06-18,9.239999771118164,8.989999771118164,9.0,9.229999542236328,152700,9.229999542236328
2018-06-19,9.350000381469727,9.010000228881836,9.010000228881836,9.199999809265137,198600,9.199999809265137
2018-06-20,10.25,9.199999809265137,9.199999809265137,9.649999618530273,309800,9.649999618530273
2018-06-21,9.710000038146973,9.239999771118164,9.6899995803833,9.25,204600,9.25
2018-06-22,9.343999862670898,9.0,9.25,9.170000076293945,237000,9.170000076293945
2018-06-25,9.239999771118164,8.84000015258789,9.239999771118164,8.989999771118164,117800,8.989999771118164
2018-06-26,9.369000434875488,9.0,9.09000015258789,9.229999542236328,33000,9.229999542236328
2018-06-27,9.199999809265137,8.960000038146973,9.0,9.010000228881836,60200,9.010000228881836
2018-06-28,8.949999809265137,8.539999961853027,8.930000305175781,8.75,112700,8.75
2018-06-29,9.050000190734863,8.85200023651123,8.869999885559082,8.920000076293945,58200,8.920000076293945
2018-07-02,8.880000114440918,8.40999984741211,8.8100004196167,8.649999618530273,59600,8.649999618530273
2018-07-03,8.949999809265137,8.670000076293945,8.779999732971191,8.789999961853027,13600,8.789999961853027
2018-07-05,9.319999694824219,8.824999809265137,8.9399995803833,9.25,62600,9.25
2018-07-06,9.25,9.079999923706055,9.199999809265137,9.079999923706055,36200,9.079999923706055
2018-07-09,9.170000076293945,9.0,9.039999961853027,9.149999618530273,39400,9.149999618530273
2018-07-10,9.569999694824219,9.149999618530273,9.149999618530273,9.399999618530273,137800,9.399999618530273
2018-07-11,9.449999809265137,9.1899995803833,9.399999618530273,9.289999961853027,103500,9.289999961853027
2018-07-12,9.736000061035156,9.300000190734863,9.300000190734863,9.5600004196167,107600,9.5600004196167
2018-07-13,9.850000381469727,9.520000457763672,9.520000457763672,9.819999694824219,56800,9.819999694824219
2018-07-16,9.800000190734863,9.100000381469727,9.800000190734863,9.149999618530273,44500,9.149999618530273
2018-07-17,9.53499984741211,9.0,9.020000457763672,9.430000305175781,51200,9.430000305175781
2018-07-18,9.649999618530273,9.220000267028809,9.300000190734863,9.470000267028809,22900,9.470000267028809
2018-07-19,10.100000381469727,9.489999771118164,9.5,9.75,147500,9.75
2018-07-20,9.9350004196167,9.350000381469727,9.800000190734863,9.40999984741211,37300,9.40999984741211
2018-07-23,9.369999885559082,8.829999923706055,9.369999885559082,9.149999618530273,64800,9.149999618530273
2018-07-24,9.239999771118164,8.883000373840332,9.239999771118164,9.029999732971191,30400,9.029999732971191
2018-07-25,8.932000160217285,8.5,8.779999732971191,8.5,60700,8.5
2018-07-26,8.930000305175781,8.5,8.5,8.670000076293945,41500,8.670000076293945
2018-07-27,8.680000305175781,8.479999542236328,8.529999732971191,8.5,52300,8.5
2018-07-30,8.680000305175781,8.5,8.510000228881836,8.539999961853027,35900,8.539999961853027
2018-07-31,8.899999618530273,8.553000450134277,8.65999984741211,8.800000190734863,31100,8.800000190734863
2018-08-01,8.906000137329102,8.585000038146973,8.906000137329102,8.779999732971191,13200,8.779999732971191
2018-08-02,9.069999694824219,8.600000381469727,8.779999732971191,8.65999984741211,44300,8.65999984741211
2018-08-03,8.90999984741211,8.550000190734863,8.770000457763672,8.869999885559082,33300,8.869999885559082
2018-08-06,11.199999809265137,8.880999565124512,8.920000076293945,11.149999618530273,626300,11.149999618530273
2018-08-07,11.130000114440918,9.920999526977539,11.069999694824219,10.600000381469727,345600,10.600000381469727
2018-08-08,10.746000289916992,10.034000396728516,10.65999984741211,10.239999771118164,142000,10.239999771118164
2018-08-09,9.630000114440918,8.600000381469727,8.899999618530273,9.270000457763672,320000,9.270000457763672
2018-08-10,9.239999771118164,8.529999732971191,9.093000411987305,8.989999771118164,165100,8.989999771118164
2018-08-13,9.0,8.600000381469727,9.0,8.859999656677246,90600,8.859999656677246
2018-08-14,8.899999618530273,8.510000228881836,8.899999618530273,8.630000114440918,26200,8.630000114440918
2018-08-15,8.767999649047852,8.5,8.5600004196167,8.5,42400,8.5
2018-08-16,8.779999732971191,8.479999542236328,8.569999694824219,8.720000267028809,39000,8.720000267028809
2018-08-17,8.920000076293945,8.600000381469727,8.800000190734863,8.75,36300,8.75
2018-08-20,8.869999885559082,8.5,8.5,8.520000457763672,54900,8.520000457763672
2018-08-21,8.920000076293945,8.510000228881836,8.670000076293945,8.859999656677246,48600,8.859999656677246
2018-08-22,8.850000381469727,8.619999885559082,8.75,8.6899995803833,46800,8.6899995803833
2018-08-23,8.899999618530273,8.609999656677246,8.649999618530273,8.699999809265137,47400,8.699999809265137
2018-08-24,8.84000015258789,8.604000091552734,8.800000190734863,8.729999542236328,63700,8.729999542236328
2018-08-27,8.989999771118164,8.57800006866455,8.699999809265137,8.75,68600,8.75
2018-08-28,8.819999694824219,8.600000381469727,8.64799976348877,8.779999732971191,54500,8.779999732971191
2018-08-29,9.699999809265137,8.765000343322754,8.800000190734863,9.529999732971191,184900,9.529999732971191
2018-08-30,9.649999618530273,9.140000343322754,9.539999961853027,9.220000267028809,106800,9.220000267028809
2018-08-31,9.279999732971191,9.020000457763672,9.100000381469727,9.25,157200,9.25
2018-09-04,9.199999809265137,9.09000015258789,9.109999656677246,9.170000076293945,89200,9.170000076293945
2018-09-05,9.220000267028809,8.984999656677246,9.170000076293945,9.119999885559082,70600,9.119999885559082
2018-09-06,9.100000381469727,8.829999923706055,9.09000015258789,8.930000305175781,78800,8.930000305175781
2018-09-07,9.0,8.819999694824219,8.930000305175781,8.920000076293945,24300,8.920000076293945
2018-09-10,8.859999656677246,8.5600004196167,8.800000190734863,8.739999771118164,43500,8.739999771118164
2018-09-11,8.890000343322754,8.5,8.579999923706055,8.510000228881836,53500,8.510000228881836
2018-09-12,8.600000381469727,7.329999923706055,8.5,7.980000019073486,506400,7.980000019073486
2018-09-13,8.260000228881836,7.920000076293945,8.09000015258789,7.980000019073486,128700,7.980000019073486
2018-09-14,8.149999618530273,7.769999980926514,7.900000095367432,7.909999847412109,37100,7.909999847412109
2018-09-17,7.929999828338623,7.570000171661377,7.760000228881836,7.650000095367432,42000,7.650000095367432
2018-09-18,7.889999866485596,7.579999923706055,7.579999923706055,7.739999771118164,44400,7.739999771118164
2018-09-19,7.980000019073486,7.619999885559082,7.78000020980835,7.630000114440918,49000,7.630000114440918
2018-09-20,7.815000057220459,7.429999828338623,7.630000114440918,7.429999828338623,127500,7.429999828338623
2018-09-21,7.599999904632568,7.099999904632568,7.590000152587891,7.519999980926514,134600,7.519999980926514
2018-09-24,8.0,7.466000080108643,7.559999942779541,7.860000133514404,58400,7.860000133514404
2018-09-25,8.079999923706055,7.730000019073486,7.909999847412109,7.949999809265137,45900,7.949999809265137
2018-09-26,8.029999732971191,7.692999839782715,7.909999847412109,7.800000190734863,43200,7.800000190734863
2018-09-27,7.860000133514404,7.599999904632568,7.730000019073486,7.670000076293945,37800,7.670000076293945
2018-09-28,7.769999980926514,7.510000228881836,7.559999942779541,7.679999828338623,16800,7.679999828338623
2018-10-01,7.760000228881836,7.510000228881836,7.760000228881836,7.679999828338623,22100,7.679999828338623
2018-10-02,7.724999904632568,7.570000171661377,7.579999923706055,7.630000114440918,51000,7.630000114440918
2018-10-03,7.670000076293945,7.429999828338623,7.599999904632568,7.489999771118164,21100,7.489999771118164
2018-10-04,7.800000190734863,7.25,7.440000057220459,7.460000038146973,301800,7.460000038146973
2018-10-05,7.489999771118164,7.099999904632568,7.400000095367432,7.099999904632568,149600,7.099999904632568
2018-10-08,7.460000038146973,6.909999847412109,7.099999904632568,7.099999904632568,529800,7.099999904632568
2018-10-09,7.21999979019165,6.882999897003174,7.090000152587891,7.119999885559082,26400,7.119999885559082
2018-10-10,7.070000171661377,6.699999809265137,7.010000228881836,6.809999942779541,108300,6.809999942779541
2018-10-11,6.960000038146973,6.71999979019165,6.800000190734863,6.869999885559082,66300,6.869999885559082
2018-10-12,7.199999809265137,6.639999866485596,7.0,6.809999942779541,104600,6.809999942779541
2018-10-15,7.059999942779541,6.760000228881836,6.849999904632568,7.010000228881836,20600,7.010000228881836
2018-10-16,7.349999904632568,6.800000190734863,7.0,6.940000057220459,66700,6.940000057220459
2018-10-17,7.190000057220459,6.896999835968018,6.900000095367432,7.09499979019165,15700,7.09499979019165
2018-10-18,7.079999923706055,6.840000152587891,7.079999923706055,6.889999866485596,25200,6.889999866485596
2018-10-19,7.326000213623047,6.860000133514404,6.860000133514404,7.050000190734863,46400,7.050000190734863
2018-10-22,7.239999771118164,7.090000152587891,7.170000076293945,7.099999904632568,17700,7.099999904632568
2018-10-23,7.065999984741211,6.806000232696533,6.806000232696533,6.949999809265137,14600,6.949999809265137
2018-10-24,6.980000019073486,6.329999923706055,6.960000038146973,6.480000019073486,49500,6.480000019073486
2018-10-25,6.861000061035156,6.480000019073486,6.5,6.659999847412109,42000,6.659999847412109
2018-10-26,7.059999942779541,6.511000156402588,6.659999847412109,6.690000057220459,42900,6.690000057220459
2018-10-29,7.090000152587891,6.5229997634887695,6.679999828338623,6.53000020980835,41400,6.53000020980835
2018-10-30,7.099999904632568,6.550000190734863,6.550000190734863,6.940000057220459,30600,6.940000057220459
2018-10-31,7.139999866485596,6.735000133514404,6.940000057220459,7.03000020980835,61100,7.03000020980835
2018-11-01,7.369999885559082,6.730000019073486,6.989999771118164,6.860000133514404,90500,6.860000133514404
2018-11-02,7.150000095367432,6.900000095367432,7.150000095367432,7.050000190734863,12900,7.050000190734863
2018-11-05,7.216000080108643,6.96999979019165,6.96999979019165,7.110000133514404,29000,7.110000133514404
2018-11-06,7.400000095367432,7.130000114440918,7.130000114440918,7.215000152587891,16000,7.215000152587891
2018-11-07,7.78000020980835,7.230000019073486,7.230000019073486,7.599999904632568,74900,7.599999904632568
2018-11-08,7.900000095367432,7.539999961853027,7.630000114440918,7.659999847412109,74300,7.659999847412109
2018-11-09,8.0,7.650000095367432,8.0,7.71999979019165,73500,7.71999979019165
2018-11-12,7.679999828338623,7.480000019073486,7.579999923706055,7.539999961853027,59600,7.539999961853027
2018-11-13,7.947999954223633,7.559999942779541,7.630000114440918,7.710000038146973,103500,7.710000038146973
2018-11-14,7.96999979019165,7.716000080108643,7.932000160217285,7.880000114440918,57400,7.880000114440918
2018-11-15,8.149999618530273,7.690000057220459,7.769999980926514,7.800000190734863,97700,7.800000190734863
2018-11-16,7.800000190734863,7.46999979019165,7.619999885559082,7.5,71800,7.5
2018-11-19,7.900000095367432,7.260000228881836,7.800000190734863,7.440000057220459,23700,7.440000057220459
2018-11-20,7.519999980926514,6.989999771118164,7.289999961853027,7.099999904632568,47000,7.099999904632568
2018-11-21,7.349999904632568,7.119999885559082,7.150000095367432,7.190000057220459,81600,7.190000057220459
2018-11-23,7.670000076293945,7.019999980926514,7.400000095367432,7.119999885559082,5600,7.119999885559082
2018-11-26,7.349999904632568,6.300000190734863,7.059999942779541,6.71999979019165,87200,6.71999979019165
2018-11-27,7.159999847412109,6.599999904632568,6.699999809265137,7.090000152587891,52200,7.090000152587891
2018-11-28,7.190000057220459,6.927000045776367,7.170000076293945,7.070000171661377,34700,7.070000171661377
2018-11-29,7.119999885559082,6.909999847412109,7.070000171661377,6.980000019073486,28800,6.980000019073486
2018-11-30,7.230000019073486,6.989999771118164,6.989999771118164,7.03000020980835,24500,7.03000020980835
2018-12-03,7.340000152587891,6.900000095367432,7.059999942779541,6.900000095367432,39700,6.900000095367432
2018-12-04,7.079999923706055,6.829999923706055,6.900000095367432,6.889999866485596,18100,6.889999866485596
2018-12-06,6.860000133514404,6.519999980926514,6.760000228881836,6.539999961853027,45900,6.539999961853027
2018-12-07,6.710000038146973,6.320000171661377,6.510000228881836,6.369999885559082,25600,6.369999885559082
2018-12-10,6.5,6.083000183105469,6.289999961853027,6.300000190734863,38400,6.300000190734863
2018-12-11,6.525000095367432,6.090000152587891,6.260000228881836,6.130000114440918,21200,6.130000114440918
2018-12-12,6.440000057220459,6.079999923706055,6.079999923706055,6.269999980926514,61400,6.269999980926514
2018-12-13,6.679999828338623,6.21999979019165,6.300000190734863,6.28000020980835,30000,6.28000020980835
2018-12-14,6.619999885559082,6.21999979019165,6.21999979019165,6.300000190734863,15100,6.300000190734863
2018-12-17,6.392000198364258,6.110000133514404,6.25,6.239999771118164,48100,6.239999771118164
2018-12-18,6.373000144958496,6.150000095367432,6.150000095367432,6.230000019073486,43900,6.230000019073486
2018-12-19,6.440000057220459,5.804999828338623,6.179999828338623,5.960000038146973,80600,5.960000038146973
2018-12-20,5.909999847412109,5.340000152587891,5.789999961853027,5.505000114440918,62400,5.505000114440918
2018-12-21,5.78000020980835,5.429999828338623,5.429999828338623,5.559999942779541,95600,5.559999942779541
2018-12-24,5.770999908447266,5.479000091552734,5.570000171661377,5.650000095367432,14500,5.650000095367432
2018-12-26,6.239999771118164,5.5,6.239999771118164,5.900000095367432,72900,5.900000095367432
2018-12-27,6.070000171661377,5.5,5.699999809265137,5.590000152587891,39900,5.590000152587891
2018-12-28,6.059999942779541,5.300000190734863,5.449999809265137,5.590000152587891,96700,5.590000152587891
2018-12-31,5.718999862670898,5.400000095367432,5.460000038146973,5.610000133514404,126300,5.610000133514404
2019-01-02,5.710000038146973,5.386000156402588,5.5,5.710000038146973,21400,5.710000038146973
2019-01-03,6.090000152587891,5.605000019073486,5.679999828338623,5.71999979019165,22300,5.71999979019165
2019-01-04,5.96999979019165,5.699999809265137,5.730000019073486,5.820000171661377,38200,5.820000171661377
2019-01-07,6.210000038146973,5.679999828338623,5.909999847412109,6.050000190734863,33000,6.050000190734863
2019-01-08,6.270999908447266,5.929999828338623,6.199999809265137,6.099999904632568,16700,6.099999904632568
2019-01-09,6.400000095367432,6.03000020980835,6.159999847412109,6.21999979019165,15400,6.21999979019165
2019-01-10,6.348999977111816,5.946000099182129,6.239999771118164,6.119999885559082,24400,6.119999885559082
2019-01-11,6.480000019073486,5.929999828338623,6.019999980926514,6.159999847412109,21800,6.159999847412109
2019-01-14,6.380000114440918,6.170000076293945,6.170000076293945,6.360000133514404,16100,6.360000133514404
2019-01-15,6.590000152587891,6.322999954223633,6.360000133514404,6.489999771118164,22300,6.489999771118164
2019-01-16,6.880000114440918,6.381999969482422,6.539999961853027,6.690999984741211,15200,6.690999984741211
2019-01-17,6.926000118255615,6.599999904632568,6.71999979019165,6.619999885559082,12100,6.619999885559082
2019-01-18,6.929999828338623,6.400000095367432,6.739999771118164,6.570000171661377,31700,6.570000171661377
2019-01-22,6.760000228881836,6.309999942779541,6.539999961853027,6.309999942779541,17100,6.309999942779541
2019-01-23,6.510000228881836,6.309999942779541,6.409999847412109,6.360000133514404,6400,6.360000133514404
2019-01-24,6.769999980926514,6.400000095367432,6.400000095367432,6.559999942779541,18600,6.559999942779541
2019-01-25,6.925000190734863,6.494999885559082,6.650000095367432,6.889999866485596,18500,6.889999866485596
2019-01-28,6.789999961853027,6.552000045776367,6.739999771118164,6.610000133514404,12600,6.610000133514404
2019-01-29,6.755000114440918,6.5,6.570000171661377,6.755000114440918,18200,6.755000114440918
2019-01-30,6.880000114440918,6.690000057220459,6.71999979019165,6.880000114440918,20200,6.880000114440918
2019-01-31,6.989999771118164,6.659999847412109,6.710000038146973,6.869999885559082,25900,6.869999885559082
2019-02-01,6.920000076293945,6.849999904632568,6.880000114440918,6.869999885559082,8500,6.869999885559082
2019-02-04,6.889999866485596,6.60099983215332,6.869999885559082,6.760000228881836,29800,6.760000228881836
2019-02-05,6.849999904632568,6.563000202178955,6.840000152587891,6.800000190734863,3100,6.800000190734863
2019-02-06,6.949999809265137,6.659999847412109,6.78000020980835,6.900000095367432,23000,6.900000095367432
2019-02-07,6.929999828338623,6.690000057220459,6.920000076293945,6.760000228881836,7400,6.760000228881836
2019-02-08,6.889999866485596,6.570000171661377,6.800000190734863,6.590000152587891,21200,6.590000152587891
2019-02-11,6.550000190734863,6.349999904632568,6.510000228881836,6.349999904632568,29600,6.349999904632568
2019-02-12,6.539999961853027,5.929999828338623,6.429999828338623,6.0,48600,6.0
2019-02-13,6.360000133514404,5.900000095367432,6.079999923706055,5.949999809265137,28400,5.949999809265137
2019-02-14,6.300000190734863,5.909999847412109,5.909999847412109,6.210000038146973,13200,6.210000038146973
2019-02-15,6.289999961853027,6.130000114440918,6.210000038146973,6.25,10500,6.25
2019-02-19,7.489999771118164,6.150000095367432,6.150000095367432,7.429999828338623,475500,7.429999828338623
2019-02-20,8.920000076293945,7.940000057220459,8.140000343322754,8.850000381469727,815200,8.850000381469727
2019-02-21,8.890000343322754,8.140999794006348,8.640000343322754,8.720000267028809,180300,8.720000267028809
2019-02-22,8.920000076293945,8.449999809265137,8.449999809265137,8.739999771118164,130200,8.739999771118164
2019-02-25,9.218999862670898,8.666999816894531,9.09000015258789,8.949999809265137,154500,8.949999809265137
2019-02-26,9.829999923706055,8.8100004196167,9.210000038146973,9.520000457763672,201000,9.520000457763672
2019-02-27,9.720000267028809,9.260000228881836,9.510000228881836,9.479999542236328,121400,9.479999542236328
2019-02-28,9.40999984741211,9.069999694824219,9.210000038146973,9.15999984741211,80500,9.15999984741211
2019-03-01,9.329999923706055,8.949999809265137,9.0,9.140000343322754,64300,9.140000343322754
2019-03-04,9.255000114440918,8.84000015258789,9.140000343322754,9.0,67600,9.0
2019-03-05,9.050000190734863,8.62399959564209,9.039999961853027,8.75,93400,8.75
2019-03-06,8.725000381469727,8.399999618530273,8.656000137329102,8.470000267028809,120000,8.470000267028809
2019-03-07,8.470000267028809,8.140000343322754,8.470000267028809,8.140000343322754,78500,8.140000343322754
2019-03-08,8.734999656677246,8.140000343322754,8.140000343322754,8.319999694824219,88200,8.319999694824219
2019-03-11,8.5600004196167,8.199999809265137,8.470000267028809,8.359999656677246,129600,8.359999656677246
2019-03-12,8.520000457763672,8.329999923706055,8.449999809265137,8.369999885559082,77400,8.369999885559082
2019-03-13,8.600000381469727,8.329999923706055,8.399999618530273,8.399999618530273,64700,8.399999618530273
2019-03-14,8.649999618530273,8.1899995803833,8.449999809265137,8.390000343322754,206100,8.390000343322754
2019-03-15,8.53499984741211,7.5,7.519999980926514,8.210000038146973,492200,8.210000038146973
2019-03-18,8.369999885559082,7.559999942779541,8.0600004196167,7.96999979019165,144700,7.96999979019165
2019-03-19,8.020000457763672,7.690000057220459,7.989999771118164,7.920000076293945,62300,7.920000076293945
2019-03-20,8.086000442504883,7.730000019073486,7.909999847412109,7.730000019073486,56400,7.730000019073486
2019-03-21,7.841000080108643,7.599999904632568,7.599999904632568,7.619999885559082,84700,7.619999885559082
2019-03-22,7.795000076293945,7.420000076293945,7.599999904632568,7.420000076293945,110500,7.420000076293945
2019-03-25,7.429999828338623,7.110000133514404,7.380000114440918,7.110000133514404,76800,7.110000133514404
2019-03-26,7.619999885559082,7.110000133514404,7.199999809265137,7.130000114440918,154000,7.130000114440918
2019-03-27,7.190000057220459,6.900000095367432,7.119999885559082,7.170000076293945,117000,7.170000076293945
2019-03-28,7.420000076293945,7.03000020980835,7.130000114440918,7.320000171661377,52900,7.320000171661377
2019-03-29,7.730000019073486,7.309999942779541,7.380000114440918,7.659999847412109,53100,7.659999847412109
2019-04-01,7.836999893188477,7.579999923706055,7.699999809265137,7.690000057220459,71400,7.690000057220459
2019-04-02,7.76200008392334,7.388999938964844,7.739999771118164,7.570000171661377,43700,7.570000171661377
2019-04-03,7.78000020980835,7.539999961853027,7.630000114440918,7.619999885559082,60700,7.619999885559082
2019-04-04,7.867000102996826,7.599999904632568,7.619999885559082,7.849999904632568,51700,7.849999904632568
2019-04-05,7.929999828338623,7.820000171661377,7.909999847412109,7.920000076293945,40500,7.920000076293945
2019-04-08,7.960000038146973,7.795000076293945,7.940000057220459,7.949999809265137,40100,7.949999809265137
2019-04-09,7.989999771118164,7.800000190734863,7.989999771118164,7.949999809265137,38300,7.949999809265137
2019-04-10,8.119999885559082,7.948999881744385,7.989999771118164,8.039999961853027,55300,8.039999961853027
2019-04-11,8.454999923706055,8.0600004196167,8.069999694824219,8.4399995803833,60200,8.4399995803833
2019-04-12,8.623000144958496,8.399999618530273,8.600000381469727,8.399999618530273,72100,8.399999618530273
2019-04-15,8.649999618530273,8.40999984741211,8.5,8.59000015258789,59900,8.59000015258789
2019-04-16,9.119999885559082,8.649999618530273,8.6899995803833,8.890000343322754,134500,8.890000343322754
2019-04-17,9.09000015258789,8.800000190734863,9.09000015258789,8.920000076293945,64300,8.920000076293945
2019-04-18,9.239999771118164,8.885000228881836,8.960000038146973,9.239999771118164,111100,9.239999771118164
2019-04-22,9.220000267028809,9.0,9.220000267028809,9.050000190734863,58400,9.050000190734863
2019-04-23,9.15999984741211,8.619999885559082,9.050000190734863,8.710000038146973,65300,8.710000038146973
2019-04-24,8.6899995803833,8.199999809265137,8.6899995803833,8.390000343322754,51900,8.390000343322754
2019-04-25,8.359999656677246,8.104999542236328,8.350000381469727,8.25,26500,8.25
2019-04-26,8.850000381469727,8.149999618530273,8.180000305175781,8.619999885559082,56700,8.619999885559082
2019-04-29,8.59000015258789,8.239999771118164,8.569999694824219,8.5,50900,8.5
2019-04-30,8.630000114440918,8.220000267028809,8.489999771118164,8.479999542236328,38900,8.479999542236328
2019-05-01,8.890000343322754,8.390000343322754,8.479999542236328,8.65999984741211,34300,8.65999984741211
2019-05-02,8.65999984741211,7.980000019073486,8.65999984741211,7.980000019073486,68500,7.980000019073486
2019-05-03,8.279999732971191,8.0,8.079999923706055,8.130000114440918,23400,8.130000114440918
2019-05-06,8.1899995803833,7.869999885559082,8.020000457763672,8.010000228881836,47200,8.010000228881836
2019-05-07,8.229999542236328,7.619999885559082,7.960000038146973,7.800000190734863,106500,7.800000190734863
2019-05-08,8.199999809265137,7.699999809265137,7.75,7.75,50500,7.75
2019-05-09,8.369000434875488,7.199999809265137,7.510000228881836,7.739999771118164,129000,7.739999771118164
2019-05-10,7.670000076293945,7.0,7.570000171661377,7.210000038146973,99000,7.210000038146973
2019-05-13,7.210000038146973,6.900000095367432,7.199999809265137,7.050000190734863,94900,7.050000190734863
2019-05-14,7.690000057220459,7.050000190734863,7.050000190734863,7.690000057220459,41300,7.690000057220459
2019-05-15,7.909999847412109,7.449999809265137,7.670000076293945,7.539999961853027,52100,7.539999961853027
2019-05-16,7.579999923706055,7.150000095367432,7.190000057220459,7.239999771118164,48400,7.239999771118164
2019-05-17,7.230000019073486,6.929999828338623,7.150000095367432,7.159999847412109,73100,7.159999847412109
2019-05-20,7.230000019073486,7.0,7.159999847412109,7.090000152587891,30600,7.090000152587891
2019-05-21,7.510000228881836,7.150000095367432,7.510000228881836,7.199999809265137,37800,7.199999809265137
2019-05-22,7.2820000648498535,7.0,7.199999809265137,7.110000133514404,18100,7.110000133514404
2019-05-23,7.130000114440918,6.85099983215332,7.010000228881836,7.050000190734863,56000,7.050000190734863
2019-05-24,7.320000171661377,7.019999980926514,7.090000152587891,7.019999980926514,22900,7.019999980926514
