Date,High,Low,Open,Close,Volume,Adj Close
2017-11-02,226.19000244140625,219.63999938964844,224.85000610351562,221.0,305900.0,221.0
2017-11-03,231.44000244140625,222.77999877929688,225.30999755859375,228.89999389648438,625400.0,228.89999389648438
2017-11-06,229.2899932861328,226.2100067138672,228.89999389648438,227.30999755859375,264400.0,227.30999755859375
2018-01-16,214.85000610351562,211.25,213.4499969482422,211.55999755859375,138200.0,211.55999755859375
2018-01-17,212.1699981689453,210.06500244140625,211.8000030517578,211.3300018310547,140800.0,211.3300018310547
2018-01-18,212.3800048828125,209.71499633789062,211.1699981689453,210.44000244140625,87000.0,210.44000244140625
2018-01-19,212.69000244140625,210.52999877929688,211.25,212.0,103200.0,212.0
2018-01-22,213.54299926757812,210.67999267578125,213.0,211.3000030517578,261600.0,211.3000030517578
2018-01-23,213.14500427246094,210.5500030517578,211.83999633789062,211.0399932861328,168000.0,211.0399932861328
2018-01-24,216.0,211.61000061035156,213.14999389648438,214.07000732421875,166000.0,214.07000732421875
2018-01-25,214.89999389648438,210.33999633789062,214.89999389648438,212.0800018310547,177800.0,212.0800018310547
2018-01-26,214.6199951171875,211.25,212.5500030517578,214.0,222400.0,214.0
2018-01-29,216.08999633789062,212.2100067138672,213.22999572753906,214.61000061035156,264000.0,214.61000061035156
2018-01-30,215.4199981689453,212.4499969482422,213.82000732421875,214.22999572753906,119500.0,214.22999572753906
2018-01-31,217.2899932861328,212.58999633789062,217.2899932861328,215.83999633789062,134600.0,215.83999633789062
2018-02-01,219.8300018310547,213.25999450683594,214.39999389648438,217.75,346000.0,217.75
2018-02-02,229.30999755859375,218.00999450683594,228.63999938964844,220.69000244140625,395600.0,220.69000244140625
2018-02-05,225.5399932861328,218.87100219726562,219.97999572753906,220.94000244140625,302900.0,220.94000244140625
2018-02-06,221.0399932861328,215.61099243164062,218.02999877929688,218.49000549316406,241800.0,218.49000549316406
2018-02-07,220.25999450683594,215.99000549316406,217.99000549316406,217.02999877929688,190500.0,217.02999877929688
2018-02-08,218.3159942626953,210.55999755859375,218.25999450683594,210.77000427246094,274900.0,210.77000427246094
2018-02-09,212.86000061035156,205.22000122070312,212.2899932861328,209.24000549316406,346500.0,209.24000549316406
2018-02-12,211.62100219726562,207.97999572753906,209.47999572753906,208.74000549316406,275800.0,208.74000549316406
2018-02-13,210.57000732421875,207.47000122070312,208.38999938964844,210.02999877929688,382400.0,210.02999877929688
2018-02-14,220.27999877929688,208.75,208.75,219.9600067138672,421600.0,219.9600067138672
2018-02-15,227.93499755859375,218.0,220.2899932861328,226.14999389648438,229700.0,226.14999389648438
2018-02-16,229.74000549316406,225.14999389648438,225.39999389648438,226.97999572753906,194800.0,226.97999572753906
2018-02-20,230.4600067138672,225.22999572753906,226.7899932861328,229.97999572753906,213700.0,229.97999572753906
2018-02-21,236.39999389648438,228.0800018310547,230.5,232.13999938964844,332400.0,232.13999938964844
2018-02-22,235.25999450683594,229.19000244140625,233.35000610351562,229.55999755859375,249900.0,229.55999755859375
2018-02-23,233.05999755859375,228.67999267578125,230.17999267578125,231.97000122070312,235400.0,231.97000122070312
2018-02-26,250.36000061035156,235.47000122070312,235.47000122070312,246.77999877929688,541300.0,246.77999877929688
2018-02-27,246.32000732421875,239.71800231933594,246.11000061035156,242.75999450683594,290500.0,242.75999450683594
2018-02-28,245.47000122070312,241.69000244140625,243.3300018310547,244.1999969482422,443600.0,244.1999969482422
2018-03-01,245.2100067138672,238.33999633789062,244.07000732421875,240.0,200500.0,240.0
2018-03-02,240.07000732421875,237.6300048828125,238.24000549316406,239.3300018310547,238000.0,239.3300018310547
2018-03-05,243.47999572753906,238.72000122070312,239.1199951171875,242.9199981689453,210800.0,242.9199981689453
2018-03-06,245.4499969482422,238.16000366210938,242.77999877929688,242.55999755859375,217500.0,242.55999755859375
2018-03-07,243.99000549316406,240.5800018310547,241.32000732421875,242.55999755859375,188400.0,242.55999755859375
2018-03-08,245.82000732421875,241.32000732421875,243.69000244140625,244.36000061035156,150000.0,244.36000061035156
2018-03-09,247.0,242.0500030517578,245.4600067138672,244.6199951171875,93400.0,244.6199951171875
2018-03-12,254.5,245.47999572753906,245.47999572753906,249.77999877929688,298700.0,249.77999877929688
2018-03-13,252.25,246.3699951171875,251.19000244140625,246.85000610351562,171000.0,246.85000610351562
2018-03-14,248.52000427246094,243.05999755859375,247.57000732421875,247.80999755859375,152900.0,247.80999755859375
2018-03-15,249.44000244140625,244.2100067138672,247.63999938964844,247.35000610351562,81300.0,247.35000610351562
2018-03-16,248.4600067138672,243.7100067138672,247.8699951171875,243.8699951171875,166200.0,243.8699951171875
2018-03-19,243.30999755859375,237.2100067138672,243.30999755859375,238.36000061035156,196900.0,238.36000061035156
2018-03-20,242.59500122070312,237.6699981689453,239.35000610351562,241.94000244140625,157300.0,241.94000244140625
2018-03-21,244.83999633789062,240.44000244140625,241.44000244140625,244.05999755859375,177800.0,244.05999755859375
2018-03-22,249.25,240.83999633789062,242.27000427246094,244.39999389648438,208100.0,244.39999389648438
2018-03-23,245.63999938964844,240.49000549316406,244.0,241.66000366210938,183900.0,241.66000366210938
2018-03-26,246.32000732421875,243.0,244.0,245.30999755859375,117000.0,245.30999755859375
2018-03-27,246.9949951171875,242.00999450683594,245.8699951171875,243.60000610351562,123100.0,243.60000610351562
2018-03-28,244.89999389648438,240.89999389648438,243.38999938964844,242.52000427246094,182900.0,242.52000427246094
2018-03-29,246.49000549316406,242.02000427246094,243.6699981689453,245.8000030517578,177000.0,245.8000030517578
2018-04-02,245.5,239.69500732421875,244.82000732421875,242.82000732421875,288200.0,242.82000732421875
2018-04-03,244.0,238.39999389648438,244.0,241.75999450683594,234100.0,241.75999450683594
2018-04-04,243.9600067138672,239.25999450683594,239.25999450683594,242.3300018310547,175900.0,242.3300018310547
2018-04-05,245.1999969482422,241.72000122070312,242.8000030517578,244.77999877929688,109300.0,244.77999877929688
2018-04-06,246.36000061035156,242.39999389648438,243.75999450683594,245.1199951171875,161500.0,245.1199951171875
2018-04-09,248.08999633789062,243.25999450683594,245.91000366210938,245.72000122070312,196600.0,245.72000122070312
2018-04-10,247.75999450683594,244.38499450683594,247.33999633789062,245.7100067138672,183300.0,245.7100067138672
2018-04-11,246.66000366210938,242.55999755859375,244.3000030517578,244.25,89300.0,244.25
2018-04-12,245.8000030517578,239.0,244.94000244140625,240.6699981689453,175500.0,240.6699981689453
2018-04-13,242.7899932861328,239.27499389648438,241.0,241.47999572753906,175700.0,241.47999572753906
2018-04-16,243.6300048828125,240.11000061035156,241.58999633789062,242.72000122070312,164700.0,242.72000122070312
2018-04-17,244.47000122070312,241.2100067138672,244.47000122070312,242.64999389648438,140200.0,242.64999389648438
2018-04-18,245.3300018310547,243.02999877929688,243.58999633789062,244.17999267578125,187600.0,244.17999267578125
2018-04-19,245.0,241.4949951171875,243.1999969482422,243.57000732421875,140900.0,243.57000732421875
2018-04-20,245.9949951171875,242.27499389648438,243.72000122070312,244.64999389648438,208800.0,244.64999389648438
2018-04-23,247.74000549316406,242.27999877929688,245.4199981689453,242.38999938964844,112800.0,242.38999938964844
2018-04-24,244.1300048828125,240.47999572753906,242.6300048828125,241.52000427246094,128000.0,241.52000427246094
2018-04-25,242.48500061035156,239.72999572753906,242.30999755859375,240.99000549316406,253300.0,240.99000549316406
2018-04-26,243.88999938964844,240.6300048828125,240.63999938964844,242.5,113100.0,242.5
2018-04-27,246.77999877929688,241.5850067138672,242.82000732421875,245.1300048828125,231800.0,245.1300048828125
2018-04-30,246.5399932861328,241.64999389648438,244.75999450683594,243.02000427246094,255400.0,243.02000427246094
2018-05-01,243.10000610351562,236.77999877929688,243.10000610351562,238.91000366210938,300500.0,238.91000366210938
2018-05-02,245.72999572753906,237.13999938964844,239.69000244140625,237.9600067138672,211200.0,237.9600067138672
2018-05-03,248.9600067138672,236.85000610351562,236.85000610351562,246.7899932861328,413400.0,246.7899932861328
2018-05-04,251.85299682617188,244.46499633789062,246.05999755859375,251.05999755859375,280700.0,251.05999755859375
2018-05-07,253.16000366210938,249.97999572753906,251.72000122070312,250.57000732421875,162600.0,250.57000732421875
2018-05-08,252.7550048828125,248.74000549316406,251.0500030517578,249.3800048828125,186900.0,249.3800048828125
2018-05-09,251.69000244140625,246.25999450683594,250.0,251.30999755859375,291700.0,251.30999755859375
2018-05-10,254.2100067138672,251.02000427246094,252.27999877929688,252.8800048828125,137600.0,252.8800048828125
2018-05-11,254.80999755859375,252.39999389648438,253.00999450683594,254.1999969482422,89500.0,254.1999969482422
2018-05-14,263.9599914550781,252.5050048828125,253.60000610351562,260.8999938964844,556700.0,260.8999938964844
2018-05-15,266.9599914550781,258.1499938964844,260.32000732421875,266.54998779296875,259200.0,266.54998779296875
2018-05-16,270.2900085449219,265.8949890136719,266.1600036621094,267.2200012207031,203800.0,267.2200012207031
2018-05-17,269.6600036621094,266.1499938964844,268.0799865722656,266.55999755859375,131200.0,266.55999755859375
2018-05-18,268.8500061035156,265.8299865722656,266.45001220703125,266.8299865722656,181300.0,266.8299865722656
2018-05-21,270.0,262.739990234375,268.260009765625,265.2699890136719,170600.0,265.2699890136719
2018-05-22,266.010009765625,262.9700012207031,265.2099914550781,263.5400085449219,110800.0,263.5400085449219
2018-05-23,264.6700134277344,260.760009765625,262.0,264.0,119800.0,264.0
2018-05-24,266.25,263.1700134277344,264.3399963378906,265.4800109863281,92500.0,265.4800109863281
2018-05-25,266.6700134277344,265.010009765625,265.82000732421875,265.57000732421875,90500.0,265.57000732421875
2018-05-29,267.5799865722656,261.375,264.29998779296875,263.2300109863281,224800.0,263.2300109863281
2018-05-30,266.7200012207031,263.260009765625,263.79998779296875,264.6700134277344,277300.0,264.6700134277344
2018-05-31,265.4100036621094,260.42999267578125,264.17999267578125,262.0400085449219,155400.0,262.0400085449219
2018-06-01,264.6199951171875,261.2300109863281,262.6099853515625,263.67999267578125,184500.0,263.67999267578125
2018-06-04,266.45001220703125,261.5,264.0199890136719,263.67999267578125,152700.0,263.67999267578125
2018-06-05,265.5899963378906,261.8599853515625,264.3999938964844,265.4700012207031,144300.0,265.4700012207031
2018-06-06,268.8299865722656,265.55999755859375,265.75,268.4100036621094,183500.0,268.4100036621094
2018-06-07,271.760009765625,268.1499938964844,268.67999267578125,271.54998779296875,216800.0,271.54998779296875
2018-06-08,274.5799865722656,268.6199951171875,271.1300048828125,274.3399963378906,234600.0,274.3399963378906
2018-06-11,277.42999267578125,272.010009765625,274.3900146484375,275.510009765625,291100.0,275.510009765625
2018-06-12,277.3399963378906,275.54998779296875,275.5799865722656,276.2900085449219,210700.0,276.2900085449219
2018-06-13,277.3599853515625,273.04998779296875,276.0,273.70001220703125,215900.0,273.70001220703125
2018-06-14,276.3699951171875,272.57501220703125,274.010009765625,274.54998779296875,123300.0,274.54998779296875
2018-06-15,276.9700012207031,273.2300109863281,274.6199951171875,274.8999938964844,165000.0,274.8999938964844
2018-06-18,282.010009765625,273.44000244140625,274.2300109863281,280.0,191100.0,280.0
2018-06-19,280.9100036621094,275.6400146484375,278.2300109863281,276.010009765625,112900.0,276.010009765625
2018-06-20,284.19000244140625,276.8500061035156,277.2900085449219,282.3800048828125,248600.0,282.3800048828125
2018-06-21,283.1000061035156,277.510009765625,281.9200134277344,278.6600036621094,206400.0,278.6600036621094
2018-06-22,280.489990234375,278.0,280.489990234375,278.6400146484375,122200.0,278.6400146484375
2018-06-25,278.8800048828125,271.9700012207031,278.8800048828125,273.5,141700.0,273.5
2018-06-26,275.0899963378906,271.260009765625,274.8800048828125,271.6600036621094,135300.0,271.6600036621094
2018-06-27,272.92498779296875,265.9200134277344,272.0,266.2300109863281,185300.0,266.2300109863281
2018-06-28,304.45001220703125,288.81500244140625,290.0,303.2900085449219,1235600.0,303.2900085449219
2018-06-29,321.9200134277344,305.5,309.1499938964844,310.19000244140625,659600.0,310.19000244140625
2018-07-02,323.3999938964844,307.7200012207031,309.57000732421875,321.3699951171875,492400.0,321.3699951171875
2018-07-03,321.6300048828125,315.5150146484375,321.6300048828125,316.3299865722656,212000.0,316.3299865722656
2018-07-05,320.2699890136719,313.54998779296875,317.9599914550781,319.04998779296875,207700.0,319.04998779296875
2018-07-06,328.19000244140625,318.5,319.9800109863281,327.29998779296875,303300.0,327.29998779296875
2018-07-09,330.0,320.1400146484375,330.0,322.0199890136719,434300.0,322.0199890136719
2018-07-10,325.55999755859375,319.42999267578125,324.2799987792969,320.19000244140625,504900.0,320.19000244140625
2018-07-11,325.7699890136719,319.0,319.0,319.8299865722656,252600.0,319.8299865722656
2018-07-12,323.1700134277344,318.375,320.0,321.1700134277344,171000.0,321.1700134277344
2018-07-13,326.70001220703125,321.114990234375,321.32000732421875,326.32000732421875,120900.0,326.32000732421875
2018-07-16,328.3399963378906,324.07000732421875,327.489990234375,325.239990234375,158900.0,325.239990234375
2018-07-17,327.760009765625,323.0400085449219,324.0899963378906,324.6000061035156,192000.0,324.6000061035156
2018-07-18,325.1000061035156,320.80999755859375,325.0899963378906,323.0,200100.0,323.0
2018-07-19,325.6099853515625,321.9549865722656,322.54998779296875,322.9800109863281,181300.0,322.9800109863281
2018-07-20,325.9599914550781,317.8999938964844,323.0299987792969,323.739990234375,149600.0,323.739990234375
2018-07-23,323.239990234375,318.2300109863281,323.239990234375,321.55999755859375,118800.0,321.55999755859375
2018-07-24,324.260009765625,311.8399963378906,324.260009765625,313.2099914550781,258700.0,313.2099914550781
2018-07-25,315.9100036621094,310.0899963378906,313.1400146484375,314.5899963378906,187500.0,314.5899963378906
2018-07-26,316.4200134277344,312.3999938964844,313.3800048828125,315.32000732421875,104500.0,315.32000732421875
2018-07-27,316.3800048828125,309.4800109863281,315.42999267578125,310.7300109863281,83900.0,310.7300109863281
2018-07-30,312.760009765625,306.489990234375,311.20001220703125,309.6099853515625,162100.0,309.6099853515625
2018-07-31,313.79998779296875,307.0899963378906,309.45001220703125,312.17999267578125,102600.0,312.17999267578125
2018-08-01,314.8699951171875,309.0799865722656,312.17999267578125,309.54998779296875,164500.0,309.54998779296875
2018-08-02,314.010009765625,307.04998779296875,308.5,312.9700012207031,92900.0,312.9700012207031
2018-08-03,314.5400085449219,308.1300048828125,312.45001220703125,311.1400146484375,134600.0,311.1400146484375
2018-08-06,316.75,311.25,311.94000244140625,315.1400146484375,145000.0,315.1400146484375
2018-08-07,321.3999938964844,315.19000244140625,316.0,320.1600036621094,142900.0,320.1600036621094
2018-08-08,320.1700134277344,314.4049987792969,320.1000061035156,316.5199890136719,103600.0,316.5199890136719
2018-08-09,319.6300048828125,314.0199890136719,315.8800048828125,318.44000244140625,81700.0,318.44000244140625
2018-08-10,320.489990234375,317.7300109863281,317.7300109863281,319.44000244140625,72200.0,319.44000244140625
2018-08-13,320.6099853515625,308.6600036621094,319.1499938964844,309.54998779296875,346600.0,309.54998779296875
2018-08-14,314.5199890136719,311.0,311.07000732421875,312.8599853515625,194000.0,312.8599853515625
2018-08-15,314.989990234375,308.010009765625,312.92999267578125,309.8599853515625,217000.0,309.8599853515625
2018-08-16,313.4800109863281,301.1600036621094,305.0,303.1099853515625,687400.0,303.1099853515625
2018-08-17,301.9599914550781,294.260009765625,301.9599914550781,298.1700134277344,202800.0,298.1700134277344
2018-08-20,300.7699890136719,296.1099853515625,299.2799987792969,297.2200012207031,183500.0,297.2200012207031
2018-08-21,306.79998779296875,300.7799987792969,301.0,303.0,161200.0,303.0
2018-08-22,303.6600036621094,297.3900146484375,303.5299987792969,297.95001220703125,110000.0,297.95001220703125
2018-08-23,300.3999938964844,296.5199890136719,298.54998779296875,297.25,103300.0,297.25
2018-08-24,298.7099914550781,295.0299987792969,296.8599853515625,296.489990234375,198300.0,296.489990234375
2018-08-27,299.55999755859375,292.739990234375,297.2699890136719,293.92999267578125,129200.0,293.92999267578125
2018-08-28,300.20001220703125,294.0899963378906,294.0899963378906,299.4100036621094,246300.0,299.4100036621094
2018-08-29,304.1000061035156,299.5199890136719,300.0799865722656,302.95001220703125,199200.0,302.95001220703125
2018-08-30,305.4200134277344,301.1700134277344,302.95001220703125,303.5199890136719,149100.0,303.5199890136719
2018-08-31,303.7959899902344,300.5799865722656,302.19000244140625,301.94000244140625,186200.0,301.94000244140625
2018-09-04,311.6600036621094,296.92999267578125,300.510009765625,307.5199890136719,342800.0,307.5199890136719
2018-09-05,307.7300109863281,299.6199951171875,306.739990234375,302.1199951171875,472300.0,302.1199951171875
2018-09-06,303.1400146484375,298.8999938964844,303.0299987792969,300.7099914550781,151700.0,300.7099914550781
2018-09-07,310.17498779296875,300.4150085449219,300.7900085449219,308.3999938964844,366100.0,308.3999938964844
2018-09-10,314.8450012207031,307.3699951171875,309.7300109863281,313.80999755859375,246300.0,313.80999755859375
2018-09-11,314.6300048828125,310.3399963378906,313.3800048828125,310.45001220703125,181500.0,310.45001220703125
2018-09-12,312.1499938964844,307.0,310.0,311.6199951171875,119800.0,311.6199951171875
2018-09-13,315.8399963378906,311.19000244140625,312.05999755859375,312.5299987792969,109800.0,312.5299987792969
2018-09-14,314.82501220703125,305.29998779296875,313.3399963378906,309.1000061035156,176100.0,309.1000061035156
2018-09-17,311.510009765625,303.760009765625,309.9800109863281,304.42999267578125,153500.0,304.42999267578125
2018-09-18,307.42999267578125,302.9100036621094,304.0,307.1400146484375,166500.0,307.1400146484375
2018-09-19,307.989990234375,301.2300109863281,307.3500061035156,303.260009765625,118200.0,303.260009765625
2018-09-20,306.8699951171875,301.04998779296875,303.95001220703125,305.2699890136719,105900.0,305.2699890136719
2018-09-21,306.55999755859375,303.1300048828125,305.3399963378906,304.1600036621094,149800.0,304.1600036621094
2018-09-24,304.19000244140625,301.07000732421875,302.70001220703125,303.3500061035156,100700.0,303.3500061035156
2018-09-25,309.94000244140625,302.6099853515625,303.20001220703125,309.54998779296875,169800.0,309.54998779296875
2018-09-26,316.7650146484375,306.6199951171875,309.8900146484375,306.8399963378906,219700.0,306.8399963378906
2018-09-27,312.3450012207031,304.3399963378906,306.3599853515625,311.3999938964844,149100.0,311.3999938964844
2018-09-28,317.6730041503906,310.05999755859375,311.1300048828125,315.32000732421875,235100.0,315.32000732421875
2018-10-01,317.70001220703125,307.260009765625,315.7799987792969,309.75,210400.0,309.75
2018-10-02,314.8399963378906,307.010009765625,309.7099914550781,310.1300048828125,109000.0,310.1300048828125
2018-10-03,312.5899963378906,307.5799865722656,311.0400085449219,308.75,195500.0,308.75
2018-10-04,315.1099853515625,299.5899963378906,311.79998779296875,309.4700012207031,522200.0,309.4700012207031
2018-10-05,310.3900146484375,295.42999267578125,310.1300048828125,300.6199951171875,324500.0,300.6199951171875
2018-10-08,300.1099853515625,290.54998779296875,299.3299865722656,290.8999938964844,228200.0,290.8999938964844
2018-10-09,293.5,287.80999755859375,290.69000244140625,291.45001220703125,357800.0,291.45001220703125
2018-10-10,291.2900085449219,280.5799865722656,291.2900085449219,280.7699890136719,398200.0,280.7699890136719
2018-10-11,287.9800109863281,278.3529968261719,280.1700134277344,280.7099914550781,326500.0,280.7099914550781
2018-10-12,291.0,285.010009765625,287.1099853515625,288.010009765625,221700.0,288.010009765625
2018-10-15,295.5249938964844,283.9100036621094,287.1099853515625,291.45001220703125,124900.0,291.45001220703125
2018-10-16,300.8900146484375,293.7300109863281,293.80999755859375,298.95001220703125,143500.0,298.95001220703125
2018-10-17,300.8299865722656,289.489990234375,298.9599914550781,292.1600036621094,207500.0,292.1600036621094
2018-10-18,291.6600036621094,281.8999938964844,290.19000244140625,285.9599914550781,247700.0,285.9599914550781
2018-10-19,295.67999267578125,283.57000732421875,287.6600036621094,287.4100036621094,333500.0,287.4100036621094
2018-10-22,288.44000244140625,283.3900146484375,288.44000244140625,286.3699951171875,158100.0,286.3699951171875
2018-10-23,285.92999267578125,280.5199890136719,283.8699951171875,281.739990234375,196900.0,281.739990234375
2018-10-24,283.8999938964844,271.8599853515625,282.29998779296875,272.260009765625,313000.0,272.260009765625
2018-10-25,278.2349853515625,271.6400146484375,274.7099914550781,276.3500061035156,312700.0,276.3500061035156
2018-10-26,273.7300109863281,264.19000244140625,273.0400085449219,270.92999267578125,384600.0,270.92999267578125
2018-10-29,277.9599914550781,265.3299865722656,273.25,271.1499938964844,518500.0,271.1499938964844
2018-10-30,276.54998779296875,269.4599914550781,270.7300109863281,275.8500061035156,302900.0,275.8500061035156
2018-10-31,284.6000061035156,275.7650146484375,279.20001220703125,276.6199951171875,436700.0,276.6199951171875
2018-11-01,280.3500061035156,269.9100036621094,278.80999755859375,271.25,641500.0,271.25
2018-11-02,272.20001220703125,257.3999938964844,272.20001220703125,262.0899963378906,869400.0,262.0899963378906
2018-11-05,277.0199890136719,265.0,265.0,273.989990234375,413100.0,273.989990234375
2018-11-06,277.3900146484375,271.2699890136719,273.8699951171875,274.6300048828125,439300.0,274.6300048828125
2018-11-07,280.8500061035156,271.875,276.32000732421875,277.42999267578125,331800.0,277.42999267578125
2018-11-08,279.57000732421875,271.2799987792969,276.92999267578125,272.5,156700.0,272.5
2018-11-09,273.5899963378906,270.0,270.8599853515625,271.0400085449219,256000.0,271.0400085449219
2018-11-12,271.1499938964844,260.31500244140625,271.1499938964844,264.760009765625,253500.0,264.760009765625
2018-11-13,269.04998779296875,260.55999755859375,265.29998779296875,262.6600036621094,242400.0,262.6600036621094
2018-11-14,265.0,251.2899932861328,264.57000732421875,252.55999755859375,554400.0,252.55999755859375
2018-11-15,257.864990234375,250.1300048828125,251.24000549316406,256.3500061035156,240000.0,256.3500061035156
2018-11-16,258.8699951171875,253.9199981689453,255.3000030517578,257.5899963378906,224000.0,257.5899963378906
2018-11-19,257.5899963378906,250.1999969482422,257.54998779296875,250.91000366210938,343400.0,250.91000366210938
2018-11-20,257.7699890136719,246.19000244140625,246.6199951171875,254.2100067138672,363000.0,254.2100067138672
2018-11-21,261.5299987792969,253.42799377441406,255.50999450683594,260.0,184800.0,260.0
2018-11-23,262.04998779296875,257.0400085449219,258.6600036621094,261.1300048828125,74400.0,261.1300048828125
2018-11-26,267.57000732421875,263.3450012207031,264.1300048828125,264.9200134277344,452200.0,264.9200134277344
2018-11-27,266.45001220703125,260.2200012207031,264.7699890136719,261.0299987792969,200800.0,261.0299987792969
2018-11-28,274.9599914550781,261.1099853515625,262.54998779296875,274.6300048828125,308300.0,274.6300048828125
2018-11-29,275.8999938964844,266.8699951171875,272.5899963378906,272.2099914550781,253400.0,272.2099914550781
2018-11-30,275.95001220703125,267.2309875488281,272.489990234375,270.0199890136719,333200.0,270.0199890136719
2018-12-03,274.9800109863281,266.2099914550781,274.3800048828125,270.1099853515625,227500.0,270.1099853515625
2018-12-04,272.3299865722656,261.4700012207031,268.489990234375,262.0,375200.0,262.0
2018-12-06,272.489990234375,256.0199890136719,257.94000244140625,271.0199890136719,466500.0,271.0199890136719
2018-12-07,273.6000061035156,267.17999267578125,270.95001220703125,271.4800109863281,306800.0,271.4800109863281
2018-12-10,280.7699890136719,270.5199890136719,271.7200012207031,279.17999267578125,392400.0,279.17999267578125
2018-12-11,281.1199951171875,268.17999267578125,281.1199951171875,268.989990234375,366800.0,268.989990234375
2018-12-12,272.1199951171875,264.1099853515625,272.1199951171875,266.54998779296875,417900.0,266.54998779296875
2018-12-13,268.4200134277344,260.8900146484375,266.9100036621094,262.760009765625,380600.0,262.760009765625
2018-12-14,264.3760070800781,257.6000061035156,261.04998779296875,261.489990234375,450500.0,261.489990234375
2018-12-17,279.6300048828125,260.739990234375,260.739990234375,265.0,729000.0,265.0
2018-12-18,266.1199951171875,258.8299865722656,266.07000732421875,259.2099914550781,279400.0,259.2099914550781
2018-12-19,262.4100036621094,255.0800018310547,258.17999267578125,257.3999938964844,211000.0,257.3999938964844
2018-12-20,258.2900085449219,250.5,256.4200134277344,252.67999267578125,225200.0,252.67999267578125
2018-12-21,255.35000610351562,245.71600341796875,253.22000122070312,247.02000427246094,235000.0,247.02000427246094
2018-12-24,246.24000549316406,240.3300018310547,245.0,242.5399932861328,114800.0,242.5399932861328
2018-12-26,255.7899932861328,245.6199951171875,248.13999938964844,255.5500030517578,473500.0,255.5500030517578
2018-12-27,258.30999755859375,249.6199951171875,251.2899932861328,258.1600036621094,235900.0,258.1600036621094
2018-12-28,265.9800109863281,255.50999450683594,258.2099914550781,262.3500061035156,488800.0,262.3500061035156
2018-12-31,267.70001220703125,262.2900085449219,263.4100036621094,267.70001220703125,185600.0,267.70001220703125
2019-01-02,266.8599853515625,259.7539978027344,263.510009765625,265.6099853515625,315900.0,265.6099853515625
2019-01-03,266.989990234375,259.5899963378906,263.8599853515625,260.7799987792969,292700.0,260.7799987792969
2019-01-04,271.239990234375,263.510986328125,264.0899963378906,266.32000732421875,308600.0,266.32000732421875
2019-01-07,270.7179870605469,264.1499938964844,266.8599853515625,268.4800109863281,429200.0,268.4800109863281
2019-01-08,273.2200012207031,264.8500061035156,270.29998779296875,269.3999938964844,215100.0,269.3999938964844
2019-01-09,271.44500732421875,267.625,269.8800048828125,270.7300109863281,175500.0,270.7300109863281
2019-01-10,277.94000244140625,268.010009765625,269.25,277.6199951171875,279700.0,277.6199951171875
2019-01-11,282.2699890136719,275.0,276.30999755859375,280.0899963378906,265700.0,280.0899963378906
2019-01-14,279.7049865722656,273.7200012207031,277.9100036621094,274.3999938964844,183500.0,274.3999938964844
2019-01-15,276.92999267578125,270.29998779296875,275.6400146484375,271.6400146484375,191900.0,271.6400146484375
2019-01-16,273.4800109863281,268.7049865722656,271.82000732421875,271.0899963378906,224200.0,271.0899963378906
2019-01-17,273.7349853515625,269.6099853515625,270.510009765625,271.6600036621094,218700.0,271.6600036621094
2019-01-18,275.1000061035156,271.0400085449219,272.7799987792969,274.5899963378906,211700.0,274.5899963378906
2019-01-22,278.95001220703125,270.92999267578125,272.69000244140625,273.7200012207031,233400.0,273.7200012207031
2019-01-23,278.3999938964844,270.5799865722656,276.04998779296875,274.32000732421875,223300.0,274.32000732421875
2019-01-24,278.20001220703125,274.1000061035156,274.3299865722656,277.5199890136719,260700.0,277.5199890136719
2019-01-25,282.7699890136719,277.3500061035156,279.760009765625,278.92999267578125,233600.0,278.92999267578125
2019-01-28,283.375,276.19000244140625,278.0,279.94000244140625,254500.0,279.94000244140625
2019-01-29,280.3699951171875,274.45001220703125,280.20001220703125,274.8900146484375,193500.0,274.8900146484375
2019-01-30,277.9200134277344,272.5400085449219,276.9700012207031,276.8699951171875,178600.0,276.8699951171875
2019-01-31,280.760009765625,275.3500061035156,277.6400146484375,277.8999938964844,278800.0,277.8999938964844
2019-02-01,284.9599914550781,266.5299987792969,277.9200134277344,279.05999755859375,861400.0,279.05999755859375
2019-02-04,287.1700134277344,277.135009765625,278.9700012207031,279.7699890136719,360900.0,279.7699890136719
2019-02-05,289.3399963378906,280.6499938964844,280.6499938964844,287.489990234375,237500.0,287.489990234375
2019-02-06,287.8900146484375,281.260009765625,287.8900146484375,284.1300048828125,205600.0,284.1300048828125
2019-02-07,284.0,279.1400146484375,284.0,283.2200012207031,155200.0,283.2200012207031
2019-02-08,289.1199951171875,281.0299987792969,282.0,287.8800048828125,158900.0,287.8800048828125
2019-02-11,290.82000732421875,287.30999755859375,289.3699951171875,288.3800048828125,190800.0,288.3800048828125
2019-02-12,292.20001220703125,287.8900146484375,291.2799987792969,290.3900146484375,346700.0,290.3900146484375
2019-02-13,290.5899963378906,286.8500061035156,290.5899963378906,289.3500061035156,142700.0,289.3500061035156
2019-02-14,292.4200134277344,287.82501220703125,289.1499938964844,290.0199890136719,220800.0,290.0199890136719
2019-02-15,293.32501220703125,289.3949890136719,291.05999755859375,291.7099914550781,131800.0,291.7099914550781
2019-02-19,296.5299987792969,291.1000061035156,291.1000061035156,295.30999755859375,229100.0,295.30999755859375
2019-02-20,300.8349914550781,293.20001220703125,295.7799987792969,295.17999267578125,206600.0,295.17999267578125
2019-02-21,297.6099853515625,292.9800109863281,295.1700134277344,295.0299987792969,175400.0,295.0299987792969
2019-02-22,298.4100036621094,294.69000244140625,295.57000732421875,297.42999267578125,145900.0,297.42999267578125
2019-02-25,300.0,290.82000732421875,300.0,291.80999755859375,320100.0,291.80999755859375
2019-02-26,292.0,287.260009765625,292.0,289.1600036621094,235000.0,289.1600036621094
2019-02-27,290.6300048828125,285.4100036621094,289.2799987792969,287.9700012207031,188500.0,287.9700012207031
2019-02-28,290.1449890136719,285.7099914550781,288.4800109863281,288.1400146484375,140400.0,288.1400146484375
2019-03-01,293.7300109863281,288.2799987792969,289.8900146484375,293.19000244140625,264000.0,293.19000244140625
2019-03-04,296.2250061035156,285.9440002441406,294.44000244140625,289.0,214500.0,289.0
2019-03-05,292.8800048828125,288.0199890136719,290.0,291.80999755859375,258400.0,291.80999755859375
2019-03-06,295.8999938964844,290.6050109863281,290.80999755859375,294.32000732421875,184300.0,294.32000732421875
2019-03-07,298.79998779296875,292.0150146484375,294.8800048828125,295.1000061035156,225100.0,295.1000061035156
2019-03-08,294.8500061035156,291.760009765625,292.2300109863281,293.510009765625,119000.0,293.510009765625
2019-03-11,298.0,293.0050048828125,294.32000732421875,297.07000732421875,191500.0,297.07000732421875
2019-03-12,298.75,293.94000244140625,297.2900085449219,296.010009765625,211400.0,296.010009765625
2019-03-13,298.614990234375,294.04998779296875,296.5,296.8500061035156,142900.0,296.8500061035156
2019-03-14,296.57501220703125,294.6300048828125,296.1000061035156,295.0199890136719,160200.0,295.0199890136719
2019-03-15,298.44000244140625,295.0,295.7300109863281,297.29998779296875,195900.0,297.29998779296875
2019-03-18,298.3299865722656,293.8599853515625,297.2900085449219,294.4800109863281,131000.0,294.4800109863281
2019-03-19,295.57000732421875,291.2149963378906,295.4599914550781,292.20001220703125,205600.0,292.20001220703125
2019-03-20,292.89300537109375,288.1400146484375,292.30999755859375,291.6700134277344,144700.0,291.6700134277344
2019-03-21,297.4200134277344,291.0,291.0,294.92999267578125,84500.0,294.92999267578125
2019-03-22,294.2449951171875,284.92999267578125,293.42999267578125,286.6400146484375,156500.0,286.6400146484375
2019-03-25,288.94000244140625,285.0,286.1000061035156,286.4200134277344,216200.0,286.4200134277344
2019-03-26,288.0570068359375,284.3399963378906,286.45001220703125,286.1099853515625,282600.0,286.1099853515625
2019-03-27,289.1000061035156,284.92999267578125,286.4200134277344,288.2900085449219,118500.0,288.2900085449219
2019-03-28,294.5,288.79998779296875,289.2799987792969,293.5,113600.0,293.5
2019-03-29,295.0,291.94500732421875,294.6199951171875,293.1300048828125,89300.0,293.1300048828125
2019-04-01,296.5400085449219,291.43499755859375,295.07000732421875,293.07000732421875,179500.0,293.07000732421875
2019-04-02,298.0,291.0,293.20001220703125,297.3999938964844,148500.0,297.3999938964844
2019-04-03,300.80999755859375,297.864990234375,299.0899963378906,298.70001220703125,116000.0,298.70001220703125
2019-04-04,300.44000244140625,294.57000732421875,299.17999267578125,295.260009765625,105700.0,295.260009765625
2019-04-05,298.2699890136719,296.2099914550781,296.2099914550781,297.25,69900.0,297.25
2019-04-08,298.010009765625,295.1199951171875,298.0,296.989990234375,65300.0,296.989990234375
2019-04-09,302.8280029296875,295.9800109863281,295.9800109863281,300.2099914550781,148300.0,300.2099914550781
2019-04-10,306.1199951171875,301.0,301.5299987792969,303.75,132000.0,303.75
2019-04-11,305.1650085449219,302.5899963378906,304.3999938964844,303.7900085449219,160500.0,303.7900085449219
2019-04-12,306.0,303.5249938964844,305.7099914550781,305.3299865722656,66100.0,305.3299865722656
2019-04-15,307.489990234375,303.25,305.010009765625,307.29998779296875,96300.0,307.29998779296875
2019-04-16,310.0,306.3800048828125,307.6000061035156,309.8399963378906,97500.0,309.8399963378906
2019-04-17,311.0400085449219,306.57000732421875,311.0400085449219,307.7200012207031,101000.0,307.7200012207031
2019-04-18,309.54998779296875,303.9849853515625,308.010009765625,308.20001220703125,100700.0,308.20001220703125
2019-04-22,308.0400085449219,301.2300109863281,307.239990234375,304.1400146484375,139600.0,304.1400146484375
2019-04-23,308.6499938964844,304.4169921875,304.92999267578125,307.7099914550781,139000.0,307.7099914550781
2019-04-24,312.92999267578125,306.8299865722656,306.8299865722656,309.7900085449219,138500.0,309.7900085449219
2019-04-25,309.989990234375,306.54998779296875,309.4700012207031,307.260009765625,130600.0,307.260009765625
2019-04-26,312.739990234375,306.4599914550781,308.29998779296875,312.04998779296875,78300.0,312.04998779296875
2019-04-29,315.95001220703125,311.6300048828125,312.3800048828125,312.3500061035156,101700.0,312.3500061035156
2019-04-30,313.6499938964844,308.4800109863281,312.30999755859375,312.44000244140625,106300.0,312.44000244140625
2019-05-01,314.0,308.3800048828125,313.0,308.3900146484375,70700.0,308.3900146484375
2019-05-02,310.07000732421875,305.29998779296875,308.1700134277344,308.8500061035156,117300.0,308.8500061035156
2019-05-03,309.4849853515625,305.67999267578125,307.30999755859375,307.2200012207031,91800.0,307.2200012207031
2019-05-06,310.7449951171875,302.6000061035156,302.6000061035156,309.55999755859375,88800.0,309.55999755859375
2019-05-07,308.0,302.9200134277344,306.8999938964844,304.8299865722656,146400.0,304.8299865722656
2019-05-08,302.0899963378906,295.0,301.5299987792969,295.29998779296875,311600.0,295.29998779296875
2019-05-09,296.54998779296875,290.7799987792969,292.2099914550781,296.1199951171875,246800.0,296.1199951171875
2019-05-10,302.6549987792969,293.5,294.8900146484375,301.69000244140625,170300.0,301.69000244140625
2019-05-13,304.04998779296875,296.69000244140625,297.0899963378906,302.260009765625,177000.0,302.260009765625
2019-05-14,303.4960021972656,299.3500061035156,302.4200134277344,302.4100036621094,176200.0,302.4100036621094
2019-05-15,304.0,297.6000061035156,300.3399963378906,301.67999267578125,128400.0,301.67999267578125
2019-05-16,307.3999938964844,302.55999755859375,303.6300048828125,304.489990234375,118500.0,304.489990234375
2019-05-17,305.82000732421875,299.489990234375,301.8599853515625,301.42999267578125,86700.0,301.42999267578125
2019-05-20,304.2650146484375,298.0199890136719,301.1000061035156,303.4200134277344,110600.0,303.4200134277344
2019-05-21,308.4549865722656,304.0150146484375,304.9200134277344,306.2099914550781,114200.0,306.2099914550781
2019-05-22,308.010009765625,302.2099914550781,305.739990234375,302.2799987792969,77600.0,302.2799987792969
2019-05-23,304.3900146484375,298.5,300.42999267578125,301.6300048828125,171900.0,301.6300048828125
2019-05-24,304.29998779296875,296.6050109863281,303.989990234375,298.3900146484375,124600.0,298.3900146484375
