Date,High,Low,Open,Close,Volume,Adj Close
2015-05-28,3.75,3.5,3.75,3.5,2500.0,3.5
2015-05-29,3.5,3.5,3.5,3.5,0.0,3.5
2015-06-01,3.5,3.5,3.5,3.5,0.0,3.5
2015-06-02,3.5,3.5,3.5,3.5,0.0,3.5
2015-06-03,3.5,3.5,3.5,3.5,0.0,3.5
2015-06-04,3.5,3.5,3.5,3.5,0.0,3.5
2015-06-05,3.5,3.5,3.5,3.5,0.0,3.5
2015-06-08,4.0,4.0,4.0,4.0,400.0,4.0
2015-06-09,4.0,4.0,4.0,4.0,0.0,4.0
2015-06-10,4.0,4.0,4.0,4.0,0.0,4.0
2015-06-11,4.0,4.0,4.0,4.0,0.0,4.0
2015-06-12,4.0,4.0,4.0,4.0,0.0,4.0
2015-06-15,4.0,4.0,4.0,4.0,0.0,4.0
2015-06-16,4.0,4.0,4.0,4.0,0.0,4.0
2015-06-17,4.0,4.0,4.0,4.0,0.0,4.0
2015-06-18,4.0,4.0,4.0,4.0,0.0,4.0
2015-06-19,4.0,4.0,4.0,4.0,0.0,4.0
2015-06-22,4.0,4.0,4.0,4.0,0.0,4.0
2015-06-23,4.0,4.0,4.0,4.0,0.0,4.0
2015-06-24,4.0,4.0,4.0,4.0,0.0,4.0
2015-06-25,4.0,4.0,4.0,4.0,0.0,4.0
2015-06-26,4.0,4.0,4.0,4.0,0.0,4.0
2015-06-29,4.0,4.0,4.0,4.0,0.0,4.0
2015-06-30,4.0,4.0,4.0,4.0,0.0,4.0
2015-07-01,4.0,4.0,4.0,4.0,0.0,4.0
2015-07-02,4.0,4.0,4.0,4.0,0.0,4.0
2015-07-06,4.0,4.0,4.0,4.0,0.0,4.0
2015-07-07,4.0,4.0,4.0,4.0,0.0,4.0
2015-07-08,4.0,4.0,4.0,4.0,0.0,4.0
2015-07-09,4.0,4.0,4.0,4.0,0.0,4.0
2015-07-10,4.0,4.0,4.0,4.0,1000.0,4.0
2015-07-13,4.25,4.25,4.25,4.25,100.0,4.25
2015-07-14,4.25,4.25,4.25,4.25,0.0,4.25
2015-07-15,4.25,4.25,4.25,4.25,0.0,4.25
2015-07-16,3.5,3.5,3.5,3.5,200.0,3.5
2015-07-17,3.5,3.5,3.5,3.5,0.0,3.5
2015-07-20,3.5,3.5,3.5,3.5,0.0,3.5
2015-07-21,3.5,3.5,3.5,3.5,0.0,3.5
2015-07-22,3.5,3.5,3.5,3.5,0.0,3.5
2015-07-23,3.5,3.5,3.5,3.5,0.0,3.5
2015-07-24,3.5,3.5,3.5,3.5,0.0,3.5
2015-07-27,3.5,3.5,3.5,3.5,0.0,3.5
2015-07-28,3.5,3.5,3.5,3.5,0.0,3.5
2015-07-29,3.5,3.5,3.5,3.5,0.0,3.5
2015-07-30,4.0,4.0,4.0,4.0,2500.0,4.0
2015-07-31,4.0,4.0,4.0,4.0,0.0,4.0
2015-08-03,4.0,4.0,4.0,4.0,0.0,4.0
2015-08-04,4.0,4.0,4.0,4.0,0.0,4.0
2015-08-05,4.0,4.0,4.0,4.0,0.0,4.0
2015-08-06,4.0,4.0,4.0,4.0,0.0,4.0
2015-08-07,4.0,4.0,4.0,4.0,0.0,4.0
2015-08-10,4.0,4.0,4.0,4.0,0.0,4.0
2015-08-11,4.199999809265137,4.199999809265137,4.199999809265137,4.199999809265137,4000.0,4.199999809265137
2015-08-12,4.199999809265137,4.199999809265137,4.199999809265137,4.199999809265137,0.0,4.199999809265137
2015-08-13,4.199999809265137,4.199999809265137,4.199999809265137,4.199999809265137,0.0,4.199999809265137
2015-08-14,4.199999809265137,4.199999809265137,4.199999809265137,4.199999809265137,0.0,4.199999809265137
2015-08-17,4.199999809265137,4.199999809265137,4.199999809265137,4.199999809265137,0.0,4.199999809265137
2015-08-18,4.199999809265137,4.199999809265137,4.199999809265137,4.199999809265137,0.0,4.199999809265137
2015-08-19,4.199999809265137,4.199999809265137,4.199999809265137,4.199999809265137,0.0,4.199999809265137
2015-08-20,4.199999809265137,4.199999809265137,4.199999809265137,4.199999809265137,0.0,4.199999809265137
2015-08-21,4.199999809265137,4.199999809265137,4.199999809265137,4.199999809265137,0.0,4.199999809265137
2015-08-24,4.199999809265137,4.199999809265137,4.199999809265137,4.199999809265137,0.0,4.199999809265137
2015-08-25,4.199999809265137,4.199999809265137,4.199999809265137,4.199999809265137,0.0,4.199999809265137
2015-08-26,4.199999809265137,4.199999809265137,4.199999809265137,4.199999809265137,0.0,4.199999809265137
2015-08-27,4.199999809265137,4.199999809265137,4.199999809265137,4.199999809265137,0.0,4.199999809265137
2015-08-28,4.199999809265137,4.199999809265137,4.199999809265137,4.199999809265137,0.0,4.199999809265137
2015-08-31,4.199999809265137,4.199999809265137,4.199999809265137,4.199999809265137,0.0,4.199999809265137
2015-09-01,4.199999809265137,4.199999809265137,4.199999809265137,4.199999809265137,0.0,4.199999809265137
2015-09-02,4.199999809265137,4.199999809265137,4.199999809265137,4.199999809265137,0.0,4.199999809265137
2015-09-03,4.199999809265137,4.199999809265137,4.199999809265137,4.199999809265137,0.0,4.199999809265137
2015-09-04,4.199999809265137,4.199999809265137,4.199999809265137,4.199999809265137,0.0,4.199999809265137
2015-09-08,4.199999809265137,4.199999809265137,4.199999809265137,4.199999809265137,0.0,4.199999809265137
2015-09-09,4.199999809265137,4.199999809265137,4.199999809265137,4.199999809265137,0.0,4.199999809265137
2015-09-10,4.199999809265137,4.199999809265137,4.199999809265137,4.199999809265137,0.0,4.199999809265137
2015-09-11,4.199999809265137,4.199999809265137,4.199999809265137,4.199999809265137,0.0,4.199999809265137
2015-09-14,4.199999809265137,4.199999809265137,4.199999809265137,4.199999809265137,0.0,4.199999809265137
2015-09-15,4.199999809265137,4.199999809265137,4.199999809265137,4.199999809265137,0.0,4.199999809265137
2015-09-16,4.199999809265137,4.199999809265137,4.199999809265137,4.199999809265137,0.0,4.199999809265137
2015-09-17,4.199999809265137,4.199999809265137,4.199999809265137,4.199999809265137,0.0,4.199999809265137
2015-09-18,4.199999809265137,4.199999809265137,4.199999809265137,4.199999809265137,0.0,4.199999809265137
2015-09-21,4.199999809265137,4.199999809265137,4.199999809265137,4.199999809265137,0.0,4.199999809265137
2015-09-22,4.199999809265137,4.199999809265137,4.199999809265137,4.199999809265137,0.0,4.199999809265137
2015-09-23,4.199999809265137,4.199999809265137,4.199999809265137,4.199999809265137,0.0,4.199999809265137
2015-09-24,4.199999809265137,4.199999809265137,4.199999809265137,4.199999809265137,0.0,4.199999809265137
2015-09-25,4.199999809265137,4.199999809265137,4.199999809265137,4.199999809265137,0.0,4.199999809265137
2015-09-28,4.199999809265137,4.199999809265137,4.199999809265137,4.199999809265137,0.0,4.199999809265137
2015-09-29,4.199999809265137,4.199999809265137,4.199999809265137,4.199999809265137,0.0,4.199999809265137
2015-09-30,4.199999809265137,4.199999809265137,4.199999809265137,4.199999809265137,0.0,4.199999809265137
2015-10-26,4.199999809265137,4.199999809265137,4.199999809265137,4.199999809265137,0.0,4.199999809265137
2015-10-27,4.199999809265137,4.199999809265137,4.199999809265137,4.199999809265137,0.0,4.199999809265137
2015-10-28,4.199999809265137,4.199999809265137,4.199999809265137,4.199999809265137,0.0,4.199999809265137
2015-10-29,4.400000095367432,4.400000095367432,4.400000095367432,4.400000095367432,2500.0,4.400000095367432
2015-10-30,4.650000095367432,4.650000095367432,4.650000095367432,4.650000095367432,2600.0,4.650000095367432
2015-11-02,4.699999809265137,4.699999809265137,4.699999809265137,4.699999809265137,1000.0,4.699999809265137
2015-11-03,4.699999809265137,4.699999809265137,4.699999809265137,4.699999809265137,1200.0,4.699999809265137
2015-11-04,4.71999979019165,4.699999809265137,4.699999809265137,4.71999979019165,1200.0,4.71999979019165
2015-11-05,4.75,4.75,4.75,4.75,1700.0,4.75
2015-11-06,4.75,4.75,4.75,4.75,1000.0,4.75
2015-11-09,4.800000190734863,4.800000190734863,4.800000190734863,4.800000190734863,1000.0,4.800000190734863
2015-11-10,4.820000171661377,4.820000171661377,4.820000171661377,4.820000171661377,1000.0,4.820000171661377
2015-11-11,4.849999904632568,4.820000171661377,4.820000171661377,4.849999904632568,1000.0,4.849999904632568
2015-11-12,4.849999904632568,4.849999904632568,4.849999904632568,4.849999904632568,0.0,4.849999904632568
2015-11-13,4.849999904632568,4.849999904632568,4.849999904632568,4.849999904632568,0.0,4.849999904632568
2015-11-16,4.849999904632568,4.849999904632568,4.849999904632568,4.849999904632568,0.0,4.849999904632568
2015-11-17,4.849999904632568,4.849999904632568,4.849999904632568,4.849999904632568,0.0,4.849999904632568
2015-11-18,4.849999904632568,4.849999904632568,4.849999904632568,4.849999904632568,100.0,4.849999904632568
2015-11-19,4.849999904632568,4.849999904632568,4.849999904632568,4.849999904632568,0.0,4.849999904632568
2015-11-20,4.849999904632568,4.849999904632568,4.849999904632568,4.849999904632568,0.0,4.849999904632568
2015-11-23,4.849999904632568,4.849999904632568,4.849999904632568,4.849999904632568,1000.0,4.849999904632568
2015-11-24,4.849999904632568,4.849999904632568,4.849999904632568,4.849999904632568,0.0,4.849999904632568
2015-11-25,4.849999904632568,4.820000171661377,4.820000171661377,4.849999904632568,1500.0,4.849999904632568
2015-11-27,4.849999904632568,4.849999904632568,4.849999904632568,4.849999904632568,1500.0,4.849999904632568
2015-11-30,4.849999904632568,4.849999904632568,4.849999904632568,4.849999904632568,0.0,4.849999904632568
2015-12-01,4.849999904632568,4.849999904632568,4.849999904632568,4.849999904632568,0.0,4.849999904632568
2015-12-02,4.849999904632568,4.849999904632568,4.849999904632568,4.849999904632568,0.0,4.849999904632568
2015-12-03,4.849999904632568,4.849999904632568,4.849999904632568,4.849999904632568,500.0,4.849999904632568
2015-12-04,4.849999904632568,4.849999904632568,4.849999904632568,4.849999904632568,0.0,4.849999904632568
2015-12-07,4.860000133514404,4.860000133514404,4.860000133514404,4.860000133514404,500.0,4.860000133514404
2015-12-08,4.849999904632568,4.849999904632568,4.849999904632568,4.849999904632568,500.0,4.849999904632568
2015-12-09,4.849999904632568,4.849999904632568,4.849999904632568,4.849999904632568,0.0,4.849999904632568
2015-12-10,4.849999904632568,4.849999904632568,4.849999904632568,4.849999904632568,800.0,4.849999904632568
2015-12-11,4.860000133514404,4.849999904632568,4.849999904632568,4.860000133514404,1500.0,4.860000133514404
2015-12-14,4.860000133514404,4.860000133514404,4.860000133514404,4.860000133514404,0.0,4.860000133514404
2015-12-15,4.860000133514404,4.860000133514404,4.860000133514404,4.860000133514404,1600.0,4.860000133514404
2015-12-16,4.860000133514404,4.860000133514404,4.860000133514404,4.860000133514404,0.0,4.860000133514404
2015-12-17,4.860000133514404,4.860000133514404,4.860000133514404,4.860000133514404,500.0,4.860000133514404
2015-12-18,4.860000133514404,4.860000133514404,4.860000133514404,4.860000133514404,4000.0,4.860000133514404
2015-12-21,4.860000133514404,4.860000133514404,4.860000133514404,4.860000133514404,0.0,4.860000133514404
2015-12-22,4.860000133514404,4.860000133514404,4.860000133514404,4.860000133514404,600.0,4.860000133514404
2015-12-23,4.860000133514404,4.860000133514404,4.860000133514404,4.860000133514404,1000.0,4.860000133514404
2015-12-24,4.860000133514404,4.860000133514404,4.860000133514404,4.860000133514404,0.0,4.860000133514404
2015-12-28,4.860000133514404,4.860000133514404,4.860000133514404,4.860000133514404,700.0,4.860000133514404
2015-12-29,4.860000133514404,4.860000133514404,4.860000133514404,4.860000133514404,0.0,4.860000133514404
2015-12-30,4.860000133514404,4.849999904632568,4.849999904632568,4.860000133514404,2500.0,4.860000133514404
2015-12-31,4.860000133514404,4.860000133514404,4.860000133514404,4.860000133514404,1000.0,4.860000133514404
2016-01-04,4.829999923706055,4.800000190734863,4.829999923706055,4.800000190734863,2100.0,4.800000190734863
2016-01-05,4.75,4.75,4.75,4.75,500.0,4.75
2016-01-06,4.75,4.75,4.75,4.75,0.0,4.75
2016-01-07,4.75,4.75,4.75,4.75,0.0,4.75
2016-01-08,4.75,4.75,4.75,4.75,500.0,4.75
2016-01-11,4.550000190734863,4.519999980926514,4.550000190734863,4.519999980926514,400.0,4.519999980926514
2016-01-12,4.519999980926514,4.519999980926514,4.519999980926514,4.519999980926514,0.0,4.519999980926514
2016-01-13,4.150000095367432,4.150000095367432,4.150000095367432,4.150000095367432,500.0,4.150000095367432
2016-01-14,4.150000095367432,4.150000095367432,4.150000095367432,4.150000095367432,0.0,4.150000095367432
2016-01-15,4.150000095367432,4.150000095367432,4.150000095367432,4.150000095367432,0.0,4.150000095367432
2016-01-19,4.150000095367432,4.150000095367432,4.150000095367432,4.150000095367432,0.0,4.150000095367432
2016-01-20,4.150000095367432,4.150000095367432,4.150000095367432,4.150000095367432,0.0,4.150000095367432
2016-01-21,4.400000095367432,3.299999952316284,3.299999952316284,4.400000095367432,12300.0,4.400000095367432
2016-01-22,4.400000095367432,4.400000095367432,4.400000095367432,4.400000095367432,0.0,4.400000095367432
2016-01-25,4.5,4.5,4.5,4.5,200.0,4.5
2016-01-26,4.5,4.5,4.5,4.5,0.0,4.5
2016-01-27,4.5,4.5,4.5,4.5,0.0,4.5
2016-01-28,4.690000057220459,4.650000095367432,4.650000095367432,4.690000057220459,700.0,4.690000057220459
2016-01-29,4.800000190734863,4.75,4.75,4.800000190734863,1000.0,4.800000190734863
2016-02-01,4.800000190734863,4.800000190734863,4.800000190734863,4.800000190734863,0.0,4.800000190734863
2016-02-02,4.800000190734863,4.800000190734863,4.800000190734863,4.800000190734863,0.0,4.800000190734863
2016-02-03,4.800000190734863,4.800000190734863,4.800000190734863,4.800000190734863,0.0,4.800000190734863
2016-02-04,4.800000190734863,4.800000190734863,4.800000190734863,4.800000190734863,0.0,4.800000190734863
2016-02-05,4.800000190734863,4.800000190734863,4.800000190734863,4.800000190734863,0.0,4.800000190734863
2016-02-08,4.800000190734863,4.800000190734863,4.800000190734863,4.800000190734863,0.0,4.800000190734863
2016-02-09,4.800000190734863,4.800000190734863,4.800000190734863,4.800000190734863,0.0,4.800000190734863
2016-02-10,4.800000190734863,4.800000190734863,4.800000190734863,4.800000190734863,0.0,4.800000190734863
2016-02-11,4.800000190734863,4.800000190734863,4.800000190734863,4.800000190734863,0.0,4.800000190734863
2016-02-12,4.800000190734863,4.800000190734863,4.800000190734863,4.800000190734863,0.0,4.800000190734863
2016-02-16,4.800000190734863,4.800000190734863,4.800000190734863,4.800000190734863,0.0,4.800000190734863
2016-02-17,4.800000190734863,4.800000190734863,4.800000190734863,4.800000190734863,0.0,4.800000190734863
2016-02-18,4.800000190734863,4.800000190734863,4.800000190734863,4.800000190734863,0.0,4.800000190734863
2016-02-19,4.800000190734863,4.800000190734863,4.800000190734863,4.800000190734863,0.0,4.800000190734863
2016-02-22,4.800000190734863,4.800000190734863,4.800000190734863,4.800000190734863,0.0,4.800000190734863
2016-02-23,4.800000190734863,4.800000190734863,4.800000190734863,4.800000190734863,0.0,4.800000190734863
2016-02-24,4.800000190734863,4.800000190734863,4.800000190734863,4.800000190734863,0.0,4.800000190734863
2016-02-25,4.800000190734863,4.800000190734863,4.800000190734863,4.800000190734863,0.0,4.800000190734863
2016-02-26,4.800000190734863,4.800000190734863,4.800000190734863,4.800000190734863,0.0,4.800000190734863
2016-02-29,4.900000095367432,4.849999904632568,4.849999904632568,4.900000095367432,1000.0,4.900000095367432
2016-03-01,4.900000095367432,4.900000095367432,4.900000095367432,4.900000095367432,0.0,4.900000095367432
2016-03-02,4.900000095367432,4.900000095367432,4.900000095367432,4.900000095367432,0.0,4.900000095367432
2016-03-03,4.900000095367432,4.900000095367432,4.900000095367432,4.900000095367432,0.0,4.900000095367432
2016-03-04,4.900000095367432,4.900000095367432,4.900000095367432,4.900000095367432,0.0,4.900000095367432
2016-03-07,4.900000095367432,4.900000095367432,4.900000095367432,4.900000095367432,0.0,4.900000095367432
2016-03-08,4.900000095367432,4.900000095367432,4.900000095367432,4.900000095367432,0.0,4.900000095367432
2016-03-09,4.900000095367432,4.900000095367432,4.900000095367432,4.900000095367432,0.0,4.900000095367432
2016-03-10,4.900000095367432,4.900000095367432,4.900000095367432,4.900000095367432,0.0,4.900000095367432
2016-03-11,4.900000095367432,4.900000095367432,4.900000095367432,4.900000095367432,0.0,4.900000095367432
2016-03-14,4.900000095367432,4.900000095367432,4.900000095367432,4.900000095367432,0.0,4.900000095367432
2016-03-15,4.900000095367432,4.900000095367432,4.900000095367432,4.900000095367432,0.0,4.900000095367432
2016-03-16,4.900000095367432,4.900000095367432,4.900000095367432,4.900000095367432,0.0,4.900000095367432
2016-03-17,4.900000095367432,4.900000095367432,4.900000095367432,4.900000095367432,0.0,4.900000095367432
2016-03-18,4.900000095367432,4.900000095367432,4.900000095367432,4.900000095367432,0.0,4.900000095367432
2016-03-21,4.900000095367432,4.900000095367432,4.900000095367432,4.900000095367432,0.0,4.900000095367432
2016-03-22,4.900000095367432,4.900000095367432,4.900000095367432,4.900000095367432,0.0,4.900000095367432
2016-03-23,4.900000095367432,4.900000095367432,4.900000095367432,4.900000095367432,0.0,4.900000095367432
2016-03-24,4.900000095367432,4.900000095367432,4.900000095367432,4.900000095367432,0.0,4.900000095367432
2016-03-28,4.900000095367432,4.900000095367432,4.900000095367432,4.900000095367432,0.0,4.900000095367432
2016-03-29,4.949999809265137,4.900000095367432,4.900000095367432,4.949999809265137,1300.0,4.949999809265137
2016-03-30,4.949999809265137,4.949999809265137,4.949999809265137,4.949999809265137,1000.0,4.949999809265137
2016-03-31,4.949999809265137,4.949999809265137,4.949999809265137,4.949999809265137,300.0,4.949999809265137
2016-04-01,4.949999809265137,4.949999809265137,4.949999809265137,4.949999809265137,0.0,4.949999809265137
2016-04-04,4.949999809265137,4.949999809265137,4.949999809265137,4.949999809265137,0.0,4.949999809265137
2016-04-05,4.949999809265137,4.949999809265137,4.949999809265137,4.949999809265137,0.0,4.949999809265137
2016-04-06,4.949999809265137,4.949999809265137,4.949999809265137,4.949999809265137,0.0,4.949999809265137
2016-04-07,4.949999809265137,4.949999809265137,4.949999809265137,4.949999809265137,0.0,4.949999809265137
2016-04-08,4.849999904632568,4.849999904632568,4.849999904632568,4.849999904632568,300.0,4.849999904632568
2016-04-11,4.849999904632568,4.849999904632568,4.849999904632568,4.849999904632568,0.0,4.849999904632568
2016-04-12,4.849999904632568,4.849999904632568,4.849999904632568,4.849999904632568,0.0,4.849999904632568
2016-04-13,4.849999904632568,4.849999904632568,4.849999904632568,4.849999904632568,0.0,4.849999904632568
2016-04-14,4.849999904632568,4.849999904632568,4.849999904632568,4.849999904632568,0.0,4.849999904632568
2016-04-15,4.849999904632568,4.849999904632568,4.849999904632568,4.849999904632568,0.0,4.849999904632568
2016-04-18,4.989999771118164,4.989999771118164,4.989999771118164,4.989999771118164,500.0,4.989999771118164
2016-04-19,4.989999771118164,4.989999771118164,4.989999771118164,4.989999771118164,0.0,4.989999771118164
2016-04-20,4.989999771118164,4.989999771118164,4.989999771118164,4.989999771118164,0.0,4.989999771118164
2016-04-21,4.900000095367432,4.900000095367432,4.900000095367432,4.900000095367432,200.0,4.900000095367432
2016-04-22,4.900000095367432,4.900000095367432,4.900000095367432,4.900000095367432,0.0,4.900000095367432
2016-04-25,4.900000095367432,4.900000095367432,4.900000095367432,4.900000095367432,0.0,4.900000095367432
2016-04-26,4.900000095367432,4.900000095367432,4.900000095367432,4.900000095367432,0.0,4.900000095367432
2016-04-27,4.900000095367432,4.900000095367432,4.900000095367432,4.900000095367432,0.0,4.900000095367432
2016-04-28,4.900000095367432,4.900000095367432,4.900000095367432,4.900000095367432,500.0,4.900000095367432
2016-04-29,4.900000095367432,4.900000095367432,4.900000095367432,4.900000095367432,0.0,4.900000095367432
2016-05-02,4.900000095367432,4.900000095367432,4.900000095367432,4.900000095367432,100.0,4.900000095367432
2016-05-03,4.900000095367432,4.900000095367432,4.900000095367432,4.900000095367432,0.0,4.900000095367432
2016-05-04,4.900000095367432,4.900000095367432,4.900000095367432,4.900000095367432,0.0,4.900000095367432
2016-05-05,4.900000095367432,4.900000095367432,4.900000095367432,4.900000095367432,0.0,4.900000095367432
2016-05-06,4.900000095367432,4.900000095367432,4.900000095367432,4.900000095367432,0.0,4.900000095367432
2016-05-09,4.800000190734863,4.800000190734863,4.800000190734863,4.800000190734863,300.0,4.800000190734863
2016-05-10,4.800000190734863,4.800000190734863,4.800000190734863,4.800000190734863,0.0,4.800000190734863
2016-05-11,4.800000190734863,4.800000190734863,4.800000190734863,4.800000190734863,0.0,4.800000190734863
2016-05-12,4.800000190734863,4.800000190734863,4.800000190734863,4.800000190734863,0.0,4.800000190734863
2016-05-13,4.940000057220459,4.75,4.940000057220459,4.75,1000.0,4.75
2016-05-16,4.889999866485596,4.889999866485596,4.889999866485596,4.889999866485596,300.0,4.889999866485596
2016-05-17,4.889999866485596,4.889999866485596,4.889999866485596,4.889999866485596,300.0,4.889999866485596
2016-05-18,4.889999866485596,4.889999866485596,4.889999866485596,4.889999866485596,0.0,4.889999866485596
2016-05-19,4.949999809265137,4.949999809265137,4.949999809265137,4.949999809265137,300.0,4.949999809265137
2016-05-20,4.949999809265137,4.875999927520752,4.875999927520752,4.949999809265137,400.0,4.949999809265137
2016-05-23,4.949999809265137,4.949999809265137,4.949999809265137,4.949999809265137,100.0,4.949999809265137
2016-05-24,4.949999809265137,4.925000190734863,4.925000190734863,4.949999809265137,200.0,4.949999809265137
2016-05-25,4.949999809265137,4.949999809265137,4.949999809265137,4.949999809265137,0.0,4.949999809265137
2016-05-26,5.199999809265137,4.986000061035156,4.986000061035156,5.0,1200.0,5.0
2016-05-27,5.099999904632568,5.044000148773193,5.044000148773193,5.099999904632568,2700.0,5.099999904632568
2016-05-31,5.099999904632568,5.045000076293945,5.099999904632568,5.090000152587891,6700.0,5.090000152587891
2016-06-01,5.090000152587891,5.090000152587891,5.090000152587891,5.090000152587891,500.0,5.090000152587891
2016-06-02,5.090000152587891,5.090000152587891,5.090000152587891,5.090000152587891,0.0,5.090000152587891
2016-06-03,5.099999904632568,5.099999904632568,5.099999904632568,5.099999904632568,100.0,5.099999904632568
2016-06-06,5.119999885559082,5.119999885559082,5.119999885559082,5.119999885559082,500.0,5.119999885559082
2016-06-07,5.150000095367432,5.150000095367432,5.150000095367432,5.150000095367432,500.0,5.150000095367432
2016-06-08,5.199999809265137,5.150000095367432,5.150000095367432,5.199999809265137,1000.0,5.199999809265137
2016-06-09,5.199999809265137,5.199999809265137,5.199999809265137,5.199999809265137,0.0,5.199999809265137
2016-06-10,5.5,5.150000095367432,5.150000095367432,5.5,300.0,5.5
2016-06-13,5.5,5.5,5.5,5.5,0.0,5.5
2016-06-14,5.5,5.5,5.5,5.5,0.0,5.5
2016-06-15,5.25,5.25,5.25,5.25,200.0,5.25
2016-06-16,5.75,5.25,5.25,5.349999904632568,600.0,5.349999904632568
2016-06-17,5.300000190734863,5.300000190734863,5.300000190734863,5.300000190734863,300.0,5.300000190734863
2016-06-20,5.300000190734863,5.300000190734863,5.300000190734863,5.300000190734863,0.0,5.300000190734863
2016-06-21,5.300000190734863,5.300000190734863,5.300000190734863,5.300000190734863,200.0,5.300000190734863
2016-06-22,5.300000190734863,5.300000190734863,5.300000190734863,5.300000190734863,0.0,5.300000190734863
2016-06-23,5.300000190734863,5.300000190734863,5.300000190734863,5.300000190734863,0.0,5.300000190734863
2016-06-24,5.300000190734863,5.300000190734863,5.300000190734863,5.300000190734863,0.0,5.300000190734863
2016-06-27,5.300000190734863,5.300000190734863,5.300000190734863,5.300000190734863,0.0,5.300000190734863
2016-06-28,5.300000190734863,5.22599983215332,5.22599983215332,5.300000190734863,600.0,5.300000190734863
2016-06-29,5.329999923706055,5.295000076293945,5.295000076293945,5.329999923706055,900.0,5.329999923706055
2016-06-30,5.335000038146973,5.235000133514404,5.25,5.335000038146973,600.0,5.335000038146973
2016-07-01,5.335000038146973,5.335000038146973,5.335000038146973,5.335000038146973,0.0,5.335000038146973
2016-07-05,5.400000095367432,5.349999904632568,5.349999904632568,5.400000095367432,800.0,5.400000095367432
2016-07-06,5.349999904632568,5.349999904632568,5.349999904632568,5.349999904632568,100.0,5.349999904632568
2016-07-07,5.349999904632568,5.349999904632568,5.349999904632568,5.349999904632568,0.0,5.349999904632568
2016-07-08,5.360000133514404,5.360000133514404,5.360000133514404,5.360000133514404,300.0,5.360000133514404
2016-07-11,5.360000133514404,5.360000133514404,5.360000133514404,5.360000133514404,0.0,5.360000133514404
2016-07-12,5.400000095367432,5.334000110626221,5.334000110626221,5.400000095367432,4300.0,5.400000095367432
2016-07-13,5.400000095367432,5.400000095367432,5.400000095367432,5.400000095367432,300.0,5.400000095367432
2016-07-14,5.400000095367432,5.199999809265137,5.400000095367432,5.199999809265137,3000.0,5.199999809265137
2016-07-15,5.449999809265137,5.25,5.25,5.449999809265137,3300.0,5.449999809265137
2016-07-18,5.449999809265137,5.449999809265137,5.449999809265137,5.449999809265137,0.0,5.449999809265137
2016-07-19,5.420000076293945,5.385000228881836,5.385000228881836,5.420000076293945,600.0,5.420000076293945
2016-07-20,5.420000076293945,5.420000076293945,5.420000076293945,5.420000076293945,0.0,5.420000076293945
2016-07-21,5.320000171661377,5.313000202178955,5.313000202178955,5.320000171661377,500.0,5.320000171661377
2016-07-22,5.420000076293945,5.320000171661377,5.320000171661377,5.420000076293945,600.0,5.420000076293945
2016-07-25,5.420000076293945,5.420000076293945,5.420000076293945,5.420000076293945,0.0,5.420000076293945
2016-07-26,5.369999885559082,5.349999904632568,5.349999904632568,5.369999885559082,1800.0,5.369999885559082
2016-07-27,5.420000076293945,5.414999961853027,5.414999961853027,5.420000076293945,600.0,5.420000076293945
2016-07-28,5.5,5.414999961853027,5.414999961853027,5.5,1200.0,5.5
2016-07-29,5.480000019073486,5.480000019073486,5.480000019073486,5.480000019073486,500.0,5.480000019073486
2016-08-01,5.480000019073486,5.480000019073486,5.480000019073486,5.480000019073486,0.0,5.480000019073486
2016-08-02,5.5,5.486999988555908,5.486999988555908,5.5,400.0,5.5
2016-08-03,5.5,5.5,5.5,5.5,0.0,5.5
2016-08-04,5.5,5.486999988555908,5.486999988555908,5.5,300.0,5.5
2016-08-05,5.5,5.5,5.5,5.5,0.0,5.5
2016-08-08,5.5,5.5,5.5,5.5,0.0,5.5
2016-08-09,5.5,5.5,5.5,5.5,0.0,5.5
2016-08-10,5.5,5.5,5.5,5.5,0.0,5.5
2016-08-11,5.5,5.486999988555908,5.486999988555908,5.5,600.0,5.5
2016-08-12,5.5,5.5,5.5,5.5,0.0,5.5
2016-08-15,5.5,5.5,5.5,5.5,200.0,5.5
2016-08-16,5.5,5.5,5.5,5.5,0.0,5.5
2016-08-17,5.5,5.5,5.5,5.5,0.0,5.5
2016-08-18,5.5,5.5,5.5,5.5,0.0,5.5
2016-08-19,5.5,5.5,5.5,5.5,0.0,5.5
2016-08-22,5.396999835968018,5.396999835968018,5.396999835968018,5.396999835968018,200.0,5.396999835968018
2016-08-23,5.400000095367432,5.396999835968018,5.396999835968018,5.400000095367432,200.0,5.400000095367432
2016-08-24,5.400000095367432,5.400000095367432,5.400000095367432,5.400000095367432,0.0,5.400000095367432
2016-08-25,5.400000095367432,5.400000095367432,5.400000095367432,5.400000095367432,0.0,5.400000095367432
2016-08-26,5.400000095367432,5.400000095367432,5.400000095367432,5.400000095367432,0.0,5.400000095367432
2016-08-29,5.5,5.385000228881836,5.385000228881836,5.5,900.0,5.5
2016-08-30,5.5,5.474999904632568,5.474999904632568,5.5,400.0,5.5
2016-08-31,8.5,5.5,5.5,5.5,1900.0,5.5
2016-09-01,5.519999980926514,5.199999809265137,5.199999809265137,5.519999980926514,300.0,5.519999980926514
2016-09-02,5.519999980926514,5.519999980926514,5.519999980926514,5.519999980926514,0.0,5.519999980926514
2016-09-06,5.519999980926514,5.519999980926514,5.519999980926514,5.519999980926514,0.0,5.519999980926514
2016-09-07,5.519999980926514,5.519999980926514,5.519999980926514,5.519999980926514,0.0,5.519999980926514
2016-09-08,5.519999980926514,5.519999980926514,5.519999980926514,5.519999980926514,400.0,5.519999980926514
2016-09-09,5.519999980926514,5.519999980926514,5.519999980926514,5.519999980926514,0.0,5.519999980926514
2016-09-12,5.519999980926514,5.300000190734863,5.519999980926514,5.300000190734863,400.0,5.300000190734863
2016-09-13,5.519999980926514,5.5,5.519999980926514,5.5,500.0,5.5
2016-09-14,6.0,5.519999980926514,5.519999980926514,5.519999980926514,300.0,5.519999980926514
2016-09-15,5.5,5.300000190734863,5.300000190734863,5.5,300.0,5.5
2016-09-16,5.5,5.5,5.5,5.5,0.0,5.5
2016-09-19,5.519999980926514,5.519999980926514,5.519999980926514,5.519999980926514,1000.0,5.519999980926514
2016-09-20,5.519999980926514,5.519999980926514,5.519999980926514,5.519999980926514,100.0,5.519999980926514
2016-09-21,5.519999980926514,5.519999980926514,5.519999980926514,5.519999980926514,0.0,5.519999980926514
2016-09-22,5.559999942779541,5.559999942779541,5.559999942779541,5.559999942779541,200.0,5.559999942779541
2016-09-23,6.0,5.559999942779541,5.699999809265137,5.559999942779541,1400.0,5.559999942779541
2016-09-26,5.519999980926514,4.949999809265137,5.519999980926514,5.519999980926514,400.0,5.519999980926514
2016-09-27,5.5,4.75,4.75,5.5,300.0,5.5
2016-09-28,5.5,5.5,5.5,5.5,0.0,5.5
2016-09-29,5.5,5.5,5.5,5.5,0.0,5.5
2016-09-30,5.5,5.5,5.5,5.5,100.0,5.5
2016-10-03,5.5,5.5,5.5,5.5,0.0,5.5
2016-10-04,5.5,5.5,5.5,5.5,0.0,5.5
2016-10-05,5.5,5.5,5.5,5.5,100.0,5.5
2016-10-06,5.5,5.5,5.5,5.5,100.0,5.5
2016-10-07,5.5,5.5,5.5,5.5,0.0,5.5
2016-10-10,5.5,5.5,5.5,5.5,0.0,5.5
2016-10-11,5.5,5.5,5.5,5.5,0.0,5.5
2016-10-12,5.5,5.5,5.5,5.5,0.0,5.5
2016-10-13,5.5,5.5,5.5,5.5,0.0,5.5
2016-10-14,5.5,5.5,5.5,5.5,0.0,5.5
2016-10-17,5.5,5.5,5.5,5.5,0.0,5.5
2016-10-18,5.5,5.5,5.5,5.5,0.0,5.5
2016-10-19,5.5,5.5,5.5,5.5,0.0,5.5
2016-10-20,5.5,5.5,5.5,5.5,0.0,5.5
2016-10-21,5.650000095367432,5.599999904632568,5.599999904632568,5.650000095367432,1200.0,5.650000095367432
2016-10-24,7.0,7.0,7.0,7.0,1200.0,7.0
2016-10-25,7.0,7.0,7.0,7.0,0.0,7.0
2016-10-26,7.0,7.0,7.0,7.0,0.0,7.0
2016-10-27,6.0,5.599999904632568,6.0,5.989999771118164,600.0,5.989999771118164
2016-10-28,6.0,5.989999771118164,5.989999771118164,6.0,300.0,6.0
2016-10-31,6.0,6.0,6.0,6.0,400.0,6.0
2016-11-01,6.0,6.0,6.0,6.0,100.0,6.0
2016-11-02,6.0,6.0,6.0,6.0,0.0,6.0
2016-11-03,6.0,6.0,6.0,6.0,0.0,6.0
2016-11-04,6.0,6.0,6.0,6.0,0.0,6.0
2016-11-07,6.0,6.0,6.0,6.0,0.0,6.0
2016-11-08,6.0,6.0,6.0,6.0,0.0,6.0
2016-11-09,6.0,6.0,6.0,6.0,0.0,6.0
2016-11-10,6.050000190734863,5.900000095367432,5.900000095367432,6.050000190734863,2200.0,6.050000190734863
2016-11-11,6.0,6.0,6.0,6.0,600.0,6.0
2016-11-14,6.0,6.0,6.0,6.0,0.0,6.0
2016-11-15,6.0320000648498535,6.03000020980835,6.0320000648498535,6.03000020980835,1000.0,6.03000020980835
2016-11-16,6.050000190734863,6.050000190734863,6.050000190734863,6.050000190734863,400.0,6.050000190734863
2016-11-17,6.0,6.0,6.0,6.0,200.0,6.0
2016-11-18,6.0,6.0,6.0,6.0,0.0,6.0
2016-11-21,6.0,6.0,6.0,6.0,0.0,6.0
2016-11-22,6.0,6.0,6.0,6.0,0.0,6.0
2016-11-23,6.0,6.0,6.0,6.0,0.0,6.0
2016-11-25,6.0,6.0,6.0,6.0,0.0,6.0
2016-11-28,5.849999904632568,5.849999904632568,5.849999904632568,5.849999904632568,1600.0,5.849999904632568
2016-11-29,5.849999904632568,5.25,5.849999904632568,5.789999961853027,6500.0,5.789999961853027
2016-11-30,6.0,6.0,6.0,6.0,700.0,6.0
2016-12-01,5.900000095367432,5.889999866485596,5.900000095367432,5.889999866485596,400.0,5.889999866485596
2016-12-02,5.889999866485596,5.889999866485596,5.889999866485596,5.889999866485596,0.0,5.889999866485596
2016-12-05,5.889999866485596,5.889999866485596,5.889999866485596,5.889999866485596,0.0,5.889999866485596
2016-12-06,5.889999866485596,5.889999866485596,5.889999866485596,5.889999866485596,0.0,5.889999866485596
2016-12-07,5.900000095367432,5.849999904632568,5.849999904632568,5.900000095367432,1200.0,5.900000095367432
2016-12-08,5.900000095367432,5.900000095367432,5.900000095367432,5.900000095367432,0.0,5.900000095367432
2016-12-09,5.900000095367432,5.900000095367432,5.900000095367432,5.900000095367432,0.0,5.900000095367432
2016-12-12,5.900000095367432,5.900000095367432,5.900000095367432,5.900000095367432,0.0,5.900000095367432
2016-12-13,5.900000095367432,5.900000095367432,5.900000095367432,5.900000095367432,0.0,5.900000095367432
2016-12-14,5.900000095367432,5.900000095367432,5.900000095367432,5.900000095367432,0.0,5.900000095367432
2016-12-15,5.900000095367432,5.900000095367432,5.900000095367432,5.900000095367432,0.0,5.900000095367432
2016-12-16,5.900000095367432,5.900000095367432,5.900000095367432,5.900000095367432,0.0,5.900000095367432
2016-12-19,5.900000095367432,5.900000095367432,5.900000095367432,5.900000095367432,0.0,5.900000095367432
2016-12-20,5.900000095367432,5.900000095367432,5.900000095367432,5.900000095367432,0.0,5.900000095367432
2016-12-21,5.900000095367432,5.900000095367432,5.900000095367432,5.900000095367432,0.0,5.900000095367432
2016-12-22,5.989999771118164,5.900000095367432,5.989999771118164,5.900000095367432,400.0,5.900000095367432
2016-12-23,5.900000095367432,5.900000095367432,5.900000095367432,5.900000095367432,0.0,5.900000095367432
2016-12-27,6.0,6.0,6.0,6.0,200.0,6.0
2016-12-28,6.0,6.0,6.0,6.0,0.0,6.0
2016-12-29,6.0,6.0,6.0,6.0,0.0,6.0
2016-12-30,5.960000038146973,5.949999809265137,5.949999809265137,5.960000038146973,300.0,5.960000038146973
2017-01-03,6.0,5.900000095367432,5.900000095367432,6.0,1200.0,6.0
2017-01-04,6.0,6.0,6.0,6.0,0.0,6.0
2017-01-05,6.0,6.0,6.0,6.0,0.0,6.0
2017-01-06,6.0,6.0,6.0,6.0,2500.0,6.0
2017-01-09,6.0,6.0,6.0,6.0,0.0,6.0
2017-01-10,6.0,6.0,6.0,6.0,0.0,6.0
2017-01-11,6.0,6.0,6.0,6.0,0.0,6.0
2017-01-12,5.949999809265137,5.949999809265137,5.949999809265137,5.949999809265137,100.0,5.949999809265137
2017-01-13,5.949999809265137,5.949999809265137,5.949999809265137,5.949999809265137,0.0,5.949999809265137
2017-01-17,5.949999809265137,5.949999809265137,5.949999809265137,5.949999809265137,100.0,5.949999809265137
2017-01-18,5.949999809265137,5.949999809265137,5.949999809265137,5.949999809265137,0.0,5.949999809265137
2017-01-19,5.949999809265137,5.949999809265137,5.949999809265137,5.949999809265137,0.0,5.949999809265137
2017-01-20,5.949999809265137,5.949999809265137,5.949999809265137,5.949999809265137,0.0,5.949999809265137
2017-01-23,5.949999809265137,5.949999809265137,5.949999809265137,5.949999809265137,0.0,5.949999809265137
2017-01-24,6.0,5.960000038146973,6.0,5.960000038146973,1500.0,5.960000038146973
2017-01-25,5.960000038146973,5.960000038146973,5.960000038146973,5.960000038146973,0.0,5.960000038146973
2017-01-26,5.960000038146973,5.960000038146973,5.960000038146973,5.960000038146973,0.0,5.960000038146973
2017-01-27,6.0,6.0,6.0,6.0,200.0,6.0
2017-01-30,6.0,5.96999979019165,6.0,6.0,500.0,6.0
2017-01-31,6.0,6.0,6.0,6.0,300.0,6.0
2017-02-01,6.0,6.0,6.0,6.0,0.0,6.0
2017-02-02,5.980000019073486,5.980000019073486,5.980000019073486,5.980000019073486,100.0,5.980000019073486
2017-02-03,5.980000019073486,5.980000019073486,5.980000019073486,5.980000019073486,0.0,5.980000019073486
2017-02-06,5.980000019073486,5.980000019073486,5.980000019073486,5.980000019073486,0.0,5.980000019073486
2017-02-07,5.980000019073486,5.980000019073486,5.980000019073486,5.980000019073486,0.0,5.980000019073486
2017-02-08,5.980000019073486,5.980000019073486,5.980000019073486,5.980000019073486,0.0,5.980000019073486
2017-02-09,6.0,5.96999979019165,5.96999979019165,6.0,1300.0,6.0
2017-02-10,6.0,6.0,6.0,6.0,0.0,6.0
2017-02-13,6.0,6.0,6.0,6.0,0.0,6.0
2017-02-14,6.0,6.0,6.0,6.0,0.0,6.0
2017-02-15,6.0,6.0,6.0,6.0,0.0,6.0
2017-02-16,6.0,6.0,6.0,6.0,0.0,6.0
2017-02-17,6.0,6.0,6.0,6.0,0.0,6.0
2017-02-21,6.0,5.96999979019165,5.96999979019165,6.0,400.0,6.0
2017-02-22,6.0,6.0,6.0,6.0,0.0,6.0
2017-02-23,6.0,6.0,6.0,6.0,0.0,6.0
2017-02-24,6.0,6.0,6.0,6.0,0.0,6.0
2017-02-27,6.0,6.0,6.0,6.0,400.0,6.0
2017-02-28,6.150000095367432,6.0,6.0,6.099999904632568,2900.0,6.099999904632568
2017-03-01,6.099999904632568,6.099999904632568,6.099999904632568,6.099999904632568,0.0,6.099999904632568
2017-03-02,6.099999904632568,6.099999904632568,6.099999904632568,6.099999904632568,0.0,6.099999904632568
2017-03-03,6.099999904632568,6.099999904632568,6.099999904632568,6.099999904632568,0.0,6.099999904632568
2017-03-06,6.099999904632568,6.099999904632568,6.099999904632568,6.099999904632568,0.0,6.099999904632568
2017-03-07,6.099999904632568,6.099999904632568,6.099999904632568,6.099999904632568,0.0,6.099999904632568
2017-03-08,6.199999809265137,6.199999809265137,6.199999809265137,6.199999809265137,100.0,6.199999809265137
2017-03-09,6.199999809265137,6.199999809265137,6.199999809265137,6.199999809265137,0.0,6.199999809265137
2017-03-10,6.199999809265137,6.199999809265137,6.199999809265137,6.199999809265137,0.0,6.199999809265137
2017-03-13,6.199999809265137,6.199999809265137,6.199999809265137,6.199999809265137,0.0,6.199999809265137
2017-03-14,6.199999809265137,6.199999809265137,6.199999809265137,6.199999809265137,0.0,6.199999809265137
2017-03-15,6.199999809265137,6.199999809265137,6.199999809265137,6.199999809265137,0.0,6.199999809265137
2017-03-16,6.199999809265137,6.199999809265137,6.199999809265137,6.199999809265137,0.0,6.199999809265137
2017-03-17,6.199999809265137,6.199999809265137,6.199999809265137,6.199999809265137,0.0,6.199999809265137
2017-03-20,6.199999809265137,6.199999809265137,6.199999809265137,6.199999809265137,0.0,6.199999809265137
2017-03-21,6.199999809265137,6.199999809265137,6.199999809265137,6.199999809265137,0.0,6.199999809265137
2017-03-22,6.199999809265137,6.199999809265137,6.199999809265137,6.199999809265137,0.0,6.199999809265137
2017-03-23,6.199999809265137,6.199999809265137,6.199999809265137,6.199999809265137,0.0,6.199999809265137
2017-03-24,6.199999809265137,6.199999809265137,6.199999809265137,6.199999809265137,0.0,6.199999809265137
2017-03-27,6.199999809265137,6.199999809265137,6.199999809265137,6.199999809265137,0.0,6.199999809265137
2017-03-28,6.199999809265137,6.199999809265137,6.199999809265137,6.199999809265137,0.0,6.199999809265137
2017-03-29,6.199999809265137,6.199999809265137,6.199999809265137,6.199999809265137,0.0,6.199999809265137
2017-03-30,6.150000095367432,6.150000095367432,6.150000095367432,6.150000095367432,200.0,6.150000095367432
2017-03-31,6.150000095367432,6.099999904632568,6.150000095367432,6.150000095367432,2200.0,6.150000095367432
2017-04-03,6.150000095367432,6.150000095367432,6.150000095367432,6.150000095367432,300.0,6.150000095367432
2017-04-04,6.050000190734863,6.050000190734863,6.050000190734863,6.050000190734863,100.0,6.050000190734863
2017-04-05,6.050000190734863,6.050000190734863,6.050000190734863,6.050000190734863,0.0,6.050000190734863
2017-04-06,6.050000190734863,6.050000190734863,6.050000190734863,6.050000190734863,0.0,6.050000190734863
2017-04-07,6.050000190734863,6.050000190734863,6.050000190734863,6.050000190734863,0.0,6.050000190734863
2017-04-10,5.949999809265137,5.949999809265137,5.949999809265137,5.949999809265137,200.0,5.949999809265137
2017-04-11,5.949999809265137,5.949999809265137,5.949999809265137,5.949999809265137,0.0,5.949999809265137
2017-04-12,5.949999809265137,5.949999809265137,5.949999809265137,5.949999809265137,0.0,5.949999809265137
2017-04-13,5.949999809265137,5.949999809265137,5.949999809265137,5.949999809265137,0.0,5.949999809265137
2017-04-17,5.949999809265137,5.949999809265137,5.949999809265137,5.949999809265137,0.0,5.949999809265137
2017-04-18,5.949999809265137,5.949999809265137,5.949999809265137,5.949999809265137,0.0,5.949999809265137
2017-04-19,5.949999809265137,5.949999809265137,5.949999809265137,5.949999809265137,0.0,5.949999809265137
2017-04-20,5.949999809265137,5.949999809265137,5.949999809265137,5.949999809265137,0.0,5.949999809265137
2017-04-21,5.949999809265137,5.949999809265137,5.949999809265137,5.949999809265137,0.0,5.949999809265137
2017-04-24,6.03000020980835,6.03000020980835,6.03000020980835,6.03000020980835,500.0,6.03000020980835
2017-04-25,6.03000020980835,6.03000020980835,6.03000020980835,6.03000020980835,0.0,6.03000020980835
2017-04-26,6.03000020980835,6.03000020980835,6.03000020980835,6.03000020980835,0.0,6.03000020980835
2017-04-27,6.03000020980835,5.96999979019165,5.96999979019165,6.03000020980835,2000.0,6.03000020980835
2017-04-28,6.03000020980835,6.019999980926514,6.019999980926514,6.03000020980835,500.0,6.03000020980835
2017-05-01,6.03000020980835,6.03000020980835,6.03000020980835,6.03000020980835,0.0,6.03000020980835
2017-05-02,5.900000095367432,5.900000095367432,5.900000095367432,5.900000095367432,100.0,5.900000095367432
2017-05-03,6.03000020980835,5.800000190734863,5.900000095367432,6.03000020980835,600.0,6.03000020980835
2017-05-04,6.099999904632568,5.800000190734863,6.099999904632568,5.800000190734863,200.0,5.800000190734863
2017-05-05,5.800000190734863,5.800000190734863,5.800000190734863,5.800000190734863,100.0,5.800000190734863
2017-05-08,5.909999847412109,5.909999847412109,5.909999847412109,5.909999847412109,100.0,5.909999847412109
2017-05-09,5.909999847412109,5.909999847412109,5.909999847412109,5.909999847412109,0.0,5.909999847412109
2017-05-10,6.019999980926514,5.800000190734863,5.800000190734863,6.019999980926514,400.0,6.019999980926514
2017-05-11,6.019999980926514,6.019999980926514,6.019999980926514,6.019999980926514,0.0,6.019999980926514
2017-05-12,6.019999980926514,6.019999980926514,6.019999980926514,6.019999980926514,0.0,6.019999980926514
2017-05-15,6.019999980926514,5.800000190734863,5.914999961853027,6.019999980926514,300.0,6.019999980926514
2017-05-16,6.019999980926514,6.019999980926514,6.019999980926514,6.019999980926514,0.0,6.019999980926514
2017-05-17,6.0,5.800000190734863,6.0,5.800000190734863,1500.0,5.800000190734863
2017-05-18,5.800000190734863,5.800000190734863,5.800000190734863,5.800000190734863,200.0,5.800000190734863
2017-05-19,5.800000190734863,5.800000190734863,5.800000190734863,5.800000190734863,0.0,5.800000190734863
2017-05-22,5.800000190734863,5.800000190734863,5.800000190734863,5.800000190734863,0.0,5.800000190734863
2017-05-23,5.800000190734863,5.800000190734863,5.800000190734863,5.800000190734863,0.0,5.800000190734863
2017-05-24,6.0,6.0,6.0,6.0,100.0,6.0
2017-05-25,6.0,6.0,6.0,6.0,0.0,6.0
2017-05-26,6.0,6.0,6.0,6.0,0.0,6.0
2017-05-30,5.900000095367432,5.900000095367432,5.900000095367432,5.900000095367432,100.0,5.900000095367432
2017-05-31,6.0,5.900000095367432,5.900000095367432,6.0,1100.0,6.0
2017-06-01,6.0,6.0,6.0,6.0,0.0,6.0
2017-06-02,6.0,6.0,6.0,6.0,0.0,6.0
2017-06-05,5.800000190734863,5.800000190734863,5.800000190734863,5.800000190734863,300.0,5.800000190734863
2017-06-06,5.800000190734863,5.800000190734863,5.800000190734863,5.800000190734863,0.0,5.800000190734863
2017-06-07,5.800000190734863,5.800000190734863,5.800000190734863,5.800000190734863,0.0,5.800000190734863
2017-06-08,5.800000190734863,5.800000190734863,5.800000190734863,5.800000190734863,0.0,5.800000190734863
2017-06-09,5.800000190734863,5.800000190734863,5.800000190734863,5.800000190734863,0.0,5.800000190734863
2017-06-12,5.800000190734863,5.800000190734863,5.800000190734863,5.800000190734863,0.0,5.800000190734863
2017-06-13,5.800000190734863,5.800000190734863,5.800000190734863,5.800000190734863,0.0,5.800000190734863
2017-06-14,5.800000190734863,5.800000190734863,5.800000190734863,5.800000190734863,0.0,5.800000190734863
2017-06-15,5.800000190734863,5.800000190734863,5.800000190734863,5.800000190734863,0.0,5.800000190734863
2017-06-16,5.800000190734863,5.800000190734863,5.800000190734863,5.800000190734863,0.0,5.800000190734863
2017-06-19,5.800000190734863,5.800000190734863,5.800000190734863,5.800000190734863,0.0,5.800000190734863
2017-06-20,5.849999904632568,5.849999904632568,5.849999904632568,5.849999904632568,1000.0,5.849999904632568
2017-06-21,5.800000190734863,5.800000190734863,5.800000190734863,5.800000190734863,200.0,5.800000190734863
2017-06-22,5.800000190734863,5.699999809265137,5.699999809265137,5.800000190734863,3300.0,5.800000190734863
2017-06-23,6.019999980926514,5.75,5.75,6.0,1000.0,6.0
2017-06-26,6.25,5.75,5.75,6.25,700.0,6.25
2017-06-27,6.25,6.25,6.25,6.25,0.0,6.25
2017-06-28,6.150000095367432,6.0,6.150000095367432,6.0,1200.0,6.0
2017-06-29,6.349999904632568,6.0,6.349999904632568,6.0,300.0,6.0
2017-06-30,5.900000095367432,5.5,5.900000095367432,5.900000095367432,18800.0,5.900000095367432
2017-07-03,5.900000095367432,5.900000095367432,5.900000095367432,5.900000095367432,0.0,5.900000095367432
2017-07-05,5.900000095367432,5.900000095367432,5.900000095367432,5.900000095367432,0.0,5.900000095367432
2017-07-06,6.349999904632568,5.889999866485596,5.889999866485596,6.349999904632568,300.0,6.349999904632568
2017-07-07,6.349999904632568,6.349999904632568,6.349999904632568,6.349999904632568,0.0,6.349999904632568
2017-07-10,6.349999904632568,6.349999904632568,6.349999904632568,6.349999904632568,0.0,6.349999904632568
2017-07-11,6.349999904632568,6.349999904632568,6.349999904632568,6.349999904632568,0.0,6.349999904632568
2017-07-12,6.349999904632568,6.0,6.349999904632568,6.0,2000.0,6.0
2017-07-13,6.0,6.0,6.0,6.0,0.0,6.0
2017-07-14,6.0,6.0,6.0,6.0,0.0,6.0
2017-07-17,6.0,6.0,6.0,6.0,0.0,6.0
2017-07-18,6.0,6.0,6.0,6.0,0.0,6.0
2017-07-19,6.0,6.0,6.0,6.0,0.0,6.0
2017-07-20,5.5,5.489999771118164,5.5,5.5,2100.0,5.5
2017-07-21,5.920000076293945,5.690000057220459,5.690000057220459,5.75,5300.0,5.75
2017-07-24,6.349999904632568,6.349999904632568,6.349999904632568,6.349999904632568,100.0,6.349999904632568
2017-07-25,6.349999904632568,6.349999904632568,6.349999904632568,6.349999904632568,0.0,6.349999904632568
2017-07-26,6.0,6.0,6.0,6.0,200.0,6.0
2017-07-27,6.0,6.0,6.0,6.0,1700.0,6.0
2017-07-28,6.0,6.0,6.0,6.0,500.0,6.0
2017-07-31,6.0,6.0,6.0,6.0,600.0,6.0
2017-08-01,6.0,6.0,6.0,6.0,0.0,6.0
2017-08-02,6.0,6.0,6.0,6.0,0.0,6.0
2017-08-03,6.0,6.0,6.0,6.0,0.0,6.0
2017-08-04,5.699999809265137,5.699999809265137,5.699999809265137,5.699999809265137,100.0,5.699999809265137
2017-08-07,6.0,5.5,5.699999809265137,5.800000190734863,2000.0,5.800000190734863
2017-08-08,5.849999904632568,5.650000095367432,5.730000019073486,5.849999904632568,800.0,5.849999904632568
2017-08-09,5.739999771118164,5.400000095367432,5.5,5.739999771118164,300.0,5.739999771118164
2017-08-10,5.739999771118164,5.739999771118164,5.739999771118164,5.739999771118164,0.0,5.739999771118164
2017-08-11,5.739999771118164,5.739999771118164,5.739999771118164,5.739999771118164,0.0,5.739999771118164
2017-08-14,5.699999809265137,5.349999904632568,5.400000095367432,5.699999809265137,9000.0,5.699999809265137
2017-08-15,5.679999828338623,5.489999771118164,5.489999771118164,5.679999828338623,600.0,5.679999828338623
2017-08-16,5.800000190734863,5.400000095367432,5.400000095367432,5.800000190734863,600.0,5.800000190734863
2017-08-17,5.800000190734863,5.800000190734863,5.800000190734863,5.800000190734863,0.0,5.800000190734863
2017-08-18,5.800000190734863,5.800000190734863,5.800000190734863,5.800000190734863,0.0,5.800000190734863
2017-08-21,5.679999828338623,5.679999828338623,5.679999828338623,5.679999828338623,100.0,5.679999828338623
2017-08-22,5.800000190734863,5.679999828338623,5.679999828338623,5.800000190734863,400.0,5.800000190734863
2017-08-23,5.800000190734863,5.800000190734863,5.800000190734863,5.800000190734863,0.0,5.800000190734863
2017-08-24,5.800000190734863,5.800000190734863,5.800000190734863,5.800000190734863,0.0,5.800000190734863
2017-08-25,5.800000190734863,5.800000190734863,5.800000190734863,5.800000190734863,0.0,5.800000190734863
2017-08-28,5.800000190734863,5.800000190734863,5.800000190734863,5.800000190734863,0.0,5.800000190734863
2017-08-29,5.800000190734863,5.800000190734863,5.800000190734863,5.800000190734863,400.0,5.800000190734863
2017-08-30,5.800000190734863,5.800000190734863,5.800000190734863,5.800000190734863,400.0,5.800000190734863
2017-08-31,6.0,5.800000190734863,5.800000190734863,6.0,1300.0,6.0
2017-09-01,6.0,6.0,6.0,6.0,0.0,6.0
2017-09-05,6.0,6.0,6.0,6.0,0.0,6.0
2017-09-06,6.0,6.0,6.0,6.0,0.0,6.0
2017-09-07,6.0,6.0,6.0,6.0,0.0,6.0
2017-09-08,6.599999904632568,6.599999904632568,6.599999904632568,6.599999904632568,200.0,6.599999904632568
2017-09-11,6.400000095367432,6.199999809265137,6.400000095367432,6.199999809265137,500.0,6.199999809265137
2017-09-12,6.199999809265137,6.199999809265137,6.199999809265137,6.199999809265137,0.0,6.199999809265137
2017-09-13,6.199999809265137,6.199999809265137,6.199999809265137,6.199999809265137,0.0,6.199999809265137
2017-09-14,6.349999904632568,6.25,6.25,6.349999904632568,300.0,6.349999904632568
2017-09-15,6.349999904632568,6.349999904632568,6.349999904632568,6.349999904632568,0.0,6.349999904632568
2017-09-18,6.349999904632568,6.349999904632568,6.349999904632568,6.349999904632568,0.0,6.349999904632568
2017-09-19,6.349999904632568,6.099999904632568,6.099999904632568,6.349999904632568,400.0,6.349999904632568
2017-09-20,6.349999904632568,6.349999904632568,6.349999904632568,6.349999904632568,0.0,6.349999904632568
2017-09-21,6.349999904632568,6.349999904632568,6.349999904632568,6.349999904632568,0.0,6.349999904632568
2017-09-22,6.349999904632568,6.349999904632568,6.349999904632568,6.349999904632568,0.0,6.349999904632568
2017-09-25,6.349999904632568,6.349999904632568,6.349999904632568,6.349999904632568,0.0,6.349999904632568
2017-09-26,6.349999904632568,6.349999904632568,6.349999904632568,6.349999904632568,300.0,6.349999904632568
2017-09-27,6.449999809265137,6.449999809265137,6.449999809265137,6.449999809265137,200.0,6.449999809265137
2017-09-28,7.0,6.5,6.550000190734863,6.5,700.0,6.5
2017-09-29,6.75,6.75,6.75,6.75,100.0,6.75
2017-10-02,7.019999980926514,7.019999980926514,7.019999980926514,7.019999980926514,200.0,7.019999980926514
2017-10-03,7.320000171661377,7.019999980926514,7.019999980926514,7.320000171661377,200.0,7.320000171661377
2017-10-04,7.320000171661377,7.320000171661377,7.320000171661377,7.320000171661377,0.0,7.320000171661377
2017-10-05,7.320000171661377,7.320000171661377,7.320000171661377,7.320000171661377,0.0,7.320000171661377
2017-10-06,7.320000171661377,7.320000171661377,7.320000171661377,7.320000171661377,0.0,7.320000171661377
2017-10-09,6.75,6.199999809265137,6.699999809265137,6.75,600.0,6.75
2017-10-10,7.25,7.25,7.25,7.25,100.0,7.25
2017-10-11,7.25,7.25,7.25,7.25,0.0,7.25
2017-10-12,7.25,7.25,7.25,7.25,0.0,7.25
2017-10-13,7.25,7.25,7.25,7.25,0.0,7.25
2017-10-16,7.199999809265137,7.0,7.0,7.199999809265137,600.0,7.199999809265137
2017-10-17,7.199999809265137,7.199999809265137,7.199999809265137,7.199999809265137,0.0,7.199999809265137
2017-10-18,7.199999809265137,7.199999809265137,7.199999809265137,7.199999809265137,100.0,7.199999809265137
2017-10-19,7.199999809265137,7.199999809265137,7.199999809265137,7.199999809265137,500.0,7.199999809265137
2017-10-20,7.199999809265137,7.199999809265137,7.199999809265137,7.199999809265137,200.0,7.199999809265137
2017-10-23,7.199999809265137,7.199999809265137,7.199999809265137,7.199999809265137,800.0,7.199999809265137
2017-10-24,7.199999809265137,7.199999809265137,7.199999809265137,7.199999809265137,0.0,7.199999809265137
2017-10-25,7.199999809265137,7.199999809265137,7.199999809265137,7.199999809265137,300.0,7.199999809265137
2017-10-26,7.0,6.800000190734863,7.0,7.0,1000.0,7.0
2017-10-27,7.0,7.0,7.0,7.0,0.0,7.0
2017-10-30,7.0,7.0,7.0,7.0,100.0,7.0
2017-10-31,7.199999809265137,6.974999904632568,7.150000095367432,7.199999809265137,300.0,7.199999809265137
2017-11-01,7.099999904632568,6.699999809265137,7.099999904632568,6.949999809265137,1400.0,6.949999809265137
2017-11-02,4.599999904632568,3.680000066757202,4.599999904632568,4.5,39000.0,4.5
2017-11-03,4.889999866485596,4.420000076293945,4.889999866485596,4.75,12500.0,4.75
2017-11-06,4.889999866485596,4.25,4.889999866485596,4.498000144958496,17800.0,4.498000144958496
2017-11-07,4.599999904632568,4.5,4.579999923706055,4.504000186920166,14400.0,4.504000186920166
2017-11-08,4.699999809265137,4.5,4.550000190734863,4.699999809265137,5500.0,4.699999809265137
2017-11-09,4.695000171661377,4.25,4.25,4.5,7100.0,4.5
2017-11-10,4.699999809265137,4.28000020980835,4.5,4.610000133514404,19000.0,4.610000133514404
2017-11-13,4.639999866485596,4.5,4.5,4.5,5000.0,4.5
2017-11-14,4.670000076293945,4.400000095367432,4.400000095367432,4.579999923706055,2900.0,4.579999923706055
2017-11-15,4.639999866485596,4.269999980926514,4.599999904632568,4.590000152587891,6800.0,4.590000152587891
2017-11-16,4.650000095367432,4.5,4.501999855041504,4.5,2700.0,4.5
2017-11-17,4.670000076293945,4.369999885559082,4.659999847412109,4.670000076293945,8100.0,4.670000076293945
2017-11-20,4.670000076293945,4.550000190734863,4.599999904632568,4.670000076293945,7000.0,4.670000076293945
2017-11-21,4.599999904632568,4.5,4.5,4.599999904632568,3500.0,4.599999904632568
2017-11-22,4.670000076293945,4.5,4.5,4.599999904632568,5800.0,4.599999904632568
2017-11-24,4.579999923706055,4.5,4.5,4.539999961853027,4900.0,4.539999961853027
2017-11-27,4.599999904632568,4.525000095367432,4.599999904632568,4.550000190734863,4300.0,4.550000190734863
2017-11-28,4.599999904632568,4.5,4.550000190734863,4.550000190734863,7900.0,4.550000190734863
2017-11-29,4.599999904632568,4.019999980926514,4.400000095367432,4.550000190734863,233900.0,4.550000190734863
2017-11-30,4.769999980926514,4.25,4.550000190734863,4.650000095367432,73700.0,4.650000095367432
2017-12-01,4.789999961853027,4.28000020980835,4.789999961853027,4.28000020980835,17900.0,4.28000020980835
2017-12-04,4.670000076293945,4.360000133514404,4.559999942779541,4.5,17000.0,4.5
2017-12-05,4.650000095367432,4.400000095367432,4.4670000076293945,4.440000057220459,44100.0,4.440000057220459
2017-12-06,4.599999904632568,4.300000190734863,4.320000171661377,4.599999904632568,8500.0,4.599999904632568
2017-12-07,4.599999904632568,4.258999824523926,4.258999824523926,4.550000190734863,9300.0,4.550000190734863
2017-12-08,4.550000190734863,4.139999866485596,4.139999866485596,4.5,14200.0,4.5
2017-12-11,4.579999923706055,4.440000057220459,4.579999923706055,4.489999771118164,14000.0,4.489999771118164
2017-12-12,4.599999904632568,4.400000095367432,4.5,4.489999771118164,19700.0,4.489999771118164
2017-12-13,4.599999904632568,4.428999900817871,4.550000190734863,4.46999979019165,36200.0,4.46999979019165
2017-12-14,4.599999904632568,4.400000095367432,4.46999979019165,4.480000019073486,16900.0,4.480000019073486
2017-12-15,4.71999979019165,4.21999979019165,4.71999979019165,4.21999979019165,45700.0,4.21999979019165
2017-12-18,4.670000076293945,4.300000190734863,4.369999885559082,4.5,18700.0,4.5
2017-12-19,4.650000095367432,4.5,4.650000095367432,4.5,8600.0,4.5
2017-12-20,4.659999847412109,4.519999980926514,4.610000133514404,4.59499979019165,4200.0,4.59499979019165
2017-12-21,4.630000114440918,4.489999771118164,4.590000152587891,4.5,2800.0,4.5
2017-12-22,4.659999847412109,4.460000038146973,4.590000152587891,4.619999885559082,22800.0,4.619999885559082
2017-12-26,4.599999904632568,4.599999904632568,4.599999904632568,4.599999904632568,800.0,4.599999904632568
2017-12-27,4.670000076293945,4.159999847412109,4.599999904632568,4.670000076293945,6700.0,4.670000076293945
2017-12-28,4.900000095367432,4.320000171661377,4.650000095367432,4.679999828338623,12700.0,4.679999828338623
2017-12-29,4.900000095367432,4.429999828338623,4.679999828338623,4.679999828338623,11800.0,4.679999828338623
2018-01-02,4.679999828338623,4.519999980926514,4.679999828338623,4.519999980926514,1800.0,4.519999980926514
2018-01-03,4.800000190734863,4.400000095367432,4.429999828338623,4.610000133514404,44200.0,4.610000133514404
2018-01-04,4.679999828338623,4.480000019073486,4.679999828338623,4.639999866485596,8500.0,4.639999866485596
2018-01-05,4.670000076293945,4.550000190734863,4.644999980926514,4.670000076293945,10900.0,4.670000076293945
2018-01-08,4.670000076293945,4.670000076293945,4.670000076293945,4.670000076293945,0.0,4.670000076293945
2018-01-09,4.679999828338623,4.599999904632568,4.619999885559082,4.670000076293945,6100.0,4.670000076293945
2018-01-10,4.71999979019165,3.740000009536743,3.740000009536743,4.690000057220459,5700.0,4.690000057220459
2018-01-11,4.679999828338623,4.679999828338623,4.679999828338623,4.679999828338623,100.0,4.679999828338623
2018-01-12,4.900000095367432,4.572000026702881,4.679999828338623,4.880000114440918,8200.0,4.880000114440918
2018-01-16,4.900000095367432,4.46999979019165,4.860000133514404,4.46999979019165,9300.0,4.46999979019165
2018-01-17,4.630000114440918,4.329999923706055,4.630000114440918,4.449999809265137,4700.0,4.449999809265137
2018-01-18,4.679999828338623,4.449999809265137,4.630000114440918,4.539999961853027,6400.0,4.539999961853027
2018-01-19,4.880000114440918,4.5,4.670000076293945,4.679999828338623,48100.0,4.679999828338623
2018-01-22,4.670000076293945,4.5,4.670000076293945,4.519999980926514,11700.0,4.519999980926514
2018-01-23,4.670000076293945,4.5,4.650000095367432,4.650000095367432,12900.0,4.650000095367432
2018-01-24,4.679999828338623,4.21999979019165,4.550000190734863,4.639999866485596,9700.0,4.639999866485596
2018-01-25,4.400000095367432,4.349999904632568,4.349999904632568,4.390999794006348,6000.0,4.390999794006348
2018-01-26,4.570000171661377,4.199999809265137,4.389999866485596,4.440000057220459,8200.0,4.440000057220459
2018-01-29,4.639999866485596,4.550000190734863,4.639999866485596,4.550000190734863,300.0,4.550000190734863
2018-01-30,4.7170000076293945,4.349999904632568,4.349999904632568,4.7170000076293945,10900.0,4.7170000076293945
2018-01-31,4.78000020980835,4.539999961853027,4.585000038146973,4.699999809265137,7000.0,4.699999809265137
2018-02-01,4.679999828338623,4.489999771118164,4.679999828338623,4.679999828338623,400.0,4.679999828338623
2018-02-02,4.679999828338623,4.570000171661377,4.570000171661377,4.679999828338623,600.0,4.679999828338623
2018-02-05,4.679999828338623,4.380000114440918,4.679999828338623,4.550000190734863,6100.0,4.550000190734863
2018-02-06,4.78000020980835,4.539000034332275,4.559999942779541,4.739999771118164,3800.0,4.739999771118164
2018-02-07,4.679999828338623,4.449999809265137,4.449999809265137,4.579999923706055,2700.0,4.579999923706055
2018-02-08,4.800000190734863,4.599999904632568,4.599999904632568,4.784999847412109,2800.0,4.784999847412109
2018-02-09,4.800000190734863,4.677999973297119,4.789999961853027,4.800000190734863,2600.0,4.800000190734863
2018-02-12,4.800000190734863,4.684999942779541,4.800000190734863,4.739999771118164,6900.0,4.739999771118164
2018-02-13,4.599999904632568,4.599999904632568,4.599999904632568,4.599999904632568,300.0,4.599999904632568
2018-02-14,4.599999904632568,4.5,4.599999904632568,4.599999904632568,3300.0,4.599999904632568
2018-02-15,4.800000190734863,4.269000053405762,4.599999904632568,4.619999885559082,3500.0,4.619999885559082
2018-02-16,4.619999885559082,4.619999885559082,4.619999885559082,4.619999885559082,0.0,4.619999885559082
2018-02-20,4.579999923706055,4.300000190734863,4.579999923706055,4.300000190734863,400.0,4.300000190734863
2018-02-21,4.599999904632568,4.340000152587891,4.599999904632568,4.340000152587891,400.0,4.340000152587891
2018-02-22,4.599999904632568,4.340000152587891,4.599999904632568,4.340000152587891,300.0,4.340000152587891
2018-02-23,4.800000190734863,4.400000095367432,4.5,4.5,2100.0,4.5
2018-02-26,4.550000190734863,4.300000190734863,4.550000190734863,4.300000190734863,200.0,4.300000190734863
2018-02-27,4.539999961853027,4.539999961853027,4.539999961853027,4.539999961853027,200.0,4.539999961853027
2018-02-28,4.800000190734863,4.550000190734863,4.550000190734863,4.78000020980835,12800.0,4.78000020980835
2018-03-01,4.800000190734863,4.599999904632568,4.599999904632568,4.75,1800.0,4.75
2018-03-02,4.800000190734863,4.429999828338623,4.670000076293945,4.429999828338623,500.0,4.429999828338623
2018-03-05,4.760000228881836,4.260000228881836,4.300000190734863,4.650000095367432,9100.0,4.650000095367432
2018-03-06,4.650000095367432,4.315000057220459,4.619999885559082,4.380000114440918,9200.0,4.380000114440918
2018-03-07,4.699999809265137,4.199999809265137,4.449999809265137,4.340000152587891,8900.0,4.340000152587891
2018-03-08,4.480000019073486,4.039999961853027,4.46999979019165,4.440000057220459,38200.0,4.440000057220459
2018-03-09,4.659999847412109,4.099999904632568,4.440000057220459,4.599999904632568,35500.0,4.599999904632568
2018-03-12,4.599999904632568,4.5,4.599999904632568,4.599999904632568,43200.0,4.599999904632568
2018-03-13,4.699999809265137,4.289999961853027,4.289999961853027,4.650000095367432,55200.0,4.650000095367432
2018-03-14,4.519999980926514,4.489999771118164,4.519999980926514,4.489999771118164,700.0,4.489999771118164
2018-03-15,4.599999904632568,4.260000228881836,4.380000114440918,4.309999942779541,2600.0,4.309999942779541
2018-03-16,4.789999961853027,4.420000076293945,4.420000076293945,4.789999961853027,600.0,4.789999961853027
2018-03-19,4.449999809265137,4.449999809265137,4.449999809265137,4.449999809265137,100.0,4.449999809265137
2018-03-20,4.599999904632568,4.329999923706055,4.369999885559082,4.329999923706055,900.0,4.329999923706055
2018-03-21,4.900000095367432,4.650000095367432,4.849999904632568,4.800000190734863,182500.0,4.800000190734863
2018-03-22,4.848999977111816,4.75,4.78000020980835,4.809999942779541,55600.0,4.809999942779541
2018-03-23,4.848999977111816,4.627999782562256,4.800000190734863,4.699999809265137,22000.0,4.699999809265137
2018-03-26,4.861000061035156,4.349999904632568,4.679999828338623,4.539999961853027,24200.0,4.539999961853027
2018-03-27,4.869999885559082,4.409999847412109,4.53000020980835,4.760000228881836,5500.0,4.760000228881836
2018-03-28,4.849999904632568,4.420000076293945,4.75,4.769999980926514,31200.0,4.769999980926514
2018-03-29,4.869999885559082,4.590000152587891,4.760000228881836,4.760000228881836,87700.0,4.760000228881836
2018-04-02,5.0,4.440000057220459,4.75,4.440000057220459,26000.0,4.440000057220459
2018-04-03,4.849999904632568,4.510000228881836,4.599999904632568,4.510000228881836,8800.0,4.510000228881836
2018-04-04,4.849999904632568,4.75,4.75,4.849999904632568,4900.0,4.849999904632568
2018-04-05,4.849999904632568,4.5,4.800000190734863,4.829999923706055,7900.0,4.829999923706055
2018-04-06,4.760000228881836,4.5,4.760000228881836,4.630000114440918,1900.0,4.630000114440918
2018-04-09,4.75,4.5,4.75,4.559999942779541,7100.0,4.559999942779541
2018-04-10,4.75,4.678999900817871,4.75,4.739999771118164,3300.0,4.739999771118164
2018-04-11,4.690000057220459,4.550000190734863,4.690000057220459,4.679999828338623,5700.0,4.679999828338623
2018-04-12,4.620999813079834,4.590000152587891,4.590000152587891,4.620999813079834,1300.0,4.620999813079834
2018-04-13,4.632999897003174,4.599999904632568,4.599999904632568,4.623000144958496,1700.0,4.623000144958496
2018-04-16,4.75,4.599999904632568,4.599999904632568,4.75,1900.0,4.75
2018-04-17,4.75,4.75,4.75,4.75,0.0,4.75
2018-04-18,4.699999809265137,4.610000133514404,4.699999809265137,4.610000133514404,2500.0,4.610000133514404
2018-04-19,4.690000057220459,4.360000133514404,4.526000022888184,4.369999885559082,2700.0,4.369999885559082
2018-04-20,4.5,4.360000133514404,4.360000133514404,4.5,1600.0,4.5
2018-04-23,4.75,4.5,4.5,4.599999904632568,10000.0,4.599999904632568
2018-04-24,4.5960001945495605,4.5960001945495605,4.5960001945495605,4.5960001945495605,200.0,4.5960001945495605
2018-04-25,4.480000019073486,4.3979997634887695,4.414999961853027,4.440000057220459,6100.0,4.440000057220459
2018-04-26,4.5,4.349999904632568,4.429999828338623,4.449999809265137,10500.0,4.449999809265137
2018-04-27,4.5,4.489999771118164,4.489999771118164,4.5,2200.0,4.5
2018-04-30,4.75,4.400000095367432,4.400000095367432,4.730000019073486,18200.0,4.730000019073486
2018-05-01,4.71999979019165,4.429999828338623,4.699999809265137,4.690000057220459,3100.0,4.690000057220459
2018-05-02,4.75,4.480000019073486,4.739999771118164,4.619999885559082,1700.0,4.619999885559082
2018-05-03,4.559999942779541,4.447999954223633,4.510000228881836,4.559999942779541,4200.0,4.559999942779541
2018-05-04,4.599999904632568,4.53000020980835,4.550000190734863,4.579999923706055,9600.0,4.579999923706055
2018-05-07,4.579999923706055,4.489999771118164,4.489999771118164,4.53000020980835,2700.0,4.53000020980835
2018-05-08,4.53000020980835,4.5,4.51200008392334,4.5,6100.0,4.5
2018-05-09,4.610000133514404,4.349999904632568,4.369999885559082,4.545000076293945,7900.0,4.545000076293945
2018-05-10,4.619999885559082,4.409999847412109,4.599999904632568,4.610000133514404,7500.0,4.610000133514404
2018-05-11,4.75,4.625,4.625,4.699999809265137,42600.0,4.699999809265137
2018-05-14,4.699999809265137,4.550000190734863,4.550000190734863,4.690000057220459,1100.0,4.690000057220459
2018-05-15,4.682000160217285,4.557000160217285,4.682000160217285,4.557000160217285,600.0,4.557000160217285
2018-05-16,4.440000057220459,4.440000057220459,4.440000057220459,4.440000057220459,100.0,4.440000057220459
2018-05-17,4.699999809265137,4.53000020980835,4.53000020980835,4.599999904632568,8200.0,4.599999904632568
2018-05-18,4.75,4.599999904632568,4.599999904632568,4.710000038146973,13700.0,4.710000038146973
2018-05-21,4.800000190734863,4.675000190734863,4.699999809265137,4.800000190734863,6100.0,4.800000190734863
2018-05-22,4.789999961853027,4.480000019073486,4.699999809265137,4.78000020980835,7600.0,4.78000020980835
2018-05-23,4.699999809265137,4.610000133514404,4.699999809265137,4.690000057220459,4400.0,4.690000057220459
2018-05-24,4.690000057220459,4.557000160217285,4.557000160217285,4.639999866485596,1600.0,4.639999866485596
2018-05-25,4.769999980926514,4.639999866485596,4.639999866485596,4.699999809265137,4800.0,4.699999809265137
2018-05-29,4.78000020980835,4.650000095367432,4.650000095367432,4.650000095367432,4800.0,4.650000095367432
2018-05-30,4.650000095367432,4.550000190734863,4.550000190734863,4.610000133514404,2300.0,4.610000133514404
2018-05-31,4.75,4.4720001220703125,4.550000190734863,4.670000076293945,21300.0,4.670000076293945
2018-06-01,5.0,4.639999866485596,4.650000095367432,4.650000095367432,25800.0,4.650000095367432
2018-06-04,4.760000228881836,4.650000095367432,4.650000095367432,4.760000228881836,2900.0,4.760000228881836
2018-06-05,4.927000045776367,4.610000133514404,4.869999885559082,4.800000190734863,17000.0,4.800000190734863
2018-06-06,4.816999912261963,4.619999885559082,4.800000190734863,4.650000095367432,10600.0,4.650000095367432
2018-06-07,4.949999809265137,4.5,4.650000095367432,4.510000228881836,24600.0,4.510000228881836
2018-06-08,4.810999870300293,4.510000228881836,4.75,4.510000228881836,16200.0,4.510000228881836
2018-06-11,4.639999866485596,3.75,4.630000114440918,4.239999771118164,11200.0,4.239999771118164
2018-06-12,5.0,3.9800000190734863,4.409999847412109,5.0,42100.0,5.0
2018-06-13,5.0,4.348999977111816,5.0,4.690000057220459,43000.0,4.690000057220459
2018-06-14,4.71999979019165,4.5,4.679999828338623,4.599999904632568,4100.0,4.599999904632568
2018-06-15,4.690000057220459,4.480000019073486,4.599999904632568,4.480000019073486,4800.0,4.480000019073486
2018-06-18,4.570000171661377,4.28000020980835,4.369999885559082,4.28000020980835,4500.0,4.28000020980835
2018-06-19,4.329999923706055,4.166999816894531,4.28000020980835,4.25,5800.0,4.25
2018-06-20,4.2779998779296875,4.199999809265137,4.199999809265137,4.2779998779296875,1500.0,4.2779998779296875
2018-06-21,4.199999809265137,4.159999847412109,4.170000076293945,4.199999809265137,600.0,4.199999809265137
2018-06-22,4.800000190734863,4.329999923706055,4.329999923706055,4.699999809265137,24800.0,4.699999809265137
2018-06-25,4.599999904632568,4.466000080108643,4.590000152587891,4.466000080108643,1000.0,4.466000080108643
2018-06-26,4.769999980926514,4.400000095367432,4.5,4.599999904632568,18200.0,4.599999904632568
2018-06-27,4.679999828338623,4.659999847412109,4.659999847412109,4.679999828338623,2600.0,4.679999828338623
2018-06-28,4.849999904632568,4.75,4.809999942779541,4.849999904632568,2200.0,4.849999904632568
2018-06-29,4.849999904632568,4.75,4.820000171661377,4.789999961853027,9500.0,4.789999961853027
2018-07-02,4.980000019073486,4.559999942779541,4.775000095367432,4.559999942779541,20800.0,4.559999942779541
2018-07-03,4.677000045776367,4.489999771118164,4.550000190734863,4.599999904632568,7900.0,4.599999904632568
2018-07-05,4.679999828338623,4.539999961853027,4.539999961853027,4.639999866485596,11200.0,4.639999866485596
2018-07-06,4.800000190734863,4.550000190734863,4.550000190734863,4.679999828338623,14800.0,4.679999828338623
2018-07-09,4.789999961853027,4.521999835968018,4.568999767303467,4.789999961853027,7700.0,4.789999961853027
2018-07-10,4.659999847412109,4.513999938964844,4.599999904632568,4.659999847412109,8000.0,4.659999847412109
2018-07-11,4.730000019073486,4.53000020980835,4.650000095367432,4.639999866485596,11600.0,4.639999866485596
2018-07-12,4.639999866485596,4.639999866485596,4.639999866485596,4.639999866485596,0.0,4.639999866485596
2018-07-13,4.639999866485596,4.639999866485596,4.639999866485596,4.639999866485596,0.0,4.639999866485596
2018-07-16,4.539999961853027,4.539999961853027,4.539999961853027,4.539999961853027,200.0,4.539999961853027
2018-07-17,4.693999767303467,4.230000019073486,4.480000019073486,4.5,11200.0,4.5
2018-07-18,4.71999979019165,4.5229997634887695,4.679999828338623,4.650000095367432,15300.0,4.650000095367432
2018-07-19,4.650000095367432,4.650000095367432,4.650000095367432,4.650000095367432,0.0,4.650000095367432
2018-07-20,4.519999980926514,4.429999828338623,4.429999828338623,4.5,3600.0,4.5
2018-07-23,4.5,4.5,4.5,4.5,0.0,4.5
2018-07-24,4.800000190734863,4.159999847412109,4.75,4.420000076293945,38600.0,4.420000076293945
2018-07-25,4.690000057220459,4.369999885559082,4.610000133514404,4.539000034332275,9200.0,4.539000034332275
2018-07-26,4.6570000648498535,4.360000133514404,4.494999885559082,4.6570000648498535,2600.0,4.6570000648498535
2018-07-27,4.568999767303467,4.5,4.53000020980835,4.519999980926514,20000.0,4.519999980926514
2018-07-30,4.4120001792907715,4.400000095367432,4.409999847412109,4.408999919891357,13300.0,4.408999919891357
2018-07-31,4.864999771118164,4.380000114440918,4.380000114440918,4.659999847412109,10200.0,4.659999847412109
2018-08-01,4.639999866485596,4.449999809265137,4.519999980926514,4.53000020980835,3700.0,4.53000020980835
2018-08-02,4.690000057220459,4.460000038146973,4.539999961853027,4.579999923706055,8000.0,4.579999923706055
2018-08-03,4.75,4.449999809265137,4.724999904632568,4.623000144958496,11800.0,4.623000144958496
2018-08-06,4.859000205993652,4.599999904632568,4.807000160217285,4.730000019073486,4800.0,4.730000019073486
2018-08-07,4.610000133514404,4.570000171661377,4.610000133514404,4.599999904632568,900.0,4.599999904632568
2018-08-08,4.599999904632568,4.599999904632568,4.599999904632568,4.599999904632568,0.0,4.599999904632568
2018-08-09,4.650000095367432,4.610000133514404,4.630000114440918,4.650000095367432,1200.0,4.650000095367432
2018-08-10,4.690000057220459,4.428999900817871,4.428999900817871,4.630000114440918,400.0,4.630000114440918
2018-08-13,4.690000057220459,4.690000057220459,4.690000057220459,4.690000057220459,2000.0,4.690000057220459
2018-08-14,4.980000019073486,4.5329999923706055,4.659999847412109,4.75,19300.0,4.75
2018-08-15,4.974999904632568,4.650000095367432,4.659999847412109,4.650000095367432,10100.0,4.650000095367432
2018-08-16,4.75,4.75,4.75,4.75,200.0,4.75
2018-08-17,4.75,4.75,4.75,4.75,0.0,4.75
2018-08-20,4.658999919891357,4.380000114440918,4.380000114440918,4.658999919891357,300.0,4.658999919891357
2018-08-21,4.890999794006348,4.489999771118164,4.489999771118164,4.890999794006348,700.0,4.890999794006348
2018-08-22,4.890999794006348,4.890999794006348,4.890999794006348,4.890999794006348,0.0,4.890999794006348
2018-08-23,4.890999794006348,4.890999794006348,4.890999794006348,4.890999794006348,0.0,4.890999794006348
2018-08-24,4.630000114440918,4.599999904632568,4.630000114440918,4.599999904632568,500.0,4.599999904632568
2018-08-27,4.75,4.599999904632568,4.599999904632568,4.75,1600.0,4.75
2018-08-28,4.809999942779541,4.46999979019165,4.599999904632568,4.809999942779541,8200.0,4.809999942779541
2018-08-29,4.809999942779541,4.809999942779541,4.809999942779541,4.809999942779541,0.0,4.809999942779541
2018-08-30,4.980000019073486,4.75,4.75,4.849999904632568,2600.0,4.849999904632568
2018-08-31,4.929999828338623,4.75,4.849999904632568,4.800000190734863,11700.0,4.800000190734863
2018-09-04,4.650000095367432,4.5,4.650000095367432,4.5,600.0,4.5
2018-09-05,4.75,4.5,4.550000190734863,4.75,2500.0,4.75
2018-09-06,4.75,4.75,4.75,4.75,0.0,4.75
2018-09-07,4.71999979019165,4.389999866485596,4.519999980926514,4.670000076293945,17200.0,4.670000076293945
2018-09-10,4.420000076293945,4.420000076293945,4.420000076293945,4.420000076293945,200.0,4.420000076293945
2018-09-11,4.659999847412109,4.449999809265137,4.539999961853027,4.565000057220459,19600.0,4.565000057220459
2018-09-12,4.679999828338623,4.25,4.679999828338623,4.5,31500.0,4.5
2018-09-13,4.449999809265137,4.000999927520752,4.440000057220459,4.449999809265137,1900.0,4.449999809265137
2018-09-14,4.590000152587891,4.420000076293945,4.420000076293945,4.590000152587891,1600.0,4.590000152587891
2018-09-17,4.590000152587891,4.25,4.559999942779541,4.400000095367432,49900.0,4.400000095367432
2018-09-18,4.5,4.400000095367432,4.429999828338623,4.400000095367432,5300.0,4.400000095367432
2018-09-19,4.570000171661377,4.320000171661377,4.570000171661377,4.394000053405762,500.0,4.394000053405762
2018-09-20,4.46999979019165,4.150000095367432,4.308000087738037,4.349999904632568,26300.0,4.349999904632568
2018-09-21,4.400000095367432,4.400000095367432,4.400000095367432,4.400000095367432,4400.0,4.400000095367432
2018-09-24,4.400000095367432,4.400000095367432,4.400000095367432,4.400000095367432,0.0,4.400000095367432
2018-09-25,4.210000038146973,4.150000095367432,4.199999809265137,4.170000076293945,1500.0,4.170000076293945
2018-09-26,4.300000190734863,4.300000190734863,4.300000190734863,4.300000190734863,200.0,4.300000190734863
2018-09-27,4.502999782562256,4.449999809265137,4.502999782562256,4.449999809265137,700.0,4.449999809265137
2018-09-28,4.650000095367432,4.400000095367432,4.599999904632568,4.590000152587891,5600.0,4.590000152587891
2018-10-01,4.639999866485596,4.46999979019165,4.46999979019165,4.639999866485596,600.0,4.639999866485596
2018-10-02,4.599999904632568,4.550000190734863,4.599999904632568,4.550000190734863,200.0,4.550000190734863
2018-10-03,4.639999866485596,4.5,4.639999866485596,4.5,300.0,4.5
2018-10-04,4.449999809265137,4.210000038146973,4.269999980926514,4.440000057220459,7600.0,4.440000057220459
2018-10-05,4.440000057220459,4.440000057220459,4.440000057220459,4.440000057220459,0.0,4.440000057220459
2018-10-08,4.46999979019165,4.230000019073486,4.230000019073486,4.46999979019165,400.0,4.46999979019165
2018-10-09,4.579999923706055,4.179999828338623,4.179999828338623,4.239999771118164,2200.0,4.239999771118164
2018-10-10,4.460000038146973,4.460000038146973,4.460000038146973,4.460000038146973,300.0,4.460000038146973
2018-10-11,4.199999809265137,4.199999809265137,4.199999809265137,4.199999809265137,800.0,4.199999809265137
2018-10-12,4.26200008392334,4.210000038146973,4.25,4.234000205993652,1200.0,4.234000205993652
2018-10-15,4.260000228881836,4.260000228881836,4.260000228881836,4.260000228881836,700.0,4.260000228881836
2018-10-16,4.326000213623047,4.25,4.326000213623047,4.25,1100.0,4.25
2018-10-17,4.239999771118164,4.21999979019165,4.239999771118164,4.230000019073486,1100.0,4.230000019073486
2018-10-18,4.25,4.170000076293945,4.210000038146973,4.201000213623047,11200.0,4.201000213623047
2018-10-19,4.25,4.199999809265137,4.199999809265137,4.239999771118164,1400.0,4.239999771118164
2018-10-22,4.239999771118164,4.239999771118164,4.239999771118164,4.239999771118164,11400.0,4.239999771118164
2018-10-23,4.400000095367432,4.0,4.203000068664551,4.400000095367432,14900.0,4.400000095367432
2018-10-24,4.298999786376953,4.010000228881836,4.269999980926514,4.159999847412109,3100.0,4.159999847412109
2018-10-25,4.150000095367432,4.050000190734863,4.150000095367432,4.099999904632568,7200.0,4.099999904632568
2018-10-26,4.050000190734863,4.050000190734863,4.050000190734863,4.050000190734863,400.0,4.050000190734863
2018-10-29,4.420000076293945,4.0,4.300000190734863,4.099999904632568,10700.0,4.099999904632568
2018-10-30,4.215000152587891,3.619999885559082,4.03000020980835,4.099999904632568,10100.0,4.099999904632568
2018-10-31,4.199999809265137,3.569999933242798,4.119999885559082,4.150000095367432,2300.0,4.150000095367432
2018-11-01,4.007999897003174,4.0,4.007999897003174,4.0,1300.0,4.0
2018-11-02,4.0,3.9600000381469727,3.9600000381469727,4.0,700.0,4.0
2018-11-05,4.019999980926514,4.0,4.019999980926514,4.0,1400.0,4.0
2018-11-06,4.050000190734863,4.010000228881836,4.050000190734863,4.010000228881836,400.0,4.010000228881836
2018-11-07,4.0,3.6500000953674316,3.9700000286102295,3.950000047683716,10000.0,3.950000047683716
2018-11-08,3.950000047683716,3.950000047683716,3.950000047683716,3.950000047683716,0.0,3.950000047683716
2018-11-09,4.150000095367432,4.150000095367432,4.150000095367432,4.150000095367432,400.0,4.150000095367432
2018-11-12,4.019999980926514,3.7799999713897705,4.0,4.0,15600.0,4.0
2018-11-13,4.0,4.0,4.0,4.0,0.0,4.0
2018-11-14,4.0,4.0,4.0,4.0,0.0,4.0
2018-11-15,3.8949999809265137,3.7699999809265137,3.7699999809265137,3.799999952316284,2600.0,3.799999952316284
2018-11-16,3.799999952316284,3.799999952316284,3.799999952316284,3.799999952316284,100.0,3.799999952316284
2018-11-19,3.799999952316284,3.259999990463257,3.75,3.259999990463257,1300.0,3.259999990463257
2018-11-20,3.996000051498413,3.490000009536743,3.7699999809265137,3.490000009536743,10600.0,3.490000009536743
2018-11-21,3.5999999046325684,3.180000066757202,3.180000066757202,3.3299999237060547,3700.0,3.3299999237060547
2018-11-23,3.3399999141693115,3.0999999046325684,3.3299999237060547,3.25,1800.0,3.25
2018-11-26,3.4700000286102295,2.990000009536743,3.450000047683716,3.4700000286102295,21500.0,3.4700000286102295
2018-11-27,3.5,2.809999942779541,3.5,3.200000047683716,21200.0,3.200000047683716
2018-11-28,3.549999952316284,3.049999952316284,3.4000000953674316,3.0799999237060547,4900.0,3.0799999237060547
2018-11-29,3.200000047683716,3.075000047683716,3.119999885559082,3.200000047683716,2800.0,3.200000047683716
2018-11-30,3.5999999046325684,3.2699999809265137,3.3499999046325684,3.559999942779541,3300.0,3.559999942779541
2018-12-03,3.559999942779541,3.559999942779541,3.559999942779541,3.559999942779541,100.0,3.559999942779541
2018-12-04,3.75,3.5799999237060547,3.5799999237060547,3.75,600.0,3.75
2018-12-06,3.75,3.75,3.75,3.75,0.0,3.75
2018-12-07,3.7799999713897705,3.7799999713897705,3.7799999713897705,3.7799999713897705,200.0,3.7799999713897705
2018-12-10,3.75,3.75,3.75,3.75,700.0,3.75
2018-12-11,3.069999933242798,3.049999952316284,3.049999952316284,3.049999952316284,700.0,3.049999952316284
2018-12-12,3.75,3.299999952316284,3.75,3.299999952316284,300.0,3.299999952316284
2018-12-13,3.309999942779541,3.2100000381469727,3.309999942779541,3.2100000381469727,700.0,3.2100000381469727
2018-12-14,3.8610000610351562,3.4000000953674316,3.8610000610351562,3.4000000953674316,700.0,3.4000000953674316
2018-12-17,3.4670000076293945,3.299999952316284,3.450000047683716,3.359999895095825,3400.0,3.359999895095825
2018-12-18,3.509999990463257,3.1760001182556152,3.509999990463257,3.4000000953674316,5300.0,3.4000000953674316
2018-12-19,3.569999933242798,3.109999895095825,3.109999895095825,3.569999933242798,900.0,3.569999933242798
2018-12-20,3.5999999046325684,3.1500000953674316,3.5999999046325684,3.299999952316284,2900.0,3.299999952316284
2018-12-21,3.4800000190734863,3.0,3.2100000381469727,3.1700000762939453,5500.0,3.1700000762939453
2018-12-24,3.299999952316284,3.0999999046325684,3.299999952316284,3.0999999046325684,1000.0,3.0999999046325684
2018-12-26,3.1500000953674316,3.1500000953674316,3.1500000953674316,3.1500000953674316,1100.0,3.1500000953674316
2018-12-27,3.299999952316284,2.9000000953674316,3.1700000762939453,3.0999999046325684,7800.0,3.0999999046325684
2018-12-28,3.5399999618530273,2.9000000953674316,3.0999999046325684,3.190000057220459,7300.0,3.190000057220459
2018-12-31,3.621000051498413,3.3499999046325684,3.3499999046325684,3.621000051498413,4300.0,3.621000051498413
2019-01-02,3.621000051498413,3.621000051498413,3.621000051498413,3.621000051498413,200.0,3.621000051498413
2019-01-03,3.299999952316284,3.299999952316284,3.299999952316284,3.299999952316284,700.0,3.299999952316284
2019-01-04,3.450000047683716,3.3499999046325684,3.450000047683716,3.3499999046325684,900.0,3.3499999046325684
2019-01-07,3.3499999046325684,3.3499999046325684,3.3499999046325684,3.3499999046325684,0.0,3.3499999046325684
2019-01-08,3.3499999046325684,3.3499999046325684,3.3499999046325684,3.3499999046325684,0.0,3.3499999046325684
2019-01-09,3.5999999046325684,3.325000047683716,3.427000045776367,3.3499999046325684,4800.0,3.3499999046325684
2019-01-10,3.3499999046325684,3.3499999046325684,3.3499999046325684,3.3499999046325684,100.0,3.3499999046325684
2019-01-11,3.563999891281128,3.3499999046325684,3.3499999046325684,3.4000000953674316,5300.0,3.4000000953674316
2019-01-14,3.4000000953674316,3.4000000953674316,3.4000000953674316,3.4000000953674316,100.0,3.4000000953674316
2019-01-15,3.4000000953674316,3.4000000953674316,3.4000000953674316,3.4000000953674316,100.0,3.4000000953674316
2019-01-16,3.4000000953674316,3.4000000953674316,3.4000000953674316,3.4000000953674316,0.0,3.4000000953674316
2019-01-17,3.5,3.4000000953674316,3.4000000953674316,3.4000000953674316,7000.0,3.4000000953674316
2019-01-18,3.4000000953674316,3.4000000953674316,3.4000000953674316,3.4000000953674316,100.0,3.4000000953674316
2019-01-22,3.450000047683716,3.4000000953674316,3.450000047683716,3.4170000553131104,6300.0,3.4170000553131104
2019-01-23,3.484999895095825,3.299999952316284,3.484999895095825,3.3499999046325684,13300.0,3.3499999046325684
2019-01-24,3.3499999046325684,3.3499999046325684,3.3499999046325684,3.3499999046325684,0.0,3.3499999046325684
2019-01-25,3.434000015258789,3.434000015258789,3.434000015258789,3.434000015258789,500.0,3.434000015258789
2019-01-28,3.450000047683716,3.4000000953674316,3.450000047683716,3.4000000953674316,4100.0,3.4000000953674316
2019-01-29,3.3499999046325684,3.3499999046325684,3.3499999046325684,3.3499999046325684,1000.0,3.3499999046325684
2019-01-30,3.3499999046325684,3.3499999046325684,3.3499999046325684,3.3499999046325684,0.0,3.3499999046325684
2019-01-31,3.4000000953674316,3.3499999046325684,3.3499999046325684,3.4000000953674316,1800.0,3.4000000953674316
2019-02-01,3.4000000953674316,3.3499999046325684,3.3499999046325684,3.3499999046325684,3800.0,3.3499999046325684
2019-02-04,3.3499999046325684,3.3499999046325684,3.3499999046325684,3.3499999046325684,100.0,3.3499999046325684
2019-02-05,3.3499999046325684,3.299999952316284,3.299999952316284,3.299999952316284,2100.0,3.299999952316284
2019-02-06,3.450000047683716,3.299999952316284,3.319999933242798,3.3010001182556152,3100.0,3.3010001182556152
2019-02-07,3.450000047683716,3.4179999828338623,3.4179999828338623,3.450000047683716,1600.0,3.450000047683716
2019-02-08,3.450000047683716,3.450000047683716,3.450000047683716,3.450000047683716,100.0,3.450000047683716
2019-02-11,3.3499999046325684,3.3499999046325684,3.3499999046325684,3.3499999046325684,200.0,3.3499999046325684
2019-02-12,3.367000102996826,3.367000102996826,3.367000102996826,3.367000102996826,500.0,3.367000102996826
2019-02-13,3.5,3.430000066757202,3.4670000076293945,3.5,5000.0,3.5
2019-02-14,3.6600000858306885,3.4000000953674316,3.6600000858306885,3.4000000953674316,600.0,3.4000000953674316
2019-02-15,3.509999990463257,3.4000000953674316,3.5,3.4000000953674316,4000.0,3.4000000953674316
2019-02-19,3.3499999046325684,3.3499999046325684,3.3499999046325684,3.3499999046325684,300.0,3.3499999046325684
2019-02-20,3.3510000705718994,3.2100000381469727,3.3510000705718994,3.2100000381469727,4000.0,3.2100000381469727
2019-02-21,3.7899999618530273,3.380000114440918,3.380000114440918,3.7899999618530273,30900.0,3.7899999618530273
2019-02-22,4.329999923706055,3.609999895095825,3.609999895095825,3.9700000286102295,24100.0,3.9700000286102295
2019-02-25,4.150000095367432,3.799999952316284,3.799999952316284,4.135000228881836,15400.0,4.135000228881836
2019-02-26,4.089000225067139,4.0,4.0,4.0,9800.0,4.0
2019-02-27,4.139999866485596,3.950000047683716,4.138000011444092,3.950000047683716,16900.0,3.950000047683716
2019-02-28,4.099999904632568,3.869999885559082,3.950000047683716,3.9700000286102295,11000.0,3.9700000286102295
2019-03-01,4.099999904632568,3.950000047683716,3.9600000381469727,4.03000020980835,41700.0,4.03000020980835
2019-03-04,4.053999900817871,3.8499999046325684,3.9100000858306885,3.880000114440918,25600.0,3.880000114440918
2019-03-05,4.239999771118164,4.239999771118164,4.239999771118164,4.239999771118164,600.0,4.239999771118164
2019-03-06,4.230000019073486,4.050000190734863,4.230000019073486,4.050000190734863,1200.0,4.050000190734863
2019-03-07,4.361999988555908,4.060999870300293,4.224999904632568,4.150000095367432,20800.0,4.150000095367432
2019-03-08,4.23799991607666,4.070000171661377,4.114999771118164,4.099999904632568,5900.0,4.099999904632568
2019-03-11,4.171000003814697,3.9210000038146973,4.171000003814697,4.0329999923706055,22500.0,4.0329999923706055
2019-03-12,4.043000221252441,3.9000000953674316,3.9000000953674316,3.950000047683716,9300.0,3.950000047683716
2019-03-13,4.340000152587891,3.809999942779541,3.9800000190734863,4.340000152587891,24400.0,4.340000152587891
2019-03-14,4.050000190734863,3.9200000762939453,3.9200000762939453,4.0,2600.0,4.0
2019-03-15,4.050000190734863,3.9549999237060547,4.0,4.050000190734863,13100.0,4.050000190734863
2019-03-18,4.099999904632568,4.019999980926514,4.019999980926514,4.090000152587891,25600.0,4.090000152587891
2019-03-19,4.058000087738037,4.0,4.0,4.050000190734863,11700.0,4.050000190734863
2019-03-20,4.5,3.8499999046325684,4.0,4.050000190734863,115200.0,4.050000190734863
2019-03-21,4.0229997634887695,3.930999994277954,3.930999994277954,3.950000047683716,10800.0,3.950000047683716
2019-03-22,4.025000095367432,3.890000104904175,3.890000104904175,4.0,13100.0,4.0
2019-03-25,4.110000133514404,3.950000047683716,3.950000047683716,3.950000047683716,12500.0,3.950000047683716
2019-03-26,4.400000095367432,3.9200000762939453,4.400000095367432,3.9200000762939453,21200.0,3.9200000762939453
2019-03-27,4.119999885559082,3.9200000762939453,3.9200000762939453,4.119999885559082,1700.0,4.119999885559082
2019-03-28,4.139999866485596,3.9600000381469727,4.139999866485596,3.990000009536743,1000.0,3.990000009536743
2019-03-29,4.099999904632568,3.997999906539917,3.997999906539917,4.050000190734863,14200.0,4.050000190734863
2019-04-01,4.010000228881836,3.930000066757202,4.010000228881836,3.9590001106262207,4800.0,3.9590001106262207
2019-04-02,4.067999839782715,4.039999961853027,4.067999839782715,4.039999961853027,300.0,4.039999961853027
2019-04-03,3.9800000190734863,3.819999933242798,3.9000000953674316,3.9800000190734863,6000.0,3.9800000190734863
2019-04-04,3.9709999561309814,3.9100000858306885,3.950000047683716,3.944999933242798,5300.0,3.944999933242798
2019-04-05,3.944999933242798,3.944999933242798,3.944999933242798,3.944999933242798,100.0,3.944999933242798
2019-04-08,3.993000030517578,3.9200000762939453,3.993000030517578,3.950000047683716,3200.0,3.950000047683716
2019-04-09,4.144999980926514,3.940000057220459,3.940000057220459,4.067999839782715,16600.0,4.067999839782715
2019-04-10,4.050000190734863,3.9000000953674316,4.050000190734863,3.9000000953674316,7100.0,3.9000000953674316
2019-04-11,4.050000190734863,3.200000047683716,3.8289999961853027,3.7790000438690186,56100.0,3.7790000438690186
2019-04-12,3.950000047683716,3.640000104904175,3.640000104904175,3.9000000953674316,2500.0,3.9000000953674316
2019-04-15,3.869999885559082,3.8499999046325684,3.8499999046325684,3.8499999046325684,2700.0,3.8499999046325684
2019-04-16,3.950000047683716,3.8499999046325684,3.950000047683716,3.880000114440918,4000.0,3.880000114440918
2019-04-17,4.239999771118164,3.8299999237060547,4.239999771118164,3.8299999237060547,23500.0,3.8299999237060547
2019-04-18,3.8299999237060547,3.8299999237060547,3.8299999237060547,3.8299999237060547,100.0,3.8299999237060547
2019-04-22,4.0320000648498535,3.740000009536743,4.0,3.8499999046325684,19000.0,3.8499999046325684
2019-04-23,3.8499999046325684,3.4600000381469727,3.700000047683716,3.6500000953674316,25000.0,3.6500000953674316
2019-04-24,3.640000104904175,3.240000009536743,3.4100000858306885,3.5199999809265137,7700.0,3.5199999809265137
2019-04-25,3.609999895095825,3.299999952316284,3.4000000953674316,3.3299999237060547,17300.0,3.3299999237060547
2019-04-26,3.444000005722046,3.3499999046325684,3.444000005722046,3.3499999046325684,1800.0,3.3499999046325684
2019-04-29,3.490000009536743,3.450000047683716,3.490000009536743,3.450000047683716,400.0,3.450000047683716
2019-04-30,3.5299999713897705,3.2160000801086426,3.2200000286102295,3.434000015258789,5600.0,3.434000015258789
2019-05-01,3.434000015258789,3.434000015258789,3.434000015258789,3.434000015258789,0.0,3.434000015258789
2019-05-02,3.071000099182129,3.059000015258789,3.071000099182129,3.059000015258789,700.0,3.059000015258789
2019-05-03,3.2300000190734863,2.859999895095825,2.869999885559082,3.2300000190734863,14900.0,3.2300000190734863
2019-05-06,3.2890000343322754,3.200000047683716,3.2890000343322754,3.200000047683716,1800.0,3.200000047683716
2019-05-07,3.0840001106262207,3.0840001106262207,3.0840001106262207,3.0840001106262207,200.0,3.0840001106262207
2019-05-08,2.819999933242798,2.819999933242798,2.819999933242798,2.819999933242798,100.0,2.819999933242798
2019-05-09,3.1500000953674316,2.5,2.799999952316284,3.119999885559082,5800.0,3.119999885559082
2019-05-10,3.2100000381469727,2.8910000324249268,2.8910000324249268,3.200000047683716,13300.0,3.200000047683716
2019-05-13,3.2200000286102295,3.200000047683716,3.200000047683716,3.200000047683716,3900.0,3.200000047683716
2019-05-14,3.2679998874664307,2.9700000286102295,3.1600000858306885,2.9700000286102295,2400.0,2.9700000286102295
2019-05-15,3.072000026702881,2.7699999809265137,2.9000000953674316,2.7699999809265137,5700.0,2.7699999809265137
2019-05-16,3.2200000286102295,2.880000114440918,2.880000114440918,3.2200000286102295,5000.0,3.2200000286102295
2019-05-17,3.25,3.200000047683716,3.2100000381469727,3.2200000286102295,4400.0,3.2200000286102295
2019-05-20,3.0299999713897705,2.930000066757202,3.0,3.0199999809265137,4300.0,3.0199999809265137
2019-05-21,4.5,2.7699999809265137,2.890000104904175,4.5,3100.0,4.5
2019-05-22,4.5,3.75,4.5,3.75,6000.0,3.75
2019-05-23,3.75,3.75,3.75,3.75,0.0,3.75
2019-05-24,4.0,3.75,3.75,3.799999952316284,4500.0,3.799999952316284
