Date,High,Low,Open,Close,Volume,Adj Close
2018-01-19,29.0,23.43000030517578,24.0,26.100000381469727,6187500,26.100000381469727
2018-01-22,26.639999389648438,24.81999969482422,26.309999465942383,25.760000228881836,846300,25.760000228881836
2018-01-23,26.6200008392334,25.350000381469727,25.65999984741211,25.899999618530273,585600,25.899999618530273
2018-01-24,25.989999771118164,25.25,25.799999237060547,25.510000228881836,250800,25.510000228881836
2018-01-25,25.770000457763672,25.110000610351562,25.610000610351562,25.479999542236328,173900,25.479999542236328
2018-01-26,25.799999237060547,25.149999618530273,25.709999084472656,25.760000228881836,155900,25.760000228881836
2018-01-29,26.100000381469727,25.290000915527344,25.790000915527344,25.799999237060547,78900,25.799999237060547
2018-01-30,26.100000381469727,24.81999969482422,25.579999923706055,25.440000534057617,63000,25.440000534057617
2018-01-31,27.350000381469727,25.360000610351562,25.40999984741211,27.1200008392334,186700,27.1200008392334
2018-02-01,27.06999969482422,26.299999237060547,27.059999465942383,26.709999084472656,69100,26.709999084472656
2018-02-02,26.499000549316406,25.351999282836914,26.389999389648438,25.579999923706055,63500,25.579999923706055
2018-02-05,26.030000686645508,24.75,25.31999969482422,25.25,40000,25.25
2018-02-06,26.18000030517578,24.75,25.010000228881836,24.93000030517578,106000,24.93000030517578
2018-02-07,25.190000534057617,24.459999084472656,24.799999237060547,24.549999237060547,99200,24.549999237060547
2018-02-08,24.850000381469727,23.719999313354492,24.75,24.040000915527344,103600,24.040000915527344
2018-02-09,24.200000762939453,22.229999542236328,24.200000762939453,23.25,172400,23.25
2018-02-12,23.780000686645508,23.139999389648438,23.6200008392334,23.5,110800,23.5
2018-02-13,24.594999313354492,23.450000762939453,23.5,24.049999237060547,121800,24.049999237060547
2018-02-14,25.739999771118164,23.799999237060547,24.06999969482422,25.219999313354492,139000,25.219999313354492
2018-02-15,26.6299991607666,25.350000381469727,25.350000381469727,25.950000762939453,148600,25.950000762939453
2018-02-16,26.81999969482422,26.0,26.149999618530273,26.030000686645508,255800,26.030000686645508
2018-02-20,27.0,26.0,26.0,26.559999465942383,89900,26.559999465942383
2018-02-21,26.68000030517578,26.1200008392334,26.579999923706055,26.3700008392334,63400,26.3700008392334
2018-02-22,27.309999465942383,26.024999618530273,26.31999969482422,26.899999618530273,53100,26.899999618530273
2018-02-23,27.690000534057617,26.010000228881836,26.809999465942383,27.59000015258789,105100,27.59000015258789
2018-02-26,27.559999465942383,26.649999618530273,27.559999465942383,26.8700008392334,36500,26.8700008392334
2018-02-27,27.5,26.760000228881836,26.760000228881836,27.329999923706055,44900,27.329999923706055
2018-02-28,28.299999237060547,27.209999084472656,27.290000915527344,27.290000915527344,139400,27.290000915527344
2018-03-01,27.200000762939453,26.18000030517578,27.200000762939453,26.280000686645508,143600,26.280000686645508
2018-03-02,27.0,25.059999465942383,26.100000381469727,25.979999542236328,244400,25.979999542236328
2018-03-05,26.959999084472656,25.15999984741211,25.809999465942383,26.299999237060547,115400,26.299999237060547
2018-03-06,27.360000610351562,25.639999389648438,26.399999618530273,26.06999969482422,99400,26.06999969482422
2018-03-07,26.770000457763672,25.020000457763672,25.8700008392334,26.610000610351562,84600,26.610000610351562
2018-03-08,27.610000610351562,26.06999969482422,26.600000381469727,27.0,103200,27.0
2018-03-09,27.450000762939453,26.040000915527344,27.280000686645508,26.969999313354492,79900,26.969999313354492
2018-03-12,27.280000686645508,25.530000686645508,26.989999771118164,26.110000610351562,119200,26.110000610351562
2018-03-13,26.950000762939453,25.290000915527344,26.219999313354492,26.059999465942383,173800,26.059999465942383
2018-03-14,26.395000457763672,25.229999542236328,26.200000762939453,25.549999237060547,224600,25.549999237060547
2018-03-15,26.09000015258789,24.510000228881836,25.56999969482422,25.420000076293945,167600,25.420000076293945
2018-03-16,25.90999984741211,25.260000228881836,25.3700008392334,25.559999465942383,886500,25.559999465942383
2018-03-19,25.700000762939453,23.90999984741211,25.530000686645508,24.360000610351562,164900,24.360000610351562
2018-03-20,25.25,24.260000228881836,24.559999465942383,24.469999313354492,125600,24.469999313354492
2018-03-21,26.290000915527344,24.40999984741211,24.43000030517578,26.229999542236328,97600,26.229999542236328
2018-03-22,26.3700008392334,25.489999771118164,25.979999542236328,25.56999969482422,124400,25.56999969482422
2018-03-23,25.700000762939453,25.18000030517578,25.649999618530273,25.200000762939453,122400,25.200000762939453
2018-03-26,25.479999542236328,24.670000076293945,25.479999542236328,24.739999771118164,363100,24.739999771118164
2018-03-27,24.860000610351562,23.059999465942383,24.860000610351562,23.18000030517578,92000,23.18000030517578
2018-03-28,23.299999237060547,22.68000030517578,23.1299991607666,23.0,139200,23.0
2018-03-29,24.3799991607666,22.600000381469727,22.75,24.350000381469727,201500,24.350000381469727
2018-04-02,25.3700008392334,23.190000534057617,24.600000381469727,23.8700008392334,186600,23.8700008392334
2018-04-03,26.204999923706055,23.739999771118164,24.049999237060547,26.0,147100,26.0
2018-04-04,26.055999755859375,24.889999389648438,25.860000610351562,25.450000762939453,120900,25.450000762939453
2018-04-05,26.5,25.209999084472656,25.489999771118164,26.389999389648438,275900,26.389999389648438
2018-04-06,26.610000610351562,26.030000686645508,26.239999771118164,26.280000686645508,113200,26.280000686645508
2018-04-09,27.09000015258789,26.107999801635742,26.34000015258789,26.40999984741211,161600,26.40999984741211
2018-04-10,27.729999542236328,26.440000534057617,26.520000457763672,27.31999969482422,145000,27.31999969482422
2018-04-11,28.55500030517578,26.65999984741211,27.229999542236328,28.190000534057617,113500,28.190000534057617
2018-04-12,28.899999618530273,27.75,28.18000030517578,28.100000381469727,80500,28.100000381469727
2018-04-13,28.719999313354492,28.1299991607666,28.1299991607666,28.56999969482422,26300,28.56999969482422
2018-04-16,29.530000686645508,28.25,28.670000076293945,29.270000457763672,191900,29.270000457763672
2018-04-17,31.19499969482422,29.309999465942383,29.489999771118164,30.84000015258789,197100,30.84000015258789
2018-04-18,33.22999954223633,30.989999771118164,30.989999771118164,31.649999618530273,487600,31.649999618530273
2018-04-19,31.809999465942383,28.299999237060547,31.809999465942383,29.020000457763672,359900,29.020000457763672
2018-04-20,29.989999771118164,28.5,28.6200008392334,28.93000030517578,108400,28.93000030517578
2018-04-23,30.240999221801758,29.0,29.0,29.709999084472656,106100,29.709999084472656
2018-04-24,30.68000030517578,29.229999542236328,30.06999969482422,29.75,257700,29.75
2018-04-25,30.56100082397461,29.277000427246094,29.75,30.0,66700,30.0
2018-04-26,30.530000686645508,29.670000076293945,30.149999618530273,30.139999389648438,89900,30.139999389648438
2018-04-27,30.3700008392334,29.190000534057617,30.239999771118164,29.3700008392334,144500,29.3700008392334
2018-04-30,30.739999771118164,29.469999313354492,29.549999237060547,30.540000915527344,89500,30.540000915527344
2018-05-01,30.579999923706055,29.711000442504883,30.579999923706055,30.290000915527344,54500,30.290000915527344
2018-05-02,30.916000366210938,30.190000534057617,30.229999542236328,30.6200008392334,44800,30.6200008392334
2018-05-03,30.940000534057617,29.079999923706055,30.520000457763672,29.649999618530273,83300,29.649999618530273
2018-05-04,31.0,29.299999237060547,29.5,30.5,171400,30.5
2018-05-07,31.450000762939453,29.889999389648438,30.90999984741211,30.09000015258789,137800,30.09000015258789
2018-05-08,31.040000915527344,28.600000381469727,30.0,30.729999542236328,189800,30.729999542236328
2018-05-09,31.549999237060547,30.010000228881836,30.90999984741211,30.219999313354492,137300,30.219999313354492
2018-05-10,30.815000534057617,30.141000747680664,30.309999465942383,30.809999465942383,98600,30.809999465942383
2018-05-11,31.290000915527344,30.57200050354004,30.84000015258789,30.979999542236328,152800,30.979999542236328
2018-05-14,34.470001220703125,29.950000762939453,31.700000762939453,33.439998626708984,202300,33.439998626708984
2018-05-15,36.9900016784668,33.79999923706055,33.849998474121094,35.63999938964844,290100,35.63999938964844
2018-05-16,36.74800109863281,35.33000183105469,35.81999969482422,35.720001220703125,268100,35.720001220703125
2018-05-17,39.23500061035156,35.630001068115234,35.86000061035156,38.36000061035156,317400,38.36000061035156
2018-05-18,38.560001373291016,37.59000015258789,38.439998626708984,38.459999084472656,146900,38.459999084472656
2018-05-21,39.249000549316406,37.11000061035156,38.790000915527344,37.56999969482422,196400,37.56999969482422
2018-05-22,37.97999954223633,35.83000183105469,37.7400016784668,36.369998931884766,186000,36.369998931884766
2018-05-23,37.040000915527344,35.05099868774414,36.09000015258789,36.59000015258789,204700,36.59000015258789
2018-05-24,36.70000076293945,35.810001373291016,36.38999938964844,36.2599983215332,90300,36.2599983215332
2018-05-25,35.97999954223633,34.58100128173828,35.97999954223633,35.099998474121094,119800,35.099998474121094
2018-05-29,35.849998474121094,34.5,34.75,34.959999084472656,101100,34.959999084472656
2018-05-30,36.0,35.029998779296875,35.279998779296875,35.27000045776367,100800,35.27000045776367
2018-05-31,35.45000076293945,34.5,35.27000045776367,34.81999969482422,145700,34.81999969482422
2018-06-01,35.72999954223633,32.58000183105469,35.08000183105469,32.849998474121094,270400,32.849998474121094
2018-06-04,33.529998779296875,31.170000076293945,32.97999954223633,31.530000686645508,188700,31.530000686645508
2018-06-05,32.380001068115234,30.78499984741211,31.5,31.020000457763672,247200,31.020000457763672
2018-06-06,32.025001525878906,30.416000366210938,31.209999084472656,31.270000457763672,201200,31.270000457763672
2018-06-07,32.5,30.924999237060547,31.399999618530273,31.459999084472656,192400,31.459999084472656
2018-06-08,30.799999237060547,28.899999618530273,30.799999237060547,29.6200008392334,394900,29.6200008392334
2018-06-11,29.954999923706055,28.75,29.520000457763672,29.809999465942383,110100,29.809999465942383
2018-06-12,30.13800048828125,29.0,29.799999237060547,29.700000762939453,141800,29.700000762939453
2018-06-13,31.219999313354492,30.25,31.09000015258789,30.690000534057617,299000,30.690000534057617
2018-06-14,31.079999923706055,29.719999313354492,30.809999465942383,30.31999969482422,121200,30.31999969482422
2018-06-15,30.270000457763672,29.260000228881836,29.969999313354492,30.239999771118164,168500,30.239999771118164
2018-06-18,30.459999084472656,29.940000534057617,30.25,30.360000610351562,127300,30.360000610351562
2018-06-19,31.059999465942383,29.899999618530273,30.06999969482422,30.709999084472656,178600,30.709999084472656
2018-06-20,32.40999984741211,30.360000610351562,30.940000534057617,32.369998931884766,225200,32.369998931884766
2018-06-21,32.61000061035156,31.923999786376953,32.27000045776367,32.11000061035156,173400,32.11000061035156
2018-06-22,34.106998443603516,32.040000915527344,32.709999084472656,33.779998779296875,292400,33.779998779296875
2018-06-25,34.04499816894531,32.79999923706055,33.619998931884766,33.0099983215332,123900,33.0099983215332
2018-06-26,33.380001068115234,32.38999938964844,33.060001373291016,32.720001220703125,94000,32.720001220703125
2018-06-27,34.060001373291016,32.5099983215332,32.79999923706055,32.779998779296875,119900,32.779998779296875
2018-06-28,33.40999984741211,32.43000030517578,32.79999923706055,33.040000915527344,175100,33.040000915527344
2018-06-29,33.654998779296875,32.86000061035156,33.02000045776367,33.119998931884766,329400,33.119998931884766
2018-07-02,33.7400016784668,31.6299991607666,33.0,31.959999084472656,258200,31.959999084472656
2018-07-03,32.470001220703125,31.0049991607666,32.029998779296875,31.1200008392334,111500,31.1200008392334
2018-07-05,32.220001220703125,30.75,31.3799991607666,31.229999542236328,123500,31.229999542236328
2018-07-06,32.45000076293945,31.25,31.25,32.189998626708984,75900,32.189998626708984
2018-07-09,33.869998931884766,31.889999389648438,32.5,33.060001373291016,109500,33.060001373291016
2018-07-10,33.60200119018555,32.4900016784668,33.209999084472656,32.810001373291016,39600,32.810001373291016
2018-07-11,32.90999984741211,31.350000381469727,32.400001525878906,31.690000534057617,46400,31.690000534057617
2018-07-12,32.08000183105469,30.84000015258789,31.639999389648438,31.549999237060547,81700,31.549999237060547
2018-07-13,32.04999923706055,31.3799991607666,31.450000762939453,31.670000076293945,43600,31.670000076293945
2018-07-16,31.649999618530273,30.34000015258789,31.6299991607666,30.530000686645508,82400,30.530000686645508
2018-07-17,31.31999969482422,29.799999237060547,30.3700008392334,30.8799991607666,65100,30.8799991607666
2018-07-18,31.75,30.389999389648438,30.8799991607666,31.6200008392334,131700,31.6200008392334
2018-07-19,31.200000762939453,30.18000030517578,31.100000381469727,30.809999465942383,164200,30.809999465942383
2018-07-20,32.52000045776367,30.010000228881836,30.790000915527344,32.09000015258789,282800,32.09000015258789
2018-07-23,32.18000030517578,31.215999603271484,32.040000915527344,31.469999313354492,308400,31.469999313354492
2018-07-24,31.469999313354492,28.579999923706055,31.290000915527344,29.049999237060547,368900,29.049999237060547
2018-07-25,29.719999313354492,28.049999237060547,28.989999771118164,28.3700008392334,549100,28.3700008392334
2018-07-26,28.530000686645508,27.709999084472656,28.43000030517578,28.209999084472656,257200,28.209999084472656
2018-07-27,28.93000030517578,27.950000762939453,28.229999542236328,28.8700008392334,98900,28.8700008392334
2018-07-30,29.829999923706055,28.690000534057617,29.010000228881836,29.389999389648438,210500,29.389999389648438
2018-07-31,29.979999542236328,28.469999313354492,29.40999984741211,29.209999084472656,180700,29.209999084472656
2018-08-01,29.06999969482422,28.045000076293945,29.06999969482422,28.709999084472656,85100,28.709999084472656
2018-08-02,29.235000610351562,28.290000915527344,28.450000762939453,28.81999969482422,122500,28.81999969482422
2018-08-03,29.399999618530273,28.59000015258789,28.860000610351562,28.799999237060547,91400,28.799999237060547
2018-08-06,28.950000762939453,28.21500015258789,28.719999313354492,28.770000457763672,109300,28.770000457763672
2018-08-07,29.5,28.3700008392334,28.719999313354492,28.850000381469727,83400,28.850000381469727
2018-08-08,29.110000610351562,28.079999923706055,28.860000610351562,28.65999984741211,71300,28.65999984741211
2018-08-09,29.489999771118164,28.479999542236328,28.709999084472656,29.040000915527344,120900,29.040000915527344
2018-08-10,30.8700008392334,28.489999771118164,28.940000534057617,29.450000762939453,255800,29.450000762939453
2018-08-13,31.770000457763672,28.899999618530273,31.770000457763672,28.989999771118164,405000,28.989999771118164
2018-08-14,29.309999465942383,27.93000030517578,28.989999771118164,28.280000686645508,388200,28.280000686645508
2018-08-15,29.5,27.649999618530273,28.030000686645508,28.1200008392334,306200,28.1200008392334
2018-08-16,28.8700008392334,28.125,28.200000762939453,28.809999465942383,220600,28.809999465942383
2018-08-17,30.0,28.799999237060547,28.799999237060547,29.709999084472656,235800,29.709999084472656
2018-08-20,30.790000915527344,29.420000076293945,29.729999542236328,30.1299991607666,241700,30.1299991607666
2018-08-21,31.139999389648438,30.360000610351562,30.360000610351562,30.8700008392334,159600,30.8700008392334
2018-08-22,31.68000030517578,30.799999237060547,31.06999969482422,31.010000228881836,174400,31.010000228881836
2018-08-23,31.010000228881836,30.049999237060547,30.979999542236328,30.610000610351562,156400,30.610000610351562
2018-08-24,31.040000915527344,30.219999313354492,30.68000030517578,30.350000381469727,99400,30.350000381469727
2018-08-27,31.059999465942383,30.139999389648438,30.440000534057617,31.010000228881836,120900,31.010000228881836
2018-08-28,31.3700008392334,30.420000076293945,31.049999237060547,30.780000686645508,101900,30.780000686645508
2018-08-29,31.139999389648438,30.565000534057617,30.729999542236328,30.959999084472656,200800,30.959999084472656
2018-08-30,31.09000015258789,29.6299991607666,30.969999313354492,29.729999542236328,131300,29.729999542236328
2018-08-31,30.020000457763672,29.170000076293945,29.690000534057617,29.979999542236328,223100,29.979999542236328
2018-09-04,29.920000076293945,29.190000534057617,29.81999969482422,29.459999084472656,101000,29.459999084472656
2018-09-05,29.889999389648438,28.780000686645508,29.450000762939453,29.729999542236328,147600,29.729999542236328
2018-09-06,29.670000076293945,28.062999725341797,29.649999618530273,28.31999969482422,222300,28.31999969482422
2018-09-07,28.28499984741211,27.200000762939453,28.239999771118164,27.34000015258789,296200,27.34000015258789
2018-09-10,29.979999542236328,27.520000457763672,27.520000457763672,29.18000030517578,249900,29.18000030517578
2018-09-11,30.780000686645508,29.040000915527344,29.040000915527344,30.5,442000,30.5
2018-09-12,31.290000915527344,30.719999313354492,30.790000915527344,30.90999984741211,167000,30.90999984741211
2018-09-13,31.655000686645508,30.610000610351562,30.989999771118164,31.209999084472656,152700,31.209999084472656
2018-09-14,31.950000762939453,31.270000457763672,31.270000457763672,31.6299991607666,123600,31.6299991607666
2018-09-17,31.959999084472656,30.100000381469727,31.729999542236328,30.299999237060547,183900,30.299999237060547
2018-09-18,31.940000534057617,30.43000030517578,30.43000030517578,31.84000015258789,133900,31.84000015258789
2018-09-19,33.0,31.760000228881836,31.780000686645508,32.52000045776367,298200,32.52000045776367
2018-09-20,32.95000076293945,32.27000045776367,32.75,32.4900016784668,209100,32.4900016784668
2018-09-21,33.38999938964844,31.843000411987305,32.619998931884766,33.02000045776367,1039100,33.02000045776367
2018-09-24,33.5,32.1150016784668,33.099998474121094,32.56999969482422,288500,32.56999969482422
2018-09-25,33.459999084472656,32.470001220703125,32.7400016784668,32.900001525878906,151900,32.900001525878906
2018-09-26,32.79999923706055,30.270000457763672,32.79999923706055,30.399999618530273,132800,30.399999618530273
2018-09-27,30.690000534057617,29.6299991607666,30.43000030517578,30.43000030517578,122100,30.43000030517578
2018-09-28,30.690000534057617,30.06999969482422,30.399999618530273,30.579999923706055,114000,30.579999923706055
2018-10-01,31.65999984741211,30.729999542236328,30.729999542236328,31.579999923706055,121600,31.579999923706055
2018-10-02,32.709999084472656,31.079999923706055,31.360000610351562,32.4900016784668,111700,32.4900016784668
2018-10-03,32.86000061035156,32.005001068115234,32.4900016784668,32.439998626708984,155200,32.439998626708984
2018-10-04,32.709999084472656,31.71500015258789,32.310001373291016,32.29999923706055,155300,32.29999923706055
2018-10-05,32.59000015258789,31.940000534057617,32.0,32.5,88700,32.5
2018-10-08,33.36000061035156,32.369998931884766,32.369998931884766,33.20000076293945,178900,33.20000076293945
2018-10-09,34.849998474121094,33.31999969482422,33.45000076293945,34.75,248000,34.75
2018-10-10,34.790000915527344,33.41999816894531,34.58000183105469,33.41999816894531,188100,33.41999816894531
2018-10-11,33.95000076293945,32.720001220703125,33.04999923706055,33.61000061035156,160500,33.61000061035156
2018-10-12,35.59000015258789,33.52299880981445,34.290000915527344,35.4900016784668,437700,35.4900016784668
2018-10-15,39.709999084472656,34.77000045776367,35.59000015258789,38.38999938964844,1007500,38.38999938964844
2018-10-16,40.38999938964844,38.630001068115234,38.86000061035156,38.86000061035156,548000,38.86000061035156
2018-10-17,39.2400016784668,37.79499816894531,38.75,39.060001373291016,261800,39.060001373291016
2018-10-18,39.4900016784668,37.91999816894531,39.439998626708984,38.25,295900,38.25
2018-10-19,38.869998931884766,36.93000030517578,38.529998779296875,37.349998474121094,242600,37.349998474121094
2018-10-22,38.29999923706055,35.849998474121094,37.400001525878906,36.65999984741211,330700,36.65999984741211
2018-10-23,35.9900016784668,34.70000076293945,35.86000061035156,35.529998779296875,206700,35.529998779296875
2018-10-24,35.79999923706055,34.45000076293945,35.470001220703125,34.52000045776367,332000,34.52000045776367
2018-10-25,36.029998779296875,34.79999923706055,34.970001220703125,35.470001220703125,278200,35.470001220703125
2018-10-26,36.900001525878906,34.540000915527344,34.88999938964844,36.130001068115234,202600,36.130001068115234
2018-10-29,36.4900016784668,34.08000183105469,36.4900016784668,34.52000045776367,133800,34.52000045776367
2018-10-30,35.52000045776367,33.369998931884766,34.41999816894531,35.47999954223633,233200,35.47999954223633
2018-10-31,37.32899856567383,35.279998779296875,35.93000030517578,37.029998779296875,179400,37.029998779296875
2018-11-01,39.0,36.18000030517578,37.2599983215332,36.279998779296875,244400,36.279998779296875
2018-11-02,36.90999984741211,35.869998931884766,36.439998626708984,36.459999084472656,106300,36.459999084472656
2018-11-05,37.369998931884766,35.47999954223633,36.619998931884766,36.20000076293945,136500,36.20000076293945
2018-11-06,36.400001525878906,35.33000183105469,36.400001525878906,35.68000030517578,87800,35.68000030517578
2018-11-07,36.36000061035156,34.86000061035156,36.02000045776367,35.939998626708984,86700,35.939998626708984
2018-11-08,36.0,35.04999923706055,35.7599983215332,35.290000915527344,105400,35.290000915527344
2018-11-09,35.81999969482422,34.43000030517578,34.970001220703125,35.15999984741211,134000,35.15999984741211
2018-11-12,35.209999084472656,33.45000076293945,35.119998931884766,33.560001373291016,123100,33.560001373291016
2018-11-13,34.56999969482422,29.530000686645508,34.56999969482422,30.079999923706055,309900,30.079999923706055
2018-11-14,31.139999389648438,29.700000762939453,30.450000762939453,29.860000610351562,190300,29.860000610351562
2018-11-15,29.979999542236328,27.889999389648438,29.219999313354492,29.360000610351562,606900,29.360000610351562
2018-11-16,30.674999237060547,29.049999237060547,29.450000762939453,30.420000076293945,305800,30.420000076293945
2018-11-19,32.25,30.350000381469727,30.450000762939453,32.119998931884766,232100,32.119998931884766
2018-11-20,31.149999618530273,29.309999465942383,31.149999618530273,29.6299991607666,254400,29.6299991607666
2018-11-21,30.650999069213867,29.649999618530273,29.860000610351562,29.739999771118164,204900,29.739999771118164
2018-11-23,29.520000457763672,28.240999221801758,28.6299991607666,28.75,52900,28.75
2018-11-26,29.010000228881836,28.420000076293945,28.969999313354492,28.979999542236328,174800,28.979999542236328
2018-11-27,29.239999771118164,27.719999313354492,28.579999923706055,27.899999618530273,84800,27.899999618530273
2018-11-28,28.8700008392334,27.760000228881836,27.8799991607666,28.739999771118164,148400,28.739999771118164
2018-11-29,28.90999984741211,27.969999313354492,28.90999984741211,28.399999618530273,79200,28.399999618530273
2018-11-30,28.3700008392334,27.17799949645996,28.100000381469727,28.18000030517578,349400,28.18000030517578
2018-12-03,28.850000381469727,27.100000381469727,28.850000381469727,28.549999237060547,210300,28.549999237060547
2018-12-04,28.420000076293945,26.299999237060547,28.420000076293945,26.399999618530273,164700,26.399999618530273
2018-12-06,26.15999984741211,24.649999618530273,25.790000915527344,25.479999542236328,148700,25.479999542236328
2018-12-07,26.469999313354492,25.239999771118164,26.1299991607666,25.31999969482422,192400,25.31999969482422
2018-12-10,25.420000076293945,24.219999313354492,25.15999984741211,24.479999542236328,114600,24.479999542236328
2018-12-11,25.132999420166016,22.690000534057617,24.860000610351562,22.700000762939453,422800,22.700000762939453
2018-12-12,24.540000915527344,23.1299991607666,23.1299991607666,23.549999237060547,200600,23.549999237060547
2018-12-13,23.84000015258789,22.799999237060547,23.520000457763672,23.100000381469727,115400,23.100000381469727
2018-12-14,23.40999984741211,22.520000457763672,22.8799991607666,23.25,118600,23.25
2018-12-17,23.90999984741211,23.0,23.139999389648438,23.440000534057617,210400,23.440000534057617
2018-12-18,23.709999084472656,22.739999771118164,23.510000228881836,22.989999771118164,214700,22.989999771118164
2018-12-19,23.339000701904297,22.010000228881836,22.8799991607666,22.079999923706055,215600,22.079999923706055
2018-12-20,22.549999237060547,21.649999618530273,21.809999465942383,21.950000762939453,188200,21.950000762939453
2018-12-21,22.139999389648438,21.22599983215332,21.8799991607666,21.450000762939453,186300,21.450000762939453
2018-12-24,21.329999923706055,20.309999465942383,21.280000686645508,20.559999465942383,61900,20.559999465942383
2018-12-26,22.06999969482422,20.18000030517578,20.729999542236328,22.030000686645508,117200,22.030000686645508
2018-12-27,22.329999923706055,20.670000076293945,21.56999969482422,21.860000610351562,187200,21.860000610351562
2018-12-28,22.31999969482422,21.209999084472656,22.079999923706055,22.040000915527344,79100,22.040000915527344
2018-12-31,22.68000030517578,21.309999465942383,22.079999923706055,22.540000915527344,207400,22.540000915527344
2019-01-02,23.34000015258789,21.739999771118164,22.059999465942383,22.969999313354492,110800,22.969999313354492
2019-01-03,23.31999969482422,22.18000030517578,22.989999771118164,23.110000610351562,67200,23.110000610351562
2019-01-04,24.350000381469727,23.280000686645508,23.549999237060547,24.270000457763672,183600,24.270000457763672
2019-01-07,25.0,23.820999145507812,24.709999084472656,24.969999313354492,171800,24.969999313354492
2019-01-08,25.829999923706055,23.684999465942383,25.420000076293945,24.1200008392334,145800,24.1200008392334
2019-01-09,24.809999465942383,24.049999237060547,24.469999313354492,24.709999084472656,87300,24.709999084472656
2019-01-10,25.139999389648438,24.200000762939453,24.420000076293945,24.719999313354492,76700,24.719999313354492
2019-01-11,24.770000457763672,24.190000534057617,24.520000457763672,24.350000381469727,58400,24.350000381469727
2019-01-14,24.360000610351562,23.81999969482422,24.059999465942383,23.860000610351562,126400,23.860000610351562
2019-01-15,24.739999771118164,23.559999465942383,23.889999389648438,24.6200008392334,165700,24.6200008392334
2019-01-16,25.489999771118164,24.559999465942383,24.6200008392334,25.34000015258789,112300,25.34000015258789
2019-01-17,25.639999389648438,24.68000030517578,24.739999771118164,24.889999389648438,109800,24.889999389648438
2019-01-18,25.459999084472656,24.829999923706055,25.219999313354492,24.84000015258789,82000,24.84000015258789
2019-01-22,24.75,23.860000610351562,24.520000457763672,24.290000915527344,59100,24.290000915527344
2019-01-23,24.40999984741211,23.15999984741211,24.40999984741211,23.229999542236328,143300,23.229999542236328
2019-01-24,23.850000381469727,23.15999984741211,23.15999984741211,23.600000381469727,113000,23.600000381469727
2019-01-25,25.020000457763672,23.850000381469727,23.850000381469727,24.770000457763672,93700,24.770000457763672
2019-01-28,24.700000762939453,23.860000610351562,24.290000915527344,24.15999984741211,101800,24.15999984741211
2019-01-29,24.969999313354492,23.510000228881836,24.360000610351562,23.770000457763672,115000,23.770000457763672
2019-01-30,24.170000076293945,23.549999237060547,24.020000457763672,24.030000686645508,58900,24.030000686645508
2019-01-31,24.34000015258789,23.75,24.040000915527344,23.979999542236328,68500,23.979999542236328
2019-02-01,25.1299991607666,23.979999542236328,23.979999542236328,24.649999618530273,116600,24.649999618530273
2019-02-04,24.93000030517578,24.360000610351562,24.479999542236328,24.790000915527344,63100,24.790000915527344
2019-02-05,26.222000122070312,25.1299991607666,25.8799991607666,25.579999923706055,99100,25.579999923706055
2019-02-06,25.829999923706055,25.030000686645508,25.530000686645508,25.200000762939453,106500,25.200000762939453
2019-02-07,25.170000076293945,23.280000686645508,25.079999923706055,23.639999389648438,113700,23.639999389648438
2019-02-08,23.889999389648438,23.239999771118164,23.540000915527344,23.770000457763672,86400,23.770000457763672
2019-02-11,24.7450008392334,23.523000717163086,23.559999465942383,24.100000381469727,119000,24.100000381469727
2019-02-12,24.976999282836914,24.027999877929688,24.440000534057617,24.139999389648438,137000,24.139999389648438
2019-02-13,25.059999465942383,24.040000915527344,24.200000762939453,24.200000762939453,146000,24.200000762939453
2019-02-14,24.915000915527344,24.260000228881836,24.260000228881836,24.6200008392334,155800,24.6200008392334
2019-02-15,25.719999313354492,24.75,24.8799991607666,25.459999084472656,260400,25.459999084472656
2019-02-19,26.6200008392334,25.34000015258789,25.34000015258789,25.479999542236328,111100,25.479999542236328
2019-02-20,26.3799991607666,25.540000915527344,25.59000015258789,25.950000762939453,245600,25.950000762939453
2019-02-21,25.90999984741211,25.139999389648438,25.90999984741211,25.360000610351562,42400,25.360000610351562
2019-02-22,25.700000762939453,25.290000915527344,25.610000610351562,25.59000015258789,40800,25.59000015258789
2019-02-25,26.059999465942383,25.479999542236328,25.479999542236328,25.770000457763672,63900,25.770000457763672
2019-02-26,26.190000534057617,25.479999542236328,25.860000610351562,25.6299991607666,73600,25.6299991607666
2019-02-27,26.170000076293945,25.309999465942383,25.84000015258789,25.75,56800,25.75
2019-02-28,26.280000686645508,25.329999923706055,25.84000015258789,26.219999313354492,77300,26.219999313354492
2019-03-01,26.520000457763672,26.01799964904785,26.399999618530273,26.31999969482422,63600,26.31999969482422
2019-03-04,26.690000534057617,26.139999389648438,26.479999542236328,26.690000534057617,82100,26.690000534057617
2019-03-05,26.690000534057617,25.510000228881836,26.690000534057617,25.829999923706055,73200,25.829999923706055
2019-03-06,26.097000122070312,24.389999389648438,25.81999969482422,24.989999771118164,90700,24.989999771118164
2019-03-07,24.56999969482422,21.190000534057617,24.100000381469727,21.610000610351562,291300,21.610000610351562
2019-03-08,22.1200008392334,21.424999237060547,21.450000762939453,21.469999313354492,159300,21.469999313354492
2019-03-11,22.5,21.440000534057617,21.610000610351562,22.389999389648438,217200,22.389999389648438
2019-03-12,22.889999389648438,22.149999618530273,22.469999313354492,22.31999969482422,112900,22.31999969482422
2019-03-13,23.010000228881836,22.0,22.510000228881836,22.639999389648438,126400,22.639999389648438
2019-03-14,22.989999771118164,22.110000610351562,22.709999084472656,22.40999984741211,72900,22.40999984741211
2019-03-15,22.81999969482422,21.78499984741211,22.450000762939453,22.079999923706055,266600,22.079999923706055
2019-03-18,23.43000030517578,21.94300079345703,21.969999313354492,23.260000228881836,136600,23.260000228881836
2019-03-19,23.5,22.809999465942383,23.3799991607666,22.899999618530273,202400,22.899999618530273
2019-03-20,24.069000244140625,22.65999984741211,22.84000015258789,23.549999237060547,93900,23.549999237060547
2019-03-21,24.049999237060547,23.170000076293945,23.56999969482422,23.75,107200,23.75
2019-03-22,23.520000457763672,22.3799991607666,23.5,22.65999984741211,252200,22.65999984741211
2019-03-25,22.520000457763672,21.700000762939453,22.3700008392334,22.239999771118164,140700,22.239999771118164
2019-03-26,22.8799991607666,22.309999465942383,22.739999771118164,22.850000381469727,119900,22.850000381469727
2019-03-27,23.229999542236328,22.489999771118164,22.84000015258789,22.739999771118164,118100,22.739999771118164
2019-03-28,23.27199935913086,22.579999923706055,22.75,23.1200008392334,54800,23.1200008392334
2019-03-29,23.469999313354492,22.6200008392334,23.3799991607666,22.649999618530273,101600,22.649999618530273
2019-04-01,24.3700008392334,22.510000228881836,22.899999618530273,24.18000030517578,229400,24.18000030517578
2019-04-02,24.3799991607666,23.549999237060547,24.219999313354492,23.670000076293945,136300,23.670000076293945
2019-04-03,23.895000457763672,23.020000457763672,23.649999618530273,23.059999465942383,133000,23.059999465942383
2019-04-04,23.670000076293945,22.829999923706055,23.100000381469727,23.6299991607666,175700,23.6299991607666
2019-04-05,24.3700008392334,23.56999969482422,23.719999313354492,24.06999969482422,142300,24.06999969482422
2019-04-08,24.450000762939453,23.739999771118164,24.1299991607666,23.860000610351562,112600,23.860000610351562
2019-04-09,23.760000228881836,23.1299991607666,23.610000610351562,23.25,98400,23.25
2019-04-10,23.579999923706055,22.739999771118164,23.290000915527344,22.799999237060547,176100,22.799999237060547
2019-04-11,22.969999313354492,21.799999237060547,22.829999923706055,22.0,188700,22.0
2019-04-12,22.690000534057617,21.304000854492188,22.690000534057617,22.229999542236328,132600,22.229999542236328
2019-04-15,22.350000381469727,21.34000015258789,22.09000015258789,21.389999389648438,143300,21.389999389648438
2019-04-16,21.899999618530273,21.09000015258789,21.489999771118164,21.450000762939453,114500,21.450000762939453
2019-04-17,21.915000915527344,20.959999084472656,21.530000686645508,21.06999969482422,76000,21.06999969482422
2019-04-18,21.540000915527344,20.639999389648438,21.100000381469727,20.84000015258789,111900,20.84000015258789
2019-04-22,22.020000457763672,21.010000228881836,21.059999465942383,21.989999771118164,125300,21.989999771118164
2019-04-23,22.34000015258789,21.399999618530273,21.989999771118164,22.049999237060547,168700,22.049999237060547
2019-04-24,22.0,21.200000762939453,21.989999771118164,21.549999237060547,194800,21.549999237060547
2019-04-25,21.729999542236328,20.65999984741211,21.5,20.770000457763672,133500,20.770000457763672
2019-04-26,20.719999313354492,19.969999313354492,20.670000076293945,20.6299991607666,116000,20.6299991607666
2019-04-29,20.889999389648438,20.329999923706055,20.6200008392334,20.600000381469727,68600,20.600000381469727
2019-04-30,20.809999465942383,19.670000076293945,20.809999465942383,20.1299991607666,227000,20.1299991607666
2019-05-01,20.354000091552734,19.170000076293945,20.1200008392334,19.219999313354492,184300,19.219999313354492
2019-05-02,19.709999084472656,19.020000457763672,19.020000457763672,19.6299991607666,134800,19.6299991607666
2019-05-03,20.06999969482422,19.149999618530273,19.239999771118164,19.84000015258789,154300,19.84000015258789
2019-05-06,20.610000610351562,19.510000228881836,19.510000228881836,20.329999923706055,73500,20.329999923706055
2019-05-07,20.450000762939453,19.75,20.040000915527344,20.350000381469727,120800,20.350000381469727
2019-05-08,22.709999084472656,20.940000534057617,21.549999237060547,22.18000030517578,384900,22.18000030517578
2019-05-09,22.31999969482422,21.56999969482422,21.84000015258789,22.030000686645508,257200,22.030000686645508
2019-05-10,22.31999969482422,21.170000076293945,21.920000076293945,22.229999542236328,277200,22.229999542236328
2019-05-13,22.049999237060547,20.68000030517578,21.889999389648438,21.190000534057617,252800,21.190000534057617
2019-05-14,22.0,21.145000457763672,21.3700008392334,21.719999313354492,183600,21.719999313354492
2019-05-15,22.3799991607666,21.479999542236328,21.479999542236328,22.06999969482422,115400,22.06999969482422
2019-05-16,22.610000610351562,22.049999237060547,22.200000762939453,22.43000030517578,192300,22.43000030517578
2019-05-17,22.489999771118164,22.049999237060547,22.25,22.09000015258789,177200,22.09000015258789
2019-05-20,22.1299991607666,21.280000686645508,21.940000534057617,21.3700008392334,135500,21.3700008392334
2019-05-21,21.790000915527344,21.329999923706055,21.56999969482422,21.40999984741211,103400,21.40999984741211
2019-05-22,21.735000610351562,20.559999465942383,21.229999542236328,20.889999389648438,185700,20.889999389648438
2019-05-23,20.469999313354492,19.434999465942383,20.459999084472656,19.600000381469727,221000,19.600000381469727
2019-05-24,19.8700008392334,19.31999969482422,19.8700008392334,19.469999313354492,112400,19.469999313354492
