Date,High,Low,Open,Close,Volume,Adj Close
2015-01-02,5.702000141143799,5.702000141143799,5.702000141143799,5.702000141143799,0.0,4.070847988128662
2015-01-05,5.922999858856201,5.922999858856201,5.922999858856201,5.922999858856201,0.0,4.228627681732178
2015-01-06,6.035999774932861,5.890999794006348,6.004000186920166,5.890999794006348,0.0,4.205781936645508
2015-01-07,6.10099983215332,5.89900016784668,5.909999847412109,6.076000213623047,0.0,4.337859153747559
2015-01-08,6.099999904632568,6.007999897003174,6.007999897003174,6.099999904632568,0.0,4.354994773864746
2015-01-09,5.960999965667725,5.939000129699707,5.960999965667725,5.941999912261963,150.0,4.242191791534424
2015-01-12,5.958000183105469,5.8429999351501465,5.872000217437744,5.916999816894531,0.0,4.224344253540039
2015-01-13,6.013999938964844,5.668000221252441,5.877999782562256,5.883999824523926,0.0,4.4648895263671875
2015-01-14,5.958000183105469,5.659999847412109,5.890999794006348,5.868000030517578,0.0,4.4527482986450195
2015-01-15,6.010000228881836,5.7170000076293945,5.947999954223633,5.849999904632568,0.0,4.439090251922607
2015-01-16,5.919000148773193,5.796000003814697,5.796000003814697,5.919000148773193,0.0,4.491448879241943
2015-01-20,5.85099983215332,5.699999809265137,5.794000148773193,5.849999904632568,0.0,4.439090251922607
2015-01-21,5.815000057220459,5.815000057220459,5.815000057220459,5.815000057220459,0.0,4.412530899047852
2015-01-22,5.955999851226807,5.677999973297119,5.705999851226807,5.869999885559082,1000.0,4.45426607131958
2015-01-23,5.925000190734863,5.925000190734863,5.925000190734863,5.925000190734863,0.0,4.496001720428467
2015-01-26,6.171999931335449,5.97599983215332,5.986000061035156,6.085000038146973,0.0,4.617412567138672
2015-01-27,6.129000186920166,5.811999797821045,6.0929999351501465,6.0929999351501465,0.0,4.623482704162598
2015-01-28,6.060999870300293,5.921999931335449,6.045000076293945,6.015999794006348,0.0,4.565053462982178
2015-01-29,5.986999988555908,5.986999988555908,5.986999988555908,5.986999988555908,0.0,4.543047904968262
2015-01-30,6.419000148773193,5.927000045776367,6.056000232696533,6.255000114440918,0.0,4.7464118003845215
2015-02-02,6.251999855041504,6.067999839782715,6.139999866485596,6.067999839782715,2000.0,4.6045122146606445
2015-02-03,6.175000190734863,5.9029998779296875,6.061999797821045,6.125,0.0,4.647765636444092
2015-02-04,6.124000072479248,5.922999858856201,6.119999885559082,6.084000110626221,0.0,4.6166534423828125
2015-02-05,6.139999866485596,6.0289998054504395,6.078999996185303,6.044000148773193,0.0,4.586301326751709
2015-02-06,6.047999858856201,6.047999858856201,6.047999858856201,6.047999858856201,0.0,4.58933687210083
2015-02-09,6.195000171661377,5.857999801635742,6.077000141143799,6.077000141143799,0.0,4.61134147644043
2015-02-10,6.188000202178955,6.10099983215332,6.10099983215332,6.144999980926514,0.0,4.6629414558410645
2015-02-11,6.165999889373779,6.093999862670898,6.098999977111816,6.093999862670898,0.0,4.624240875244141
2015-02-12,6.057000160217285,6.057000160217285,6.057000160217285,6.057000160217285,0.0,4.596165657043457
2015-02-13,6.296999931335449,5.958000183105469,6.117000102996826,6.296999931335449,0.0,4.778281211853027
2015-02-17,6.296000003814697,6.296000003814697,6.296000003814697,6.296000003814697,0.0,4.777523040771484
2015-02-18,6.422999858856201,6.111000061035156,6.290999889373779,6.416999816894531,0.0,4.869339942932129
2015-02-19,6.697999954223633,6.248000144958496,6.377999782562256,6.697999954223633,0.0,5.082569122314453
2015-02-20,6.761000156402588,6.51200008392334,6.685999870300293,6.636000156402588,0.0,5.035521984100342
2015-02-23,5.420000076293945,4.552000045776367,4.552000045776367,5.370999813079834,21153.0,4.075615882873535
2015-02-24,5.495999813079834,5.2870001792907715,5.495999813079834,5.421999931335449,0.0,4.114315032958984
2015-02-25,5.572000026702881,5.427000045776367,5.434000015258789,5.572000026702881,0.0,4.2281389236450195
2015-02-26,5.541999816894531,5.541999816894531,5.541999816894531,5.541999816894531,0.0,4.205373764038086
2015-02-27,5.480999946594238,5.388000011444092,5.465000152587891,5.4019999504089355,0.0,4.0991387367248535
2015-03-02,5.53000020980835,5.53000020980835,5.53000020980835,5.53000020980835,0.0,4.196268081665039
2015-03-03,5.486000061035156,5.2769999504089355,5.458000183105469,5.383999824523926,0.0,4.085480690002441
2015-03-04,5.63700008392334,5.379000186920166,5.382999897003174,5.625,0.0,4.268355369567871
2015-03-05,5.749000072479248,5.6020002365112305,5.665999889373779,5.604000091552734,0.0,4.252420425415039
2015-03-06,5.71999979019165,5.485000133514404,5.61899995803833,5.71999979019165,0.0,4.340444087982178
2015-03-09,5.7179999351501465,5.7179999351501465,5.7179999351501465,5.7179999351501465,0.0,4.338925361633301
2015-03-10,5.604000091552734,5.604000091552734,5.604000091552734,5.604000091552734,0.0,4.252420425415039
2015-03-11,5.835999965667725,5.656000137329102,5.704999923706055,5.835999965667725,0.0,4.428466796875
2015-03-12,5.8480000495910645,5.663000106811523,5.8480000495910645,5.813000202178955,0.0,4.411013603210449
2015-03-13,5.86899995803833,5.86899995803833,5.86899995803833,5.86899995803833,0.0,4.453507900238037
2015-03-16,5.876999855041504,5.614999771118164,5.876999855041504,5.692999839782715,0.0,4.319955348968506
2015-03-17,5.9629998207092285,5.5370001792907715,5.8480000495910645,5.9629998207092285,0.0,4.524836540222168
2015-03-18,5.959000110626221,5.959000110626221,5.959000110626221,5.959000110626221,0.0,4.521800994873047
2015-03-19,5.765999794006348,5.765999794006348,5.765999794006348,5.765999794006348,0.0,4.3753485679626465
2015-03-20,5.948999881744385,5.948999881744385,5.948999881744385,5.948999881744385,0.0,4.514213562011719
2015-03-23,5.664000034332275,5.495999813079834,5.664000034332275,5.638000011444092,0.0,4.278219699859619
2015-03-24,5.644000053405762,5.644000053405762,5.644000053405762,5.644000053405762,0.0,4.282772541046143
2015-04-15,5.767000198364258,5.526000022888184,5.605999946594238,5.767000198364258,0.0,4.376108169555664
2015-04-16,5.65500020980835,5.3429999351501465,5.6479997634887695,5.632999897003174,0.0,4.274426460266113
2015-04-17,5.611999988555908,5.302999973297119,5.611999988555908,5.4770002365112305,0.0,4.156051158905029
2015-05-04,5.13100004196167,4.965000152587891,4.965000152587891,5.13100004196167,0.0,3.8934988975524902
2015-05-05,5.441999912261963,5.22599983215332,5.3470001220703125,5.22599983215332,0.0,3.9655869007110596
2015-05-06,5.290999889373779,5.290999889373779,5.290999889373779,5.290999889373779,0.0,4.0149102210998535
2015-05-20,5.804999828338623,5.804999828338623,5.804999828338623,5.804999828338623,0.0,4.404942512512207
2015-06-01,5.677999973297119,5.677999973297119,5.677999973297119,5.677999973297119,0.0,4.308572292327881
2015-06-02,5.561999797821045,5.561999797821045,5.561999797821045,5.561999797821045,0.0,4.220549583435059
2015-06-03,5.980999946594238,5.49399995803833,5.49399995803833,5.949999809265137,0.0,4.514971733093262
2015-06-04,5.934000015258789,5.934000015258789,5.934000015258789,5.934000015258789,0.0,4.502830505371094
2015-06-05,6.129000186920166,5.558000087738037,5.959000110626221,6.129000186920166,0.0,4.6508002281188965
2015-07-06,6.1579999923706055,6.1579999923706055,6.1579999923706055,6.1579999923706055,0.0,4.672806262969971
2015-07-07,6.322999954223633,6.322999954223633,6.322999954223633,6.322999954223633,0.0,4.79801082611084
2015-07-08,6.434000015258789,6.434000015258789,6.434000015258789,6.434000015258789,0.0,5.1944146156311035
2015-07-09,6.1579999923706055,6.1579999923706055,6.1579999923706055,6.1579999923706055,0.0,4.971589088439941
2015-07-10,6.261000156402588,6.261000156402588,6.261000156402588,6.261000156402588,0.0,5.054745197296143
2015-07-27,6.164999961853027,6.164999961853027,6.164999961853027,6.164999961853027,0.0,4.977240085601807
2015-07-28,6.131999969482422,6.131999969482422,6.131999969482422,6.131999969482422,0.0,4.950598239898682
2015-09-14,5.870999813079834,5.870999813079834,5.870999813079834,5.870999813079834,0.0,4.7398834228515625
2015-09-15,5.861999988555908,5.791999816894531,5.791999816894531,5.814000129699707,0.0,4.693863868713379
2015-09-16,5.8460001945495605,5.789000034332275,5.821000099182129,5.796000003814697,0.0,4.679332256317139
2015-09-17,5.797999858856201,5.797999858856201,5.797999858856201,5.797999858856201,0.0,4.680947303771973
2015-09-18,5.914999961853027,5.914999961853027,5.914999961853027,5.914999961853027,0.0,4.7754058837890625
2015-09-21,6.008999824523926,6.008999824523926,6.008999824523926,6.008999824523926,0.0,4.851294994354248
2015-09-22,6.034999847412109,6.034999847412109,6.034999847412109,6.034999847412109,0.0,4.872286319732666
2015-09-23,6.089000225067139,6.089000225067139,6.089000225067139,6.089000225067139,0.0,4.915882587432861
2015-10-16,5.769000053405762,5.769000053405762,5.769000053405762,5.769000053405762,0.0,4.657534122467041
2015-11-09,4.8379998207092285,4.8379998207092285,4.8379998207092285,4.8379998207092285,0.0,3.9059019088745117
2015-11-10,4.85699987411499,4.85699987411499,4.85699987411499,4.85699987411499,0.0,3.9212417602539062
2015-11-11,4.875999927520752,4.875999927520752,4.875999927520752,4.875999927520752,0.0,3.9365811347961426
2015-11-12,4.75600004196167,4.75600004196167,4.75600004196167,4.75600004196167,0.0,3.839700937271118
2015-11-13,4.664000034332275,4.664000034332275,4.664000034332275,4.664000034332275,0.0,3.765425682067871
2015-11-16,4.8470001220703125,4.8470001220703125,4.8470001220703125,4.8470001220703125,0.0,3.9131686687469482
2015-11-17,4.7779998779296875,4.7779998779296875,4.7779998779296875,4.7779998779296875,0.0,3.857461929321289
2015-11-18,4.835000038146973,4.835000038146973,4.835000038146973,4.835000038146973,0.0,3.903479814529419
2015-11-19,5.046999931335449,5.046999931335449,5.046999931335449,5.046999931335449,0.0,4.074635982513428
2015-11-20,4.99399995803833,4.99399995803833,4.99399995803833,4.99399995803833,0.0,4.0318474769592285
2015-12-03,5.433000087738037,5.144000053405762,5.433000087738037,5.156000137329102,0.0,4.162635803222656
2015-12-04,5.205999851226807,5.132999897003174,5.1519999504089355,5.205999851226807,0.0,4.2030029296875
2015-12-07,5.125999927520752,5.125999927520752,5.125999927520752,5.125999927520752,0.0,4.138415813446045
2015-12-08,5.02400016784668,5.02400016784668,5.02400016784668,5.02400016784668,0.0,4.056067943572998
2015-12-09,5.190999984741211,5.006999969482422,5.131999969482422,5.033999919891357,0.0,4.064140796661377
2015-12-10,4.992000102996826,4.992000102996826,4.992000102996826,4.992000102996826,0.0,4.0302324295043945
2015-12-11,5.130000114440918,5.130000114440918,5.130000114440918,5.130000114440918,0.0,4.1416449546813965
2015-12-14,4.900000095367432,4.769000053405762,4.784999847412109,4.800000190734863,0.0,3.8752241134643555
2015-12-15,4.835000038146973,4.767000198364258,4.77400016784668,4.835000038146973,0.0,3.903479814529419
2015-12-16,5.3480000495910645,4.885000228881836,4.885000228881836,5.3480000495910645,0.0,4.3176445960998535
2015-12-17,5.4120001792907715,5.3420000076293945,5.3420000076293945,5.4120001792907715,0.0,4.3693156242370605
2015-12-18,5.545000076293945,5.349999904632568,5.35099983215332,5.422999858856201,0.0,4.378194332122803
2015-12-21,5.519999980926514,5.519999980926514,5.519999980926514,5.519999980926514,0.0,4.456507682800293
2015-12-22,5.4039998054504395,5.289000034332275,5.308000087738037,5.4039998054504395,0.0,4.362856388092041
2015-12-23,5.520999908447266,5.36899995803833,5.422999858856201,5.506999969482422,0.0,4.446011543273926
2015-12-24,5.427999973297119,5.427999973297119,5.427999973297119,5.427999973297119,0.0,4.382231712341309
2015-12-28,5.485000133514404,5.485000133514404,5.485000133514404,5.485000133514404,0.0,4.428249835968018
2015-12-29,5.659999847412109,5.434999942779541,5.436999797821045,5.659999847412109,0.0,4.5695343017578125
2016-01-11,4.711999893188477,4.711999893188477,4.711999893188477,4.711999893188477,0.0,3.804177761077881
2016-01-12,4.789000034332275,4.566999912261963,4.567999839782715,4.677999973297119,0.0,4.108020305633545
2016-01-13,4.76200008392334,4.76200008392334,4.76200008392334,4.76200008392334,0.0,4.181785583496094
2016-01-14,4.291999816894531,4.291999816894531,4.291999816894531,4.291999816894531,0.0,3.7690515518188477
2016-01-15,4.593999862670898,4.593999862670898,4.593999862670898,4.593999862670898,0.0,4.034254550933838
2016-01-19,4.584000110626221,4.354000091552734,4.546000003814697,4.354000091552734,0.0,3.8234972953796387
2016-01-20,4.184000015258789,4.184000015258789,4.184000015258789,4.184000015258789,0.0,3.674211263656616
2016-01-21,4.758999824523926,4.539000034332275,4.541999816894531,4.758999824523926,0.0,4.1791510581970215
2016-01-22,4.75,4.75,4.75,4.75,0.0,4.1712470054626465
2016-01-25,4.754000186920166,4.754000186920166,4.754000186920166,4.754000186920166,0.0,4.174759864807129
2016-01-26,4.704999923706055,4.6529998779296875,4.689000129699707,4.6529998779296875,0.0,4.086066722869873
2016-01-27,4.764999866485596,4.764999866485596,4.764999866485596,4.764999866485596,0.0,4.184419631958008
2016-01-28,4.541999816894531,4.541999816894531,4.541999816894531,4.541999816894531,0.0,3.9885904788970947
2016-01-29,4.377999782562256,4.377999782562256,4.377999782562256,4.377999782562256,0.0,3.844572067260742
2016-02-01,4.38700008392334,4.38700008392334,4.38700008392334,4.38700008392334,0.0,3.8524765968322754
2016-02-02,4.377999782562256,4.377999782562256,4.377999782562256,4.377999782562256,0.0,3.844572067260742
2016-02-03,4.309999942779541,4.309999942779541,4.309999942779541,4.309999942779541,0.0,3.7848587036132812
2016-02-04,4.171999931335449,4.171999931335449,4.171999931335449,4.171999931335449,0.0,3.663672924041748
2016-02-05,4.185999870300293,4.185999870300293,4.185999870300293,4.185999870300293,0.0,3.675966739654541
2016-02-08,4.125,3.7950000762939453,4.125,3.947999954223633,0.0,3.4669651985168457
2016-02-09,3.8889999389648438,3.8889999389648438,3.8889999389648438,3.8889999389648438,0.0,3.415153980255127
2016-02-10,3.755000114440918,3.755000114440918,3.755000114440918,3.755000114440918,0.0,3.2974812984466553
2016-02-11,3.8889999389648438,3.73799991607666,3.8889999389648438,3.822000026702881,0.0,3.3563172817230225
2016-02-12,3.808000087738037,3.808000087738037,3.808000087738037,3.808000087738037,0.0,3.3440232276916504
2016-02-16,4.072999954223633,4.072999954223633,4.072999954223633,4.072999954223633,0.0,3.576735019683838
2016-02-17,3.9809999465942383,3.9809999465942383,3.9809999465942383,3.9809999465942383,0.0,3.4959442615509033
2016-02-18,4.050000190734863,4.043000221252441,4.043000221252441,4.050000190734863,1.0,3.556537628173828
2016-02-19,3.9779999256134033,3.9779999256134033,3.9779999256134033,3.9779999256134033,0.0,3.49330997467041
2016-03-02,4.593999862670898,4.238999843597412,4.238999843597412,4.593999862670898,0.0,4.034254550933838
2016-03-03,4.567999839782715,4.498000144958496,4.567999839782715,4.498000144958496,0.0,3.9499518871307373
2016-03-04,4.458000183105469,4.458000183105469,4.458000183105469,4.458000183105469,0.0,3.914825439453125
2016-03-07,4.550000190734863,4.550000190734863,4.550000190734863,4.550000190734863,0.0,3.9956157207489014
2016-03-08,4.797999858856201,4.797999858856201,4.797999858856201,4.797999858856201,0.0,4.213399410247803
2016-03-09,4.593999862670898,4.593999862670898,4.593999862670898,4.593999862670898,0.0,4.034254550933838
2016-03-10,4.533999919891357,4.533999919891357,4.533999919891357,4.533999919891357,0.0,3.981565475463867
2016-03-11,4.894000053405762,4.894000053405762,4.894000053405762,4.894000053405762,0.0,4.297702312469482
2016-03-23,5.458000183105469,5.458000183105469,5.458000183105469,5.458000183105469,0.0,4.792983055114746
2016-04-04,5.627999782562256,5.627999782562256,5.627999782562256,5.627999782562256,0.0,4.9422688484191895
2016-04-05,5.843999862670898,5.843999862670898,5.843999862670898,5.843999862670898,0.0,5.131951808929443
2016-04-06,6.079999923706055,5.736000061035156,5.741000175476074,6.073999881744385,0.0,5.333928108215332
2016-04-07,6.144000053405762,6.001999855041504,6.081999778747559,6.0269999504089355,400.0,5.292654037475586
2016-04-08,5.982999801635742,5.9770002365112305,5.982999801635742,5.9770002365112305,0.0,5.475886821746826
2016-04-11,5.9629998207092285,5.9629998207092285,5.9629998207092285,5.9629998207092285,0.0,5.463059902191162
2016-04-12,5.935999870300293,5.935999870300293,5.935999870300293,5.935999870300293,0.0,5.438323974609375
2016-04-13,6.065999984741211,6.065999984741211,6.065999984741211,6.065999984741211,0.0,5.557425022125244
2016-04-14,6.288000106811523,6.288000106811523,6.288000106811523,6.288000106811523,0.0,5.760811805725098
2016-04-15,6.297999858856201,6.297999858856201,6.297999858856201,6.297999858856201,0.0,5.7699737548828125
2016-04-18,6.546000003814697,6.473999977111816,6.473999977111816,6.546000003814697,0.0,5.997180938720703
2016-04-19,6.392000198364258,6.288000106811523,6.392000198364258,6.288000106811523,0.0,5.760811805725098
2016-04-20,6.318999767303467,6.318999767303467,6.318999767303467,6.318999767303467,0.0,5.789212703704834
2016-04-21,6.461999893188477,6.461999893188477,6.461999893188477,6.461999893188477,0.0,5.920223712921143
2016-04-22,6.499000072479248,6.499000072479248,6.499000072479248,6.499000072479248,0.0,5.954122066497803
2016-04-25,6.696000099182129,6.696000099182129,6.696000099182129,6.696000099182129,0.0,6.134605407714844
2016-04-26,6.728000164031982,6.728000164031982,6.728000164031982,6.728000164031982,0.0,6.163923263549805
2016-04-27,6.340000152587891,6.340000152587891,6.340000152587891,6.340000152587891,0.0,5.808452129364014
2016-04-28,6.236999988555908,6.236999988555908,6.236999988555908,6.236999988555908,0.0,5.714087963104248
2016-04-29,6.228000164031982,6.228000164031982,6.228000164031982,6.228000164031982,0.0,5.7058424949646
2016-05-02,6.130000114440918,6.130000114440918,6.130000114440918,6.130000114440918,0.0,5.616059303283691
2016-05-03,6.256999969482422,6.256999969482422,6.256999969482422,6.256999969482422,0.0,5.7324113845825195
2016-05-04,6.146999835968018,6.146999835968018,6.146999835968018,6.146999835968018,0.0,5.631633281707764
2016-05-05,6.021999835968018,6.021999835968018,6.021999835968018,6.021999835968018,0.0,5.517114162445068
2016-05-06,6.110000133514404,6.110000133514404,6.110000133514404,6.110000133514404,0.0,5.597735404968262
2016-05-09,6.2179999351501465,6.2179999351501465,6.2179999351501465,6.2179999351501465,0.0,5.696681022644043
2016-05-10,6.3460001945495605,6.3460001945495605,6.3460001945495605,6.3460001945495605,0.0,5.8139495849609375
2016-05-11,6.478000164031982,6.478000164031982,6.478000164031982,6.478000164031982,0.0,5.934882640838623
2016-05-12,6.354000091552734,6.354000091552734,6.354000091552734,6.354000091552734,0.0,5.821278095245361
2016-05-13,6.15500020980835,6.15500020980835,6.15500020980835,6.15500020980835,0.0,5.638963222503662
2016-05-25,6.559999942779541,6.559999942779541,6.559999942779541,6.559999942779541,0.0,6.010007858276367
2016-05-26,6.670000076293945,6.670000076293945,6.670000076293945,6.670000076293945,0.0,6.110785007476807
2016-05-27,6.5879998207092285,6.5879998207092285,6.5879998207092285,6.5879998207092285,0.0,6.035659313201904
2016-05-31,6.609000205993652,6.609000205993652,6.609000205993652,6.609000205993652,0.0,6.054900169372559
2016-06-01,6.671999931335449,6.671999931335449,6.671999931335449,6.671999931335449,0.0,6.112617492675781
2016-06-02,6.622000217437744,6.622000217437744,6.622000217437744,6.622000217437744,0.0,6.06680965423584
2016-06-03,6.682000160217285,6.682000160217285,6.682000160217285,6.682000160217285,0.0,6.121778964996338
2016-06-06,6.4070000648498535,6.4070000648498535,6.4070000648498535,6.4070000648498535,0.0,5.869835376739502
2016-06-07,6.360000133514404,6.360000133514404,6.360000133514404,6.360000133514404,0.0,5.826775550842285
2016-06-08,6.2729997634887695,6.2729997634887695,6.2729997634887695,6.2729997634887695,0.0,5.747069358825684
2016-06-09,6.177999973297119,6.177999973297119,6.177999973297119,6.177999973297119,0.0,5.6600341796875
2016-06-10,6.14300012588501,5.955999851226807,6.118000030517578,6.125999927520752,0.0,5.612394332885742
2016-06-13,6.197000026702881,6.002999782562256,6.01200008392334,6.105999946594238,0.0,5.594070911407471
2016-06-14,6.135000228881836,5.964000225067139,6.039999961853027,5.984000205993652,0.0,5.4822998046875
2016-06-15,6.104000091552734,5.982999801635742,5.982999801635742,6.104000091552734,0.0,5.5922393798828125
2016-06-16,5.98799991607666,5.98799991607666,5.98799991607666,5.98799991607666,0.0,5.485963821411133
2016-06-17,6.008999824523926,6.008999824523926,6.008999824523926,6.008999824523926,0.0,5.505203723907471
2016-06-20,6.006999969482422,5.571000099182129,5.906000137329102,6.006999969482422,0.0,5.503371238708496
2016-06-21,5.921999931335449,5.921999931335449,5.921999931335449,5.921999931335449,0.0,5.425497531890869
2016-06-22,6.066999912261963,5.867000102996826,5.921999931335449,6.01200008392334,0.0,5.507951259613037
2016-06-23,6.015999794006348,5.883999824523926,5.974999904632568,5.943999767303467,0.0,5.445653438568115
2016-06-24,5.841000080108643,5.354000091552734,5.789999961853027,5.785999774932861,1000.0,5.300899505615234
2016-06-27,5.802999973297119,5.802000045776367,5.802999973297119,5.802000045776367,0.0,5.315557956695557
2016-06-28,5.9039998054504395,5.701000213623047,5.701000213623047,5.9039998054504395,0.0,5.409006595611572
2016-07-20,5.639999866485596,5.639999866485596,5.639999866485596,5.639999866485596,0.0,5.167140960693359
2016-07-21,5.820000171661377,5.820000171661377,5.820000171661377,5.820000171661377,0.0,5.332049369812012
2016-07-22,5.8379998207092285,5.8379998207092285,5.8379998207092285,5.8379998207092285,0.0,5.348540306091309
2016-08-03,6.138999938964844,6.138999938964844,6.138999938964844,6.138999938964844,0.0,5.624304294586182
2016-08-19,5.179999828338623,5.179999828338623,5.179999828338623,5.179999828338623,0.0,4.745707035064697
2016-08-22,5.190999984741211,5.190999984741211,5.190999984741211,5.190999984741211,0.0,4.75578498840332
2016-08-23,5.27400016784668,5.27400016784668,5.27400016784668,5.27400016784668,0.0,4.831826210021973
2016-08-24,5.254000186920166,5.254000186920166,5.254000186920166,5.254000186920166,0.0,4.813503265380859
2016-08-25,4.943999767303467,4.943999767303467,4.943999767303467,4.943999767303467,0.0,4.529493808746338
2016-08-26,4.955999851226807,4.955999851226807,4.955999851226807,4.955999851226807,0.0,4.540487289428711
2016-08-29,4.943999767303467,4.943999767303467,4.943999767303467,4.943999767303467,0.0,4.529493808746338
2016-08-30,4.889999866485596,4.889999866485596,4.889999866485596,4.889999866485596,0.0,4.4800214767456055
2016-08-31,4.886000156402588,4.886000156402588,4.886000156402588,4.886000156402588,0.0,4.476356506347656
2016-09-01,4.728000164031982,4.728000164031982,4.728000164031982,4.728000164031982,0.0,4.331602573394775
2016-09-02,4.677999973297119,4.677999973297119,4.677999973297119,4.677999973297119,0.0,4.285795211791992
2016-09-06,4.664000034332275,4.664000034332275,4.664000034332275,4.664000034332275,0.0,4.2729692459106445
2016-09-07,4.6539998054504395,4.6539998054504395,4.6539998054504395,4.6539998054504395,0.0,4.263806343078613
2016-09-08,4.73799991607666,4.73799991607666,4.73799991607666,4.73799991607666,0.0,4.34076452255249
2016-09-09,4.809000015258789,4.809000015258789,4.809000015258789,4.809000015258789,0.0,4.4058122634887695
2016-09-12,4.715000152587891,4.715000152587891,4.715000152587891,4.715000152587891,0.0,4.319693088531494
2016-09-13,5.01800012588501,5.01800012588501,5.01800012588501,5.01800012588501,0.0,4.597289085388184
2016-09-14,4.860000133514404,4.860000133514404,4.860000133514404,4.860000133514404,0.0,4.452535629272461
2016-09-15,4.438000202178955,4.438000202178955,4.438000202178955,4.438000202178955,0.0,4.065917015075684
2016-09-16,4.27400016784668,4.27400016784668,4.27400016784668,4.27400016784668,0.0,3.9156665802001953
2016-09-19,4.297999858856201,4.297999858856201,4.297999858856201,4.297999858856201,0.0,3.937654495239258
2016-09-20,4.197999954223633,4.197999954223633,4.197999954223633,4.197999954223633,0.0,3.8460381031036377
2016-09-21,4.133999824523926,4.133999824523926,4.133999824523926,4.133999824523926,0.0,3.7874045372009277
2016-09-22,3.9519999027252197,3.9519999027252197,3.9519999027252197,3.9519999027252197,0.0,3.6206634044647217
2016-09-23,4.252999782562256,4.252999782562256,4.252999782562256,4.252999782562256,0.0,3.8964271545410156
2016-09-26,4.163000106811523,4.163000106811523,4.163000106811523,4.163000106811523,0.0,3.8139729499816895
2016-09-27,4.127999782562256,4.127999782562256,4.127999782562256,4.127999782562256,0.0,3.7819066047668457
2016-09-28,4.185999870300293,4.185999870300293,4.185999870300293,4.185999870300293,0.0,3.8350441455841064
2016-09-29,4.179999828338623,4.179999828338623,4.179999828338623,4.179999828338623,0.0,3.82954740524292
2016-09-30,4.043000221252441,4.043000221252441,4.043000221252441,4.043000221252441,0.0,3.704033851623535
2016-10-03,4.110000133514404,4.110000133514404,4.110000133514404,4.110000133514404,0.0,3.765416145324707
2016-10-04,4.142000198364258,4.142000198364258,4.142000198364258,4.142000198364258,0.0,3.7947335243225098
2016-10-05,4.019999980926514,4.019999980926514,4.019999980926514,4.019999980926514,0.0,3.682961940765381
2016-10-06,4.093999862670898,4.093999862670898,4.093999862670898,4.093999862670898,0.0,3.7507576942443848
2016-10-07,4.041999816894531,4.041999816894531,4.041999816894531,4.041999816894531,0.0,3.7958343029022217
2016-10-10,4.076000213623047,4.076000213623047,4.076000213623047,4.076000213623047,0.0,3.827763795852661
2016-10-11,4.185999870300293,4.185999870300293,4.185999870300293,4.185999870300293,0.0,3.9310643672943115
2016-10-12,4.059999942779541,4.059999942779541,4.059999942779541,4.059999942779541,0.0,3.8127379417419434
2016-10-13,3.8559999465942383,3.8559999465942383,3.8559999465942383,3.8559999465942383,0.0,3.621162176132202
2016-10-14,3.822000026702881,3.822000026702881,3.822000026702881,3.822000026702881,0.0,3.589232921600342
2016-10-17,3.552000045776367,3.552000045776367,3.552000045776367,3.552000045776367,0.0,3.335676670074463
2016-10-18,3.6019999980926514,3.6019999980926514,3.6019999980926514,3.6019999980926514,0.0,3.3826310634613037
2016-10-19,3.618000030517578,3.618000030517578,3.618000030517578,3.618000030517578,0.0,3.3976566791534424
2016-10-20,3.572000026702881,3.572000026702881,3.572000026702881,3.572000026702881,0.0,3.3544580936431885
2016-10-21,3.615999937057495,3.615999937057495,3.615999937057495,3.615999937057495,0.0,3.3957784175872803
2016-10-24,3.6019999980926514,3.6019999980926514,3.6019999980926514,3.6019999980926514,0.0,3.3826310634613037
2016-10-25,3.490000009536743,3.490000009536743,3.490000009536743,3.490000009536743,0.0,3.277452230453491
2016-10-26,3.315999984741211,3.315999984741211,3.315999984741211,3.315999984741211,0.0,3.114049196243286
2016-10-27,3.4019999504089355,3.4019999504089355,3.4019999504089355,3.4019999504089355,0.0,3.1948113441467285
2016-10-28,3.4140000343322754,3.4140000343322754,3.4140000343322754,3.4140000343322754,0.0,3.206080675125122
2016-10-31,3.328000068664551,3.328000068664551,3.328000068664551,3.328000068664551,0.0,3.1253182888031006
2016-11-01,3.186000108718872,3.186000108718872,3.186000108718872,3.186000108718872,0.0,2.991966724395752
2016-11-02,3.2039999961853027,3.2039999961853027,3.2039999961853027,3.2039999961853027,0.0,3.0088703632354736
2016-11-03,3.124000072479248,3.124000072479248,3.124000072479248,3.124000072479248,0.0,2.9337425231933594
2016-11-04,2.885999917984009,2.885999917984009,2.885999917984009,2.885999917984009,0.0,2.7102370262145996
2016-11-07,3.194000005722046,3.194000005722046,3.194000005722046,3.194000005722046,0.0,2.999479055404663
2016-11-08,3.246000051498413,3.246000051498413,3.246000051498413,3.246000051498413,0.0,3.0483124256134033
2016-11-09,3.0220000743865967,3.0220000743865967,3.0220000743865967,3.0220000743865967,0.0,2.837954521179199
2016-11-10,3.818000078201294,3.818000078201294,3.818000078201294,3.818000078201294,0.0,3.5854763984680176
2016-11-11,3.8399999141693115,3.8399999141693115,3.8399999141693115,3.8399999141693115,0.0,3.6061365604400635
2016-11-14,4.165999889373779,4.165999889373779,4.165999889373779,4.165999889373779,0.0,3.9122819900512695
2016-11-15,4.395999908447266,4.395999908447266,4.395999908447266,4.395999908447266,0.0,4.128275394439697
2016-11-16,4.02400016784668,4.02400016784668,4.02400016784668,4.02400016784668,0.0,3.778930902481079
2016-11-17,3.950000047683716,3.950000047683716,3.950000047683716,3.950000047683716,0.0,3.709437608718872
2016-11-18,3.9839999675750732,3.9839999675750732,3.9839999675750732,3.9839999675750732,0.0,3.741366386413574
2016-11-21,3.9820001125335693,3.9820001125335693,3.9820001125335693,3.9820001125335693,0.0,3.7394886016845703
2016-11-22,4.223999977111816,4.223999977111816,4.223999977111816,4.223999977111816,0.0,3.966750144958496
2016-11-23,4.013999938964844,4.013999938964844,4.013999938964844,4.013999938964844,0.0,3.7695393562316895
2016-11-25,4.111999988555908,4.111999988555908,4.111999988555908,4.111999988555908,0.0,3.8615713119506836
2016-11-28,4.01200008392334,4.01200008392334,4.01200008392334,4.01200008392334,0.0,3.7676613330841064
2016-11-29,3.8320000171661377,3.8320000171661377,3.8320000171661377,3.8320000171661377,0.0,3.598623752593994
2016-11-30,3.7139999866485596,3.7139999866485596,3.7139999866485596,3.7139999866485596,0.0,3.4878103733062744
2016-12-01,3.6540000438690186,3.6540000438690186,3.6540000438690186,3.6540000438690186,0.0,3.431464672088623
2016-12-02,3.809999942779541,3.809999942779541,3.809999942779541,3.809999942779541,0.0,3.57796311378479
2016-12-05,3.740000009536743,3.740000009536743,3.740000009536743,3.740000009536743,0.0,3.5122270584106445
2016-12-06,3.7039999961853027,3.7039999961853027,3.7039999961853027,3.7039999961853027,0.0,3.478419303894043
2016-12-07,3.9119999408721924,3.9119999408721924,3.9119999408721924,3.9119999408721924,0.0,3.6737515926361084
2016-12-08,3.802000045776367,3.802000045776367,3.802000045776367,3.802000045776367,0.0,3.570451021194458
2016-12-09,3.885999917984009,3.885999917984009,3.885999917984009,3.885999917984009,0.0,3.6493349075317383
2016-12-12,4.164000034332275,4.164000034332275,4.164000034332275,4.164000034332275,0.0,3.910404682159424
2016-12-13,4.1479997634887695,4.1479997634887695,4.1479997634887695,4.1479997634887695,0.0,3.8953781127929688
2016-12-14,4.119999885559082,4.119999885559082,4.119999885559082,4.119999885559082,0.0,3.869084358215332
2016-12-15,4.081999778747559,4.081999778747559,4.081999778747559,4.081999778747559,0.0,3.8333981037139893
2016-12-16,4.3420000076293945,4.3420000076293945,4.3420000076293945,4.3420000076293945,0.0,4.077563762664795
2016-12-19,4.395999908447266,4.395999908447266,4.395999908447266,4.395999908447266,0.0,4.128275394439697
2016-12-20,4.46999979019165,4.46999979019165,4.46999979019165,4.46999979019165,0.0,4.197768688201904
2016-12-21,4.394000053405762,4.394000053405762,4.394000053405762,4.394000053405762,0.0,4.126396656036377
2016-12-22,4.113999843597412,4.113999843597412,4.113999843597412,4.113999843597412,0.0,3.8634495735168457
2016-12-23,4.09499979019165,4.09499979019165,4.09499979019165,4.09499979019165,0.0,3.845606565475464
2016-12-27,4.377999782562256,4.377999782562256,4.377999782562256,4.377999782562256,0.0,4.111371040344238
2016-12-28,4.315000057220459,4.315000057220459,4.315000057220459,4.315000057220459,0.0,4.052208423614502
2016-12-29,4.258999824523926,4.258999824523926,4.258999824523926,4.258999824523926,0.0,3.9996187686920166
2016-12-30,4.190999984741211,4.190999984741211,4.190999984741211,4.190999984741211,0.0,3.935760021209717
2017-01-03,4.208000183105469,4.208000183105469,4.208000183105469,4.208000183105469,0.0,3.9517252445220947
2017-01-04,4.236000061035156,4.236000061035156,4.236000061035156,4.236000061035156,0.0,3.9780197143554688
2017-01-05,4.4670000076293945,4.4670000076293945,4.4670000076293945,4.4670000076293945,0.0,4.194950580596924
2017-01-06,4.492000102996826,4.492000102996826,4.492000102996826,4.492000102996826,0.0,4.218429088592529
2017-01-09,4.514999866485596,4.514999866485596,4.514999866485596,4.514999866485596,0.0,4.24002742767334
2017-01-10,4.381999969482422,4.381999969482422,4.381999969482422,4.381999969482422,0.0,4.208334922790527
2017-01-11,4.35099983215332,4.35099983215332,4.35099983215332,4.35099983215332,0.0,4.178564071655273
2017-01-23,4.239999771118164,4.239999771118164,4.239999771118164,4.239999771118164,0.0,4.071963310241699
2017-01-24,4.214000225067139,4.214000225067139,4.214000225067139,4.214000225067139,0.0,4.046993732452393
2017-01-25,4.289000034332275,4.289000034332275,4.289000034332275,4.289000034332275,0.0,4.119021415710449
2017-01-26,4.271999835968018,4.271999835968018,4.271999835968018,4.271999835968018,0.0,4.102694988250732
2017-01-27,4.249000072479248,4.249000072479248,4.249000072479248,4.249000072479248,0.0,4.080606937408447
2017-01-30,4.229000091552734,4.229000091552734,4.229000091552734,4.229000091552734,0.0,4.061399459838867
2017-01-31,4.15500020980835,4.15500020980835,4.15500020980835,4.15500020980835,0.0,3.9903321266174316
2017-02-01,4.2789998054504395,4.2789998054504395,4.2789998054504395,4.2789998054504395,0.0,4.10941743850708
2017-02-02,4.348999977111816,4.348999977111816,4.348999977111816,4.348999977111816,0.0,4.1766438484191895
2017-02-03,4.684999942779541,4.684999942779541,4.684999942779541,4.684999942779541,0.0,4.499327182769775
2017-02-06,4.650000095367432,4.650000095367432,4.650000095367432,4.650000095367432,0.0,4.465714454650879
2017-02-07,4.736000061035156,4.736000061035156,4.736000061035156,4.736000061035156,0.0,4.548305988311768
2017-02-08,4.607999801635742,4.607999801635742,4.607999801635742,4.607999801635742,0.0,4.425378799438477
2017-02-09,4.614999771118164,4.614999771118164,4.614999771118164,4.614999771118164,0.0,4.432101249694824
2017-02-10,4.776000022888184,4.776000022888184,4.776000022888184,4.776000022888184,0.0,4.5867204666137695
2017-03-10,5.665999889373779,5.665999889373779,5.665999889373779,5.665999889373779,0.0,5.441449165344238
2017-03-13,5.888000011444092,5.888000011444092,5.888000011444092,5.888000011444092,0.0,5.654650688171387
2018-01-02,54.75,51.810001373291016,52.599998474121094,54.75,883700.0,52.58018112182617
2018-01-03,55.66999816894531,54.72999954223633,54.95000076293945,55.36000061035156,2581100.0,53.166011810302734
2018-01-04,55.900001525878906,54.959999084472656,55.689998626708984,55.54999923706055,1988400.0,53.34847640991211
2018-01-05,56.18000030517578,54.79999923706055,55.400001525878906,55.72999954223633,1618600.0,53.52134704589844
2018-01-08,55.4900016784668,53.790000915527344,55.38999938964844,53.84000015258789,1528200.0,51.70624923706055
2018-01-09,53.79999923706055,52.33000183105469,53.79999923706055,52.68000030517578,2346700.0,50.592227935791016
2018-01-10,52.900001525878906,51.560001373291016,52.529998779296875,51.900001525878906,1999100.0,49.843135833740234
2018-01-11,53.34000015258789,51.5099983215332,51.5099983215332,53.25,1908900.0,51.13963317871094
2018-01-12,53.61000061035156,52.90999984741211,53.209999084472656,53.43000030517578,1338400.0,51.3125
2018-01-16,53.91999816894531,52.994998931884766,53.83000183105469,53.04999923706055,2165700.0,50.94755935668945
2018-01-17,53.290000915527344,52.689998626708984,53.0099983215332,52.810001373291016,1726200.0,50.717071533203125
2018-01-18,53.5,52.939998626708984,53.18000030517578,53.189998626708984,1279600.0,51.082008361816406
2018-01-19,53.29999923706055,52.880001068115234,53.20000076293945,53.0,1425800.0,50.8995361328125
2018-01-22,53.290000915527344,52.75,53.2400016784668,53.06999969482422,1189200.0,50.96677017211914
2018-01-23,53.959999084472656,52.90999984741211,53.0,53.68000030517578,2509100.0,51.552589416503906
2018-01-24,54.34600067138672,53.33000183105469,54.0,53.599998474121094,2602100.0,51.47576141357422
2018-01-25,53.880001068115234,52.970001220703125,53.709999084472656,53.04999923706055,1063100.0,50.94755935668945
2018-01-26,54.06999969482422,52.79999923706055,53.220001220703125,54.0,1517100.0,51.85990905761719
2018-01-29,54.06999969482422,53.5,53.56999969482422,53.689998626708984,1473700.0,51.562191009521484
2018-01-30,53.689998626708984,52.93000030517578,53.38999938964844,53.040000915527344,1569500.0,50.937957763671875
2018-01-31,53.2400016784668,52.20000076293945,53.11000061035156,52.34000015258789,1398300.0,50.26569747924805
2018-02-01,52.2400016784668,51.0099983215332,51.91999816894531,51.540000915527344,1170800.0,49.49740219116211
2018-02-02,51.02000045776367,49.84000015258789,50.869998931884766,49.97999954223633,2168600.0,47.99922561645508
2018-02-05,49.959999084472656,48.209999084472656,49.43000030517578,48.290000915527344,2333200.0,46.37620162963867
2018-02-06,47.369998931884766,40.40999984741211,46.25,46.86000061035156,4682400.0,45.00287628173828
2018-02-07,47.61000061035156,46.279998779296875,46.279998779296875,46.810001373291016,2941900.0,44.95486068725586
2018-02-08,46.59000015258789,44.97999954223633,46.36000061035156,45.04999923706055,3374200.0,43.264610290527344
2018-02-09,45.470001220703125,44.15999984741211,45.13999938964844,44.5099983215332,2729900.0,42.746009826660156
2018-02-12,45.83000183105469,44.63999938964844,44.83000183105469,45.54999923706055,1916800.0,43.74479293823242
2018-02-13,45.709999084472656,44.5099983215332,45.529998779296875,44.70000076293945,1469000.0,42.92848205566406
2018-02-14,44.880001068115234,44.13999938964844,44.529998779296875,44.540000915527344,2065500.0,42.774818420410156
2018-02-15,44.9900016784668,44.18000030517578,44.95000076293945,44.59000015258789,1841400.0,42.82284164428711
2018-02-16,44.79999923706055,44.18000030517578,44.540000915527344,44.41999816894531,1483600.0,42.65957260131836
2018-02-20,45.31999969482422,44.220001220703125,44.279998779296875,45.029998779296875,2341700.0,43.245399475097656
2018-02-21,48.20000076293945,45.0,45.22999954223633,47.08000183105469,3913500.0,45.21415710449219
2018-02-22,47.939998626708984,47.119998931884766,47.279998779296875,47.58000183105469,1925600.0,45.694339752197266
2018-02-23,50.66999816894531,48.040000915527344,48.08000183105469,50.31999969482422,3200600.0,48.32575225830078
2018-02-26,50.70000076293945,49.11000061035156,50.5,50.130001068115234,1992600.0,48.14328384399414
2018-02-27,51.06999969482422,49.38999938964844,49.90999984741211,49.630001068115234,2368900.0,47.66310119628906
2018-02-28,50.43000030517578,49.2400016784668,49.75,49.25,3481900.0,47.298152923583984
2018-03-01,50.099998474121094,48.83000183105469,49.5,49.4900016784668,1693300.0,47.528648376464844
2018-03-02,49.63999938964844,48.65999984741211,49.31999969482422,49.47999954223633,1453500.0,47.51904296875
2018-03-05,52.26499938964844,49.25,49.349998474121094,51.79999923706055,2901700.0,49.747093200683594
2018-03-06,52.54999923706055,51.16999816894531,52.220001220703125,51.560001373291016,2910200.0,49.51660919189453
2018-03-07,51.73500061035156,50.20000076293945,51.13999938964844,51.040000915527344,2142700.0,49.017215728759766
2018-03-08,51.2599983215332,50.4900016784668,51.25,50.56999969482422,1707100.0,48.56584548950195
2018-03-09,53.75,50.63999938964844,51.0,52.150001525878906,4026800.0,50.083229064941406
2018-03-12,52.2400016784668,50.599998474121094,52.04999923706055,50.68000030517578,1823500.0,48.671485900878906
2018-03-13,51.16999816894531,50.43000030517578,50.849998474121094,50.54999923706055,1572200.0,48.54663848876953
2018-03-14,51.029998779296875,50.310001373291016,50.939998626708984,50.45000076293945,911400.0,48.45059585571289
2018-03-15,50.77000045776367,49.91999816894531,50.279998779296875,50.0,984400.0,48.018436431884766
2018-03-16,50.36000061035156,49.540000915527344,49.959999084472656,49.56999969482422,2547700.0,47.605472564697266
2018-03-19,49.41999816894531,48.439998626708984,49.2599983215332,48.720001220703125,1800500.0,46.789161682128906
2018-03-20,48.939998626708984,47.869998931884766,48.70000076293945,47.88999938964844,1298200.0,45.99205780029297
2018-03-21,49.08000183105469,48.09000015258789,48.25,48.59000015258789,1070500.0,46.66431427001953
2018-03-22,48.25,47.2599983215332,47.90999984741211,47.33000183105469,1482200.0,45.454254150390625
2018-03-23,48.13999938964844,46.959999084472656,47.5,46.9900016784668,1906900.0,45.127723693847656
2018-03-26,47.5099983215332,46.84000015258789,47.220001220703125,47.16999816894531,1766500.0,45.30059051513672
2018-03-27,48.0,46.900001525878906,47.380001068115234,47.209999084472656,1713600.0,45.3390007019043
2018-03-28,46.790000915527344,45.77000045776367,46.720001220703125,45.810001373291016,2085300.0,44.37042999267578
2018-03-29,47.56999969482422,45.88999938964844,46.18000030517578,47.2599983215332,2164800.0,45.774864196777344
2018-04-02,47.27000045776367,45.57500076293945,47.27000045776367,45.83000183105469,1370400.0,44.389801025390625
2018-04-03,46.18000030517578,45.29999923706055,45.88999938964844,45.77000045776367,1862400.0,44.331687927246094
2018-04-04,45.2400016784668,44.040000915527344,45.029998779296875,45.099998474121094,2576400.0,43.6827392578125
2018-04-05,46.459999084472656,45.150001525878906,45.31999969482422,46.099998474121094,1587500.0,44.65131378173828
2018-04-06,46.040000915527344,44.709999084472656,45.810001373291016,44.95000076293945,845000.0,43.53746032714844
2018-04-09,46.5,44.810001373291016,45.130001068115234,46.2400016784668,1598400.0,44.78691864013672
2018-04-10,47.38999938964844,46.689998626708984,46.90999984741211,46.75,1076000.0,45.28089141845703
2018-04-11,46.880001068115234,46.150001525878906,46.4900016784668,46.43000030517578,681500.0,44.970947265625
2018-04-12,47.349998474121094,46.13999938964844,46.599998474121094,47.02000045776367,592000.0,45.54240798950195
2018-04-13,47.499000549316406,46.5,47.41999816894531,46.68000030517578,638700.0,45.21309280395508
2018-04-16,47.04999923706055,46.369998931884766,46.65999984741211,46.810001373291016,719600.0,45.33900451660156
2018-04-17,47.31399917602539,46.72999954223633,46.810001373291016,47.099998474121094,830000.0,45.61988830566406
2018-04-18,48.400001525878906,47.0,47.060001373291016,48.2400016784668,1016800.0,46.72406768798828
2018-04-19,48.43000030517578,47.16999816894531,48.20000076293945,47.619998931884766,806000.0,46.12355041503906
2018-04-20,47.619998931884766,46.540000915527344,47.36000061035156,46.7400016784668,842300.0,45.27120590209961
2018-04-23,46.720001220703125,45.91999816894531,46.720001220703125,46.0,1239400.0,44.5544548034668
2018-04-24,46.40999984741211,45.2599983215332,46.310001373291016,45.619998931884766,1412600.0,44.186397552490234
2018-04-25,46.619998931884766,45.369998931884766,45.400001525878906,46.349998474121094,973600.0,44.893455505371094
2018-04-26,46.95000076293945,46.05500030517578,46.720001220703125,46.630001068115234,773900.0,45.16466522216797
2018-04-27,46.880001068115234,46.0,46.650001525878906,46.2599983215332,691600.0,44.8062858581543
2018-04-30,46.5,45.529998779296875,46.43000030517578,45.529998779296875,1054600.0,44.09922409057617
2018-05-01,45.90999984741211,44.939998626708984,45.380001068115234,45.81999969482422,1427900.0,44.38011932373047
2018-05-02,46.52000045776367,45.779998779296875,45.779998779296875,46.02000045776367,702500.0,44.57383346557617
2018-05-03,46.400001525878906,45.400001525878906,46.04999923706055,46.0,1058100.0,44.5544548034668
2018-05-04,46.83000183105469,45.52000045776367,45.75,46.529998779296875,1058700.0,45.06780242919922
2018-05-07,46.86000061035156,45.900001525878906,46.5,46.2400016784668,1991000.0,44.78691864013672
2018-05-08,47.939998626708984,46.27000045776367,46.439998626708984,47.650001525878906,2440400.0,46.152610778808594
2018-05-09,49.470001220703125,48.5,48.65999984741211,48.689998626708984,2468600.0,47.15992736816406
2018-05-10,49.404998779296875,48.56999969482422,48.9900016784668,49.220001220703125,1309100.0,47.67327117919922
2018-05-11,49.58000183105469,48.59000015258789,49.15999984741211,48.869998931884766,1501400.0,47.33427047729492
2018-05-14,50.65999984741211,48.9900016784668,49.189998626708984,50.5,1849300.0,48.91305160522461
2018-05-15,52.02000045776367,50.11000061035156,50.25,51.70000076293945,2125100.0,50.075340270996094
2018-05-16,51.959999084472656,50.88999938964844,51.7599983215332,51.720001220703125,1519000.0,50.09471130371094
2018-05-17,51.91999816894531,51.04999923706055,51.7400016784668,51.529998779296875,1437900.0,49.91067886352539
2018-05-18,51.58000183105469,50.65999984741211,51.09000015258789,51.439998626708984,1621300.0,49.82350540161133
2018-05-21,52.72999954223633,51.86000061035156,51.97999954223633,52.11000061035156,1715300.0,50.47245407104492
2018-05-22,52.25,51.0,52.0,51.060001373291016,1209900.0,49.455448150634766
2018-05-23,51.45000076293945,50.400001525878906,50.58000183105469,51.380001068115234,1443000.0,49.7653923034668
2018-05-24,51.380001068115234,50.849998474121094,51.130001068115234,51.13999938964844,1287300.0,49.532936096191406
2018-05-25,50.93000030517578,50.470001220703125,50.75,50.70000076293945,1149500.0,49.10676193237305
2018-05-29,50.689998626708984,49.540000915527344,49.90999984741211,50.06999969482422,1193000.0,48.49656295776367
2018-05-30,51.165000915527344,50.22999954223633,50.41999816894531,51.099998474121094,1369100.0,49.49419403076172
2018-05-31,51.040000915527344,50.52000045776367,50.86000061035156,50.650001525878906,1351200.0,49.05833435058594
2018-06-01,51.224998474121094,50.70000076293945,50.720001220703125,50.7599983215332,1285900.0,49.16487503051758
2018-06-04,51.04999923706055,50.20000076293945,50.810001373291016,50.400001525878906,1201700.0,48.816192626953125
2018-06-05,51.15999984741211,50.34000015258789,50.7400016784668,50.59000015258789,1468100.0,49.000221252441406
2018-06-06,52.72999954223633,50.68000030517578,50.95000076293945,52.66999816894531,2178400.0,51.014854431152344
2018-06-07,52.95000076293945,51.70500183105469,52.66999816894531,52.5,2859800.0,50.85020065307617
2018-06-08,53.11000061035156,52.189998626708984,52.5,52.66999816894531,1698100.0,51.014854431152344
2018-06-11,53.777000427246094,52.31999969482422,52.459999084472656,52.72999954223633,2369000.0,51.07297134399414
2018-06-12,53.1150016784668,52.400001525878906,52.650001525878906,52.689998626708984,1308700.0,51.03422927856445
2018-06-13,53.86000061035156,52.59000015258789,52.59000015258789,53.54999923706055,2550600.0,51.86720275878906
2018-06-14,53.99700164794922,53.409000396728516,53.65999984741211,53.72999954223633,2346800.0,52.04154586791992
2018-06-15,53.650001525878906,52.974998474121094,53.31999969482422,53.54999923706055,2780500.0,51.86720275878906
2018-06-18,53.72999954223633,53.10499954223633,53.290000915527344,53.47999954223633,2753500.0,51.79940414428711
2018-06-19,52.84000015258789,51.380001068115234,52.130001068115234,52.77000045776367,2200700.0,51.111717224121094
2018-06-20,53.04999923706055,51.94499969482422,52.81999969482422,52.310001373291016,1760300.0,50.666175842285156
2018-06-21,52.95000076293945,52.25,52.40999984741211,52.75,1691100.0,51.09233856201172
2018-06-22,54.16999816894531,52.779998779296875,52.779998779296875,53.689998626708984,1740700.0,52.002803802490234
2018-06-25,54.279998779296875,53.650001525878906,54.0099983215332,53.959999084472656,2556100.0,52.264320373535156
2018-06-26,55.18000030517578,54.09000015258789,54.209999084472656,54.61000061035156,2510200.0,52.893898010253906
2018-06-27,55.029998779296875,53.630001068115234,54.900001525878906,53.72999954223633,2232900.0,52.04154586791992
2018-06-28,54.18000030517578,53.255001068115234,53.36000061035156,53.380001068115234,1954300.0,52.09033966064453
2018-06-29,54.70000076293945,53.66999816894531,53.77000045776367,54.380001068115234,1763300.0,53.06617736816406
2018-07-02,54.5,53.72999954223633,54.0099983215332,53.77000045776367,1145800.0,52.47091293334961
2018-07-03,54.720001220703125,54.040000915527344,54.040000915527344,54.31999969482422,811900.0,53.007625579833984
2018-07-05,54.17900085449219,53.38999938964844,54.0,53.4900016784668,1201500.0,52.19768142700195
2018-07-06,54.099998474121094,53.150001525878906,53.29999923706055,54.0099983215332,1026200.0,52.70511245727539
2018-07-09,54.52000045776367,53.560001373291016,54.20000076293945,53.630001068115234,1382300.0,52.33429718017578
2018-07-10,54.41999816894531,53.38999938964844,53.630001068115234,54.34000015258789,1447400.0,53.02714538574219
2018-07-11,53.90999984741211,52.209999084472656,53.529998779296875,52.5099983215332,1902100.0,51.241355895996094
2018-07-12,53.349998474121094,52.22999954223633,52.880001068115234,53.04999923706055,1192100.0,51.768310546875
2018-07-13,53.290000915527344,52.540000915527344,52.81999969482422,53.06999969482422,829500.0,51.78782653808594
2018-07-16,53.369998931884766,52.619998931884766,53.0,52.7400016784668,1312500.0,51.46580123901367
2018-07-17,53.0099983215332,52.41999816894531,52.52000045776367,52.70000076293945,1636500.0,51.4267692565918
2018-07-18,53.58000183105469,52.27000045776367,53.20000076293945,52.29999923706055,1423800.0,51.03643035888672
2018-07-19,52.31999969482422,51.5,51.86000061035156,52.0,1388100.0,50.74367904663086
2018-07-20,52.849998474121094,51.83000183105469,52.060001373291016,52.45000076293945,1177000.0,51.18280792236328
2018-07-23,52.7400016784668,51.779998779296875,52.56999969482422,51.90999984741211,1426900.0,50.655853271484375
2018-07-24,52.91999816894531,52.16999816894531,52.209999084472656,52.5,3030800.0,51.23160171508789
2018-07-25,53.08000183105469,52.16999816894531,52.54999923706055,52.959999084472656,1102200.0,51.68048858642578
2018-07-26,54.13999938964844,52.599998474121094,52.900001525878906,53.7400016784668,1656200.0,52.44164276123047
2018-07-27,54.439998626708984,53.369998931884766,53.810001373291016,53.779998779296875,905900.0,52.480674743652344
2018-07-30,54.25,53.150001525878906,53.900001525878906,53.2400016784668,1034900.0,51.95372009277344
2018-07-31,54.45000076293945,53.34000015258789,53.34000015258789,54.209999084472656,1596800.0,52.90028381347656
2018-08-01,54.650001525878906,53.77000045776367,53.95000076293945,54.380001068115234,1777200.0,53.06617736816406
2018-08-02,58.025001525878906,55.0099983215332,55.34000015258789,57.68000030517578,3290200.0,56.28644943237305
2018-08-03,57.849998474121094,56.47999954223633,57.060001373291016,57.75,2616700.0,56.35476303100586
2018-08-06,58.70000076293945,57.36000061035156,57.849998474121094,57.459999084472656,1012000.0,56.07176208496094
2018-08-07,58.310001373291016,56.54999923706055,57.54999923706055,56.619998931884766,1800800.0,55.25205993652344
2018-08-08,57.02000045776367,56.375,56.720001220703125,56.869998931884766,994400.0,55.49601745605469
2018-08-09,58.349998474121094,56.900001525878906,57.220001220703125,58.04999923706055,2122400.0,56.64751434326172
2018-08-10,58.15999984741211,56.97999954223633,57.650001525878906,57.060001373291016,1341900.0,55.681427001953125
2018-08-13,57.130001068115234,55.709999084472656,57.02000045776367,56.02000045776367,1119400.0,54.66655731201172
2018-08-14,56.5,55.880001068115234,56.43000030517578,56.349998474121094,1175000.0,54.988582611083984
2018-08-15,55.630001068115234,54.29999923706055,55.630001068115234,54.9900016784668,1539900.0,53.66144561767578
2018-08-16,55.90999984741211,54.93000030517578,55.45000076293945,54.9900016784668,815600.0,53.66144561767578
2018-08-17,56.224998474121094,54.98500061035156,55.15999984741211,55.959999084472656,1095700.0,54.60800552368164
2018-08-20,56.34000015258789,55.349998474121094,56.31999969482422,55.529998779296875,1789400.0,54.18839645385742
2018-08-21,55.88999938964844,54.90999984741211,55.5,54.959999084472656,1110800.0,53.632164001464844
2018-08-22,55.540000915527344,54.79999923706055,55.189998626708984,55.040000915527344,728800.0,53.71023178100586
2018-08-23,55.119998931884766,54.375,54.75,55.029998779296875,1119000.0,53.70047378540039
2018-08-24,55.68000030517578,55.0,55.2400016784668,55.2400016784668,528500.0,53.90540313720703
2018-08-27,56.79999923706055,55.75,55.81999969482422,56.20000076293945,2309600.0,54.84220504760742
2018-08-28,56.75,56.099998474121094,56.709999084472656,56.400001525878906,1113900.0,55.03738021850586
2018-08-29,58.09000015258789,56.45000076293945,56.470001220703125,57.5099983215332,2841100.0,56.12055587768555
2018-08-30,57.459999084472656,56.72999954223633,57.16999816894531,57.04999923706055,1370500.0,55.67167282104492
2018-08-31,56.93000030517578,55.720001220703125,56.54999923706055,56.630001068115234,2649000.0,55.261817932128906
2018-09-04,55.959999084472656,55.060001373291016,55.52000045776367,55.349998474121094,1474300.0,54.01274108886719
2018-09-05,55.54999923706055,54.29999923706055,55.2599983215332,54.810001373291016,1468300.0,53.48579025268555
2018-09-06,55.779998779296875,54.310001373291016,54.869998931884766,54.7400016784668,1041300.0,53.41748046875
2018-09-07,55.029998779296875,53.81100082397461,54.33000183105469,54.81999969482422,1258400.0,53.495548248291016
2018-09-10,55.86000061035156,54.939998626708984,55.0,55.29999923706055,1703400.0,53.963951110839844
2018-09-11,56.279998779296875,54.86000061035156,54.887001037597656,55.970001220703125,2593900.0,54.61776351928711
2018-09-12,56.41999816894531,55.845001220703125,56.02000045776367,56.27000045776367,2018800.0,54.910518646240234
2018-09-13,56.75,56.13999938964844,56.33000183105469,56.45000076293945,2201700.0,55.08616638183594
2018-09-14,56.470001220703125,55.560001373291016,56.470001220703125,55.970001220703125,1404600.0,54.61776351928711
2018-09-17,58.15999984741211,56.79999923706055,56.93000030517578,57.84000015258789,2883000.0,56.44258117675781
2018-09-18,58.54999923706055,58.04999923706055,58.04999923706055,58.40999984741211,2951700.0,56.998809814453125
2018-09-19,58.71500015258789,58.33000183105469,58.5099983215332,58.619998931884766,1722400.0,57.20374298095703
2018-09-20,58.810001373291016,57.529998779296875,58.619998931884766,57.81999969482422,2045800.0,56.423065185546875
2018-09-21,57.79999923706055,56.84000015258789,57.52000045776367,57.279998779296875,2318600.0,55.89611053466797
2018-09-24,57.31999969482422,56.869998931884766,57.290000915527344,56.88999938964844,836500.0,55.51553726196289
2018-09-25,58.099998474121094,56.93000030517578,57.099998474121094,57.709999084472656,1649200.0,56.31572341918945
2018-09-26,58.34000015258789,57.45000076293945,57.79999923706055,57.52000045776367,1068900.0,56.13031768798828
2018-09-27,57.349998474121094,56.5099983215332,57.09000015258789,57.25,1269900.0,56.258060455322266
2018-09-28,57.939998626708984,57.150001525878906,57.34000015258789,57.70000076293945,1892000.0,56.70026779174805
2018-10-01,58.790000915527344,57.810001373291016,58.20000076293945,58.38999938964844,1843300.0,57.37831115722656
2018-10-02,58.7599983215332,58.04999923706055,58.5,58.279998779296875,1212700.0,57.27021408081055
2018-10-03,58.619998931884766,57.709999084472656,58.11000061035156,58.040000915527344,1117200.0,57.03437423706055
2018-10-04,58.150001525878906,57.52000045776367,57.97999954223633,58.0099983215332,1588800.0,57.00489044189453
2018-10-05,58.22999954223633,57.5,57.90999984741211,58.02000045776367,1044800.0,57.01472091674805
2018-10-08,58.9900016784668,57.150001525878906,57.900001525878906,58.68000030517578,1349400.0,57.66328430175781
2018-10-09,58.36000061035156,57.470001220703125,57.900001525878906,57.58000183105469,1219900.0,56.58234405517578
2018-10-10,57.529998779296875,54.900001525878906,57.220001220703125,54.93000030517578,2492400.0,53.97825622558594
2018-10-11,55.099998474121094,53.93000030517578,54.41999816894531,54.060001373291016,2115700.0,53.12333297729492
2018-10-12,54.79999923706055,53.72999954223633,54.689998626708984,54.06999969482422,1680600.0,53.13315963745117
2018-10-15,54.40999984741211,53.55500030517578,53.630001068115234,53.880001068115234,1358900.0,52.946449279785156
2018-10-16,55.849998474121094,53.75,54.04999923706055,55.779998779296875,2065600.0,54.81352996826172
2018-10-17,56.0,55.13999938964844,55.630001068115234,55.65999984741211,2045600.0,54.69561004638672
2018-10-18,55.45000076293945,54.130001068115234,55.33000183105469,54.540000915527344,1376400.0,53.59501647949219
2018-10-19,56.66999816894531,54.95000076293945,54.95000076293945,55.84000015258789,3001900.0,54.87248992919922
2018-10-22,56.06999969482422,54.45000076293945,55.790000915527344,54.58000183105469,1573300.0,53.63432693481445
2018-10-23,54.0099983215332,52.18000030517578,53.7599983215332,52.790000915527344,1867500.0,51.87533950805664
2018-10-24,52.790000915527344,50.599998474121094,52.790000915527344,50.70000076293945,2575000.0,49.82154846191406
2018-10-25,52.20000076293945,50.83000183105469,51.029998779296875,51.369998931884766,1857500.0,50.479942321777344
2018-10-26,52.5099983215332,50.4900016784668,50.849998474121094,51.70000076293945,1958300.0,50.80422592163086
2018-10-29,52.31999969482422,50.540000915527344,52.08000183105469,51.0099983215332,1265100.0,50.12617874145508
2018-10-30,51.86000061035156,50.54999923706055,51.029998779296875,51.779998779296875,1432000.0,50.882835388183594
2018-10-31,53.5,52.224998474121094,52.5,52.93000030517578,2008700.0,52.01291275024414
2018-11-01,55.22999954223633,53.41999816894531,53.720001220703125,55.18000030517578,1776800.0,54.22392654418945
2018-11-02,55.880001068115234,54.93000030517578,55.5,55.16999816894531,1531900.0,54.2140998840332
2018-11-05,55.79999923706055,53.599998474121094,55.09000015258789,54.20000076293945,2586000.0,53.26090621948242
2018-11-06,57.33000183105469,55.5,55.56999969482422,56.97999954223633,3612900.0,55.992740631103516
2018-11-07,57.970001220703125,56.720001220703125,57.4900016784668,57.45000076293945,1734700.0,56.45459747314453
2018-11-08,57.70000076293945,56.132999420166016,57.369998931884766,56.540000915527344,1883800.0,55.56036376953125
2018-11-09,56.65999984741211,55.79999923706055,56.04999923706055,56.150001525878906,1040700.0,55.1771240234375
2018-11-12,56.15999984741211,54.68000030517578,56.15999984741211,55.06999969482422,906900.0,54.11582946777344
2018-11-13,55.83000183105469,54.27000045776367,55.0099983215332,54.52000045776367,841700.0,53.57536315917969
2018-11-14,54.61000061035156,52.06700134277344,54.349998474121094,52.47999954223633,2260700.0,51.570709228515625
2018-11-15,54.029998779296875,52.040000915527344,52.33000183105469,53.529998779296875,1675100.0,52.602516174316406
2018-11-16,54.02000045776367,53.0,53.15999984741211,53.75,695500.0,52.81870651245117
2018-11-19,53.75,52.18000030517578,53.599998474121094,52.2400016784668,1170600.0,51.334869384765625
2018-11-20,51.59000015258789,50.11000061035156,51.529998779296875,50.77000045776367,1595500.0,49.89033889770508
2018-11-21,51.810001373291016,51.154998779296875,51.54999923706055,51.220001220703125,1141800.0,50.33253860473633
2018-11-23,51.75,50.599998474121094,51.25,50.630001068115234,586900.0,49.75276565551758
2018-11-26,51.61000061035156,50.79999923706055,51.18000030517578,51.61000061035156,1356300.0,50.715782165527344
2018-11-27,51.43000030517578,50.400001525878906,51.209999084472656,50.619998931884766,1140300.0,49.7429313659668
2018-11-28,51.06999969482422,49.849998474121094,50.79999923706055,50.97999954223633,1620400.0,50.09669876098633
2018-11-29,51.959999084472656,50.84000015258789,50.84000015258789,51.349998474121094,1185300.0,50.46028518676758
2018-11-30,51.7400016784668,50.689998626708984,51.18000030517578,51.560001373291016,1765600.0,50.666648864746094
2018-12-03,52.880001068115234,51.27000045776367,52.61000061035156,52.279998779296875,2287300.0,51.374176025390625
2018-12-04,52.47999954223633,51.040000915527344,52.040000915527344,51.209999084472656,1716700.0,50.32271194458008
2018-12-06,51.75,50.099998474121094,51.25,51.72999954223633,2134700.0,50.83370590209961
2018-12-07,52.91999816894531,49.099998474121094,51.91999816894531,49.86000061035156,2253100.0,48.9961051940918
2018-12-10,49.90999984741211,48.11000061035156,49.439998626708984,48.880001068115234,1630500.0,48.033084869384766
2018-12-11,50.189998626708984,47.689998626708984,49.790000915527344,47.900001525878906,2172700.0,47.070064544677734
2018-12-12,48.869998931884766,47.5099983215332,48.20000076293945,47.58000183105469,2400500.0,46.75560760498047
2018-12-13,48.31999969482422,47.0,47.849998474121094,47.02000045776367,1589500.0,46.2053108215332
2018-12-14,47.5,46.52000045776367,46.59000015258789,46.97999954223633,2004800.0,46.1660041809082
2018-12-17,47.369998931884766,45.31999969482422,47.0,45.59000015258789,1849400.0,44.800086975097656
2018-12-18,46.63999938964844,45.470001220703125,45.869998931884766,45.63999938964844,2133200.0,44.849220275878906
2018-12-19,47.130001068115234,45.279998779296875,45.720001220703125,45.43000030517578,1867700.0,44.642860412597656
2018-12-20,46.323001861572266,44.41999816894531,45.54999923706055,45.029998779296875,2830300.0,44.24979019165039
2018-12-21,45.86000061035156,44.5,45.13999938964844,44.75,3921600.0,43.974639892578125
2018-12-24,45.36000061035156,44.08000183105469,44.27000045776367,44.150001525878906,1084300.0,43.38503646850586
2018-12-26,46.40999984741211,43.959999084472656,44.400001525878906,46.40999984741211,1131900.0,45.60588073730469
2018-12-27,47.36000061035156,45.16999816894531,45.54999923706055,47.290000915527344,2297300.0,46.47063446044922
2018-12-28,47.25,45.959999084472656,47.16999816894531,46.20000076293945,1657000.0,45.81611633300781
2018-12-31,47.18600082397461,46.380001068115234,46.52000045776367,47.0,1398600.0,46.609466552734375
2019-01-02,46.9900016784668,45.85499954223633,46.209999084472656,46.2599983215332,1289100.0,45.875614166259766
2019-01-03,46.099998474121094,44.882999420166016,46.0,45.04999923706055,1158800.0,44.6756706237793
2019-01-04,47.18000030517578,45.880001068115234,45.95000076293945,47.130001068115234,1538500.0,46.73838806152344
2019-01-07,48.11000061035156,46.84000015258789,47.310001373291016,47.7400016784668,954700.0,47.34332275390625
2019-01-08,49.47999954223633,48.52000045776367,48.709999084472656,49.209999084472656,1921800.0,48.80110549926758
2019-01-09,49.689998626708984,48.779998779296875,49.689998626708984,49.40999984741211,1839700.0,48.99944305419922
2019-01-10,50.08000183105469,48.560001373291016,49.06999969482422,50.04999923706055,1808100.0,49.634124755859375
2019-01-11,50.13999938964844,49.279998779296875,49.79999923706055,49.869998931884766,826500.0,49.45561981201172
2019-01-14,50.130001068115234,49.20000076293945,49.43000030517578,49.68000030517578,763400.0,49.2672004699707
2019-01-15,50.15999984741211,49.20000076293945,49.869998931884766,49.66999816894531,898100.0,49.25728225708008
2019-01-16,49.97999954223633,48.880001068115234,49.52000045776367,49.56999969482422,1456900.0,49.158111572265625
2019-01-17,51.119998931884766,49.310001373291016,49.459999084472656,51.0,1327900.0,50.57623291015625
2019-01-18,51.720001220703125,50.64500045776367,51.09000015258789,51.290000915527344,1298000.0,50.86382293701172
2019-01-22,51.45000076293945,50.369998931884766,51.29999923706055,50.810001373291016,1795000.0,50.38780975341797
2019-01-23,51.15999984741211,50.23500061035156,50.81999969482422,50.61000061035156,956400.0,50.18947219848633
2019-01-24,51.439998626708984,50.4900016784668,50.4900016784668,50.959999084472656,1551600.0,50.536563873291016
2019-01-25,51.900001525878906,51.09000015258789,51.459999084472656,51.65999984741211,1562300.0,51.23074722290039
2019-01-28,51.88999938964844,50.474998474121094,51.099998474121094,51.5,1492200.0,51.072078704833984
2019-01-29,51.900001525878906,51.2599983215332,51.7400016784668,51.61000061035156,1162600.0,51.1811637878418
2019-01-30,52.52000045776367,51.540000915527344,51.709999084472656,52.04999923706055,1281100.0,51.61750793457031
2019-01-31,52.470001220703125,51.45000076293945,51.75,51.81999969482422,2238200.0,51.38941955566406
2019-02-01,52.5,51.689998626708984,52.0,52.209999084472656,1163900.0,51.77617645263672
2019-02-04,52.38999938964844,51.880001068115234,52.16999816894531,52.06999969482422,1035000.0,51.6373405456543
2019-02-05,52.28499984741211,51.41999816894531,52.02000045776367,51.959999084472656,1726400.0,51.528255462646484
2019-02-06,52.5099983215332,51.5,51.5,51.810001373291016,1866800.0,51.37950134277344
2019-02-07,52.619998931884766,50.209999084472656,51.4900016784668,52.310001373291016,2990900.0,51.87534713745117
2019-02-08,52.665000915527344,51.369998931884766,52.060001373291016,52.65999984741211,2450400.0,52.22243881225586
2019-02-11,52.790000915527344,51.880001068115234,52.75,52.099998474121094,1251200.0,51.667091369628906
2019-02-12,54.20000076293945,52.65999984741211,52.65999984741211,53.91999816894531,1982900.0,53.47196578979492
2019-02-13,54.279998779296875,53.650001525878906,53.93000030517578,54.09000015258789,1512000.0,53.64055633544922
2019-02-14,54.369998931884766,53.560001373291016,53.7400016784668,53.83000183105469,1041300.0,53.38271713256836
2019-02-15,54.06999969482422,53.275001525878906,54.029998779296875,53.439998626708984,1206300.0,52.99595642089844
2019-02-19,53.38999938964844,52.505001068115234,53.130001068115234,53.349998474121094,1590700.0,52.90670394897461
2019-02-20,54.86000061035156,53.33000183105469,53.40999984741211,54.459999084472656,1492800.0,54.00748062133789
2019-02-21,54.81999969482422,53.814998626708984,54.790000915527344,54.16999816894531,1239700.0,53.71989059448242
2019-02-22,54.939998626708984,53.959999084472656,54.43000030517578,54.189998626708984,1632900.0,53.739723205566406
2019-02-25,55.04999923706055,54.470001220703125,54.47999954223633,54.86000061035156,1408300.0,54.40415954589844
2019-02-26,55.630001068115234,54.72999954223633,54.849998474121094,55.02000045776367,1416400.0,54.562828063964844
2019-02-27,56.0,54.939998626708984,55.029998779296875,55.56999969482422,1404000.0,55.10825729370117
2019-02-28,55.33000183105469,54.21500015258789,55.06999969482422,54.439998626708984,1380400.0,53.987648010253906
2019-03-01,54.869998931884766,54.150001525878906,54.5,54.68000030517578,1722700.0,54.22565460205078
2019-03-04,55.209999084472656,54.2400016784668,54.79999923706055,55.119998931884766,1711700.0,54.66199493408203
2019-03-05,55.209999084472656,54.27000045776367,54.81999969482422,54.33000183105469,1628200.0,53.878562927246094
2019-03-06,54.4900016784668,53.880001068115234,54.18000030517578,54.06999969482422,1404700.0,53.620723724365234
2019-03-07,54.040000915527344,52.380001068115234,53.83000183105469,52.560001373291016,2951800.0,52.12327194213867
2019-03-08,53.0,52.13999938964844,52.18000030517578,52.84000015258789,1686600.0,52.400943756103516
2019-03-11,53.5099983215332,52.84000015258789,52.97999954223633,53.40999984741211,1278600.0,52.96620559692383
2019-03-12,54.04999923706055,53.415000915527344,53.529998779296875,53.70000076293945,1550200.0,53.2537956237793
2019-03-13,54.540000915527344,53.018001556396484,54.06999969482422,53.90999984741211,1659400.0,53.46205139160156
2019-03-14,54.150001525878906,53.45000076293945,53.869998931884766,53.65999984741211,2890500.0,53.21413040161133
2019-03-15,54.4900016784668,53.26499938964844,53.9900016784668,53.5,3231300.0,53.055458068847656
2019-03-18,53.790000915527344,53.290000915527344,53.47999954223633,53.709999084472656,1998100.0,53.26371383666992
2019-03-19,54.20000076293945,53.52000045776367,54.0,53.7599983215332,2175700.0,53.313297271728516
2019-03-20,54.08000183105469,52.880001068115234,53.59000015258789,53.5,1887600.0,53.055458068847656
2019-03-21,53.4900016784668,52.79999923706055,52.970001220703125,53.16999816894531,2233900.0,52.72819900512695
2019-03-22,52.66999816894531,50.43000030517578,52.650001525878906,50.470001220703125,3003900.0,50.050636291503906
2019-03-25,51.1349983215332,50.11000061035156,50.349998474121094,50.560001373291016,2063300.0,50.139888763427734
2019-03-26,51.34000015258789,50.7400016784668,51.02000045776367,51.11000061035156,2018200.0,50.68531799316406
2019-03-27,51.95000076293945,50.88999938964844,50.90999984741211,51.75,1542400.0,51.31999969482422
2019-03-28,52.54999923706055,51.52000045776367,51.70000076293945,52.09000015258789,1417800.0,52.09000015258789
2019-03-29,52.959999084472656,52.150001525878906,52.439998626708984,52.7599983215332,1548900.0,52.7599983215332
2019-04-01,53.52000045776367,52.689998626708984,53.189998626708984,53.38999938964844,1333300.0,53.38999938964844
2019-04-02,53.63999938964844,53.095001220703125,53.540000915527344,53.369998931884766,1336900.0,53.369998931884766
2019-04-03,54.527000427246094,53.59000015258789,53.599998474121094,53.95000076293945,1061100.0,53.95000076293945
2019-04-04,54.56999969482422,53.84000015258789,53.90999984741211,54.439998626708984,965200.0,54.439998626708984
2019-04-05,54.779998779296875,53.915000915527344,54.349998474121094,54.06999969482422,1344500.0,54.06999969482422
2019-04-08,54.380001068115234,53.69499969482422,54.16999816894531,54.06999969482422,1170000.0,54.06999969482422
2019-04-09,54.040000915527344,52.95000076293945,54.040000915527344,53.279998779296875,1585500.0,53.279998779296875
2019-04-10,53.66999816894531,53.0,53.47999954223633,53.02000045776367,1395000.0,53.02000045776367
2019-04-11,52.880001068115234,52.040000915527344,52.83000183105469,52.220001220703125,1940300.0,52.220001220703125
2019-04-12,52.650001525878906,51.58000183105469,52.650001525878906,52.130001068115234,1992400.0,52.130001068115234
2019-04-15,53.2400016784668,52.099998474121094,52.189998626708984,53.029998779296875,1289300.0,53.029998779296875
2019-04-16,53.5620002746582,52.9900016784668,53.0,53.29999923706055,1183300.0,53.29999923706055
2019-04-17,53.970001220703125,53.275001525878906,53.59000015258789,53.84000015258789,1687200.0,53.84000015258789
2019-04-18,54.084999084472656,53.459999084472656,53.560001373291016,54.02000045776367,1215700.0,54.02000045776367
2019-04-22,54.2400016784668,53.540000915527344,53.880001068115234,53.810001373291016,1153900.0,53.810001373291016
2019-04-23,54.119998931884766,53.19300079345703,53.5099983215332,54.040000915527344,1252300.0,54.040000915527344
2019-04-24,53.84000015258789,52.78499984741211,53.84000015258789,52.9900016784668,1405300.0,52.9900016784668
2019-04-25,53.459999084472656,52.84000015258789,52.84000015258789,53.11000061035156,1066900.0,53.11000061035156
2019-04-26,53.85499954223633,52.970001220703125,53.31999969482422,53.790000915527344,1145800.0,53.790000915527344
2019-04-29,53.91999816894531,53.41999816894531,53.779998779296875,53.72999954223633,1311900.0,53.72999954223633
2019-04-30,54.34000015258789,53.369998931884766,53.709999084472656,54.18000030517578,1077500.0,54.18000030517578
2019-05-01,54.47999954223633,53.45000076293945,54.31999969482422,53.63999938964844,1420200.0,53.63999938964844
2019-05-02,54.41999816894531,52.43000030517578,53.47999954223633,52.7400016784668,1893100.0,52.7400016784668
2019-05-03,54.18000030517578,52.93000030517578,52.93000030517578,53.9900016784668,1684400.0,53.9900016784668
2019-05-06,53.79999923706055,52.68000030517578,52.880001068115234,53.29999923706055,1567100.0,53.29999923706055
2019-05-07,53.130001068115234,51.099998474121094,52.66999816894531,51.34000015258789,3283900.0,51.34000015258789
2019-05-08,51.80500030517578,51.06999969482422,51.33000183105469,51.61000061035156,2176000.0,51.61000061035156
2019-05-09,51.13999938964844,50.27000045776367,51.11000061035156,50.599998474121094,2907900.0,50.599998474121094
2019-05-10,52.93000030517578,49.71500015258789,50.29999923706055,52.130001068115234,3043400.0,52.130001068115234
2019-05-13,51.33000183105469,49.90999984741211,51.33000183105469,50.09000015258789,2583600.0,50.09000015258789
2019-05-14,50.54999923706055,49.56999969482422,50.439998626708984,49.83000183105469,1979300.0,49.83000183105469
2019-05-15,50.7599983215332,49.599998474121094,49.70000076293945,50.40999984741211,967000.0,50.40999984741211
2019-05-16,50.790000915527344,49.97999954223633,50.65999984741211,50.029998779296875,2059900.0,50.029998779296875
2019-05-17,49.849998474121094,49.32500076293945,49.75,49.400001525878906,1494600.0,49.400001525878906
2019-05-20,49.20000076293945,48.400001525878906,49.0,48.470001220703125,3113300.0,48.470001220703125
2019-05-21,49.01499938964844,48.20000076293945,48.709999084472656,48.90999984741211,1587300.0,48.90999984741211
2019-05-22,49.16999816894531,48.380001068115234,48.90999984741211,48.38999938964844,1128300.0,48.38999938964844
2019-05-23,47.84000015258789,46.869998931884766,47.56999969482422,47.34000015258789,1813900.0,47.34000015258789
2019-05-24,48.18000030517578,47.41999816894531,47.880001068115234,48.16999816894531,2235500.0,48.16999816894531
