Date,High,Low,Open,Close,Volume,Adj Close
2018-04-24,23.440000534057617,22.510000228881836,23.010000228881836,22.510000228881836,78900.0,21.91536521911621
2018-04-25,24.0,22.760000228881836,23.100000381469727,23.020000457763672,25400.0,22.411893844604492
2018-04-26,23.25,22.75,22.75,23.25,2400.0,22.635820388793945
2018-04-27,23.459999084472656,22.760000228881836,22.93000030517578,22.850000381469727,332700.0,22.246387481689453
2018-05-02,24.0,22.049999237060547,22.600000381469727,22.760000228881836,10724600.0,22.158763885498047
2018-05-03,24.280000686645508,22.549999237060547,22.549999237060547,23.510000228881836,4972800.0,22.88895034790039
2018-05-04,26.0,22.809999465942383,23.450000762939453,24.899999618530273,5699200.0,24.242231369018555
2018-05-07,26.34000015258789,24.3799991607666,24.440000534057617,25.34000015258789,4655100.0,24.670608520507812
2018-05-08,25.219999313354492,23.65999984741211,24.75,24.6299991607666,6368500.0,23.9793643951416
2018-05-09,24.889999389648438,24.209999084472656,24.3799991607666,24.479999542236328,3007400.0,23.833324432373047
2018-05-10,25.75,24.5,24.709999084472656,24.979999542236328,4279900.0,24.320119857788086
2018-05-11,25.924999237060547,25.020000457763672,25.100000381469727,25.59000015258789,2403000.0,24.914005279541016
2018-05-14,26.0,25.111000061035156,26.0,25.649999618530273,1077800.0,24.97241973876953
2018-05-15,25.899999618530273,24.920000076293945,25.829999923706055,25.239999771118164,1455000.0,24.57324981689453
2018-05-16,25.25,24.81999969482422,25.149999618530273,24.959999084472656,2180300.0,24.30064582824707
2018-05-17,25.15999984741211,24.649999618530273,24.739999771118164,24.989999771118164,1132800.0,24.32985496520996
2018-05-18,25.3700008392334,24.950000762939453,24.950000762939453,25.280000686645508,1895000.0,24.612194061279297
2018-05-21,25.6299991607666,25.139999389648438,25.280000686645508,25.459999084472656,1458400.0,24.787439346313477
2018-05-22,26.360000610351562,25.309999465942383,25.670000076293945,26.010000228881836,1555300.0,25.32291030883789
2018-05-23,26.299999237060547,25.520000457763672,25.75,26.299999237060547,887600.0,25.605249404907227
2018-05-24,26.770000457763672,25.93000030517578,26.1299991607666,26.56999969482422,1611100.0,25.86811637878418
2018-05-25,26.690000534057617,26.079999923706055,26.459999084472656,26.360000610351562,969600.0,25.663665771484375
2018-05-29,27.09000015258789,26.1200008392334,26.329999923706055,26.600000381469727,1520000.0,25.89732551574707
2018-05-30,27.860000610351562,26.1299991607666,26.700000762939453,26.729999542236328,2298400.0,26.023889541625977
2018-05-31,27.190000534057617,26.530000686645508,26.700000762939453,27.079999923706055,2188700.0,26.364643096923828
2018-06-01,27.440000534057617,26.780000686645508,27.15999984741211,26.799999237060547,1368400.0,26.092039108276367
2018-06-04,28.209999084472656,26.799999237060547,26.889999389648438,27.6299991607666,1143500.0,26.900115966796875
2018-06-05,28.899999618530273,27.469999313354492,27.700000762939453,28.479999542236328,1679300.0,27.7276611328125
2018-06-06,28.93000030517578,28.030000686645508,28.479999542236328,28.100000381469727,672500.0,27.35770034790039
2018-06-07,28.260000228881836,26.940000534057617,28.139999389648438,27.459999084472656,1076600.0,26.734603881835938
2018-06-08,27.84000015258789,27.059999465942383,27.329999923706055,27.479999542236328,1279700.0,26.754077911376953
2018-06-11,27.81999969482422,26.8700008392334,27.459999084472656,27.459999084472656,1270700.0,26.734603881835938
2018-06-12,27.610000610351562,26.8700008392334,27.459999084472656,27.0,1312800.0,26.28675651550293
2018-06-13,27.3700008392334,26.940000534057617,27.1299991607666,27.110000610351562,1363600.0,26.39385223388672
2018-06-14,27.149999618530273,25.959999084472656,27.149999618530273,26.739999771118164,1574800.0,26.03362464904785
2018-06-15,27.0,26.399999618530273,26.489999771118164,26.799999237060547,3085600.0,26.092039108276367
2018-06-18,27.21500015258789,26.299999237060547,26.59000015258789,26.899999618530273,1116500.0,26.18939971923828
2018-06-19,27.350000381469727,26.440000534057617,26.6200008392334,27.280000686645508,1419400.0,26.559362411499023
2018-06-20,27.43000030517578,26.889999389648438,27.299999237060547,27.06999969482422,1953400.0,26.354907989501953
2018-06-21,27.389999389648438,26.799999237060547,26.979999542236328,27.15999984741211,1243000.0,26.44253158569336
2018-06-22,27.40999984741211,26.389999389648438,27.40999984741211,26.790000915527344,1760600.0,26.082307815551758
2018-06-25,26.84000015258789,25.600000381469727,26.760000228881836,25.65999984741211,1200200.0,24.982152938842773
2018-06-26,25.790000915527344,25.229999542236328,25.600000381469727,25.31999969482422,910300.0,24.65113639831543
2018-06-27,25.850000381469727,24.81999969482422,25.290000915527344,24.969999313354492,847000.0,24.310382843017578
2018-06-28,24.959999084472656,24.360000610351562,24.959999084472656,24.81999969482422,949200.0,24.164344787597656
2018-06-29,25.239999771118164,24.78499984741211,24.81999969482422,25.100000381469727,783800.0,24.436948776245117
2018-07-02,25.149999618530273,24.329999923706055,25.040000915527344,24.760000228881836,864400.0,24.10593032836914
2018-07-03,25.200000762939453,24.670000076293945,24.889999389648438,24.770000457763672,407800.0,24.115665435791016
2018-07-05,24.940000534057617,24.5,24.8799991607666,24.75,628500.0,24.096195220947266
2018-07-06,24.889999389648438,24.42300033569336,24.709999084472656,24.68000030517578,417200.0,24.028045654296875
2018-07-09,25.59000015258789,24.594999313354492,24.6200008392334,25.59000015258789,852900.0,24.914005279541016
2018-07-10,25.670000076293945,25.0,25.6299991607666,25.110000610351562,984700.0,24.446687698364258
2018-07-11,25.059999465942383,24.139999389648438,24.950000762939453,24.270000457763672,711900.0,23.628875732421875
2018-07-12,24.75,24.209999084472656,24.290000915527344,24.350000381469727,846900.0,23.706758499145508
2018-07-13,25.690000534057617,24.290000915527344,24.489999771118164,24.989999771118164,1240900.0,24.32985496520996
2018-07-16,25.15999984741211,24.670000076293945,24.989999771118164,24.860000610351562,782800.0,24.203289031982422
2018-07-17,25.030000686645508,24.15999984741211,24.799999237060547,24.530000686645508,999400.0,23.882007598876953
2018-07-18,25.190000534057617,24.31999969482422,24.479999542236328,24.93000030517578,925700.0,24.271438598632812
2018-07-19,25.690000534057617,24.690000534057617,24.760000228881836,25.329999923706055,841700.0,24.660873413085938
2018-07-20,25.399999618530273,24.510000228881836,25.280000686645508,24.59000015258789,734400.0,23.94042205810547
2018-07-23,25.575000762939453,24.600000381469727,24.700000762939453,25.229999542236328,760100.0,24.563512802124023
2018-07-24,25.860000610351562,25.260000228881836,25.399999618530273,25.450000762939453,1001500.0,24.7777042388916
2018-07-25,27.219999313354492,25.43000030517578,25.43000030517578,26.829999923706055,3001100.0,26.121248245239258
2018-07-26,28.25,26.579999923706055,27.139999389648438,27.200000762939453,3198900.0,26.481475830078125
2018-07-27,27.59000015258789,26.469999313354492,27.3700008392334,26.920000076293945,1959500.0,26.208871841430664
2018-07-30,27.440000534057617,26.68000030517578,26.979999542236328,26.920000076293945,2130900.0,26.208871841430664
2018-07-31,27.75,26.969999313354492,27.170000076293945,27.399999618530273,7264800.0,26.676191329956055
2018-08-01,27.600000381469727,26.959999084472656,27.549999237060547,27.229999542236328,833800.0,26.51068115234375
2018-08-02,27.354999542236328,26.850000381469727,26.850000381469727,27.239999771118164,603600.0,26.69196128845215
2018-08-03,28.18000030517578,26.989999771118164,27.200000762939453,28.059999465942383,917400.0,27.49546241760254
2018-08-06,28.8700008392334,27.989999771118164,28.1200008392334,28.540000915527344,1357000.0,27.965808868408203
2018-08-07,29.84000015258789,28.559999465942383,28.559999465942383,28.989999771118164,1503500.0,28.40675163269043
2018-08-08,28.889999389648438,28.239999771118164,28.889999389648438,28.520000457763672,1029700.0,27.946208953857422
2018-08-09,28.6200008392334,27.979999542236328,28.479999542236328,28.459999084472656,726600.0,27.887414932250977
2018-08-10,28.440000534057617,27.84000015258789,28.389999389648438,27.950000762939453,599300.0,27.387676239013672
2018-08-13,28.170000076293945,27.1299991607666,28.170000076293945,27.190000534057617,318600.0,26.642967224121094
2018-08-14,27.530000686645508,27.040000915527344,27.260000228881836,27.25,248500.0,26.701757431030273
2018-08-15,27.3799991607666,26.209999084472656,27.040000915527344,26.8799991607666,1007300.0,26.339202880859375
2018-08-16,27.450000762939453,26.75,27.079999923706055,27.209999084472656,572300.0,26.66256332397461
2018-08-17,27.350000381469727,27.010000228881836,27.219999313354492,27.299999237060547,412000.0,26.75075340270996
2018-08-20,27.915000915527344,27.290000915527344,27.3799991607666,27.389999389648438,283900.0,26.838943481445312
2018-08-21,27.93000030517578,27.440000534057617,27.5,27.899999618530273,568400.0,27.338682174682617
2018-08-22,28.149999618530273,27.739999771118164,27.739999771118164,28.1200008392334,468600.0,27.554256439208984
2018-08-23,28.30500030517578,27.809999465942383,28.0,28.0,446600.0,27.436670303344727
2018-08-24,28.229999542236328,27.75,27.950000762939453,27.979999542236328,312100.0,27.41707420349121
2018-08-27,28.260000228881836,27.920000076293945,27.959999084472656,28.06999969482422,298700.0,27.50526237487793
2018-08-28,28.75,27.889999389648438,28.100000381469727,27.959999084472656,714600.0,27.39747428894043
2018-08-29,28.81999969482422,27.56999969482422,27.8799991607666,28.729999542236328,732900.0,28.151981353759766
2018-08-30,28.780000686645508,27.8700008392334,28.559999465942383,28.079999923706055,691000.0,27.515060424804688
2018-08-31,28.200000762939453,27.579999923706055,27.950000762939453,28.09000015258789,476000.0,27.524860382080078
2018-09-04,28.3700008392334,27.549999237060547,28.079999923706055,28.239999771118164,530300.0,27.67184066772461
2018-09-05,28.524999618530273,27.809999465942383,28.100000381469727,28.440000534057617,480100.0,27.86781883239746
2018-09-06,28.729999542236328,28.239999771118164,28.559999465942383,28.600000381469727,629700.0,28.02459716796875
2018-09-07,28.56999969482422,27.670000076293945,28.40999984741211,27.940000534057617,616800.0,27.377878189086914
2018-09-10,29.016000747680664,28.0,28.079999923706055,28.31999969482422,862100.0,27.750232696533203
2018-09-11,28.360000610351562,27.790000915527344,28.100000381469727,28.110000610351562,508400.0,27.544458389282227
2018-09-12,28.450000762939453,27.670000076293945,28.0,28.09000015258789,255400.0,27.524860382080078
2018-09-13,28.600000381469727,27.940000534057617,28.260000228881836,28.06999969482422,1016600.0,27.50526237487793
2018-09-14,28.540000915527344,27.979999542236328,28.1299991607666,28.40999984741211,673400.0,27.838422775268555
2018-09-17,28.760000228881836,27.860000610351562,28.3700008392334,28.549999237060547,703300.0,27.975605010986328
2018-09-18,28.799999237060547,28.25,28.3799991607666,28.649999618530273,586200.0,28.073591232299805
2018-09-19,29.309999465942383,28.469999313354492,28.6200008392334,29.229999542236328,590500.0,28.641923904418945
2018-09-20,29.649999618530273,28.780000686645508,29.450000762939453,29.18000030517578,628000.0,28.59292984008789
2018-09-21,29.579999923706055,28.979999542236328,29.09000015258789,29.420000076293945,1627900.0,28.828102111816406
2018-09-24,29.579999923706055,28.670000076293945,29.350000381469727,29.3700008392334,648700.0,28.77910804748535
2018-09-25,29.639999389648438,28.489999771118164,29.440000534057617,28.56999969482422,836100.0,27.995203018188477
2018-09-26,28.56999969482422,27.5,28.56999969482422,27.56999969482422,1747900.0,27.015321731567383
2018-09-27,27.780000686645508,26.809999465942383,27.690000534057617,27.0,6707100.0,26.456789016723633
2018-09-28,27.25,26.75,26.889999389648438,27.15999984741211,1479700.0,26.613567352294922
2018-10-01,27.909000396728516,27.299999237060547,27.299999237060547,27.549999237060547,705500.0,26.995723724365234
2018-10-02,27.68000030517578,26.84000015258789,27.40999984741211,27.0,1068400.0,26.456789016723633
2018-10-03,27.31999969482422,26.239999771118164,27.18000030517578,27.25,772000.0,26.701757431030273
2018-10-04,27.780000686645508,26.969999313354492,27.100000381469727,27.100000381469727,650700.0,26.554779052734375
2018-10-05,27.399999618530273,26.610000610351562,27.100000381469727,26.670000076293945,630100.0,26.13343048095703
2018-10-08,27.299999237060547,26.225000381469727,26.6200008392334,27.290000915527344,568900.0,26.740955352783203
2018-10-09,27.110000610351562,26.520000457763672,27.020000457763672,26.6299991607666,561800.0,26.0942325592041
2018-10-10,26.5,25.75,26.34000015258789,25.780000686645508,696300.0,25.261333465576172
2018-10-11,25.729999542236328,24.520000457763672,25.549999237060547,24.690000534057617,1350900.0,24.19326400756836
2018-10-12,25.149999618530273,23.735000610351562,25.149999618530273,24.1299991607666,935700.0,23.644529342651367
2018-10-15,24.3799991607666,23.899999618530273,24.280000686645508,24.059999465942383,923000.0,23.575939178466797
2018-10-16,25.6299991607666,24.25,24.280000686645508,25.360000610351562,1141500.0,24.84978675842285
2018-10-17,25.90999984741211,25.2549991607666,25.3799991607666,25.520000457763672,1071300.0,25.00656509399414
2018-10-18,25.399999618530273,24.530000686645508,25.149999618530273,24.75,1189200.0,24.419511795043945
2018-10-19,25.030000686645508,24.229999542236328,24.790000915527344,24.399999618530273,2616900.0,24.07418441772461
2018-10-22,24.530000686645508,23.360000610351562,24.469999313354492,23.420000076293945,1259200.0,23.107271194458008
2018-10-23,23.079999923706055,22.1299991607666,22.889999389648438,22.780000686645508,1558600.0,22.47581672668457
2018-10-24,22.75,21.229999542236328,22.649999618530273,21.290000915527344,1952000.0,21.005712509155273
2018-10-25,24.799999237060547,21.299999237060547,21.68000030517578,23.6200008392334,3382700.0,23.30459976196289
2018-10-26,24.670000076293945,23.53499984741211,24.0,23.920000076293945,1933200.0,23.600595474243164
2018-10-29,25.0,23.3700008392334,24.239999771118164,23.639999389648438,1052100.0,23.324331283569336
2018-10-30,24.280000686645508,23.649999618530273,23.690000534057617,24.010000228881836,1091200.0,23.68939208984375
2018-10-31,24.450000762939453,24.0,24.34000015258789,24.420000076293945,2373500.0,24.093917846679688
2018-11-01,25.06999969482422,24.229999542236328,24.350000381469727,24.90999984741211,797700.0,24.577375411987305
2018-11-02,25.469999313354492,24.81999969482422,25.079999923706055,25.420000076293945,843100.0,25.080564498901367
2018-11-05,25.860000610351562,25.170000076293945,25.25,25.399999618530273,653200.0,25.06083106994629
2018-11-06,26.139999389648438,25.170000076293945,25.209999084472656,26.020000457763672,748700.0,25.67255401611328
2018-11-07,26.889999389648438,26.209999084472656,26.3700008392334,26.809999465942383,703800.0,26.452003479003906
2018-11-08,27.06999969482422,26.43000030517578,26.59000015258789,26.520000457763672,468400.0,26.165876388549805
2018-11-09,26.360000610351562,25.690000534057617,26.219999313354492,25.690000534057617,764900.0,25.346960067749023
2018-11-12,25.729999542236328,24.5,25.56999969482422,24.510000228881836,954100.0,24.182716369628906
2018-11-13,24.950000762939453,24.170000076293945,24.520000457763672,24.479999542236328,1299800.0,24.15311622619629
2018-11-14,25.280000686645508,24.43000030517578,24.889999389648438,24.6200008392334,679900.0,24.291248321533203
2018-11-15,24.809999465942383,24.440000534057617,24.489999771118164,24.719999313354492,1207800.0,24.389909744262695
2018-11-16,24.809999465942383,24.229999542236328,24.510000228881836,24.59000015258789,1113200.0,24.261646270751953
2018-11-19,24.780000686645508,24.34000015258789,24.399999618530273,24.56999969482422,657300.0,24.241914749145508
2018-11-20,24.770000457763672,24.09000015258789,24.229999542236328,24.229999542236328,439000.0,23.90645408630371
2018-11-21,24.959999084472656,24.100000381469727,24.1200008392334,24.600000381469727,423700.0,24.271514892578125
2018-11-23,25.450000762939453,24.290000915527344,24.290000915527344,25.200000762939453,351000.0,24.863502502441406
2018-11-26,25.815000534057617,25.280000686645508,25.43000030517578,25.719999313354492,504800.0,25.376558303833008
2018-11-27,25.885000228881836,24.59000015258789,25.540000915527344,24.959999084472656,541400.0,24.626707077026367
2018-11-28,25.329999923706055,24.170000076293945,24.899999618530273,25.010000228881836,848700.0,24.67603874206543
2018-11-29,25.489999771118164,24.700000762939453,24.969999313354492,25.059999465942383,666400.0,24.725370407104492
2018-11-30,25.1200008392334,24.65999984741211,24.979999542236328,25.020000457763672,829800.0,24.68590545654297
2018-12-03,25.860000610351562,24.540000915527344,25.549999237060547,25.299999237060547,668400.0,24.96216583251953
2018-12-04,25.309999465942383,24.06999969482422,25.309999465942383,24.100000381469727,451600.0,23.77819061279297
2018-12-06,24.0,23.0,23.579999923706055,23.670000076293945,1045800.0,23.353933334350586
2018-12-07,24.059999465942383,22.959999084472656,23.56999969482422,23.100000381469727,413400.0,22.79154396057129
2018-12-10,23.25,22.440000534057617,22.950000762939453,22.56999969482422,678500.0,22.26862144470215
2018-12-11,23.260000228881836,22.25,23.030000686645508,22.559999465942383,564400.0,22.258752822875977
2018-12-12,23.510000228881836,22.809999465942383,22.989999771118164,22.84000015258789,425200.0,22.535015106201172
2018-12-13,23.239999771118164,22.270000457763672,23.0,22.540000915527344,486400.0,22.239023208618164
2018-12-14,22.7189998626709,22.34000015258789,22.3700008392334,22.559999465942383,560400.0,22.258752822875977
2018-12-17,22.610000610351562,21.43000030517578,22.530000686645508,21.59000015258789,846500.0,21.301706314086914
2018-12-18,21.860000610351562,20.719999313354492,21.860000610351562,20.950000762939453,1383300.0,20.67025375366211
2018-12-19,21.899999618530273,20.670000076293945,20.989999771118164,20.93000030517578,759800.0,20.65052032470703
2018-12-20,21.149999618530273,20.329999923706055,20.790000915527344,20.850000381469727,1199800.0,20.57158851623535
2018-12-21,21.040000915527344,19.709999084472656,20.979999542236328,20.3700008392334,2111100.0,20.097997665405273
2018-12-24,20.760000228881836,19.8700008392334,20.09000015258789,20.309999465942383,415300.0,20.038799285888672
2018-12-26,21.360000610351562,20.260000228881836,20.31999969482422,21.34000015258789,662200.0,21.055044174194336
2018-12-27,21.510000228881836,20.639999389648438,20.860000610351562,21.5,637800.0,21.212907791137695
2018-12-28,22.350000381469727,21.579999923706055,21.600000381469727,21.979999542236328,655900.0,21.686498641967773
2018-12-31,22.5,21.875,22.049999237060547,22.459999084472656,680200.0,22.16008949279785
2019-01-02,22.75,21.850000381469727,22.6200008392334,22.510000228881836,660800.0,22.209421157836914
2019-01-03,22.399999618530273,21.510000228881836,22.399999618530273,21.649999618530273,488600.0,21.360904693603516
2019-01-04,22.5,21.81999969482422,22.0,22.350000381469727,970400.0,22.051559448242188
2019-01-07,22.65999984741211,21.889999389648438,22.520000457763672,22.079999923706055,1506000.0,21.78516387939453
2019-01-08,23.170000076293945,22.18000030517578,22.3799991607666,22.770000457763672,1231500.0,22.465951919555664
2019-01-09,23.190000534057617,22.6200008392334,23.030000686645508,23.149999618530273,603800.0,22.84087562561035
2019-01-10,23.3799991607666,22.649999618530273,23.010000228881836,23.360000610351562,337800.0,23.048072814941406
2019-01-11,23.3799991607666,23.020000457763672,23.270000457763672,23.25,380400.0,22.93954086303711
2019-01-14,23.600000381469727,22.90999984741211,23.190000534057617,23.3799991607666,496100.0,23.06780433654785
2019-01-15,23.649999618530273,23.139999389648438,23.459999084472656,23.309999465942383,577900.0,22.99873924255371
2019-01-16,23.75,23.270000457763672,23.31999969482422,23.610000610351562,500600.0,23.294734954833984
2019-01-17,24.420000076293945,23.420000076293945,23.420000076293945,24.100000381469727,757700.0,23.77819061279297
2019-01-18,24.844999313354492,23.979999542236328,24.360000610351562,24.65999984741211,597600.0,24.330713272094727
2019-01-22,24.93000030517578,24.079999923706055,24.360000610351562,24.389999389648438,988200.0,24.06431770324707
2019-01-23,24.75,24.030000686645508,24.479999542236328,24.43000030517578,583700.0,24.103784561157227
2019-01-24,24.530000686645508,24.010000228881836,24.260000228881836,24.270000457763672,450800.0,24.118690490722656
2019-01-25,24.954999923706055,24.424999237060547,24.6200008392334,24.90999984741211,569700.0,24.754701614379883
2019-01-28,24.850000381469727,24.270000457763672,24.549999237060547,24.65999984741211,1392600.0,24.50625991821289
2019-01-29,24.979999542236328,24.68000030517578,24.81999969482422,24.809999465942383,889700.0,24.655323028564453
2019-01-30,25.309999465942383,24.860000610351562,25.0,24.989999771118164,1598700.0,24.83420181274414
2019-01-31,25.299999237060547,23.68000030517578,24.899999618530273,25.020000457763672,2695600.0,24.864015579223633
2019-02-01,25.790000915527344,24.825000762939453,25.1200008392334,24.940000534057617,962600.0,24.784513473510742
2019-02-04,25.514999389648438,24.8799991607666,24.899999618530273,25.40999984741211,739900.0,25.251583099365234
2019-02-05,25.579999923706055,25.0,25.299999237060547,25.100000381469727,1122000.0,24.943517684936523
2019-02-06,25.26099967956543,24.90999984741211,25.030000686645508,25.0,2048700.0,24.844139099121094
2019-02-07,25.350000381469727,24.760000228881836,24.850000381469727,25.100000381469727,2098300.0,24.943517684936523
2019-02-08,25.489999771118164,24.920000076293945,24.989999771118164,25.399999618530273,1068500.0,25.24164581298828
2019-02-11,25.860000610351562,25.309999465942383,25.450000762939453,25.68000030517578,890000.0,25.519901275634766
2019-02-12,26.309999465942383,25.540000915527344,25.809999465942383,26.020000457763672,905100.0,25.85778045654297
2019-02-13,26.479999542236328,26.030000686645508,26.209999084472656,26.309999465942383,923400.0,26.145971298217773
2019-02-14,26.549999237060547,26.049999237060547,26.139999389648438,26.3700008392334,861800.0,26.205598831176758
2019-02-15,26.969999313354492,26.510000228881836,26.600000381469727,26.950000762939453,537000.0,26.781984329223633
2019-02-19,27.15999984741211,26.56999969482422,27.1200008392334,27.0,587800.0,26.8316707611084
2019-02-20,27.649999618530273,26.889999389648438,26.959999084472656,27.43000030517578,794200.0,27.258991241455078
2019-02-21,27.40999984741211,26.84000015258789,27.329999923706055,27.1200008392334,670000.0,26.950923919677734
2019-02-22,27.6299991607666,27.209999084472656,27.209999084472656,27.420000076293945,670900.0,27.249052047729492
2019-02-25,27.770000457763672,27.389999389648438,27.5,27.450000762939453,1403100.0,27.278865814208984
2019-02-26,27.809999465942383,27.299999237060547,27.34000015258789,27.299999237060547,1712500.0,27.12980079650879
2019-02-27,27.600000381469727,27.280000686645508,27.290000915527344,27.440000534057617,619400.0,27.26892852783203
2019-02-28,27.75,27.149999618530273,27.5,27.479999542236328,1201200.0,27.308677673339844
2019-03-01,28.0,27.520000457763672,27.719999313354492,27.770000457763672,678800.0,27.59687042236328
2019-03-04,28.059999465942383,27.229999542236328,27.889999389648438,27.510000228881836,606300.0,27.338491439819336
2019-03-05,27.700000762939453,27.170000076293945,27.40999984741211,27.170000076293945,1112900.0,27.0006103515625
2019-03-06,27.3700008392334,27.059999465942383,27.170000076293945,27.059999465942383,643600.0,26.89129638671875
2019-03-07,27.209999084472656,26.700000762939453,27.020000457763672,26.959999084472656,1208200.0,26.791919708251953
2019-03-08,26.989999771118164,26.584999084472656,26.65999984741211,26.719999313354492,739100.0,26.553415298461914
2019-03-11,27.239999771118164,26.670000076293945,26.670000076293945,26.969999313354492,747600.0,26.801856994628906
2019-03-12,27.165000915527344,26.899999618530273,27.010000228881836,27.0,443300.0,26.8316707611084
2019-03-13,27.520000457763672,26.969999313354492,27.079999923706055,27.469999313354492,887700.0,27.29874038696289
2019-03-14,27.399999618530273,27.0,27.399999618530273,27.15999984741211,959400.0,26.990673065185547
2019-03-15,27.399999618530273,26.899999618530273,27.06999969482422,27.010000228881836,2828900.0,26.84160804748535
2019-03-18,27.34000015258789,26.940000534057617,27.100000381469727,27.260000228881836,2094700.0,27.090049743652344
2019-03-19,27.770000457763672,27.190000534057617,27.389999389648438,27.229999542236328,803400.0,27.06023597717285
2019-03-20,27.360000610351562,26.780000686645508,27.139999389648438,26.940000534057617,854300.0,26.772045135498047
2019-03-21,27.200000762939453,26.739999771118164,26.739999771118164,26.940000534057617,620800.0,26.772045135498047
2019-03-22,26.850000381469727,25.729999542236328,26.739999771118164,25.770000457763672,691300.0,25.60934066772461
2019-03-25,26.34000015258789,25.639999389648438,25.729999542236328,26.209999084472656,1462400.0,26.046594619750977
2019-03-26,26.579999923706055,25.809999465942383,26.520000457763672,26.1200008392334,1177200.0,25.9571590423584
2019-03-27,26.739999771118164,26.079999923706055,26.079999923706055,26.579999923706055,956200.0,26.414289474487305
2019-03-28,27.145000457763672,26.6200008392334,26.639999389648438,26.889999389648438,1185400.0,26.72235679626465
2019-03-29,27.420000076293945,26.829999923706055,27.139999389648438,26.979999542236328,599200.0,26.81179428100586
2019-04-01,27.795000076293945,27.18000030517578,27.18000030517578,27.5,652900.0,27.328554153442383
2019-04-02,27.799999237060547,27.299999237060547,27.520000457763672,27.670000076293945,678400.0,27.497493743896484
2019-04-03,28.110000610351562,27.6299991607666,27.8799991607666,27.649999618530273,841400.0,27.477619171142578
2019-04-04,28.110000610351562,27.799999237060547,27.799999237060547,27.959999084472656,750500.0,27.78568458557129
2019-04-05,28.079999923706055,27.709999084472656,27.950000762939453,27.940000534057617,549400.0,27.765811920166016
2019-04-08,27.93000030517578,27.649999618530273,27.8799991607666,27.850000381469727,492000.0,27.676372528076172
2019-04-09,27.719999313354492,27.030000686645508,27.670000076293945,27.09000015258789,524500.0,26.921110153198242
2019-04-10,27.665000915527344,27.0,27.040000915527344,27.209999084472656,1048400.0,27.040361404418945
2019-04-11,27.979999542236328,27.200000762939453,27.200000762939453,27.799999237060547,2885900.0,27.62668228149414
2019-04-12,28.34000015258789,27.559999465942383,27.979999542236328,28.0,1315300.0,27.825435638427734
2019-04-15,28.235000610351562,27.780000686645508,27.989999771118164,28.06999969482422,1322200.0,27.895000457763672
2019-04-16,28.149999618530273,27.950000762939453,28.149999618530273,28.06999969482422,1337800.0,27.895000457763672
2019-04-17,28.209999084472656,27.940000534057617,28.110000610351562,28.030000686645508,1643300.0,28.030000686645508
2019-04-18,28.239999771118164,27.989999771118164,28.139999389648438,28.139999389648438,759400.0,28.139999389648438
2019-04-22,28.239999771118164,27.8700008392334,27.8700008392334,28.010000228881836,1029900.0,28.010000228881836
2019-04-23,28.389999389648438,28.0,28.020000457763672,28.200000762939453,1376100.0,28.200000762939453
2019-04-24,28.489999771118164,28.15999984741211,28.170000076293945,28.399999618530273,1755000.0,28.399999618530273
2019-04-25,28.049999237060547,26.59000015258789,27.920000076293945,27.610000610351562,2636800.0,27.610000610351562
2019-04-26,27.850000381469727,27.040000915527344,27.489999771118164,27.469999313354492,1503300.0,27.469999313354492
2019-04-29,28.25,27.450000762939453,27.450000762939453,27.950000762939453,1471500.0,27.950000762939453
2019-04-30,28.049999237060547,27.594999313354492,27.93000030517578,27.950000762939453,3427400.0,27.950000762939453
2019-05-01,28.049999237060547,27.780000686645508,28.049999237060547,27.84000015258789,1405100.0,27.84000015258789
2019-05-02,27.8700008392334,27.18000030517578,27.75,27.329999923706055,2103000.0,27.329999923706055
2019-05-03,27.700000762939453,27.030000686645508,27.3799991607666,27.309999465942383,2155600.0,27.309999465942383
2019-05-06,27.329999923706055,26.790000915527344,26.790000915527344,27.190000534057617,1489900.0,27.190000534057617
2019-05-07,27.1299991607666,26.290000915527344,26.8799991607666,26.489999771118164,1679800.0,26.489999771118164
2019-05-08,26.700000762939453,26.229999542236328,26.440000534057617,26.239999771118164,862300.0,26.239999771118164
2019-05-09,26.5049991607666,25.90999984741211,26.010000228881836,26.260000228881836,1187100.0,26.260000228881836
2019-05-10,26.40999984741211,25.780000686645508,26.09000015258789,26.020000457763672,1157100.0,26.020000457763672
2019-05-13,26.15999984741211,25.010000228881836,25.440000534057617,25.100000381469727,1536800.0,25.100000381469727
2019-05-14,25.600000381469727,25.1299991607666,25.15999984741211,25.3700008392334,1233800.0,25.3700008392334
2019-05-15,25.440000534057617,25.03499984741211,25.110000610351562,25.139999389648438,1005900.0,25.139999389648438
2019-05-16,25.613000869750977,25.15999984741211,25.299999237060547,25.290000915527344,1188300.0,25.290000915527344
2019-05-17,25.649999618530273,25.0,25.010000228881836,25.110000610351562,1131700.0,25.110000610351562
2019-05-20,25.344999313354492,24.239999771118164,24.959999084472656,24.31999969482422,1916300.0,24.31999969482422
2019-05-21,24.614999771118164,24.329999923706055,24.5,24.489999771118164,1819600.0,24.489999771118164
2019-05-22,24.59000015258789,24.0,24.329999923706055,24.170000076293945,1102400.0,24.170000076293945
2019-05-23,24.030000686645508,23.68000030517578,23.829999923706055,23.950000762939453,1552300.0,23.950000762939453
2019-05-24,24.190000534057617,23.8700008392334,24.100000381469727,24.010000228881836,1492200.0,24.010000228881836
