Date,High,Low,Open,Close,Volume,Adj Close
2015-08-10,9.875,9.875,9.875,9.875,0.0,9.875
2015-09-14,9.875,9.875,9.875,9.875,0.0,9.875
2015-09-15,9.875,9.875,9.875,9.875,0.0,9.875
2015-09-16,9.875,9.875,9.875,9.875,0.0,9.875
2015-09-17,9.875,9.875,9.875,9.875,0.0,9.875
2015-09-18,9.875,9.875,9.875,9.875,0.0,9.875
2015-09-21,9.875,9.875,9.875,9.875,0.0,9.875
2015-09-22,9.875,9.875,9.875,9.875,0.0,9.875
2015-09-23,9.875,9.875,9.875,9.875,0.0,9.875
2015-10-16,9.875,9.875,9.875,9.875,0.0,9.875
2015-10-19,9.875,9.875,9.875,9.875,0.0,9.875
2015-10-20,9.875,9.875,9.875,9.875,0.0,9.875
2015-10-21,9.875,9.875,9.875,9.875,0.0,9.875
2015-10-22,9.875,9.875,9.875,9.875,0.0,9.875
2015-10-23,9.875,9.875,9.875,9.875,0.0,9.875
2015-10-26,9.875,9.875,9.875,9.875,0.0,9.875
2015-10-27,9.875,9.875,9.875,9.875,0.0,9.875
2015-10-28,9.875,9.875,9.875,9.875,0.0,9.875
2015-11-10,9.875,9.875,9.875,9.875,0.0,9.875
2015-11-11,9.875,9.875,9.875,9.875,0.0,9.875
2015-11-12,9.875,9.875,9.875,9.875,0.0,9.875
2015-11-13,9.875,9.875,9.875,9.875,0.0,9.875
2015-11-16,9.875,9.875,9.875,9.875,0.0,9.875
2015-11-17,9.875,9.875,9.875,9.875,0.0,9.875
2015-11-18,9.875,9.875,9.875,9.875,0.0,9.875
2015-11-19,9.875,9.875,9.875,9.875,0.0,9.875
2015-11-20,9.875,9.875,9.875,9.875,0.0,9.875
2015-12-03,9.875,9.875,9.875,9.875,0.0,9.875
2015-12-04,9.875,9.875,9.875,9.875,0.0,9.875
2015-12-07,9.875,9.875,9.875,9.875,0.0,9.875
2015-12-08,9.875,9.875,9.875,9.875,0.0,9.875
2015-12-09,9.875,9.875,9.875,9.875,0.0,9.875
2015-12-10,9.875,9.875,9.875,9.875,0.0,9.875
2015-12-11,9.875,9.875,9.875,9.875,0.0,9.875
2015-12-14,9.875,9.875,9.875,9.875,0.0,9.875
2015-12-15,9.875,9.875,9.875,9.875,0.0,9.875
2015-12-16,9.875,9.875,9.875,9.875,0.0,9.875
2015-12-17,9.875,9.875,9.875,9.875,0.0,9.875
2015-12-18,9.875,9.875,9.875,9.875,0.0,9.875
2015-12-21,9.875,9.875,9.875,9.875,0.0,9.875
2015-12-22,9.875,9.875,9.875,9.875,0.0,9.875
2015-12-23,9.875,9.875,9.875,9.875,0.0,9.875
2015-12-24,9.875,9.875,9.875,9.875,0.0,9.875
2015-12-29,9.875,9.875,9.875,9.875,0.0,9.875
2016-01-11,9.875,9.875,9.875,9.875,0.0,9.875
2016-01-12,9.875,9.875,9.875,9.875,0.0,9.875
2016-01-13,9.875,9.875,9.875,9.875,0.0,9.875
2016-01-14,9.875,9.875,9.875,9.875,0.0,9.875
2016-01-15,9.875,9.875,9.875,9.875,0.0,9.875
2016-01-19,9.875,9.875,9.875,9.875,0.0,9.875
2016-01-20,9.875,9.875,9.875,9.875,0.0,9.875
2016-01-21,9.875,9.875,9.875,9.875,0.0,9.875
2016-01-22,9.875,9.875,9.875,9.875,0.0,9.875
2016-01-25,9.875,9.875,9.875,9.875,0.0,9.875
2016-01-26,9.875,9.875,9.875,9.875,0.0,9.875
2016-01-27,9.875,9.875,9.875,9.875,0.0,9.875
2016-01-28,9.875,9.875,9.875,9.875,0.0,9.875
2016-01-29,9.875,9.875,9.875,9.875,0.0,9.875
2016-02-01,9.875,9.875,9.875,9.875,0.0,9.875
2016-02-02,9.875,9.875,9.875,9.875,0.0,9.875
2016-02-03,9.875,9.875,9.875,9.875,0.0,9.875
2016-02-04,9.875,9.875,9.875,9.875,0.0,9.875
2016-02-05,9.875,9.875,9.875,9.875,0.0,9.875
2016-03-11,9.875,9.875,9.875,9.875,0.0,9.875
2016-03-23,9.875,9.875,9.875,9.875,0.0,9.875
2016-04-04,9.875,9.875,9.875,9.875,0.0,9.875
2016-04-05,9.875,9.875,9.875,9.875,0.0,9.875
2016-04-06,9.875,9.875,9.875,9.875,0.0,9.875
2016-04-07,9.875,9.875,9.875,9.875,0.0,9.875
2016-04-08,9.875,9.875,9.875,9.875,0.0,9.875
2016-04-11,9.875,9.875,9.875,9.875,0.0,9.875
2016-04-12,9.875,9.875,9.875,9.875,0.0,9.875
2016-04-13,9.875,9.875,9.875,9.875,0.0,9.875
2016-04-14,9.875,9.875,9.875,9.875,0.0,9.875
2016-04-15,9.875,9.875,9.875,9.875,0.0,9.875
2016-04-18,9.875,9.875,9.875,9.875,0.0,9.875
2016-04-19,9.875,9.875,9.875,9.875,0.0,9.875
2016-04-20,9.875,9.875,9.875,9.875,0.0,9.875
2016-04-21,9.875,9.875,9.875,9.875,0.0,9.875
2016-04-22,9.875,9.875,9.875,9.875,0.0,9.875
2016-04-25,9.875,9.875,9.875,9.875,0.0,9.875
2016-04-26,9.875,9.875,9.875,9.875,0.0,9.875
2016-04-27,9.875,9.875,9.875,9.875,0.0,9.875
2016-04-28,9.875,9.875,9.875,9.875,0.0,9.875
2016-04-29,9.875,9.875,9.875,9.875,0.0,9.875
2016-05-02,9.875,9.875,9.875,9.875,0.0,9.875
2016-05-03,9.875,9.875,9.875,9.875,0.0,9.875
2016-05-04,9.875,9.875,9.875,9.875,0.0,9.875
2016-05-05,9.875,9.875,9.875,9.875,0.0,9.875
2016-05-06,9.875,9.875,9.875,9.875,0.0,9.875
2016-05-09,7.5,6.5,7.5,7.25,499189.0,7.25
2016-08-22,5.25,5.25,5.25,5.25,0.0,5.25
2016-08-23,5.25,5.25,5.25,5.25,0.0,5.25
2016-08-24,5.0,4.75,4.75,4.75,50000.0,4.75
2016-08-25,4.75,4.75,4.75,4.75,0.0,4.75
2016-08-26,4.75,4.75,4.75,4.75,0.0,4.75
2016-08-29,4.75,4.75,4.75,4.75,0.0,4.75
2016-08-30,4.139999866485596,4.139999866485596,4.139999866485596,4.75,100000.0,4.75
2016-08-31,4.5,4.0,4.5,4.375,110000.0,4.375
2016-09-01,4.375,4.375,4.375,4.375,0.0,4.375
2016-09-02,4.375,4.375,4.375,4.375,0.0,4.375
2016-09-06,4.375,4.375,4.375,4.375,0.0,4.375
2016-09-07,4.375,4.375,4.375,4.375,0.0,4.375
2016-09-08,4.375,4.375,4.375,4.375,0.0,4.375
2016-09-09,4.375,4.375,4.375,4.375,0.0,4.375
2016-09-12,4.375,4.375,4.375,4.375,0.0,4.375
2016-09-13,4.375,4.375,4.375,4.375,0.0,4.375
2016-09-14,4.375,4.375,4.375,4.375,0.0,4.375
2016-09-15,4.375,4.375,4.375,4.375,0.0,4.375
2016-09-16,4.375,4.375,4.375,4.375,0.0,4.375
2016-09-19,4.375,4.375,4.375,4.375,0.0,4.375
2016-09-20,4.375,4.375,4.375,4.375,0.0,4.375
2016-09-21,4.0,4.0,4.0,4.375,13000.0,4.375
2016-09-22,4.375,4.375,4.375,4.375,0.0,4.375
2016-09-23,4.375,4.375,4.375,4.375,0.0,4.375
2016-09-26,4.375,4.375,4.375,4.375,0.0,4.375
2016-09-27,4.375,4.375,4.375,4.375,0.0,4.375
2016-09-28,4.375,4.375,4.375,4.375,0.0,4.375
2016-09-29,4.375,4.375,4.375,4.375,0.0,4.375
2016-09-30,4.375,4.375,4.375,4.375,0.0,4.375
2016-10-03,4.375,4.375,4.375,4.375,0.0,4.375
2016-10-04,4.375,4.375,4.375,4.375,0.0,4.375
2016-10-05,4.375,4.375,4.375,4.375,0.0,4.375
2016-10-06,4.375,4.375,4.375,4.375,0.0,4.375
2016-10-07,4.375,4.375,4.375,4.375,0.0,4.375
2016-10-10,4.375,4.375,4.375,4.375,0.0,4.375
2016-10-11,4.375,4.375,4.375,4.375,0.0,4.375
2016-10-12,4.375,4.375,4.375,4.375,0.0,4.375
2016-10-13,4.375,4.375,4.375,4.375,0.0,4.375
2016-10-14,4.375,4.375,4.375,4.375,0.0,4.375
2016-10-17,4.375,4.375,4.375,4.375,0.0,4.375
2016-10-18,4.375,4.375,4.375,4.375,0.0,4.375
2016-10-19,4.375,4.375,4.375,4.375,0.0,4.375
2016-10-20,4.375,4.375,4.375,4.375,0.0,4.375
2016-10-21,4.375,4.375,4.375,4.375,0.0,4.375
2016-10-24,4.375,4.375,4.375,4.375,0.0,4.375
2016-10-25,4.375,4.375,4.375,4.375,0.0,4.375
2016-10-26,4.375,4.375,4.375,4.375,0.0,4.375
2016-10-27,4.375,4.375,4.375,4.375,0.0,4.375
2016-10-28,4.375,4.375,4.375,4.375,0.0,4.375
2016-10-31,4.375,4.375,4.375,4.375,0.0,4.375
2016-11-01,4.375,4.375,4.375,4.375,0.0,4.375
2016-11-02,4.375,4.375,4.375,4.375,0.0,4.375
2016-11-03,4.375,4.375,4.375,4.375,0.0,4.375
2016-11-04,4.375,4.375,4.375,4.375,0.0,4.375
2016-11-07,4.375,4.375,4.375,4.375,0.0,4.375
2016-11-08,4.375,4.375,4.375,4.375,0.0,4.375
2016-11-09,4.375,4.375,4.375,4.375,0.0,4.375
2016-11-10,4.375,4.375,4.375,4.375,0.0,4.375
2016-11-11,4.375,4.375,4.375,4.375,0.0,4.375
2016-11-14,4.375,4.375,4.375,4.375,0.0,4.375
2016-11-15,4.375,4.375,4.375,4.375,0.0,4.375
2016-11-16,4.375,4.375,4.375,4.375,0.0,4.375
2016-11-17,4.375,4.375,4.375,4.375,0.0,4.375
2016-11-18,4.375,4.375,4.375,4.375,0.0,4.375
2016-11-21,4.375,4.375,4.375,4.375,0.0,4.375
2016-11-22,4.375,4.375,4.375,4.375,0.0,4.375
2016-11-23,4.375,4.375,4.375,4.375,0.0,4.375
2016-11-25,4.375,4.375,4.375,4.375,0.0,4.375
2016-11-28,4.375,4.375,4.375,4.375,0.0,4.375
2016-11-29,4.375,4.375,4.375,4.375,0.0,4.375
2016-11-30,4.375,4.375,4.375,4.375,0.0,4.375
2016-12-01,4.375,4.375,4.375,4.375,0.0,4.375
2016-12-02,4.375,4.375,4.375,4.375,0.0,4.375
2016-12-05,4.375,4.375,4.375,4.375,0.0,4.375
2016-12-06,4.375,4.375,4.375,4.375,0.0,4.375
2016-12-07,4.375,4.375,4.375,4.375,0.0,4.375
2016-12-08,4.375,4.375,4.375,4.375,0.0,4.375
2016-12-09,4.375,4.375,4.375,4.375,0.0,4.375
2016-12-12,4.375,4.375,4.375,4.375,0.0,4.375
2016-12-13,4.375,4.375,4.375,4.375,0.0,4.375
2016-12-14,4.375,4.375,4.375,4.375,0.0,4.375
2016-12-15,4.375,4.375,4.375,4.375,0.0,4.375
2016-12-16,4.375,4.375,4.375,4.375,0.0,4.375
2016-12-19,4.375,4.375,4.375,4.375,0.0,4.375
2016-12-20,4.375,4.375,4.375,4.375,0.0,4.375
2016-12-21,4.375,4.375,4.375,4.375,0.0,4.375
2016-12-22,4.375,4.375,4.375,4.375,0.0,4.375
2016-12-23,4.375,4.375,4.375,4.375,0.0,4.375
2016-12-27,4.375,4.375,4.375,4.375,0.0,4.375
2016-12-28,4.375,4.375,4.375,4.375,0.0,4.375
2016-12-29,4.375,4.375,4.375,4.375,0.0,4.375
2016-12-30,4.375,4.375,4.375,4.375,0.0,4.375
2017-01-03,4.375,4.375,4.375,4.375,0.0,4.375
2017-01-04,4.375,4.375,4.375,4.375,0.0,4.375
2017-01-05,4.375,4.375,4.375,4.375,0.0,4.375
2017-01-06,4.375,4.375,4.375,4.375,0.0,4.375
2017-01-09,4.375,4.375,4.375,4.375,0.0,4.375
2017-01-10,4.375,4.375,4.375,4.375,0.0,4.375
2017-01-11,4.375,4.375,4.375,4.375,0.0,4.375
2017-01-23,4.375,4.375,4.375,4.375,0.0,4.375
2017-01-24,4.375,4.375,4.375,4.375,0.0,4.375
2017-01-25,4.375,4.375,4.375,4.375,0.0,4.375
2017-01-26,4.375,4.375,4.375,4.375,0.0,4.375
2017-01-27,4.375,4.375,4.375,4.375,0.0,4.375
2017-01-30,4.375,4.375,4.375,4.375,0.0,4.375
2017-01-31,4.375,4.375,4.375,4.375,0.0,4.375
2017-02-01,4.375,4.375,4.375,4.375,0.0,4.375
2017-02-02,4.375,4.375,4.375,4.375,0.0,4.375
2017-02-03,4.375,4.375,4.375,4.375,0.0,4.375
2017-02-06,4.375,4.375,4.375,4.375,0.0,4.375
2017-02-07,4.375,4.375,4.375,4.375,0.0,4.375
2017-02-08,4.375,4.375,4.375,4.375,0.0,4.375
2017-02-09,4.375,4.375,4.375,4.375,0.0,4.375
2017-02-10,4.375,4.375,4.375,4.375,0.0,4.375
2017-03-08,4.375,4.375,4.375,4.375,0.0,4.375
2017-03-09,4.375,4.375,4.375,4.375,0.0,4.375
2017-03-10,4.375,4.375,4.375,4.375,0.0,4.375
2017-03-13,4.375,4.375,4.375,4.375,0.0,4.375
2017-03-14,4.375,4.375,4.375,4.375,0.0,4.375
2017-03-15,4.375,4.375,4.375,4.375,0.0,4.375
2017-03-16,4.375,4.375,4.375,4.375,0.0,4.375
2017-03-17,4.375,4.375,4.375,4.375,0.0,4.375
2017-03-20,4.375,4.375,4.375,4.375,0.0,4.375
2017-03-21,4.375,4.375,4.375,4.375,0.0,4.375
2017-03-22,4.375,4.375,4.375,4.375,0.0,4.375
2017-03-23,4.375,4.375,4.375,4.375,0.0,4.375
2017-03-24,4.375,4.375,4.375,4.375,0.0,4.375
2017-04-10,4.375,4.375,4.375,4.375,0.0,4.375
2017-04-11,4.375,4.375,4.375,4.375,0.0,4.375
2017-04-12,4.375,4.375,4.375,4.375,0.0,4.375
2017-04-13,4.375,4.375,4.375,4.375,0.0,4.375
2017-04-17,4.375,4.375,4.375,4.375,0.0,4.375
2017-04-18,4.375,4.375,4.375,4.375,0.0,4.375
2017-04-19,4.375,4.375,4.375,4.375,0.0,4.375
2017-04-20,4.375,4.375,4.375,4.375,0.0,4.375
2017-04-21,4.375,4.375,4.375,4.375,0.0,4.375
2017-04-24,4.375,4.375,4.375,4.375,0.0,4.375
2017-04-25,4.375,4.375,4.375,4.375,0.0,4.375
2017-04-26,4.375,4.375,4.375,4.375,0.0,4.375
2017-04-27,4.375,4.375,4.375,4.375,0.0,4.375
2017-04-28,4.375,4.375,4.375,4.375,0.0,4.375
2017-05-02,4.375,4.375,4.375,4.375,0.0,4.375
2017-05-03,4.375,4.375,4.375,4.375,0.0,4.375
2017-05-04,4.375,4.375,4.375,4.375,0.0,4.375
2017-05-18,4.375,4.375,4.375,4.375,0.0,4.375
2017-05-19,4.375,4.375,4.375,4.375,0.0,4.375
2017-05-22,4.375,4.375,4.375,4.375,0.0,4.375
2018-07-27,15.619999885559082,12.289999961853027,14.34000015258789,13.109999656677246,6904400.0,13.109999656677246
2018-07-30,12.949999809265137,11.850000381469727,12.670000076293945,12.010000228881836,2284600.0,12.010000228881836
2018-07-31,12.300000190734863,12.010000228881836,12.029999732971191,12.09000015258789,418300.0,12.09000015258789
2018-08-01,12.199999809265137,12.0,12.1899995803833,12.140000343322754,354200.0,12.140000343322754
2018-08-02,12.180000305175781,11.979999542236328,12.180000305175781,12.069999694824219,634200.0,12.069999694824219
2018-08-03,12.140000343322754,11.5,12.010000228881836,11.5,1117300.0,11.5
2018-08-06,13.699999809265137,11.489999771118164,11.520000457763672,13.40999984741211,1117900.0,13.40999984741211
2018-08-07,14.239999771118164,13.029999732971191,13.640000343322754,13.630000114440918,718500.0,13.630000114440918
2018-08-08,13.970000267028809,12.600000381469727,13.699999809265137,13.430000305175781,466900.0,13.430000305175781
2018-08-09,13.640000343322754,12.949999809265137,13.640000343322754,13.489999771118164,246700.0,13.489999771118164
2018-08-10,13.520000457763672,12.760000228881836,13.300000190734863,13.359999656677246,260800.0,13.359999656677246
2018-08-13,13.729999542236328,12.930000305175781,13.729999542236328,13.109999656677246,119800.0,13.109999656677246
2018-08-14,13.300000190734863,12.760000228881836,13.15999984741211,12.890000343322754,123500.0,12.890000343322754
2018-08-15,12.199999809265137,10.220000267028809,11.8100004196167,10.609999656677246,881900.0,10.609999656677246
2018-08-16,11.5,10.850000381469727,10.850000381469727,11.5,213500.0,11.5
2018-08-17,11.5600004196167,10.539999961853027,11.5600004196167,10.970000267028809,181000.0,10.970000267028809
2018-08-20,11.329999923706055,10.949999809265137,10.979999542236328,11.289999961853027,135800.0,11.289999961853027
2018-08-21,12.420000076293945,11.25,11.289999961853027,12.1899995803833,168100.0,12.1899995803833
2018-08-22,12.720000267028809,12.140000343322754,12.720000267028809,12.609999656677246,147100.0,12.609999656677246
2018-08-23,12.65999984741211,12.329999923706055,12.520000457763672,12.5600004196167,139500.0,12.5600004196167
2018-08-24,13.5,12.970000267028809,12.970000267028809,13.319999694824219,1430000.0,13.319999694824219
2018-08-27,13.699999809265137,13.359999656677246,13.420000076293945,13.569999694824219,326300.0,13.569999694824219
2018-08-28,13.5600004196167,12.319999694824219,13.550000190734863,12.430000305175781,219400.0,12.430000305175781
2018-08-29,12.979999542236328,12.369999885559082,12.489999771118164,12.420000076293945,119200.0,12.420000076293945
2018-08-30,12.699999809265137,11.949999809265137,12.430000305175781,12.1899995803833,299800.0,12.1899995803833
2018-08-31,12.329999923706055,11.760000228881836,12.199999809265137,11.800000190734863,98200.0,11.800000190734863
2018-09-04,12.1899995803833,11.800000190734863,11.800000190734863,12.100000381469727,66200.0,12.100000381469727
2018-09-05,12.029999732971191,11.390000343322754,12.029999732971191,11.630000114440918,96200.0,11.630000114440918
2018-09-06,11.710000038146973,11.390000343322754,11.630000114440918,11.5,51300.0,11.5
2018-09-07,12.260000228881836,11.100000381469727,11.479999542236328,11.369999885559082,53500.0,11.369999885559082
2018-09-10,11.430000305175781,11.199999809265137,11.34000015258789,11.289999961853027,37200.0,11.289999961853027
2018-09-11,11.359999656677246,10.979999542236328,11.260000228881836,11.09000015258789,41000.0,11.09000015258789
2018-09-12,11.109999656677246,10.9399995803833,11.109999656677246,11.020000457763672,64200.0,11.020000457763672
2018-09-13,11.600000381469727,11.029999732971191,11.109999656677246,11.449999809265137,68600.0,11.449999809265137
2018-09-14,11.640000343322754,10.970000267028809,11.430000305175781,11.050000190734863,73300.0,11.050000190734863
2018-09-17,11.149999618530273,10.5,11.149999618530273,10.800000190734863,177300.0,10.800000190734863
2018-09-18,10.8100004196167,10.09000015258789,10.760000228881836,10.140000343322754,86400.0,10.140000343322754
2018-09-19,10.260000228881836,9.899999618530273,10.140000343322754,9.920000076293945,231500.0,9.920000076293945
2018-09-20,10.09000015258789,9.520000457763672,10.0,9.989999771118164,116700.0,9.989999771118164
2018-09-21,9.979999542236328,9.649999618530273,9.960000038146973,9.649999618530273,116200.0,9.649999618530273
2018-09-24,9.699999809265137,9.010000228881836,9.600000381469727,9.0600004196167,165100.0,9.0600004196167
2018-09-25,9.229999542236328,8.819999694824219,9.100000381469727,8.819999694824219,77400.0,8.819999694824219
2018-09-26,9.319999694824219,8.680000305175781,8.8100004196167,9.109999656677246,170400.0,9.109999656677246
2018-09-27,9.5,9.0,9.149999618530273,9.029999732971191,28200.0,9.029999732971191
2018-09-28,9.109999656677246,8.899999618530273,8.970000267028809,8.989999771118164,46400.0,8.989999771118164
2018-10-01,9.220000267028809,8.720000267028809,9.09000015258789,8.899999618530273,102300.0,8.899999618530273
2018-10-02,9.699999809265137,8.84000015258789,8.850000381469727,9.15999984741211,167300.0,9.15999984741211
2018-10-03,9.720000267028809,9.149999618530273,9.239999771118164,9.239999771118164,214800.0,9.239999771118164
2018-10-04,9.15999984741211,8.800000190734863,9.15999984741211,8.949999809265137,105800.0,8.949999809265137
2018-10-05,9.619999885559082,8.75,9.0,8.800000190734863,243700.0,8.800000190734863
2018-10-08,8.800000190734863,8.149999618530273,8.800000190734863,8.539999961853027,124200.0,8.539999961853027
2018-10-09,8.75,8.3100004196167,8.489999771118164,8.5,53700.0,8.5
2018-10-10,8.550000190734863,8.069999694824219,8.5,8.149999618530273,132600.0,8.149999618530273
2018-10-11,8.180000305175781,7.659999847412109,8.0600004196167,7.730000019073486,140900.0,7.730000019073486
2018-10-12,7.920000076293945,7.699999809265137,7.920000076293945,7.769999980926514,89600.0,7.769999980926514
2018-10-15,7.929999828338623,7.570000171661377,7.829999923706055,7.730000019073486,119100.0,7.730000019073486
2018-10-16,7.900000095367432,7.670000076293945,7.789999961853027,7.820000171661377,292400.0,7.820000171661377
2018-10-17,7.789999961853027,7.400000095367432,7.710000038146973,7.429999828338623,118400.0,7.429999828338623
2018-10-18,7.590000152587891,6.849999904632568,7.590000152587891,7.170000076293945,294300.0,7.170000076293945
2018-10-19,7.5,6.800000190734863,7.199999809265137,6.809999942779541,201000.0,6.809999942779541
2018-10-22,7.389999866485596,6.559999942779541,6.860000133514404,6.630000114440918,650500.0,6.630000114440918
2018-10-23,6.920000076293945,6.349999904632568,6.559999942779541,6.690000057220459,359500.0,6.690000057220459
2018-10-24,6.849999904632568,6.449999809265137,6.71999979019165,6.519999980926514,218900.0,6.519999980926514
2018-10-25,7.230000019073486,6.349999904632568,6.590000152587891,7.010000228881836,295100.0,7.010000228881836
2018-10-26,7.25,6.570000171661377,6.769999980926514,7.039999961853027,179900.0,7.039999961853027
2018-10-29,7.46999979019165,6.860000133514404,7.239999771118164,7.099999904632568,289800.0,7.099999904632568
2018-10-30,7.269999980926514,6.760000228881836,7.039999961853027,6.78000020980835,256100.0,6.78000020980835
2018-10-31,6.860000133514404,6.449999809265137,6.840000152587891,6.599999904632568,180000.0,6.599999904632568
2018-11-01,7.260000228881836,6.739999771118164,6.860000133514404,7.050000190734863,903300.0,7.050000190734863
2018-11-02,7.179999828338623,6.5,7.179999828338623,6.75,302300.0,6.75
2018-11-05,7.03000020980835,6.610000133514404,6.769999980926514,6.789999961853027,415900.0,6.789999961853027
2018-11-06,6.900000095367432,6.230000019073486,6.869999885559082,6.539999961853027,389800.0,6.539999961853027
2018-11-07,6.71999979019165,6.409999847412109,6.409999847412109,6.46999979019165,142000.0,6.46999979019165
2018-11-08,7.449999809265137,6.309999942779541,6.949999809265137,7.420000076293945,1289400.0,7.420000076293945
2018-11-09,7.369999885559082,6.670000076293945,7.369999885559082,6.900000095367432,920100.0,6.900000095367432
2018-11-12,7.050000190734863,6.519999980926514,6.949999809265137,6.659999847412109,267300.0,6.659999847412109
2018-11-13,6.789999961853027,6.25,6.710000038146973,6.510000228881836,580600.0,6.510000228881836
2018-11-14,6.909999847412109,6.420000076293945,6.46999979019165,6.75,370500.0,6.75
2018-11-15,6.820000171661377,6.550000190734863,6.75,6.630000114440918,216100.0,6.630000114440918
2018-11-16,6.849999904632568,6.559999942779541,6.559999942779541,6.739999771118164,120200.0,6.739999771118164
2018-11-19,6.789999961853027,6.559999942779541,6.710000038146973,6.670000076293945,161100.0,6.670000076293945
2018-11-20,6.730000019073486,6.519999980926514,6.550000190734863,6.610000133514404,135900.0,6.610000133514404
2018-11-21,7.099999904632568,6.679999828338623,6.760000228881836,6.980000019073486,117900.0,6.980000019073486
2018-11-23,7.150000095367432,6.849999904632568,6.920000076293945,6.949999809265137,45400.0,6.949999809265137
2018-11-26,7.03000020980835,6.820000171661377,7.010000228881836,6.960000038146973,102800.0,6.960000038146973
2018-11-27,6.900000095367432,6.53000020980835,6.900000095367432,6.599999904632568,110400.0,6.599999904632568
2018-11-28,6.800000190734863,6.519999980926514,6.650000095367432,6.789999961853027,98500.0,6.789999961853027
2018-11-29,6.900000095367432,6.590000152587891,6.889999866485596,6.78000020980835,172900.0,6.78000020980835
2018-11-30,6.980000019073486,6.690000057220459,6.960000038146973,6.900000095367432,153400.0,6.900000095367432
2018-12-03,7.090000152587891,6.800000190734863,6.900000095367432,6.929999828338623,138700.0,6.929999828338623
2018-12-04,7.0,6.090000152587891,7.0,6.349999904632568,434100.0,6.349999904632568
2018-12-06,6.5,6.139999866485596,6.25,6.389999866485596,153800.0,6.389999866485596
2018-12-07,6.360000133514404,6.03000020980835,6.360000133514404,6.099999904632568,184200.0,6.099999904632568
2018-12-10,6.25,5.949999809265137,6.099999904632568,5.980000019073486,108400.0,5.980000019073486
2018-12-11,6.059999942779541,5.599999904632568,6.059999942779541,5.650000095367432,85300.0,5.650000095367432
2018-12-12,5.840000152587891,5.650000095367432,5.659999847412109,5.659999847412109,124500.0,5.659999847412109
2018-12-13,5.699999809265137,5.449999809265137,5.699999809265137,5.550000190734863,64300.0,5.550000190734863
2018-12-14,5.829999923706055,5.480000019073486,5.480000019073486,5.710000038146973,64800.0,5.710000038146973
2018-12-17,5.809999942779541,5.420000076293945,5.690000057220459,5.71999979019165,116500.0,5.71999979019165
2018-12-18,5.78000020980835,5.559999942779541,5.690000057220459,5.650000095367432,131100.0,5.650000095367432
2018-12-19,5.690000057220459,5.389999866485596,5.670000076293945,5.480000019073486,163900.0,5.480000019073486
2018-12-20,5.679999828338623,5.309999942779541,5.420000076293945,5.599999904632568,115600.0,5.599999904632568
2018-12-21,5.769999980926514,5.449999809265137,5.659999847412109,5.5,78500.0,5.5
2018-12-24,5.650000095367432,5.349999904632568,5.5,5.510000228881836,16700.0,5.510000228881836
2018-12-26,5.599999904632568,5.329999923706055,5.559999942779541,5.590000152587891,61300.0,5.590000152587891
2018-12-27,5.599999904632568,5.349999904632568,5.599999904632568,5.510000228881836,106300.0,5.510000228881836
2018-12-28,5.920000076293945,5.380000114440918,5.539999961853027,5.760000228881836,100900.0,5.760000228881836
2018-12-31,5.769999980926514,5.5,5.769999980926514,5.559999942779541,18300.0,5.559999942779541
2019-01-02,6.309999942779541,5.510000228881836,5.510000228881836,6.070000171661377,99600.0,6.070000171661377
2019-01-03,6.289999961853027,6.019999980926514,6.070000171661377,6.050000190734863,135000.0,6.050000190734863
2019-01-04,6.230000019073486,6.059999942779541,6.130000114440918,6.090000152587891,103200.0,6.090000152587891
2019-01-07,6.320000171661377,6.170000076293945,6.21999979019165,6.239999771118164,126200.0,6.239999771118164
2019-01-08,6.610000133514404,6.170000076293945,6.289999961853027,6.510000228881836,180000.0,6.510000228881836
2019-01-09,7.590000152587891,6.599999904632568,6.599999904632568,7.46999979019165,346700.0,7.46999979019165
2019-01-10,7.960000038146973,7.170000076293945,7.400000095367432,7.760000228881836,247800.0,7.760000228881836
2019-01-11,7.889999866485596,7.5,7.78000020980835,7.53000020980835,230100.0,7.53000020980835
2019-01-14,7.590000152587891,7.019999980926514,7.579999923706055,7.199999809265137,132500.0,7.199999809265137
2019-01-15,7.659999847412109,7.199999809265137,7.199999809265137,7.260000228881836,96800.0,7.260000228881836
2019-01-16,7.5,7.0,7.199999809265137,7.340000152587891,96900.0,7.340000152587891
2019-01-17,7.570000171661377,7.329999923706055,7.329999923706055,7.510000228881836,79600.0,7.510000228881836
2019-01-18,7.989999771118164,7.510000228881836,7.610000133514404,7.550000190734863,307000.0,7.550000190734863
2019-01-22,7.739999771118164,7.21999979019165,7.599999904632568,7.53000020980835,156600.0,7.53000020980835
2019-01-23,7.75,7.46999979019165,7.590000152587891,7.71999979019165,120300.0,7.71999979019165
2019-01-24,7.929999828338623,7.550000190734863,7.739999771118164,7.639999866485596,159200.0,7.639999866485596
2019-01-25,7.900000095367432,7.239999771118164,7.650000095367432,7.539999961853027,184600.0,7.539999961853027
2019-01-28,7.800000190734863,7.300000190734863,7.460000038146973,7.349999904632568,338600.0,7.349999904632568
2019-01-29,8.199999809265137,7.309999942779541,7.340000152587891,8.09000015258789,177100.0,8.09000015258789
2019-01-30,8.359999656677246,7.880000114440918,8.020000457763672,8.100000381469727,168700.0,8.100000381469727
2019-01-31,8.649999618530273,7.980000019073486,8.149999618530273,8.220000267028809,178000.0,8.220000267028809
2019-02-01,8.520000457763672,7.71999979019165,8.199999809265137,7.800000190734863,353200.0,7.800000190734863
2019-02-04,8.300000190734863,7.710000038146973,7.869999885559082,7.78000020980835,170500.0,7.78000020980835
2019-02-05,8.130000114440918,7.75,7.849999904632568,7.989999771118164,84400.0,7.989999771118164
2019-02-06,8.149999618530273,7.800000190734863,7.949999809265137,7.929999828338623,123700.0,7.929999828338623
2019-02-07,7.980000019073486,7.610000133514404,7.820000171661377,7.789999961853027,65000.0,7.789999961853027
2019-02-08,7.989999771118164,7.699999809265137,7.699999809265137,7.869999885559082,29400.0,7.869999885559082
2019-02-11,7.989999771118164,7.630000114440918,7.889999866485596,7.849999904632568,26900.0,7.849999904632568
2019-02-12,8.34000015258789,7.869999885559082,7.900000095367432,8.050000190734863,91600.0,8.050000190734863
2019-02-13,8.5,7.960000038146973,8.069999694824219,8.420000076293945,152700.0,8.420000076293945
2019-02-14,8.520000457763672,8.140000343322754,8.449999809265137,8.1899995803833,32000.0,8.1899995803833
2019-02-15,8.4399995803833,7.889999866485596,8.170000076293945,8.130000114440918,79300.0,8.130000114440918
2019-02-19,8.390000343322754,8.010000228881836,8.130000114440918,8.300000190734863,42500.0,8.300000190734863
2019-02-20,8.640000343322754,8.15999984741211,8.34000015258789,8.5600004196167,87500.0,8.5600004196167
2019-02-21,9.800000190734863,8.199999809265137,8.699999809265137,8.479999542236328,247800.0,8.479999542236328
2019-02-22,9.489999771118164,8.600000381469727,8.600000381469727,8.9399995803833,183700.0,8.9399995803833
2019-02-25,9.399999618530273,8.779999732971191,8.979999542236328,9.119999885559082,105800.0,9.119999885559082
2019-02-26,9.279999732971191,8.970000267028809,9.100000381469727,9.069999694824219,90500.0,9.069999694824219
2019-02-27,9.210000038146973,8.829999923706055,9.079999923706055,9.0600004196167,53400.0,9.0600004196167
2019-02-28,9.220000267028809,8.720000267028809,9.020000457763672,8.989999771118164,198300.0,8.989999771118164
2019-03-01,9.0,8.649999618530273,9.0,8.779999732971191,248300.0,8.779999732971191
2019-03-04,8.789999961853027,7.900000095367432,8.789999961853027,7.989999771118164,128000.0,7.989999771118164
2019-03-05,8.010000228881836,7.659999847412109,7.980000019073486,7.880000114440918,105100.0,7.880000114440918
2019-03-06,7.989999771118164,7.630000114440918,7.849999904632568,7.730000019073486,69700.0,7.730000019073486
2019-03-07,7.889999866485596,7.420000076293945,7.75,7.690000057220459,62000.0,7.690000057220459
2019-03-08,7.800000190734863,7.199999809265137,7.599999904632568,7.420000076293945,141700.0,7.420000076293945
2019-03-11,7.800000190734863,7.190000057220459,7.190000057220459,7.639999866485596,166300.0,7.639999866485596
2019-03-12,7.800000190734863,7.639999866485596,7.650000095367432,7.670000076293945,55100.0,7.670000076293945
2019-03-13,7.739999771118164,7.550000190734863,7.690000057220459,7.650000095367432,68400.0,7.650000095367432
2019-03-14,7.670000076293945,7.360000133514404,7.659999847412109,7.46999979019165,55600.0,7.46999979019165
2019-03-15,7.550000190734863,7.300000190734863,7.46999979019165,7.389999866485596,31600.0,7.389999866485596
2019-03-18,7.489999771118164,7.260000228881836,7.400000095367432,7.340000152587891,34000.0,7.340000152587891
2019-03-19,7.409999847412109,6.929999828338623,7.28000020980835,7.019999980926514,69500.0,7.019999980926514
2019-03-20,7.369999885559082,6.980000019073486,7.050000190734863,7.199999809265137,104500.0,7.199999809265137
2019-03-21,7.46999979019165,7.159999847412109,7.179999828338623,7.25,106200.0,7.25
2019-03-22,7.25,6.849999904632568,7.199999809265137,6.900000095367432,132100.0,6.900000095367432
2019-03-25,7.039999961853027,6.599999904632568,6.820000171661377,6.690000057220459,61500.0,6.690000057220459
2019-03-26,6.900000095367432,6.690000057220459,6.739999771118164,6.889999866485596,57700.0,6.889999866485596
2019-03-27,6.989999771118164,6.650000095367432,6.900000095367432,6.699999809265137,80500.0,6.699999809265137
2019-03-28,6.800000190734863,6.360000133514404,6.690000057220459,6.489999771118164,78400.0,6.489999771118164
2019-03-29,6.710000038146973,6.480000019073486,6.550000190734863,6.570000171661377,62100.0,6.570000171661377
2019-04-01,6.710000038146973,6.460000038146973,6.550000190734863,6.599999904632568,116600.0,6.599999904632568
2019-04-02,6.699999809265137,6.510000228881836,6.599999904632568,6.599999904632568,159600.0,6.599999904632568
2019-04-03,7.199999809265137,6.599999904632568,6.679999828338623,7.070000171661377,455500.0,7.070000171661377
2019-04-04,7.340000152587891,6.699999809265137,7.170000076293945,7.300000190734863,606500.0,7.300000190734863
2019-04-05,7.409999847412109,6.96999979019165,7.409999847412109,7.360000133514404,157900.0,7.360000133514404
2019-04-08,7.460000038146973,7.190000057220459,7.269999980926514,7.380000114440918,153200.0,7.380000114440918
2019-04-09,7.75,7.260000228881836,7.309999942779541,7.659999847412109,190200.0,7.659999847412109
2019-04-10,8.050000190734863,7.599999904632568,7.699999809265137,7.960000038146973,189400.0,7.960000038146973
2019-04-11,7.940000057220459,7.730000019073486,7.940000057220459,7.849999904632568,26800.0,7.849999904632568
2019-04-12,8.0600004196167,7.820000171661377,7.989999771118164,7.949999809265137,114200.0,7.949999809265137
2019-04-15,8.449999809265137,8.0,8.029999732971191,8.369999885559082,151000.0,8.369999885559082
2019-04-16,9.199999809265137,8.380000114440918,8.380000114440918,9.010000228881836,169100.0,9.010000228881836
2019-04-17,9.109999656677246,8.649999618530273,9.050000190734863,8.989999771118164,152500.0,8.989999771118164
2019-04-18,9.039999961853027,8.600000381469727,9.029999732971191,8.65999984741211,109600.0,8.65999984741211
2019-04-22,8.760000228881836,7.550000190734863,8.619999885559082,8.569999694824219,297900.0,8.569999694824219
2019-04-23,9.069999694824219,8.569999694824219,8.569999694824219,9.020000457763672,130700.0,9.020000457763672
2019-04-24,9.029999732971191,8.65999984741211,9.029999732971191,8.850000381469727,73500.0,8.850000381469727
2019-04-25,9.329999923706055,8.670000076293945,8.899999618530273,9.229999542236328,114700.0,9.229999542236328
2019-04-26,9.239999771118164,8.529999732971191,9.239999771118164,8.789999961853027,136300.0,8.789999961853027
2019-04-29,9.1899995803833,8.5,8.850000381469727,9.0,128300.0,9.0
2019-04-30,9.789999961853027,8.949999809265137,8.970000267028809,9.640000343322754,262500.0,9.640000343322754
2019-05-01,10.050000190734863,9.40999984741211,9.680000305175781,10.010000228881836,193800.0,10.010000228881836
2019-05-02,10.210000038146973,9.569999694824219,9.869999885559082,9.640000343322754,160700.0,9.640000343322754
2019-05-03,9.729999542236328,9.430000305175781,9.699999809265137,9.479999542236328,53300.0,9.479999542236328
2019-05-06,9.8100004196167,8.880000114440918,9.1899995803833,9.489999771118164,67200.0,9.489999771118164
2019-05-07,9.930000305175781,9.329999923706055,9.420000076293945,9.390000343322754,95700.0,9.390000343322754
2019-05-08,9.6899995803833,9.029999732971191,9.470000267028809,9.520000457763672,93900.0,9.520000457763672
2019-05-09,9.800000190734863,9.15999984741211,9.420000076293945,9.479999542236328,58700.0,9.479999542236328
2019-05-10,9.90999984741211,9.109999656677246,9.460000038146973,9.539999961853027,51600.0,9.539999961853027
2019-05-13,9.869999885559082,9.170000076293945,9.279999732971191,9.4399995803833,119200.0,9.4399995803833
2019-05-14,9.800000190734863,9.449999809265137,9.5,9.579999923706055,42000.0,9.579999923706055
2019-05-15,9.979999542236328,9.210000038146973,9.529999732971191,9.8100004196167,168600.0,9.8100004196167
2019-05-16,9.90999984741211,9.5600004196167,9.8100004196167,9.760000228881836,138600.0,9.760000228881836
2019-05-17,10.25,9.600000381469727,9.680000305175781,9.699999809265137,144100.0,9.699999809265137
2019-05-20,9.760000228881836,9.25,9.579999923706055,9.319999694824219,193500.0,9.319999694824219
2019-05-21,9.600000381469727,9.130000114440918,9.4399995803833,9.550000190734863,114600.0,9.550000190734863
2019-05-22,10.640000343322754,9.119999885559082,9.899999618530273,9.789999961853027,143100.0,9.789999961853027
2019-05-23,9.850000381469727,9.239999771118164,9.850000381469727,9.399999618530273,206700.0,9.399999618530273
2019-05-24,10.9399995803833,9.489999771118164,9.569999694824219,10.829999923706055,241600.0,10.829999923706055
