Date,High,Low,Open,Close,Volume,Adj Close
2017-11-02,19.649999618530273,19.649999618530273,19.649999618530273,19.649999618530273,0.0,19.649999618530273
2017-11-03,19.18000030517578,19.020000457763672,19.1299991607666,19.18000030517578,1200.0,19.18000030517578
2017-11-06,19.18000030517578,19.18000030517578,19.18000030517578,19.18000030517578,0.0,19.18000030517578
2018-01-16,18.600000381469727,17.8799991607666,18.100000381469727,18.399999618530273,2400.0,18.399999618530273
2018-01-17,18.59000015258789,17.885000228881836,18.59000015258789,17.885000228881836,2000.0,17.885000228881836
2018-01-18,17.93199920654297,17.93199920654297,17.93199920654297,17.93199920654297,600.0,17.93199920654297
2018-01-19,18.329999923706055,17.739999771118164,18.329999923706055,17.739999771118164,1900.0,17.739999771118164
2018-01-22,17.739999771118164,17.739999771118164,17.739999771118164,17.739999771118164,0.0,17.739999771118164
2018-01-23,17.739999771118164,17.739999771118164,17.739999771118164,17.739999771118164,0.0,17.739999771118164
2018-01-24,18.011999130249023,18.0,18.011999130249023,18.0,2000.0,18.0
2018-01-25,18.452999114990234,18.149999618530273,18.399999618530273,18.264999389648438,3700.0,18.264999389648438
2018-01-26,18.5,17.850000381469727,17.850000381469727,18.229999542236328,3400.0,18.229999542236328
2018-01-29,18.229999542236328,18.100000381469727,18.10099983215332,18.209999084472656,600.0,18.209999084472656
2018-01-30,18.5,18.209999084472656,18.301000595092773,18.5,3600.0,18.5
2018-01-31,20.13800048828125,18.715999603271484,18.715999603271484,19.533000946044922,3700.0,19.533000946044922
2018-02-01,21.0,19.5,19.530000686645508,19.549999237060547,2400.0,19.549999237060547
2018-02-02,20.375,19.600000381469727,19.600000381469727,20.329999923706055,5100.0,20.329999923706055
2018-02-05,20.5,19.790000915527344,19.989999771118164,19.850000381469727,2700.0,19.850000381469727
2018-02-06,20.200000762939453,19.780000686645508,20.0,20.200000762939453,4400.0,20.200000762939453
2018-02-07,20.200000762939453,20.200000762939453,20.200000762939453,20.200000762939453,0.0,20.200000762939453
2018-02-08,19.799999237060547,19.75,19.799999237060547,19.756000518798828,1500.0,19.756000518798828
2018-02-09,19.756000518798828,19.756000518798828,19.756000518798828,19.756000518798828,0.0,19.756000518798828
2018-02-12,19.756000518798828,19.756000518798828,19.756000518798828,19.756000518798828,0.0,19.756000518798828
2018-02-13,19.756000518798828,19.756000518798828,19.756000518798828,19.756000518798828,0.0,19.756000518798828
2018-02-14,20.5,19.0,20.100000381469727,19.010000228881836,73500.0,19.010000228881836
2018-02-15,20.399999618530273,19.110000610351562,20.399999618530273,19.110000610351562,1300.0,19.110000610351562
2018-02-16,19.139999389648438,19.0,19.0,19.030000686645508,900.0,19.030000686645508
2018-02-20,19.350000381469727,19.239999771118164,19.25,19.350000381469727,1800.0,19.350000381469727
2018-02-21,19.40999984741211,19.299999237060547,19.40999984741211,19.299999237060547,1600.0,19.299999237060547
2018-02-22,19.299999237060547,19.299999237060547,19.299999237060547,19.299999237060547,0.0,19.299999237060547
2018-02-23,19.299999237060547,19.030000686645508,19.299999237060547,19.030000686645508,500.0,19.030000686645508
2018-02-26,19.579999923706055,19.0,19.579999923706055,19.0,1300.0,19.0
2018-02-27,20.100000381469727,19.700000762939453,19.700000762939453,20.0,3500.0,20.0
2018-02-28,20.049999237060547,18.860000610351562,20.049999237060547,18.860000610351562,800.0,18.860000610351562
2018-03-01,18.860000610351562,18.860000610351562,18.860000610351562,18.860000610351562,0.0,18.860000610351562
2018-03-02,18.860000610351562,18.860000610351562,18.860000610351562,18.860000610351562,0.0,18.860000610351562
2018-03-05,19.299999237060547,19.100000381469727,19.299999237060547,19.100000381469727,300.0,19.100000381469727
2018-03-06,19.881999969482422,18.625999450683594,19.049999237060547,18.989999771118164,18300.0,18.989999771118164
2018-03-07,19.45599937438965,19.0,19.45599937438965,19.0,3500.0,19.0
2018-03-08,19.0,19.0,19.0,19.0,0.0,19.0
2018-03-09,19.0,19.0,19.0,19.0,0.0,19.0
2018-03-12,19.399999618530273,19.399999618530273,19.399999618530273,19.399999618530273,500.0,19.399999618530273
2018-03-13,19.624000549316406,19.389999389648438,19.389999389648438,19.624000549316406,10500.0,19.624000549316406
2018-03-14,19.600000381469727,19.549999237060547,19.549999237060547,19.600000381469727,1000.0,19.600000381469727
2018-03-15,19.600000381469727,19.600000381469727,19.600000381469727,19.600000381469727,0.0,19.600000381469727
2018-03-16,19.600000381469727,19.549999237060547,19.549999237060547,19.600000381469727,1500.0,19.600000381469727
2018-03-19,19.0,18.75,19.0,18.75,2100.0,18.75
2018-03-20,18.75,18.53700065612793,18.75,18.75,1800.0,18.75
2018-03-21,18.75,18.75,18.75,18.75,0.0,18.75
2018-03-22,18.75,18.75,18.75,18.75,0.0,18.75
2018-03-23,18.75,18.75,18.75,18.75,0.0,18.75
2018-03-26,18.586000442504883,18.586000442504883,18.586000442504883,18.586000442504883,200.0,18.586000442504883
2018-03-27,18.586000442504883,18.586000442504883,18.586000442504883,18.586000442504883,100.0,18.586000442504883
2018-03-28,19.0,18.5049991607666,18.520000457763672,19.0,2000.0,19.0
2018-03-29,19.0,19.0,19.0,19.0,0.0,19.0
2018-04-02,19.270000457763672,18.549999237060547,18.549999237060547,19.0,5600.0,19.0
2018-04-03,18.65999984741211,18.65999984741211,18.65999984741211,18.65999984741211,200.0,18.65999984741211
2018-04-04,18.65999984741211,18.65999984741211,18.65999984741211,18.65999984741211,0.0,18.65999984741211
2018-04-05,18.65999984741211,18.65999984741211,18.65999984741211,18.65999984741211,0.0,18.65999984741211
2018-04-06,18.52899932861328,18.52899932861328,18.52899932861328,18.52899932861328,400.0,18.52899932861328
2018-04-09,18.52899932861328,18.52899932861328,18.52899932861328,18.52899932861328,0.0,18.52899932861328
2018-04-10,19.5,19.5,19.5,19.5,800.0,19.5
2018-04-11,19.75,19.75,19.75,19.75,400.0,19.75
2018-04-12,20.0,19.950000762939453,19.950000762939453,19.959999084472656,3700.0,19.959999084472656
2018-04-13,19.959999084472656,19.959999084472656,19.959999084472656,19.959999084472656,0.0,19.959999084472656
2018-04-16,18.700000762939453,18.700000762939453,18.700000762939453,18.700000762939453,200.0,18.700000762939453
2018-04-17,18.700000762939453,18.700000762939453,18.700000762939453,18.700000762939453,0.0,18.700000762939453
2018-04-18,18.639999389648438,18.639999389648438,18.639999389648438,18.639999389648438,400.0,18.639999389648438
2018-04-19,19.299999237060547,19.204999923706055,19.204999923706055,19.299999237060547,400.0,19.299999237060547
2018-04-20,19.299999237060547,19.299999237060547,19.299999237060547,19.299999237060547,0.0,19.299999237060547
2018-04-23,18.5,18.5,18.5,18.5,700.0,18.5
2018-04-24,18.5,18.5,18.5,18.5,0.0,18.5
2018-04-25,18.610000610351562,18.5,18.610000610351562,18.5,600.0,18.5
2018-04-26,18.5,18.0,18.5,18.5,1800.0,18.5
2018-04-27,18.450000762939453,18.100000381469727,18.100000381469727,18.132999420166016,5200.0,18.132999420166016
2018-04-30,18.0,18.0,18.0,18.0,800.0,18.0
2018-05-01,18.229999542236328,18.0,18.229999542236328,18.229999542236328,1900.0,18.229999542236328
2018-05-02,18.229999542236328,18.229999542236328,18.229999542236328,18.229999542236328,0.0,18.229999542236328
2018-05-03,18.229999542236328,18.229999542236328,18.229999542236328,18.229999542236328,0.0,18.229999542236328
2018-05-04,18.229999542236328,18.229999542236328,18.229999542236328,18.229999542236328,0.0,18.229999542236328
2018-05-07,18.450000762939453,18.25,18.25,18.450000762939453,1000.0,18.450000762939453
2018-05-08,18.4950008392334,18.4950008392334,18.4950008392334,18.4950008392334,300.0,18.4950008392334
2018-05-09,19.0,18.350000381469727,19.0,18.719999313354492,4500.0,18.719999313354492
2018-05-10,18.799999237060547,18.739999771118164,18.799999237060547,18.739999771118164,800.0,18.739999771118164
2018-05-11,18.709999084472656,18.600000381469727,18.600000381469727,18.709999084472656,500.0,18.709999084472656
2018-05-14,18.75,18.4060001373291,18.4060001373291,18.75,1500.0,18.75
2018-05-15,18.75,18.75,18.75,18.75,0.0,18.75
2018-05-16,18.670000076293945,18.200000762939453,18.670000076293945,18.200000762939453,1600.0,18.200000762939453
2018-05-17,18.639999389648438,18.010000228881836,18.200000762939453,18.25,3100.0,18.25
2018-05-18,18.25,18.25,18.25,18.25,400.0,18.25
2018-05-21,18.520000457763672,18.475000381469727,18.475000381469727,18.520000457763672,200.0,18.520000457763672
2018-05-22,18.520000457763672,18.25,18.280000686645508,18.517000198364258,900.0,18.517000198364258
2018-05-23,18.517000198364258,18.517000198364258,18.517000198364258,18.517000198364258,0.0,18.517000198364258
2018-05-24,18.517000198364258,18.517000198364258,18.517000198364258,18.517000198364258,0.0,18.517000198364258
2018-05-25,18.517000198364258,18.517000198364258,18.517000198364258,18.517000198364258,0.0,18.517000198364258
2018-05-29,18.65999984741211,18.65999984741211,18.65999984741211,18.65999984741211,300.0,18.65999984741211
2018-05-30,18.621000289916992,18.489999771118164,18.5,18.489999771118164,2300.0,18.489999771118164
2018-05-31,18.75,18.75,18.75,18.75,500.0,18.75
2018-06-01,19.0,19.0,19.0,19.0,1300.0,19.0
2018-06-04,19.5,19.0,19.0,19.5,2200.0,19.5
2018-06-05,23.799999237060547,19.5,19.5,21.700000762939453,9800.0,21.700000762939453
2018-06-06,21.5,19.799999237060547,21.0,20.549999237060547,6000.0,20.549999237060547
2018-06-07,22.450000762939453,20.350000381469727,20.350000381469727,21.625,14300.0,21.625
2018-06-08,22.649999618530273,20.822999954223633,22.149999618530273,21.75,11200.0,21.75
2018-06-11,22.575000762939453,21.709999084472656,22.0,22.350000381469727,5600.0,22.350000381469727
2018-06-12,22.799999237060547,21.969999313354492,22.350000381469727,22.34000015258789,4500.0,22.34000015258789
2018-06-13,22.510000228881836,20.760000228881836,22.459999084472656,21.860000610351562,9000.0,21.860000610351562
2018-06-14,22.799999237060547,21.8700008392334,22.299999237060547,22.6200008392334,23700.0,22.6200008392334
2018-06-15,22.75,22.350000381469727,22.350000381469727,22.649999618530273,13900.0,22.649999618530273
2018-06-18,22.75,22.1299991607666,22.489999771118164,22.649999618530273,15600.0,22.649999618530273
2018-06-19,22.639999389648438,22.309999465942383,22.639999389648438,22.399999618530273,37500.0,22.399999618530273
2018-06-20,22.399999618530273,21.395999908447266,22.399999618530273,22.200000762939453,4200.0,22.200000762939453
2018-06-21,22.44499969482422,21.139999389648438,21.959999084472656,21.75,34400.0,21.75
2018-06-22,22.489999771118164,20.65999984741211,22.166000366210938,22.489999771118164,10600.0,22.489999771118164
2018-06-25,22.6299991607666,20.139999389648438,22.6299991607666,22.0,16200.0,22.0
2018-06-26,22.22599983215332,21.483999252319336,21.989999771118164,22.0,13200.0,22.0
2018-06-27,22.100000381469727,20.101999282836914,22.100000381469727,21.5,4300.0,21.5
2018-06-28,22.0,22.0,22.0,22.0,200.0,22.0
2018-06-29,21.010000228881836,21.010000228881836,21.010000228881836,21.010000228881836,600.0,21.010000228881836
2018-07-02,22.09000015258789,21.131000518798828,21.14699935913086,22.059999465942383,2700.0,22.059999465942383
2018-07-03,22.0,21.69700050354004,21.69700050354004,22.0,1200.0,22.0
2018-07-05,22.0,20.398000717163086,20.920000076293945,21.5,4500.0,21.5
2018-07-06,22.200000762939453,20.780000686645508,22.020000457763672,21.700000762939453,7700.0,21.700000762939453
2018-07-09,21.81999969482422,21.264999389648438,21.649999618530273,21.81999969482422,1500.0,21.81999969482422
2018-07-10,21.799999237060547,20.868999481201172,21.75,21.399999618530273,1400.0,21.399999618530273
2018-07-11,21.899999618530273,20.90399932861328,21.218000411987305,21.850000381469727,3000.0,21.850000381469727
2018-07-12,21.84000015258789,21.125,21.700000762939453,21.799999237060547,2800.0,21.799999237060547
2018-07-13,21.799999237060547,21.799999237060547,21.799999237060547,21.799999237060547,0.0,21.799999237060547
2018-07-16,21.950000762939453,20.920000076293945,21.850000381469727,21.850000381469727,2100.0,21.850000381469727
2018-07-17,21.8700008392334,21.8700008392334,21.8700008392334,21.8700008392334,100.0,21.8700008392334
2018-07-18,21.950000762939453,21.229999542236328,21.30500030517578,21.229999542236328,3000.0,21.229999542236328
2018-07-19,21.549999237060547,21.110000610351562,21.469999313354492,21.110000610351562,1300.0,21.110000610351562
2018-07-20,21.0,20.999000549316406,20.999000549316406,21.0,1300.0,21.0
2018-07-23,21.489999771118164,21.0,21.0,21.489999771118164,2000.0,21.489999771118164
2018-07-24,21.84000015258789,21.51300048828125,21.51300048828125,21.725000381469727,700.0,21.725000381469727
2018-07-25,21.700000762939453,21.09000015258789,21.700000762939453,21.09000015258789,1000.0,21.09000015258789
2018-07-26,21.950000762939453,21.0,21.950000762939453,21.0,14500.0,21.0
2018-07-27,21.649999618530273,20.799999237060547,21.0,21.299999237060547,11300.0,21.299999237060547
2018-07-30,21.93000030517578,20.700000762939453,21.399999618530273,20.700000762939453,3600.0,20.700000762939453
2018-07-31,21.790000915527344,21.299999237060547,21.33799934387207,21.299999237060547,2400.0,21.299999237060547
2018-08-01,21.450000762939453,21.299999237060547,21.450000762939453,21.299999237060547,700.0,21.299999237060547
2018-08-02,21.5,21.399999618530273,21.399999618530273,21.5,300.0,21.5
2018-08-03,21.5,21.5,21.5,21.5,200.0,21.5
2018-08-06,21.950000762939453,21.790000915527344,21.790000915527344,21.950000762939453,1000.0,21.950000762939453
2018-08-07,21.94700050354004,20.729999542236328,21.649999618530273,21.170000076293945,2400.0,21.170000076293945
2018-08-08,21.360000610351562,21.360000610351562,21.360000610351562,21.360000610351562,200.0,21.360000610351562
2018-08-09,21.950000762939453,21.549999237060547,21.549999237060547,21.950000762939453,4700.0,21.950000762939453
2018-08-10,21.950000762939453,21.899999618530273,21.899999618530273,21.950000762939453,1000.0,21.950000762939453
2018-08-13,21.950000762939453,21.5,21.549999237060547,21.5,3800.0,21.5
2018-08-14,21.437000274658203,20.594999313354492,20.649999618530273,21.100000381469727,8600.0,21.100000381469727
2018-08-15,21.0,20.15999984741211,20.899999618530273,20.790000915527344,7200.0,20.790000915527344
2018-08-16,21.13800048828125,20.690000534057617,20.690000534057617,20.799999237060547,3800.0,20.799999237060547
2018-08-17,21.20800018310547,21.20800018310547,21.20800018310547,21.20800018310547,200.0,21.20800018310547
2018-08-20,21.209999084472656,21.0,21.209999084472656,21.0,900.0,21.0
2018-08-21,20.549999237060547,20.549999237060547,20.549999237060547,20.549999237060547,200.0,20.549999237060547
2018-08-22,20.549999237060547,20.422000885009766,20.549999237060547,20.422000885009766,500.0,20.422000885009766
2018-08-23,21.25,20.420000076293945,20.420000076293945,20.57699966430664,2900.0,20.57699966430664
2018-08-24,20.739999771118164,20.610000610351562,20.739999771118164,20.610000610351562,1100.0,20.610000610351562
2018-08-27,21.0,20.25,21.0,20.31999969482422,1900.0,20.31999969482422
2018-08-28,21.0,20.350000381469727,20.350000381469727,21.0,300.0,21.0
2018-08-29,20.600000381469727,20.600000381469727,20.600000381469727,20.600000381469727,300.0,20.600000381469727
2018-08-30,20.600000381469727,20.600000381469727,20.600000381469727,20.600000381469727,0.0,20.600000381469727
2018-08-31,20.600000381469727,20.600000381469727,20.600000381469727,20.600000381469727,0.0,20.600000381469727
2018-09-04,20.5,20.100000381469727,20.100000381469727,20.489999771118164,3000.0,20.489999771118164
2018-09-05,20.25,19.5,20.25,20.25,1900.0,20.25
2018-09-06,20.100000381469727,19.5,20.0,20.0,1100.0,20.0
2018-09-07,20.65999984741211,19.899999618530273,19.899999618530273,20.5,38300.0,20.5
2018-09-10,20.549999237060547,19.950000762939453,20.549999237060547,20.0,600.0,20.0
2018-09-11,20.200000762939453,18.149999618530273,19.73900032043457,19.0,11900.0,19.0
2018-09-12,18.799999237060547,18.6200008392334,18.799999237060547,18.65999984741211,900.0,18.65999984741211
2018-09-13,18.899999618530273,18.549999237060547,18.899999618530273,18.549999237060547,800.0,18.549999237060547
2018-09-14,19.600000381469727,18.899999618530273,19.149999618530273,18.899999618530273,2500.0,18.899999618530273
2018-09-17,18.889999389648438,18.809999465942383,18.889999389648438,18.809999465942383,1000.0,18.809999465942383
2018-09-18,18.899999618530273,18.719999313354492,18.719999313354492,18.899999618530273,700.0,18.899999618530273
2018-09-19,18.899999618530273,18.799999237060547,18.799999237060547,18.899999618530273,800.0,18.899999618530273
2018-09-20,20.149999618530273,18.799999237060547,18.799999237060547,20.149999618530273,12600.0,20.149999618530273
2018-09-21,21.100000381469727,19.040000915527344,19.184999465942383,21.100000381469727,12800.0,21.100000381469727
2018-09-24,20.459999084472656,20.290000915527344,20.34000015258789,20.459999084472656,1000.0,20.459999084472656
2018-09-25,20.5,20.469999313354492,20.469999313354492,20.5,2100.0,20.5
2018-09-26,20.625,19.899999618530273,20.149999618530273,20.05500030517578,1400.0,20.05500030517578
2018-09-27,20.09000015258789,19.639999389648438,20.09000015258789,19.850000381469727,1100.0,19.850000381469727
2018-09-28,19.309999465942383,19.229999542236328,19.309999465942383,19.229999542236328,1000.0,19.229999542236328
2018-10-01,19.799999237060547,19.24799919128418,19.420000076293945,19.799999237060547,2000.0,19.799999237060547
2018-10-02,20.0,20.0,20.0,20.0,200.0,20.0
2018-10-03,20.211000442504883,19.989999771118164,20.0,19.989999771118164,1000.0,19.989999771118164
2018-10-04,20.0,20.0,20.0,20.0,500.0,20.0
2018-10-05,20.200000762939453,20.200000762939453,20.200000762939453,20.200000762939453,100.0,20.200000762939453
2018-10-08,20.200000762939453,20.200000762939453,20.200000762939453,20.200000762939453,0.0,20.200000762939453
2018-10-09,20.17300033569336,19.579999923706055,20.17300033569336,19.579999923706055,500.0,19.579999923706055
2018-10-10,19.510000228881836,19.510000228881836,19.510000228881836,19.510000228881836,400.0,19.510000228881836
2018-10-11,19.90999984741211,19.90999984741211,19.90999984741211,19.90999984741211,100.0,19.90999984741211
2018-10-12,20.0,20.0,20.0,20.0,1400.0,20.0
2018-10-15,19.549999237060547,19.549999237060547,19.549999237060547,19.549999237060547,300.0,19.549999237060547
2018-10-16,19.549999237060547,19.549999237060547,19.549999237060547,19.549999237060547,300.0,19.549999237060547
2018-10-17,19.950000762939453,19.950000762939453,19.950000762939453,19.950000762939453,200.0,19.950000762939453
2018-10-18,19.950000762939453,19.950000762939453,19.950000762939453,19.950000762939453,0.0,19.950000762939453
2018-10-19,19.770000457763672,19.770000457763672,19.770000457763672,19.770000457763672,200.0,19.770000457763672
2018-10-22,19.6200008392334,19.6200008392334,19.6200008392334,19.6200008392334,300.0,19.6200008392334
2018-10-23,19.950000762939453,19.743000030517578,19.743000030517578,19.950000762939453,300.0,19.950000762939453
2018-10-24,19.950000762939453,19.950000762939453,19.950000762939453,19.950000762939453,100.0,19.950000762939453
2018-10-25,20.0,19.600000381469727,19.77199935913086,19.600000381469727,500.0,19.600000381469727
2018-10-26,20.0,20.0,20.0,20.0,200.0,20.0
2018-10-29,19.989999771118164,19.989999771118164,19.989999771118164,19.989999771118164,200.0,19.989999771118164
2018-10-30,20.593000411987305,19.649999618530273,19.649999618530273,20.593000411987305,700.0,20.593000411987305
2018-10-31,20.593000411987305,20.593000411987305,20.593000411987305,20.593000411987305,100.0,20.593000411987305
2018-11-01,19.739999771118164,19.739999771118164,19.739999771118164,19.739999771118164,300.0,19.739999771118164
2018-11-02,20.959999084472656,20.959999084472656,20.959999084472656,20.959999084472656,300.0,20.959999084472656
2018-11-05,20.959999084472656,20.959999084472656,20.959999084472656,20.959999084472656,200.0,20.959999084472656
2018-11-06,20.959999084472656,20.959999084472656,20.959999084472656,20.959999084472656,0.0,20.959999084472656
2018-11-07,20.959999084472656,20.959999084472656,20.959999084472656,20.959999084472656,100.0,20.959999084472656
2018-11-08,21.075000762939453,20.309999465942383,20.309999465942383,20.950000762939453,1000.0,20.950000762939453
2018-11-09,21.049999237060547,20.549999237060547,20.549999237060547,20.700000762939453,1300.0,20.700000762939453
2018-11-12,20.559999465942383,19.8700008392334,20.559999465942383,19.989999771118164,3100.0,19.989999771118164
2018-11-13,20.0,19.700000762939453,19.700000762939453,19.950000762939453,800.0,19.950000762939453
2018-11-14,20.799999237060547,19.72599983215332,19.72599983215332,20.799999237060547,400.0,20.799999237060547
2018-11-15,19.899999618530273,19.805999755859375,19.850000381469727,19.899999618530273,800.0,19.899999618530273
2018-11-16,20.0,20.0,20.0,20.0,300.0,20.0
2018-11-19,20.0,19.649999618530273,20.0,20.0,1700.0,20.0
2018-11-20,20.424999237060547,20.06999969482422,20.100000381469727,20.424999237060547,800.0,20.424999237060547
2018-11-21,20.454999923706055,19.649999618530273,20.454999923706055,19.979999542236328,2200.0,19.979999542236328
2018-11-23,19.979999542236328,19.979999542236328,19.979999542236328,19.979999542236328,0.0,19.979999542236328
2018-11-26,20.75,20.75,20.75,20.75,100.0,20.75
2018-11-27,21.239999771118164,19.760000228881836,20.549999237060547,19.8799991607666,3800.0,19.8799991607666
2018-11-28,20.100000381469727,20.0,20.0,20.100000381469727,400.0,20.100000381469727
2018-11-29,20.25,19.969999313354492,20.25,20.0,2000.0,20.0
2018-11-30,19.649999618530273,19.649999618530273,19.649999618530273,19.649999618530273,600.0,19.649999618530273
2018-12-03,19.649999618530273,19.649999618530273,19.649999618530273,19.649999618530273,300.0,19.649999618530273
2018-12-04,19.649999618530273,19.649999618530273,19.649999618530273,19.649999618530273,400.0,19.649999618530273
2018-12-06,19.649999618530273,19.649999618530273,19.649999618530273,19.649999618530273,100.0,19.649999618530273
2018-12-07,19.940000534057617,19.940000534057617,19.940000534057617,19.940000534057617,300.0,19.940000534057617
2018-12-10,19.649999618530273,19.649999618530273,19.649999618530273,19.649999618530273,1100.0,19.649999618530273
2018-12-11,19.649999618530273,18.389999389648438,19.649999618530273,19.579999923706055,5900.0,19.579999923706055
2018-12-12,20.531999588012695,19.420000076293945,19.610000610351562,19.799999237060547,4300.0,19.799999237060547
2018-12-13,20.520000457763672,19.600000381469727,19.799999237060547,20.520000457763672,700.0,20.520000457763672
2018-12-14,19.40999984741211,19.399999618530273,19.40999984741211,19.399999618530273,700.0,19.399999618530273
2018-12-17,19.60300064086914,19.60300064086914,19.60300064086914,19.60300064086914,500.0,19.60300064086914
2018-12-18,19.420000076293945,19.399999618530273,19.420000076293945,19.399999618530273,700.0,19.399999618530273
2018-12-19,19.399999618530273,19.399999618530273,19.399999618530273,19.399999618530273,100.0,19.399999618530273
2018-12-20,19.399999618530273,19.399999618530273,19.399999618530273,19.399999618530273,100.0,19.399999618530273
2018-12-21,19.399999618530273,19.399999618530273,19.399999618530273,19.399999618530273,100.0,19.399999618530273
2018-12-24,19.0,19.0,19.0,19.0,600.0,19.0
2018-12-26,20.183000564575195,19.0,19.0,19.0,2900.0,19.0
2018-12-27,18.5,18.440000534057617,18.5,18.440000534057617,900.0,18.440000534057617
2018-12-28,19.739999771118164,18.75,18.75,19.690000534057617,3400.0,19.690000534057617
2018-12-31,19.709999084472656,19.399999618530273,19.399999618530273,19.709999084472656,700.0,19.709999084472656
2019-01-02,19.709999084472656,19.709999084472656,19.709999084472656,19.709999084472656,200.0,19.709999084472656
2019-01-03,19.709999084472656,19.709999084472656,19.709999084472656,19.709999084472656,100.0,19.709999084472656
2019-01-04,19.709999084472656,19.709999084472656,19.709999084472656,19.709999084472656,100.0,19.709999084472656
2019-01-07,19.75,18.812000274658203,19.690000534057617,19.149999618530273,2300.0,19.149999618530273
2019-01-08,19.488000869750977,18.75,19.31999969482422,18.75,1400.0,18.75
2019-01-09,18.75,18.75,18.75,18.75,100.0,18.75
2019-01-10,18.454999923706055,18.454999923706055,18.454999923706055,18.454999923706055,300.0,18.454999923706055
2019-01-11,18.849000930786133,18.849000930786133,18.849000930786133,18.849000930786133,600.0,18.849000930786133
2019-01-14,19.5,18.989999771118164,19.049999237060547,19.5,5900.0,19.5
2019-01-15,19.5,19.5,19.5,19.5,100.0,19.5
2019-01-16,19.5,19.5,19.5,19.5,200.0,19.5
2019-01-17,19.5,19.5,19.5,19.5,100.0,19.5
2019-01-18,19.25,18.75,19.049999237060547,18.75,2400.0,18.75
2019-01-22,18.75,18.75,18.75,18.75,100.0,18.75
2019-01-23,18.75,18.75,18.75,18.75,100.0,18.75
2019-01-24,18.75,18.75,18.75,18.75,0.0,18.75
2019-01-25,18.75,18.75,18.75,18.75,100.0,18.75
2019-01-28,18.75,18.75,18.75,18.75,100.0,18.75
2019-01-29,18.75,18.75,18.75,18.75,200.0,18.75
2019-01-30,19.5,18.969999313354492,19.489999771118164,19.246999740600586,3500.0,19.246999740600586
2019-01-31,19.5,19.5,19.5,19.5,300.0,19.5
2019-02-01,19.100000381469727,19.100000381469727,19.100000381469727,19.100000381469727,200.0,19.100000381469727
2019-02-04,19.09000015258789,18.75,18.75,19.09000015258789,2100.0,19.09000015258789
2019-02-05,18.59000015258789,18.450000762939453,18.450000762939453,18.59000015258789,300.0,18.59000015258789
2019-02-06,18.59000015258789,18.59000015258789,18.59000015258789,18.59000015258789,100.0,18.59000015258789
2019-02-07,18.59000015258789,18.59000015258789,18.59000015258789,18.59000015258789,100.0,18.59000015258789
2019-02-08,18.59000015258789,18.59000015258789,18.59000015258789,18.59000015258789,100.0,18.59000015258789
2019-02-11,18.799999237060547,18.399999618530273,18.59000015258789,18.399999618530273,3000.0,18.399999618530273
2019-02-12,19.0,18.420000076293945,18.420000076293945,19.0,91200.0,19.0
2019-02-13,19.0,19.0,19.0,19.0,0.0,19.0
2019-02-14,19.239999771118164,18.549999237060547,18.790000915527344,18.549999237060547,600.0,18.549999237060547
2019-02-15,18.84000015258789,18.610000610351562,18.760000228881836,18.610000610351562,1400.0,18.610000610351562
2019-02-19,19.024999618530273,18.829999923706055,19.024999618530273,18.899999618530273,1700.0,18.899999618530273
2019-02-20,19.100000381469727,18.850000381469727,18.850000381469727,18.899999618530273,1200.0,18.899999618530273
2019-02-21,19.219999313354492,18.90999984741211,18.90999984741211,19.219999313354492,400.0,19.219999313354492
2019-02-22,19.25,19.0,19.0,19.25,600.0,19.25
2019-02-25,19.25,19.25,19.25,19.25,200.0,19.25
2019-02-26,19.25,18.924999237060547,19.25,19.25,2400.0,19.25
2019-02-27,19.5,19.5,19.5,19.5,100.0,19.5
2019-02-28,18.510000228881836,18.510000228881836,18.510000228881836,18.510000228881836,300.0,18.510000228881836
2019-03-01,18.510000228881836,18.510000228881836,18.510000228881836,18.510000228881836,100.0,18.510000228881836
2019-03-04,18.510000228881836,18.510000228881836,18.510000228881836,18.510000228881836,100.0,18.510000228881836
2019-03-05,19.5,18.610000610351562,19.125999450683594,18.610000610351562,17900.0,18.610000610351562
2019-03-06,19.049999237060547,18.549999237060547,18.60300064086914,18.549999237060547,1000.0,18.549999237060547
2019-03-07,19.2450008392334,18.851999282836914,18.851999282836914,19.2450008392334,2500.0,19.2450008392334
2019-03-08,19.37299919128418,18.739999771118164,19.37299919128418,18.739999771118164,2000.0,18.739999771118164
2019-03-11,19.5,19.25,19.416000366210938,19.25,8500.0,19.25
2019-03-12,19.25,19.25,19.25,19.25,400.0,19.25
2019-03-13,19.25,19.25,19.25,19.25,200.0,19.25
2019-03-14,19.25,19.25,19.25,19.25,100.0,19.25
2019-03-15,19.25,19.25,19.25,19.25,100.0,19.25
2019-03-18,19.249000549316406,19.093000411987305,19.249000549316406,19.200000762939453,1200.0,19.200000762939453
2019-03-19,19.75,19.75,19.75,19.75,200.0,19.75
2019-03-20,19.25,18.915000915527344,19.049999237060547,19.139999389648438,4600.0,19.139999389648438
2019-03-21,19.884000778198242,19.049999237060547,19.68000030517578,19.049999237060547,1900.0,19.049999237060547
2019-03-22,19.25,18.670000076293945,19.200000762939453,18.719999313354492,1300.0,18.719999313354492
2019-03-25,18.950000762939453,18.610000610351562,18.950000762939453,18.940000534057617,1900.0,18.940000534057617
2019-03-26,19.267000198364258,18.950000762939453,19.155000686645508,19.0,1600.0,19.0
2019-03-27,19.0,19.0,19.0,19.0,100.0,19.0
2019-03-28,19.020000457763672,18.600000381469727,18.600000381469727,18.799999237060547,1900.0,18.799999237060547
2019-03-29,19.277000427246094,18.799999237060547,18.979999542236328,18.799999237060547,3800.0,18.799999237060547
2019-04-01,18.799999237060547,18.799999237060547,18.799999237060547,18.799999237060547,100.0,18.799999237060547
2019-04-02,19.1560001373291,19.1560001373291,19.1560001373291,19.1560001373291,500.0,19.1560001373291
2019-04-03,19.190000534057617,18.719999313354492,18.87299919128418,18.719999313354492,1700.0,18.719999313354492
2019-04-04,18.719999313354492,18.719999313354492,18.719999313354492,18.719999313354492,100.0,18.719999313354492
2019-04-05,19.0,18.700000762939453,19.0,18.700000762939453,1200.0,18.700000762939453
2019-04-08,18.834999084472656,18.700000762939453,18.700000762939453,18.700000762939453,400.0,18.700000762939453
2019-04-09,18.700000762939453,18.700000762939453,18.700000762939453,18.700000762939453,100.0,18.700000762939453
2019-04-10,19.25,19.25,19.25,19.25,500.0,19.25
2019-04-11,19.25,19.25,19.25,19.25,100.0,19.25
2019-04-12,19.190000534057617,19.190000534057617,19.190000534057617,19.190000534057617,600.0,19.190000534057617
2019-04-15,19.190000534057617,19.190000534057617,19.190000534057617,19.190000534057617,100.0,19.190000534057617
2019-04-16,19.190000534057617,19.190000534057617,19.190000534057617,19.190000534057617,100.0,19.190000534057617
2019-04-17,18.649999618530273,18.649999618530273,18.649999618530273,18.649999618530273,100.0,18.649999618530273
2019-04-18,18.649999618530273,18.649999618530273,18.649999618530273,18.649999618530273,0.0,18.649999618530273
2019-04-22,19.0,18.989999771118164,18.989999771118164,19.0,1700.0,19.0
2019-04-23,19.239999771118164,19.239999771118164,19.239999771118164,19.239999771118164,400.0,19.239999771118164
2019-04-24,19.239999771118164,19.239999771118164,19.239999771118164,19.239999771118164,100.0,19.239999771118164
2019-04-25,19.239999771118164,19.239999771118164,19.239999771118164,19.239999771118164,100.0,19.239999771118164
2019-04-26,19.239999771118164,19.239999771118164,19.239999771118164,19.239999771118164,100.0,19.239999771118164
2019-04-29,18.687000274658203,18.687000274658203,18.687000274658203,18.687000274658203,1500.0,18.687000274658203
2019-04-30,18.687000274658203,18.687000274658203,18.687000274658203,18.687000274658203,100.0,18.687000274658203
2019-05-01,18.687000274658203,18.687000274658203,18.687000274658203,18.687000274658203,100.0,18.687000274658203
2019-05-02,18.687000274658203,18.687000274658203,18.687000274658203,18.687000274658203,100.0,18.687000274658203
2019-05-03,18.687000274658203,18.687000274658203,18.687000274658203,18.687000274658203,100.0,18.687000274658203
2019-05-06,19.170000076293945,19.170000076293945,19.170000076293945,19.170000076293945,200.0,19.170000076293945
2019-05-07,19.25,19.200000762939453,19.209999084472656,19.25,1500.0,19.25
2019-05-08,19.25,19.25,19.25,19.25,100.0,19.25
2019-05-09,19.25,19.25,19.25,19.25,100.0,19.25
2019-05-10,19.25,19.25,19.25,19.25,0.0,19.25
2019-05-13,19.09000015258789,19.079999923706055,19.079999923706055,19.09000015258789,900.0,19.09000015258789
2019-05-14,18.777000427246094,18.606000900268555,18.606000900268555,18.777000427246094,600.0,18.777000427246094
2019-05-15,18.777000427246094,18.777000427246094,18.777000427246094,18.777000427246094,100.0,18.777000427246094
2019-05-16,18.6560001373291,18.6560001373291,18.6560001373291,18.6560001373291,400.0,18.6560001373291
2019-05-17,19.0,17.989999771118164,19.0,18.299999237060547,3900.0,18.299999237060547
2019-05-20,18.652999877929688,18.652999877929688,18.652999877929688,18.652999877929688,100.0,18.652999877929688
2019-05-21,18.652999877929688,18.652999877929688,18.652999877929688,18.652999877929688,100.0,18.652999877929688
2019-05-22,18.652999877929688,18.652999877929688,18.652999877929688,18.652999877929688,100.0,18.652999877929688
2019-05-23,18.399999618530273,18.399999618530273,18.399999618530273,18.399999618530273,600.0,18.399999618530273
2019-05-24,18.399999618530273,18.350000381469727,18.399999618530273,18.350000381469727,600.0,18.350000381469727
