Date,High,Low,Open,Close,Volume,Adj Close
2016-07-27,5.0,5.0,5.0,5.0,0,5.0
2016-07-28,13.0,13.0,13.0,13.0,100,13.0
2016-07-29,13.0,13.0,13.0,13.0,0,13.0
2016-08-01,15.0,15.0,15.0,15.0,200,15.0
2016-08-02,15.0,15.0,15.0,15.0,0,15.0
2016-08-03,14.0,13.0,14.0,13.0,700,13.0
2016-08-04,15.239999771118164,13.5,13.5,15.239999771118164,200,15.239999771118164
2016-08-05,14.5,14.5,14.5,14.5,300,14.5
2016-08-08,14.5,14.5,14.5,14.5,0,14.5
2016-08-09,14.5,14.420000076293945,14.5,14.420000076293945,600,14.420000076293945
2016-08-10,13.72700023651123,13.515000343322754,13.72700023651123,13.675000190734863,800,13.675000190734863
2016-08-11,13.675000190734863,13.675000190734863,13.675000190734863,13.675000190734863,0,13.675000190734863
2016-08-12,13.675000190734863,13.675000190734863,13.675000190734863,13.675000190734863,0,13.675000190734863
2016-08-15,14.199999809265137,13.5,13.5,13.670999526977539,700,13.670999526977539
2016-08-16,14.229999542236328,13.75,14.0,14.119999885559082,1900,14.119999885559082
2016-08-17,14.119999885559082,14.119999885559082,14.119999885559082,14.119999885559082,200,14.119999885559082
2016-08-18,14.119999885559082,14.119999885559082,14.119999885559082,14.119999885559082,0,14.119999885559082
2016-08-19,14.119999885559082,14.119999885559082,14.119999885559082,14.119999885559082,0,14.119999885559082
2016-08-22,14.0,14.0,14.0,14.0,100,14.0
2016-08-23,14.25,14.0,14.020000457763672,14.25,1300,14.25
2016-08-24,14.25,14.0,14.220000267028809,14.25,800,14.25
2016-08-25,14.25,14.25,14.25,14.25,0,14.25
2016-08-26,14.300000190734863,14.0,14.227999687194824,14.300000190734863,900,14.300000190734863
2016-08-29,14.300000190734863,14.300000190734863,14.300000190734863,14.300000190734863,300,14.300000190734863
2016-08-30,14.300000190734863,14.300000190734863,14.300000190734863,14.300000190734863,0,14.300000190734863
2016-08-31,14.300000190734863,14.300000190734863,14.300000190734863,14.300000190734863,0,14.300000190734863
2016-09-01,14.489999771118164,14.0,14.489999771118164,14.4399995803833,1400,14.4399995803833
2016-09-02,14.4399995803833,14.4399995803833,14.4399995803833,14.4399995803833,0,14.4399995803833
2016-09-06,14.4399995803833,14.4399995803833,14.4399995803833,14.4399995803833,0,14.4399995803833
2016-09-07,14.4399995803833,14.4399995803833,14.4399995803833,14.4399995803833,400,14.4399995803833
2016-09-08,14.4399995803833,14.4399995803833,14.4399995803833,14.4399995803833,0,14.4399995803833
2016-09-09,14.4399995803833,14.4399995803833,14.4399995803833,14.4399995803833,0,14.4399995803833
2016-09-12,14.4399995803833,14.4399995803833,14.4399995803833,14.4399995803833,0,14.4399995803833
2016-09-13,13.0,12.170000076293945,12.949999809265137,13.0,1900,13.0
2016-09-14,14.449999809265137,14.449999809265137,14.449999809265137,14.449999809265137,200,14.449999809265137
2016-09-15,14.449999809265137,12.0,12.039999961853027,14.449999809265137,800,14.449999809265137
2016-09-16,14.449999809265137,12.34000015258789,12.449999809265137,14.449999809265137,1300,14.449999809265137
2016-09-19,14.449999809265137,14.449999809265137,14.449999809265137,14.449999809265137,0,14.449999809265137
2016-09-20,14.449999809265137,14.449999809265137,14.449999809265137,14.449999809265137,0,14.449999809265137
2016-09-21,14.0,14.0,14.0,14.0,100,14.0
2016-09-22,14.0,14.0,14.0,14.0,0,14.0
2016-09-23,14.0,14.0,14.0,14.0,0,14.0
2016-09-26,14.0,14.0,14.0,14.0,0,14.0
2016-09-27,14.0,14.0,14.0,14.0,3100,14.0
2016-09-28,14.0,14.0,14.0,14.0,0,14.0
2016-09-29,14.0,14.0,14.0,14.0,0,14.0
2016-09-30,14.0,14.0,14.0,14.0,0,14.0
2016-10-03,14.0,14.0,14.0,14.0,0,14.0
2016-10-04,14.0,14.0,14.0,14.0,0,14.0
2016-10-05,14.0,14.0,14.0,14.0,0,14.0
2016-10-06,14.0,14.0,14.0,14.0,0,14.0
2016-10-07,14.0,14.0,14.0,14.0,0,14.0
2016-10-10,14.0,14.0,14.0,14.0,0,14.0
2016-10-11,13.07699966430664,11.770000457763672,13.07699966430664,11.770000457763672,2400,11.770000457763672
2016-10-12,11.873000144958496,11.710000038146973,11.850000381469727,11.770000457763672,1000,11.770000457763672
2016-10-13,12.140000343322754,11.5,11.5,12.100000381469727,500,12.100000381469727
2016-10-14,12.100000381469727,12.100000381469727,12.100000381469727,12.100000381469727,0,12.100000381469727
2016-10-17,12.100000381469727,12.100000381469727,12.100000381469727,12.100000381469727,0,12.100000381469727
2016-10-18,11.899999618530273,11.899999618530273,11.899999618530273,11.899999618530273,100,11.899999618530273
2016-10-19,11.899999618530273,11.899999618530273,11.899999618530273,11.899999618530273,0,11.899999618530273
2016-10-20,11.5,11.5,11.5,11.5,200,11.5
2016-10-21,11.850000381469727,11.5,11.5,11.850000381469727,400,11.850000381469727
2016-10-24,11.850000381469727,11.850000381469727,11.850000381469727,11.850000381469727,0,11.850000381469727
2016-10-25,11.850000381469727,11.850000381469727,11.850000381469727,11.850000381469727,0,11.850000381469727
2016-10-26,11.850000381469727,11.850000381469727,11.850000381469727,11.850000381469727,0,11.850000381469727
2016-10-27,11.850000381469727,11.850000381469727,11.850000381469727,11.850000381469727,0,11.850000381469727
2016-10-28,11.810999870300293,11.800000190734863,11.800000190734863,11.810999870300293,500,11.810999870300293
2016-10-31,11.800000190734863,11.800000190734863,11.800000190734863,11.800000190734863,800,11.800000190734863
2016-11-01,11.800000190734863,11.800000190734863,11.800000190734863,11.800000190734863,0,11.800000190734863
2016-11-02,11.019000053405762,11.0,11.0,11.019000053405762,1000,11.019000053405762
2016-11-03,11.019000053405762,11.019000053405762,11.019000053405762,11.019000053405762,0,11.019000053405762
2016-11-04,10.5,10.5,10.5,10.5,200,10.5
2016-11-07,10.5,10.5,10.5,10.5,0,10.5
2016-11-08,10.5,10.5,10.5,10.5,0,10.5
2016-11-09,12.119999885559082,10.90999984741211,12.119999885559082,11.899999618530273,1100,11.899999618530273
2016-11-10,11.399999618530273,11.0,11.399999618530273,11.0,2700,11.0
2016-11-11,12.100000381469727,11.0,11.0,11.239999771118164,34700,11.239999771118164
2016-11-14,10.640000343322754,10.5,10.640000343322754,10.5,600,10.5
2016-11-15,10.399999618530273,10.279000282287598,10.399999618530273,10.279000282287598,400,10.279000282287598
2016-11-16,10.0,10.0,10.0,10.0,300,10.0
2016-11-17,10.288000106811523,8.979999542236328,10.288000106811523,8.979999542236328,1500,8.979999542236328
2016-11-18,10.720000267028809,8.850000381469727,10.720000267028809,8.899999618530273,5400,8.899999618530273
2016-11-21,10.25,9.199999809265137,9.970000267028809,9.199999809265137,2500,9.199999809265137
2016-11-22,9.199999809265137,9.199999809265137,9.199999809265137,9.199999809265137,0,9.199999809265137
2016-11-23,9.5,8.710000038146973,9.199999809265137,9.5,3900,9.5
2016-11-25,9.5,9.5,9.5,9.5,0,9.5
2016-11-28,9.800000190734863,9.5,9.5,9.5,1100,9.5
2016-11-29,10.34000015258789,8.5,8.550000190734863,8.706999778747559,3600,8.706999778747559
2016-11-30,8.130000114440918,7.460000038146973,7.460000038146973,8.0,3300,8.0
2016-12-01,8.0,8.0,8.0,8.0,1200,8.0
2016-12-02,8.0,8.0,8.0,8.0,0,8.0
2016-12-05,8.0,8.0,8.0,8.0,0,8.0
2016-12-06,8.0,8.0,8.0,8.0,0,8.0
2016-12-07,8.0,7.099999904632568,7.550000190734863,8.0,4600,8.0
2016-12-08,8.0,8.0,8.0,8.0,0,8.0
2016-12-09,8.289999961853027,8.25,8.25,8.25,1300,8.25
2016-12-12,8.300000190734863,8.300000190734863,8.300000190734863,8.300000190734863,600,8.300000190734863
2016-12-13,8.0,7.199999809265137,8.0,7.96999979019165,1400,7.96999979019165
2016-12-14,7.6529998779296875,7.436999797821045,7.436999797821045,7.436999797821045,1000,7.436999797821045
2016-12-15,7.464000225067139,6.900000095367432,7.300000190734863,6.909999847412109,9100,6.909999847412109
2016-12-16,8.800000190734863,6.300000190734863,6.300000190734863,7.75,3600,7.75
2016-12-19,8.263999938964844,7.110000133514404,8.229999542236328,7.110000133514404,5600,7.110000133514404
2016-12-20,7.429999828338623,6.98199987411499,7.410999774932861,7.182000160217285,1300,7.182000160217285
2016-12-21,6.934999942779541,6.934999942779541,6.934999942779541,6.934999942779541,100,6.934999942779541
2016-12-22,7.75,7.25,7.75,7.75,600,7.75
2016-12-23,7.75,6.800000190734863,7.150000095367432,7.0,4400,7.0
2016-12-27,7.0,7.0,7.0,7.0,200,7.0
2016-12-28,7.0,6.699999809265137,7.0,6.800000190734863,2900,6.800000190734863
2016-12-29,6.800000190734863,6.800000190734863,6.800000190734863,6.800000190734863,0,6.800000190734863
2016-12-30,6.900000095367432,6.900000095367432,6.900000095367432,6.900000095367432,500,6.900000095367432
2017-01-03,6.843999862670898,6.519999980926514,6.519999980926514,6.843999862670898,900,6.843999862670898
2017-01-04,6.960000038146973,6.599999904632568,6.960000038146973,6.599999904632568,7900,6.599999904632568
2017-01-05,6.929999828338623,5.639999866485596,6.5,6.0,3900,6.0
2017-01-06,6.0,5.900000095367432,5.900000095367432,6.0,900,6.0
2017-01-09,6.0,6.0,6.0,6.0,200,6.0
2017-01-10,5.800000190734863,5.599999904632568,5.800000190734863,5.789000034332275,1400,5.789000034332275
2017-01-11,5.519999980926514,5.255000114440918,5.510000228881836,5.255000114440918,1300,5.255000114440918
2017-01-12,5.25,5.099999904632568,5.25,5.230000019073486,1700,5.230000019073486
2017-01-13,5.610000133514404,5.119999885559082,5.119999885559082,5.610000133514404,1000,5.610000133514404
2017-01-17,5.420000076293945,4.5,5.0,5.125,7300,5.125
2017-01-18,5.150000095367432,4.639999866485596,4.800000190734863,4.639999866485596,1800,4.639999866485596
2017-01-19,6.289999961853027,4.650000095367432,4.650000095367432,5.269999980926514,6900,5.269999980926514
2017-01-20,5.169000148773193,5.110000133514404,5.111000061035156,5.119999885559082,2800,5.119999885559082
2017-01-23,5.177999973297119,5.177999973297119,5.177999973297119,5.177999973297119,100,5.177999973297119
2017-01-24,5.177999973297119,5.177999973297119,5.177999973297119,5.177999973297119,0,5.177999973297119
2017-01-25,5.25,5.25,5.25,5.25,400,5.25
2017-01-26,5.25,5.099999904632568,5.25,5.099999904632568,1700,5.099999904632568
2017-01-27,5.099999904632568,5.099999904632568,5.099999904632568,5.099999904632568,0,5.099999904632568
2017-01-30,6.513000011444092,5.599999904632568,5.599999904632568,5.880000114440918,13400,5.880000114440918
2017-01-31,7.199999809265137,6.099999904632568,6.099999904632568,6.750999927520752,13200,6.750999927520752
2017-02-01,7.5,6.849999904632568,7.0,7.0,6200,7.0
2017-02-02,8.300000190734863,7.25,7.25,8.0,24400,8.0
2017-02-03,7.949999809265137,6.440000057220459,7.949999809265137,7.0,4400,7.0
2017-02-06,7.0,7.0,7.0,7.0,1000,7.0
2017-02-07,7.039999961853027,6.748000144958496,6.748000144958496,7.010000228881836,1000,7.010000228881836
2017-02-08,6.800000190734863,5.460000038146973,6.650000095367432,6.800000190734863,13900,6.800000190734863
2017-02-09,6.610000133514404,6.489999771118164,6.570000171661377,6.610000133514404,2900,6.610000133514404
2017-02-10,6.960000038146973,6.329999923706055,6.960000038146973,6.400000095367432,800,6.400000095367432
2017-02-13,6.690000057220459,6.400000095367432,6.400000095367432,6.489999771118164,4600,6.489999771118164
2017-02-14,6.889999866485596,6.300000190734863,6.300000190734863,6.505000114440918,1300,6.505000114440918
2017-02-15,6.355000019073486,6.0,6.349999904632568,6.355000019073486,3100,6.355000019073486
2017-02-16,6.300000190734863,6.25,6.25,6.300000190734863,1400,6.300000190734863
2017-02-17,6.199999809265137,6.172999858856201,6.172999858856201,6.199999809265137,900,6.199999809265137
2017-02-21,6.199999809265137,6.099999904632568,6.199999809265137,6.199999809265137,3600,6.199999809265137
2017-02-22,5.949999809265137,5.489999771118164,5.5,5.489999771118164,5100,5.489999771118164
2017-02-23,6.75,5.480000019073486,5.480000019073486,6.400000095367432,27300,6.400000095367432
2017-02-24,7.679999828338623,6.099999904632568,7.679999828338623,6.099999904632568,13700,6.099999904632568
2017-02-27,6.730000019073486,6.230000019073486,6.730000019073486,6.230000019073486,1600,6.230000019073486
2017-02-28,6.190000057220459,5.789999961853027,5.789999961853027,6.190000057220459,4000,6.190000057220459
2017-03-01,5.980000019073486,5.692999839782715,5.828000068664551,5.980000019073486,4500,5.980000019073486
2017-03-02,5.849999904632568,5.75,5.75,5.809999942779541,1600,5.809999942779541
2017-03-03,5.900000095367432,5.75,5.750999927520752,5.900000095367432,4200,5.900000095367432
2017-03-06,6.46999979019165,5.650000095367432,5.677999973297119,6.400000095367432,8900,6.400000095367432
2017-03-07,6.25,5.849999904632568,6.25,6.130000114440918,3000,6.130000114440918
2017-03-08,6.25,6.230000019073486,6.25,6.25,1600,6.25
2017-03-09,6.429999828338623,5.849999904632568,5.849999904632568,6.199999809265137,7200,6.199999809265137
2017-03-10,6.289999961853027,5.119999885559082,6.239999771118164,5.119999885559082,3500,5.119999885559082
2017-03-13,6.400000095367432,5.849999904632568,6.110000133514404,6.119999885559082,4800,6.119999885559082
2017-03-14,6.175000190734863,5.840000152587891,5.840000152587891,5.989999771118164,3200,5.989999771118164
2017-03-15,6.0,5.829999923706055,5.906000137329102,5.920000076293945,4100,5.920000076293945
2017-03-16,6.0,5.800000190734863,5.949999809265137,5.949999809265137,2600,5.949999809265137
2017-03-17,6.5,5.820000171661377,5.820000171661377,5.949999809265137,14600,5.949999809265137
2017-03-20,5.949999809265137,5.949999809265137,5.949999809265137,5.949999809265137,0,5.949999809265137
2017-03-21,6.25,5.650000095367432,6.242000102996826,5.650000095367432,900,5.650000095367432
2017-03-22,5.980000019073486,5.980000019073486,5.980000019073486,5.980000019073486,200,5.980000019073486
2017-03-23,6.434000015258789,5.860000133514404,6.21999979019165,5.989999771118164,1600,5.989999771118164
2017-03-24,5.989999771118164,5.989999771118164,5.989999771118164,5.989999771118164,0,5.989999771118164
2017-03-27,5.989999771118164,5.989999771118164,5.989999771118164,5.989999771118164,0,5.989999771118164
2017-03-28,5.533999919891357,5.0,5.5,5.010000228881836,11400,5.010000228881836
2017-03-29,5.285999774932861,5.010000228881836,5.010000228881836,5.03000020980835,18800,5.03000020980835
2017-03-30,5.428999900817871,4.800000190734863,5.170000076293945,5.059999942779541,21600,5.059999942779541
2017-03-31,5.289999961853027,5.0,5.130000114440918,5.0,13200,5.0
2017-04-03,5.130000114440918,5.119999885559082,5.119999885559082,5.130000114440918,1300,5.130000114440918
2017-04-04,5.290999889373779,5.150000095367432,5.150000095367432,5.150000095367432,1200,5.150000095367432
2017-04-05,5.434999942779541,5.434999942779541,5.434999942779541,5.434999942779541,200,5.434999942779541
2017-04-06,5.550000190734863,4.920000076293945,5.546000003814697,5.0,9300,5.0
2017-04-07,5.489999771118164,5.0,5.199999809265137,5.0,44700,5.0
2017-04-10,5.25,4.800000190734863,5.25,5.0,4300,5.0
2017-04-11,5.349999904632568,4.877999782562256,5.139999866485596,5.199999809265137,16700,5.199999809265137
2017-04-12,5.400000095367432,5.0,5.254000186920166,5.099999904632568,18200,5.099999904632568
2017-04-13,5.320000171661377,4.800000190734863,5.260000228881836,4.900000095367432,23300,4.900000095367432
2017-04-17,5.449999809265137,4.849999904632568,5.050000190734863,4.960000038146973,26700,4.960000038146973
2017-04-18,5.099999904632568,4.900000095367432,5.099999904632568,4.900000095367432,2300,4.900000095367432
2017-04-19,5.0,4.809999942779541,5.0,4.940000057220459,7700,4.940000057220459
2017-04-20,5.039999961853027,4.800000190734863,4.989999771118164,4.809999942779541,15900,4.809999942779541
2017-04-21,4.760000228881836,4.510000228881836,4.550000190734863,4.699999809265137,8000,4.699999809265137
2017-04-24,4.900000095367432,4.75,4.75,4.900000095367432,7200,4.900000095367432
2017-04-25,4.900000095367432,4.730000019073486,4.900000095367432,4.849999904632568,12300,4.849999904632568
2017-04-26,4.900000095367432,4.760000228881836,4.869999885559082,4.760000228881836,13700,4.760000228881836
2017-04-27,4.814000129699707,4.670000076293945,4.739999771118164,4.769999980926514,8300,4.769999980926514
2017-04-28,4.869999885559082,4.699999809265137,4.760000228881836,4.869999885559082,14000,4.869999885559082
2017-05-01,4.880000114440918,4.78000020980835,4.880000114440918,4.78000020980835,5300,4.78000020980835
2017-05-02,4.840000152587891,4.320000171661377,4.320000171661377,4.769999980926514,15700,4.769999980926514
2017-05-03,5.300000190734863,4.900000095367432,5.03000020980835,4.90500020980835,14200,4.90500020980835
2017-05-04,4.710000038146973,4.710000038146973,4.710000038146973,4.710000038146973,7400,4.710000038146973
2017-05-05,5.0,4.75,4.789999961853027,5.0,9100,5.0
2017-05-08,4.800000190734863,4.710000038146973,4.730000019073486,4.800000190734863,9400,4.800000190734863
2017-05-09,5.150000095367432,4.840000152587891,5.0,4.920000076293945,10300,4.920000076293945
2017-05-10,4.900000095367432,4.849999904632568,4.849999904632568,4.849999904632568,2000,4.849999904632568
2017-05-11,5.081999778747559,4.760000228881836,4.816999912261963,4.760000228881836,2100,4.760000228881836
2017-05-12,4.991000175476074,4.730000019073486,4.880000114440918,4.730000019073486,3100,4.730000019073486
2017-05-15,4.849999904632568,4.5,4.849999904632568,4.5,1900,4.5
2017-05-16,4.5,4.5,4.5,4.5,0,4.5
2017-05-17,4.5,4.5,4.5,4.5,0,4.5
2017-05-18,4.210000038146973,3.799999952316284,4.210000038146973,3.809999942779541,3800,3.809999942779541
2017-05-19,4.349999904632568,3.430000066757202,4.010000228881836,3.700000047683716,2900,3.700000047683716
2017-05-22,3.6659998893737793,3.446000099182129,3.609999895095825,3.569999933242798,600,3.569999933242798
2017-05-23,3.990000009536743,3.630000114440918,3.990000009536743,3.700000047683716,7700,3.700000047683716
2017-05-24,3.7899999618530273,3.3499999046325684,3.5,3.7899999618530273,800,3.7899999618530273
2017-05-25,3.690000057220459,3.549999952316284,3.609999895095825,3.690000057220459,1000,3.690000057220459
2017-05-26,3.700000047683716,3.5,3.5,3.700000047683716,900,3.700000047683716
2017-05-30,4.400000095367432,3.7699999809265137,3.7699999809265137,4.239999771118164,3600,4.239999771118164
2017-05-31,4.610000133514404,4.179999828338623,4.320000171661377,4.210000038146973,5300,4.210000038146973
2017-06-01,4.699999809265137,4.25,4.25,4.650000095367432,500,4.650000095367432
2017-06-02,4.886000156402588,4.510000228881836,4.739999771118164,4.630000114440918,1600,4.630000114440918
2017-06-05,4.849999904632568,4.510000228881836,4.630000114440918,4.670000076293945,8500,4.670000076293945
2017-06-06,4.809999942779541,4.300000190734863,4.599999904632568,4.539999961853027,14400,4.539999961853027
2017-06-07,4.539999961853027,4.25,4.25,4.300000190734863,2000,4.300000190734863
2017-06-08,4.650000095367432,4.230000019073486,4.619999885559082,4.329999923706055,11500,4.329999923706055
2017-06-09,4.5,4.0,4.28000020980835,4.447000026702881,5400,4.447000026702881
2017-06-12,4.599999904632568,4.25,4.25,4.400000095367432,1300,4.400000095367432
2017-06-13,4.789999961853027,4.300000190734863,4.789999961853027,4.300000190734863,1400,4.300000190734863
2017-06-14,4.71999979019165,4.71999979019165,4.71999979019165,4.71999979019165,300,4.71999979019165
2017-06-15,4.572999954223633,4.239999771118164,4.239999771118164,4.572999954223633,800,4.572999954223633
2017-06-16,4.769999980926514,3.8399999141693115,4.090000152587891,4.769999980926514,20100,4.769999980926514
2017-06-19,4.769999980926514,4.179999828338623,4.699999809265137,4.769999980926514,3400,4.769999980926514
2017-06-20,4.449999809265137,4.21999979019165,4.360000133514404,4.429999828338623,4100,4.429999828338623
2017-06-21,4.400000095367432,4.400000095367432,4.400000095367432,4.400000095367432,2200,4.400000095367432
2017-06-22,4.75,4.340000152587891,4.739999771118164,4.489999771118164,3200,4.489999771118164
2017-06-23,4.420000076293945,4.360000133514404,4.360000133514404,4.409999847412109,400,4.409999847412109
2017-06-26,4.690000057220459,4.349999904632568,4.690000057220459,4.449999809265137,4300,4.449999809265137
2017-06-27,4.769999980926514,4.409999847412109,4.550000190734863,4.579999923706055,1600,4.579999923706055
2017-06-28,4.849999904632568,4.369999885559082,4.849999904632568,4.420000076293945,1300,4.420000076293945
2017-06-29,4.5,4.400000095367432,4.489999771118164,4.400000095367432,700,4.400000095367432
2017-06-30,4.504000186920166,4.504000186920166,4.504000186920166,4.504000186920166,600,4.504000186920166
2017-07-03,4.504000186920166,4.504000186920166,4.504000186920166,4.504000186920166,0,4.504000186920166
2017-07-05,4.504000186920166,4.504000186920166,4.504000186920166,4.504000186920166,0,4.504000186920166
2017-07-06,4.504000186920166,4.504000186920166,4.504000186920166,4.504000186920166,0,4.504000186920166
2017-07-07,4.504000186920166,4.504000186920166,4.504000186920166,4.504000186920166,0,4.504000186920166
2017-07-10,4.619999885559082,4.53000020980835,4.53000020980835,4.619999885559082,300,4.619999885559082
2017-07-11,4.670000076293945,4.423999786376953,4.650000095367432,4.650000095367432,2600,4.650000095367432
2017-07-12,4.829999923706055,4.440000057220459,4.670000076293945,4.550000190734863,4100,4.550000190734863
2017-07-13,4.650000095367432,4.53000020980835,4.614999771118164,4.650000095367432,3000,4.650000095367432
2017-07-14,4.650000095367432,4.650000095367432,4.650000095367432,4.650000095367432,0,4.650000095367432
2017-07-17,4.610000133514404,4.599999904632568,4.610000133514404,4.599999904632568,300,4.599999904632568
2017-07-18,4.550000190734863,4.420000076293945,4.550000190734863,4.420000076293945,1300,4.420000076293945
2017-07-19,4.300000190734863,4.059999942779541,4.300000190734863,4.099999904632568,5200,4.099999904632568
2017-07-20,4.010000228881836,3.809999942779541,4.010000228881836,3.809999942779541,1300,3.809999942779541
2017-07-21,3.9800000190734863,3.5999999046325684,3.9800000190734863,3.950000047683716,1000,3.950000047683716
2017-07-24,3.9100000858306885,3.509999990463257,3.8399999141693115,3.799999952316284,4100,3.799999952316284
2017-07-25,3.9809999465942383,3.6459999084472656,3.869999885559082,3.9809999465942383,5400,3.9809999465942383
2017-07-26,4.051000118255615,3.390000104904175,3.869999885559082,3.450000047683716,5700,3.450000047683716
2017-07-27,3.640000104904175,3.2909998893737793,3.4100000858306885,3.450000047683716,5600,3.450000047683716
2017-07-28,3.76200008392334,3.4600000381469727,3.5899999141693115,3.4800000190734863,9400,3.4800000190734863
2017-07-31,3.631999969482422,3.4800000190734863,3.5299999713897705,3.4800000190734863,4400,3.4800000190734863
2017-08-01,3.450000047683716,3.450000047683716,3.450000047683716,3.450000047683716,1200,3.450000047683716
2017-08-02,3.2730000019073486,2.9800000190734863,3.25,2.9800000190734863,5300,2.9800000190734863
2017-08-03,3.049999952316284,2.8580000400543213,3.049999952316284,2.8580000400543213,3100,2.8580000400543213
2017-08-04,3.006999969482422,2.5360000133514404,2.7990000247955322,2.9800000190734863,5500,2.9800000190734863
2017-08-07,3.0799999237060547,2.8550000190734863,3.0299999713897705,3.0199999809265137,5100,3.0199999809265137
2017-08-08,3.1500000953674316,3.0,3.009999990463257,3.1500000953674316,4700,3.1500000953674316
2017-08-09,3.240000009536743,3.121999979019165,3.240000009536743,3.1500000953674316,1200,3.1500000953674316
2017-08-10,3.1500000953674316,3.1500000953674316,3.1500000953674316,3.1500000953674316,0,3.1500000953674316
2017-08-11,2.8410000801086426,2.700000047683716,2.700000047683716,2.8410000801086426,2200,2.8410000801086426
2017-08-14,3.049999952316284,2.809999942779541,2.809999942779541,3.049999952316284,1400,3.049999952316284
2017-08-15,2.930000066757202,2.930000066757202,2.930000066757202,2.930000066757202,300,2.930000066757202
2017-08-16,3.3499999046325684,2.880000114440918,2.880000114440918,3.1600000858306885,5400,3.1600000858306885
2017-08-17,3.5,3.25,3.2799999713897705,3.4000000953674316,4500,3.4000000953674316
2017-08-18,4.0,3.2899999618530273,3.4800000190734863,3.9000000953674316,62600,3.9000000953674316
2017-08-21,4.400000095367432,4.0,4.0,4.0,65500,4.0
2017-08-22,4.25,3.859999895095825,4.0,3.859999895095825,14800,3.859999895095825
2017-08-23,4.25,3.75,3.75,4.110000133514404,16900,4.110000133514404
2017-08-24,4.243000030517578,4.0,4.243000030517578,4.099999904632568,8900,4.099999904632568
2017-08-25,4.5,4.0,4.5,4.25,17500,4.25
2017-08-28,4.360000133514404,4.052999973297119,4.360000133514404,4.190000057220459,8500,4.190000057220459
2017-08-29,4.199999809265137,4.179999828338623,4.199999809265137,4.179999828338623,5700,4.179999828338623
2017-08-30,4.199999809265137,4.190000057220459,4.199999809265137,4.199999809265137,4100,4.199999809265137
2017-08-31,4.400000095367432,4.199999809265137,4.199999809265137,4.302999973297119,3800,4.302999973297119
2017-09-01,4.5,4.389999866485596,4.5,4.4770002365112305,400,4.4770002365112305
2017-09-05,4.989999771118164,4.489999771118164,4.650000095367432,4.690000057220459,26900,4.690000057220459
2017-09-06,4.989999771118164,4.510000228881836,4.775000095367432,4.75,33700,4.75
2017-09-07,6.199999809265137,4.635000228881836,4.980000019073486,6.0,52100,6.0
2017-09-08,6.275000095367432,5.099999904632568,6.099999904632568,6.0,35500,6.0
2017-09-11,6.590000152587891,5.760000228881836,6.0,6.590000152587891,25700,6.590000152587891
2017-09-12,7.0,6.660999774932861,6.660999774932861,7.0,54100,7.0
2017-09-13,7.349999904632568,6.670000076293945,6.670000076293945,7.150000095367432,20400,7.150000095367432
2017-09-14,9.100000381469727,7.150000095367432,7.150000095367432,8.59000015258789,73100,8.59000015258789
2017-09-15,9.3100004196167,7.179999828338623,9.0,7.179999828338623,90300,7.179999828338623
2017-09-18,8.350000381469727,7.199999809265137,7.199999809265137,7.360000133514404,40300,7.360000133514404
2017-09-19,8.133999824523926,6.611000061035156,7.5279998779296875,6.909999847412109,15500,6.909999847412109
2017-09-20,7.085999965667725,6.809999942779541,6.949999809265137,6.809999942779541,5600,6.809999942779541
2017-09-21,6.400000095367432,5.440000057220459,6.400000095367432,6.0929999351501465,26000,6.0929999351501465
2017-09-22,6.150000095367432,5.659999847412109,6.150000095367432,6.0,10400,6.0
2017-09-25,5.942999839782715,5.139999866485596,5.940000057220459,5.340000152587891,16000,5.340000152587891
2017-09-26,5.938000202178955,5.5,5.539999961853027,5.860000133514404,2600,5.860000133514404
2017-09-27,5.840000152587891,5.539999961853027,5.840000152587891,5.539999961853027,900,5.539999961853027
2017-09-28,5.75,5.309999942779541,5.570000171661377,5.400000095367432,2600,5.400000095367432
2017-09-29,5.949999809265137,5.300000190734863,5.5,5.429999828338623,12100,5.429999828338623
2017-10-02,5.6020002365112305,5.380000114440918,5.429999828338623,5.6020002365112305,1700,5.6020002365112305
2017-10-03,5.579999923706055,5.372000217437744,5.579999923706055,5.53000020980835,2200,5.53000020980835
2017-10-04,5.75,5.559999942779541,5.75,5.650000095367432,1200,5.650000095367432
2017-10-05,5.75,5.5,5.75,5.5,6600,5.5
2017-10-06,5.369999885559082,5.010000228881836,5.369999885559082,5.210000038146973,4800,5.210000038146973
2017-10-09,5.348999977111816,5.0,5.284999847412109,5.0,11700,5.0
2017-10-10,5.170000076293945,4.929999828338623,4.929999828338623,5.0,3100,5.0
2017-10-11,4.949999809265137,4.5,4.949999809265137,4.679999828338623,5100,4.679999828338623
2017-10-12,5.199999809265137,4.849999904632568,4.849999904632568,4.849999904632568,8000,4.849999904632568
2017-10-13,5.130000114440918,4.800000190734863,4.869999885559082,5.010000228881836,1200,5.010000228881836
2017-10-16,5.199999809265137,5.010000228881836,5.015999794006348,5.110000133514404,1300,5.110000133514404
2017-10-17,5.25,5.0,5.25,5.210000038146973,600,5.210000038146973
2017-10-18,5.510000228881836,5.223999977111816,5.223999977111816,5.400000095367432,9200,5.400000095367432
2017-10-19,5.989999771118164,5.28000020980835,5.300000190734863,5.699999809265137,43600,5.699999809265137
2017-10-20,5.75,5.369999885559082,5.610000133514404,5.449999809265137,7700,5.449999809265137
2017-10-23,5.389999866485596,4.559999942779541,5.360000133514404,4.559999942779541,7300,4.559999942779541
2017-10-24,5.099999904632568,4.559999942779541,4.559999942779541,4.630000114440918,5500,4.630000114440918
2017-10-25,5.050000190734863,4.340000152587891,4.829999923706055,4.5,12500,4.5
2017-10-26,4.519999980926514,4.239999771118164,4.440000057220459,4.309999942779541,3700,4.309999942779541
2017-10-27,4.610000133514404,4.25,4.289999961853027,4.590000152587891,14600,4.590000152587891
2017-10-30,4.519999980926514,4.5,4.5,4.5,900,4.5
2017-10-31,4.639999866485596,4.179999828338623,4.5,4.409999847412109,3700,4.409999847412109
2017-11-01,4.440000057220459,4.289999961853027,4.289999961853027,4.400000095367432,800,4.400000095367432
2017-11-02,4.409999847412109,4.300000190734863,4.400000095367432,4.309999942779541,1000,4.309999942779541
2017-11-03,4.210000038146973,3.822000026702881,4.210000038146973,3.950000047683716,10500,3.950000047683716
2017-11-06,4.510000228881836,3.9600000381469727,3.9800000190734863,4.079999923706055,7700,4.079999923706055
2017-11-07,4.175000190734863,4.079999923706055,4.079999923706055,4.110000133514404,3200,4.110000133514404
2017-11-08,4.900000095367432,4.051000118255615,4.110000133514404,4.439000129699707,10200,4.439000129699707
2017-11-09,4.880000114440918,4.230000019073486,4.880000114440918,4.289999961853027,9900,4.289999961853027
2017-11-10,4.210000038146973,4.0,4.210000038146973,4.0,4800,4.0
2017-11-13,4.734000205993652,3.9200000762939453,4.079999923706055,4.010000228881836,5400,4.010000228881836
2017-11-14,3.9800000190734863,3.755000114440918,3.9800000190734863,3.9000000953674316,4700,3.9000000953674316
2017-11-15,4.159999847412109,3.609999895095825,3.799999952316284,3.609999895095825,3200,3.609999895095825
2017-11-16,3.609999895095825,3.609999895095825,3.609999895095825,3.609999895095825,0,3.609999895095825
2017-11-17,4.584000110626221,4.199999809265137,4.584000110626221,4.334000110626221,5300,4.334000110626221
2017-11-20,5.25,4.349999904632568,5.150000095367432,4.440000057220459,19700,4.440000057220459
2017-11-21,4.665999889373779,4.000999927520752,4.665999889373779,4.083000183105469,11700,4.083000183105469
2017-11-22,4.019000053405762,3.75,4.0,3.7799999713897705,2000,3.7799999713897705
2017-11-24,3.809999942779541,3.5999999046325684,3.809999942779541,3.7899999618530273,800,3.7899999618530273
2017-11-27,4.0,3.809999942779541,3.9000000953674316,3.859999895095825,2700,3.859999895095825
2017-11-28,4.199999809265137,3.809999942779541,4.199999809265137,3.809999942779541,5800,3.809999942779541
2017-11-29,4.0,3.8499999046325684,3.859999895095825,3.8499999046325684,500,3.8499999046325684
2017-11-30,3.890000104904175,2.9000000953674316,3.890000104904175,2.990000009536743,140700,2.990000009536743
2017-12-01,3.25,2.950000047683716,3.25,2.9600000381469727,26600,2.9600000381469727
2017-12-04,3.25,2.940000057220459,3.069999933242798,2.940000057220459,17200,2.940000057220459
2017-12-05,3.130000114440918,2.799999952316284,2.9600000381469727,3.049999952316284,49200,3.049999952316284
2017-12-06,2.9600000381469727,2.9000000953674316,2.940000057220459,2.9000000953674316,5100,2.9000000953674316
2017-12-07,3.049999952316284,2.259999990463257,2.9000000953674316,3.049999952316284,28400,3.049999952316284
2017-12-08,3.069999933242798,2.819999933242798,2.9800000190734863,2.940000057220459,23700,2.940000057220459
2017-12-11,3.049999952316284,2.859999895095825,3.049999952316284,2.869999885559082,6400,2.869999885559082
2017-12-12,3.0799999237060547,2.799999952316284,2.9000000953674316,2.9700000286102295,12900,2.9700000286102295
2017-12-13,3.0,2.819999933242798,2.9600000381469727,2.869999885559082,11000,2.869999885559082
2017-12-14,2.9600000381469727,2.6500000953674316,2.9000000953674316,2.6700000762939453,27300,2.6700000762939453
2017-12-15,2.7899999618530273,2.430000066757202,2.6500000953674316,2.450000047683716,24700,2.450000047683716
2017-12-18,2.740000009536743,2.319999933242798,2.6500000953674316,2.3399999141693115,52800,2.3399999141693115
2017-12-19,2.4820001125335693,2.1600000858306885,2.4820001125335693,2.2300000190734863,65000,2.2300000190734863
2017-12-20,2.4010000228881836,2.25,2.382999897003174,2.25,31600,2.25
2017-12-21,2.380000114440918,2.25,2.2699999809265137,2.3380000591278076,10200,2.3380000591278076
2017-12-22,2.2799999713897705,1.899999976158142,2.2799999713897705,2.180000066757202,45500,2.180000066757202
2017-12-26,2.3499999046325684,2.130000114440918,2.190000057220459,2.234999895095825,14800,2.234999895095825
2017-12-27,2.4600000381469727,2.236999988555908,2.240000009536743,2.3340001106262207,16100,2.3340001106262207
2017-12-28,2.2829999923706055,2.0759999752044678,2.2300000190734863,2.180000066757202,28800,2.180000066757202
2017-12-29,2.3380000591278076,2.0,2.200000047683716,2.2850000858306885,25800,2.2850000858306885
2018-01-02,2.552000045776367,2.299999952316284,2.359999895095825,2.319999933242798,41200,2.319999933242798
2018-01-03,2.5999999046325684,2.25,2.299999952316284,2.509999990463257,34500,2.509999990463257
2018-01-04,2.7699999809265137,2.4700000286102295,2.5769999027252197,2.6500000953674316,45200,2.6500000953674316
2018-01-05,2.822000026702881,2.549999952316284,2.549999952316284,2.609999895095825,21000,2.609999895095825
2018-01-08,2.740000009536743,2.569999933242798,2.7300000190734863,2.5899999141693115,1700,2.5899999141693115
2018-01-09,2.7750000953674316,2.569999933242798,2.6700000762939453,2.740000009536743,7200,2.740000009536743
2018-01-10,3.9800000190734863,2.6449999809265137,2.8299999237060547,3.2100000381469727,132000,3.2100000381469727
2018-01-11,3.509999990463257,2.8499999046325684,3.3499999046325684,2.9700000286102295,29600,2.9700000286102295
2018-01-12,3.3499999046325684,2.9200000762939453,3.3499999046325684,2.9600000381469727,5900,2.9600000381469727
2018-01-16,2.9200000762939453,2.700000047683716,2.9200000762939453,2.8399999141693115,29500,2.8399999141693115
2018-01-17,3.0480000972747803,2.559999942779541,2.7899999618530273,2.559999942779541,24400,2.559999942779541
2018-01-18,2.8399999141693115,2.180000066757202,2.8399999141693115,2.5399999618530273,89400,2.5399999618530273
2018-01-19,1.8669999837875366,1.7599999904632568,1.8200000524520874,1.8279999494552612,635500,1.8279999494552612
2018-01-22,1.850000023841858,1.7699999809265137,1.850000023841858,1.7999999523162842,75800,1.7999999523162842
2018-01-23,1.819000005722046,1.75,1.7899999618530273,1.7799999713897705,60200,1.7799999713897705
2018-01-24,1.850000023841858,1.7799999713897705,1.850000023841858,1.8200000524520874,129000,1.8200000524520874
2018-01-25,1.8200000524520874,1.7599999904632568,1.7799999713897705,1.7799999713897705,43200,1.7799999713897705
2018-01-26,1.8170000314712524,1.7799999713897705,1.7999999523162842,1.7999999523162842,46200,1.7999999523162842
2018-01-29,1.8350000381469727,1.7599999904632568,1.7999999523162842,1.7699999809265137,41200,1.7699999809265137
2018-01-30,1.840000033378601,1.7599999904632568,1.7699999809265137,1.8300000429153442,80300,1.8300000429153442
2018-01-31,1.8200000524520874,1.7000000476837158,1.7999999523162842,1.8200000524520874,69900,1.8200000524520874
2018-02-01,1.75,1.649999976158142,1.7350000143051147,1.7000000476837158,107200,1.7000000476837158
2018-02-02,1.7350000143051147,1.590000033378601,1.7350000143051147,1.6200000047683716,60300,1.6200000047683716
2018-02-05,1.659999966621399,1.600000023841858,1.6200000047683716,1.649999976158142,68300,1.649999976158142
2018-02-06,1.7000000476837158,1.600000023841858,1.6100000143051147,1.7000000476837158,55500,1.7000000476837158
2018-02-07,1.7999999523162842,1.659999966621399,1.6699999570846558,1.659999966621399,31100,1.659999966621399
2018-02-08,1.690000057220459,1.5499999523162842,1.690000057220459,1.559999942779541,62600,1.559999942779541
2018-02-09,1.5980000495910645,1.350000023841858,1.559000015258789,1.5399999618530273,150200,1.5399999618530273
2018-02-12,1.840000033378601,1.4800000190734863,1.559999942779541,1.659999966621399,179800,1.659999966621399
2018-02-13,1.8200000524520874,1.4700000286102295,1.6699999570846558,1.7000000476837158,81700,1.7000000476837158
2018-02-14,1.75,1.600000023841858,1.7209999561309814,1.6100000143051147,25200,1.6100000143051147
2018-02-15,1.6799999475479126,1.4700000286102295,1.600000023841858,1.5110000371932983,80400,1.5110000371932983
2018-02-16,1.6419999599456787,1.5290000438690186,1.5290000438690186,1.6200000047683716,26600,1.6200000047683716
2018-02-20,1.659999966621399,1.5299999713897705,1.6100000143051147,1.600000023841858,27000,1.600000023841858
2018-02-21,1.7799999713897705,1.6100000143051147,1.75,1.6399999856948853,17700,1.6399999856948853
2018-02-22,1.6679999828338623,1.600000023841858,1.6679999828338623,1.600000023841858,8900,1.600000023841858
2018-02-23,1.7100000381469727,1.5399999618530273,1.649999976158142,1.5800000429153442,71000,1.5800000429153442
2018-02-26,1.6799999475479126,1.5800000429153442,1.6399999856948853,1.6299999952316284,58100,1.6299999952316284
2018-02-27,1.690000057220459,1.5800000429153442,1.649999976158142,1.5800000429153442,22000,1.5800000429153442
2018-02-28,1.7999999523162842,1.600000023841858,1.649999976158142,1.7649999856948853,129000,1.7649999856948853
2018-03-01,1.7999999523162842,1.590000033378601,1.7000000476837158,1.7400000095367432,263000,1.7400000095367432
2018-03-02,1.7649999856948853,1.649999976158142,1.7200000286102295,1.7100000381469727,88400,1.7100000381469727
2018-03-05,1.7999999523162842,1.6699999570846558,1.7000000476837158,1.7300000190734863,65400,1.7300000190734863
2018-03-06,1.7799999713897705,1.7300000190734863,1.7799999713897705,1.75,20700,1.75
2018-03-07,1.7699999809265137,1.7400000095367432,1.7400000095367432,1.7400000095367432,15600,1.7400000095367432
2018-03-08,1.7999999523162842,1.7280000448226929,1.7699999809265137,1.75,43500,1.75
2018-03-09,1.7799999713897705,1.75,1.75,1.7799999713897705,4900,1.7799999713897705
2018-03-12,1.7999999523162842,1.7309999465942383,1.7899999618530273,1.7799999713897705,42900,1.7799999713897705
2018-03-13,1.8300000429153442,1.75,1.7790000438690186,1.7929999828338623,144400,1.7929999828338623
2018-03-14,1.8300000429153442,1.7400000095367432,1.7799999713897705,1.7899999618530273,303900,1.7899999618530273
2018-03-15,1.7799999713897705,1.6699999570846558,1.7799999713897705,1.7000000476837158,112600,1.7000000476837158
2018-03-16,1.7660000324249268,1.690000057220459,1.690000057220459,1.7599999904632568,25100,1.7599999904632568
2018-03-19,1.7799999713897705,1.6799999475479126,1.75,1.7000000476837158,49000,1.7000000476837158
2018-03-20,1.7200000286102295,1.6720000505447388,1.6720000505447388,1.7000000476837158,11500,1.7000000476837158
2018-03-21,1.7999999523162842,1.659999966621399,1.7100000381469727,1.7899999618530273,90000,1.7899999618530273
2018-03-22,1.809999942779541,1.7549999952316284,1.7899999618530273,1.7899999618530273,15200,1.7899999618530273
2018-03-23,1.7999999523162842,1.687000036239624,1.7699999809265137,1.7999999523162842,23100,1.7999999523162842
2018-03-26,1.7999999523162842,1.7130000591278076,1.7999999523162842,1.7699999809265137,21300,1.7699999809265137
2018-03-27,1.7860000133514404,1.690000057220459,1.7200000286102295,1.7000000476837158,29500,1.7000000476837158
2018-03-28,1.75,1.4500000476837158,1.690000057220459,1.6299999952316284,259900,1.6299999952316284
2018-03-29,1.7000000476837158,1.5199999809265137,1.6419999599456787,1.6399999856948853,137900,1.6399999856948853
2018-04-02,1.75,1.5499999523162842,1.75,1.6039999723434448,136100,1.6039999723434448
2018-04-03,1.6799999475479126,1.600000023841858,1.6610000133514404,1.600000023841858,51300,1.600000023841858
2018-04-04,1.7300000190734863,1.600000023841858,1.600000023841858,1.7300000190734863,79600,1.7300000190734863
2018-04-05,1.7000000476837158,1.6330000162124634,1.7000000476837158,1.659999966621399,37000,1.659999966621399
2018-04-06,1.687999963760376,1.6399999856948853,1.687999963760376,1.652999997138977,9800,1.652999997138977
2018-04-09,1.7170000076293945,1.649999976158142,1.7170000076293945,1.649999976158142,28800,1.649999976158142
2018-04-10,1.7100000381469727,1.649999976158142,1.649999976158142,1.690999984741211,15300,1.690999984741211
2018-04-11,1.7699999809265137,1.7000000476837158,1.7000000476837158,1.7699999809265137,44700,1.7699999809265137
2018-04-12,1.7200000286102295,1.621000051498413,1.7120000123977661,1.680999994277954,128900,1.680999994277954
2018-04-13,1.6749999523162842,1.590000033378601,1.659999966621399,1.649999976158142,131600,1.649999976158142
2018-04-16,1.659999966621399,1.6100000143051147,1.659999966621399,1.649999976158142,10700,1.649999976158142
2018-04-17,1.649999976158142,1.6299999952316284,1.6410000324249268,1.6299999952316284,14900,1.6299999952316284
2018-04-18,1.7000000476837158,1.6200000047683716,1.6200000047683716,1.6399999856948853,12500,1.6399999856948853
2018-04-19,1.6549999713897705,1.6180000305175781,1.6200000047683716,1.6200000047683716,9400,1.6200000047683716
2018-04-20,1.6200000047683716,1.6019999980926514,1.6200000047683716,1.6019999980926514,15300,1.6019999980926514
2018-04-23,1.690000057220459,1.6200000047683716,1.6200000047683716,1.659999966621399,28000,1.659999966621399
2018-04-24,1.7990000247955322,1.5199999809265137,1.7000000476837158,1.5800000429153442,151300,1.5800000429153442
2018-04-25,1.6299999952316284,1.5499999523162842,1.6299999952316284,1.5800000429153442,29500,1.5800000429153442
2018-04-26,1.7000000476837158,1.5700000524520874,1.600000023841858,1.5700000524520874,90700,1.5700000524520874
2018-04-27,1.7100000381469727,1.6200000047683716,1.6200000047683716,1.6200000047683716,32000,1.6200000047683716
2018-04-30,1.649999976158142,1.5700000524520874,1.5839999914169312,1.6399999856948853,20900,1.6399999856948853
2018-05-01,1.7200000286102295,1.6119999885559082,1.6119999885559082,1.649999976158142,58400,1.649999976158142
2018-05-02,1.7079999446868896,1.6100000143051147,1.7079999446868896,1.659999966621399,9100,1.659999966621399
2018-05-03,1.684999942779541,1.590999960899353,1.593000054359436,1.649999976158142,3800,1.649999976158142
2018-05-04,1.659999966621399,1.600000023841858,1.659999966621399,1.6100000143051147,4000,1.6100000143051147
2018-05-07,1.690000057220459,1.621999979019165,1.621999979019165,1.6790000200271606,5900,1.6790000200271606
2018-05-08,1.7000000476837158,1.600000023841858,1.63100004196167,1.690000057220459,30600,1.690000057220459
2018-05-09,1.6779999732971191,1.590000033378601,1.6399999856948853,1.600000023841858,20100,1.600000023841858
2018-05-10,1.6319999694824219,1.4520000219345093,1.6100000143051147,1.559999942779541,59800,1.559999942779541
2018-05-11,1.5980000495910645,1.4600000381469727,1.5800000429153442,1.590000033378601,60700,1.590000033378601
2018-05-14,1.649999976158142,1.4500000476837158,1.5700000524520874,1.4500000476837158,323500,1.4500000476837158
2018-05-15,1.5800000429153442,1.4500000476837158,1.4500000476837158,1.5099999904632568,88900,1.5099999904632568
2018-05-16,1.5449999570846558,1.4500000476837158,1.5449999570846558,1.4600000381469727,82600,1.4600000381469727
2018-05-17,1.49399995803833,1.399999976158142,1.4839999675750732,1.4140000343322754,86600,1.4140000343322754
2018-05-18,1.4199999570846558,1.3220000267028809,1.4199999570846558,1.350000023841858,70500,1.350000023841858
2018-05-21,1.409999966621399,1.3600000143051147,1.3600000143051147,1.3700000047683716,65000,1.3700000047683716
2018-05-22,1.5499999523162842,1.2350000143051147,1.350000023841858,1.378999948501587,168600,1.378999948501587
2018-05-23,1.4900000095367432,1.190000057220459,1.3700000047683716,1.2059999704360962,288700,1.2059999704360962
2018-05-24,1.25,1.1360000371932983,1.2200000286102295,1.2200000286102295,196400,1.2200000286102295
2018-05-25,1.3600000143051147,1.1699999570846558,1.2000000476837158,1.2999999523162842,258000,1.2999999523162842
2018-05-29,1.3300000429153442,1.2599999904632568,1.2999999523162842,1.2699999809265137,199800,1.2699999809265137
2018-05-30,1.2899999618530273,1.159999966621399,1.2100000381469727,1.2200000286102295,219000,1.2200000286102295
2018-05-31,1.2300000190734863,1.159999966621399,1.2000000476837158,1.159999966621399,314100,1.159999966621399
2018-06-01,1.1399999856948853,0.9100000262260437,1.1399999856948853,0.9950000047683716,1180500,0.9950000047683716
2018-06-04,1.0299999713897705,0.8700000047683716,1.0199999809265137,0.8939999938011169,436900,0.8939999938011169
2018-06-05,1.0700000524520874,0.8999999761581421,0.9399999976158142,0.9800000190734863,1930500,0.9800000190734863
2018-06-06,1.0199999809265137,0.9599999785423279,1.0,0.9679999947547913,996200,0.9679999947547913
2018-06-07,1.0199999809265137,0.9599999785423279,0.9700000286102295,1.0,435000,1.0
2018-06-08,1.1299999952316284,1.0099999904632568,1.100000023841858,1.0199999809265137,1599200,1.0199999809265137
2018-06-11,1.0800000429153442,1.0,1.0399999618530273,1.0199999809265137,542100,1.0199999809265137
2018-06-12,1.059999942779541,1.0,1.0099999904632568,1.0199999809265137,638900,1.0199999809265137
2018-06-13,1.1299999952316284,0.9800000190734863,1.0260000228881836,1.0,1699500,1.0
2018-06-14,1.0199999809265137,0.9300000071525574,1.0,0.9649999737739563,908600,0.9649999737739563
2018-06-15,1.0,0.9629999995231628,0.9819999933242798,0.9710000157356262,793200,0.9710000157356262
2018-06-18,0.9900000095367432,0.9309999942779541,0.9850000143051147,0.949999988079071,411800,0.949999988079071
2018-06-19,0.9900000095367432,0.8999999761581421,0.9800000190734863,0.9800000190734863,538900,0.9800000190734863
2018-06-20,0.9990000128746033,0.949999988079071,0.9800000190734863,0.9710000157356262,326800,0.9710000157356262
2018-06-21,0.9850000143051147,0.949999988079071,0.9700000286102295,0.9599999785423279,188700,0.9599999785423279
2018-06-22,0.9850000143051147,0.9610000252723694,0.9750000238418579,0.9850000143051147,198100,0.9850000143051147
2018-06-25,0.9800000190734863,0.9300000071525574,0.9800000190734863,0.972000002861023,449700,0.972000002861023
2018-06-26,1.0399999618530273,0.9340000152587891,0.9700000286102295,0.9850000143051147,775800,0.9850000143051147
2018-06-27,1.0099999904632568,0.9150000214576721,1.0,0.9380000233650208,871600,0.9380000233650208
2018-06-28,1.0,0.9319999814033508,1.0,0.9589999914169312,753900,0.9589999914169312
2018-06-29,0.9950000047683716,0.9120000004768372,0.9879999756813049,0.949999988079071,1789900,0.949999988079071
2018-07-02,1.1799999475479126,0.9700000286102295,0.9900000095367432,1.1399999856948853,4678700,1.1399999856948853
2018-07-03,1.3300000429153442,1.0800000429153442,1.1799999475479126,1.1299999952316284,3689300,1.1299999952316284
2018-07-05,1.1399999856948853,1.0700000524520874,1.1200000047683716,1.1100000143051147,769900,1.1100000143051147
2018-07-06,1.1699999570846558,1.0499999523162842,1.100000023841858,1.1399999856948853,569500,1.1399999856948853
2018-07-09,1.159999966621399,1.1100000143051147,1.149999976158142,1.149999976158142,281400,1.149999976158142
2018-07-10,1.1990000009536743,1.1399999856948853,1.1399999856948853,1.1699999570846558,782400,1.1699999570846558
2018-07-11,1.2999999523162842,1.149999976158142,1.1799999475479126,1.2599999904632568,1875800,1.2599999904632568
2018-07-12,1.4700000286102295,1.2899999618530273,1.2899999618530273,1.3899999856948853,2422800,1.3899999856948853
2018-07-13,1.402999997138977,1.2999999523162842,1.3799999952316284,1.399999976158142,745100,1.399999976158142
2018-07-16,1.4199999570846558,1.3300000429153442,1.3899999856948853,1.3799999952316284,871900,1.3799999952316284
2018-07-17,1.3969999551773071,1.3300000429153442,1.3899999856948853,1.3700000047683716,326700,1.3700000047683716
2018-07-18,1.399999976158142,1.350000023841858,1.3799999952316284,1.3799999952316284,273000,1.3799999952316284
2018-07-19,1.5399999618530273,1.350000023841858,1.3700000047683716,1.4700000286102295,1734500,1.4700000286102295
2018-07-20,1.600000023841858,1.4800000190734863,1.5,1.5800000429153442,1517000,1.5800000429153442
2018-07-23,1.7000000476837158,1.559999942779541,1.590000033378601,1.6399999856948853,2208400,1.6399999856948853
2018-07-24,1.659999966621399,1.5099999904632568,1.659999966621399,1.5399999618530273,1176800,1.5399999618530273
2018-07-25,1.6100000143051147,1.25,1.6100000143051147,1.440000057220459,2082700,1.440000057220459
2018-07-26,1.4199999570846558,1.350000023841858,1.4199999570846558,1.3700000047683716,596700,1.3700000047683716
2018-07-27,1.4160000085830688,1.350000023841858,1.3799999952316284,1.399999976158142,474400,1.399999976158142
2018-07-30,1.5700000524520874,1.3799999952316284,1.4199999570846558,1.5399999618530273,780900,1.5399999618530273
2018-07-31,1.590000033378601,1.4620000123977661,1.5700000524520874,1.5800000429153442,496000,1.5800000429153442
2018-08-01,1.5800000429153442,1.5,1.5700000524520874,1.5499999523162842,252100,1.5499999523162842
2018-08-02,1.559999942779541,1.5,1.559999942779541,1.5399999618530273,296000,1.5399999618530273
2018-08-03,1.5399999618530273,1.4700000286102295,1.5399999618530273,1.4900000095367432,347000,1.4900000095367432
2018-08-06,1.5199999809265137,1.409999966621399,1.5,1.4600000381469727,291500,1.4600000381469727
2018-08-07,1.4700000286102295,1.3600000143051147,1.4700000286102295,1.4299999475479126,382100,1.4299999475479126
2018-08-08,1.4299999475479126,1.3799999952316284,1.4199999570846558,1.409999966621399,318500,1.409999966621399
2018-08-09,1.4900000095367432,1.3899999856948853,1.3899999856948853,1.440000057220459,302800,1.440000057220459
2018-08-10,1.4700000286102295,1.409999966621399,1.4500000476837158,1.440000057220459,284700,1.440000057220459
2018-08-13,1.4700000286102295,1.3899999856948853,1.4500000476837158,1.409999966621399,217800,1.409999966621399
2018-08-14,1.4500000476837158,1.3600000143051147,1.4500000476837158,1.409999966621399,668200,1.409999966621399
2018-08-15,1.4299999475479126,1.3799999952316284,1.4199999570846558,1.399999976158142,223300,1.399999976158142
2018-08-16,1.440000057220459,1.3899999856948853,1.4199999570846558,1.440000057220459,223200,1.440000057220459
2018-08-17,1.5299999713897705,1.4140000343322754,1.4199999570846558,1.440000057220459,914900,1.440000057220459
2018-08-20,1.468999981880188,1.38100004196167,1.4500000476837158,1.409999966621399,614000,1.409999966621399
2018-08-21,1.440000057220459,1.2100000381469727,1.4199999570846558,1.340000033378601,840700,1.340000033378601
2018-08-22,1.3799999952316284,1.2899999618530273,1.350000023841858,1.3799999952316284,1528600,1.3799999952316284
2018-08-23,1.2200000286102295,1.0399999618530273,1.0800000429153442,1.1100000143051147,2131100,1.1100000143051147
2018-08-24,1.149999976158142,1.059999942779541,1.1200000047683716,1.1299999952316284,716700,1.1299999952316284
2018-08-27,1.1799999475479126,1.1200000047683716,1.1200000047683716,1.1699999570846558,328900,1.1699999570846558
2018-08-28,1.25,1.1399999856948853,1.1799999475479126,1.2300000190734863,591100,1.2300000190734863
2018-08-29,1.3300000429153442,1.25,1.2699999809265137,1.2799999713897705,582100,1.2799999713897705
2018-08-30,1.2999999523162842,1.2300000190734863,1.2799999713897705,1.2879999876022339,336100,1.2879999876022339
2018-08-31,1.3300000429153442,1.2899999618530273,1.2899999618530273,1.2999999523162842,259700,1.2999999523162842
2018-09-04,1.340000033378601,1.2899999618530273,1.2999999523162842,1.309999942779541,385300,1.309999942779541
2018-09-05,1.399999976158142,1.2999999523162842,1.3300000429153442,1.3600000143051147,560200,1.3600000143051147
2018-09-06,1.409999966621399,1.3300000429153442,1.3700000047683716,1.399999976158142,398900,1.399999976158142
2018-09-07,1.4390000104904175,1.3600000143051147,1.3899999856948853,1.3899999856948853,378500,1.3899999856948853
2018-09-10,1.440000057220459,1.3899999856948853,1.399999976158142,1.409999966621399,243800,1.409999966621399
2018-09-11,1.409999966621399,1.350000023841858,1.3899999856948853,1.3600000143051147,234800,1.3600000143051147
2018-09-12,1.409999966621399,1.3600000143051147,1.3600000143051147,1.3899999856948853,145100,1.3899999856948853
2018-09-13,1.4199999570846558,1.3600000143051147,1.3799999952316284,1.3600000143051147,211100,1.3600000143051147
2018-09-14,1.3899999856948853,1.340000033378601,1.3700000047683716,1.340000033378601,287100,1.340000033378601
2018-09-17,1.3569999933242798,1.2610000371932983,1.350000023841858,1.2999999523162842,237900,1.2999999523162842
2018-09-18,1.3200000524520874,1.2000000476837158,1.2699999809265137,1.2799999713897705,540500,1.2799999713897705
2018-09-19,1.2890000343322754,1.2330000400543213,1.2699999809265137,1.2400000095367432,200900,1.2400000095367432
2018-09-20,1.2899999618530273,1.2200000286102295,1.2200000286102295,1.25,101100,1.25
2018-09-21,1.309999942779541,1.25,1.2599999904632568,1.309999942779541,181900,1.309999942779541
2018-09-24,1.3200000524520874,1.2699999809265137,1.3200000524520874,1.2799999713897705,126100,1.2799999713897705
2018-09-25,1.399999976158142,1.2899999618530273,1.2899999618530273,1.350000023841858,397800,1.350000023841858
2018-09-26,1.399999976158142,1.3300000429153442,1.3600000143051147,1.3700000047683716,226700,1.3700000047683716
2018-09-27,1.3700000047683716,1.3200000524520874,1.3600000143051147,1.350000023841858,118800,1.350000023841858
2018-09-28,1.3300000429153442,1.2799999713897705,1.3300000429153442,1.2999999523162842,132500,1.2999999523162842
2018-10-01,1.3700000047683716,1.2799999713897705,1.3200000524520874,1.309999942779541,381700,1.309999942779541
2018-10-02,1.3200000524520874,1.2799999713897705,1.3200000524520874,1.2799999713897705,110100,1.2799999713897705
2018-10-03,1.2999999523162842,1.2400000095367432,1.2799999713897705,1.2869999408721924,270700,1.2869999408721924
2018-10-04,1.2899999618530273,1.25,1.2799999713897705,1.2799999713897705,118500,1.2799999713897705
2018-10-05,1.2899999618530273,1.25,1.2899999618530273,1.2699999809265137,168100,1.2699999809265137
2018-10-08,1.2990000247955322,1.190000057220459,1.2599999904632568,1.2100000381469727,528100,1.2100000381469727
2018-10-09,1.2300000190734863,1.1299999952316284,1.2200000286102295,1.1699999570846558,274800,1.1699999570846558
2018-10-10,1.190000057220459,1.149999976158142,1.1699999570846558,1.149999976158142,216500,1.149999976158142
2018-10-11,1.159999966621399,1.0499999523162842,1.149999976158142,1.1299999952316284,116200,1.1299999952316284
2018-10-12,1.1540000438690186,1.100000023841858,1.1399999856948853,1.100000023841858,187200,1.100000023841858
2018-10-15,1.159999966621399,1.0800000429153442,1.1100000143051147,1.1399999856948853,89800,1.1399999856948853
2018-10-16,1.1710000038146973,1.090000033378601,1.1200000047683716,1.1399999856948853,97500,1.1399999856948853
2018-10-17,1.2200000286102295,1.1200000047683716,1.149999976158142,1.2100000381469727,329200,1.2100000381469727
2018-10-18,1.2300000190734863,1.149999976158142,1.2100000381469727,1.190000057220459,121900,1.190000057220459
2018-10-19,1.2020000219345093,1.159999966621399,1.190000057220459,1.1799999475479126,37000,1.1799999475479126
2018-10-22,1.1799999475479126,1.1200000047683716,1.1799999475479126,1.1299999952316284,133900,1.1299999952316284
2018-10-23,1.190000057220459,1.121999979019165,1.1299999952316284,1.1759999990463257,302000,1.1759999990463257
2018-10-24,1.187000036239624,1.149999976158142,1.1799999475479126,1.1699999570846558,76300,1.1699999570846558
2018-10-25,1.2300000190734863,1.149999976158142,1.1699999570846558,1.159999966621399,264600,1.159999966621399
2018-10-26,1.1740000247955322,1.1299999952316284,1.159999966621399,1.159999966621399,71600,1.159999966621399
2018-10-29,1.2029999494552612,1.1419999599456787,1.1699999570846558,1.1699999570846558,180300,1.1699999570846558
2018-10-30,1.1799999475479126,1.100000023841858,1.1699999570846558,1.159999966621399,103900,1.159999966621399
2018-10-31,1.1640000343322754,1.1299999952316284,1.149999976158142,1.1399999856948853,42500,1.1399999856948853
2018-11-01,1.1699999570846558,1.100000023841858,1.100000023841858,1.149999976158142,135100,1.149999976158142
2018-11-02,1.159999966621399,1.100000023841858,1.1540000438690186,1.1399999856948853,173300,1.1399999856948853
2018-11-05,1.1649999618530273,1.1100000143051147,1.149999976158142,1.1200000047683716,104500,1.1200000047683716
2018-11-06,1.149999976158142,1.1100000143051147,1.1200000047683716,1.1399999856948853,133300,1.1399999856948853
2018-11-07,1.149999976158142,1.1200000047683716,1.1399999856948853,1.1299999952316284,110400,1.1299999952316284
2018-11-08,1.159999966621399,1.1200000047683716,1.159999966621399,1.1399999856948853,130000,1.1399999856948853
2018-11-09,1.149999976158142,1.1100000143051147,1.1200000047683716,1.1239999532699585,93700,1.1239999532699585
2018-11-12,1.1319999694824219,1.0700000524520874,1.1299999952316284,1.1100000143051147,172500,1.1100000143051147
2018-11-13,1.1100000143051147,1.059999942779541,1.090000033378601,1.0700000524520874,109900,1.0700000524520874
2018-11-14,1.100000023841858,1.0499999523162842,1.0800000429153442,1.059999942779541,101000,1.059999942779541
2018-11-15,1.100000023841858,0.8999999761581421,1.100000023841858,1.0499999523162842,838900,1.0499999523162842
2018-11-16,1.0499999523162842,1.0099999904632568,1.0499999523162842,1.0299999713897705,132700,1.0299999713897705
2018-11-19,1.0399999618530273,1.0099999904632568,1.0299999713897705,1.0099999904632568,40400,1.0099999904632568
2018-11-20,1.0199999809265137,0.9470000267028809,1.0099999904632568,0.9860000014305115,185800,0.9860000014305115
2018-11-21,1.034999966621399,0.9800000190734863,0.9900000095367432,1.0049999952316284,92500,1.0049999952316284
2018-11-23,1.0099999904632568,0.9599999785423279,0.9900000095367432,0.9800000190734863,91700,0.9800000190734863
2018-11-26,1.0199999809265137,0.9599999785423279,0.9900000095367432,0.9900000095367432,135800,0.9900000095367432
2018-11-27,0.996999979019165,0.949999988079071,0.996999979019165,0.972000002861023,123800,0.972000002861023
2018-11-28,0.9789999723434448,0.949999988079071,0.9649999737739563,0.9700000286102295,54400,0.9700000286102295
2018-11-29,1.0399999618530273,0.953000009059906,0.9900000095367432,0.9750000238418579,627700,0.9750000238418579
2018-11-30,1.0299999713897705,0.9700000286102295,0.9700000286102295,0.9700000286102295,124600,0.9700000286102295
2018-12-03,1.1200000047683716,0.9800000190734863,0.9800000190734863,1.1100000143051147,436200,1.1100000143051147
2018-12-04,1.1200000047683716,1.0299999713897705,1.1200000047683716,1.0499999523162842,108200,1.0499999523162842
2018-12-06,1.0509999990463257,1.0199999809265137,1.0470000505447388,1.0299999713897705,54200,1.0299999713897705
2018-12-07,1.090000033378601,1.0,1.0210000276565552,1.0,128700,1.0
2018-12-10,1.0399999618530273,0.9800000190734863,1.0399999618530273,0.984000027179718,129100,0.984000027179718
2018-12-11,1.0,0.9800000190734863,1.0,0.9950000047683716,75200,0.9950000047683716
2018-12-12,1.0299999713897705,0.9959999918937683,1.0069999694824219,1.0299999713897705,73500,1.0299999713897705
2018-12-13,1.059999942779541,1.0,1.0299999713897705,1.0099999904632568,57500,1.0099999904632568
2018-12-14,1.0770000219345093,1.0099999904632568,1.024999976158142,1.0700000524520874,176500,1.0700000524520874
2018-12-17,1.090000033378601,1.0399999618530273,1.0700000524520874,1.0399999618530273,246700,1.0399999618530273
2018-12-18,1.100000023841858,1.0299999713897705,1.0700000524520874,1.059999942779541,155800,1.059999942779541
2018-12-19,1.090000033378601,1.0099999904632568,1.0499999523162842,1.0449999570846558,188400,1.0449999570846558
2018-12-20,1.0399999618530273,0.9800000190734863,1.0299999713897705,0.9959999918937683,223400,0.9959999918937683
2018-12-21,1.0,0.9100000262260437,0.9900000095367432,0.9399999976158142,199500,0.9399999976158142
2018-12-24,1.0,0.9200000166893005,0.9480000138282776,0.9700000286102295,62000,0.9700000286102295
2018-12-26,0.9700000286102295,0.9399999976158142,0.9549999833106995,0.9430000185966492,130100,0.9430000185966492
2018-12-27,0.9660000205039978,0.9139999747276306,0.949999988079071,0.9169999957084656,190500,0.9169999957084656
2018-12-28,0.9649999737739563,0.9330000281333923,0.9399999976158142,0.949999988079071,131300,0.949999988079071
2018-12-31,0.9700000286102295,0.9399999976158142,0.9649999737739563,0.9620000123977661,153500,0.9620000123977661
2019-01-02,1.0789999961853027,0.9399999976158142,0.968999981880188,1.031999945640564,184200,1.031999945640564
2019-01-03,1.0800000429153442,0.9800000190734863,1.0499999523162842,1.059999942779541,106100,1.059999942779541
2019-01-04,1.0700000524520874,1.0,1.059999942779541,1.0499999523162842,214800,1.0499999523162842
2019-01-07,1.1299999952316284,0.9399999976158142,1.0399999618530273,1.0800000429153442,450900,1.0800000429153442
2019-01-08,1.1050000190734863,1.059999942779541,1.0800000429153442,1.0800000429153442,225000,1.0800000429153442
2019-01-09,1.1699999570846558,1.0800000429153442,1.090000033378601,1.159999966621399,432200,1.159999966621399
2019-01-10,1.0299999713897705,0.8600000143051147,0.9300000071525574,0.9900000095367432,999900,0.9900000095367432
2019-01-11,1.0099999904632568,0.953000009059906,1.0,0.9929999709129333,130800,0.9929999709129333
2019-01-14,1.0,0.9049999713897705,1.0,0.9399999976158142,118800,0.9399999976158142
2019-01-15,0.9599999785423279,0.9340000152587891,0.9340000152587891,0.9599999785423279,70300,0.9599999785423279
2019-01-16,0.9900000095367432,0.9610000252723694,0.9900000095367432,0.9890000224113464,50800,0.9890000224113464
2019-01-17,0.9900000095367432,0.9570000171661377,0.9800000190734863,0.9599999785423279,59400,0.9599999785423279
2019-01-18,0.9850000143051147,0.9700000286102295,0.9729999899864197,0.9710000157356262,42900,0.9710000157356262
2019-01-22,0.9700000286102295,0.9599999785423279,0.9629999995231628,0.9610000252723694,65600,0.9610000252723694
2019-01-23,0.9909999966621399,0.9599999785423279,0.9599999785423279,0.9900000095367432,48500,0.9900000095367432
2019-01-24,1.0199999809265137,0.9700000286102295,0.9900000095367432,1.0,96600,1.0
2019-01-25,1.0390000343322754,0.9900000095367432,0.9900000095367432,1.0099999904632568,85400,1.0099999904632568
2019-01-28,1.034999966621399,0.9900000095367432,1.0,0.9919999837875366,29600,0.9919999837875366
2019-01-29,1.0399999618530273,1.0,1.0,1.0,49500,1.0
2019-01-30,1.0199999809265137,0.9900000095367432,0.9980000257492065,0.9900000095367432,40200,0.9900000095367432
2019-01-31,1.024999976158142,0.9800000190734863,1.0199999809265137,1.0149999856948853,109800,1.0149999856948853
2019-02-01,1.0149999856948853,0.9800000190734863,0.9900000095367432,1.0,46000,1.0
2019-02-04,1.0099999904632568,0.9900000095367432,1.0099999904632568,1.0,60700,1.0
2019-02-05,1.0299999713897705,0.9909999966621399,0.9909999966621399,1.0,29800,1.0
2019-02-06,1.0299999713897705,0.9850000143051147,1.0099999904632568,1.00600004196167,15400,1.00600004196167
2019-02-07,1.0199999809265137,0.9900000095367432,1.0069999694824219,1.0,30800,1.0
2019-02-08,1.0069999694824219,0.9900000095367432,1.0,0.9900000095367432,24300,0.9900000095367432
2019-02-11,1.0099999904632568,0.9900000095367432,1.0,0.996999979019165,28700,0.996999979019165
2019-02-12,1.0099999904632568,0.9599999785423279,1.00600004196167,1.0099999904632568,81900,1.0099999904632568
2019-02-13,1.0099999904632568,0.9900000095367432,1.0,0.9929999709129333,82400,0.9929999709129333
2019-02-14,1.0099999904632568,0.9800000190734863,0.9929999709129333,0.9800000190734863,85600,0.9800000190734863
2019-02-15,0.9929999709129333,0.9599999785423279,0.9800000190734863,0.9800000190734863,103600,0.9800000190734863
2019-02-19,0.9950000047683716,0.9649999737739563,0.9710000157356262,0.9900000095367432,43700,0.9900000095367432
2019-02-20,1.0,0.9599999785423279,0.9990000128746033,0.9700000286102295,72400,0.9700000286102295
2019-02-21,0.9900000095367432,0.949999988079071,0.9779999852180481,0.9890000224113464,71600,0.9890000224113464
2019-02-22,0.9850000143051147,0.9620000123977661,0.9620000123977661,0.9769999980926514,57600,0.9769999980926514
2019-02-25,0.9900000095367432,0.9620000123977661,0.9620000123977661,0.9900000095367432,60600,0.9900000095367432
2019-02-26,1.0,0.9599999785423279,0.9900000095367432,0.9800000190734863,63500,0.9800000190734863
2019-02-27,1.0099999904632568,0.972000002861023,0.972000002861023,1.0,142300,1.0
2019-02-28,1.0199999809265137,0.9900000095367432,0.9900000095367432,1.0099999904632568,109000,1.0099999904632568
2019-03-01,1.0299999713897705,1.0,1.0,1.0,76700,1.0
2019-03-04,1.0199999809265137,1.0,1.0190000534057617,1.0099999904632568,52300,1.0099999904632568
2019-03-05,1.0299999713897705,0.9800000190734863,1.0,0.9980000257492065,60700,0.9980000257492065
2019-03-06,1.0149999856948853,0.9800000190734863,1.0099999904632568,0.9800000190734863,69600,0.9800000190734863
2019-03-07,1.0099999904632568,0.9800000190734863,1.0099999904632568,0.9850000143051147,20600,0.9850000143051147
2019-03-08,1.100000023841858,0.9900000095367432,0.9900000095367432,1.0499999523162842,375900,1.0499999523162842
2019-03-11,1.0700000524520874,1.0199999809265137,1.0299999713897705,1.0299999713897705,42200,1.0299999713897705
2019-03-12,1.059999942779541,1.0,1.0499999523162842,1.059999942779541,121800,1.059999942779541
2019-03-13,1.2999999523162842,1.059999942779541,1.2899999618530273,1.100000023841858,3754400,1.100000023841858
2019-03-14,1.1100000143051147,1.0399999618530273,1.059999942779541,1.0499999523162842,424700,1.0499999523162842
2019-03-15,1.090000033378601,1.0499999523162842,1.0499999523162842,1.059999942779541,146000,1.059999942779541
2019-03-18,1.0800000429153442,1.0399999618530273,1.0399999618530273,1.0499999523162842,204200,1.0499999523162842
2019-03-19,1.0700000524520874,1.0299999713897705,1.0700000524520874,1.0299999713897705,123900,1.0299999713897705
2019-03-20,1.1699999570846558,1.0399999618530273,1.149999976158142,1.0499999523162842,1953500,1.0499999523162842
2019-03-21,1.0800000429153442,1.0299999713897705,1.0399999618530273,1.0499999523162842,272400,1.0499999523162842
2019-03-22,1.0499999523162842,1.0299999713897705,1.0299999713897705,1.0299999713897705,109600,1.0299999713897705
2019-03-25,1.0440000295639038,1.0299999713897705,1.0399999618530273,1.0399999618530273,109600,1.0399999618530273
2019-03-26,1.0800000429153442,1.0299999713897705,1.0399999618530273,1.059999942779541,315500,1.059999942779541
2019-03-27,1.1299999952316284,1.059999942779541,1.0700000524520874,1.1299999952316284,246200,1.1299999952316284
2019-03-28,1.1399999856948853,1.090000033378601,1.1399999856948853,1.1299999952316284,195500,1.1299999952316284
2019-03-29,1.1200000047683716,1.0499999523162842,1.1200000047683716,1.100000023841858,141800,1.100000023841858
2019-04-01,1.1699999570846558,1.1100000143051147,1.1299999952316284,1.149999976158142,198000,1.149999976158142
2019-04-02,1.190000057220459,1.1399999856948853,1.149999976158142,1.1799999475479126,220600,1.1799999475479126
2019-04-03,1.2100000381469727,1.159999966621399,1.1699999570846558,1.190000057220459,270500,1.190000057220459
2019-04-04,1.2940000295639038,1.090000033378601,1.2100000381469727,1.159999966621399,2234600,1.159999966621399
2019-04-05,1.2200000286102295,1.100000023841858,1.1200000047683716,1.1799999475479126,544100,1.1799999475479126
2019-04-08,1.25,1.2000000476837158,1.2100000381469727,1.2300000190734863,329000,1.2300000190734863
2019-04-09,1.2699999809265137,1.2100000381469727,1.2599999904632568,1.2300000190734863,186400,1.2300000190734863
2019-04-10,1.281999945640564,1.2200000286102295,1.2300000190734863,1.25,137100,1.25
2019-04-11,1.2799999713897705,1.2300000190734863,1.2799999713897705,1.25,93800,1.25
2019-04-12,1.25,1.059999942779541,1.25,1.1399999856948853,1247300,1.1399999856948853
2019-04-15,1.246999979019165,1.149999976158142,1.149999976158142,1.190000057220459,144900,1.190000057220459
2019-04-16,1.2200000286102295,1.1799999475479126,1.1799999475479126,1.2100000381469727,276800,1.2100000381469727
2019-04-17,1.25,1.2100000381469727,1.2200000286102295,1.2100000381469727,250300,1.2100000381469727
2019-04-18,1.25,1.149999976158142,1.25,1.1699999570846558,537000,1.1699999570846558
2019-04-22,1.2300000190734863,1.1699999570846558,1.1699999570846558,1.190000057220459,293900,1.190000057220459
2019-04-23,1.24399995803833,1.2000000476837158,1.2100000381469727,1.2300000190734863,386300,1.2300000190734863
2019-04-24,1.3200000524520874,1.1799999475479126,1.2400000095367432,1.190000057220459,848900,1.190000057220459
2019-04-25,1.2400000095367432,1.1699999570846558,1.190000057220459,1.2300000190734863,110800,1.2300000190734863
2019-04-26,1.3049999475479126,1.2100000381469727,1.2400000095367432,1.2879999876022339,397400,1.2879999876022339
2019-04-29,1.2999999523162842,1.25,1.2899999618530273,1.2699999809265137,131500,1.2699999809265137
2019-04-30,1.2899999618530273,1.2599999904632568,1.2699999809265137,1.2899999618530273,188700,1.2899999618530273
2019-05-01,1.3200000524520874,1.2799999713897705,1.2999999523162842,1.2899999618530273,249100,1.2899999618530273
2019-05-02,1.309999942779541,1.2649999856948853,1.2999999523162842,1.309999942779541,173400,1.309999942779541
2019-05-03,1.375,1.2940000295639038,1.2999999523162842,1.3200000524520874,323500,1.3200000524520874
2019-05-06,1.3700000047683716,1.309999942779541,1.3700000047683716,1.309999942779541,167200,1.309999942779541
2019-05-07,1.350000023841858,1.2999999523162842,1.3200000524520874,1.3200000524520874,80200,1.3200000524520874
2019-05-08,1.3300000429153442,1.2200000286102295,1.2699999809265137,1.2799999713897705,335100,1.2799999713897705
2019-05-09,1.2899999618530273,1.2599999904632568,1.2799999713897705,1.2599999904632568,219900,1.2599999904632568
2019-05-10,1.2699999809265137,1.2200000286102295,1.2599999904632568,1.2400000095367432,195600,1.2400000095367432
2019-05-13,1.2799999713897705,1.2200000286102295,1.2300000190734863,1.2400000095367432,232700,1.2400000095367432
2019-05-14,1.2580000162124634,1.2000000476837158,1.25,1.2100000381469727,171100,1.2100000381469727
2019-05-15,1.2300000190734863,1.149999976158142,1.2300000190734863,1.1699999570846558,553900,1.1699999570846558
2019-05-16,1.1699999570846558,1.100000023841858,1.1699999570846558,1.1399999856948853,498600,1.1399999856948853
2019-05-17,1.149999976158142,1.0800000429153442,1.149999976158142,1.100000023841858,350300,1.100000023841858
2019-05-20,1.1299999952316284,1.0499999523162842,1.090000033378601,1.0950000286102295,443000,1.0950000286102295
2019-05-21,1.1399999856948853,1.0,1.1100000143051147,1.034999966621399,484200,1.034999966621399
2019-05-22,1.059999942779541,1.0099999904632568,1.0499999523162842,1.0299999713897705,314100,1.0299999713897705
2019-05-23,1.1100000143051147,1.0299999713897705,1.0299999713897705,1.1100000143051147,157300,1.1100000143051147
2019-05-24,1.1299999952316284,1.0700000524520874,1.1100000143051147,1.0700000524520874,99300,1.0700000524520874
