Date,High,Low,Open,Close,Volume,Adj Close
2017-11-01,2.9000000953674316,2.759999990463257,2.9000000953674316,2.819999933242798,3763100,2.819999933242798
2017-11-02,2.950000047683716,2.799999952316284,2.8399999141693115,2.890000104904175,5696500,2.890000104904175
2017-11-03,2.9100000858306885,2.8399999141693115,2.9100000858306885,2.869999885559082,4193100,2.869999885559082
2017-11-06,3.1500000953674316,2.880000114440918,2.880000114440918,3.1500000953674316,8557400,3.1500000953674316
2017-11-07,3.2100000381469727,2.9800000190734863,3.190000057220459,3.059999942779541,8403600,3.059999942779541
2017-11-08,2.869999885559082,2.569999933242798,2.799999952316284,2.5799999237060547,15844300,2.5799999237060547
2017-11-09,2.559999942779541,2.430000066757202,2.549999952316284,2.509999990463257,7956300,2.509999990463257
2017-11-10,2.619999885559082,2.5199999809265137,2.5299999713897705,2.549999952316284,4035400,2.549999952316284
2017-11-13,2.5899999141693115,2.4000000953674316,2.569999933242798,2.4200000762939453,7565900,2.4200000762939453
2017-11-14,2.440000057220459,2.1700000762939453,2.4200000762939453,2.2799999713897705,9594400,2.2799999713897705
2017-11-15,2.2799999713897705,2.1700000762939453,2.25,2.25,3759800,2.25
2017-11-16,2.390000104904175,2.2699999809265137,2.2699999809265137,2.309999942779541,4516600,2.309999942779541
2017-11-17,2.359999895095825,2.2699999809265137,2.309999942779541,2.319999933242798,2959300,2.319999933242798
2017-11-20,2.4000000953674316,2.319999933242798,2.3499999046325684,2.380000114440918,2480400,2.380000114440918
2017-11-21,2.5199999809265137,2.4100000858306885,2.4100000858306885,2.4700000286102295,5670300,2.4700000286102295
2017-11-22,2.509999990463257,2.3499999046325684,2.490000009536743,2.390000104904175,3952600,2.390000104904175
2017-11-24,2.440000057220459,2.369999885559082,2.380000114440918,2.390000104904175,1358300,2.390000104904175
2017-11-27,2.440000057220459,2.309999942779541,2.380000114440918,2.3299999237060547,3325200,2.3299999237060547
2017-11-28,2.359999895095825,2.2799999713897705,2.319999933242798,2.3499999046325684,2787300,2.3499999046325684
2017-11-29,2.4200000762939453,2.259999990463257,2.359999895095825,2.2899999618530273,2873100,2.2899999618530273
2017-11-30,2.380000114440918,2.2899999618530273,2.319999933242798,2.369999885559082,3301600,2.369999885559082
2017-12-01,2.549999952316284,2.380000114440918,2.4200000762939453,2.509999990463257,8569100,2.509999990463257
2017-12-04,2.5899999141693115,2.359999895095825,2.5799999237060547,2.359999895095825,4707500,2.359999895095825
2017-12-05,2.4200000762939453,2.299999952316284,2.3499999046325684,2.3299999237060547,2949600,2.3299999237060547
2017-12-06,2.380000114440918,2.299999952316284,2.359999895095825,2.3399999141693115,2717900,2.3399999141693115
2017-12-07,2.440000057220459,2.3299999237060547,2.3399999141693115,2.380000114440918,3182900,2.380000114440918
2017-12-08,2.4700000286102295,2.390000104904175,2.390000104904175,2.4100000858306885,3769400,2.4100000858306885
2017-12-11,2.4600000381469727,2.4000000953674316,2.430000066757202,2.430000066757202,2140500,2.430000066757202
2017-12-12,2.4700000286102295,2.359999895095825,2.4100000858306885,2.380000114440918,4197800,2.380000114440918
2017-12-13,2.4100000858306885,2.359999895095825,2.380000114440918,2.390000104904175,2050400,2.390000104904175
2017-12-14,2.4200000762939453,2.309999942779541,2.359999895095825,2.319999933242798,3361900,2.319999933242798
2017-12-15,2.390000104904175,2.319999933242798,2.3499999046325684,2.359999895095825,3728400,2.359999895095825
2017-12-18,2.4000000953674316,2.3499999046325684,2.369999885559082,2.380000114440918,2812000,2.380000114440918
2017-12-19,2.430000066757202,2.359999895095825,2.390000104904175,2.4200000762939453,3895700,2.4200000762939453
2017-12-20,2.4700000286102295,2.380000114440918,2.4200000762939453,2.4100000858306885,3338400,2.4100000858306885
2017-12-21,2.4800000190734863,2.4100000858306885,2.4200000762939453,2.4600000381469727,3146500,2.4600000381469727
2017-12-22,2.4700000286102295,2.4100000858306885,2.4700000286102295,2.4200000762939453,2384200,2.4200000762939453
2017-12-26,2.450000047683716,2.369999885559082,2.4100000858306885,2.4000000953674316,2714200,2.4000000953674316
2017-12-27,2.4700000286102295,2.4000000953674316,2.4000000953674316,2.4100000858306885,1800300,2.4100000858306885
2017-12-28,2.450000047683716,2.4000000953674316,2.430000066757202,2.430000066757202,2778300,2.430000066757202
2017-12-29,2.440000057220459,2.3499999046325684,2.430000066757202,2.359999895095825,3770800,2.359999895095825
2018-01-02,2.440000057220459,2.319999933242798,2.380000114440918,2.4200000762939453,2845600,2.4200000762939453
2018-01-03,2.440000057220459,2.380000114440918,2.4000000953674316,2.4200000762939453,2331100,2.4200000762939453
2018-01-04,2.4200000762939453,2.359999895095825,2.4000000953674316,2.4000000953674316,2458000,2.4000000953674316
2018-01-05,2.430000066757202,2.3299999237060547,2.430000066757202,2.359999895095825,3217600,2.359999895095825
2018-01-08,2.380000114440918,2.299999952316284,2.3499999046325684,2.3299999237060547,3720700,2.3299999237060547
2018-01-09,2.369999885559082,2.309999942779541,2.3299999237060547,2.319999933242798,3202300,2.319999933242798
2018-01-10,2.3499999046325684,2.2699999809265137,2.309999942779541,2.3399999141693115,3319100,2.3399999141693115
2018-01-11,2.4000000953674316,2.3399999141693115,2.3499999046325684,2.4000000953674316,3556700,2.4000000953674316
2018-01-12,2.4200000762939453,2.3399999141693115,2.4000000953674316,2.3499999046325684,4621900,2.3499999046325684
2018-01-16,2.380000114440918,2.2200000286102295,2.369999885559082,2.2799999713897705,4126200,2.2799999713897705
2018-01-17,2.3299999237060547,2.259999990463257,2.299999952316284,2.309999942779541,1647700,2.309999942779541
2018-01-18,2.319999933242798,2.259999990463257,2.309999942779541,2.2699999809265137,1200500,2.2699999809265137
2018-01-19,2.2899999618530273,2.240000009536743,2.259999990463257,2.2699999809265137,1695300,2.2699999809265137
2018-01-22,2.2899999618530273,2.2100000381469727,2.2699999809265137,2.25,2631900,2.25
2018-01-23,2.25,2.200000047683716,2.25,2.2100000381469727,2759300,2.2100000381469727
2018-01-24,2.2300000190734863,2.1600000858306885,2.200000047683716,2.2100000381469727,2528900,2.2100000381469727
2018-01-25,2.25,2.0999999046325684,2.25,2.119999885559082,2851700,2.119999885559082
2018-01-26,2.140000104904175,2.0199999809265137,2.130000114440918,2.0799999237060547,3455800,2.0799999237060547
2018-01-29,2.0899999141693115,1.9600000381469727,2.069999933242798,2.0,5891400,2.0
2018-01-30,2.009999990463257,1.8899999856948853,2.0,1.9299999475479126,4921500,1.9299999475479126
2018-01-31,1.9800000190734863,1.9199999570846558,1.940000057220459,1.9299999475479126,1913100,1.9299999475479126
2018-02-01,1.9800000190734863,1.899999976158142,1.940000057220459,1.9199999570846558,1578100,1.9199999570846558
2018-02-02,1.9500000476837158,1.8600000143051147,1.9199999570846558,1.940000057220459,3183800,1.940000057220459
2018-02-05,1.940000057220459,1.7999999523162842,1.9299999475479126,1.7999999523162842,3533700,1.7999999523162842
2018-02-06,1.8700000047683716,1.659999966621399,1.7799999713897705,1.840000033378601,6820100,1.840000033378601
2018-02-07,2.049999952316284,1.840000033378601,1.8799999952316284,1.9800000190734863,5931400,1.9800000190734863
2018-02-08,2.0199999809265137,1.7100000381469727,2.0199999809265137,1.7200000286102295,6682400,1.7200000286102295
2018-02-09,1.8300000429153442,1.5299999713897705,1.8200000524520874,1.7000000476837158,7639600,1.7000000476837158
2018-02-12,1.7699999809265137,1.6299999952316284,1.7599999904632568,1.75,3012800,1.75
2018-02-13,1.7899999618530273,1.7200000286102295,1.7300000190734863,1.7799999713897705,2897300,1.7799999713897705
2018-02-14,1.7999999523162842,1.7200000286102295,1.75,1.7799999713897705,2992800,1.7799999713897705
2018-02-15,1.840000033378601,1.7200000286102295,1.7799999713897705,1.8300000429153442,3019900,1.8300000429153442
2018-02-16,1.899999976158142,1.8200000524520874,1.8300000429153442,1.850000023841858,3029800,1.850000023841858
2018-02-20,1.8700000047683716,1.7699999809265137,1.850000023841858,1.7699999809265137,1870700,1.7699999809265137
2018-02-21,2.130000114440918,1.7599999904632568,1.7699999809265137,1.9900000095367432,10155200,1.9900000095367432
2018-02-22,2.0399999618530273,1.850000023841858,2.0199999809265137,1.8799999952316284,3935800,1.8799999952316284
2018-02-23,1.9800000190734863,1.8799999952316284,1.8799999952316284,1.9600000381469727,3752300,1.9600000381469727
2018-02-26,2.009999990463257,1.9299999475479126,2.0,1.9600000381469727,2120200,1.9600000381469727
2018-02-27,1.9700000286102295,1.8799999952316284,1.9500000476837158,1.899999976158142,3604000,1.899999976158142
2018-02-28,1.9299999475479126,1.8600000143051147,1.8899999856948853,1.8600000143051147,2979400,1.8600000143051147
2018-03-01,1.8600000143051147,1.7599999904632568,1.850000023841858,1.809999942779541,3069700,1.809999942779541
2018-03-02,1.899999976158142,1.7599999904632568,1.7899999618530273,1.8899999856948853,2526800,1.8899999856948853
2018-03-05,2.0,1.850000023841858,1.8899999856948853,1.8899999856948853,5819600,1.8899999856948853
2018-03-06,1.9299999475479126,1.8200000524520874,1.899999976158142,1.8799999952316284,3124600,1.8799999952316284
2018-03-07,1.899999976158142,1.7999999523162842,1.8300000429153442,1.8300000429153442,4010900,1.8300000429153442
2018-03-08,1.940000057220459,1.8600000143051147,1.8700000047683716,1.8899999856948853,3644400,1.8899999856948853
2018-03-09,1.9700000286102295,1.8799999952316284,1.909999966621399,1.940000057220459,2790400,1.940000057220459
2018-03-12,2.119999885559082,1.9600000381469727,1.9700000286102295,2.0799999237060547,5261700,2.0799999237060547
2018-03-13,2.130000114440918,1.9600000381469727,2.109999895095825,1.9700000286102295,5778500,1.9700000286102295
2018-03-14,2.009999990463257,1.909999966621399,1.9900000095367432,1.940000057220459,2311600,1.940000057220459
2018-03-15,2.0,1.9199999570846558,1.940000057220459,1.9600000381469727,1853200,1.9600000381469727
2018-03-16,2.049999952316284,1.9199999570846558,1.9600000381469727,2.0399999618530273,3187600,2.0399999618530273
2018-03-19,2.0399999618530273,1.9299999475479126,2.0199999809265137,1.9800000190734863,3417000,1.9800000190734863
2018-03-20,2.0199999809265137,1.940000057220459,2.0,1.9600000381469727,2988500,1.9600000381469727
2018-03-21,2.009999990463257,1.9500000476837158,1.9600000381469727,1.9600000381469727,2288400,1.9600000381469727
2018-03-22,2.0,1.8600000143051147,1.8799999952316284,1.909999966621399,4318400,1.909999966621399
2018-03-23,1.9800000190734863,1.8700000047683716,1.899999976158142,1.8899999856948853,5058000,1.8899999856948853
2018-03-26,1.9800000190734863,1.8799999952316284,1.9199999570846558,1.9500000476837158,5533200,1.9500000476837158
2018-03-27,1.9700000286102295,1.8700000047683716,1.9500000476837158,1.8899999856948853,4551500,1.8899999856948853
2018-03-28,1.9299999475479126,1.8300000429153442,1.909999966621399,1.909999966621399,3591100,1.909999966621399
2018-03-29,1.9500000476837158,1.8799999952316284,1.909999966621399,1.8899999856948853,4789200,1.8899999856948853
2018-04-02,1.8700000047683716,1.75,1.8700000047683716,1.7699999809265137,5368400,1.7699999809265137
2018-04-03,1.8300000429153442,1.7100000381469727,1.7999999523162842,1.7799999713897705,4571000,1.7799999713897705
2018-04-04,1.8300000429153442,1.7300000190734863,1.7400000095367432,1.8300000429153442,4866200,1.8300000429153442
2018-04-05,1.8600000143051147,1.7999999523162842,1.840000033378601,1.8300000429153442,2271400,1.8300000429153442
2018-04-06,1.8300000429153442,1.7799999713897705,1.809999942779541,1.7999999523162842,2400200,1.7999999523162842
2018-04-09,1.8799999952316284,1.7999999523162842,1.8200000524520874,1.8300000429153442,2543800,1.8300000429153442
2018-04-10,1.899999976158142,1.8300000429153442,1.850000023841858,1.850000023841858,2371800,1.850000023841858
2018-04-11,1.8899999856948853,1.840000033378601,1.840000033378601,1.8600000143051147,4024700,1.8600000143051147
2018-04-12,1.899999976158142,1.850000023841858,1.8600000143051147,1.8700000047683716,2023500,1.8700000047683716
2018-04-13,1.9199999570846558,1.840000033378601,1.8700000047683716,1.8799999952316284,2926900,1.8799999952316284
2018-04-16,1.899999976158142,1.8600000143051147,1.8799999952316284,1.8799999952316284,1691900,1.8799999952316284
2018-04-17,2.0,1.8700000047683716,1.8700000047683716,1.9600000381469727,5824900,1.9600000381469727
2018-04-18,2.009999990463257,1.9299999475479126,1.9900000095367432,1.9500000476837158,5892300,1.9500000476837158
2018-04-19,1.9800000190734863,1.940000057220459,1.940000057220459,1.9500000476837158,2773900,1.9500000476837158
2018-04-20,1.9600000381469727,1.909999966621399,1.940000057220459,1.9199999570846558,2293400,1.9199999570846558
2018-04-23,1.9500000476837158,1.8799999952316284,1.9199999570846558,1.899999976158142,3026600,1.899999976158142
2018-04-24,1.9299999475479126,1.8200000524520874,1.909999966621399,1.8600000143051147,3086100,1.8600000143051147
2018-04-25,1.8600000143051147,1.7599999904632568,1.8600000143051147,1.840000033378601,4344200,1.840000033378601
2018-04-26,1.8899999856948853,1.809999942779541,1.8200000524520874,1.8600000143051147,2267500,1.8600000143051147
2018-04-27,1.8799999952316284,1.809999942779541,1.8600000143051147,1.8200000524520874,3699500,1.8200000524520874
2018-04-30,1.8600000143051147,1.8200000524520874,1.8200000524520874,1.8300000429153442,2022800,1.8300000429153442
2018-05-01,1.899999976158142,1.8200000524520874,1.8799999952316284,1.8600000143051147,3114100,1.8600000143051147
2018-05-02,1.899999976158142,1.840000033378601,1.8600000143051147,1.8700000047683716,2645000,1.8700000047683716
2018-05-03,1.8899999856948853,1.809999942779541,1.8600000143051147,1.840000033378601,4753800,1.840000033378601
2018-05-04,1.8899999856948853,1.7999999523162842,1.850000023841858,1.809999942779541,7322500,1.809999942779541
2018-05-07,1.899999976158142,1.8300000429153442,1.850000023841858,1.8700000047683716,3558500,1.8700000047683716
2018-05-08,1.8899999856948853,1.8200000524520874,1.8799999952316284,1.840000033378601,4406800,1.840000033378601
2018-05-09,2.0,1.899999976158142,1.9700000286102295,2.0,6249200,2.0
2018-05-10,2.0299999713897705,1.9700000286102295,2.0,2.0199999809265137,3832100,2.0199999809265137
2018-05-11,2.180000066757202,2.0,2.0199999809265137,2.1600000858306885,7264700,2.1600000858306885
2018-05-14,2.2699999809265137,2.1700000762939453,2.1700000762939453,2.190000057220459,9248000,2.190000057220459
2018-05-15,2.200000047683716,2.0799999237060547,2.1700000762939453,2.1500000953674316,4946300,2.1500000953674316
2018-05-16,2.190000057220459,2.0999999046325684,2.1700000762939453,2.109999895095825,4758300,2.109999895095825
2018-05-17,2.180000066757202,2.0999999046325684,2.119999885559082,2.119999885559082,3516200,2.119999885559082
2018-05-18,2.1600000858306885,2.109999895095825,2.119999885559082,2.119999885559082,2218300,2.119999885559082
2018-05-21,2.240000009536743,2.130000114440918,2.1500000953674316,2.2200000286102295,4773200,2.2200000286102295
2018-05-22,2.240000009536743,2.140000104904175,2.240000009536743,2.140000104904175,3300200,2.140000104904175
2018-05-23,2.180000066757202,2.119999885559082,2.1500000953674316,2.140000104904175,2444000,2.140000104904175
2018-05-24,2.2200000286102295,2.119999885559082,2.140000104904175,2.1500000953674316,6657400,2.1500000953674316
2018-05-25,2.140000104904175,1.9299999475479126,2.130000114440918,1.9700000286102295,8290300,1.9700000286102295
2018-05-29,2.0199999809265137,1.899999976158142,1.9700000286102295,1.9500000476837158,4021100,1.9500000476837158
2018-05-30,2.0,1.940000057220459,1.9700000286102295,1.9500000476837158,3572400,1.9500000476837158
2018-05-31,1.9700000286102295,1.8700000047683716,1.9600000381469727,1.8700000047683716,5232800,1.8700000047683716
2018-06-01,1.9199999570846558,1.8700000047683716,1.8899999856948853,1.8899999856948853,3682300,1.8899999856948853
2018-06-04,1.909999966621399,1.850000023841858,1.899999976158142,1.8700000047683716,3212900,1.8700000047683716
2018-06-05,1.8700000047683716,1.7799999713897705,1.8600000143051147,1.8200000524520874,4639000,1.8200000524520874
2018-06-06,1.8899999856948853,1.8200000524520874,1.850000023841858,1.8600000143051147,4202100,1.8600000143051147
2018-06-07,1.8799999952316284,1.840000033378601,1.8700000047683716,1.850000023841858,1554200,1.850000023841858
2018-06-08,1.8600000143051147,1.8300000429153442,1.850000023841858,1.8600000143051147,2330100,1.8600000143051147
2018-06-11,1.9500000476837158,1.8600000143051147,1.8899999856948853,1.9299999475479126,3586100,1.9299999475479126
2018-06-12,2.049999952316284,1.9299999475479126,1.9500000476837158,2.009999990463257,5485500,2.009999990463257
2018-06-13,2.0299999713897705,1.9500000476837158,2.0199999809265137,2.009999990463257,2630400,2.009999990463257
2018-06-14,2.0299999713897705,1.940000057220459,2.009999990463257,1.9900000095367432,2006400,1.9900000095367432
2018-06-15,1.9900000095367432,1.9199999570846558,1.9700000286102295,1.9800000190734863,2844200,1.9800000190734863
2018-06-18,2.0199999809265137,1.940000057220459,1.9500000476837158,1.9900000095367432,2742800,1.9900000095367432
2018-06-19,2.0,1.9299999475479126,1.9900000095367432,1.9800000190734863,2263500,1.9800000190734863
2018-06-20,2.0199999809265137,1.940000057220459,1.9600000381469727,2.009999990463257,2832300,2.009999990463257
2018-06-21,2.0199999809265137,1.9600000381469727,2.0199999809265137,1.9900000095367432,1701900,1.9900000095367432
2018-06-22,2.0399999618530273,1.9700000286102295,2.0199999809265137,2.0399999618530273,3172500,2.0399999618530273
2018-06-25,2.0199999809265137,1.9299999475479126,2.0199999809265137,1.940000057220459,3885600,1.940000057220459
2018-06-26,2.0399999618530273,1.940000057220459,1.940000057220459,2.0299999713897705,2334400,2.0299999713897705
2018-06-27,2.049999952316284,1.9600000381469727,2.0299999713897705,1.9700000286102295,1843600,1.9700000286102295
2018-06-28,2.0,1.8799999952316284,1.9700000286102295,1.9900000095367432,3737000,1.9900000095367432
2018-06-29,2.0399999618530273,1.9700000286102295,1.9900000095367432,2.0199999809265137,4359600,2.0199999809265137
2018-07-02,2.049999952316284,1.9800000190734863,2.0,2.0299999713897705,2655400,2.0299999713897705
2018-07-03,2.049999952316284,1.9900000095367432,2.0399999618530273,2.009999990463257,2337900,2.009999990463257
2018-07-05,2.0799999237060547,2.0,2.0299999713897705,2.049999952316284,2681200,2.049999952316284
2018-07-06,2.069999933242798,2.009999990463257,2.059999942779541,2.0199999809265137,2626300,2.0199999809265137
2018-07-09,2.059999942779541,2.0199999809265137,2.0399999618530273,2.0299999713897705,1516000,2.0299999713897705
2018-07-10,2.0899999141693115,2.0399999618530273,2.0399999618530273,2.059999942779541,1661100,2.059999942779541
2018-07-11,2.0799999237060547,2.0399999618530273,2.049999952316284,2.059999942779541,1111500,2.059999942779541
2018-07-12,2.190000057220459,2.0299999713897705,2.0799999237060547,2.180000066757202,5609200,2.180000066757202
2018-07-13,2.200000047683716,2.049999952316284,2.1700000762939453,2.049999952316284,4965600,2.049999952316284
2018-07-16,2.059999942779541,1.9800000190734863,2.0399999618530273,2.009999990463257,3107000,2.009999990463257
2018-07-17,2.0299999713897705,1.9800000190734863,1.9900000095367432,1.9800000190734863,2647100,1.9800000190734863
2018-07-18,2.0199999809265137,1.9800000190734863,2.0,1.9900000095367432,880600,1.9900000095367432
2018-07-19,2.0399999618530273,1.9800000190734863,1.9900000095367432,2.0199999809265137,1851500,2.0199999809265137
2018-07-20,2.0299999713897705,1.9600000381469727,2.0199999809265137,1.9600000381469727,2727000,1.9600000381469727
2018-07-23,1.9900000095367432,1.940000057220459,1.9800000190734863,1.9600000381469727,2006000,1.9600000381469727
2018-07-24,2.0,1.899999976158142,1.9600000381469727,1.909999966621399,2005300,1.909999966621399
2018-07-25,1.9800000190734863,1.9199999570846558,1.9500000476837158,1.9600000381469727,2014900,1.9600000381469727
2018-07-26,1.9800000190734863,1.9299999475479126,1.9700000286102295,1.9299999475479126,871000,1.9299999475479126
2018-07-27,1.9800000190734863,1.9199999570846558,1.940000057220459,1.9500000476837158,2472900,1.9500000476837158
2018-07-30,1.9600000381469727,1.909999966621399,1.9600000381469727,1.909999966621399,1060400,1.909999966621399
2018-07-31,2.0199999809265137,1.909999966621399,1.909999966621399,2.0,3035700,2.0
2018-08-01,2.0199999809265137,1.940000057220459,2.0,1.9600000381469727,876900,1.9600000381469727
2018-08-02,1.9900000095367432,1.940000057220459,1.940000057220459,1.9900000095367432,1347300,1.9900000095367432
2018-08-03,2.0,1.9500000476837158,1.9900000095367432,1.9500000476837158,1406700,1.9500000476837158
2018-08-06,1.9900000095367432,1.9500000476837158,1.9800000190734863,1.9700000286102295,1883700,1.9700000286102295
2018-08-07,1.9900000095367432,1.9500000476837158,1.9800000190734863,1.9500000476837158,1296500,1.9500000476837158
2018-08-08,2.049999952316284,1.9500000476837158,1.9700000286102295,2.0199999809265137,3986300,2.0199999809265137
2018-08-09,2.0199999809265137,1.8899999856948853,2.009999990463257,1.909999966621399,4963700,1.909999966621399
2018-08-10,1.9199999570846558,1.8300000429153442,1.909999966621399,1.909999966621399,3094800,1.909999966621399
2018-08-13,1.9299999475479126,1.8700000047683716,1.9199999570846558,1.8899999856948853,1798000,1.8899999856948853
2018-08-14,1.909999966621399,1.8700000047683716,1.909999966621399,1.8899999856948853,1865800,1.8899999856948853
2018-08-15,1.899999976158142,1.850000023841858,1.8899999856948853,1.8600000143051147,1310900,1.8600000143051147
2018-08-16,2.0,1.8600000143051147,1.8700000047683716,1.9700000286102295,4587400,1.9700000286102295
2018-08-17,1.9800000190734863,1.9299999475479126,1.9600000381469727,1.9700000286102295,1572000,1.9700000286102295
2018-08-20,1.9900000095367432,1.940000057220459,1.9900000095367432,1.9500000476837158,1243900,1.9500000476837158
2018-08-21,1.9800000190734863,1.9299999475479126,1.9500000476837158,1.9500000476837158,1648100,1.9500000476837158
2018-08-22,1.9800000190734863,1.940000057220459,1.9500000476837158,1.9500000476837158,1026700,1.9500000476837158
2018-08-23,2.0999999046325684,1.9900000095367432,1.9900000095367432,2.009999990463257,5719700,2.009999990463257
2018-08-24,2.049999952316284,1.9700000286102295,2.0299999713897705,2.0,2517200,2.0
2018-08-27,2.0399999618530273,1.9500000476837158,2.009999990463257,1.9700000286102295,3409800,1.9700000286102295
2018-08-28,2.0,1.9500000476837158,1.9900000095367432,1.9600000381469727,1833300,1.9600000381469727
2018-08-29,2.0399999618530273,1.9600000381469727,1.9900000095367432,1.9700000286102295,5114500,1.9700000286102295
2018-08-30,1.9700000286102295,1.9199999570846558,1.9700000286102295,1.940000057220459,4030200,1.940000057220459
2018-08-31,1.9800000190734863,1.9199999570846558,1.9199999570846558,1.9700000286102295,1872700,1.9700000286102295
2018-09-04,2.0299999713897705,1.9199999570846558,2.0,1.9500000476837158,4039300,1.9500000476837158
2018-09-05,1.9500000476837158,1.8799999952316284,1.940000057220459,1.909999966621399,3091400,1.909999966621399
2018-09-06,1.940000057220459,1.8799999952316284,1.9199999570846558,1.8899999856948853,1636300,1.8899999856948853
2018-09-07,1.9299999475479126,1.8899999856948853,1.909999966621399,1.9199999570846558,1568300,1.9199999570846558
2018-09-10,1.9299999475479126,1.8200000524520874,1.9299999475479126,1.8300000429153442,2994300,1.8300000429153442
2018-09-11,1.840000033378601,1.7200000286102295,1.8200000524520874,1.7599999904632568,5510300,1.7599999904632568
2018-09-12,1.7799999713897705,1.7200000286102295,1.7599999904632568,1.7699999809265137,2885800,1.7699999809265137
2018-09-13,1.7999999523162842,1.75,1.7599999904632568,1.75,1428200,1.75
2018-09-14,1.8799999952316284,1.7400000095367432,1.75,1.8700000047683716,3104100,1.8700000047683716
2018-09-17,1.899999976158142,1.8200000524520874,1.8700000047683716,1.8300000429153442,2115800,1.8300000429153442
2018-09-18,1.9199999570846558,1.850000023841858,1.8600000143051147,1.909999966621399,3708700,1.909999966621399
2018-09-19,1.940000057220459,1.8799999952316284,1.9199999570846558,1.8899999856948853,2409000,1.8899999856948853
2018-09-20,1.940000057220459,1.8700000047683716,1.899999976158142,1.9299999475479126,3069100,1.9299999475479126
2018-09-21,1.9299999475479126,1.899999976158142,1.909999966621399,1.899999976158142,1890100,1.899999976158142
2018-09-24,1.899999976158142,1.8600000143051147,1.899999976158142,1.8799999952316284,970000,1.8799999952316284
2018-09-25,2.049999952316284,1.8799999952316284,1.8899999856948853,1.9700000286102295,6956600,1.9700000286102295
2018-09-26,1.9800000190734863,1.899999976158142,1.9800000190734863,1.9199999570846558,2179000,1.9199999570846558
2018-09-27,1.9299999475479126,1.899999976158142,1.909999966621399,1.899999976158142,1087000,1.899999976158142
2018-09-28,1.9500000476837158,1.899999976158142,1.909999966621399,1.9199999570846558,1171600,1.9199999570846558
2018-10-01,1.9800000190734863,1.9199999570846558,1.9199999570846558,1.9299999475479126,2343000,1.9299999475479126
2018-10-02,1.940000057220459,1.8700000047683716,1.940000057220459,1.899999976158142,2318400,1.899999976158142
2018-10-03,1.9199999570846558,1.8799999952316284,1.899999976158142,1.899999976158142,1890800,1.899999976158142
2018-10-04,1.9199999570846558,1.8700000047683716,1.9199999570846558,1.8700000047683716,1244100,1.8700000047683716
2018-10-05,1.899999976158142,1.850000023841858,1.8799999952316284,1.8700000047683716,1511400,1.8700000047683716
2018-10-08,1.8799999952316284,1.850000023841858,1.850000023841858,1.8600000143051147,1268200,1.8600000143051147
2018-10-09,1.9299999475479126,1.850000023841858,1.8600000143051147,1.8600000143051147,1878100,1.8600000143051147
2018-10-10,1.8899999856948853,1.7200000286102295,1.8700000047683716,1.7400000095367432,4346500,1.7400000095367432
2018-10-11,1.8200000524520874,1.7300000190734863,1.75,1.7799999713897705,2725000,1.7799999713897705
2018-10-12,1.8700000047683716,1.7799999713897705,1.7999999523162842,1.809999942779541,2337500,1.809999942779541
2018-10-15,1.8899999856948853,1.809999942779541,1.809999942779541,1.8799999952316284,2220300,1.8799999952316284
2018-10-16,1.9800000190734863,1.909999966621399,1.9500000476837158,1.9299999475479126,4749700,1.9299999475479126
2018-10-17,1.9500000476837158,1.8899999856948853,1.9299999475479126,1.9299999475479126,2468300,1.9299999475479126
2018-10-18,1.9500000476837158,1.899999976158142,1.909999966621399,1.909999966621399,1433400,1.909999966621399
2018-10-19,1.9500000476837158,1.8799999952316284,1.909999966621399,1.940000057220459,4039500,1.940000057220459
2018-10-22,1.9500000476837158,1.899999976158142,1.9299999475479126,1.9199999570846558,1309600,1.9199999570846558
2018-10-23,1.899999976158142,1.8200000524520874,1.899999976158142,1.8700000047683716,2898300,1.8700000047683716
2018-10-24,1.9199999570846558,1.850000023841858,1.8700000047683716,1.8600000143051147,2976600,1.8600000143051147
2018-10-25,1.8899999856948853,1.8300000429153442,1.8899999856948853,1.850000023841858,1426800,1.850000023841858
2018-10-26,1.8799999952316284,1.7799999713897705,1.850000023841858,1.8300000429153442,2491200,1.8300000429153442
2018-10-29,1.8799999952316284,1.7799999713897705,1.8600000143051147,1.7999999523162842,1711000,1.7999999523162842
2018-10-30,1.8600000143051147,1.7899999618530273,1.7999999523162842,1.840000033378601,1480100,1.840000033378601
2018-10-31,1.8799999952316284,1.840000033378601,1.8600000143051147,1.850000023841858,1201700,1.850000023841858
2018-11-01,1.909999966621399,1.809999942779541,1.8300000429153442,1.8899999856948853,2090000,1.8899999856948853
2018-11-02,1.9199999570846558,1.8700000047683716,1.9199999570846558,1.899999976158142,1074900,1.899999976158142
2018-11-05,1.9199999570846558,1.8600000143051147,1.909999966621399,1.9199999570846558,1436500,1.9199999570846558
2018-11-06,1.9199999570846558,1.8899999856948853,1.899999976158142,1.909999966621399,1264100,1.909999966621399
2018-11-07,1.940000057220459,1.899999976158142,1.9199999570846558,1.9299999475479126,2244500,1.9299999475479126
2018-11-08,2.0,1.899999976158142,1.9600000381469727,1.940000057220459,3052100,1.940000057220459
2018-11-09,1.9299999475479126,1.840000033378601,1.9299999475479126,1.8700000047683716,2940500,1.8700000047683716
2018-11-12,1.8799999952316284,1.7999999523162842,1.8799999952316284,1.850000023841858,1857100,1.850000023841858
2018-11-13,1.8700000047683716,1.809999942779541,1.8600000143051147,1.809999942779541,1254100,1.809999942779541
2018-11-14,1.850000023841858,1.7899999618530273,1.8300000429153442,1.7999999523162842,1625500,1.7999999523162842
2018-11-15,1.8600000143051147,1.7999999523162842,1.7999999523162842,1.840000033378601,980400,1.840000033378601
2018-11-16,1.840000033378601,1.809999942779541,1.8200000524520874,1.840000033378601,823700,1.840000033378601
2018-11-19,1.8300000429153442,1.7400000095367432,1.8200000524520874,1.7799999713897705,2040600,1.7799999713897705
2018-11-20,1.7999999523162842,1.7200000286102295,1.7599999904632568,1.75,1856000,1.75
2018-11-21,1.8200000524520874,1.7400000095367432,1.7400000095367432,1.7999999523162842,1183200,1.7999999523162842
2018-11-23,1.7999999523162842,1.7100000381469727,1.7799999713897705,1.7100000381469727,1435700,1.7100000381469727
2018-11-26,1.7899999618530273,1.7200000286102295,1.75,1.7300000190734863,1451600,1.7300000190734863
2018-11-27,1.7699999809265137,1.7200000286102295,1.7400000095367432,1.7599999904632568,1213100,1.7599999904632568
2018-11-28,1.7899999618530273,1.7400000095367432,1.7799999713897705,1.7799999713897705,1418700,1.7799999713897705
2018-11-29,1.7999999523162842,1.7599999904632568,1.7999999523162842,1.7699999809265137,1168000,1.7699999809265137
2018-11-30,1.7699999809265137,1.75,1.7699999809265137,1.75,1094500,1.75
2018-12-03,1.7899999618530273,1.6799999475479126,1.7799999713897705,1.7000000476837158,2214000,1.7000000476837158
2018-12-04,1.7400000095367432,1.690000057220459,1.7100000381469727,1.690000057220459,2137900,1.690000057220459
2018-12-06,1.690000057220459,1.590000033378601,1.690000057220459,1.6200000047683716,2917600,1.6200000047683716
2018-12-07,1.6699999570846558,1.5499999523162842,1.6200000047683716,1.5700000524520874,2648800,1.5700000524520874
2018-12-10,1.6299999952316284,1.409999966621399,1.600000023841858,1.5,3418000,1.5
2018-12-11,1.5499999523162842,1.4900000095367432,1.5399999618530273,1.5,1259400,1.5
2018-12-12,1.5099999904632568,1.4600000381469727,1.5,1.4600000381469727,2239400,1.4600000381469727
2018-12-13,1.5,1.440000057220459,1.4700000286102295,1.4500000476837158,1743800,1.4500000476837158
2018-12-14,1.440000057220459,1.3700000047683716,1.4299999475479126,1.3700000047683716,2370700,1.3700000047683716
2018-12-17,1.3899999856948853,1.2799999713897705,1.3600000143051147,1.309999942779541,3495800,1.309999942779541
2018-12-18,1.340000033378601,1.1699999570846558,1.3200000524520874,1.1799999475479126,4184000,1.1799999475479126
2018-12-19,1.2200000286102295,1.1799999475479126,1.2100000381469727,1.1799999475479126,2358300,1.1799999475479126
2018-12-20,1.2100000381469727,1.0,1.2000000476837158,1.0099999904632568,7542100,1.0099999904632568
2018-12-21,1.0499999523162842,0.9900000095367432,1.0299999713897705,1.0199999809265137,8373200,1.0199999809265137
2018-12-24,1.0499999523162842,0.9900000095367432,1.0399999618530273,1.0199999809265137,3127500,1.0199999809265137
2018-12-26,1.3300000429153442,1.0199999809265137,1.0199999809265137,1.309999942779541,8140800,1.309999942779541
2018-12-27,1.399999976158142,1.2200000286102295,1.350000023841858,1.2999999523162842,5935600,1.2999999523162842
2018-12-28,1.3799999952316284,1.2599999904632568,1.2999999523162842,1.3200000524520874,4737800,1.3200000524520874
2018-12-31,1.3600000143051147,1.2300000190734863,1.3600000143051147,1.2400000095367432,3750200,1.2400000095367432
2019-01-02,1.350000023841858,1.2300000190734863,1.2400000095367432,1.3300000429153442,3389200,1.3300000429153442
2019-01-03,1.3300000429153442,1.2400000095367432,1.3300000429153442,1.2599999904632568,3638000,1.2599999904632568
2019-01-04,1.350000023841858,1.2599999904632568,1.2999999523162842,1.340000033378601,4863800,1.340000033378601
2019-01-07,1.590000033378601,1.3799999952316284,1.3799999952316284,1.5299999713897705,7525700,1.5299999713897705
2019-01-08,1.7000000476837158,1.590000033378601,1.600000023841858,1.600000023841858,8715600,1.600000023841858
2019-01-09,1.649999976158142,1.399999976158142,1.649999976158142,1.5099999904632568,7496200,1.5099999904632568
2019-01-10,1.5,1.4199999570846558,1.5,1.4500000476837158,2724900,1.4500000476837158
2019-01-11,1.4900000095367432,1.3600000143051147,1.4500000476837158,1.4800000190734863,4353600,1.4800000190734863
2019-01-14,1.4700000286102295,1.409999966621399,1.4700000286102295,1.4500000476837158,2000200,1.4500000476837158
2019-01-15,1.4500000476837158,1.340000033378601,1.440000057220459,1.3899999856948853,3491100,1.3899999856948853
2019-01-16,1.440000057220459,1.3700000047683716,1.3899999856948853,1.3899999856948853,1586900,1.3899999856948853
2019-01-17,1.4299999475479126,1.3700000047683716,1.399999976158142,1.399999976158142,2165900,1.399999976158142
2019-01-18,1.4299999475479126,1.3600000143051147,1.409999966621399,1.3799999952316284,2313600,1.3799999952316284
2019-01-22,1.399999976158142,1.309999942779541,1.399999976158142,1.3300000429153442,2180300,1.3300000429153442
2019-01-23,1.3899999856948853,1.309999942779541,1.340000033378601,1.3600000143051147,2144600,1.3600000143051147
2019-01-24,1.3899999856948853,1.350000023841858,1.3700000047683716,1.3700000047683716,1227200,1.3700000047683716
2019-01-25,1.399999976158142,1.340000033378601,1.3799999952316284,1.3600000143051147,1901000,1.3600000143051147
2019-01-28,1.3700000047683716,1.3300000429153442,1.3600000143051147,1.3700000047683716,1769300,1.3700000047683716
2019-01-29,1.4199999570846558,1.3799999952316284,1.3799999952316284,1.399999976158142,1793100,1.399999976158142
2019-01-30,1.4199999570846558,1.3700000047683716,1.4199999570846558,1.3899999856948853,1789100,1.3899999856948853
2019-01-31,1.4199999570846558,1.3700000047683716,1.3899999856948853,1.3700000047683716,2394600,1.3700000047683716
2019-02-01,1.399999976158142,1.3300000429153442,1.3799999952316284,1.340000033378601,2640600,1.340000033378601
2019-02-04,1.3899999856948853,1.350000023841858,1.3600000143051147,1.3799999952316284,2114300,1.3799999952316284
2019-02-05,1.3899999856948853,1.3700000047683716,1.3899999856948853,1.3799999952316284,1262000,1.3799999952316284
2019-02-06,1.399999976158142,1.350000023841858,1.3899999856948853,1.3600000143051147,1578900,1.3600000143051147
2019-02-07,1.3700000047683716,1.340000033378601,1.3600000143051147,1.340000033378601,1207500,1.340000033378601
2019-02-08,1.350000023841858,1.3200000524520874,1.340000033378601,1.340000033378601,1276400,1.340000033378601
2019-02-11,1.3700000047683716,1.3300000429153442,1.350000023841858,1.3600000143051147,1375300,1.3600000143051147
2019-02-12,1.3799999952316284,1.350000023841858,1.3700000047683716,1.3700000047683716,960600,1.3700000047683716
2019-02-13,1.409999966621399,1.350000023841858,1.3700000047683716,1.399999976158142,2173100,1.399999976158142
2019-02-14,1.690000057220459,1.3899999856948853,1.399999976158142,1.6699999570846558,9410000,1.6699999570846558
2019-02-15,1.6699999570846558,1.5,1.649999976158142,1.6200000047683716,5255300,1.6200000047683716
2019-02-19,1.75,1.6399999856948853,1.649999976158142,1.690000057220459,3638700,1.690000057220459
2019-02-20,1.7999999523162842,1.7300000190734863,1.7400000095367432,1.7799999713897705,5853200,1.7799999713897705
2019-02-21,1.809999942779541,1.6699999570846558,1.7999999523162842,1.7799999713897705,3369600,1.7799999713897705
2019-02-22,1.7999999523162842,1.7300000190734863,1.7999999523162842,1.7999999523162842,2563400,1.7999999523162842
2019-02-25,1.8300000429153442,1.7200000286102295,1.8200000524520874,1.75,3225500,1.75
2019-02-26,1.7899999618530273,1.6799999475479126,1.7899999618530273,1.7699999809265137,3039600,1.7699999809265137
2019-02-27,1.7999999523162842,1.7200000286102295,1.75,1.7899999618530273,1872200,1.7899999618530273
2019-02-28,1.7999999523162842,1.7599999904632568,1.7999999523162842,1.7899999618530273,1534000,1.7899999618530273
2019-03-01,1.8300000429153442,1.7699999809265137,1.7999999523162842,1.7999999523162842,2269200,1.7999999523162842
2019-03-04,1.8799999952316284,1.8200000524520874,1.8300000429153442,1.8600000143051147,3211100,1.8600000143051147
2019-03-05,1.9500000476837158,1.850000023841858,1.8899999856948853,1.8700000047683716,4327800,1.8700000047683716
2019-03-06,1.9299999475479126,1.7999999523162842,1.909999966621399,1.809999942779541,4278700,1.809999942779541
2019-03-07,1.9800000190734863,1.5499999523162842,1.75,1.9700000286102295,9119500,1.9700000286102295
2019-03-08,1.9500000476837158,1.9199999570846558,1.940000057220459,1.9500000476837158,2813900,1.9500000476837158
2019-03-11,2.240000009536743,1.9600000381469727,1.9700000286102295,2.109999895095825,13031000,2.109999895095825
2019-03-12,2.299999952316284,2.140000104904175,2.1500000953674316,2.200000047683716,10149000,2.200000047683716
2019-03-13,2.390000104904175,2.2200000286102295,2.2799999713897705,2.380000114440918,9414000,2.380000114440918
2019-03-14,2.6500000953674316,2.380000114440918,2.490000009536743,2.5899999141693115,18091500,2.5899999141693115
2019-03-15,2.5999999046325684,2.0399999618530273,2.5899999141693115,2.200000047683716,15081500,2.200000047683716
2019-03-18,2.4200000762939453,2.25,2.2799999713897705,2.4000000953674316,6292400,2.4000000953674316
2019-03-19,2.5799999237060547,2.430000066757202,2.4800000190734863,2.5299999713897705,8370500,2.5299999713897705
2019-03-20,2.6500000953674316,2.4100000858306885,2.4100000858306885,2.619999885559082,10581900,2.619999885559082
2019-03-21,2.619999885559082,2.4200000762939453,2.5999999046325684,2.5399999618530273,8405500,2.5399999618530273
2019-03-22,2.5399999618530273,2.4200000762939453,2.490000009536743,2.4800000190734863,4411900,2.4800000190734863
2019-03-25,2.490000009536743,2.2300000190734863,2.4800000190734863,2.359999895095825,6764600,2.359999895095825
2019-03-26,2.430000066757202,2.319999933242798,2.359999895095825,2.4000000953674316,3460400,2.4000000953674316
2019-03-27,2.430000066757202,2.309999942779541,2.4000000953674316,2.359999895095825,3998100,2.359999895095825
2019-03-28,2.5399999618530273,2.359999895095825,2.4000000953674316,2.4200000762939453,6995000,2.4200000762939453
2019-03-29,2.490000009536743,2.369999885559082,2.4700000286102295,2.4000000953674316,4239400,2.4000000953674316
2019-04-01,2.430000066757202,2.3399999141693115,2.4200000762939453,2.3499999046325684,3525900,2.3499999046325684
2019-04-02,2.4600000381469727,2.319999933242798,2.359999895095825,2.450000047683716,4149600,2.450000047683716
2019-04-03,2.5799999237060547,2.4000000953674316,2.490000009536743,2.450000047683716,7963600,2.450000047683716
2019-04-04,2.549999952316284,2.440000057220459,2.4600000381469727,2.549999952316284,4623900,2.549999952316284
2019-04-05,2.680000066757202,2.5399999618530273,2.569999933242798,2.630000114440918,9400800,2.630000114440918
2019-04-08,2.859999895095825,2.6500000953674316,2.6600000858306885,2.7699999809265137,10353300,2.7699999809265137
2019-04-09,2.8499999046325684,2.5899999141693115,2.7899999618530273,2.5899999141693115,9409900,2.5899999141693115
2019-04-10,2.7300000190734863,2.619999885559082,2.6500000953674316,2.6700000762939453,4631500,2.6700000762939453
2019-04-11,2.7200000286102295,2.5999999046325684,2.6700000762939453,2.6700000762939453,3111800,2.6700000762939453
2019-04-12,2.700000047683716,2.5799999237060547,2.700000047683716,2.5899999141693115,4026500,2.5899999141693115
2019-04-15,2.619999885559082,2.430000066757202,2.5999999046325684,2.509999990463257,5349800,2.509999990463257
2019-04-16,2.5999999046325684,2.4800000190734863,2.549999952316284,2.5899999141693115,3267100,2.5899999141693115
2019-04-17,2.609999895095825,2.5199999809265137,2.5999999046325684,2.559999942779541,2380800,2.559999942779541
2019-04-18,2.569999933242798,2.5,2.5399999618530273,2.569999933242798,2323400,2.569999933242798
2019-04-22,2.5899999141693115,2.450000047683716,2.5899999141693115,2.5,3966300,2.5
2019-04-23,2.5999999046325684,2.4600000381469727,2.5,2.5299999713897705,6364200,2.5299999713897705
2019-04-24,2.5999999046325684,2.509999990463257,2.549999952316284,2.5799999237060547,2952100,2.5799999237060547
2019-04-25,2.5899999141693115,2.509999990463257,2.5899999141693115,2.5299999713897705,3208800,2.5299999713897705
2019-04-26,2.5399999618530273,2.4600000381469727,2.5,2.5199999809265137,2992400,2.5199999809265137
2019-04-29,2.5799999237060547,2.5,2.5199999809265137,2.5299999713897705,3103200,2.5299999713897705
2019-04-30,2.549999952316284,2.4700000286102295,2.5199999809265137,2.490000009536743,3524700,2.490000009536743
2019-05-01,2.5299999713897705,2.4700000286102295,2.5,2.509999990463257,2706100,2.509999990463257
2019-05-02,2.5199999809265137,2.450000047683716,2.5,2.4600000381469727,2499900,2.4600000381469727
2019-05-03,2.569999933242798,2.4200000762939453,2.4800000190734863,2.569999933242798,3209000,2.569999933242798
2019-05-06,2.569999933242798,2.490000009536743,2.509999990463257,2.509999990463257,2632200,2.509999990463257
2019-05-07,2.5299999713897705,2.450000047683716,2.5,2.4700000286102295,3072900,2.4700000286102295
2019-05-08,2.490000009536743,2.259999990463257,2.299999952316284,2.4200000762939453,7494900,2.4200000762939453
2019-05-09,2.380000114440918,2.1600000858306885,2.359999895095825,2.309999942779541,6230700,2.309999942779541
2019-05-10,2.380000114440918,2.299999952316284,2.319999933242798,2.3499999046325684,2840000,2.3499999046325684
2019-05-13,2.3399999141693115,2.200000047683716,2.3399999141693115,2.2300000190734863,4938100,2.2300000190734863
2019-05-14,2.299999952316284,2.2300000190734863,2.25,2.2799999713897705,4044800,2.2799999713897705
2019-05-15,2.3299999237060547,2.259999990463257,2.2899999618530273,2.3299999237060547,2138600,2.3299999237060547
2019-05-16,2.440000057220459,2.359999895095825,2.369999885559082,2.4200000762939453,4366000,2.4200000762939453
2019-05-17,2.559999942779541,2.440000057220459,2.4600000381469727,2.549999952316284,4865900,2.549999952316284
2019-05-20,2.640000104904175,2.5199999809265137,2.5999999046325684,2.569999933242798,4908800,2.569999933242798
2019-05-21,2.5999999046325684,2.4800000190734863,2.5999999046325684,2.509999990463257,3722900,2.509999990463257
2019-05-22,2.5399999618530273,2.4600000381469727,2.5,2.5299999713897705,2000000,2.5299999713897705
2019-05-23,2.5299999713897705,2.430000066757202,2.509999990463257,2.5,4330700,2.5
2019-05-24,2.5399999618530273,2.4600000381469727,2.5299999713897705,2.5,2682800,2.5
