Date,High,Low,Open,Close,Volume,Adj Close
2017-10-19,25.030000686645508,24.860000610351562,24.860000610351562,25.030000686645508,120700.0,24.67285919189453
2017-10-20,25.030000686645508,25.030000686645508,25.030000686645508,25.030000686645508,0.0,24.67285919189453
2017-10-23,25.25,25.25,25.25,25.25,300.0,24.88971519470215
2017-10-24,25.25,25.25,25.25,25.25,0.0,24.88971519470215
2017-10-25,25.25,25.25,25.25,25.25,0.0,24.88971519470215
2017-10-26,25.25,25.25,25.25,25.25,0.0,24.88971519470215
2017-10-27,25.25,25.25,25.25,25.25,0.0,24.88971519470215
2017-10-30,25.25,25.25,25.25,25.25,0.0,24.88971519470215
2017-10-31,25.25,25.25,25.25,25.25,0.0,24.88971519470215
2017-11-01,25.25,25.25,25.25,25.25,0.0,24.88971519470215
2017-11-02,25.25,25.25,25.25,25.25,0.0,24.88971519470215
2017-11-03,25.25,25.25,25.25,25.25,0.0,24.88971519470215
2017-11-06,25.25,25.25,25.25,25.25,0.0,24.88971519470215
2017-11-07,25.25,25.25,25.25,25.25,0.0,24.88971519470215
2017-11-08,25.25,25.25,25.25,25.25,0.0,24.88971519470215
2017-11-09,25.25,25.25,25.25,25.25,0.0,24.88971519470215
2017-11-10,25.25,25.25,25.25,25.25,0.0,24.88971519470215
2017-11-13,25.25,25.25,25.25,25.25,0.0,24.88971519470215
2017-11-14,25.25,25.25,25.25,25.25,0.0,24.88971519470215
2017-11-15,25.239999771118164,25.239999771118164,25.239999771118164,25.239999771118164,100.0,24.87986183166504
2017-11-16,25.239999771118164,25.239999771118164,25.239999771118164,25.239999771118164,0.0,24.87986183166504
2017-11-17,25.239999771118164,25.239999771118164,25.239999771118164,25.239999771118164,0.0,24.87986183166504
2017-11-20,25.239999771118164,25.239999771118164,25.239999771118164,25.239999771118164,0.0,24.87986183166504
2017-11-21,25.239999771118164,25.239999771118164,25.239999771118164,25.239999771118164,0.0,24.87986183166504
2017-11-22,25.239999771118164,25.239999771118164,25.239999771118164,25.239999771118164,0.0,24.87986183166504
2017-11-24,25.239999771118164,25.239999771118164,25.239999771118164,25.239999771118164,0.0,24.87986183166504
2017-11-27,25.239999771118164,25.239999771118164,25.239999771118164,25.239999771118164,0.0,24.87986183166504
2017-11-28,25.239999771118164,25.239999771118164,25.239999771118164,25.239999771118164,0.0,24.87986183166504
2017-11-29,25.239999771118164,25.239999771118164,25.239999771118164,25.239999771118164,0.0,24.87986183166504
2017-11-30,25.239999771118164,25.239999771118164,25.239999771118164,25.239999771118164,0.0,24.87986183166504
2017-12-01,25.239999771118164,25.239999771118164,25.239999771118164,25.239999771118164,0.0,24.87986183166504
2017-12-04,25.239999771118164,25.239999771118164,25.239999771118164,25.239999771118164,0.0,24.87986183166504
2017-12-05,25.239999771118164,25.239999771118164,25.239999771118164,25.239999771118164,0.0,24.87986183166504
2017-12-06,25.239999771118164,25.239999771118164,25.239999771118164,25.239999771118164,0.0,24.87986183166504
2017-12-07,25.239999771118164,25.239999771118164,25.239999771118164,25.239999771118164,0.0,24.87986183166504
2017-12-08,25.239999771118164,25.239999771118164,25.239999771118164,25.239999771118164,0.0,24.87986183166504
2017-12-11,25.239999771118164,25.239999771118164,25.239999771118164,25.239999771118164,0.0,24.87986183166504
2017-12-12,25.239999771118164,25.239999771118164,25.239999771118164,25.239999771118164,0.0,24.87986183166504
2017-12-13,25.239999771118164,25.239999771118164,25.239999771118164,25.239999771118164,0.0,24.87986183166504
2017-12-14,25.239999771118164,25.239999771118164,25.239999771118164,25.239999771118164,0.0,24.87986183166504
2017-12-15,25.239999771118164,25.239999771118164,25.239999771118164,25.239999771118164,0.0,24.87986183166504
2017-12-18,25.239999771118164,25.239999771118164,25.239999771118164,25.239999771118164,0.0,24.87986183166504
2017-12-19,25.239999771118164,25.239999771118164,25.239999771118164,25.239999771118164,0.0,24.87986183166504
2017-12-20,25.239999771118164,25.239999771118164,25.239999771118164,25.239999771118164,0.0,24.87986183166504
2017-12-21,25.239999771118164,25.239999771118164,25.239999771118164,25.239999771118164,0.0,24.87986183166504
2017-12-22,25.239999771118164,25.239999771118164,25.239999771118164,25.239999771118164,0.0,24.87986183166504
2017-12-26,25.239999771118164,25.239999771118164,25.239999771118164,25.239999771118164,0.0,24.87986183166504
2017-12-27,25.239999771118164,25.239999771118164,25.239999771118164,25.239999771118164,0.0,24.95897102355957
2017-12-28,25.239999771118164,25.239999771118164,25.239999771118164,25.239999771118164,0.0,24.95897102355957
2017-12-29,25.239999771118164,25.239999771118164,25.239999771118164,25.239999771118164,0.0,24.95897102355957
2018-01-02,26.200000762939453,26.190000534057617,26.200000762939453,26.200000762939453,400.0,25.908281326293945
2018-01-03,26.200000762939453,26.200000762939453,26.200000762939453,26.200000762939453,0.0,25.908281326293945
2018-01-04,26.200000762939453,26.200000762939453,26.200000762939453,26.200000762939453,0.0,25.908281326293945
2018-01-05,26.200000762939453,26.200000762939453,26.200000762939453,26.200000762939453,0.0,25.908281326293945
2018-01-08,26.950000762939453,26.950000762939453,26.950000762939453,26.950000762939453,100.0,26.649930953979492
2018-01-09,27.100000381469727,27.100000381469727,27.100000381469727,27.100000381469727,200.0,26.798263549804688
2018-01-10,27.045000076293945,27.045000076293945,27.045000076293945,27.045000076293945,200.0,26.743873596191406
2018-01-11,27.045000076293945,27.045000076293945,27.045000076293945,27.045000076293945,0.0,26.743873596191406
2018-01-12,27.045000076293945,27.045000076293945,27.045000076293945,27.045000076293945,0.0,26.743873596191406
2018-01-16,27.469999313354492,27.469999313354492,27.469999313354492,27.469999313354492,200.0,27.164138793945312
2018-01-17,27.3799991607666,27.34000015258789,27.3799991607666,27.3799991607666,1500.0,27.07514190673828
2018-01-18,27.3799991607666,27.3799991607666,27.3799991607666,27.3799991607666,0.0,27.07514190673828
2018-01-19,27.729999542236328,27.729999542236328,27.729999542236328,27.729999542236328,3600.0,27.421245574951172
2018-01-22,27.799999237060547,27.799999237060547,27.799999237060547,27.799999237060547,200.0,27.490467071533203
2018-01-23,27.930999755859375,27.930999755859375,27.930999755859375,27.930999755859375,200.0,27.620006561279297
2018-01-24,27.930999755859375,27.930999755859375,27.930999755859375,27.930999755859375,0.0,27.620006561279297
2018-01-25,27.930999755859375,27.930999755859375,27.930999755859375,27.930999755859375,0.0,27.620006561279297
2018-01-26,27.930999755859375,27.930999755859375,27.930999755859375,27.930999755859375,0.0,27.620006561279297
2018-01-29,27.930999755859375,27.930999755859375,27.930999755859375,27.930999755859375,0.0,27.620006561279297
2018-01-30,27.930999755859375,27.930999755859375,27.930999755859375,27.930999755859375,0.0,27.620006561279297
2018-01-31,27.930999755859375,27.930999755859375,27.930999755859375,27.930999755859375,0.0,27.620006561279297
2018-02-01,27.91200065612793,27.84000015258789,27.84000015258789,27.91200065612793,1800.0,27.601221084594727
2018-02-02,27.540000915527344,27.540000915527344,27.540000915527344,27.540000915527344,200.0,27.233366012573242
2018-02-05,27.540000915527344,27.540000915527344,27.540000915527344,27.540000915527344,0.0,27.233366012573242
2018-02-06,26.0,26.0,26.0,26.0,200.0,25.710508346557617
2018-02-07,26.0,26.0,26.0,26.0,0.0,25.710508346557617
2018-02-08,25.952999114990234,25.950000762939453,25.950000762939453,25.952999114990234,400.0,25.664031982421875
2018-02-09,25.952999114990234,25.952999114990234,25.952999114990234,25.952999114990234,0.0,25.664031982421875
2018-02-12,25.952999114990234,25.952999114990234,25.952999114990234,25.952999114990234,0.0,25.664031982421875
2018-02-13,25.952999114990234,25.952999114990234,25.952999114990234,25.952999114990234,0.0,25.664031982421875
2018-02-14,25.952999114990234,25.952999114990234,25.952999114990234,25.952999114990234,0.0,25.664031982421875
2018-02-15,25.952999114990234,25.952999114990234,25.952999114990234,25.952999114990234,0.0,25.664031982421875
2018-02-16,25.952999114990234,25.952999114990234,25.952999114990234,25.952999114990234,0.0,25.664031982421875
2018-02-20,25.952999114990234,25.952999114990234,25.952999114990234,25.952999114990234,0.0,25.664031982421875
2018-02-21,25.952999114990234,25.952999114990234,25.952999114990234,25.952999114990234,0.0,25.664031982421875
2018-02-22,25.952999114990234,25.952999114990234,25.952999114990234,25.952999114990234,0.0,25.664031982421875
2018-02-23,25.952999114990234,25.952999114990234,25.952999114990234,25.952999114990234,0.0,25.664031982421875
2018-02-26,25.952999114990234,25.952999114990234,25.952999114990234,25.952999114990234,0.0,25.664031982421875
2018-02-27,25.952999114990234,25.952999114990234,25.952999114990234,25.952999114990234,0.0,25.664031982421875
2018-02-28,25.952999114990234,25.952999114990234,25.952999114990234,25.952999114990234,0.0,25.664031982421875
2018-03-01,25.952999114990234,25.952999114990234,25.952999114990234,25.952999114990234,0.0,25.664031982421875
2018-03-02,25.952999114990234,25.952999114990234,25.952999114990234,25.952999114990234,0.0,25.664031982421875
2018-03-05,25.952999114990234,25.952999114990234,25.952999114990234,25.952999114990234,0.0,25.664031982421875
2018-03-06,25.952999114990234,25.952999114990234,25.952999114990234,25.952999114990234,0.0,25.664031982421875
2018-03-07,25.952999114990234,25.952999114990234,25.952999114990234,25.952999114990234,0.0,25.664031982421875
2018-03-08,25.952999114990234,25.952999114990234,25.952999114990234,25.952999114990234,0.0,25.664031982421875
2018-03-09,25.952999114990234,25.952999114990234,25.952999114990234,25.952999114990234,0.0,25.664031982421875
2018-03-12,25.952999114990234,25.952999114990234,25.952999114990234,25.952999114990234,0.0,25.664031982421875
2018-03-13,25.952999114990234,25.952999114990234,25.952999114990234,25.952999114990234,0.0,25.664031982421875
2018-03-14,25.952999114990234,25.952999114990234,25.952999114990234,25.952999114990234,0.0,25.664031982421875
2018-03-15,25.952999114990234,25.952999114990234,25.952999114990234,25.952999114990234,0.0,25.664031982421875
2018-03-16,25.952999114990234,25.952999114990234,25.952999114990234,25.952999114990234,0.0,25.664031982421875
2018-03-19,25.952999114990234,25.952999114990234,25.952999114990234,25.952999114990234,0.0,25.664031982421875
2018-03-20,28.049999237060547,28.040000915527344,28.040000915527344,28.049999237060547,10300.0,27.737682342529297
2018-03-21,28.049999237060547,28.049999237060547,28.049999237060547,28.049999237060547,0.0,27.737682342529297
2018-03-22,27.709999084472656,27.709999084472656,27.709999084472656,27.709999084472656,200.0,27.40146827697754
2018-03-23,27.709999084472656,27.709999084472656,27.709999084472656,27.709999084472656,0.0,27.40146827697754
2018-03-26,27.709999084472656,27.709999084472656,27.709999084472656,27.709999084472656,0.0,27.40146827697754
2018-03-27,27.709999084472656,27.709999084472656,27.709999084472656,27.709999084472656,0.0,27.40146827697754
2018-03-28,26.639999389648438,26.639999389648438,26.639999389648438,26.639999389648438,200.0,26.343381881713867
2018-03-29,27.190000534057617,27.077999114990234,27.077999114990234,27.190000534057617,300.0,26.88726043701172
2018-04-02,26.8700008392334,26.799999237060547,26.8700008392334,26.799999237060547,300.0,26.554338455200195
2018-04-03,26.799999237060547,26.799999237060547,26.799999237060547,26.799999237060547,0.0,26.554338455200195
2018-04-04,26.799999237060547,26.799999237060547,26.799999237060547,26.799999237060547,0.0,26.554338455200195
2018-04-05,27.260000228881836,27.200000762939453,27.260000228881836,27.200000762939453,400.0,26.950674057006836
2018-04-06,27.200000762939453,27.200000762939453,27.200000762939453,27.200000762939453,400.0,26.950674057006836
2018-04-09,27.200000762939453,27.200000762939453,27.200000762939453,27.200000762939453,0.0,26.950674057006836
2018-04-10,27.200000762939453,27.200000762939453,27.200000762939453,27.200000762939453,0.0,26.950674057006836
2018-04-11,27.025999069213867,27.025999069213867,27.025999069213867,27.025999069213867,200.0,26.77826499938965
2018-04-12,27.40999984741211,27.354999542236328,27.354999542236328,27.40999984741211,500.0,27.15874671936035
2018-04-13,27.40999984741211,27.40999984741211,27.40999984741211,27.40999984741211,0.0,27.15874671936035
2018-04-16,27.350000381469727,27.209999084472656,27.350000381469727,27.34000015258789,6600.0,27.089387893676758
2018-04-17,27.649999618530273,27.649999618530273,27.649999618530273,27.649999618530273,100.0,27.396547317504883
2018-04-18,27.899999618530273,27.860000610351562,27.899999618530273,27.860000610351562,300.0,27.604623794555664
2018-04-19,27.729999542236328,27.6299991607666,27.729999542236328,27.6299991607666,200.0,27.37672996520996
2018-04-20,27.520000457763672,27.520000457763672,27.520000457763672,27.520000457763672,100.0,27.26774024963379
2018-04-23,27.625,27.399999618530273,27.625,27.399999618530273,200.0,27.14883804321289
2018-04-24,27.25,26.829999923706055,27.25,26.829999923706055,300.0,26.584062576293945
2018-04-25,26.969999313354492,26.90999984741211,26.969999313354492,26.90999984741211,2100.0,26.663328170776367
2018-04-26,27.229999542236328,27.229999542236328,27.229999542236328,27.229999542236328,100.0,26.980396270751953
2018-04-27,27.1299991607666,27.1299991607666,27.1299991607666,27.1299991607666,100.0,26.88131332397461
2018-04-30,27.0,27.0,27.0,27.0,100.0,26.752504348754883
2018-05-01,26.809999465942383,26.760000228881836,26.760000228881836,26.780000686645508,400.0,26.53452491760254
2018-05-02,26.889999389648438,26.889999389648438,26.889999389648438,26.889999389648438,100.0,26.64351463317871
2018-05-03,26.84000015258789,26.84000015258789,26.84000015258789,26.84000015258789,200.0,26.593971252441406
2018-05-04,27.229999542236328,27.229999542236328,27.229999542236328,27.229999542236328,100.0,26.980396270751953
2018-05-07,27.360000610351562,27.343000411987305,27.360000610351562,27.343000411987305,1500.0,27.09235954284668
2018-05-08,27.343000411987305,27.343000411987305,27.343000411987305,27.343000411987305,0.0,27.09235954284668
2018-05-09,27.343000411987305,27.343000411987305,27.343000411987305,27.343000411987305,0.0,27.09235954284668
2018-05-10,27.343000411987305,27.343000411987305,27.343000411987305,27.343000411987305,0.0,27.09235954284668
2018-05-11,28.260000228881836,28.229999542236328,28.229999542236328,28.260000228881836,1400.0,28.000957489013672
2018-05-14,28.309999465942383,28.29199981689453,28.309999465942383,28.29199981689453,300.0,28.032663345336914
2018-05-15,28.29199981689453,28.29199981689453,28.29199981689453,28.29199981689453,0.0,28.032663345336914
2018-05-16,28.56999969482422,28.104999542236328,28.56999969482422,28.104999542236328,500.0,27.84737777709961
2018-05-17,28.610000610351562,28.610000610351562,28.610000610351562,28.610000610351562,300.0,28.347747802734375
2018-05-18,28.610000610351562,28.610000610351562,28.610000610351562,28.610000610351562,0.0,28.347747802734375
2018-05-21,28.610000610351562,28.610000610351562,28.610000610351562,28.610000610351562,0.0,28.347747802734375
2018-05-22,28.610000610351562,28.610000610351562,28.610000610351562,28.610000610351562,0.0,28.347747802734375
2018-05-23,28.239999771118164,28.225000381469727,28.239999771118164,28.225000381469727,200.0,27.966276168823242
2018-05-24,28.225000381469727,28.225000381469727,28.225000381469727,28.225000381469727,0.0,27.966276168823242
2018-05-25,28.225000381469727,28.225000381469727,28.225000381469727,28.225000381469727,0.0,27.966276168823242
2018-05-29,28.239999771118164,28.239999771118164,28.239999771118164,28.239999771118164,200.0,27.981136322021484
2018-05-30,28.239999771118164,28.239999771118164,28.239999771118164,28.239999771118164,0.0,27.981136322021484
2018-05-31,28.239999771118164,28.239999771118164,28.239999771118164,28.239999771118164,0.0,27.981136322021484
2018-06-01,28.68000030517578,28.68000030517578,28.68000030517578,28.68000030517578,1800.0,28.41710662841797
2018-06-04,28.68000030517578,28.68000030517578,28.68000030517578,28.68000030517578,0.0,28.41710662841797
2018-06-05,28.68000030517578,28.68000030517578,28.68000030517578,28.68000030517578,0.0,28.41710662841797
2018-06-06,28.68000030517578,28.68000030517578,28.68000030517578,28.68000030517578,0.0,28.41710662841797
2018-06-07,28.68000030517578,28.68000030517578,28.68000030517578,28.68000030517578,0.0,28.41710662841797
2018-06-08,28.68000030517578,28.68000030517578,28.68000030517578,28.68000030517578,0.0,28.41710662841797
2018-06-11,28.68000030517578,28.68000030517578,28.68000030517578,28.68000030517578,0.0,28.41710662841797
2018-06-12,28.68000030517578,28.68000030517578,28.68000030517578,28.68000030517578,0.0,28.41710662841797
2018-06-13,28.68000030517578,28.68000030517578,28.68000030517578,28.68000030517578,0.0,28.41710662841797
2018-06-14,29.200000762939453,29.200000762939453,29.200000762939453,29.200000762939453,100.0,28.93233871459961
2018-06-15,29.1200008392334,29.1200008392334,29.1200008392334,29.1200008392334,600.0,28.853073120117188
2018-06-18,29.1200008392334,29.1200008392334,29.1200008392334,29.1200008392334,0.0,28.853073120117188
2018-06-19,29.139999389648438,29.121999740600586,29.139999389648438,29.121999740600586,300.0,28.855052947998047
2018-06-20,29.399999618530273,29.399999618530273,29.399999618530273,29.399999618530273,200.0,29.13050651550293
2018-06-21,29.18000030517578,29.18000030517578,29.18000030517578,29.18000030517578,400.0,28.91252326965332
2018-06-22,29.18000030517578,29.18000030517578,29.18000030517578,29.18000030517578,0.0,28.91252326965332
2018-06-25,29.18000030517578,29.18000030517578,29.18000030517578,29.18000030517578,0.0,28.91252326965332
2018-06-26,28.209999084472656,28.209999084472656,28.209999084472656,28.209999084472656,200.0,27.951412200927734
2018-06-27,28.209999084472656,28.209999084472656,28.209999084472656,28.209999084472656,0.0,27.951412200927734
2018-06-28,28.209999084472656,28.209999084472656,28.209999084472656,28.209999084472656,0.0,27.951412200927734
2018-06-29,28.209999084472656,28.209999084472656,28.209999084472656,28.209999084472656,100.0,27.951412200927734
2018-07-02,27.950000762939453,27.84000015258789,27.950000762939453,27.843000411987305,800.0,27.6259708404541
2018-07-03,27.843000411987305,27.843000411987305,27.843000411987305,27.843000411987305,0.0,27.6259708404541
2018-07-05,27.843000411987305,27.843000411987305,27.843000411987305,27.843000411987305,0.0,27.6259708404541
2018-07-06,27.843000411987305,27.843000411987305,27.843000411987305,27.843000411987305,0.0,27.6259708404541
2018-07-09,27.843000411987305,27.843000411987305,27.843000411987305,27.843000411987305,0.0,27.6259708404541
2018-07-10,27.843000411987305,27.843000411987305,27.843000411987305,27.843000411987305,0.0,27.6259708404541
2018-07-11,27.843000411987305,27.843000411987305,27.843000411987305,27.843000411987305,0.0,27.6259708404541
2018-07-12,27.843000411987305,27.843000411987305,27.843000411987305,27.843000411987305,0.0,27.6259708404541
2018-07-13,28.850000381469727,28.780000686645508,28.799999237060547,28.790000915527344,2200.0,28.565589904785156
2018-07-16,28.790000915527344,28.790000915527344,28.790000915527344,28.790000915527344,0.0,28.565589904785156
2018-07-17,28.790000915527344,28.790000915527344,28.790000915527344,28.790000915527344,0.0,28.565589904785156
2018-07-18,28.790000915527344,28.790000915527344,28.790000915527344,28.790000915527344,0.0,28.565589904785156
2018-07-19,28.790000915527344,28.790000915527344,28.790000915527344,28.790000915527344,0.0,28.565589904785156
2018-07-20,28.790000915527344,28.790000915527344,28.790000915527344,28.790000915527344,0.0,28.565589904785156
2018-07-23,28.790000915527344,28.790000915527344,28.790000915527344,28.790000915527344,0.0,28.565589904785156
2018-07-24,28.790000915527344,28.790000915527344,28.790000915527344,28.790000915527344,0.0,28.565589904785156
2018-07-25,28.790000915527344,28.790000915527344,28.790000915527344,28.790000915527344,0.0,28.565589904785156
2018-07-26,28.790000915527344,28.790000915527344,28.790000915527344,28.790000915527344,0.0,28.565589904785156
2018-07-27,28.790000915527344,28.790000915527344,28.790000915527344,28.790000915527344,0.0,28.565589904785156
2018-07-30,28.790000915527344,28.790000915527344,28.790000915527344,28.790000915527344,0.0,28.565589904785156
2018-07-31,28.790000915527344,28.790000915527344,28.790000915527344,28.790000915527344,0.0,28.565589904785156
2018-08-01,28.68199920654297,28.68199920654297,28.68199920654297,28.68199920654297,100.0,28.458431243896484
2018-08-02,28.68199920654297,28.68199920654297,28.68199920654297,28.68199920654297,0.0,28.458431243896484
2018-08-03,28.68199920654297,28.68199920654297,28.68199920654297,28.68199920654297,0.0,28.458431243896484
2018-08-06,29.06999969482422,29.06999969482422,29.06999969482422,29.06999969482422,400.0,28.84340476989746
2018-08-07,29.06999969482422,29.06999969482422,29.06999969482422,29.06999969482422,0.0,28.84340476989746
2018-08-08,29.06999969482422,29.06999969482422,29.06999969482422,29.06999969482422,0.0,28.84340476989746
2018-08-09,29.06999969482422,29.06999969482422,29.06999969482422,29.06999969482422,0.0,28.84340476989746
2018-08-10,29.06999969482422,29.06999969482422,29.06999969482422,29.06999969482422,0.0,28.84340476989746
2018-08-13,29.0,29.0,29.0,29.0,500.0,28.77395248413086
2018-08-14,29.0,29.0,29.0,29.0,0.0,28.77395248413086
2018-08-15,28.959999084472656,28.950000762939453,28.959999084472656,28.950000762939453,500.0,28.724340438842773
2018-08-16,28.950000762939453,28.950000762939453,28.950000762939453,28.950000762939453,0.0,28.724340438842773
2018-08-17,28.950000762939453,28.950000762939453,28.950000762939453,28.950000762939453,0.0,28.724340438842773
2018-08-20,28.950000762939453,28.950000762939453,28.950000762939453,28.950000762939453,0.0,28.724340438842773
2018-08-21,28.950000762939453,28.950000762939453,28.950000762939453,28.950000762939453,0.0,28.724340438842773
2018-08-22,28.950000762939453,28.950000762939453,28.950000762939453,28.950000762939453,0.0,28.724340438842773
2018-08-23,29.600000381469727,29.360000610351562,29.360000610351562,29.56999969482422,1000.0,29.339508056640625
2018-08-24,29.56999969482422,29.56999969482422,29.56999969482422,29.56999969482422,0.0,29.339508056640625
2018-08-27,29.56999969482422,29.56999969482422,29.56999969482422,29.56999969482422,0.0,29.339508056640625
2018-08-28,29.56999969482422,29.56999969482422,29.56999969482422,29.56999969482422,0.0,29.339508056640625
2018-08-29,29.56999969482422,29.56999969482422,29.56999969482422,29.56999969482422,0.0,29.339508056640625
2018-08-30,29.56999969482422,29.56999969482422,29.56999969482422,29.56999969482422,0.0,29.339508056640625
2018-08-31,30.291000366210938,30.22800064086914,30.239999771118164,30.2450008392334,2700.0,30.009248733520508
2018-09-04,30.440000534057617,30.304000854492188,30.304000854492188,30.440000534057617,600.0,30.202728271484375
2018-09-05,30.020000457763672,29.899999618530273,29.93000030517578,29.979999542236328,500.0,29.746313095092773
2018-09-06,29.906999588012695,29.889999389648438,29.889999389648438,29.906999588012695,1000.0,29.67388153076172
2018-09-07,30.062999725341797,30.0,30.0,30.062999725341797,500.0,29.82866668701172
2018-09-10,30.170000076293945,30.06999969482422,30.170000076293945,30.079999923706055,2500.0,29.845535278320312
2018-09-11,30.229999542236328,30.106000900268555,30.106000900268555,30.229999542236328,1200.0,29.99436378479004
2018-09-12,30.1200008392334,30.1200008392334,30.1200008392334,30.1200008392334,300.0,29.885221481323242
2018-09-13,30.1200008392334,30.1200008392334,30.1200008392334,30.1200008392334,0.0,29.885221481323242
2018-09-14,30.520000457763672,30.520000457763672,30.520000457763672,30.520000457763672,3000.0,30.282102584838867
2018-09-17,30.15999984741211,29.940000534057617,30.15999984741211,29.940000534057617,600.0,29.70662498474121
2018-09-18,30.1299991607666,30.09000015258789,30.1299991607666,30.09000015258789,1800.0,29.855457305908203
2018-09-19,29.780000686645508,29.770000457763672,29.780000686645508,29.770000457763672,900.0,29.537948608398438
2018-09-20,29.969999313354492,29.799999237060547,29.799999237060547,29.969999313354492,1300.0,29.736391067504883
2018-09-21,29.950000762939453,29.889999389648438,29.950000762939453,29.889999389648438,500.0,29.657014846801758
2018-09-24,29.899999618530273,29.850000381469727,29.850000381469727,29.899999618530273,200.0,29.66693687438965
2018-09-25,30.1299991607666,30.1299991607666,30.1299991607666,30.1299991607666,100.0,29.8951416015625
2018-09-26,30.378999710083008,30.159000396728516,30.159000396728516,30.378999710083008,400.0,30.142202377319336
2018-09-27,30.250999450683594,30.190000534057617,30.250999450683594,30.190000534057617,200.0,29.95467758178711
2018-09-28,30.239999771118164,30.239999771118164,30.239999771118164,30.239999771118164,100.0,30.00428581237793
2018-10-01,30.136999130249023,30.059999465942383,30.118000030517578,30.059999465942383,900.0,29.865192413330078
2018-10-02,29.968000411987305,29.968000411987305,29.968000411987305,29.968000411987305,1500.0,29.77379035949707
2018-10-03,30.389999389648438,29.89699935913086,30.389999389648438,29.89699935913086,1500.0,29.703248977661133
2018-10-04,29.709999084472656,29.709999084472656,29.709999084472656,29.709999084472656,200.0,29.5174617767334
2018-10-05,29.209999084472656,29.18199920654297,29.18199920654297,29.209999084472656,500.0,29.020702362060547
2018-10-08,28.58799934387207,28.58799934387207,28.58799934387207,28.58799934387207,200.0,28.40273094177246
2018-10-09,28.81999969482422,28.81999969482422,28.81999969482422,28.81999969482422,500.0,28.633230209350586
2018-10-10,28.360000610351562,27.899999618530273,28.360000610351562,27.899999618530273,1000.0,27.719192504882812
2018-10-11,27.799999237060547,27.5,27.610000610351562,27.5,500.0,27.32178497314453
2018-10-12,27.440000534057617,27.440000534057617,27.440000534057617,27.440000534057617,100.0,27.26217269897461
2018-10-15,27.440000534057617,27.440000534057617,27.440000534057617,27.440000534057617,100.0,27.26217269897461
2018-10-16,27.440000534057617,27.440000534057617,27.440000534057617,27.440000534057617,0.0,27.26217269897461
2018-10-17,27.440000534057617,27.440000534057617,27.440000534057617,27.440000534057617,0.0,27.26217269897461
2018-10-18,27.440000534057617,27.440000534057617,27.440000534057617,27.440000534057617,0.0,27.26217269897461
2018-10-19,27.440000534057617,27.440000534057617,27.440000534057617,27.440000534057617,0.0,27.26217269897461
2018-10-22,27.440000534057617,27.440000534057617,27.440000534057617,27.440000534057617,0.0,27.26217269897461
2018-10-23,27.440000534057617,27.440000534057617,27.440000534057617,27.440000534057617,0.0,27.26217269897461
2018-10-24,26.450000762939453,26.059999465942383,26.450000762939453,26.059999465942383,2100.0,25.891115188598633
2018-10-25,26.059999465942383,26.059999465942383,26.059999465942383,26.059999465942383,0.0,25.891115188598633
2018-10-26,26.059999465942383,26.059999465942383,26.059999465942383,26.059999465942383,0.0,25.891115188598633
2018-10-29,26.059999465942383,26.059999465942383,26.059999465942383,26.059999465942383,0.0,25.891115188598633
2018-10-30,26.059999465942383,26.059999465942383,26.059999465942383,26.059999465942383,0.0,25.891115188598633
2018-10-31,26.399999618530273,26.399999618530273,26.399999618530273,26.399999618530273,100.0,26.228910446166992
2018-11-01,26.399999618530273,26.399999618530273,26.399999618530273,26.399999618530273,0.0,26.228910446166992
2018-11-02,26.399999618530273,26.399999618530273,26.399999618530273,26.399999618530273,0.0,26.228910446166992
2018-11-05,26.825000762939453,26.825000762939453,26.825000762939453,26.825000762939453,100.0,26.651159286499023
2018-11-06,27.05299949645996,27.05299949645996,27.05299949645996,27.05299949645996,100.0,26.8776798248291
2018-11-07,27.05299949645996,27.05299949645996,27.05299949645996,27.05299949645996,0.0,26.8776798248291
2018-11-08,27.05299949645996,27.05299949645996,27.05299949645996,27.05299949645996,0.0,26.8776798248291
2018-11-09,27.010000228881836,26.799999237060547,26.850000381469727,27.010000228881836,2300.0,26.8349609375
2018-11-12,26.479999542236328,26.479999542236328,26.479999542236328,26.479999542236328,100.0,26.308393478393555
2018-11-13,26.25,26.25,26.25,26.25,21500.0,26.079885482788086
2018-11-14,26.170000076293945,26.170000076293945,26.170000076293945,26.170000076293945,10200.0,26.000402450561523
2018-11-15,26.649999618530273,25.97100067138672,25.97100067138672,26.540000915527344,12100.0,26.368005752563477
2018-11-16,26.510000228881836,26.479999542236328,26.479999542236328,26.510000228881836,500.0,26.33820152282715
2018-11-19,26.510000228881836,26.510000228881836,26.510000228881836,26.510000228881836,0.0,26.33820152282715
2018-11-20,26.510000228881836,26.510000228881836,26.510000228881836,26.510000228881836,0.0,26.33820152282715
2018-11-21,25.700000762939453,25.65999984741211,25.700000762939453,25.65999984741211,300.0,25.49370765686035
2018-11-23,25.65999984741211,25.65999984741211,25.65999984741211,25.65999984741211,0.0,25.49370765686035
2018-11-26,25.65999984741211,25.65999984741211,25.65999984741211,25.65999984741211,0.0,25.49370765686035
2018-11-27,25.850000381469727,25.850000381469727,25.850000381469727,25.850000381469727,100.0,25.682477951049805
2018-11-28,25.850000381469727,25.850000381469727,25.850000381469727,25.850000381469727,0.0,25.682477951049805
2018-11-29,25.850000381469727,25.850000381469727,25.850000381469727,25.850000381469727,0.0,25.682477951049805
2018-11-30,25.850000381469727,25.850000381469727,25.850000381469727,25.850000381469727,0.0,25.682477951049805
2018-12-03,25.850000381469727,25.850000381469727,25.850000381469727,25.850000381469727,0.0,25.682477951049805
2018-12-04,25.850000381469727,25.850000381469727,25.850000381469727,25.850000381469727,0.0,25.682477951049805
2018-12-06,25.850000381469727,25.850000381469727,25.850000381469727,25.850000381469727,0.0,25.682477951049805
2018-12-07,25.850000381469727,25.850000381469727,25.850000381469727,25.850000381469727,100.0,25.682477951049805
2018-12-10,25.850000381469727,25.850000381469727,25.850000381469727,25.850000381469727,0.0,25.682477951049805
2018-12-11,25.850000381469727,25.850000381469727,25.850000381469727,25.850000381469727,0.0,25.682477951049805
2018-12-12,25.850000381469727,25.850000381469727,25.850000381469727,25.850000381469727,0.0,25.682477951049805
2018-12-13,25.850000381469727,25.850000381469727,25.850000381469727,25.850000381469727,0.0,25.682477951049805
2018-12-14,25.850000381469727,25.850000381469727,25.850000381469727,25.850000381469727,0.0,25.682477951049805
2018-12-17,25.850000381469727,25.850000381469727,25.850000381469727,25.850000381469727,0.0,25.682477951049805
2018-12-18,25.850000381469727,25.850000381469727,25.850000381469727,25.850000381469727,0.0,25.682477951049805
2018-12-19,24.889999389648438,24.8799991607666,24.889999389648438,24.8799991607666,400.0,24.718761444091797
2018-12-20,24.1200008392334,24.1200008392334,24.1200008392334,24.1200008392334,1600.0,23.963687896728516
2018-12-21,23.368999481201172,23.31999969482422,23.31999969482422,23.368999481201172,600.0,23.217554092407227
2018-12-24,23.010000228881836,23.010000228881836,23.010000228881836,23.010000228881836,900.0,22.860881805419922
2018-12-26,23.010000228881836,23.010000228881836,23.010000228881836,23.010000228881836,0.0,22.860881805419922
2018-12-27,23.010000228881836,23.010000228881836,23.010000228881836,23.010000228881836,100.0,22.921648025512695
2018-12-28,24.079999923706055,24.06999969482422,24.06999969482422,24.079999923706055,3200.0,23.987539291381836
2018-12-31,24.170000076293945,24.170000076293945,24.170000076293945,24.170000076293945,100.0,24.077194213867188
2019-01-02,24.15999984741211,23.790000915527344,23.790000915527344,24.15999984741211,900.0,24.067232131958008
2019-01-03,23.84000015258789,23.760000228881836,23.760000228881836,23.84000015258789,200.0,23.74846076965332
2019-01-04,24.219999313354492,24.219999313354492,24.219999313354492,24.219999313354492,400.0,24.12700080871582
2019-01-07,24.84000015258789,24.729999542236328,24.729999542236328,24.84000015258789,400.0,24.74462127685547
2019-01-08,25.13599967956543,24.860000610351562,24.860000610351562,25.13599967956543,800.0,25.03948402404785
2019-01-09,25.3700008392334,25.299999237060547,25.299999237060547,25.3700008392334,300.0,25.272586822509766
2019-01-10,25.239999771118164,25.239999771118164,25.239999771118164,25.239999771118164,200.0,25.143085479736328
2019-01-11,25.43000030517578,25.43000030517578,25.43000030517578,25.43000030517578,300.0,25.332355499267578
2019-01-14,25.43000030517578,25.43000030517578,25.43000030517578,25.43000030517578,0.0,25.332355499267578
2019-01-15,25.489999771118164,25.489999771118164,25.489999771118164,25.489999771118164,300.0,25.39212417602539
2019-01-16,25.649999618530273,25.649999618530273,25.649999618530273,25.649999618530273,200.0,25.551509857177734
2019-01-17,25.649999618530273,25.649999618530273,25.649999618530273,25.649999618530273,0.0,25.551509857177734
2019-01-18,26.389999389648438,26.1200008392334,26.1200008392334,26.389999389648438,1000.0,26.28866958618164
2019-01-22,26.389999389648438,26.389999389648438,26.389999389648438,26.389999389648438,0.0,26.28866958618164
2019-01-23,26.075000762939453,26.075000762939453,26.075000762939453,26.075000762939453,100.0,25.97488021850586
2019-01-24,26.075000762939453,26.075000762939453,26.075000762939453,26.075000762939453,0.0,25.97488021850586
2019-01-25,26.075000762939453,26.075000762939453,26.075000762939453,26.075000762939453,0.0,25.97488021850586
2019-01-28,26.075000762939453,26.075000762939453,26.075000762939453,26.075000762939453,0.0,25.97488021850586
2019-01-29,26.075000762939453,26.075000762939453,26.075000762939453,26.075000762939453,0.0,25.97488021850586
2019-01-30,26.075000762939453,26.075000762939453,26.075000762939453,26.075000762939453,0.0,25.97488021850586
2019-01-31,26.075000762939453,26.075000762939453,26.075000762939453,26.075000762939453,0.0,25.97488021850586
2019-02-01,26.68000030517578,26.614999771118164,26.68000030517578,26.614999771118164,3800.0,26.512805938720703
2019-02-04,26.614999771118164,26.614999771118164,26.614999771118164,26.614999771118164,0.0,26.512805938720703
2019-02-05,27.959999084472656,26.8700008392334,26.950000762939453,26.950000762939453,3400.0,26.846519470214844
2019-02-06,26.950000762939453,26.950000762939453,26.950000762939453,26.950000762939453,0.0,26.846519470214844
2019-02-07,26.950000762939453,26.950000762939453,26.950000762939453,26.950000762939453,0.0,26.846519470214844
2019-02-08,26.950000762939453,26.950000762939453,26.950000762939453,26.950000762939453,0.0,26.846519470214844
2019-02-11,26.950000762939453,26.950000762939453,26.950000762939453,26.950000762939453,0.0,26.846519470214844
2019-02-12,26.950000762939453,26.950000762939453,26.950000762939453,26.950000762939453,0.0,26.846519470214844
2019-02-13,26.950000762939453,26.950000762939453,26.950000762939453,26.950000762939453,0.0,26.846519470214844
2019-02-14,26.950000762939453,26.950000762939453,26.950000762939453,26.950000762939453,0.0,26.846519470214844
2019-02-15,26.950000762939453,26.950000762939453,26.950000762939453,26.950000762939453,0.0,26.846519470214844
2019-02-19,26.950000762939453,26.950000762939453,26.950000762939453,26.950000762939453,0.0,26.846519470214844
2019-02-20,27.760000228881836,27.760000228881836,27.760000228881836,27.760000228881836,200.0,27.653409957885742
2019-02-21,27.52899932861328,27.059999465942383,27.06999969482422,27.450000762939453,10600.0,27.344600677490234
2019-02-22,27.709999084472656,27.628999710083008,27.68000030517578,27.628999710083008,2800.0,27.522911071777344
2019-02-25,27.729999542236328,27.600000381469727,27.729999542236328,27.600000381469727,400.0,27.4940242767334
2019-02-26,27.659000396728516,27.579999923706055,27.579999923706055,27.658000946044922,600.0,27.551801681518555
2019-02-27,27.649999618530273,27.618000030517578,27.618999481201172,27.6299991607666,3500.0,27.523906707763672
2019-02-28,27.645000457763672,27.6200008392334,27.645000457763672,27.6200008392334,9600.0,27.513946533203125
2019-03-01,27.83300018310547,27.83300018310547,27.83300018310547,27.83300018310547,400.0,27.72612953186035
2019-03-04,27.790000915527344,27.566999435424805,27.790000915527344,27.70800018310547,5000.0,27.601608276367188
2019-03-05,27.75,27.280000686645508,27.280000686645508,27.725000381469727,1700.0,27.61854362487793
2019-03-06,27.3700008392334,27.3700008392334,27.3700008392334,27.3700008392334,100.0,27.264907836914062
2019-03-07,27.37700080871582,27.30299949645996,27.30299949645996,27.34000015258789,1000.0,27.235021591186523
2019-03-08,27.079999923706055,27.006999969482422,27.006999969482422,27.079999923706055,2000.0,26.97602081298828
2019-03-11,27.290000915527344,27.290000915527344,27.290000915527344,27.290000915527344,400.0,27.18521499633789
2019-03-12,27.6299991607666,27.600000381469727,27.600000381469727,27.6299991607666,300.0,27.523906707763672
2019-03-13,27.850000381469727,27.788999557495117,27.850000381469727,27.84000015258789,1800.0,27.733102798461914
2019-03-14,27.84000015258789,27.84000015258789,27.84000015258789,27.84000015258789,0.0,27.733102798461914
2019-03-15,27.780000686645508,27.780000686645508,27.780000686645508,27.780000686645508,400.0,27.67333221435547
2019-03-18,27.90999984741211,27.80500030517578,27.80500030517578,27.90999984741211,2700.0,27.802833557128906
2019-03-19,27.950000762939453,27.940000534057617,27.940000534057617,27.940000534057617,700.0,27.832717895507812
2019-03-20,27.975000381469727,27.756000518798828,27.756000518798828,27.850000381469727,2600.0,27.74306297302246
2019-03-21,28.246000289916992,28.207000732421875,28.22800064086914,28.239999771118164,1300.0,28.13156509399414
2019-03-22,28.0,27.809999465942383,28.0,27.809999465942383,2200.0,27.703216552734375
2019-03-25,27.809999465942383,27.809999465942383,27.809999465942383,27.809999465942383,0.0,27.703216552734375
2019-03-26,28.1200008392334,28.020000457763672,28.100000381469727,28.020000457763672,1100.0,27.912410736083984
2019-03-27,28.229999542236328,27.823999404907227,28.229999542236328,27.966999053955078,3200.0,27.8596134185791
2019-03-28,28.020000457763672,27.93000030517578,27.9689998626709,28.020000457763672,3600.0,27.912410736083984
2019-03-29,28.14900016784668,28.079999923706055,28.079999923706055,28.12700080871582,3500.0,28.019001007080078
2019-04-01,28.12700080871582,28.12700080871582,28.12700080871582,28.12700080871582,100.0,28.12700080871582
2019-04-02,28.15999984741211,28.09000015258789,28.100000381469727,28.117000579833984,4200.0,28.117000579833984
2019-04-03,28.224000930786133,28.079999923706055,28.18600082397461,28.09000015258789,1600.0,28.09000015258789
2019-04-04,28.079999923706055,27.979999542236328,28.059999465942383,28.079999923706055,1900.0,28.079999923706055
2019-04-05,28.260000228881836,28.256999969482422,28.260000228881836,28.256999969482422,900.0,28.256999969482422
2019-04-08,28.219999313354492,28.19700050354004,28.200000762939453,28.219999313354492,3400.0,28.219999313354492
2019-04-09,28.15999984741211,28.1299991607666,28.139999389648438,28.1299991607666,1700.0,28.1299991607666
2019-04-10,28.270000457763672,28.270000457763672,28.270000457763672,28.270000457763672,1300.0,28.270000457763672
2019-04-11,30.90999984741211,28.270000457763672,28.280000686645508,28.270000457763672,3500.0,28.270000457763672
2019-04-12,28.288999557495117,28.24799919128418,28.280000686645508,28.24799919128418,3200.0,28.24799919128418
2019-04-15,28.280000686645508,28.260000228881836,28.260000228881836,28.280000686645508,1100.0,28.280000686645508
2019-04-16,28.139999389648438,27.899999618530273,28.139999389648438,28.079999923706055,7000.0,28.079999923706055
2019-04-17,28.079999923706055,28.079999923706055,28.079999923706055,28.079999923706055,0.0,28.079999923706055
2019-04-18,28.079999923706055,28.079999923706055,28.079999923706055,28.079999923706055,0.0,28.079999923706055
2019-04-22,28.079999923706055,28.079999923706055,28.079999923706055,28.079999923706055,800.0,28.079999923706055
2019-04-23,27.70400047302246,27.70400047302246,27.70400047302246,27.70400047302246,400.0,27.70400047302246
2019-04-24,28.059999465942383,28.059999465942383,28.059999465942383,28.059999465942383,300.0,28.059999465942383
2019-04-25,28.059999465942383,28.059999465942383,28.059999465942383,28.059999465942383,0.0,28.059999465942383
2019-04-26,28.059999465942383,28.059999465942383,28.059999465942383,28.059999465942383,100.0,28.059999465942383
2019-04-29,28.059999465942383,28.059999465942383,28.059999465942383,28.059999465942383,0.0,28.059999465942383
2019-04-30,27.969999313354492,27.969999313354492,27.969999313354492,27.969999313354492,200.0,27.969999313354492
2019-05-01,28.059999465942383,28.059999465942383,28.059999465942383,28.059999465942383,400.0,28.059999465942383
2019-05-02,28.059999465942383,28.059999465942383,28.059999465942383,28.059999465942383,0.0,28.059999465942383
2019-05-03,28.059999465942383,28.059999465942383,28.059999465942383,28.059999465942383,0.0,28.059999465942383
2019-05-06,28.100000381469727,28.100000381469727,28.100000381469727,28.100000381469727,100.0,28.100000381469727
2019-05-07,27.469999313354492,27.450000762939453,27.469999313354492,27.450000762939453,800.0,27.450000762939453
2019-05-08,27.65999984741211,27.65999984741211,27.65999984741211,27.65999984741211,100.0,27.65999984741211
2019-05-09,27.65999984741211,27.65999984741211,27.65999984741211,27.65999984741211,0.0,27.65999984741211
2019-05-10,27.65999984741211,27.65999984741211,27.65999984741211,27.65999984741211,0.0,27.65999984741211
2019-05-13,27.211000442504883,27.200000762939453,27.200000762939453,27.211000442504883,400.0,27.211000442504883
2019-05-14,27.489999771118164,24.540000915527344,27.489999771118164,25.059999465942383,4300.0,25.059999465942383
2019-05-15,27.610000610351562,27.25,27.25,27.520000457763672,1600.0,27.520000457763672
2019-05-16,27.940000534057617,27.75,27.899999618530273,27.75,2300.0,27.75
2019-05-17,27.75,27.75,27.75,27.75,0.0,27.75
2019-05-20,27.75,27.75,27.75,27.75,0.0,27.75
2019-05-21,27.81999969482422,27.81999969482422,27.81999969482422,27.81999969482422,200.0,27.81999969482422
2019-05-22,27.81999969482422,27.81999969482422,27.81999969482422,27.81999969482422,0.0,27.81999969482422
2019-05-23,27.81999969482422,27.81999969482422,27.81999969482422,27.81999969482422,0.0,27.81999969482422
2019-05-24,27.570999145507812,27.43000030517578,27.570999145507812,27.43000030517578,600.0,27.43000030517578
