Date,High,Low,Open,Close,Volume,Adj Close
2017-11-02,7.710000038146973,7.539999961853027,7.699999809265137,7.579999923706055,16300.0,7.579999923706055
2017-11-03,7.650000095367432,7.5,7.550000190734863,7.570000171661377,23100.0,7.570000171661377
2017-11-06,7.699999809265137,7.389999866485596,7.559999942779541,7.679999828338623,22200.0,7.679999828338623
2018-05-24,9.649999618530273,9.359999656677246,9.510000228881836,9.640000343322754,5600.0,9.640000343322754
2018-05-25,9.729999542236328,9.579999923706055,9.729999542236328,9.6899995803833,700.0,9.6899995803833
2018-05-29,9.720000267028809,9.359999656677246,9.510000228881836,9.479999542236328,8200.0,9.479999542236328
2018-05-30,9.670000076293945,9.380000114440918,9.619999885559082,9.380000114440918,9100.0,9.380000114440918
2018-05-31,9.609999656677246,9.350000381469727,9.449999809265137,9.609999656677246,8100.0,9.609999656677246
2018-06-01,9.989999771118164,9.609999656677246,9.699999809265137,9.960000038146973,14100.0,9.960000038146973
2018-06-04,10.229999542236328,9.729999542236328,9.979999542236328,9.8100004196167,3500.0,9.8100004196167
2018-06-05,10.15999984741211,9.6899995803833,9.9399995803833,10.100000381469727,26700.0,10.100000381469727
2018-06-06,10.300000190734863,9.800000190734863,10.119999885559082,9.8100004196167,28800.0,9.8100004196167
2018-06-07,10.5,9.819999694824219,9.819999694824219,10.119999885559082,15200.0,10.119999885559082
2018-06-08,10.380000114440918,10.140000343322754,10.199999809265137,10.140000343322754,5200.0,10.140000343322754
2018-06-11,10.170000076293945,9.850000381469727,10.100000381469727,10.15999984741211,7900.0,10.15999984741211
2018-06-12,10.399999618530273,10.039999961853027,10.399999618530273,10.109999656677246,9800.0,10.109999656677246
2018-06-13,10.359999656677246,9.880000114440918,10.0,10.050000190734863,15400.0,10.050000190734863
2018-06-14,10.289999961853027,9.859999656677246,10.109999656677246,10.239999771118164,12300.0,10.239999771118164
2018-06-15,10.329999923706055,10.210000038146973,10.25,10.329999923706055,11100.0,10.329999923706055
2018-06-18,10.300000190734863,9.930000305175781,10.300000190734863,10.270000457763672,10200.0,10.270000457763672
2018-06-19,10.270000457763672,9.890000343322754,10.149999618530273,10.010000228881836,6700.0,10.010000228881836
2018-06-20,10.279999732971191,9.989999771118164,9.989999771118164,10.199999809265137,4200.0,10.199999809265137
2018-06-21,10.1899995803833,10.079999923706055,10.1899995803833,10.109999656677246,1600.0,10.109999656677246
2018-06-22,10.279999732971191,10.079999923706055,10.180000305175781,10.109999656677246,11200.0,10.109999656677246
2018-06-25,10.270000457763672,10.029999732971191,10.029999732971191,10.239999771118164,2900.0,10.239999771118164
2018-06-26,10.279999732971191,10.199999809265137,10.210000038146973,10.279999732971191,2400.0,10.279999732971191
2018-06-27,10.279999732971191,10.039999961853027,10.130000114440918,10.270000457763672,7900.0,10.270000457763672
2018-06-28,10.279999732971191,10.09000015258789,10.1899995803833,10.25,8600.0,10.25
2018-06-29,10.600000381469727,10.149999618530273,10.210000038146973,10.550000190734863,38600.0,10.550000190734863
2018-07-02,10.9399995803833,10.399999618530273,10.399999618530273,10.920000076293945,27600.0,10.920000076293945
2018-07-03,11.199999809265137,10.800000190734863,10.960000038146973,11.140000343322754,25700.0,11.140000343322754
2018-07-05,12.25,11.130000114440918,11.199999809265137,12.119999885559082,116900.0,12.119999885559082
2018-07-06,12.199999809265137,11.890000343322754,12.170000076293945,11.890000343322754,36100.0,11.890000343322754
2018-07-09,12.140000343322754,11.380000114440918,11.890000343322754,11.75,91700.0,11.75
2018-07-10,11.789999961853027,11.539999961853027,11.600000381469727,11.619999885559082,9700.0,11.619999885559082
2018-07-11,11.619999885559082,11.140000343322754,11.619999885559082,11.270000457763672,23500.0,11.270000457763672
2018-07-12,11.800000190734863,11.140000343322754,11.329999923706055,11.710000038146973,16100.0,11.710000038146973
2018-07-13,12.0,11.569999694824219,11.569999694824219,11.59000015258789,17100.0,11.59000015258789
2018-07-16,11.970000267028809,11.59000015258789,11.670000076293945,11.680000305175781,19200.0,11.680000305175781
2018-07-17,11.960000038146973,11.510000228881836,11.6899995803833,11.579999923706055,16600.0,11.579999923706055
2018-07-18,11.789999961853027,11.270000457763672,11.569999694824219,11.789999961853027,15800.0,11.789999961853027
2018-07-19,11.619999885559082,11.119999885559082,11.619999885559082,11.119999885559082,8600.0,11.119999885559082
2018-07-20,11.359999656677246,10.109999656677246,11.180000305175781,10.300000190734863,48900.0,10.300000190734863
2018-07-23,10.779999732971191,10.0,10.300000190734863,10.779999732971191,34800.0,10.779999732971191
2018-07-24,10.890000343322754,10.550000190734863,10.739999771118164,10.65999984741211,21600.0,10.65999984741211
2018-07-25,10.960000038146973,10.600000381469727,10.729999542236328,10.960000038146973,11300.0,10.960000038146973
2018-07-26,10.9399995803833,10.699999809265137,10.760000228881836,10.880000114440918,12700.0,10.880000114440918
2018-07-27,10.90999984741211,10.850000381469727,10.850000381469727,10.850000381469727,14600.0,10.850000381469727
2018-07-30,11.079999923706055,10.550000190734863,10.850000381469727,10.890000343322754,59700.0,10.890000343322754
2018-07-31,11.079999923706055,10.15999984741211,10.890000343322754,10.15999984741211,14300.0,10.15999984741211
2018-08-01,10.539999961853027,9.90999984741211,10.100000381469727,9.90999984741211,5500.0,9.90999984741211
2018-08-02,10.229999542236328,9.420000076293945,9.920000076293945,9.920000076293945,27200.0,9.920000076293945
2018-08-03,10.039999961853027,9.539999961853027,9.930000305175781,9.859999656677246,28500.0,9.859999656677246
2018-08-06,10.779999732971191,9.8100004196167,9.859999656677246,9.930000305175781,18700.0,9.930000305175781
2018-08-07,10.609999656677246,9.960000038146973,10.279999732971191,10.399999618530273,8900.0,10.399999618530273
2018-08-08,10.329999923706055,9.729999542236328,10.329999923706055,10.039999961853027,8700.0,10.039999961853027
2018-08-09,10.0600004196167,8.680000305175781,10.0,9.960000038146973,30400.0,9.960000038146973
2018-08-10,10.210000038146973,9.729999542236328,9.729999542236328,9.960000038146973,9000.0,9.960000038146973
2018-08-13,10.229999542236328,9.949999809265137,9.949999809265137,10.229999542236328,4600.0,10.229999542236328
2018-08-14,10.029999732971191,9.930000305175781,9.960000038146973,10.0,5700.0,10.0
2018-08-15,10.109999656677246,10.0,10.0,10.0,3200.0,10.0
2018-08-16,10.119999885559082,9.569999694824219,10.020000457763672,10.050000190734863,5800.0,10.050000190734863
2018-08-17,9.949999809265137,9.710000038146973,9.859999656677246,9.710000038146973,2000.0,9.710000038146973
2018-08-20,10.079999923706055,9.649999618530273,9.65999984741211,10.0,11800.0,10.0
2018-08-21,10.300000190734863,9.819999694824219,9.859999656677246,10.300000190734863,2900.0,10.300000190734863
2018-08-22,10.479999542236328,9.850000381469727,10.479999542236328,10.279999732971191,1500.0,10.279999732971191
2018-08-23,10.34000015258789,10.0,10.34000015258789,10.180000305175781,6900.0,10.180000305175781
2018-08-24,10.100000381469727,9.850000381469727,9.890000343322754,10.050000190734863,7600.0,10.050000190734863
2018-08-27,10.279999732971191,10.100000381469727,10.149999618530273,10.149999618530273,4700.0,10.149999618530273
2018-08-28,10.289999961853027,10.069999694824219,10.149999618530273,10.289999961853027,15100.0,10.289999961853027
2018-08-29,11.25,10.350000381469727,10.359999656677246,11.25,42200.0,11.25
2018-08-30,11.25,10.0,11.25,10.529999732971191,33500.0,10.529999732971191
2018-08-31,11.079999923706055,10.800000190734863,10.800000190734863,10.819999694824219,28300.0,10.819999694824219
2018-09-04,10.8100004196167,10.800000190734863,10.800000190734863,10.8100004196167,43000.0,10.8100004196167
2018-09-05,10.819999694824219,10.800000190734863,10.8100004196167,10.800000190734863,24400.0,10.800000190734863
2018-09-06,10.989999771118164,10.800000190734863,10.8100004196167,10.800000190734863,4900.0,10.800000190734863
2018-09-07,10.970000267028809,10.800000190734863,10.800000190734863,10.9399995803833,2700.0,10.9399995803833
2018-09-10,10.989999771118164,10.25,10.989999771118164,10.40999984741211,10100.0,10.40999984741211
2018-09-11,10.930000305175781,10.800000190734863,10.800000190734863,10.850000381469727,19500.0,10.850000381469727
2018-09-12,10.890000343322754,10.800000190734863,10.819999694824219,10.800000190734863,33300.0,10.800000190734863
2018-09-13,10.949999809265137,10.800000190734863,10.930000305175781,10.949999809265137,3600.0,10.949999809265137
2018-09-14,10.880000114440918,10.800000190734863,10.850000381469727,10.800000190734863,4600.0,10.800000190734863
2018-09-17,10.850000381469727,10.800000190734863,10.800000190734863,10.800000190734863,3200.0,10.800000190734863
2018-09-18,10.84000015258789,10.359999656677246,10.800000190734863,10.369999885559082,13100.0,10.369999885559082
2018-09-19,10.460000038146973,10.130000114440918,10.4399995803833,10.180000305175781,7200.0,10.180000305175781
2018-09-20,10.680000305175781,8.819999694824219,10.180000305175781,8.949999809265137,46700.0,8.949999809265137
2018-09-21,9.789999961853027,9.140000343322754,9.25,9.789999961853027,39100.0,9.789999961853027
2018-09-24,10.0,9.640000343322754,9.850000381469727,9.649999618530273,5700.0,9.649999618530273
2018-09-25,9.699999809265137,9.600000381469727,9.649999618530273,9.649999618530273,8700.0,9.649999618530273
2018-09-26,9.850000381469727,9.649999618530273,9.770000457763672,9.729999542236328,3000.0,9.729999542236328
2018-09-27,9.829999923706055,9.710000038146973,9.710000038146973,9.819999694824219,2400.0,9.819999694824219
2018-09-28,9.850000381469727,9.75,9.829999923706055,9.75,900.0,9.75
2018-10-01,9.710000038146973,9.359999656677246,9.710000038146973,9.550000190734863,9600.0,9.550000190734863
2018-10-02,9.670000076293945,9.229999542236328,9.460000038146973,9.670000076293945,9800.0,9.670000076293945
2018-10-03,9.649999618530273,9.180000305175781,9.40999984741211,9.649999618530273,30700.0,9.649999618530273
2018-10-04,9.710000038146973,9.399999618530273,9.710000038146973,9.399999618530273,2100.0,9.399999618530273
2018-10-05,9.649999618530273,9.25,9.390000343322754,9.430000305175781,180000.0,9.430000305175781
2018-10-08,9.90999984741211,9.25,9.449999809265137,9.529999732971191,12900.0,9.529999732971191
2018-10-09,9.859999656677246,9.270000457763672,9.520000457763672,9.270000457763672,73000.0,9.270000457763672
2018-10-10,9.539999961853027,9.0,9.270000457763672,9.050000190734863,23900.0,9.050000190734863
2018-10-11,9.609999656677246,9.069999694824219,9.069999694824219,9.399999618530273,1000.0,9.399999618530273
2018-10-12,9.40999984741211,9.069999694824219,9.40999984741211,9.15999984741211,2200.0,9.15999984741211
2018-10-15,9.289999961853027,9.0,9.25,9.289999961853027,7500.0,9.289999961853027
2018-10-16,9.270000457763672,9.229999542236328,9.229999542236328,9.270000457763672,1200.0,9.270000457763672
2018-10-17,9.300000190734863,9.029999732971191,9.300000190734863,9.029999732971191,1500.0,9.029999732971191
2018-10-18,9.300000190734863,9.029999732971191,9.119999885559082,9.0600004196167,1400.0,9.0600004196167
2018-10-19,9.25,9.100000381469727,9.170000076293945,9.140000343322754,12500.0,9.140000343322754
2018-10-22,9.15999984741211,8.489999771118164,9.079999923706055,8.729999542236328,26000.0,8.729999542236328
2018-10-23,8.800000190734863,8.5,8.550000190734863,8.800000190734863,2500.0,8.800000190734863
2018-10-24,9.140000343322754,8.100000381469727,8.84000015258789,8.149999618530273,28500.0,8.149999618530273
2018-10-25,8.800000190734863,8.100000381469727,8.220000267028809,8.109999656677246,11200.0,8.109999656677246
2018-10-26,8.100000381469727,7.900000095367432,8.050000190734863,7.900000095367432,7700.0,7.900000095367432
2018-10-29,8.729999542236328,7.929999828338623,8.069999694824219,8.350000381469727,5400.0,8.350000381469727
2018-10-30,8.699999809265137,7.960000038146973,8.5,8.25,6400.0,8.25
2018-10-31,8.550000190734863,7.849999904632568,8.399999618530273,7.849999904632568,20100.0,7.849999904632568
2018-11-01,8.300000190734863,7.940000057220459,7.940000057220459,8.25,7600.0,8.25
2018-11-02,8.449999809265137,7.940000057220459,8.449999809265137,8.109999656677246,17600.0,8.109999656677246
2018-11-05,8.319999694824219,7.610000133514404,8.0,8.0,32000.0,8.0
2018-11-06,8.15999984741211,7.579999923706055,7.960000038146973,7.809999942779541,11100.0,7.809999942779541
2018-11-07,8.5600004196167,7.610000133514404,7.610000133514404,8.470000267028809,8100.0,8.470000267028809
2018-11-08,8.489999771118164,7.800000190734863,8.449999809265137,7.800000190734863,8400.0,7.800000190734863
2018-11-09,8.0600004196167,7.800000190734863,7.940000057220459,7.949999809265137,11900.0,7.949999809265137
2018-11-12,8.300000190734863,7.949999809265137,7.949999809265137,7.949999809265137,10400.0,7.949999809265137
2018-11-13,8.300000190734863,7.800000190734863,8.079999923706055,8.300000190734863,6400.0,8.300000190734863
2018-11-14,8.210000038146973,8.029999732971191,8.149999618530273,8.109999656677246,2200.0,8.109999656677246
2018-11-15,8.149999618530273,8.140000343322754,8.149999618530273,8.140000343322754,700.0,8.140000343322754
2018-11-16,8.1899995803833,8.050000190734863,8.1899995803833,8.050000190734863,1200.0,8.050000190734863
2018-11-19,8.1899995803833,7.690000057220459,8.1899995803833,7.690000057220459,3200.0,7.690000057220459
2018-11-20,7.699999809265137,7.699999809265137,7.699999809265137,7.699999809265137,400.0,7.699999809265137
2018-11-21,8.260000228881836,7.650000095367432,7.699999809265137,8.109999656677246,16700.0,8.109999656677246
2018-11-23,8.119999885559082,7.900000095367432,8.0,7.900000095367432,1400.0,7.900000095367432
2018-11-26,8.119999885559082,7.710000038146973,7.889999866485596,7.849999904632568,2300.0,7.849999904632568
2018-11-27,7.929999828338623,7.699999809265137,7.929999828338623,7.699999809265137,1900.0,7.699999809265137
2018-11-28,7.960000038146973,7.699999809265137,7.900000095367432,7.960000038146973,3200.0,7.960000038146973
2018-11-29,7.989999771118164,7.71999979019165,7.71999979019165,7.96999979019165,1800.0,7.96999979019165
2018-11-30,7.949999809265137,7.730000019073486,7.860000133514404,7.800000190734863,9200.0,7.800000190734863
2018-12-03,7.909999847412109,7.75,7.800000190734863,7.75,4100.0,7.75
2018-12-04,7.809999942779541,7.050000190734863,7.75,7.599999904632568,22100.0,7.599999904632568
2018-12-06,7.789999961853027,7.429999828338623,7.519999980926514,7.429999828338623,6700.0,7.429999828338623
2018-12-07,7.5,7.199999809265137,7.5,7.420000076293945,15700.0,7.420000076293945
2018-12-10,7.320000171661377,7.099999904632568,7.25,7.300000190734863,4700.0,7.300000190734863
2018-12-11,7.260000228881836,7.099999904632568,7.25,7.239999771118164,7300.0,7.239999771118164
2018-12-12,7.210000038146973,6.75,7.210000038146973,7.119999885559082,39900.0,7.119999885559082
2018-12-13,7.199999809265137,7.090000152587891,7.119999885559082,7.199999809265137,8800.0,7.199999809265137
2018-12-14,7.25,7.0,7.0,7.150000095367432,13500.0,7.150000095367432
2018-12-17,7.150000095367432,7.099999904632568,7.099999904632568,7.139999866485596,25200.0,7.139999866485596
2018-12-18,7.179999828338623,7.050000190734863,7.150000095367432,7.059999942779541,7000.0,7.059999942779541
2018-12-19,7.090000152587891,6.929999828338623,7.050000190734863,7.019999980926514,3900.0,7.019999980926514
2018-12-20,7.389999866485596,7.0,7.139999866485596,7.210000038146973,4900.0,7.210000038146973
2018-12-21,7.449999809265137,7.199999809265137,7.449999809265137,7.21999979019165,4200.0,7.21999979019165
2018-12-24,7.190000057220459,7.190000057220459,7.190000057220459,7.190000057220459,200.0,7.190000057220459
2018-12-26,7.489999771118164,7.199999809265137,7.199999809265137,7.199999809265137,6600.0,7.199999809265137
2018-12-27,7.489999771118164,7.320000171661377,7.320000171661377,7.320000171661377,4300.0,7.320000171661377
2018-12-28,7.909999847412109,7.320000171661377,7.400000095367432,7.349999904632568,17700.0,7.349999904632568
2018-12-31,8.25,7.590000152587891,7.989999771118164,8.149999618530273,3800.0,8.149999618530273
2019-01-02,8.279999732971191,7.179999828338623,7.440000057220459,8.279999732971191,9900.0,8.279999732971191
2019-01-03,8.100000381469727,8.100000381469727,8.100000381469727,8.100000381469727,300.0,8.100000381469727
2019-01-04,8.770000457763672,7.949999809265137,8.109999656677246,8.09000015258789,1900.0,8.09000015258789
2019-01-07,8.880000114440918,8.0,8.880000114440918,8.270000457763672,2800.0,8.270000457763672
2019-01-08,8.25,8.25,8.25,8.25,700.0,8.25
2019-01-09,8.40999984741211,8.260000228881836,8.260000228881836,8.40999984741211,1400.0,8.40999984741211
2019-01-10,8.449999809265137,8.449999809265137,8.449999809265137,8.449999809265137,200.0,8.449999809265137
2019-01-11,8.449999809265137,8.449999809265137,8.449999809265137,8.449999809265137,1000.0,8.449999809265137
2019-01-14,8.609999656677246,8.25,8.449999809265137,8.449999809265137,3200.0,8.449999809265137
2019-01-15,8.449999809265137,8.359999656677246,8.449999809265137,8.4399995803833,2500.0,8.4399995803833
2019-01-16,8.880000114440918,8.25,8.449999809265137,8.399999618530273,7400.0,8.399999618530273
2019-01-17,8.84000015258789,8.300000190734863,8.449999809265137,8.449999809265137,7800.0,8.449999809265137
2019-01-18,8.850000381469727,8.520000457763672,8.710000038146973,8.529999732971191,2400.0,8.529999732971191
2019-01-22,8.6899995803833,8.350000381469727,8.550000190734863,8.449999809265137,7900.0,8.449999809265137
2019-01-23,8.779999732971191,8.510000228881836,8.510000228881836,8.779999732971191,600.0,8.779999732971191
2019-01-24,8.699999809265137,8.329999923706055,8.329999923706055,8.449999809265137,4600.0,8.449999809265137
2019-01-25,8.819999694824219,7.639999866485596,8.6899995803833,8.0,4800.0,8.0
2019-01-28,8.350000381469727,7.599999904632568,8.010000228881836,8.09000015258789,23600.0,8.09000015258789
2019-01-29,8.100000381469727,7.809999942779541,8.100000381469727,7.920000076293945,1500.0,7.920000076293945
2019-01-30,8.130000114440918,8.130000114440918,8.130000114440918,8.130000114440918,400.0,8.130000114440918
2019-01-31,7.900000095367432,7.699999809265137,7.900000095367432,7.699999809265137,500.0,7.699999809265137
2019-02-01,7.869999885559082,7.699999809265137,7.699999809265137,7.78000020980835,2200.0,7.78000020980835
2019-02-04,7.739999771118164,7.510000228881836,7.699999809265137,7.71999979019165,13300.0,7.71999979019165
2019-02-05,7.75,7.199999809265137,7.75,7.599999904632568,12400.0,7.599999904632568
2019-02-06,8.050000190734863,7.53000020980835,7.599999904632568,7.53000020980835,1900.0,7.53000020980835
2019-02-07,7.820000171661377,7.5,7.5,7.599999904632568,900.0,7.599999904632568
2019-02-08,8.130000114440918,7.739999771118164,8.050000190734863,7.739999771118164,3500.0,7.739999771118164
2019-02-11,8.130000114440918,7.360000133514404,7.710000038146973,7.619999885559082,11400.0,7.619999885559082
2019-02-12,7.989999771118164,7.489999771118164,7.989999771118164,7.619999885559082,8600.0,7.619999885559082
2019-02-13,7.889999866485596,7.599999904632568,7.599999904632568,7.889999866485596,11500.0,7.889999866485596
2019-02-14,7.900000095367432,7.75,7.78000020980835,7.75,3000.0,7.75
2019-02-15,7.670000076293945,7.369999885559082,7.599999904632568,7.610000133514404,10100.0,7.610000133514404
2019-02-19,7.670000076293945,7.5,7.599999904632568,7.559999942779541,55900.0,7.559999942779541
2019-02-20,7.849999904632568,7.559999942779541,7.75,7.559999942779541,13000.0,7.559999942779541
2019-02-21,7.869999885559082,7.519999980926514,7.690000057220459,7.519999980926514,14200.0,7.519999980926514
2019-02-22,7.619999885559082,7.519999980926514,7.570000171661377,7.619999885559082,1200.0,7.619999885559082
2019-02-25,7.599999904632568,7.349999904632568,7.550000190734863,7.5,16000.0,7.5
2019-02-26,7.449999809265137,7.050000190734863,7.449999809265137,7.400000095367432,29500.0,7.400000095367432
2019-02-27,7.400000095367432,7.269999980926514,7.269999980926514,7.320000171661377,2100.0,7.320000171661377
2019-02-28,7.449999809265137,7.230000019073486,7.230000019073486,7.400000095367432,4600.0,7.400000095367432
2019-03-01,7.960000038146973,7.570000171661377,7.579999923706055,7.829999923706055,3800.0,7.829999923706055
2019-03-04,7.900000095367432,7.75,7.829999923706055,7.840000152587891,2700.0,7.840000152587891
2019-03-05,7.760000228881836,7.690000057220459,7.71999979019165,7.690000057220459,2600.0,7.690000057220459
2019-03-06,7.760000228881836,7.5,7.690000057220459,7.610000133514404,19200.0,7.610000133514404
2019-03-07,7.800000190734863,7.599999904632568,7.800000190734863,7.670000076293945,1500.0,7.670000076293945
2019-03-08,7.739999771118164,7.630000114440918,7.630000114440918,7.71999979019165,2700.0,7.71999979019165
2019-03-11,7.699999809265137,7.599999904632568,7.599999904632568,7.699999809265137,8700.0,7.699999809265137
2019-03-12,7.769999980926514,7.599999904632568,7.730000019073486,7.659999847412109,10200.0,7.659999847412109
2019-03-13,7.760000228881836,7.650000095367432,7.659999847412109,7.710000038146973,22300.0,7.710000038146973
2019-03-14,7.699999809265137,7.630000114440918,7.699999809265137,7.650000095367432,40400.0,7.650000095367432
2019-03-15,7.769999980926514,7.650000095367432,7.769999980926514,7.670000076293945,17300.0,7.670000076293945
2019-03-18,7.670000076293945,7.610000133514404,7.619999885559082,7.650000095367432,11100.0,7.650000095367432
2019-03-19,7.670000076293945,7.650000095367432,7.670000076293945,7.650000095367432,5500.0,7.650000095367432
2019-03-20,7.670000076293945,7.519999980926514,7.650000095367432,7.650000095367432,4800.0,7.650000095367432
2019-03-21,7.820000171661377,7.400000095367432,7.659999847412109,7.400000095367432,6900.0,7.400000095367432
2019-03-22,7.639999866485596,7.449999809265137,7.639999866485596,7.579999923706055,1000.0,7.579999923706055
2019-03-25,7.519999980926514,7.179999828338623,7.25,7.519999980926514,20700.0,7.519999980926514
2019-03-26,7.710000038146973,7.170000076293945,7.510000228881836,7.489999771118164,16500.0,7.489999771118164
2019-03-27,7.559999942779541,7.300000190734863,7.309999942779541,7.539999961853027,12100.0,7.539999961853027
2019-03-28,7.5,7.300000190734863,7.5,7.46999979019165,13200.0,7.46999979019165
2019-03-29,7.539999961853027,7.46999979019165,7.510000228881836,7.5,9900.0,7.5
2019-04-01,7.75,7.639999866485596,7.639999866485596,7.75,5300.0,7.75
2019-04-02,7.75,7.570000171661377,7.590000152587891,7.75,2700.0,7.75
2019-04-03,7.849999904632568,7.75,7.75,7.760000228881836,4600.0,7.760000228881836
2019-04-04,7.800000190734863,7.679999828338623,7.679999828338623,7.800000190734863,1900.0,7.800000190734863
2019-04-05,7.739999771118164,7.599999904632568,7.730000019073486,7.599999904632568,11900.0,7.599999904632568
2019-04-08,8.010000228881836,7.619999885559082,7.699999809265137,8.010000228881836,2400.0,8.010000228881836
2019-04-09,8.050000190734863,7.699999809265137,7.900000095367432,7.699999809265137,10400.0,7.699999809265137
2019-04-10,7.880000114440918,7.699999809265137,7.800000190734863,7.699999809265137,4900.0,7.699999809265137
2019-04-11,7.800000190734863,7.699999809265137,7.800000190734863,7.699999809265137,2500.0,7.699999809265137
2019-04-12,7.78000020980835,7.610000133514404,7.760000228881836,7.650000095367432,13400.0,7.650000095367432
2019-04-15,7.789999961853027,7.539999961853027,7.650000095367432,7.619999885559082,16800.0,7.619999885559082
2019-04-16,7.630000114440918,7.260000228881836,7.590000152587891,7.510000228881836,201900.0,7.510000228881836
2019-04-17,7.659999847412109,7.449999809265137,7.550000190734863,7.46999979019165,101900.0,7.46999979019165
2019-04-18,7.570000171661377,7.380000114440918,7.5,7.400000095367432,11400.0,7.400000095367432
2019-04-22,7.489999771118164,7.199999809265137,7.449999809265137,7.46999979019165,40100.0,7.46999979019165
2019-04-23,8.140000343322754,7.349999904632568,7.489999771118164,7.630000114440918,24000.0,7.630000114440918
2019-04-24,7.71999979019165,7.440000057220459,7.650000095367432,7.440000057220459,2700.0,7.440000057220459
2019-04-25,7.590000152587891,7.320000171661377,7.519999980926514,7.570000171661377,8400.0,7.570000171661377
2019-04-26,7.570000171661377,7.340000152587891,7.46999979019165,7.349999904632568,14800.0,7.349999904632568
2019-04-29,7.5,7.349999904632568,7.5,7.360000133514404,139100.0,7.360000133514404
2019-04-30,7.349999904632568,7.159999847412109,7.320000171661377,7.28000020980835,6300.0,7.28000020980835
2019-05-01,7.449999809265137,7.21999979019165,7.449999809265137,7.400000095367432,9200.0,7.400000095367432
2019-05-02,7.5,7.159999847412109,7.5,7.360000133514404,4500.0,7.360000133514404
2019-05-03,7.420000076293945,7.059999942779541,7.289999961853027,7.349999904632568,19700.0,7.349999904632568
2019-05-06,7.449999809265137,7.150000095367432,7.21999979019165,7.309999942779541,6500.0,7.309999942779541
2019-05-07,7.429999828338623,7.320000171661377,7.320000171661377,7.389999866485596,4500.0,7.389999866485596
2019-05-08,7.380000114440918,7.369999885559082,7.380000114440918,7.369999885559082,400.0,7.369999885559082
2019-05-09,7.340000152587891,7.059999942779541,7.300000190734863,7.070000171661377,18400.0,7.070000171661377
2019-05-10,6.489999771118164,5.159999847412109,6.489999771118164,5.340000152587891,52600.0,5.340000152587891
2019-05-13,5.460000038146973,5.059999942779541,5.460000038146973,5.190000057220459,10500.0,5.190000057220459
2019-05-14,5.159999847412109,4.860000133514404,5.139999866485596,4.989999771118164,29900.0,4.989999771118164
2019-05-15,5.039999961853027,4.769999980926514,5.0,4.900000095367432,99400.0,4.900000095367432
2019-05-16,4.900000095367432,4.769999980926514,4.849999904632568,4.860000133514404,37600.0,4.860000133514404
2019-05-17,4.800000190734863,4.389999866485596,4.800000190734863,4.650000095367432,106500.0,4.650000095367432
2019-05-20,4.789999961853027,4.579999923706055,4.650000095367432,4.590000152587891,21300.0,4.590000152587891
2019-05-21,4.760000228881836,4.590000152587891,4.619999885559082,4.670000076293945,12000.0,4.670000076293945
2019-05-22,4.610000133514404,4.480000019073486,4.599999904632568,4.53000020980835,23300.0,4.53000020980835
2019-05-23,4.710000038146973,4.480000019073486,4.480000019073486,4.590000152587891,1600.0,4.590000152587891
2019-05-24,4.860000133514404,4.590000152587891,4.590000152587891,4.860000133514404,2100.0,4.860000133514404
