Date,High,Low,Open,Close,Volume,Adj Close
2015-01-02,53.244998931884766,52.928001403808594,53.244998931884766,52.928001403808594,900.0,48.359771728515625
2015-01-05,52.18000030517578,51.459999084472656,52.18000030517578,51.459999084472656,700.0,47.01847457885742
2015-01-06,51.369998931884766,51.369998931884766,51.369998931884766,51.369998931884766,400.0,46.936241149902344
2015-01-07,51.619998931884766,51.42599868774414,51.540000915527344,51.599998474121094,1000.0,47.14638900756836
2015-01-08,51.599998474121094,51.599998474121094,51.599998474121094,51.599998474121094,0.0,47.14638900756836
2015-01-09,52.29999923706055,52.29999923706055,52.29999923706055,52.29999923706055,0.0,47.78597640991211
2015-01-12,52.367000579833984,52.310001373291016,52.367000579833984,52.310001373291016,400.0,47.79511260986328
2015-01-13,52.310001373291016,52.310001373291016,52.310001373291016,52.310001373291016,0.0,47.79511260986328
2015-01-14,52.70000076293945,52.400001525878906,52.619998931884766,52.400001525878906,14500.0,47.877342224121094
2015-01-15,52.880001068115234,52.5099983215332,52.880001068115234,52.5099983215332,400.0,47.97785186767578
2015-01-16,53.470001220703125,52.95000076293945,52.95000076293945,53.45000076293945,24000.0,48.83671188354492
2015-01-20,53.540000915527344,53.5,53.5,53.540000915527344,3100.0,48.9189567565918
2015-01-21,53.540000915527344,53.540000915527344,53.540000915527344,53.540000915527344,0.0,48.9189567565918
2015-01-22,53.849998474121094,53.849998474121094,53.849998474121094,53.849998474121094,0.0,49.20219039916992
2015-01-23,53.76900100708008,53.694000244140625,53.76900100708008,53.694000244140625,500.0,49.059654235839844
2015-01-26,54.470001220703125,54.470001220703125,54.470001220703125,54.470001220703125,200.0,49.76868438720703
2015-01-27,54.470001220703125,54.470001220703125,54.470001220703125,54.470001220703125,0.0,49.76868438720703
2015-01-28,54.819000244140625,54.0,54.819000244140625,54.0,300.0,49.3392448425293
2015-01-29,54.7239990234375,54.7239990234375,54.7239990234375,54.7239990234375,300.0,50.000755310058594
2015-01-30,54.25,54.25,54.25,54.25,400.0,49.56767272949219
2015-02-02,55.040000915527344,54.564998626708984,54.564998626708984,55.040000915527344,900.0,50.289485931396484
2015-02-03,55.81100082397461,55.81100082397461,55.81100082397461,55.81100082397461,300.0,50.99393844604492
2015-02-04,55.630001068115234,55.630001068115234,55.630001068115234,55.630001068115234,200.0,50.82856369018555
2015-02-05,55.75,55.619998931884766,55.619998931884766,55.74399948120117,1000.0,50.93272018432617
2015-02-06,55.0099983215332,54.900001525878906,55.0099983215332,55.0,2000.0,50.25293731689453
2015-02-09,54.20000076293945,53.90999984741211,54.20000076293945,53.90999984741211,500.0,49.257015228271484
2015-02-10,54.65399932861328,54.54899978637695,54.630001068115234,54.65399932861328,700.0,49.936798095703125
2015-02-11,54.56999969482422,54.56999969482422,54.56999969482422,54.56999969482422,800.0,49.86005401611328
2015-02-12,54.56999969482422,54.56999969482422,54.56999969482422,54.56999969482422,0.0,49.86005401611328
2015-02-13,56.060001373291016,55.952999114990234,55.9900016784668,56.040000915527344,3700.0,51.20317840576172
2015-02-17,55.81999969482422,55.52000045776367,55.68000030517578,55.81999969482422,1700.0,51.002166748046875
2015-02-18,55.88999938964844,55.63999938964844,55.7400016784668,55.88999938964844,800.0,51.06612014770508
2015-02-19,56.15999984741211,55.869998931884766,55.880001068115234,55.944000244140625,4200.0,51.11545944213867
2015-02-20,56.7400016784668,55.47999954223633,55.65999984741211,56.720001220703125,4900.0,51.824485778808594
2015-02-23,56.529998779296875,56.529998779296875,56.529998779296875,56.529998779296875,500.0,51.650882720947266
2015-02-24,56.849998474121094,56.47999954223633,56.599998474121094,56.849998474121094,4200.0,51.94326400756836
2015-02-25,57.099998474121094,56.89400100708008,56.89400100708008,57.099998474121094,400.0,52.17168045043945
2015-02-26,56.77399826049805,56.77399826049805,56.77399826049805,56.77399826049805,500.0,51.87382125854492
2015-02-27,57.189998626708984,56.762001037597656,56.790000915527344,57.189998626708984,900.0,52.25391387939453
2015-03-02,57.189998626708984,57.189998626708984,57.189998626708984,57.189998626708984,0.0,52.25391387939453
2015-03-03,56.77399826049805,56.70000076293945,56.709999084472656,56.77399826049805,2400.0,51.87382125854492
2015-03-04,56.0,56.0,56.0,56.0,200.0,51.166629791259766
2015-03-05,56.68000030517578,56.60900115966797,56.60900115966797,56.61000061035156,4000.0,51.72398376464844
2015-03-06,56.11000061035156,55.900001525878906,56.11000061035156,55.900001525878906,2800.0,51.075260162353516
2015-03-09,56.11000061035156,55.95000076293945,55.95000076293945,56.099998474121094,1400.0,51.257991790771484
2015-03-10,55.31999969482422,55.0,55.31999969482422,55.130001068115234,2700.0,50.3717155456543
2015-03-11,55.61199951171875,55.30099868774414,55.30099868774414,55.5,6000.0,50.709781646728516
2015-03-12,55.900001525878906,55.76499938964844,55.779998779296875,55.874000549316406,1100.0,51.05149841308594
2015-03-13,55.81999969482422,55.380001068115234,55.380001068115234,55.7599983215332,1300.0,50.94733810424805
2015-03-16,57.41999816894531,56.939998626708984,56.9900016784668,57.22100067138672,5900.0,52.28224563598633
2015-03-17,56.768001556396484,56.51599884033203,56.51599884033203,56.768001556396484,1400.0,51.86833953857422
2015-03-18,57.584999084472656,56.45000076293945,56.45000076293945,57.39400100708008,5400.0,52.44031524658203
2015-03-19,56.650001525878906,56.63600158691406,56.650001525878906,56.63600158691406,500.0,51.74773406982422
2015-03-20,58.45000076293945,57.90999984741211,58.209999084472656,58.130001068115234,2100.0,53.11278533935547
2015-03-23,58.099998474121094,58.0,58.0,58.06999969482422,500.0,53.05796432495117
2015-03-24,58.650001525878906,58.290000915527344,58.52000045776367,58.529998779296875,5300.0,53.4782600402832
2015-03-25,58.810001373291016,58.099998474121094,58.79999923706055,58.099998474121094,4500.0,53.08537292480469
2015-03-26,57.62900161743164,57.060001373291016,57.619998931884766,57.5989990234375,2500.0,52.62761306762695
2015-03-27,57.900001525878906,57.650001525878906,57.650001525878906,57.900001525878906,900.0,52.90263748168945
2015-03-30,58.433998107910156,58.409000396728516,58.409000396728516,58.433998107910156,1000.0,53.39054489135742
2015-03-31,57.310001373291016,57.22999954223633,57.29999923706055,57.22999954223633,900.0,52.290462493896484
2015-04-01,57.7400016784668,57.720001220703125,57.720001220703125,57.7400016784668,1300.0,52.756446838378906
2015-04-02,58.290000915527344,58.2599983215332,58.279998779296875,58.2599983215332,800.0,53.231563568115234
2015-04-06,59.33000183105469,58.709999084472656,58.939998626708984,58.970001220703125,1000.0,53.88028335571289
2015-04-07,58.96799850463867,58.94200134277344,58.94200134277344,58.96799850463867,1300.0,53.87845993041992
2015-04-08,58.97999954223633,58.279998779296875,58.97999954223633,58.400001525878906,2200.0,53.3594856262207
2015-04-09,58.32899856567383,58.22999954223633,58.25,58.290000915527344,2000.0,53.258975982666016
2015-04-10,58.93000030517578,58.79999923706055,58.86600112915039,58.93000030517578,4700.0,53.8437385559082
2015-04-13,58.678001403808594,58.290000915527344,58.65999984741211,58.290000915527344,4300.0,53.258975982666016
2015-04-14,58.70000076293945,58.64899826049805,58.64899826049805,58.70000076293945,3200.0,53.63359069824219
2015-04-15,58.93000030517578,58.5099983215332,58.93000030517578,58.70000076293945,700.0,53.63359069824219
2015-04-16,58.0,57.86000061035156,58.0,57.86000061035156,800.0,52.866092681884766
2015-04-17,56.88999938964844,56.650001525878906,56.88999938964844,56.667999267578125,4500.0,51.7769660949707
2015-04-20,57.67900085449219,57.319000244140625,57.439998626708984,57.409000396728516,2500.0,52.45401382446289
2015-04-21,57.970001220703125,57.8489990234375,57.970001220703125,57.8489990234375,900.0,52.85603713989258
2015-04-22,57.619998931884766,57.619998931884766,57.619998931884766,57.619998931884766,200.0,52.64680480957031
2015-04-23,57.349998474121094,56.672000885009766,56.70000076293945,57.349998474121094,3000.0,52.40010452270508
2015-04-24,57.63999938964844,57.2400016784668,57.2400016784668,57.63999938964844,1800.0,52.66508102416992
2015-04-27,58.619998931884766,58.20000076293945,58.20000076293945,58.44599914550781,2100.0,53.40150451660156
2015-04-28,57.97999954223633,57.97999954223633,57.97999954223633,57.97999954223633,300.0,52.975730895996094
2015-04-29,57.97999954223633,57.97999954223633,57.97999954223633,57.97999954223633,0.0,52.975730895996094
2015-04-30,57.599998474121094,57.290000915527344,57.599998474121094,57.290000915527344,300.0,52.34528732299805
2015-05-01,57.290000915527344,57.290000915527344,57.290000915527344,57.290000915527344,0.0,52.34528732299805
2015-05-04,58.119998931884766,58.04999923706055,58.119998931884766,58.058998107910156,1400.0,53.047908782958984
2015-05-05,57.650001525878906,56.9900016784668,57.650001525878906,56.9900016784668,300.0,52.0711784362793
2015-05-06,57.479000091552734,57.41999816894531,57.41999816894531,57.479000091552734,1100.0,52.517974853515625
2015-05-07,57.58000183105469,57.18000030517578,57.18000030517578,57.42900085449219,500.0,52.472286224365234
2015-05-08,58.7599983215332,58.5,58.5,58.75,2700.0,53.67927169799805
2015-05-11,58.06800079345703,58.06800079345703,58.06800079345703,58.06800079345703,200.0,53.05613708496094
2015-05-12,57.66999816894531,57.66999816894531,57.66999816894531,57.66999816894531,300.0,52.69248962402344
2015-05-13,57.69499969482422,57.69499969482422,57.69499969482422,57.69499969482422,300.0,52.71533203125
2015-05-14,58.7400016784668,58.7400016784668,58.7400016784668,58.7400016784668,300.0,53.670143127441406
2015-05-15,58.689998626708984,58.689998626708984,58.689998626708984,58.689998626708984,200.0,53.62445068359375
2015-05-18,59.040000915527344,58.619998931884766,58.709999084472656,58.999000549316406,3500.0,53.90678024291992
2015-05-19,59.0,58.970001220703125,59.0,58.970001220703125,600.0,53.88028335571289
2015-05-20,58.970001220703125,58.970001220703125,58.970001220703125,58.970001220703125,0.0,53.88028335571289
2015-05-21,58.970001220703125,58.970001220703125,58.970001220703125,58.970001220703125,0.0,53.88028335571289
2015-05-22,58.35900115966797,58.2400016784668,58.35900115966797,58.2400016784668,1200.0,53.213287353515625
2015-05-26,56.97999954223633,56.54999923706055,56.97999954223633,56.54999923706055,1200.0,51.66915512084961
2015-05-27,57.388999938964844,56.9900016784668,56.9900016784668,57.388999938964844,1200.0,52.43574142456055
2015-05-28,57.319000244140625,57.099998474121094,57.099998474121094,57.319000244140625,700.0,52.37178421020508
2015-05-29,56.57899856567383,56.459999084472656,56.459999084472656,56.46900177001953,500.0,51.59514617919922
2015-06-01,56.349998474121094,56.119998931884766,56.316001892089844,56.29899978637695,2100.0,51.439815521240234
2015-06-02,56.80099868774414,56.79899978637695,56.79899978637695,56.80099868774414,400.0,51.89848709106445
2015-06-03,57.91899871826172,57.529998779296875,57.529998779296875,57.650001525878906,1400.0,52.67421340942383
2015-06-04,57.650001525878906,57.650001525878906,57.650001525878906,57.650001525878906,0.0,52.67421340942383
2015-06-05,56.15999984741211,55.849998474121094,56.15999984741211,55.91999816894531,2700.0,51.09352493286133
2015-06-08,55.90599822998047,55.77799987792969,55.900001525878906,55.90599822998047,2800.0,51.08073806762695
2015-06-09,55.58000183105469,55.58000183105469,55.58000183105469,55.58000183105469,600.0,50.78287887573242
2015-06-10,57.13999938964844,56.95800018310547,56.97999954223633,57.13999938964844,800.0,52.208229064941406
2015-06-11,57.18899917602539,57.18899917602539,57.18899917602539,57.18899917602539,500.0,52.25300598144531
2015-06-12,56.36199951171875,56.36199951171875,56.36199951171875,56.36199951171875,200.0,51.497379302978516
2015-06-15,55.66999816894531,55.66999816894531,55.66999816894531,55.66999816894531,400.0,50.8651123046875
2015-06-16,55.77000045776367,55.77000045776367,55.77000045776367,55.77000045776367,200.0,50.95647430419922
2015-06-17,55.5099983215332,55.02399826049805,55.45500183105469,55.5099983215332,1900.0,50.71891403198242
2015-06-18,57.45000076293945,56.36899948120117,56.36899948120117,56.694000244140625,6100.0,51.800724029541016
2015-06-19,56.694000244140625,56.694000244140625,56.694000244140625,56.694000244140625,0.0,52.84558868408203
2015-06-22,56.709999084472656,56.45399856567383,56.45399856567383,56.709999084472656,2600.0,52.860496520996094
2015-06-23,56.64899826049805,56.36000061035156,56.64899826049805,56.38999938964844,1100.0,52.56222152709961
2015-06-24,55.96099853515625,55.959999084472656,55.959999084472656,55.96099853515625,500.0,52.1623420715332
2015-06-25,56.13999938964844,56.04999923706055,56.13999938964844,56.04999923706055,1800.0,52.245296478271484
2015-06-26,56.0890007019043,55.97999954223633,56.0890007019043,56.029998779296875,900.0,52.22665786743164
2015-06-29,55.012001037597656,54.18000030517578,54.5,54.43000030517578,3700.0,50.735267639160156
2015-06-30,54.07899856567383,53.529998779296875,53.58000183105469,54.058998107910156,3100.0,50.38944625854492
2015-07-01,54.099998474121094,53.88999938964844,53.88999938964844,53.88999938964844,1900.0,50.2319221496582
2015-07-02,54.11899948120117,53.97999954223633,54.11899948120117,53.999000549316406,1100.0,50.333526611328125
2015-07-06,52.81999969482422,52.81999969482422,52.81999969482422,52.81999969482422,300.0,49.234554290771484
2015-07-07,53.22999954223633,51.72999954223633,51.86000061035156,53.22999954223633,5800.0,49.616722106933594
2015-07-08,52.61000061035156,52.31999969482422,52.31999969482422,52.61000061035156,900.0,49.03881072998047
2015-07-09,53.48699951171875,53.31100082397461,53.349998474121094,53.41999816894531,800.0,49.7938232421875
2015-07-10,55.45000076293945,55.45000076293945,55.45000076293945,55.45000076293945,1100.0,51.68602752685547
2015-07-13,55.619998931884766,55.619998931884766,55.619998931884766,55.619998931884766,300.0,51.84449005126953
2015-07-14,55.560001373291016,55.54999923706055,55.560001373291016,55.54999923706055,800.0,51.779239654541016
2015-07-15,55.49599838256836,55.40999984741211,55.49599838256836,55.40999984741211,400.0,51.64874267578125
2015-07-16,56.27000045776367,56.099998474121094,56.099998474121094,56.16999816894531,900.0,52.357154846191406
2015-07-17,55.75600051879883,55.619998931884766,55.62099838256836,55.75600051879883,1700.0,51.97126007080078
2015-07-20,56.029998779296875,55.95000076293945,56.029998779296875,55.95000076293945,900.0,52.15209197998047
2015-07-21,55.79999923706055,55.79999923706055,55.79999923706055,55.79999923706055,300.0,52.012271881103516
2015-07-22,55.369998931884766,55.369998931884766,55.369998931884766,55.369998931884766,500.0,51.61145782470703
2015-07-23,55.369998931884766,55.369998931884766,55.369998931884766,55.369998931884766,0.0,51.61145782470703
2015-07-24,55.18000030517578,54.95000076293945,55.18000030517578,55.0,6300.0,51.26657485961914
2015-07-27,54.47999954223633,54.34000015258789,54.340999603271484,54.47999954223633,800.0,50.78187561035156
2015-07-28,54.47999954223633,54.47999954223633,54.47999954223633,54.47999954223633,0.0,50.78187561035156
2015-07-29,54.720001220703125,54.56999969482422,54.64500045776367,54.619998931884766,1600.0,50.91237258911133
2015-07-30,54.37900161743164,54.0,54.04999923706055,54.37900161743164,2000.0,50.6877326965332
2015-07-31,54.790000915527344,54.70000076293945,54.709999084472656,54.790000915527344,2800.0,51.070831298828125
2015-08-03,55.45000076293945,55.040000915527344,55.439998626708984,55.11899948120117,4500.0,51.377498626708984
2015-08-04,55.52000045776367,55.47999954223633,55.52000045776367,55.47999954223633,1100.0,51.713993072509766
2015-08-05,55.779998779296875,55.779998779296875,55.779998779296875,55.779998779296875,500.0,51.993629455566406
2015-08-06,55.79999923706055,55.77000045776367,55.77000045776367,55.79999923706055,500.0,52.012271881103516
2015-08-07,55.34000015258789,55.34000015258789,55.34000015258789,55.34000015258789,200.0,51.583499908447266
2015-08-10,56.27000045776367,56.18000030517578,56.27000045776367,56.18000030517578,1300.0,52.366477966308594
2015-08-11,55.130001068115234,55.130001068115234,55.130001068115234,55.130001068115234,600.0,51.38774871826172
2015-08-12,54.2400016784668,53.94900131225586,54.2400016784668,53.94900131225586,700.0,50.28691482543945
2015-08-13,54.28900146484375,54.28900146484375,54.28900146484375,54.28900146484375,200.0,50.60383987426758
2015-08-14,54.31999969482422,54.31999969482422,54.31999969482422,54.31999969482422,200.0,50.63273620605469
2015-08-17,53.7599983215332,53.709999084472656,53.709999084472656,53.7599983215332,1900.0,50.110748291015625
2015-08-18,53.59000015258789,53.31999969482422,53.59000015258789,53.388999938964844,1400.0,49.76493453979492
2015-08-19,52.599998474121094,52.45000076293945,52.599998474121094,52.5099983215332,1200.0,48.945594787597656
2015-08-20,52.38999938964844,51.5,52.38999938964844,51.5,1400.0,48.004154205322266
2015-08-21,51.619998931884766,50.380001068115234,51.619998931884766,50.512001037597656,3600.0,47.08322525024414
2015-08-24,51.02000045776367,48.65999984741211,50.0,50.31999969482422,8600.0,46.90425491333008
2015-08-25,51.59000015258789,50.72800064086914,51.59000015258789,50.77000045776367,2300.0,47.323707580566406
2015-08-26,51.28300094604492,51.28300094604492,51.28300094604492,51.28300094604492,700.0,47.801883697509766
2015-08-27,51.729000091552734,51.30699920654297,51.729000091552734,51.30699920654297,1400.0,47.824256896972656
2015-08-28,51.22800064086914,51.06999969482422,51.22800064086914,51.119998931884766,700.0,47.64995193481445
2015-08-31,51.159000396728516,51.159000396728516,51.159000396728516,51.159000396728516,200.0,47.686302185058594
2015-09-01,50.22999954223633,50.0,50.0,50.00899887084961,2200.0,46.6143684387207
2015-09-02,50.380001068115234,50.279998779296875,50.380001068115234,50.380001068115234,7100.0,46.960182189941406
2015-09-03,51.18000030517578,50.939998626708984,50.959999084472656,50.939998626708984,500.0,47.48217010498047
2015-09-04,49.79999923706055,49.630001068115234,49.79999923706055,49.66400146484375,5000.0,46.292789459228516
2015-09-08,51.069000244140625,51.04999923706055,51.04999923706055,51.069000244140625,1400.0,47.6024169921875
2015-09-09,51.069000244140625,51.069000244140625,51.069000244140625,51.069000244140625,0.0,47.6024169921875
2015-09-10,51.150001525878906,51.099998474121094,51.150001525878906,51.099998474121094,200.0,47.63130569458008
2015-09-11,50.88999938964844,50.88999938964844,50.88999938964844,50.88999938964844,800.0,47.43556594848633
2015-09-14,50.94900131225586,50.94900131225586,50.94900131225586,50.94900131225586,200.0,47.490562438964844
2015-09-15,51.220001220703125,50.88999938964844,50.88999938964844,51.220001220703125,900.0,47.743167877197266
2015-09-16,51.400001525878906,51.23899841308594,51.31999969482422,51.400001525878906,600.0,47.910945892333984
2015-09-17,51.400001525878906,51.400001525878906,51.400001525878906,51.400001525878906,0.0,47.910945892333984
2015-09-18,51.400001525878906,51.400001525878906,51.400001525878906,51.400001525878906,0.0,47.910945892333984
2015-09-21,49.91899871826172,49.61899948120117,49.869998931884766,49.66999816894531,1400.0,46.29837417602539
2015-09-22,48.33000183105469,47.7400016784668,48.33000183105469,48.09000015258789,2500.0,44.82563018798828
2015-09-23,48.314998626708984,48.2400016784668,48.28900146484375,48.27000045776367,800.0,44.993408203125
2015-09-24,48.060001373291016,47.51900100708008,47.547000885009766,48.02000045776367,1100.0,44.76038360595703
2015-09-25,48.689998626708984,48.5,48.56999969482422,48.5,700.0,45.207801818847656
2015-09-28,47.91999816894531,47.7760009765625,47.86000061035156,47.7760009765625,2100.0,44.5329475402832
2015-09-29,47.88999938964844,47.4900016784668,47.689998626708984,47.88999938964844,1700.0,44.63920974731445
2015-09-30,48.83000183105469,48.31999969482422,48.720001220703125,48.38999938964844,1700.0,45.10526657104492
2015-10-01,48.040000915527344,48.040000915527344,48.040000915527344,48.040000915527344,400.0,44.77902603149414
2015-10-02,48.599998474121094,48.59000015258789,48.59000015258789,48.599998474121094,800.0,45.30100631713867
2015-10-05,49.619998931884766,49.54999923706055,49.54999923706055,49.619998931884766,800.0,46.25177001953125
2015-10-06,50.0099983215332,50.0099983215332,50.0099983215332,50.0099983215332,200.0,46.61529541015625
2015-10-07,50.0099983215332,50.0099983215332,50.0099983215332,50.0099983215332,0.0,46.61529541015625
2015-10-08,50.349998474121094,50.349998474121094,50.349998474121094,50.349998474121094,300.0,46.93221664428711
2015-10-09,51.25,51.25,51.25,51.25,400.0,47.77112579345703
2015-10-12,51.369998931884766,51.369998931884766,51.369998931884766,51.369998931884766,100.0,47.88298034667969
2015-10-13,51.01900100708008,50.970001220703125,50.970001220703125,51.01900100708008,1500.0,47.555809020996094
2015-10-14,51.058998107910156,50.849998474121094,50.849998474121094,51.058998107910156,2000.0,47.59309387207031
2015-10-15,51.54999923706055,51.54999923706055,51.54999923706055,51.54999923706055,600.0,48.05076217651367
2015-10-16,51.36000061035156,51.310001373291016,51.310001373291016,51.310001373291016,1100.0,47.82705307006836
2015-10-19,51.39899826049805,51.349998474121094,51.349998474121094,51.39899826049805,700.0,47.91001510620117
2015-10-20,51.39899826049805,51.39899826049805,51.39899826049805,51.39899826049805,0.0,47.91001510620117
2015-10-21,52.0,51.66999816894531,52.0,51.66999816894531,3200.0,48.16261291503906
2015-10-22,52.279998779296875,51.849998474121094,51.849998474121094,52.279998779296875,500.0,48.7312126159668
2015-10-23,52.935001373291016,52.935001373291016,52.935001373291016,52.935001373291016,200.0,49.34175109863281
2015-10-26,53.060001373291016,52.92499923706055,53.060001373291016,53.060001373291016,900.0,49.4582633972168
2015-10-27,52.4900016784668,52.47999954223633,52.4900016784668,52.47999954223633,1000.0,48.917633056640625
2015-10-28,53.31999969482422,53.29600143432617,53.29600143432617,53.31999969482422,400.0,49.700618743896484
2015-10-29,52.709999084472656,52.650001525878906,52.709999084472656,52.650001525878906,300.0,49.07609558105469
2015-10-30,52.650001525878906,52.650001525878906,52.650001525878906,52.650001525878906,0.0,49.07609558105469
2015-11-02,53.63800048828125,53.59000015258789,53.63800048828125,53.59000015258789,600.0,49.95228576660156
2015-11-03,53.59000015258789,53.59000015258789,53.59000015258789,53.59000015258789,0.0,49.95228576660156
2015-11-04,52.40999984741211,52.220001220703125,52.40999984741211,52.220001220703125,1800.0,48.67528533935547
2015-11-05,52.220001220703125,52.220001220703125,52.220001220703125,52.220001220703125,0.0,48.67528533935547
2015-11-06,52.14099884033203,52.13999938964844,52.14099884033203,52.13999938964844,200.0,48.60071563720703
2015-11-09,52.13999938964844,52.13999938964844,52.13999938964844,52.13999938964844,0.0,48.60071563720703
2015-11-10,51.560001373291016,51.479000091552734,51.479000091552734,51.560001373291016,1400.0,48.060081481933594
2015-11-11,51.560001373291016,51.560001373291016,51.560001373291016,51.560001373291016,0.0,48.060081481933594
2015-11-12,51.5,51.470001220703125,51.470001220703125,51.5,600.0,48.004154205322266
2015-11-13,50.93000030517578,50.915000915527344,50.93000030517578,50.91699981689453,900.0,47.460731506347656
2015-11-16,50.91699981689453,50.91699981689453,50.91699981689453,50.91699981689453,0.0,47.460731506347656
2015-11-17,51.72999954223633,51.46699905395508,51.630001068115234,51.53900146484375,1200.0,48.04050827026367
2015-11-18,51.53900146484375,51.53900146484375,51.53900146484375,51.53900146484375,0.0,48.04050827026367
2015-11-19,52.74399948120117,52.720001220703125,52.720001220703125,52.74399948120117,500.0,49.16371536254883
2015-11-20,52.74399948120117,52.74399948120117,52.74399948120117,52.74399948120117,0.0,49.16371536254883
2015-11-23,52.14699935913086,51.95000076293945,52.13999938964844,51.95000076293945,1000.0,48.423614501953125
2015-11-24,51.65999984741211,51.650001525878906,51.650001525878906,51.65999984741211,1000.0,48.15329360961914
2015-11-25,51.65999984741211,51.65999984741211,51.65999984741211,51.65999984741211,0.0,48.15329360961914
2015-11-27,52.81999969482422,52.689998626708984,52.689998626708984,52.81999969482422,800.0,49.234554290771484
2015-11-30,53.0260009765625,52.91999816894531,53.0260009765625,52.91999816894531,1000.0,49.327762603759766
2015-12-01,52.91999816894531,52.91999816894531,52.91999816894531,52.91999816894531,0.0,49.327762603759766
2015-12-02,52.58000183105469,52.220001220703125,52.58000183105469,52.220001220703125,2600.0,48.67528533935547
2015-12-03,52.220001220703125,52.220001220703125,52.220001220703125,52.220001220703125,0.0,48.67528533935547
2015-12-04,52.54999923706055,52.400001525878906,52.499000549316406,52.400001525878906,1400.0,48.84306716918945
2015-12-07,52.939998626708984,52.619998931884766,52.939998626708984,52.91899871826172,1700.0,49.32683563232422
2015-12-08,52.12099838256836,51.979000091552734,52.12099838256836,51.979000091552734,600.0,48.450645446777344
2015-12-09,52.16999816894531,51.58000183105469,52.16600036621094,51.58000183105469,900.0,48.07872772216797
2015-12-10,51.888999938964844,51.888999938964844,51.888999938964844,51.888999938964844,200.0,48.36674880981445
2015-12-11,50.880001068115234,50.849998474121094,50.880001068115234,50.849998474121094,300.0,47.398277282714844
2015-12-14,50.63999938964844,50.63999938964844,50.63999938964844,50.63999938964844,300.0,47.20252990722656
2015-12-15,51.380001068115234,51.060001373291016,51.34000015258789,51.060001373291016,1200.0,47.59402084350586
2015-12-16,51.638999938964844,50.59000015258789,50.59000015258789,51.470001220703125,6000.0,47.9761962890625
2015-12-17,52.20000076293945,51.779998779296875,52.20000076293945,51.779998779296875,700.0,48.2651481628418
2015-12-18,51.380001068115234,51.21099853515625,51.380001068115234,51.21099853515625,600.0,47.734771728515625
2015-12-21,51.41999816894531,51.130001068115234,51.41999816894531,51.130001068115234,86700.0,47.659278869628906
2015-12-22,51.6510009765625,51.6510009765625,51.6510009765625,51.6510009765625,500.0,48.14490509033203
2015-12-23,51.6510009765625,51.6510009765625,51.6510009765625,51.6510009765625,0.0,48.14490509033203
2015-12-24,52.380001068115234,52.22999954223633,52.22999954223633,52.380001068115234,800.0,48.824424743652344
2015-12-28,52.42900085449219,52.27000045776367,52.27000045776367,52.4010009765625,1000.0,48.843994140625
2015-12-29,52.939998626708984,52.86899948120117,52.86899948120117,52.939998626708984,300.0,49.34640884399414
2015-12-30,52.31100082397461,52.31100082397461,52.31100082397461,52.31100082397461,200.0,48.760108947753906
2015-12-31,51.790000915527344,51.624000549316406,51.630001068115234,51.624000549316406,4000.0,48.11974334716797
2016-01-04,50.20000076293945,50.0,50.20000076293945,50.138999938964844,900.0,46.73554611206055
2016-01-05,49.5099983215332,49.5099983215332,49.5099983215332,49.5099983215332,100.0,46.14923858642578
2016-01-06,49.08000183105469,49.04999923706055,49.08000183105469,49.04999923706055,300.0,45.720462799072266
2016-01-07,48.70800018310547,48.70800018310547,48.70800018310547,48.70800018310547,200.0,45.401676177978516
2016-01-08,48.691001892089844,48.0,48.691001892089844,48.0,400.0,44.741737365722656
2016-01-11,48.0,48.0,48.0,48.0,0.0,44.741737365722656
2016-01-12,48.0,48.0,48.0,48.0,0.0,44.741737365722656
2016-01-13,48.948001861572266,48.948001861572266,48.948001861572266,48.948001861572266,400.0,45.625389099121094
2016-01-14,48.060001373291016,48.060001373291016,48.060001373291016,48.060001373291016,300.0,44.797664642333984
2016-01-15,46.810001373291016,46.810001373291016,46.810001373291016,46.810001373291016,300.0,43.63251876831055
2016-01-19,47.380001068115234,47.099998474121094,47.380001068115234,47.099998474121094,4900.0,43.90283203125
2016-01-20,46.599998474121094,46.005001068115234,46.11899948120117,46.599998474121094,600.0,43.436767578125
2016-01-21,46.78900146484375,46.75,46.75,46.78900146484375,1100.0,43.612945556640625
2016-01-22,46.78900146484375,46.78900146484375,46.78900146484375,46.78900146484375,0.0,43.612945556640625
2016-01-25,46.78900146484375,46.78900146484375,46.78900146484375,46.78900146484375,0.0,43.612945556640625
2016-01-26,48.20000076293945,47.790000915527344,47.790000915527344,48.18000030517578,900.0,44.909523010253906
2016-01-27,48.18000030517578,48.18000030517578,48.18000030517578,48.18000030517578,0.0,44.909523010253906
2016-01-28,47.970001220703125,47.970001220703125,47.970001220703125,47.970001220703125,200.0,44.71377182006836
2016-01-29,47.970001220703125,47.84000015258789,47.84000015258789,47.970001220703125,700.0,44.71377182006836
2016-02-01,48.2599983215332,48.08000183105469,48.08000183105469,48.255001068115234,700.0,44.979434967041016
2016-02-02,48.255001068115234,48.255001068115234,48.255001068115234,48.255001068115234,0.0,44.979434967041016
2016-02-03,47.9900016784668,47.61800003051758,47.9900016784668,47.61800003051758,900.0,44.38566589355469
2016-02-04,47.61800003051758,47.61800003051758,47.61800003051758,47.61800003051758,0.0,44.38566589355469
2016-02-05,47.29999923706055,47.290000915527344,47.29999923706055,47.290000915527344,300.0,44.079933166503906
2016-02-08,45.95000076293945,45.63100051879883,45.720001220703125,45.95000076293945,7200.0,42.830894470214844
2016-02-09,45.88999938964844,45.88999938964844,45.88999938964844,45.88999938964844,100.0,42.774959564208984
2016-02-10,45.88999938964844,45.88999938964844,45.88999938964844,45.88999938964844,0.0,42.774959564208984
2016-02-11,45.88999938964844,45.88999938964844,45.88999938964844,45.88999938964844,0.0,42.774959564208984
2016-02-12,45.75,45.68899917602539,45.68899917602539,45.75,800.0,42.64447021484375
2016-02-16,46.59000015258789,46.58000183105469,46.59000015258789,46.58000183105469,500.0,43.418128967285156
2016-02-17,46.58000183105469,46.58000183105469,46.58000183105469,46.58000183105469,0.0,43.418128967285156
2016-02-18,46.58000183105469,46.58000183105469,46.58000183105469,46.58000183105469,0.0,43.418128967285156
2016-02-19,46.58000183105469,46.58000183105469,46.58000183105469,46.58000183105469,0.0,43.418128967285156
2016-02-22,47.909000396728516,47.7599983215332,47.7599983215332,47.909000396728516,1100.0,44.656917572021484
2016-02-23,47.13999938964844,47.13999938964844,47.13999938964844,47.13999938964844,500.0,43.94011688232422
2016-02-24,46.529998779296875,46.529998779296875,46.529998779296875,46.529998779296875,200.0,43.371524810791016
2016-02-25,46.529998779296875,46.529998779296875,46.529998779296875,46.529998779296875,0.0,43.371524810791016
2016-02-26,46.95000076293945,46.95000076293945,46.95000076293945,46.95000076293945,100.0,43.76301193237305
2016-02-29,46.95000076293945,46.95000076293945,46.95000076293945,46.95000076293945,0.0,43.76301193237305
2016-03-01,46.95000076293945,46.95000076293945,46.95000076293945,46.95000076293945,0.0,43.76301193237305
2016-03-02,46.95000076293945,46.95000076293945,46.95000076293945,46.95000076293945,100.0,43.76301193237305
2016-03-03,46.95000076293945,46.95000076293945,46.95000076293945,46.95000076293945,0.0,43.76301193237305
2016-03-04,46.95000076293945,46.95000076293945,46.95000076293945,46.95000076293945,0.0,43.76301193237305
2016-03-07,47.92599868774414,47.92599868774414,47.92599868774414,47.92599868774414,600.0,44.672760009765625
2016-03-08,47.92599868774414,47.92599868774414,47.92599868774414,47.92599868774414,0.0,44.672760009765625
2016-03-09,47.92599868774414,47.92599868774414,47.92599868774414,47.92599868774414,0.0,44.672760009765625
2016-03-10,48.76499938964844,48.7599983215332,48.76499938964844,48.76499938964844,500.0,45.454811096191406
2016-03-11,49.5880012512207,49.47999954223633,49.47999954223633,49.560001373291016,900.0,46.19585037231445
2016-03-14,49.939998626708984,49.91999816894531,49.91999816894531,49.939998626708984,1200.0,46.550048828125
2016-03-15,49.39099884033203,49.39099884033203,49.39099884033203,49.39099884033203,100.0,46.0383186340332
2016-03-16,50.40999984741211,50.292999267578125,50.319000244140625,50.400001525878906,12100.0,46.978824615478516
2016-03-17,50.04999923706055,50.04999923706055,50.04999923706055,50.04999923706055,500.0,46.652584075927734
2016-03-18,50.04999923706055,50.04999923706055,50.04999923706055,50.04999923706055,0.0,46.652584075927734
2016-03-21,50.09000015258789,50.09000015258789,50.09000015258789,50.09000015258789,200.0,46.68986511230469
2016-03-22,50.266998291015625,49.99100112915039,49.99100112915039,50.266998291015625,3400.0,46.854854583740234
2016-03-23,50.266998291015625,50.266998291015625,50.266998291015625,50.266998291015625,0.0,46.854854583740234
2016-03-24,49.43000030517578,49.43000030517578,49.43000030517578,49.43000030517578,100.0,46.074668884277344
2016-03-28,49.65999984741211,49.65999984741211,49.65999984741211,49.65999984741211,100.0,46.289058685302734
2016-03-29,49.65999984741211,49.65999984741211,49.65999984741211,49.65999984741211,0.0,46.289058685302734
2016-03-30,50.959999084472656,50.959999084472656,50.959999084472656,50.959999084472656,500.0,47.50081253051758
2016-03-31,50.96099853515625,50.78200149536133,50.959999084472656,50.78200149536133,900.0,47.33489227294922
2016-04-01,49.93000030517578,49.93000030517578,49.93000030517578,49.93000030517578,400.0,46.540733337402344
2016-04-04,49.93000030517578,49.93000030517578,49.93000030517578,49.93000030517578,0.0,46.540733337402344
2016-04-05,49.93000030517578,49.93000030517578,49.93000030517578,49.93000030517578,0.0,46.540733337402344
2016-04-06,49.93000030517578,49.93000030517578,49.93000030517578,49.93000030517578,0.0,46.540733337402344
2016-04-07,49.08000183105469,49.08000183105469,49.08000183105469,49.08000183105469,600.0,45.7484245300293
2016-04-08,49.52000045776367,49.382999420166016,49.52000045776367,49.382999420166016,700.0,46.030860900878906
2016-04-11,50.0,50.0,50.0,50.0,200.0,46.60597610473633
2016-04-12,49.87900161743164,49.87900161743164,49.87900161743164,49.87900161743164,100.0,46.493194580078125
2016-04-13,50.5989990234375,50.5989990234375,50.5989990234375,50.5989990234375,300.0,47.1643180847168
2016-04-14,50.5989990234375,50.5989990234375,50.5989990234375,50.5989990234375,0.0,47.1643180847168
2016-04-15,50.84000015258789,50.84000015258789,50.84000015258789,50.84000015258789,700.0,47.38895797729492
2016-04-18,50.84000015258789,50.84000015258789,50.84000015258789,50.84000015258789,0.0,47.38895797729492
2016-04-19,52.52000045776367,52.5,52.52000045776367,52.5,300.0,48.936275482177734
2016-04-20,52.630001068115234,52.36000061035156,52.36000061035156,52.630001068115234,800.0,49.05745315551758
2016-04-21,52.630001068115234,52.630001068115234,52.630001068115234,52.630001068115234,0.0,49.05745315551758
2016-04-22,52.630001068115234,52.630001068115234,52.630001068115234,52.630001068115234,0.0,49.05745315551758
2016-04-25,52.630001068115234,52.630001068115234,52.630001068115234,52.630001068115234,0.0,49.05745315551758
2016-04-26,52.630001068115234,52.630001068115234,52.630001068115234,52.630001068115234,0.0,49.05745315551758
2016-04-27,52.630001068115234,52.630001068115234,52.630001068115234,52.630001068115234,0.0,49.05745315551758
2016-04-28,52.630001068115234,52.630001068115234,52.630001068115234,52.630001068115234,0.0,49.05745315551758
2016-04-29,52.630001068115234,52.630001068115234,52.630001068115234,52.630001068115234,0.0,49.05745315551758
2016-05-02,52.290000915527344,52.290000915527344,52.290000915527344,52.290000915527344,100.0,48.740535736083984
2016-05-03,51.779998779296875,51.53499984741211,51.779998779296875,51.53499984741211,300.0,48.036781311035156
2016-05-04,51.53499984741211,51.53499984741211,51.53499984741211,51.53499984741211,0.0,48.036781311035156
2016-05-05,50.63999938964844,50.63999938964844,50.63999938964844,50.63999938964844,100.0,47.20252990722656
2016-05-06,50.709999084472656,50.709999084472656,50.709999084472656,50.709999084472656,100.0,47.26778030395508
2016-05-09,50.709999084472656,50.709999084472656,50.709999084472656,50.709999084472656,0.0,47.26778030395508
2016-05-10,51.540000915527344,51.45000076293945,51.45000076293945,51.50600051879883,900.0,48.00975036621094
2016-05-11,51.50600051879883,51.50600051879883,51.50600051879883,51.50600051879883,0.0,48.00975036621094
2016-05-12,51.50600051879883,51.50600051879883,51.50600051879883,51.50600051879883,0.0,48.00975036621094
2016-05-13,51.50600051879883,51.50600051879883,51.50600051879883,51.50600051879883,0.0,48.00975036621094
2016-05-16,50.7400016784668,50.560001373291016,50.61000061035156,50.7400016784668,41800.0,47.295745849609375
2016-05-17,50.65999984741211,50.279998779296875,50.65999984741211,50.279998779296875,8100.0,46.86697006225586
2016-05-18,50.279998779296875,50.279998779296875,50.279998779296875,50.279998779296875,100.0,46.86697006225586
2016-05-19,50.279998779296875,50.279998779296875,50.279998779296875,50.279998779296875,0.0,46.86697006225586
2016-05-20,50.630001068115234,50.59000015258789,50.61000061035156,50.61899948120117,900.0,47.18295669555664
2016-05-23,50.470001220703125,50.400001525878906,50.470001220703125,50.41999816894531,44200.0,46.997467041015625
2016-05-24,50.99399948120117,50.86000061035156,50.86000061035156,50.99399948120117,300.0,47.53250503540039
2016-05-25,51.638999938964844,51.599998474121094,51.599998474121094,51.638999938964844,300.0,48.13372039794922
2016-05-26,52.150001525878906,52.06999969482422,52.06999969482422,52.119998931884766,900.0,48.582069396972656
2016-05-27,52.119998931884766,52.119998931884766,52.119998931884766,52.119998931884766,0.0,48.582069396972656
2016-05-31,51.93000030517578,51.900001525878906,51.91999816894531,51.900001525878906,22200.0,48.377010345458984
2016-06-01,51.900001525878906,51.900001525878906,51.900001525878906,51.900001525878906,0.0,48.377010345458984
2016-06-02,51.900001525878906,51.900001525878906,51.900001525878906,51.900001525878906,0.0,48.377010345458984
2016-06-03,51.779998779296875,51.61000061035156,51.779998779296875,51.68000030517578,40900.0,48.171939849853516
2016-06-06,52.31999969482422,52.2400016784668,52.290000915527344,52.31999969482422,3200.0,48.768489837646484
2016-06-07,52.31999969482422,52.31999969482422,52.31999969482422,52.31999969482422,0.0,48.768489837646484
2016-06-08,52.86000061035156,52.79999923706055,52.79999923706055,52.849998474121094,15300.0,49.26251983642578
2016-06-09,52.849998474121094,52.849998474121094,52.849998474121094,52.849998474121094,0.0,49.26251983642578
2016-06-10,50.16999816894531,50.05400085449219,50.05400085449219,50.16999816894531,400.0,46.764434814453125
2016-06-13,49.65999984741211,49.380001068115234,49.65999984741211,49.5,800.0,46.13991928100586
2016-06-14,48.79100036621094,48.70000076293945,48.79100036621094,48.7400016784668,1300.0,45.43151092529297
2016-06-15,49.2869987487793,49.0099983215332,49.130001068115234,49.0099983215332,700.0,45.68317794799805
2016-06-16,48.970001220703125,48.04100036621094,48.08000183105469,48.970001220703125,2800.0,45.64589309692383
2016-06-17,48.472999572753906,48.21500015258789,48.369998931884766,48.472999572753906,700.0,46.17512130737305
2016-06-20,48.472999572753906,48.472999572753906,48.472999572753906,48.472999572753906,0.0,46.17512130737305
2016-06-21,50.45000076293945,50.45000076293945,50.45000076293945,50.45000076293945,300.0,48.05839920043945
2016-06-22,50.560001373291016,50.560001373291016,50.560001373291016,50.560001373291016,100.0,48.163185119628906
2016-06-23,50.560001373291016,50.560001373291016,50.560001373291016,50.560001373291016,0.0,48.163185119628906
2016-06-24,48.11000061035156,47.0,47.310001373291016,47.40999984741211,3000.0,45.16250991821289
2016-06-27,46.029998779296875,45.68899917602539,46.029998779296875,45.68899917602539,1000.0,43.52309036254883
2016-06-28,46.77000045776367,46.77000045776367,46.77000045776367,46.77000045776367,800.0,44.55284881591797
2016-06-29,47.573001861572266,47.45500183105469,47.45500183105469,47.573001861572266,600.0,45.31778335571289
2016-06-30,48.22999954223633,47.81399917602539,47.81399917602539,48.22999954223633,1200.0,45.94363784790039
2016-07-01,48.72200012207031,48.595001220703125,48.72200012207031,48.619998931884766,2000.0,46.31514358520508
2016-07-05,47.5099983215332,47.5,47.5099983215332,47.5,2800.0,45.24824523925781
2016-07-06,46.41999816894531,46.308998107910156,46.41999816894531,46.308998107910156,1400.0,44.113704681396484
2016-07-07,46.5099983215332,46.5099983215332,46.5099983215332,46.5099983215332,100.0,44.30517578125
2016-07-08,46.5099983215332,46.5099983215332,46.5099983215332,46.5099983215332,100.0,44.30517578125
2016-07-11,48.47999954223633,48.47999954223633,48.47999954223633,48.47999954223633,100.0,46.181785583496094
2016-07-12,49.189998626708984,49.040000915527344,49.189998626708984,49.040000915527344,1200.0,46.71523666381836
2016-07-13,49.275001525878906,49.275001525878906,49.275001525878906,49.275001525878906,400.0,46.9390983581543
2016-07-14,49.729000091552734,49.689998626708984,49.689998626708984,49.729000091552734,300.0,47.371578216552734
2016-07-15,49.446998596191406,49.446998596191406,49.446998596191406,49.446998596191406,300.0,47.10293960571289
2016-07-18,49.446998596191406,49.446998596191406,49.446998596191406,49.446998596191406,0.0,47.10293960571289
2016-07-19,49.029998779296875,49.029998779296875,49.029998779296875,49.029998779296875,100.0,46.705711364746094
2016-07-20,49.5,49.5,49.5,49.5,200.0,47.1534309387207
2016-07-21,49.479000091552734,49.479000091552734,49.479000091552734,49.479000091552734,500.0,47.133426666259766
2016-07-22,49.650001525878906,49.650001525878906,49.650001525878906,49.650001525878906,200.0,47.296321868896484
2016-07-25,49.790000915527344,49.59000015258789,49.790000915527344,49.59000015258789,400.0,47.239166259765625
2016-07-26,49.90999984741211,49.90999984741211,49.90999984741211,49.90999984741211,500.0,47.54399871826172
2016-07-27,50.380001068115234,50.380001068115234,50.380001068115234,50.380001068115234,400.0,47.99171447753906
2016-07-28,50.380001068115234,50.380001068115234,50.380001068115234,50.380001068115234,0.0,47.99171447753906
2016-07-29,51.15999984741211,50.91999816894531,50.91999816894531,51.15999984741211,1100.0,48.7347412109375
2016-08-01,51.2400016784668,51.0099983215332,51.0099983215332,51.220001220703125,300.0,48.79189682006836
2016-08-02,50.66899871826172,50.599998474121094,50.630001068115234,50.599998474121094,2300.0,48.20128631591797
2016-08-03,50.599998474121094,50.599998474121094,50.599998474121094,50.599998474121094,0.0,48.20128631591797
2016-08-04,50.38999938964844,50.38999938964844,50.38999938964844,50.38999938964844,500.0,48.001243591308594
2016-08-05,50.38999938964844,50.38999938964844,50.38999938964844,50.38999938964844,0.0,48.001243591308594
2016-08-08,50.38999938964844,50.38999938964844,50.38999938964844,50.38999938964844,0.0,48.001243591308594
2016-08-09,52.189998626708984,51.869998931884766,51.869998931884766,52.189998626708984,500.0,49.715911865234375
2016-08-10,52.52000045776367,52.459999084472656,52.4900016784668,52.47999954223633,1300.0,49.992164611816406
2016-08-11,52.880001068115234,52.880001068115234,52.880001068115234,52.880001068115234,1200.0,50.37320327758789
2016-08-12,52.880001068115234,52.880001068115234,52.880001068115234,52.880001068115234,0.0,50.37320327758789
2016-08-15,53.060001373291016,52.941001892089844,53.060001373291016,52.941001892089844,900.0,50.431312561035156
2016-08-16,53.04999923706055,53.02000045776367,53.04999923706055,53.02000045776367,600.0,50.50656509399414
2016-08-17,52.58000183105469,52.529998779296875,52.529998779296875,52.540000915527344,900.0,50.049320220947266
2016-08-18,52.540000915527344,52.540000915527344,52.540000915527344,52.540000915527344,0.0,50.049320220947266
2016-08-19,52.56999969482422,52.569000244140625,52.56999969482422,52.569000244140625,300.0,50.076942443847656
2016-08-22,52.33000183105469,52.279998779296875,52.279998779296875,52.33000183105469,400.0,49.84927749633789
2016-08-23,52.959999084472656,52.959999084472656,52.959999084472656,52.959999084472656,100.0,50.44940948486328
2016-08-24,52.959999084472656,52.959999084472656,52.959999084472656,52.959999084472656,0.0,50.44940948486328
2016-08-25,52.29999923706055,52.25,52.29999923706055,52.25,300.0,49.7730712890625
2016-08-26,52.5,51.83000183105469,52.5,51.83000183105469,400.0,49.372982025146484
2016-08-29,51.84000015258789,51.75,51.75,51.84000015258789,2300.0,49.382503509521484
2016-08-30,52.290000915527344,52.220001220703125,52.290000915527344,52.220001220703125,1600.0,49.74448776245117
2016-08-31,51.97999954223633,51.97999954223633,51.97999954223633,51.97999954223633,1000.0,49.515865325927734
2016-09-01,52.040000915527344,51.849998474121094,52.040000915527344,51.849998474121094,2300.0,49.392024993896484
2016-09-02,52.4900016784668,52.36000061035156,52.36000061035156,52.4900016784668,1300.0,50.00169372558594
2016-09-06,52.86000061035156,52.56999969482422,52.59000015258789,52.86000061035156,1300.0,50.35415267944336
2016-09-07,53.0,53.0,53.0,53.0,900.0,50.48751449584961
2016-09-08,52.849998474121094,52.849998474121094,52.849998474121094,52.849998474121094,1000.0,50.34462356567383
2016-09-09,51.9900016784668,51.68000030517578,51.9900016784668,51.68000030517578,2300.0,49.2300910949707
2016-09-12,52.119998931884766,51.33000183105469,51.34000015258789,52.11000061035156,2100.0,49.63970184326172
2016-09-13,51.709999084472656,51.25400161743164,51.61000061035156,51.34000015258789,2700.0,48.90620422363281
2016-09-14,51.58000183105469,51.369998931884766,51.400001525878906,51.540000915527344,2200.0,49.09672546386719
2016-09-15,51.72999954223633,51.65999984741211,51.72999954223633,51.65999984741211,500.0,49.21103286743164
2016-09-16,50.810001373291016,50.66999816894531,50.810001373291016,50.66999816894531,2400.0,48.267967224121094
2016-09-19,51.310001373291016,51.09299850463867,51.279998779296875,51.209999084472656,3800.0,48.78236770629883
2016-09-20,51.560001373291016,51.40999984741211,51.560001373291016,51.40999984741211,1500.0,48.97288513183594
2016-09-21,51.47999954223633,51.36000061035156,51.47999954223633,51.36000061035156,2800.0,48.92525863647461
2016-09-22,53.029998779296875,52.869998931884766,53.0099983215332,52.869998931884766,2400.0,50.36367416381836
2016-09-23,52.869998931884766,52.869998931884766,52.869998931884766,52.869998931884766,0.0,50.36367416381836
2016-09-26,51.83000183105469,51.68000030517578,51.83000183105469,51.68000030517578,2700.0,49.2300910949707
2016-09-27,51.529998779296875,50.95000076293945,50.95000076293945,51.529998779296875,2800.0,49.08720016479492
2016-09-28,51.95000076293945,51.650001525878906,51.91999816894531,51.95000076293945,2500.0,49.4872932434082
2016-09-29,51.970001220703125,51.06999969482422,51.970001220703125,51.06999969482422,2900.0,48.64900588989258
2016-09-30,52.2599983215332,51.630001068115234,51.650001525878906,52.2400016784668,1900.0,49.763545989990234
2016-10-03,51.91999816894531,51.63999938964844,51.66999816894531,51.90999984741211,2400.0,49.449188232421875
2016-10-04,52.20000076293945,52.060001373291016,52.060001373291016,52.20000076293945,200.0,49.72543716430664
2016-10-05,52.20000076293945,52.20000076293945,52.20000076293945,52.20000076293945,0.0,49.72543716430664
2016-10-06,52.20000076293945,52.20000076293945,52.20000076293945,52.20000076293945,0.0,49.72543716430664
2016-10-07,52.20000076293945,52.20000076293945,52.20000076293945,52.20000076293945,0.0,49.72543716430664
2016-10-10,52.20000076293945,52.20000076293945,52.20000076293945,52.20000076293945,0.0,49.72543716430664
2016-10-11,52.20000076293945,52.20000076293945,52.20000076293945,52.20000076293945,0.0,49.72543716430664
2016-10-12,52.20000076293945,52.20000076293945,52.20000076293945,52.20000076293945,0.0,49.72543716430664
2016-10-13,50.779998779296875,50.349998474121094,50.36000061035156,50.779998779296875,4600.0,48.37275314331055
2016-10-14,50.779998779296875,50.779998779296875,50.779998779296875,50.779998779296875,0.0,48.37275314331055
2016-10-17,50.779998779296875,50.779998779296875,50.779998779296875,50.779998779296875,0.0,48.37275314331055
2016-10-18,50.779998779296875,50.779998779296875,50.779998779296875,50.779998779296875,0.0,48.37275314331055
2016-10-19,50.779998779296875,50.779998779296875,50.779998779296875,50.779998779296875,0.0,48.37275314331055
2016-10-20,50.779998779296875,50.779998779296875,50.779998779296875,50.779998779296875,0.0,48.37275314331055
2016-10-21,50.900001525878906,50.83000183105469,50.83000183105469,50.900001525878906,300.0,48.487064361572266
2016-10-24,51.28900146484375,51.28900146484375,51.28900146484375,51.28900146484375,300.0,48.85762405395508
2016-10-25,51.28900146484375,51.28900146484375,51.28900146484375,51.28900146484375,0.0,48.85762405395508
2016-10-26,51.0099983215332,50.99800109863281,50.99800109863281,51.0099983215332,300.0,48.59184646606445
2016-10-27,51.06999969482422,51.06999969482422,51.06999969482422,51.06999969482422,200.0,48.64900588989258
2016-10-28,51.12900161743164,51.12900161743164,51.12900161743164,51.12900161743164,400.0,48.7052116394043
2016-10-31,51.185001373291016,51.185001373291016,51.185001373291016,51.185001373291016,100.0,48.75855255126953
2016-11-01,50.85499954223633,50.85499954223633,50.85499954223633,50.85499954223633,100.0,48.44419479370117
2016-11-02,50.5,50.470001220703125,50.5,50.49300003051758,1200.0,48.099361419677734
2016-11-03,50.369998931884766,50.369998931884766,50.369998931884766,50.369998931884766,200.0,47.98218536376953
2016-11-04,49.972999572753906,49.972999572753906,49.972999572753906,49.972999572753906,200.0,47.604007720947266
2016-11-07,50.5,50.38999938964844,50.5,50.45000076293945,400.0,48.05839920043945
2016-11-08,50.79899978637695,50.70000076293945,50.79899978637695,50.70000076293945,700.0,48.296546936035156
2016-11-09,50.720001220703125,50.06999969482422,50.20000076293945,50.720001220703125,2900.0,48.31560134887695
2016-11-10,50.0989990234375,50.0989990234375,50.0989990234375,50.0989990234375,100.0,47.72403335571289
2016-11-11,49.939998626708984,49.86000061035156,49.88999938964844,49.91999816894531,600.0,47.55352020263672
2016-11-14,49.459999084472656,49.38100051879883,49.45000076293945,49.43000030517578,500.0,47.08675003051758
2016-11-15,49.58000183105469,49.58000183105469,49.58000183105469,49.58000183105469,400.0,47.229644775390625
2016-11-16,49.58000183105469,49.58000183105469,49.58000183105469,49.58000183105469,0.0,47.229644775390625
2016-11-17,49.18000030517578,49.040000915527344,49.119998931884766,49.06999969482422,1100.0,46.74382019042969
2016-11-18,49.06999969482422,49.06999969482422,49.06999969482422,49.06999969482422,100.0,46.74382019042969
2016-11-21,49.0,48.75,48.75,49.0,800.0,46.67713165283203
2016-11-22,49.09000015258789,49.09000015258789,49.09000015258789,49.09000015258789,700.0,46.76286697387695
2016-11-23,48.58000183105469,48.35599899291992,48.35599899291992,48.54800033569336,1000.0,46.24656295776367
2016-11-25,48.970001220703125,48.810001373291016,48.810001373291016,48.970001220703125,2500.0,46.6485595703125
2016-11-28,48.542999267578125,48.48500061035156,48.48500061035156,48.542999267578125,300.0,46.241798400878906
2016-11-29,48.542999267578125,48.542999267578125,48.542999267578125,48.542999267578125,0.0,46.241798400878906
2016-11-30,48.97999954223633,48.97999954223633,48.97999954223633,48.97999954223633,200.0,46.6580810546875
2016-12-01,48.26100158691406,48.26100158691406,48.26100158691406,48.26100158691406,500.0,45.973167419433594
2016-12-02,48.58300018310547,48.41999816894531,48.58300018310547,48.5099983215332,3700.0,46.21036148071289
2016-12-05,49.4900016784668,49.290000915527344,49.290000915527344,49.4900016784668,900.0,47.1439094543457
2016-12-06,49.8489990234375,49.8489990234375,49.8489990234375,49.8489990234375,200.0,47.48588562011719
2016-12-07,50.95000076293945,50.93000030517578,50.93000030517578,50.95000076293945,600.0,48.53469467163086
2016-12-08,50.91999816894531,50.779998779296875,50.779998779296875,50.91999816894531,500.0,48.50611877441406
2016-12-09,50.810001373291016,50.810001373291016,50.810001373291016,50.810001373291016,200.0,48.40133285522461
2016-12-12,51.02000045776367,50.900001525878906,51.0,50.900001525878906,1600.0,48.487064361572266
2016-12-13,50.900001525878906,50.900001525878906,50.900001525878906,50.900001525878906,0.0,48.487064361572266
2016-12-14,51.5,50.650001525878906,51.5,50.650001525878906,900.0,48.24891662597656
2016-12-15,50.65999984741211,50.64899826049805,50.64899826049805,50.65999984741211,700.0,48.25843811035156
2016-12-16,50.790000915527344,50.790000915527344,50.790000915527344,50.790000915527344,200.0,48.475364685058594
2016-12-19,50.970001220703125,50.959999084472656,50.959999084472656,50.970001220703125,300.0,48.647159576416016
2016-12-20,50.970001220703125,50.970001220703125,50.970001220703125,50.970001220703125,0.0,48.647159576416016
2016-12-21,51.20000076293945,51.20000076293945,51.20000076293945,51.20000076293945,300.0,48.86668395996094
2016-12-22,51.31999969482422,51.31999969482422,51.31999969482422,51.31999969482422,300.0,48.98120880126953
2016-12-23,51.310001373291016,51.29999923706055,51.29999923706055,51.310001373291016,600.0,48.9716682434082
2016-12-27,51.45100021362305,51.45100021362305,51.45100021362305,51.45100021362305,300.0,49.10624313354492
2016-12-28,51.45100021362305,51.45100021362305,51.45100021362305,51.45100021362305,0.0,49.10624313354492
2016-12-29,51.41899871826172,51.369998931884766,51.41899871826172,51.369998931884766,1400.0,49.028934478759766
2016-12-30,51.68000030517578,51.61000061035156,51.68000030517578,51.61000061035156,1700.0,49.257999420166016
2017-01-03,51.59000015258789,51.51599884033203,51.51599884033203,51.59000015258789,1000.0,49.23891067504883
2017-01-04,51.790000915527344,51.62099838256836,51.62099838256836,51.790000915527344,2100.0,49.42979431152344
2017-01-05,51.790000915527344,51.790000915527344,51.790000915527344,51.790000915527344,0.0,49.42979431152344
2017-01-06,52.27000045776367,52.220001220703125,52.26499938964844,52.27000045776367,600.0,49.88792037963867
2017-01-09,52.13999938964844,52.12799835205078,52.13999938964844,52.12799835205078,1000.0,49.75239181518555
2017-01-10,52.12799835205078,52.12799835205078,52.12799835205078,52.12799835205078,0.0,49.75239181518555
2017-01-11,52.59000015258789,52.04999923706055,52.15999984741211,52.59000015258789,1800.0,50.193336486816406
2017-01-12,52.59000015258789,52.59000015258789,52.59000015258789,52.59000015258789,0.0,50.193336486816406
2017-01-13,52.59000015258789,52.59000015258789,52.59000015258789,52.59000015258789,0.0,50.193336486816406
2017-01-17,52.959999084472656,52.90999984741211,52.90999984741211,52.959999084472656,400.0,50.54647445678711
2017-01-18,53.040000915527344,53.02199935913086,53.040000915527344,53.02199935913086,500.0,50.60565185546875
2017-01-19,52.869998931884766,52.7400016784668,52.7400016784668,52.869998931884766,300.0,50.460575103759766
2017-01-20,53.290000915527344,53.20399856567383,53.290000915527344,53.279998779296875,500.0,50.851890563964844
2017-01-23,53.29499816894531,53.29499816894531,53.29499816894531,53.29499816894531,100.0,50.86620330810547
2017-01-24,53.540000915527344,53.540000915527344,53.540000915527344,53.540000915527344,300.0,51.10004425048828
2017-01-25,54.32899856567383,54.04999923706055,54.04999923706055,54.22999954223633,300.0,51.75859451293945
2017-01-26,54.08000183105469,54.04499816894531,54.04499816894531,54.04999923706055,700.0,51.586795806884766
2017-01-27,54.04999923706055,54.04999923706055,54.04999923706055,54.04999923706055,0.0,51.586795806884766
2017-01-30,53.599998474121094,53.47999954223633,53.59000015258789,53.59000015258789,1400.0,51.147762298583984
2017-01-31,53.59000015258789,53.59000015258789,53.59000015258789,53.59000015258789,0.0,51.147762298583984
2017-02-01,53.779998779296875,53.779998779296875,53.779998779296875,53.779998779296875,200.0,51.329105377197266
2017-02-02,53.779998779296875,53.779998779296875,53.779998779296875,53.779998779296875,0.0,51.329105377197266
2017-02-03,53.779998779296875,53.779998779296875,53.779998779296875,53.779998779296875,0.0,51.329105377197266
2017-02-06,53.15999984741211,52.900001525878906,53.15999984741211,52.90999984741211,2300.0,50.49875259399414
2017-02-07,53.04199981689453,52.90999984741211,52.95000076293945,52.95000076293945,1700.0,50.53693389892578
2017-02-08,52.95000076293945,52.95000076293945,52.95000076293945,52.95000076293945,0.0,50.53693389892578
2017-02-09,52.95000076293945,52.95000076293945,52.95000076293945,52.95000076293945,0.0,50.53693389892578
2017-02-10,52.95000076293945,52.95000076293945,52.95000076293945,52.95000076293945,0.0,50.53693389892578
2017-02-13,53.66999816894531,53.62099838256836,53.66999816894531,53.66899871826172,600.0,51.22316360473633
2017-02-14,53.560001373291016,53.400001525878906,53.560001373291016,53.400001525878906,700.0,50.9664192199707
2017-02-15,53.650001525878906,53.22999954223633,53.22999954223633,53.650001525878906,300.0,51.20503234863281
2017-02-16,53.92300033569336,53.92300033569336,53.92300033569336,53.92300033569336,400.0,51.4655876159668
2017-02-17,53.92300033569336,53.92300033569336,53.92300033569336,53.92300033569336,0.0,51.4655876159668
2017-02-21,53.92300033569336,53.92300033569336,53.92300033569336,53.92300033569336,0.0,51.4655876159668
2017-02-22,54.3390007019043,53.970001220703125,53.970001220703125,54.3390007019043,1400.0,51.86262893676758
2017-02-23,54.3390007019043,54.3390007019043,54.3390007019043,54.3390007019043,0.0,51.86262893676758
2017-02-24,53.52000045776367,53.52000045776367,53.52000045776367,53.52000045776367,200.0,51.080955505371094
2017-02-27,53.849998474121094,53.54999923706055,53.54999923706055,53.849998474121094,500.0,51.395912170410156
2017-02-28,53.779998779296875,53.7760009765625,53.779998779296875,53.7760009765625,600.0,51.325286865234375
2017-03-01,54.540000915527344,54.518001556396484,54.53900146484375,54.518001556396484,900.0,52.03347396850586
2017-03-02,54.27000045776367,54.13999938964844,54.27000045776367,54.150001525878906,700.0,51.6822395324707
2017-03-03,54.349998474121094,54.22999954223633,54.2599983215332,54.349998474121094,700.0,51.873130798339844
2017-03-06,54.310001373291016,54.310001373291016,54.310001373291016,54.310001373291016,1000.0,51.83495330810547
2017-03-07,54.04100036621094,53.96200180053711,53.96200180053711,54.04100036621094,400.0,51.578208923339844
2017-03-08,54.04100036621094,54.04100036621094,54.04100036621094,54.04100036621094,0.0,51.578208923339844
2017-03-09,54.104000091552734,54.104000091552734,54.104000091552734,54.104000091552734,800.0,51.63833999633789
2017-03-10,54.104000091552734,54.104000091552734,54.104000091552734,54.104000091552734,0.0,51.63833999633789
2017-03-13,54.104000091552734,54.104000091552734,54.104000091552734,54.104000091552734,0.0,51.63833999633789
2017-03-14,54.104000091552734,54.104000091552734,54.104000091552734,54.104000091552734,0.0,51.63833999633789
2017-03-15,54.104000091552734,54.104000091552734,54.104000091552734,54.104000091552734,0.0,51.63833999633789
2017-03-16,55.709999084472656,55.69200134277344,55.709999084472656,55.69900131225586,700.0,53.160648345947266
2017-03-17,55.69900131225586,55.69900131225586,55.69900131225586,55.69900131225586,0.0,53.160648345947266
2017-03-20,55.69900131225586,55.69900131225586,55.69900131225586,55.69900131225586,100.0,53.160648345947266
2017-03-21,55.81999969482422,55.2400016784668,55.81999969482422,55.2400016784668,300.0,52.72256851196289
2017-03-22,55.0099983215332,54.9900016784668,55.0099983215332,54.9900016784668,200.0,52.48396301269531
2017-03-23,55.150001525878906,55.150001525878906,55.150001525878906,55.150001525878906,200.0,52.63666915893555
2017-03-24,55.709999084472656,55.709999084472656,55.709999084472656,55.709999084472656,300.0,53.171146392822266
2017-03-27,55.709999084472656,55.709999084472656,55.709999084472656,55.709999084472656,0.0,53.171146392822266
2017-03-28,56.33000183105469,56.33000183105469,56.33000183105469,56.33000183105469,200.0,53.76289749145508
2017-03-29,56.29999923706055,56.16999816894531,56.16999816894531,56.29999923706055,1400.0,53.7342643737793
2017-03-30,56.11800003051758,56.11800003051758,56.11800003051758,56.11800003051758,200.0,53.56055450439453
2017-03-31,56.11800003051758,56.11800003051758,56.11800003051758,56.11800003051758,0.0,53.56055450439453
2017-04-03,56.11800003051758,56.11800003051758,56.11800003051758,56.11800003051758,0.0,53.56055450439453
2017-04-04,56.11800003051758,56.11800003051758,56.11800003051758,56.11800003051758,0.0,53.56055450439453
2017-04-05,56.11800003051758,56.11800003051758,56.11800003051758,56.11800003051758,0.0,53.56055450439453
2017-04-06,55.90999984741211,55.88999938964844,55.900001525878906,55.88999938964844,300.0,53.34294509887695
2017-04-07,55.619998931884766,55.619998931884766,55.619998931884766,55.619998931884766,100.0,53.08525085449219
2017-04-10,55.630001068115234,55.630001068115234,55.630001068115234,55.630001068115234,200.0,53.09479522705078
2017-04-11,55.630001068115234,55.630001068115234,55.630001068115234,55.630001068115234,0.0,53.09479522705078
2017-04-12,55.630001068115234,55.630001068115234,55.630001068115234,55.630001068115234,0.0,53.09479522705078
2017-04-13,55.540000915527344,55.540000915527344,55.540000915527344,55.540000915527344,200.0,53.00889587402344
2017-04-17,55.58000183105469,55.58000183105469,55.58000183105469,55.58000183105469,300.0,53.04707717895508
2017-04-18,55.60200119018555,55.60200119018555,55.60200119018555,55.60200119018555,100.0,53.06806945800781
2017-04-19,55.60200119018555,55.60200119018555,55.60200119018555,55.60200119018555,0.0,53.06806945800781
2017-04-20,55.60200119018555,55.60200119018555,55.60200119018555,55.60200119018555,0.0,53.06806945800781
2017-04-21,55.60200119018555,55.60200119018555,55.60200119018555,55.60200119018555,0.0,53.06806945800781
2017-04-24,55.60200119018555,55.60200119018555,55.60200119018555,55.60200119018555,0.0,53.06806945800781
2017-04-25,58.4630012512207,58.2599983215332,58.31999969482422,58.4630012512207,1100.0,55.79869079589844
2017-04-26,58.27000045776367,58.1609992980957,58.20000076293945,58.16999816894531,900.0,55.519039154052734
2017-04-27,58.099998474121094,57.959999084472656,57.97999954223633,57.959999084472656,2500.0,55.318607330322266
2017-04-28,58.25,58.08000183105469,58.25,58.08000183105469,150600.0,55.433143615722656
2017-05-01,58.400001525878906,58.15999984741211,58.15999984741211,58.290000915527344,2600.0,55.63357162475586
2017-05-02,58.68000030517578,58.400001525878906,58.400001525878906,58.650001525878906,2800.0,55.977169036865234
2017-05-03,58.481998443603516,58.349998474121094,58.481998443603516,58.435001373291016,2400.0,55.7719612121582
2017-05-04,59.470001220703125,58.880001068115234,58.880001068115234,59.470001220703125,1300.0,56.759796142578125
2017-05-05,60.220001220703125,59.5,59.540000915527344,60.220001220703125,2800.0,57.475616455078125
2017-05-08,59.439998626708984,59.27000045776367,59.439998626708984,59.332000732421875,1800.0,56.62808609008789
2017-05-09,59.132999420166016,59.132999420166016,59.132999420166016,59.132999420166016,300.0,56.43815231323242
2017-05-10,59.34000015258789,59.04999923706055,59.34000015258789,59.15999984741211,2300.0,56.46392059326172
2017-05-11,59.15999984741211,59.15999984741211,59.15999984741211,59.15999984741211,0.0,56.46392059326172
2017-05-12,59.220001220703125,59.15999984741211,59.18899917602539,59.220001220703125,1600.0,56.52119064331055
2017-05-15,59.720001220703125,59.5,59.5,59.720001220703125,1900.0,56.99840545654297
2017-05-16,60.33000183105469,60.23500061035156,60.33000183105469,60.290000915527344,600.0,57.54242706298828
2017-05-17,59.56999969482422,59.56999969482422,59.56999969482422,59.56999969482422,400.0,56.85523986816406
2017-05-18,59.2599983215332,59.2599983215332,59.2599983215332,59.2599983215332,500.0,56.559364318847656
2017-05-19,60.16999816894531,60.16999816894531,60.16999816894531,60.16999816894531,300.0,57.42789077758789
2017-05-22,60.417999267578125,60.340999603271484,60.340999603271484,60.380001068115234,700.0,57.628326416015625
2017-05-23,60.31800079345703,60.31800079345703,60.31800079345703,60.31800079345703,100.0,57.569149017333984
2017-05-24,60.290000915527344,60.09000015258789,60.09000015258789,60.255001068115234,1500.0,57.5090217590332
2017-05-25,60.255001068115234,60.255001068115234,60.255001068115234,60.255001068115234,0.0,57.5090217590332
2017-05-26,60.03499984741211,59.790000915527344,59.790000915527344,60.03499984741211,3200.0,57.299049377441406
2017-05-30,60.03499984741211,60.03499984741211,60.03499984741211,60.03499984741211,0.0,57.299049377441406
2017-05-31,60.61399841308594,60.529998779296875,60.59000015258789,60.61399841308594,5100.0,57.85165786743164
2017-06-01,60.790000915527344,60.7400016784668,60.75,60.790000915527344,1800.0,58.01963806152344
2017-06-02,61.720001220703125,61.54999923706055,61.54999923706055,61.720001220703125,3500.0,58.90726089477539
2017-06-05,61.369998931884766,61.2140007019043,61.310001373291016,61.29199981689453,2100.0,58.49876022338867
2017-06-06,61.02000045776367,60.849998474121094,61.02000045776367,60.849998474121094,1600.0,58.076900482177734
2017-06-07,60.849998474121094,60.73899841308594,60.7599983215332,60.849998474121094,3100.0,58.076900482177734
2017-06-08,60.63999938964844,60.5,60.63999938964844,60.5,800.0,57.742855072021484
2017-06-09,60.84000015258789,60.5,60.65999984741211,60.58399963378906,1100.0,57.82302474975586
2017-06-12,60.47999954223633,60.191001892089844,60.47999954223633,60.25,700.0,57.504249572753906
2017-06-13,60.900001525878906,60.619998931884766,60.619998931884766,60.81999969482422,1000.0,58.04827117919922
2017-06-14,61.459999084472656,61.459999084472656,61.459999084472656,61.459999084472656,200.0,58.65910720825195
2017-06-15,60.040000915527344,59.900001525878906,59.900001525878906,60.040000915527344,1500.0,57.3038215637207
2017-06-16,60.040000915527344,60.040000915527344,60.040000915527344,60.040000915527344,0.0,58.538150787353516
2017-06-19,59.81999969482422,59.75,59.75,59.81999969482422,700.0,58.32365036010742
2017-06-20,59.400001525878906,59.37799835205078,59.37900161743164,59.37799835205078,1300.0,57.892704010009766
2017-06-21,59.33000183105469,59.308998107910156,59.308998107910156,59.308998107910156,1400.0,57.82543182373047
2017-06-22,59.27000045776367,59.25,59.27000045776367,59.25,500.0,57.76791000366211
2017-06-23,59.22100067138672,59.22100067138672,59.22100067138672,59.22100067138672,500.0,57.73963928222656
2017-06-26,59.61000061035156,59.439998626708984,59.61000061035156,59.459999084472656,1900.0,57.97265625
2017-06-27,59.45000076293945,59.4010009765625,59.439998626708984,59.4010009765625,2300.0,57.91513442993164
2017-06-28,59.89400100708008,59.89400100708008,59.89400100708008,59.89400100708008,900.0,58.39580535888672
2017-06-29,59.56999969482422,59.084999084472656,59.56999969482422,59.084999084472656,600.0,57.60704040527344
2017-06-30,59.03799819946289,59.0099983215332,59.0099983215332,59.03799819946289,400.0,57.56121063232422
2017-07-03,59.0260009765625,59.0260009765625,59.0260009765625,59.0260009765625,300.0,57.54951477050781
2017-07-05,59.013999938964844,58.99399948120117,59.013999938964844,58.99399948120117,1200.0,57.518314361572266
2017-07-06,58.72999954223633,58.72999954223633,58.72999954223633,58.72999954223633,300.0,57.26091766357422
2017-07-07,59.02899932861328,58.70000076293945,58.70000076293945,59.0099983215332,700.0,57.533912658691406
2017-07-10,59.18000030517578,59.15999984741211,59.15999984741211,59.18000030517578,400.0,57.69966125488281
2017-07-11,59.36000061035156,59.36000061035156,59.36000061035156,59.36000061035156,200.0,57.875160217285156
2017-07-12,60.09199905395508,60.0,60.0,60.06999969482422,1700.0,58.56740188598633
2017-07-13,60.130001068115234,59.93000030517578,60.09000015258789,60.130001068115234,1100.0,58.62589645385742
2017-07-14,60.130001068115234,60.130001068115234,60.130001068115234,60.130001068115234,0.0,58.62589645385742
2017-07-17,60.130001068115234,60.130001068115234,60.130001068115234,60.130001068115234,0.0,58.62589645385742
2017-07-18,60.130001068115234,60.130001068115234,60.130001068115234,60.130001068115234,0.0,58.62589645385742
2017-07-19,60.1879997253418,60.1879997253418,60.1879997253418,60.1879997253418,200.0,58.68244552612305
2017-07-20,60.5099983215332,60.46799850463867,60.5099983215332,60.4900016784668,2700.0,58.97689437866211
2017-07-21,59.790000915527344,59.7599983215332,59.779998779296875,59.78900146484375,2700.0,58.29343032836914
2017-07-24,59.709999084472656,59.47999954223633,59.47999954223633,59.709999084472656,1900.0,58.21640396118164
2017-07-25,59.98400115966797,59.71500015258789,59.98400115966797,59.71500015258789,500.0,58.22127914428711
2017-07-26,59.71500015258789,59.71500015258789,59.71500015258789,59.71500015258789,0.0,58.22127914428711
2017-07-27,59.79999923706055,59.79999923706055,59.79999923706055,59.79999923706055,100.0,58.30414962768555
2017-07-28,60.11000061035156,59.900001525878906,59.93000030517578,60.11000061035156,1600.0,58.60639572143555
2017-07-31,60.11000061035156,60.11000061035156,60.11000061035156,60.11000061035156,0.0,58.60639572143555
2017-08-01,61.0,60.91899871826172,60.91899871826172,61.0,8800.0,59.47413635253906
2017-08-02,61.11000061035156,61.11000061035156,61.11000061035156,61.11000061035156,200.0,59.58138656616211
2017-08-03,60.880001068115234,60.84600067138672,60.880001068115234,60.84600067138672,400.0,59.32398986816406
2017-08-04,60.9900016784668,60.9900016784668,60.9900016784668,60.9900016784668,500.0,59.46438980102539
2017-08-07,60.9900016784668,60.9900016784668,60.9900016784668,60.9900016784668,0.0,59.46438980102539
2017-08-08,60.90999984741211,60.65999984741211,60.90999984741211,60.65999984741211,1500.0,59.142642974853516
2017-08-09,60.24800109863281,60.24800109863281,60.24800109863281,60.24800109863281,400.0,58.74094772338867
2017-08-10,59.5,59.5,59.5,59.5,700.0,58.01165771484375
2017-08-11,59.75,59.75,59.75,59.75,200.0,58.25540542602539
2017-08-14,59.75,59.75,59.75,59.75,0.0,58.25540542602539
2017-08-15,60.349998474121094,60.349998474121094,60.349998474121094,60.349998474121094,600.0,58.84039306640625
2017-08-16,60.63999938964844,60.439998626708984,60.45000076293945,60.619998931884766,600.0,59.103641510009766
2017-08-17,60.369998931884766,60.369998931884766,60.369998931884766,60.369998931884766,300.0,58.859893798828125
2017-08-18,60.26499938964844,60.26499938964844,60.26499938964844,60.26499938964844,1500.0,58.75752258300781
2017-08-21,60.26499938964844,60.26499938964844,60.26499938964844,60.26499938964844,0.0,58.75752258300781
2017-08-22,60.540000915527344,60.41999816894531,60.41999816894531,60.540000915527344,500.0,59.02564239501953
2017-08-23,60.540000915527344,60.540000915527344,60.540000915527344,60.540000915527344,0.0,59.02564239501953
2017-08-24,60.65999984741211,60.52399826049805,60.65999984741211,60.52399826049805,1500.0,59.01004409790039
2017-08-25,60.52399826049805,60.52399826049805,60.52399826049805,60.52399826049805,0.0,59.01004409790039
2017-08-28,60.52399826049805,60.52399826049805,60.52399826049805,60.52399826049805,0.0,59.01004409790039
2017-08-29,60.327999114990234,60.327999114990234,60.327999114990234,60.327999114990234,300.0,58.818946838378906
2017-08-30,60.327999114990234,60.327999114990234,60.327999114990234,60.327999114990234,0.0,58.818946838378906
2017-08-31,60.327999114990234,60.327999114990234,60.327999114990234,60.327999114990234,0.0,58.818946838378906
2017-09-01,60.52000045776367,60.507999420166016,60.52000045776367,60.507999420166016,600.0,58.994441986083984
2017-09-05,60.65999984741211,60.65999984741211,60.65999984741211,60.65999984741211,500.0,59.142642974853516
2017-09-06,60.65999984741211,60.65999984741211,60.65999984741211,60.65999984741211,0.0,59.142642974853516
2017-09-07,61.63999938964844,61.63999938964844,61.63999938964844,61.63999938964844,600.0,60.09812545776367
2017-09-08,61.689998626708984,61.689998626708984,61.689998626708984,61.689998626708984,100.0,60.14687728881836
2017-09-11,62.47999954223633,62.44300079345703,62.47999954223633,62.459999084472656,2600.0,60.89761734008789
2017-09-12,62.4119987487793,62.29999923706055,62.29999923706055,62.4119987487793,300.0,60.85081481933594
2017-09-13,62.18000030517578,62.16999816894531,62.18000030517578,62.16999816894531,500.0,60.614864349365234
2017-09-14,62.41999816894531,62.21900177001953,62.21900177001953,62.41999816894531,3300.0,60.85861587524414
2017-09-15,62.41999816894531,62.41999816894531,62.41999816894531,62.41999816894531,0.0,60.85861587524414
2017-09-18,62.69900131225586,62.5099983215332,62.69900131225586,62.59000015258789,4700.0,61.02436447143555
2017-09-19,62.79999923706055,62.72999954223633,62.79999923706055,62.79999923706055,6200.0,61.22911071777344
2017-09-20,63.08000183105469,62.70199966430664,63.08000183105469,62.70199966430664,300.0,61.13356018066406
2017-09-21,62.768001556396484,62.768001556396484,62.768001556396484,62.768001556396484,300.0,61.19791030883789
2017-09-22,63.040000915527344,62.939998626708984,63.040000915527344,62.939998626708984,300.0,61.36560821533203
2017-09-25,62.68000030517578,62.46900177001953,62.68000030517578,62.46900177001953,1100.0,60.90639114379883
2017-09-26,62.189998626708984,62.14799880981445,62.14799880981445,62.189998626708984,400.0,60.63436508178711
2017-09-27,62.209999084472656,62.04999923706055,62.08000183105469,62.209999084472656,700.0,60.653865814208984
2017-09-28,62.209999084472656,62.209999084472656,62.209999084472656,62.209999084472656,0.0,60.653865814208984
2017-09-29,63.237998962402344,63.119998931884766,63.119998931884766,63.209999084472656,1200.0,61.62885284423828
2017-10-02,63.040000915527344,62.95000076293945,63.02000045776367,63.040000915527344,700.0,61.46310806274414
2017-10-03,63.26499938964844,63.22600173950195,63.26499938964844,63.22600173950195,500.0,61.64445495605469
2017-10-04,63.290000915527344,63.27799987792969,63.279998779296875,63.27799987792969,900.0,61.695152282714844
2017-10-05,63.18000030517578,63.150001525878906,63.18000030517578,63.150001525878906,500.0,61.57035827636719
2017-10-06,62.970001220703125,62.970001220703125,62.970001220703125,62.970001220703125,300.0,61.394859313964844
2017-10-09,63.2400016784668,63.2400016784668,63.2400016784668,63.2400016784668,200.0,61.658103942871094
2017-10-10,63.62799835205078,63.5,63.560001373291016,63.62799835205078,800.0,62.03639602661133
2017-10-11,64.0199966430664,64.0199966430664,64.0199966430664,64.0199966430664,400.0,62.4185905456543
2017-10-12,64.19999694824219,64.16400146484375,64.19999694824219,64.18000030517578,800.0,62.574588775634766
2017-10-13,64.29199981689453,64.29199981689453,64.29199981689453,64.29199981689453,300.0,62.68378829956055
2017-10-16,63.979000091552734,63.95800018310547,63.9739990234375,63.979000091552734,800.0,62.37861633300781
2017-10-17,63.77000045776367,63.77000045776367,63.77000045776367,63.77000045776367,200.0,62.17484664916992
2017-10-18,64.33000183105469,64.08000183105469,64.17900085449219,64.33000183105469,10200.0,62.72084045410156
2017-10-19,64.33000183105469,64.33000183105469,64.33000183105469,64.33000183105469,0.0,62.72084045410156
2017-10-20,63.858001708984375,63.810001373291016,63.858001708984375,63.81999969482422,800.0,62.22359848022461
2017-10-23,63.75,63.56700134277344,63.75,63.56700134277344,500.0,61.976924896240234
2017-10-24,63.93899917602539,63.79999923706055,63.79999923706055,63.89699935913086,1100.0,62.29867172241211
2017-10-25,64.01799774169922,63.900001525878906,64.01799774169922,63.900001525878906,500.0,62.30159378051758
2017-10-26,64.3489990234375,64.3489990234375,64.3489990234375,64.3489990234375,500.0,62.73936080932617
2017-10-27,64.25,64.25,64.25,64.25,100.0,62.64283752441406
2017-10-30,64.25,64.25,64.25,64.25,0.0,62.64283752441406
2017-10-31,64.95999908447266,64.69000244140625,64.69000244140625,64.95999908447266,2100.0,63.335079193115234
2017-11-01,65.37999725341797,65.11100006103516,65.37999725341797,65.30000305175781,21100.0,63.66657638549805
2017-11-02,65.37000274658203,65.33999633789062,65.33999633789062,65.33999633789062,400.0,63.705570220947266
2017-11-03,65.33999633789062,65.33999633789062,65.33999633789062,65.33999633789062,400.0,63.705570220947266
2017-11-06,65.11000061035156,65.09500122070312,65.11000061035156,65.09500122070312,500.0,63.466705322265625
2017-11-07,65.15299987792969,64.75,65.08000183105469,64.75,2100.0,63.130332946777344
2017-11-08,65.1500015258789,64.93000030517578,64.93000030517578,65.1500015258789,3000.0,63.520328521728516
2017-11-09,64.40499877929688,64.22000122070312,64.40499877929688,64.22000122070312,400.0,62.613590240478516
2017-11-10,64.44000244140625,64.30000305175781,64.30000305175781,64.43800354003906,2900.0,62.826141357421875
2017-11-13,64.20999908447266,63.68000030517578,63.68000030517578,64.17400360107422,1800.0,62.56874465942383
2017-11-14,64.17400360107422,64.17400360107422,64.17400360107422,64.17400360107422,0.0,62.56874465942383
2017-11-15,64.27999877929688,64.08000183105469,64.08000183105469,64.26000213623047,700.0,62.652591705322266
2017-11-16,64.71900177001953,64.58000183105469,64.58000183105469,64.69599914550781,1400.0,63.07768630981445
2017-11-17,64.54900360107422,64.54900360107422,64.54900360107422,64.54900360107422,300.0,62.934364318847656
2017-11-20,64.5999984741211,64.50900268554688,64.5999984741211,64.54000091552734,900.0,62.92558670043945
2017-11-21,65.11000061035156,65.08999633789062,65.08999633789062,65.11000061035156,600.0,63.48133087158203
2017-11-22,64.68800354003906,64.68599700927734,64.68599700927734,64.68800354003906,1800.0,63.069889068603516
2017-11-24,65.66000366210938,65.58000183105469,65.62999725341797,65.66000366210938,500.0,64.01757049560547
2017-11-27,65.20999908447266,65.20700073242188,65.20700073242188,65.20999908447266,600.0,63.57882308959961
2017-11-28,65.4800033569336,65.4749984741211,65.4749984741211,65.4800033569336,400.0,63.842079162597656
2017-11-29,65.43000030517578,65.36000061035156,65.43000030517578,65.36000061035156,4500.0,63.725074768066406
2017-11-30,65.98999786376953,65.68000030517578,65.91000366210938,65.73999786376953,1200.0,64.09556579589844
2017-12-01,65.20999908447266,65.19000244140625,65.19000244140625,65.19100189208984,1200.0,63.560302734375
2017-12-04,65.44999694824219,65.43399810791016,65.44999694824219,65.43399810791016,400.0,63.79722213745117
2017-12-05,65.0,65.0,65.0,65.0,400.0,63.374080657958984
2017-12-06,65.0250015258789,65.0250015258789,65.0250015258789,65.0250015258789,300.0,63.39845657348633
2017-12-07,65.19400024414062,65.19400024414062,65.19400024414062,65.19400024414062,200.0,63.563228607177734
2017-12-08,65.38400268554688,65.3499984741211,65.3499984741211,65.38400268554688,700.0,63.74847412109375
2017-12-11,65.29000091552734,65.25,65.29000091552734,65.25,1300.0,63.61782455444336
2017-12-12,65.0999984741211,65.05000305175781,65.0999984741211,65.05000305175781,300.0,63.42283248901367
2017-12-13,65.19000244140625,65.19000244140625,65.19000244140625,65.19000244140625,200.0,63.559326171875
2017-12-14,64.8499984741211,64.80000305175781,64.8499984741211,64.80000305175781,1500.0,63.17908477783203
2017-12-15,64.96199798583984,64.86000061035156,64.86000061035156,64.96199798583984,600.0,63.436885833740234
2017-12-18,64.96199798583984,64.96199798583984,64.96199798583984,64.96199798583984,0.0,63.436885833740234
2017-12-19,66.06999969482422,65.98999786376953,66.04000091552734,65.98999786376953,1200.0,64.44075012207031
2017-12-20,65.98999786376953,65.98999786376953,65.98999786376953,65.98999786376953,100.0,64.44075012207031
2017-12-21,65.44999694824219,65.44999694824219,65.44999694824219,65.44999694824219,500.0,63.91342544555664
2017-12-22,65.37000274658203,65.33999633789062,65.36900329589844,65.37000274658203,1200.0,63.83531188964844
2017-12-26,65.36000061035156,65.36000061035156,65.36000061035156,65.36000061035156,200.0,63.82554244995117
2017-12-27,65.56999969482422,65.56199645996094,65.56199645996094,65.56999969482422,200.0,64.03060913085938
2017-12-28,65.58000183105469,65.53900146484375,65.58000183105469,65.53900146484375,1100.0,64.0003433227539
2017-12-29,65.51000213623047,65.47000122070312,65.47000122070312,65.51000213623047,500.0,63.972023010253906
2018-01-02,65.51000213623047,65.51000213623047,65.51000213623047,65.51000213623047,0.0,63.972023010253906
2018-01-03,66.22000122070312,66.10900115966797,66.12999725341797,66.12999725341797,2300.0,64.57746124267578
2018-01-04,67.11499786376953,67.11499786376953,67.11499786376953,67.11499786376953,500.0,65.53933715820312
2018-01-05,67.82499694824219,67.82499694824219,67.82499694824219,67.82499694824219,200.0,66.232666015625
2018-01-08,67.58999633789062,67.5199966430664,67.58999633789062,67.5199966430664,700.0,65.93482971191406
2018-01-09,67.63500213623047,67.58999633789062,67.60299682617188,67.63500213623047,3300.0,66.04713439941406
2018-01-10,67.16999816894531,66.81999969482422,67.16999816894531,66.94999694824219,2700.0,65.37821197509766
2018-01-11,67.38899993896484,67.16000366210938,67.16000366210938,67.38899993896484,1600.0,65.8069076538086
2018-01-12,67.94499969482422,67.94499969482422,67.94499969482422,67.94499969482422,400.0,66.349853515625
2018-01-16,68.86499786376953,68.48999786376953,68.86499786376953,68.48999786376953,700.0,66.8820571899414
2018-01-17,68.7490005493164,68.37000274658203,68.37000274658203,68.7490005493164,600.0,67.13497924804688
2018-01-18,68.98999786376953,68.97000122070312,68.98999786376953,68.97000122070312,400.0,67.35079193115234
2018-01-19,68.97000122070312,68.97000122070312,68.97000122070312,68.97000122070312,0.0,67.35079193115234
2018-01-22,70.06999969482422,69.58599853515625,69.69000244140625,70.06999969482422,3100.0,68.42496490478516
2018-01-23,70.20099639892578,70.06999969482422,70.20099639892578,70.09100341796875,2100.0,68.44547271728516
2018-01-24,70.0,70.0,70.0,70.0,600.0,68.35660552978516
2018-01-25,70.01000213623047,69.79100036621094,69.98999786376953,69.79100036621094,4200.0,68.15251922607422
2018-01-26,69.75900268554688,69.69000244140625,69.69000244140625,69.75900268554688,200.0,68.12126922607422
2018-01-29,69.45500183105469,69.29000091552734,69.38999938964844,69.29000091552734,1000.0,67.66327667236328
2018-01-30,69.29000091552734,69.29000091552734,69.29000091552734,69.29000091552734,0.0,67.66327667236328
2018-01-31,69.2300033569336,69.2300033569336,69.2300033569336,69.2300033569336,300.0,67.60469055175781
2018-02-01,68.73500061035156,68.41000366210938,68.41000366210938,68.47000122070312,186500.0,66.86253356933594
2018-02-02,67.40699768066406,67.06999969482422,67.40699768066406,67.06999969482422,2000.0,65.49539947509766
2018-02-05,66.7699966430664,63.9900016784668,66.55999755859375,65.04000091552734,11000.0,63.51305389404297
2018-02-06,66.12000274658203,64.4800033569336,64.4800033569336,65.94999694824219,5900.0,64.40168762207031
2018-02-07,64.98999786376953,64.94000244140625,64.94000244140625,64.98999786376953,200.0,63.46422576904297
2018-02-08,63.88999938964844,63.16999816894531,63.88999938964844,63.16999816894531,1900.0,61.686954498291016
2018-02-09,62.36000061035156,62.36000061035156,62.36000061035156,62.36000061035156,200.0,60.895973205566406
2018-02-12,62.36000061035156,62.36000061035156,62.36000061035156,62.36000061035156,0.0,60.895973205566406
2018-02-13,64.5009994506836,64.39600372314453,64.39600372314453,64.5009994506836,500.0,62.98670959472656
2018-02-14,64.5009994506836,64.5009994506836,64.5009994506836,64.5009994506836,0.0,62.98670959472656
2018-02-15,64.5009994506836,64.5009994506836,64.5009994506836,64.5009994506836,0.0,62.98670959472656
2018-02-16,66.4000015258789,66.31999969482422,66.31999969482422,66.4000015258789,1300.0,64.84112548828125
2018-02-20,65.77799987792969,65.72000122070312,65.72000122070312,65.77799987792969,600.0,64.23372650146484
2018-02-21,65.77799987792969,65.77799987792969,65.77799987792969,65.77799987792969,0.0,64.23372650146484
2018-02-22,65.77799987792969,65.77799987792969,65.77799987792969,65.77799987792969,0.0,64.23372650146484
2018-02-23,65.86000061035156,65.83000183105469,65.83000183105469,65.86000061035156,500.0,64.31380462646484
2018-02-26,65.86000061035156,65.86000061035156,65.86000061035156,65.86000061035156,0.0,64.31380462646484
2018-02-27,65.86000061035156,65.86000061035156,65.86000061035156,65.86000061035156,0.0,64.31380462646484
2018-02-28,65.86000061035156,65.86000061035156,65.86000061035156,65.86000061035156,0.0,64.31380462646484
2018-03-01,63.849998474121094,63.849998474121094,63.849998474121094,63.849998474121094,200.0,62.350990295410156
2018-03-02,63.45000076293945,63.41999816894531,63.41999816894531,63.45000076293945,600.0,61.960384368896484
2018-03-05,63.45000076293945,63.45000076293945,63.45000076293945,63.45000076293945,0.0,61.960384368896484
2018-03-06,63.45000076293945,63.45000076293945,63.45000076293945,63.45000076293945,0.0,61.960384368896484
2018-03-07,65.12000274658203,65.12000274658203,65.12000274658203,65.12000274658203,100.0,63.59117889404297
2018-03-08,65.12000274658203,65.12000274658203,65.12000274658203,65.12000274658203,0.0,63.59117889404297
2018-03-09,65.12000274658203,65.12000274658203,65.12000274658203,65.12000274658203,0.0,63.59117889404297
2018-03-12,65.41500091552734,65.30699920654297,65.37999725341797,65.30699920654297,1100.0,63.77378463745117
2018-03-13,65.30699920654297,65.30699920654297,65.30699920654297,65.30699920654297,0.0,63.77378463745117
2018-03-14,64.81999969482422,64.76000213623047,64.7699966430664,64.76000213623047,600.0,63.23963165283203
2018-03-15,64.76000213623047,64.76000213623047,64.76000213623047,64.76000213623047,0.0,63.23963165283203
2018-03-16,64.76000213623047,64.76000213623047,64.76000213623047,64.76000213623047,0.0,63.23963165283203
2018-03-19,64.76000213623047,64.76000213623047,64.76000213623047,64.76000213623047,0.0,63.23963165283203
2018-03-20,64.63500213623047,64.61000061035156,64.61000061035156,64.63500213623047,600.0,63.1175651550293
2018-03-21,64.5999984741211,64.5999984741211,64.5999984741211,64.5999984741211,200.0,63.08338165283203
2018-03-22,64.5999984741211,64.5999984741211,64.5999984741211,64.5999984741211,0.0,63.08338165283203
2018-03-23,62.709999084472656,62.709999084472656,62.709999084472656,62.709999084472656,200.0,61.237754821777344
2018-03-26,63.58000183105469,63.02000045776367,63.02000045776367,63.58000183105469,3000.0,62.08733367919922
2018-03-27,63.58000183105469,63.58000183105469,63.58000183105469,63.58000183105469,100.0,62.08733367919922
2018-03-28,63.58000183105469,63.58000183105469,63.58000183105469,63.58000183105469,0.0,62.08733367919922
2018-03-29,64.22000122070312,64.16000366210938,64.22000122070312,64.16000366210938,500.0,62.653717041015625
2018-04-02,63.90999984741211,62.36000061035156,63.90999984741211,62.6510009765625,2100.0,61.18014144897461
2018-04-03,63.31999969482422,62.91999816894531,63.10900115966797,63.31999969482422,1600.0,61.83343505859375
2018-04-04,63.31999969482422,63.31999969482422,63.31999969482422,63.31999969482422,0.0,61.83343505859375
2018-04-05,63.31999969482422,63.31999969482422,63.31999969482422,63.31999969482422,0.0,61.83343505859375
2018-04-06,64.4000015258789,64.11000061035156,64.36000061035156,64.11000061035156,1200.0,62.604888916015625
2018-04-09,64.11000061035156,64.11000061035156,64.11000061035156,64.11000061035156,0.0,62.604888916015625
2018-04-10,65.32599639892578,65.0999984741211,65.32599639892578,65.0999984741211,900.0,63.5716438293457
2018-04-11,64.9229965209961,64.9229965209961,64.9229965209961,64.9229965209961,100.0,63.398799896240234
2018-04-12,64.9229965209961,64.9229965209961,64.9229965209961,64.9229965209961,0.0,63.398799896240234
2018-04-13,64.9229965209961,64.9229965209961,64.9229965209961,64.9229965209961,0.0,63.398799896240234
2018-04-16,64.9229965209961,64.9229965209961,64.9229965209961,64.9229965209961,0.0,63.398799896240234
2018-04-17,66.41000366210938,66.36000061035156,66.38999938964844,66.41000366210938,1000.0,64.85089111328125
2018-04-18,66.42500305175781,66.42500305175781,66.42500305175781,66.42500305175781,400.0,64.86553955078125
2018-04-19,66.4000015258789,66.4000015258789,66.4000015258789,66.4000015258789,400.0,64.84112548828125
2018-04-20,66.4000015258789,66.4000015258789,66.4000015258789,66.4000015258789,0.0,64.84112548828125
2018-04-23,65.55999755859375,65.55999755859375,65.55999755859375,65.55999755859375,200.0,64.02084350585938
2018-04-24,65.55999755859375,65.55999755859375,65.55999755859375,65.55999755859375,0.0,64.02084350585938
2018-04-25,64.37000274658203,64.05999755859375,64.05999755859375,64.37000274658203,500.0,62.858787536621094
2018-04-26,64.37000274658203,64.37000274658203,64.37000274658203,64.37000274658203,0.0,62.858787536621094
2018-04-27,64.37000274658203,64.37000274658203,64.37000274658203,64.37000274658203,0.0,62.858787536621094
2018-04-30,64.37000274658203,64.37000274658203,64.37000274658203,64.37000274658203,0.0,62.858787536621094
2018-05-01,64.37000274658203,64.37000274658203,64.37000274658203,64.37000274658203,0.0,62.858787536621094
2018-05-02,64.37000274658203,64.37000274658203,64.37000274658203,64.37000274658203,0.0,62.858787536621094
2018-05-03,64.37000274658203,64.37000274658203,64.37000274658203,64.37000274658203,0.0,62.858787536621094
2018-05-04,64.56999969482422,64.56999969482422,64.56999969482422,64.56999969482422,300.0,63.0540885925293
2018-05-07,64.56999969482422,64.56999969482422,64.56999969482422,64.56999969482422,0.0,63.0540885925293
2018-05-08,64.56999969482422,64.56999969482422,64.56999969482422,64.56999969482422,0.0,63.0540885925293
2018-05-09,64.56999969482422,64.56999969482422,64.56999969482422,64.56999969482422,0.0,63.0540885925293
2018-05-10,65.68000030517578,65.68000030517578,65.68000030517578,65.68000030517578,300.0,64.13803100585938
2018-05-11,65.68000030517578,65.68000030517578,65.68000030517578,65.68000030517578,0.0,64.13803100585938
2018-05-14,65.77100372314453,65.52799987792969,65.75,65.52799987792969,400.0,63.98959732055664
2018-05-15,65.16999816894531,65.16999816894531,65.16999816894531,65.16999816894531,800.0,63.63999938964844
2018-05-16,65.16999816894531,65.16999816894531,65.16999816894531,65.16999816894531,0.0,63.63999938964844
2018-05-17,65.16999816894531,65.16999816894531,65.16999816894531,65.16999816894531,0.0,63.63999938964844
2018-05-18,65.29000091552734,65.29000091552734,65.29000091552734,65.29000091552734,200.0,63.75718688964844
2018-05-21,65.29000091552734,65.29000091552734,65.29000091552734,65.29000091552734,0.0,63.75718688964844
2018-05-22,65.29000091552734,65.29000091552734,65.29000091552734,65.29000091552734,0.0,63.75718688964844
2018-05-23,65.29000091552734,65.29000091552734,65.29000091552734,65.29000091552734,0.0,63.75718688964844
2018-05-24,63.9900016784668,63.952999114990234,63.952999114990234,63.983001708984375,500.0,62.480873107910156
2018-05-25,63.983001708984375,63.983001708984375,63.983001708984375,63.983001708984375,0.0,62.480873107910156
2018-05-29,62.400001525878906,62.400001525878906,62.400001525878906,62.400001525878906,400.0,60.935035705566406
2018-05-30,62.400001525878906,62.400001525878906,62.400001525878906,62.400001525878906,0.0,60.935035705566406
2018-05-31,62.869998931884766,62.869998931884766,62.869998931884766,62.869998931884766,200.0,61.39399719238281
2018-06-01,61.757999420166016,61.619998931884766,61.757999420166016,61.66999816894531,1300.0,61.66999816894531
2018-06-04,61.66999816894531,61.66999816894531,61.66999816894531,61.66999816894531,0.0,61.66999816894531
2018-06-05,61.66999816894531,61.66999816894531,61.66999816894531,61.66999816894531,0.0,61.66999816894531
2018-06-06,62.66299819946289,62.52000045776367,62.52000045776367,62.66299819946289,700.0,62.66299819946289
2018-06-07,62.66999816894531,62.22800064086914,62.66999816894531,62.27000045776367,600.0,62.27000045776367
2018-06-08,62.27000045776367,62.27000045776367,62.27000045776367,62.27000045776367,0.0,62.27000045776367
2018-06-11,62.560001373291016,62.560001373291016,62.560001373291016,62.560001373291016,300.0,62.560001373291016
2018-06-12,62.560001373291016,62.560001373291016,62.560001373291016,62.560001373291016,0.0,62.560001373291016
2018-06-13,62.560001373291016,62.560001373291016,62.560001373291016,62.560001373291016,0.0,62.560001373291016
2018-06-14,62.939998626708984,62.939998626708984,62.939998626708984,62.939998626708984,200.0,62.939998626708984
2018-06-15,62.63999938964844,62.63999938964844,62.63999938964844,62.63999938964844,300.0,62.63999938964844
2018-06-18,61.5099983215332,61.5099983215332,61.5099983215332,61.5099983215332,200.0,61.5099983215332
2018-06-19,60.619998931884766,60.619998931884766,60.619998931884766,60.619998931884766,100.0,60.619998931884766
2018-06-20,61.130001068115234,61.130001068115234,61.130001068115234,61.130001068115234,200.0,61.130001068115234
2018-06-21,60.31100082397461,60.310001373291016,60.31100082397461,60.310001373291016,500.0,60.310001373291016
2018-06-22,60.709999084472656,60.709999084472656,60.709999084472656,60.709999084472656,500.0,60.709999084472656
2018-06-25,59.540000915527344,59.400001525878906,59.47100067138672,59.53499984741211,5100.0,59.53499984741211
2018-06-26,59.59199905395508,59.55500030517578,59.59199905395508,59.55500030517578,500.0,59.55500030517578
2018-06-27,59.55500030517578,59.55500030517578,59.55500030517578,59.55500030517578,0.0,59.55500030517578
2018-06-28,58.68899917602539,57.43000030517578,58.47999954223633,58.68899917602539,900.0,58.68899917602539
2018-06-29,59.55500030517578,59.47999954223633,59.55500030517578,59.47999954223633,500.0,59.47999954223633
2018-07-02,59.47999954223633,59.47999954223633,59.47999954223633,59.47999954223633,100.0,59.47999954223633
2018-07-03,59.560001373291016,59.560001373291016,59.560001373291016,59.560001373291016,300.0,59.560001373291016
2018-07-05,59.560001373291016,59.560001373291016,59.560001373291016,59.560001373291016,0.0,59.560001373291016
2018-07-06,59.560001373291016,59.560001373291016,59.560001373291016,59.560001373291016,0.0,59.560001373291016
2018-07-09,60.85200119018555,60.810001373291016,60.810001373291016,60.85200119018555,900.0,60.85200119018555
2018-07-10,60.85200119018555,60.85200119018555,60.85200119018555,60.85200119018555,0.0,60.85200119018555
2018-07-11,60.85200119018555,60.85200119018555,60.85200119018555,60.85200119018555,0.0,60.85200119018555
2018-07-12,60.85200119018555,60.85200119018555,60.85200119018555,60.85200119018555,0.0,60.85200119018555
2018-07-13,60.85200119018555,60.85200119018555,60.85200119018555,60.85200119018555,0.0,60.85200119018555
2018-07-16,61.0,61.0,61.0,61.0,1000.0,61.0
2018-07-17,61.0,61.0,61.0,61.0,0.0,61.0
2018-07-18,61.0,61.0,61.0,61.0,0.0,61.0
2018-07-19,61.0,61.0,61.0,61.0,0.0,61.0
2018-07-20,61.0,61.0,61.0,61.0,0.0,61.0
2018-07-23,61.0,61.0,61.0,61.0,0.0,61.0
2018-07-24,61.81999969482422,61.81999969482422,61.81999969482422,61.81999969482422,200.0,61.81999969482422
2018-07-25,61.4900016784668,61.4739990234375,61.4900016784668,61.4739990234375,400.0,61.4739990234375
2018-07-26,61.91999816894531,61.91999816894531,61.91999816894531,61.91999816894531,300.0,61.91999816894531
2018-07-27,62.150001525878906,62.11000061035156,62.150001525878906,62.11000061035156,500.0,62.11000061035156
2018-07-30,62.11000061035156,62.11000061035156,62.11000061035156,62.11000061035156,0.0,62.11000061035156
2018-07-31,62.38999938964844,62.38999938964844,62.38999938964844,62.38999938964844,1000.0,62.38999938964844
2018-08-01,62.38999938964844,62.38999938964844,62.38999938964844,62.38999938964844,0.0,62.38999938964844
2018-08-02,62.38999938964844,62.38999938964844,62.38999938964844,62.38999938964844,0.0,62.38999938964844
2018-08-03,62.38999938964844,62.38999938964844,62.38999938964844,62.38999938964844,0.0,62.38999938964844
2018-08-06,61.01900100708008,61.01900100708008,61.01900100708008,61.01900100708008,300.0,61.01900100708008
2018-08-07,61.01900100708008,61.01900100708008,61.01900100708008,61.01900100708008,0.0,61.01900100708008
2018-08-08,61.01900100708008,61.01900100708008,61.01900100708008,61.01900100708008,0.0,61.01900100708008
2018-08-09,61.01900100708008,61.01900100708008,61.01900100708008,61.01900100708008,0.0,61.01900100708008
2018-08-10,59.62099838256836,59.547000885009766,59.547000885009766,59.62099838256836,400.0,59.62099838256836
2018-08-13,59.720001220703125,59.720001220703125,59.720001220703125,59.720001220703125,200.0,59.720001220703125
2018-08-14,59.720001220703125,59.720001220703125,59.720001220703125,59.720001220703125,0.0,59.720001220703125
2018-08-15,58.380001068115234,58.380001068115234,58.380001068115234,58.380001068115234,200.0,58.380001068115234
2018-08-16,58.77000045776367,58.77000045776367,58.77000045776367,58.77000045776367,200.0,58.77000045776367
2018-08-17,58.77000045776367,58.77000045776367,58.77000045776367,58.77000045776367,0.0,58.77000045776367
2018-08-20,58.77000045776367,58.77000045776367,58.77000045776367,58.77000045776367,0.0,58.77000045776367
2018-08-21,61.0,60.77799987792969,61.0,60.8489990234375,600.0,60.8489990234375
2018-08-22,60.90999984741211,60.84199905395508,60.84199905395508,60.90999984741211,800.0,60.90999984741211
2018-08-23,60.90999984741211,60.90999984741211,60.90999984741211,60.90999984741211,0.0,60.90999984741211
2018-08-24,61.14899826049805,60.81999969482422,60.81999969482422,61.14899826049805,700.0,61.14899826049805
2018-08-27,61.14899826049805,61.14899826049805,61.14899826049805,61.14899826049805,0.0,61.14899826049805
2018-08-28,61.14899826049805,61.14899826049805,61.14899826049805,61.14899826049805,0.0,61.14899826049805
2018-08-29,61.14899826049805,61.14899826049805,61.14899826049805,61.14899826049805,0.0,61.14899826049805
2018-08-30,61.14899826049805,61.14899826049805,61.14899826049805,61.14899826049805,0.0,61.14899826049805
2018-08-31,61.14899826049805,61.14899826049805,61.14899826049805,61.14899826049805,0.0,61.14899826049805
2018-09-04,60.029998779296875,60.029998779296875,60.029998779296875,60.029998779296875,100.0,60.029998779296875
2018-09-05,60.040000915527344,59.75,60.040000915527344,59.775001525878906,1500.0,59.775001525878906
2018-09-06,59.775001525878906,59.775001525878906,59.775001525878906,59.775001525878906,0.0,59.775001525878906
2018-09-07,59.775001525878906,59.775001525878906,59.775001525878906,59.775001525878906,0.0,59.775001525878906
2018-09-10,59.775001525878906,59.775001525878906,59.775001525878906,59.775001525878906,0.0,59.775001525878906
2018-09-11,59.775001525878906,59.775001525878906,59.775001525878906,59.775001525878906,0.0,59.775001525878906
2018-09-12,59.779998779296875,59.779998779296875,59.779998779296875,59.779998779296875,700.0,59.779998779296875
2018-09-13,60.07500076293945,60.07500076293945,60.07500076293945,60.07500076293945,300.0,60.07500076293945
2018-09-14,60.07500076293945,60.07500076293945,60.07500076293945,60.07500076293945,0.0,60.07500076293945
2018-09-17,60.07500076293945,60.07500076293945,60.07500076293945,60.07500076293945,0.0,60.07500076293945
2018-09-18,60.074798583984375,60.074798583984375,60.074798583984375,60.074798583984375,0.0,60.074798583984375
2018-09-19,60.074798583984375,60.074798583984375,60.074798583984375,60.074798583984375,0.0,60.074798583984375
2018-09-20,60.074798583984375,60.074798583984375,60.074798583984375,60.074798583984375,0.0,60.074798583984375
2018-09-21,60.074798583984375,60.074798583984375,60.074798583984375,60.074798583984375,0.0,60.074798583984375
