Date,High,Low,Open,Close,Volume,Adj Close
2015-01-05,6.76800012588501,6.76800012588501,6.76800012588501,6.76800012588501,0.0,6.76800012588501
2015-01-06,6.76800012588501,6.76800012588501,6.76800012588501,6.76800012588501,0.0,6.76800012588501
2015-01-07,6.76800012588501,6.76800012588501,6.76800012588501,6.76800012588501,0.0,6.76800012588501
2015-01-08,6.76800012588501,6.76800012588501,6.76800012588501,6.76800012588501,0.0,6.76800012588501
2015-01-09,6.76800012588501,6.76800012588501,6.76800012588501,6.76800012588501,0.0,6.76800012588501
2015-03-17,6.289999961853027,6.289999961853027,6.289999961853027,6.289999961853027,0.0,6.289999961853027
2015-03-18,6.289999961853027,6.289999961853027,6.289999961853027,6.289999961853027,0.0,6.289999961853027
2015-03-19,6.289999961853027,6.289999961853027,6.289999961853027,6.289999961853027,0.0,6.289999961853027
2015-03-20,6.289999961853027,6.289999961853027,6.289999961853027,6.289999961853027,0.0,6.289999961853027
2015-03-23,6.289999961853027,6.289999961853027,6.289999961853027,6.289999961853027,266.0,6.289999961853027
2015-03-24,6.289999961853027,6.289999961853027,6.289999961853027,6.289999961853027,0.0,6.289999961853027
2015-03-25,6.289999961853027,6.289999961853027,6.289999961853027,6.289999961853027,0.0,6.289999961853027
2015-03-26,6.289999961853027,6.289999961853027,6.289999961853027,6.289999961853027,0.0,6.289999961853027
2015-03-27,6.289999961853027,6.289999961853027,6.289999961853027,6.289999961853027,0.0,6.289999961853027
2015-03-30,6.289999961853027,6.289999961853027,6.289999961853027,6.289999961853027,0.0,6.289999961853027
2015-03-31,6.289999961853027,6.289999961853027,6.289999961853027,6.289999961853027,0.0,6.289999961853027
2015-04-01,6.289999961853027,6.289999961853027,6.289999961853027,6.289999961853027,0.0,6.289999961853027
2015-04-02,6.289999961853027,6.289999961853027,6.289999961853027,6.289999961853027,0.0,6.289999961853027
2015-04-06,6.289999961853027,6.289999961853027,6.289999961853027,6.289999961853027,0.0,6.289999961853027
2015-04-07,6.289999961853027,6.289999961853027,6.289999961853027,6.289999961853027,0.0,6.289999961853027
2015-04-08,6.289999961853027,6.289999961853027,6.289999961853027,6.289999961853027,0.0,6.289999961853027
2015-04-09,6.289999961853027,6.289999961853027,6.289999961853027,6.289999961853027,0.0,6.289999961853027
2015-04-10,6.289999961853027,6.289999961853027,6.289999961853027,6.289999961853027,0.0,6.289999961853027
2015-04-13,6.289999961853027,6.289999961853027,6.289999961853027,6.289999961853027,0.0,6.289999961853027
2015-04-14,6.289999961853027,6.289999961853027,6.289999961853027,6.289999961853027,0.0,6.289999961853027
2015-04-15,6.289999961853027,6.289999961853027,6.289999961853027,6.289999961853027,0.0,6.289999961853027
2015-04-16,6.289999961853027,6.289999961853027,6.289999961853027,6.289999961853027,0.0,6.289999961853027
2015-04-17,6.289999961853027,6.289999961853027,6.289999961853027,6.289999961853027,0.0,6.289999961853027
2015-04-20,6.289999961853027,6.289999961853027,6.289999961853027,6.289999961853027,0.0,6.289999961853027
2015-04-21,6.289999961853027,6.289999961853027,6.289999961853027,6.289999961853027,0.0,6.289999961853027
2015-04-22,6.289999961853027,6.289999961853027,6.289999961853027,6.289999961853027,0.0,6.289999961853027
2015-04-23,6.289999961853027,6.289999961853027,6.289999961853027,6.289999961853027,0.0,6.289999961853027
2015-04-24,6.289999961853027,6.289999961853027,6.289999961853027,6.289999961853027,0.0,6.289999961853027
2015-04-27,6.289999961853027,6.289999961853027,6.289999961853027,6.289999961853027,0.0,6.289999961853027
2015-04-28,6.289999961853027,6.289999961853027,6.289999961853027,6.289999961853027,0.0,6.289999961853027
2015-04-29,6.289999961853027,6.289999961853027,6.289999961853027,6.289999961853027,0.0,6.289999961853027
2015-04-30,6.289999961853027,6.289999961853027,6.289999961853027,6.289999961853027,0.0,6.289999961853027
2015-05-01,6.289999961853027,6.289999961853027,6.289999961853027,6.289999961853027,0.0,6.289999961853027
2015-05-04,6.289999961853027,6.289999961853027,6.289999961853027,6.289999961853027,0.0,6.289999961853027
2015-05-05,6.289999961853027,6.289999961853027,6.289999961853027,6.289999961853027,0.0,6.289999961853027
2015-05-06,6.289999961853027,6.289999961853027,6.289999961853027,6.289999961853027,0.0,6.289999961853027
2015-05-07,6.289999961853027,6.289999961853027,6.289999961853027,6.289999961853027,0.0,6.289999961853027
2015-05-08,6.289999961853027,6.289999961853027,6.289999961853027,6.289999961853027,0.0,6.289999961853027
2015-05-11,6.289999961853027,6.289999961853027,6.289999961853027,6.289999961853027,0.0,6.289999961853027
2015-05-12,6.289999961853027,6.289999961853027,6.289999961853027,6.289999961853027,0.0,6.289999961853027
2015-05-13,6.289999961853027,6.289999961853027,6.289999961853027,6.289999961853027,0.0,6.289999961853027
2015-05-14,6.289999961853027,6.289999961853027,6.289999961853027,6.289999961853027,0.0,6.289999961853027
2015-05-15,6.289999961853027,6.289999961853027,6.289999961853027,6.289999961853027,0.0,6.289999961853027
2015-05-18,6.289999961853027,6.289999961853027,6.289999961853027,6.289999961853027,0.0,6.289999961853027
2015-05-19,6.289999961853027,6.289999961853027,6.289999961853027,6.289999961853027,0.0,6.289999961853027
2015-05-20,6.289999961853027,6.289999961853027,6.289999961853027,6.289999961853027,0.0,6.289999961853027
2015-05-21,6.289999961853027,6.289999961853027,6.289999961853027,6.289999961853027,0.0,6.289999961853027
2015-05-22,6.289999961853027,6.289999961853027,6.289999961853027,6.289999961853027,0.0,6.289999961853027
2015-05-26,6.289999961853027,6.289999961853027,6.289999961853027,6.289999961853027,0.0,6.289999961853027
2015-05-27,6.289999961853027,6.289999961853027,6.289999961853027,6.289999961853027,0.0,6.289999961853027
2015-05-28,6.289999961853027,6.289999961853027,6.289999961853027,6.289999961853027,0.0,6.289999961853027
2015-05-29,6.289999961853027,6.289999961853027,6.289999961853027,6.289999961853027,0.0,6.289999961853027
2015-06-01,6.289999961853027,6.289999961853027,6.289999961853027,6.289999961853027,0.0,6.289999961853027
2015-06-02,6.289999961853027,6.289999961853027,6.289999961853027,6.289999961853027,0.0,6.289999961853027
2015-06-03,6.289999961853027,6.289999961853027,6.289999961853027,6.289999961853027,0.0,6.289999961853027
2015-06-04,6.289999961853027,6.289999961853027,6.289999961853027,6.289999961853027,0.0,6.289999961853027
2015-06-05,6.289999961853027,6.289999961853027,6.289999961853027,6.289999961853027,0.0,6.289999961853027
2015-06-08,6.289999961853027,6.289999961853027,6.289999961853027,6.289999961853027,0.0,6.289999961853027
2015-06-09,6.289999961853027,6.289999961853027,6.289999961853027,6.289999961853027,0.0,6.289999961853027
2015-06-10,6.289999961853027,6.289999961853027,6.289999961853027,6.289999961853027,0.0,6.289999961853027
2015-06-11,6.289999961853027,6.289999961853027,6.289999961853027,6.289999961853027,0.0,6.289999961853027
2015-06-12,6.289999961853027,6.289999961853027,6.289999961853027,6.289999961853027,0.0,6.289999961853027
2015-06-15,6.289999961853027,6.289999961853027,6.289999961853027,6.289999961853027,0.0,6.289999961853027
2015-06-16,6.289999961853027,6.289999961853027,6.289999961853027,6.289999961853027,0.0,6.289999961853027
2015-06-17,6.289999961853027,6.289999961853027,6.289999961853027,6.289999961853027,0.0,6.289999961853027
2015-06-18,6.289999961853027,6.289999961853027,6.289999961853027,6.289999961853027,0.0,6.289999961853027
2015-06-19,6.289999961853027,6.289999961853027,6.289999961853027,6.289999961853027,0.0,6.289999961853027
2015-06-22,6.289999961853027,6.289999961853027,6.289999961853027,6.289999961853027,0.0,6.289999961853027
2015-06-23,6.289999961853027,6.289999961853027,6.289999961853027,6.289999961853027,0.0,6.289999961853027
2015-06-24,6.289999961853027,6.289999961853027,6.289999961853027,6.289999961853027,0.0,6.289999961853027
2015-06-25,6.289999961853027,6.289999961853027,6.289999961853027,6.289999961853027,0.0,6.289999961853027
2015-06-26,6.289999961853027,6.289999961853027,6.289999961853027,6.289999961853027,0.0,6.289999961853027
2015-06-29,6.289999961853027,6.289999961853027,6.289999961853027,6.289999961853027,0.0,6.289999961853027
2015-06-30,6.289999961853027,6.289999961853027,6.289999961853027,6.289999961853027,0.0,6.289999961853027
2015-07-01,6.289999961853027,6.289999961853027,6.289999961853027,6.289999961853027,0.0,6.289999961853027
2015-07-02,6.289999961853027,6.289999961853027,6.289999961853027,6.289999961853027,0.0,6.289999961853027
2015-07-06,6.289999961853027,6.289999961853027,6.289999961853027,6.289999961853027,0.0,6.289999961853027
2015-07-07,6.289999961853027,6.289999961853027,6.289999961853027,6.289999961853027,0.0,6.289999961853027
2015-07-08,6.289999961853027,6.289999961853027,6.289999961853027,6.289999961853027,0.0,6.289999961853027
2015-07-09,6.289999961853027,6.289999961853027,6.289999961853027,6.289999961853027,0.0,6.289999961853027
2015-07-10,6.289999961853027,6.289999961853027,6.289999961853027,6.289999961853027,0.0,6.289999961853027
2015-07-13,6.289999961853027,6.289999961853027,6.289999961853027,6.289999961853027,0.0,6.289999961853027
2015-07-14,6.289999961853027,6.289999961853027,6.289999961853027,6.289999961853027,0.0,6.289999961853027
2015-07-15,6.289999961853027,6.289999961853027,6.289999961853027,6.289999961853027,0.0,6.289999961853027
2015-07-16,6.289999961853027,6.289999961853027,6.289999961853027,6.289999961853027,0.0,6.289999961853027
2015-07-17,6.289999961853027,6.289999961853027,6.289999961853027,6.289999961853027,0.0,6.289999961853027
2015-07-20,6.289999961853027,6.289999961853027,6.289999961853027,6.289999961853027,0.0,6.289999961853027
2015-07-21,6.289999961853027,6.289999961853027,6.289999961853027,6.289999961853027,0.0,6.289999961853027
2015-07-22,6.289999961853027,6.289999961853027,6.289999961853027,6.289999961853027,0.0,6.289999961853027
2015-07-23,6.289999961853027,6.289999961853027,6.289999961853027,6.289999961853027,0.0,6.289999961853027
2015-07-24,6.289999961853027,6.289999961853027,6.289999961853027,6.289999961853027,0.0,6.289999961853027
2015-07-27,6.289999961853027,6.289999961853027,6.289999961853027,6.289999961853027,0.0,6.289999961853027
2015-07-28,6.289999961853027,6.289999961853027,6.289999961853027,6.289999961853027,0.0,6.289999961853027
2015-07-29,6.289999961853027,6.289999961853027,6.289999961853027,6.289999961853027,0.0,6.289999961853027
2015-07-30,6.289999961853027,6.289999961853027,6.289999961853027,6.289999961853027,0.0,6.289999961853027
2015-07-31,6.289999961853027,6.289999961853027,6.289999961853027,6.289999961853027,0.0,6.289999961853027
2015-08-03,6.289999961853027,6.289999961853027,6.289999961853027,6.289999961853027,0.0,6.289999961853027
2015-08-04,6.289999961853027,6.289999961853027,6.289999961853027,6.289999961853027,0.0,6.289999961853027
2015-08-05,6.289999961853027,6.289999961853027,6.289999961853027,6.289999961853027,0.0,6.289999961853027
2015-08-06,6.289999961853027,6.289999961853027,6.289999961853027,6.289999961853027,0.0,6.289999961853027
2015-08-07,6.289999961853027,6.289999961853027,6.289999961853027,6.289999961853027,0.0,6.289999961853027
2015-08-10,6.289999961853027,6.289999961853027,6.289999961853027,6.289999961853027,0.0,6.289999961853027
2015-08-11,6.289999961853027,6.289999961853027,6.289999961853027,6.289999961853027,0.0,6.289999961853027
2015-08-12,6.289999961853027,6.289999961853027,6.289999961853027,6.289999961853027,0.0,6.289999961853027
2015-08-13,6.289999961853027,6.289999961853027,6.289999961853027,6.289999961853027,0.0,6.289999961853027
2015-08-14,6.289999961853027,6.289999961853027,6.289999961853027,6.289999961853027,0.0,6.289999961853027
2015-08-17,6.289999961853027,6.289999961853027,6.289999961853027,6.289999961853027,0.0,6.289999961853027
2015-08-18,6.289999961853027,6.289999961853027,6.289999961853027,6.289999961853027,0.0,6.289999961853027
2015-08-19,6.289999961853027,6.289999961853027,6.289999961853027,6.289999961853027,0.0,6.289999961853027
2015-08-20,6.289999961853027,6.289999961853027,6.289999961853027,6.289999961853027,0.0,6.289999961853027
2015-08-21,6.289999961853027,6.289999961853027,6.289999961853027,6.289999961853027,0.0,6.289999961853027
2015-08-24,6.289999961853027,6.289999961853027,6.289999961853027,6.289999961853027,0.0,6.289999961853027
2015-08-25,6.289999961853027,6.289999961853027,6.289999961853027,6.289999961853027,0.0,6.289999961853027
2015-08-26,6.289999961853027,6.289999961853027,6.289999961853027,6.289999961853027,0.0,6.289999961853027
2015-08-27,6.289999961853027,6.289999961853027,6.289999961853027,6.289999961853027,0.0,6.289999961853027
2015-08-28,6.289999961853027,6.289999961853027,6.289999961853027,6.289999961853027,0.0,6.289999961853027
2015-08-31,6.289999961853027,6.289999961853027,6.289999961853027,6.289999961853027,0.0,6.289999961853027
2015-09-01,6.289999961853027,6.289999961853027,6.289999961853027,6.289999961853027,0.0,6.289999961853027
2015-09-02,6.289999961853027,6.289999961853027,6.289999961853027,6.289999961853027,0.0,6.289999961853027
2015-09-03,6.289999961853027,6.289999961853027,6.289999961853027,6.289999961853027,0.0,6.289999961853027
2015-09-04,6.289999961853027,6.289999961853027,6.289999961853027,6.289999961853027,0.0,6.289999961853027
2015-09-08,6.289999961853027,6.289999961853027,6.289999961853027,6.289999961853027,0.0,6.289999961853027
2015-09-09,6.289999961853027,6.289999961853027,6.289999961853027,6.289999961853027,0.0,6.289999961853027
2015-09-10,6.289999961853027,6.289999961853027,6.289999961853027,6.289999961853027,0.0,6.289999961853027
2015-09-11,6.289999961853027,6.289999961853027,6.289999961853027,6.289999961853027,0.0,6.289999961853027
2015-09-14,6.289999961853027,6.289999961853027,6.289999961853027,6.289999961853027,0.0,6.289999961853027
2015-09-15,6.289999961853027,6.289999961853027,6.289999961853027,6.289999961853027,0.0,6.289999961853027
2015-09-16,6.289999961853027,6.289999961853027,6.289999961853027,6.289999961853027,0.0,6.289999961853027
2015-09-17,6.289999961853027,6.289999961853027,6.289999961853027,6.289999961853027,0.0,6.289999961853027
2015-09-18,6.289999961853027,6.289999961853027,6.289999961853027,6.289999961853027,0.0,6.289999961853027
2015-09-21,6.289999961853027,6.289999961853027,6.289999961853027,6.289999961853027,0.0,6.289999961853027
2015-09-22,6.289999961853027,6.289999961853027,6.289999961853027,6.289999961853027,0.0,6.289999961853027
2015-09-23,6.289999961853027,6.289999961853027,6.289999961853027,6.289999961853027,0.0,6.289999961853027
2015-09-24,6.289999961853027,6.289999961853027,6.289999961853027,6.289999961853027,0.0,6.289999961853027
2015-09-25,6.289999961853027,6.289999961853027,6.289999961853027,6.289999961853027,0.0,6.289999961853027
2015-09-28,6.289999961853027,6.289999961853027,6.289999961853027,6.289999961853027,0.0,6.289999961853027
2015-09-29,6.289999961853027,6.289999961853027,6.289999961853027,6.289999961853027,0.0,6.289999961853027
2015-09-30,6.289999961853027,6.289999961853027,6.289999961853027,6.289999961853027,0.0,6.289999961853027
2015-10-01,6.289999961853027,6.289999961853027,6.289999961853027,6.289999961853027,0.0,6.289999961853027
2015-10-02,6.289999961853027,6.289999961853027,6.289999961853027,6.289999961853027,0.0,6.289999961853027
2015-10-05,6.289999961853027,6.289999961853027,6.289999961853027,6.289999961853027,0.0,6.289999961853027
2015-10-06,6.289999961853027,6.289999961853027,6.289999961853027,6.289999961853027,0.0,6.289999961853027
2015-10-07,6.289999961853027,6.289999961853027,6.289999961853027,6.289999961853027,0.0,6.289999961853027
2015-10-08,6.289999961853027,6.289999961853027,6.289999961853027,6.289999961853027,0.0,6.289999961853027
2015-10-09,6.289999961853027,6.289999961853027,6.289999961853027,6.289999961853027,0.0,6.289999961853027
2015-10-12,6.289999961853027,6.289999961853027,6.289999961853027,6.289999961853027,0.0,6.289999961853027
2015-10-13,6.289999961853027,6.289999961853027,6.289999961853027,6.289999961853027,0.0,6.289999961853027
2015-10-14,6.289999961853027,6.289999961853027,6.289999961853027,6.289999961853027,0.0,6.289999961853027
2015-10-15,6.289999961853027,6.289999961853027,6.289999961853027,6.289999961853027,0.0,6.289999961853027
2015-10-16,6.289999961853027,6.289999961853027,6.289999961853027,6.289999961853027,0.0,6.289999961853027
2015-10-19,6.289999961853027,6.289999961853027,6.289999961853027,6.289999961853027,0.0,6.289999961853027
2015-10-20,6.289999961853027,6.289999961853027,6.289999961853027,6.289999961853027,0.0,6.289999961853027
2015-10-21,6.289999961853027,6.289999961853027,6.289999961853027,6.289999961853027,0.0,6.289999961853027
2015-10-22,6.289999961853027,6.289999961853027,6.289999961853027,6.289999961853027,0.0,6.289999961853027
2015-10-23,6.289999961853027,6.289999961853027,6.289999961853027,6.289999961853027,0.0,6.289999961853027
2015-10-26,6.289999961853027,6.289999961853027,6.289999961853027,6.289999961853027,0.0,6.289999961853027
2015-10-27,6.289999961853027,6.289999961853027,6.289999961853027,6.289999961853027,0.0,6.289999961853027
2015-10-28,6.289999961853027,6.289999961853027,6.289999961853027,6.289999961853027,0.0,6.289999961853027
2015-10-29,6.289999961853027,6.289999961853027,6.289999961853027,6.289999961853027,0.0,6.289999961853027
2015-10-30,6.289999961853027,6.289999961853027,6.289999961853027,6.289999961853027,0.0,6.289999961853027
2015-11-02,6.289999961853027,6.289999961853027,6.289999961853027,6.289999961853027,0.0,6.289999961853027
2015-11-03,6.289999961853027,6.289999961853027,6.289999961853027,6.289999961853027,0.0,6.289999961853027
2015-11-04,6.289999961853027,6.289999961853027,6.289999961853027,6.289999961853027,0.0,6.289999961853027
2015-11-05,6.289999961853027,6.289999961853027,6.289999961853027,6.289999961853027,0.0,6.289999961853027
2015-11-06,6.289999961853027,6.289999961853027,6.289999961853027,6.289999961853027,0.0,6.289999961853027
2015-11-09,6.289999961853027,6.289999961853027,6.289999961853027,6.289999961853027,0.0,6.289999961853027
2015-11-10,6.289999961853027,6.289999961853027,6.289999961853027,6.289999961853027,0.0,6.289999961853027
2015-11-11,6.289999961853027,6.289999961853027,6.289999961853027,6.289999961853027,0.0,6.289999961853027
2015-11-12,6.289999961853027,6.289999961853027,6.289999961853027,6.289999961853027,0.0,6.289999961853027
2015-11-13,6.289999961853027,6.289999961853027,6.289999961853027,6.289999961853027,0.0,6.289999961853027
2015-11-16,6.289999961853027,6.289999961853027,6.289999961853027,6.289999961853027,0.0,6.289999961853027
2015-11-18,6.289999961853027,6.289999961853027,6.289999961853027,6.289999961853027,0.0,6.289999961853027
2015-11-19,6.289999961853027,6.289999961853027,6.289999961853027,6.289999961853027,0.0,6.289999961853027
2015-11-20,6.289999961853027,6.289999961853027,6.289999961853027,6.289999961853027,0.0,6.289999961853027
2015-11-23,6.289999961853027,6.289999961853027,6.289999961853027,6.289999961853027,0.0,6.289999961853027
2015-11-24,6.289999961853027,6.289999961853027,6.289999961853027,6.289999961853027,0.0,6.289999961853027
2015-11-25,6.289999961853027,6.289999961853027,6.289999961853027,6.289999961853027,0.0,6.289999961853027
2015-11-27,6.289999961853027,6.289999961853027,6.289999961853027,6.289999961853027,0.0,6.289999961853027
2015-11-30,6.289999961853027,6.289999961853027,6.289999961853027,6.289999961853027,0.0,6.289999961853027
2015-12-01,6.289999961853027,6.289999961853027,6.289999961853027,6.289999961853027,0.0,6.289999961853027
2015-12-02,6.289999961853027,6.289999961853027,6.289999961853027,6.289999961853027,0.0,6.289999961853027
2015-12-03,6.289999961853027,6.289999961853027,6.289999961853027,6.289999961853027,0.0,6.289999961853027
2015-12-04,6.289999961853027,6.289999961853027,6.289999961853027,6.289999961853027,0.0,6.289999961853027
2015-12-07,6.289999961853027,6.289999961853027,6.289999961853027,6.289999961853027,0.0,6.289999961853027
2015-12-08,6.289999961853027,6.289999961853027,6.289999961853027,6.289999961853027,0.0,6.289999961853027
2015-12-09,6.289999961853027,6.289999961853027,6.289999961853027,6.289999961853027,0.0,6.289999961853027
2015-12-10,6.289999961853027,6.289999961853027,6.289999961853027,6.289999961853027,0.0,6.289999961853027
2015-12-11,6.289999961853027,6.289999961853027,6.289999961853027,6.289999961853027,0.0,6.289999961853027
2015-12-14,6.289999961853027,6.289999961853027,6.289999961853027,6.289999961853027,0.0,6.289999961853027
2015-12-15,6.289999961853027,6.289999961853027,6.289999961853027,6.289999961853027,0.0,6.289999961853027
2015-12-16,6.289999961853027,6.289999961853027,6.289999961853027,6.289999961853027,0.0,6.289999961853027
2015-12-17,6.289999961853027,6.289999961853027,6.289999961853027,6.289999961853027,0.0,6.289999961853027
2015-12-18,6.289999961853027,6.289999961853027,6.289999961853027,6.289999961853027,0.0,6.289999961853027
2015-12-21,6.289999961853027,6.289999961853027,6.289999961853027,6.289999961853027,0.0,6.289999961853027
2015-12-22,6.289999961853027,6.289999961853027,6.289999961853027,6.289999961853027,0.0,6.289999961853027
2015-12-23,6.289999961853027,6.289999961853027,6.289999961853027,6.289999961853027,0.0,6.289999961853027
2015-12-24,6.289999961853027,6.289999961853027,6.289999961853027,6.289999961853027,0.0,6.289999961853027
2015-12-28,6.289999961853027,6.289999961853027,6.289999961853027,6.289999961853027,0.0,6.289999961853027
2015-12-29,6.289999961853027,6.289999961853027,6.289999961853027,6.289999961853027,0.0,6.289999961853027
2015-12-30,6.289999961853027,6.289999961853027,6.289999961853027,6.289999961853027,0.0,6.289999961853027
2015-12-31,6.289999961853027,6.289999961853027,6.289999961853027,6.289999961853027,0.0,6.289999961853027
2016-01-04,6.289999961853027,6.289999961853027,6.289999961853027,6.289999961853027,0.0,6.289999961853027
2016-01-05,6.289999961853027,6.289999961853027,6.289999961853027,6.289999961853027,0.0,6.289999961853027
2016-01-06,6.289999961853027,6.289999961853027,6.289999961853027,6.289999961853027,0.0,6.289999961853027
2016-01-07,6.289999961853027,6.289999961853027,6.289999961853027,6.289999961853027,0.0,6.289999961853027
2016-01-08,6.289999961853027,6.289999961853027,6.289999961853027,6.289999961853027,0.0,6.289999961853027
2016-01-11,6.289999961853027,6.289999961853027,6.289999961853027,6.289999961853027,0.0,6.289999961853027
2016-01-12,6.289999961853027,6.289999961853027,6.289999961853027,6.289999961853027,0.0,6.289999961853027
2016-01-13,6.289999961853027,6.289999961853027,6.289999961853027,6.289999961853027,0.0,6.289999961853027
2016-01-14,6.289999961853027,6.289999961853027,6.289999961853027,6.289999961853027,0.0,6.289999961853027
2016-01-15,6.289999961853027,6.289999961853027,6.289999961853027,6.289999961853027,0.0,6.289999961853027
2016-01-19,6.289999961853027,6.289999961853027,6.289999961853027,6.289999961853027,0.0,6.289999961853027
2016-01-20,6.289999961853027,6.289999961853027,6.289999961853027,6.289999961853027,0.0,6.289999961853027
2016-01-21,6.289999961853027,6.289999961853027,6.289999961853027,6.289999961853027,0.0,6.289999961853027
2016-01-22,6.289999961853027,6.289999961853027,6.289999961853027,6.289999961853027,0.0,6.289999961853027
2016-01-25,6.289999961853027,6.289999961853027,6.289999961853027,6.289999961853027,0.0,6.289999961853027
2016-01-26,6.289999961853027,6.289999961853027,6.289999961853027,6.289999961853027,0.0,6.289999961853027
2016-01-27,6.289999961853027,6.289999961853027,6.289999961853027,6.289999961853027,0.0,6.289999961853027
2016-01-28,6.289999961853027,6.289999961853027,6.289999961853027,6.289999961853027,0.0,6.289999961853027
2016-01-29,6.289999961853027,6.289999961853027,6.289999961853027,6.289999961853027,0.0,6.289999961853027
2016-02-01,6.289999961853027,6.289999961853027,6.289999961853027,6.289999961853027,0.0,6.289999961853027
2016-02-02,6.289999961853027,6.289999961853027,6.289999961853027,6.289999961853027,0.0,6.289999961853027
2016-02-03,6.289999961853027,6.289999961853027,6.289999961853027,6.289999961853027,0.0,6.289999961853027
2016-02-04,6.289999961853027,6.289999961853027,6.289999961853027,6.289999961853027,0.0,6.289999961853027
2016-02-05,6.289999961853027,6.289999961853027,6.289999961853027,6.289999961853027,0.0,6.289999961853027
2016-02-08,6.289999961853027,6.289999961853027,6.289999961853027,6.289999961853027,0.0,6.289999961853027
2016-02-09,6.289999961853027,6.289999961853027,6.289999961853027,6.289999961853027,0.0,6.289999961853027
2016-02-10,6.289999961853027,6.289999961853027,6.289999961853027,6.289999961853027,0.0,6.289999961853027
2016-02-11,6.289999961853027,6.289999961853027,6.289999961853027,6.289999961853027,0.0,6.289999961853027
2016-02-12,6.289999961853027,6.289999961853027,6.289999961853027,6.289999961853027,0.0,6.289999961853027
2016-02-16,6.289999961853027,6.289999961853027,6.289999961853027,6.289999961853027,0.0,6.289999961853027
2016-02-17,6.289999961853027,6.289999961853027,6.289999961853027,6.289999961853027,0.0,6.289999961853027
2016-02-18,6.289999961853027,6.289999961853027,6.289999961853027,6.289999961853027,0.0,6.289999961853027
2016-02-19,6.289999961853027,6.289999961853027,6.289999961853027,6.289999961853027,0.0,6.289999961853027
2016-02-22,6.289999961853027,6.289999961853027,6.289999961853027,6.289999961853027,0.0,6.289999961853027
2016-02-23,6.289999961853027,6.289999961853027,6.289999961853027,6.289999961853027,0.0,6.289999961853027
2016-02-24,6.289999961853027,6.289999961853027,6.289999961853027,6.289999961853027,0.0,6.289999961853027
2016-02-25,6.289999961853027,6.289999961853027,6.289999961853027,6.289999961853027,0.0,6.289999961853027
2016-02-26,6.289999961853027,6.289999961853027,6.289999961853027,6.289999961853027,0.0,6.289999961853027
2016-02-29,6.289999961853027,6.289999961853027,6.289999961853027,6.289999961853027,0.0,6.289999961853027
2016-03-01,6.289999961853027,6.289999961853027,6.289999961853027,6.289999961853027,0.0,6.289999961853027
2016-03-02,6.289999961853027,6.289999961853027,6.289999961853027,6.289999961853027,0.0,6.289999961853027
2016-03-03,6.289999961853027,6.289999961853027,6.289999961853027,6.289999961853027,0.0,6.289999961853027
2016-03-04,6.289999961853027,6.289999961853027,6.289999961853027,6.289999961853027,0.0,6.289999961853027
2016-03-07,6.289999961853027,6.289999961853027,6.289999961853027,6.289999961853027,0.0,6.289999961853027
2016-03-08,6.289999961853027,6.289999961853027,6.289999961853027,6.289999961853027,0.0,6.289999961853027
2016-03-09,6.289999961853027,6.289999961853027,6.289999961853027,6.289999961853027,0.0,6.289999961853027
2016-03-10,6.289999961853027,6.289999961853027,6.289999961853027,6.289999961853027,0.0,6.289999961853027
2016-03-11,6.289999961853027,6.289999961853027,6.289999961853027,6.289999961853027,0.0,6.289999961853027
2016-03-14,6.289999961853027,6.289999961853027,6.289999961853027,6.289999961853027,0.0,6.289999961853027
2016-03-15,6.289999961853027,6.289999961853027,6.289999961853027,6.289999961853027,0.0,6.289999961853027
2016-03-16,6.289999961853027,6.289999961853027,6.289999961853027,6.289999961853027,0.0,6.289999961853027
2016-03-17,6.289999961853027,6.289999961853027,6.289999961853027,6.289999961853027,0.0,6.289999961853027
2016-03-18,6.289999961853027,6.289999961853027,6.289999961853027,6.289999961853027,0.0,6.289999961853027
2016-03-21,6.289999961853027,6.289999961853027,6.289999961853027,6.289999961853027,0.0,6.289999961853027
2016-03-22,6.289999961853027,6.289999961853027,6.289999961853027,6.289999961853027,0.0,6.289999961853027
2016-03-23,6.289999961853027,6.289999961853027,6.289999961853027,6.289999961853027,0.0,6.289999961853027
2016-03-24,6.289999961853027,6.289999961853027,6.289999961853027,6.289999961853027,0.0,6.289999961853027
2016-03-28,6.289999961853027,6.289999961853027,6.289999961853027,6.289999961853027,0.0,6.289999961853027
2016-03-29,6.289999961853027,6.289999961853027,6.289999961853027,6.289999961853027,0.0,6.289999961853027
2016-03-30,6.289999961853027,6.289999961853027,6.289999961853027,6.289999961853027,0.0,6.289999961853027
2016-03-31,6.289999961853027,6.289999961853027,6.289999961853027,6.289999961853027,0.0,6.289999961853027
2016-04-01,6.289999961853027,6.289999961853027,6.289999961853027,6.289999961853027,0.0,6.289999961853027
2016-04-04,6.289999961853027,6.289999961853027,6.289999961853027,6.289999961853027,0.0,6.289999961853027
2016-04-05,6.289999961853027,6.289999961853027,6.289999961853027,6.289999961853027,0.0,6.289999961853027
2016-04-06,6.289999961853027,6.289999961853027,6.289999961853027,6.289999961853027,0.0,6.289999961853027
2016-04-07,6.289999961853027,6.289999961853027,6.289999961853027,6.289999961853027,0.0,6.289999961853027
2016-04-08,6.289999961853027,6.289999961853027,6.289999961853027,6.289999961853027,0.0,6.289999961853027
2016-04-11,6.289999961853027,6.289999961853027,6.289999961853027,6.289999961853027,0.0,6.289999961853027
2016-04-12,6.289999961853027,6.289999961853027,6.289999961853027,6.289999961853027,0.0,6.289999961853027
2016-04-13,6.289999961853027,6.289999961853027,6.289999961853027,6.289999961853027,0.0,6.289999961853027
2016-04-14,6.289999961853027,6.289999961853027,6.289999961853027,6.289999961853027,0.0,6.289999961853027
2016-04-15,6.289999961853027,6.289999961853027,6.289999961853027,6.289999961853027,0.0,6.289999961853027
2016-04-18,6.289999961853027,6.289999961853027,6.289999961853027,6.289999961853027,0.0,6.289999961853027
2016-04-19,6.289999961853027,6.289999961853027,6.289999961853027,6.289999961853027,0.0,6.289999961853027
2016-04-20,6.289999961853027,6.289999961853027,6.289999961853027,6.289999961853027,0.0,6.289999961853027
2016-04-21,6.289999961853027,6.289999961853027,6.289999961853027,6.289999961853027,0.0,6.289999961853027
2016-04-22,6.289999961853027,6.289999961853027,6.289999961853027,6.289999961853027,0.0,6.289999961853027
2016-04-25,6.289999961853027,6.289999961853027,6.289999961853027,6.289999961853027,0.0,6.289999961853027
2016-04-26,6.289999961853027,6.289999961853027,6.289999961853027,6.289999961853027,0.0,6.289999961853027
2016-04-27,6.289999961853027,6.289999961853027,6.289999961853027,6.289999961853027,0.0,6.289999961853027
2016-04-28,6.289999961853027,6.289999961853027,6.289999961853027,6.289999961853027,0.0,6.289999961853027
2016-04-29,6.289999961853027,6.289999961853027,6.289999961853027,6.289999961853027,0.0,6.289999961853027
2016-05-02,6.289999961853027,6.289999961853027,6.289999961853027,6.289999961853027,0.0,6.289999961853027
2016-05-03,6.289999961853027,6.289999961853027,6.289999961853027,6.289999961853027,0.0,6.289999961853027
2016-05-04,6.289999961853027,6.289999961853027,6.289999961853027,6.289999961853027,0.0,6.289999961853027
2016-05-05,6.289999961853027,6.289999961853027,6.289999961853027,6.289999961853027,0.0,6.289999961853027
2016-05-06,6.289999961853027,6.289999961853027,6.289999961853027,6.289999961853027,0.0,6.289999961853027
2016-05-09,6.289999961853027,6.289999961853027,6.289999961853027,6.289999961853027,0.0,6.289999961853027
2016-05-10,6.289999961853027,6.289999961853027,6.289999961853027,6.289999961853027,0.0,6.289999961853027
2016-05-11,6.289999961853027,6.289999961853027,6.289999961853027,6.289999961853027,0.0,6.289999961853027
2016-05-12,6.289999961853027,6.289999961853027,6.289999961853027,6.289999961853027,0.0,6.289999961853027
2016-05-13,6.289999961853027,6.289999961853027,6.289999961853027,6.289999961853027,0.0,6.289999961853027
2016-05-16,6.289999961853027,6.289999961853027,6.289999961853027,6.289999961853027,0.0,6.289999961853027
2016-05-17,6.289999961853027,6.289999961853027,6.289999961853027,6.289999961853027,0.0,6.289999961853027
2016-05-18,6.289999961853027,6.289999961853027,6.289999961853027,6.289999961853027,0.0,6.289999961853027
2016-05-19,6.289999961853027,6.289999961853027,6.289999961853027,6.289999961853027,0.0,6.289999961853027
2016-05-20,6.289999961853027,6.289999961853027,6.289999961853027,6.289999961853027,0.0,6.289999961853027
2016-05-23,6.289999961853027,6.289999961853027,6.289999961853027,6.289999961853027,0.0,6.289999961853027
2016-05-24,6.289999961853027,6.289999961853027,6.289999961853027,6.289999961853027,0.0,6.289999961853027
2016-05-25,6.289999961853027,6.289999961853027,6.289999961853027,6.289999961853027,0.0,6.289999961853027
2016-05-26,6.289999961853027,6.289999961853027,6.289999961853027,6.289999961853027,0.0,6.289999961853027
2016-05-27,6.289999961853027,6.289999961853027,6.289999961853027,6.289999961853027,0.0,6.289999961853027
2016-05-31,6.289999961853027,6.289999961853027,6.289999961853027,6.289999961853027,0.0,6.289999961853027
2016-06-01,6.289999961853027,6.289999961853027,6.289999961853027,6.289999961853027,0.0,6.289999961853027
2016-06-02,6.289999961853027,6.289999961853027,6.289999961853027,6.289999961853027,0.0,6.289999961853027
2016-06-03,6.289999961853027,6.289999961853027,6.289999961853027,6.289999961853027,0.0,6.289999961853027
2016-06-06,6.289999961853027,6.289999961853027,6.289999961853027,6.289999961853027,0.0,6.289999961853027
2016-06-07,6.289999961853027,6.289999961853027,6.289999961853027,6.289999961853027,0.0,6.289999961853027
2016-06-08,6.289999961853027,6.289999961853027,6.289999961853027,6.289999961853027,0.0,6.289999961853027
2016-06-09,6.289999961853027,6.289999961853027,6.289999961853027,6.289999961853027,0.0,6.289999961853027
2016-06-10,6.289999961853027,6.289999961853027,6.289999961853027,6.289999961853027,0.0,6.289999961853027
2016-06-13,6.289999961853027,6.289999961853027,6.289999961853027,6.289999961853027,0.0,6.289999961853027
2016-06-14,6.289999961853027,6.289999961853027,6.289999961853027,6.289999961853027,0.0,6.289999961853027
2016-06-15,6.289999961853027,6.289999961853027,6.289999961853027,6.289999961853027,0.0,6.289999961853027
2016-06-16,6.289999961853027,6.289999961853027,6.289999961853027,6.289999961853027,0.0,6.289999961853027
2016-06-17,6.289999961853027,6.289999961853027,6.289999961853027,6.289999961853027,0.0,6.289999961853027
2016-06-20,6.289999961853027,6.289999961853027,6.289999961853027,6.289999961853027,0.0,6.289999961853027
2016-06-21,6.289999961853027,6.289999961853027,6.289999961853027,6.289999961853027,0.0,6.289999961853027
2016-06-22,6.289999961853027,6.289999961853027,6.289999961853027,6.289999961853027,0.0,6.289999961853027
2016-06-23,6.289999961853027,6.289999961853027,6.289999961853027,6.289999961853027,0.0,6.289999961853027
2016-06-24,6.289999961853027,6.289999961853027,6.289999961853027,6.289999961853027,0.0,6.289999961853027
2016-06-27,6.289999961853027,6.289999961853027,6.289999961853027,6.289999961853027,0.0,6.289999961853027
2016-06-28,6.289999961853027,6.289999961853027,6.289999961853027,6.289999961853027,0.0,6.289999961853027
2016-06-29,6.289999961853027,6.289999961853027,6.289999961853027,6.289999961853027,0.0,6.289999961853027
2016-06-30,6.289999961853027,6.289999961853027,6.289999961853027,6.289999961853027,0.0,6.289999961853027
2016-07-01,6.289999961853027,6.289999961853027,6.289999961853027,6.289999961853027,0.0,6.289999961853027
2016-07-05,6.289999961853027,6.289999961853027,6.289999961853027,6.289999961853027,0.0,6.289999961853027
2016-07-06,6.289999961853027,6.289999961853027,6.289999961853027,6.289999961853027,0.0,6.289999961853027
2016-07-07,6.289999961853027,6.289999961853027,6.289999961853027,6.289999961853027,0.0,6.289999961853027
2016-07-08,6.289999961853027,6.289999961853027,6.289999961853027,6.289999961853027,0.0,6.289999961853027
2016-07-11,6.289999961853027,6.289999961853027,6.289999961853027,6.289999961853027,0.0,6.289999961853027
2016-07-12,6.289999961853027,6.289999961853027,6.289999961853027,6.289999961853027,0.0,6.289999961853027
2016-07-13,6.289999961853027,6.289999961853027,6.289999961853027,6.289999961853027,0.0,6.289999961853027
2016-07-14,6.289999961853027,6.289999961853027,6.289999961853027,6.289999961853027,0.0,6.289999961853027
2016-07-15,6.289999961853027,6.289999961853027,6.289999961853027,6.289999961853027,0.0,6.289999961853027
2016-07-18,6.289999961853027,6.289999961853027,6.289999961853027,6.289999961853027,0.0,6.289999961853027
2016-07-19,6.289999961853027,6.289999961853027,6.289999961853027,6.289999961853027,0.0,6.289999961853027
2016-07-20,6.289999961853027,6.289999961853027,6.289999961853027,6.289999961853027,0.0,6.289999961853027
2016-07-21,6.289999961853027,6.289999961853027,6.289999961853027,6.289999961853027,0.0,6.289999961853027
2016-07-22,6.289999961853027,6.289999961853027,6.289999961853027,6.289999961853027,0.0,6.289999961853027
2016-07-25,6.289999961853027,6.289999961853027,6.289999961853027,6.289999961853027,0.0,6.289999961853027
2016-07-26,6.289999961853027,6.289999961853027,6.289999961853027,6.289999961853027,0.0,6.289999961853027
2016-07-27,6.289999961853027,6.289999961853027,6.289999961853027,6.289999961853027,0.0,6.289999961853027
2016-07-28,6.289999961853027,6.289999961853027,6.289999961853027,6.289999961853027,0.0,6.289999961853027
2016-07-29,6.289999961853027,6.289999961853027,6.289999961853027,6.289999961853027,0.0,6.289999961853027
2016-08-01,6.289999961853027,6.289999961853027,6.289999961853027,6.289999961853027,0.0,6.289999961853027
2016-08-02,6.289999961853027,6.289999961853027,6.289999961853027,6.289999961853027,0.0,6.289999961853027
2016-08-03,6.289999961853027,6.289999961853027,6.289999961853027,6.289999961853027,0.0,6.289999961853027
2016-08-04,6.289999961853027,6.289999961853027,6.289999961853027,6.289999961853027,0.0,6.289999961853027
2016-08-05,6.289999961853027,6.289999961853027,6.289999961853027,6.289999961853027,0.0,6.289999961853027
2016-08-08,6.289999961853027,6.289999961853027,6.289999961853027,6.289999961853027,0.0,6.289999961853027
2016-08-09,6.289999961853027,6.289999961853027,6.289999961853027,6.289999961853027,0.0,6.289999961853027
2016-08-10,6.289999961853027,6.289999961853027,6.289999961853027,6.289999961853027,0.0,6.289999961853027
2016-08-11,6.289999961853027,6.289999961853027,6.289999961853027,6.289999961853027,0.0,6.289999961853027
2016-08-12,6.289999961853027,6.289999961853027,6.289999961853027,6.289999961853027,0.0,6.289999961853027
2016-08-15,6.289999961853027,6.289999961853027,6.289999961853027,6.289999961853027,0.0,6.289999961853027
2016-08-16,6.289999961853027,6.289999961853027,6.289999961853027,6.289999961853027,0.0,6.289999961853027
2016-08-17,6.289999961853027,6.289999961853027,6.289999961853027,6.289999961853027,0.0,6.289999961853027
2016-08-18,6.289999961853027,6.289999961853027,6.289999961853027,6.289999961853027,0.0,6.289999961853027
2016-08-19,6.289999961853027,6.289999961853027,6.289999961853027,6.289999961853027,0.0,6.289999961853027
2016-08-22,6.289999961853027,6.289999961853027,6.289999961853027,6.289999961853027,0.0,6.289999961853027
2016-08-23,6.289999961853027,6.289999961853027,6.289999961853027,6.289999961853027,0.0,6.289999961853027
2016-08-24,6.289999961853027,6.289999961853027,6.289999961853027,6.289999961853027,0.0,6.289999961853027
2016-08-25,6.289999961853027,6.289999961853027,6.289999961853027,6.289999961853027,0.0,6.289999961853027
2016-08-26,6.289999961853027,6.289999961853027,6.289999961853027,6.289999961853027,0.0,6.289999961853027
2016-08-29,6.289999961853027,6.289999961853027,6.289999961853027,6.289999961853027,0.0,6.289999961853027
2016-08-30,6.289999961853027,6.289999961853027,6.289999961853027,6.289999961853027,0.0,6.289999961853027
2016-08-31,6.289999961853027,6.289999961853027,6.289999961853027,6.289999961853027,0.0,6.289999961853027
2016-09-01,6.289999961853027,6.289999961853027,6.289999961853027,6.289999961853027,0.0,6.289999961853027
2016-09-02,6.289999961853027,6.289999961853027,6.289999961853027,6.289999961853027,0.0,6.289999961853027
2016-09-06,6.289999961853027,6.289999961853027,6.289999961853027,6.289999961853027,0.0,6.289999961853027
2016-09-07,6.289999961853027,6.289999961853027,6.289999961853027,6.289999961853027,0.0,6.289999961853027
2016-09-08,6.289999961853027,6.289999961853027,6.289999961853027,6.289999961853027,0.0,6.289999961853027
2016-09-09,6.289999961853027,6.289999961853027,6.289999961853027,6.289999961853027,0.0,6.289999961853027
2016-09-12,6.289999961853027,6.289999961853027,6.289999961853027,6.289999961853027,0.0,6.289999961853027
2016-09-13,6.289999961853027,6.289999961853027,6.289999961853027,6.289999961853027,0.0,6.289999961853027
2016-09-14,6.289999961853027,6.289999961853027,6.289999961853027,6.289999961853027,0.0,6.289999961853027
2016-09-15,6.289999961853027,6.289999961853027,6.289999961853027,6.289999961853027,0.0,6.289999961853027
2016-09-16,6.289999961853027,6.289999961853027,6.289999961853027,6.289999961853027,0.0,6.289999961853027
2016-09-19,6.289999961853027,6.289999961853027,6.289999961853027,6.289999961853027,0.0,6.289999961853027
2016-09-20,6.289999961853027,6.289999961853027,6.289999961853027,6.289999961853027,0.0,6.289999961853027
2016-09-21,6.289999961853027,6.289999961853027,6.289999961853027,6.289999961853027,0.0,6.289999961853027
2016-09-22,6.289999961853027,6.289999961853027,6.289999961853027,6.289999961853027,0.0,6.289999961853027
2016-09-23,6.289999961853027,6.289999961853027,6.289999961853027,6.289999961853027,0.0,6.289999961853027
2016-09-26,6.289999961853027,6.289999961853027,6.289999961853027,6.289999961853027,0.0,6.289999961853027
2016-09-27,6.289999961853027,6.289999961853027,6.289999961853027,6.289999961853027,0.0,6.289999961853027
2016-09-28,6.289999961853027,6.289999961853027,6.289999961853027,6.289999961853027,0.0,6.289999961853027
2016-09-29,6.289999961853027,6.289999961853027,6.289999961853027,6.289999961853027,0.0,6.289999961853027
2016-09-30,6.289999961853027,6.289999961853027,6.289999961853027,6.289999961853027,0.0,6.289999961853027
2016-10-03,6.289999961853027,6.289999961853027,6.289999961853027,6.289999961853027,0.0,6.289999961853027
2016-10-04,6.289999961853027,6.289999961853027,6.289999961853027,6.289999961853027,0.0,6.289999961853027
2016-10-05,6.289999961853027,6.289999961853027,6.289999961853027,6.289999961853027,0.0,6.289999961853027
2016-10-06,6.289999961853027,6.289999961853027,6.289999961853027,6.289999961853027,0.0,6.289999961853027
2016-10-07,6.289999961853027,6.289999961853027,6.289999961853027,6.289999961853027,0.0,6.289999961853027
2016-10-10,6.289999961853027,6.289999961853027,6.289999961853027,6.289999961853027,0.0,6.289999961853027
2016-10-11,6.289999961853027,6.289999961853027,6.289999961853027,6.289999961853027,0.0,6.289999961853027
2016-10-12,6.289999961853027,6.289999961853027,6.289999961853027,6.289999961853027,0.0,6.289999961853027
2016-10-13,6.289999961853027,6.289999961853027,6.289999961853027,6.289999961853027,0.0,6.289999961853027
2016-10-14,6.289999961853027,6.289999961853027,6.289999961853027,6.289999961853027,0.0,6.289999961853027
2016-10-17,6.289999961853027,6.289999961853027,6.289999961853027,6.289999961853027,0.0,6.289999961853027
2016-10-18,6.289999961853027,6.289999961853027,6.289999961853027,6.289999961853027,0.0,6.289999961853027
2016-10-19,6.289999961853027,6.289999961853027,6.289999961853027,6.289999961853027,0.0,6.289999961853027
2016-10-20,6.289999961853027,6.289999961853027,6.289999961853027,6.289999961853027,0.0,6.289999961853027
2016-10-21,6.289999961853027,6.289999961853027,6.289999961853027,6.289999961853027,0.0,6.289999961853027
2016-10-24,6.289999961853027,6.289999961853027,6.289999961853027,6.289999961853027,0.0,6.289999961853027
2016-10-25,6.289999961853027,6.289999961853027,6.289999961853027,6.289999961853027,0.0,6.289999961853027
2016-10-26,6.289999961853027,6.289999961853027,6.289999961853027,6.289999961853027,0.0,6.289999961853027
2016-10-27,6.289999961853027,6.289999961853027,6.289999961853027,6.289999961853027,0.0,6.289999961853027
2016-10-28,6.289999961853027,6.289999961853027,6.289999961853027,6.289999961853027,0.0,6.289999961853027
2016-10-31,6.289999961853027,6.289999961853027,6.289999961853027,6.289999961853027,0.0,6.289999961853027
2016-11-01,6.289999961853027,6.289999961853027,6.289999961853027,6.289999961853027,0.0,6.289999961853027
2016-11-02,6.289999961853027,6.289999961853027,6.289999961853027,6.289999961853027,0.0,6.289999961853027
2016-11-03,6.289999961853027,6.289999961853027,6.289999961853027,6.289999961853027,0.0,6.289999961853027
2016-11-04,6.289999961853027,6.289999961853027,6.289999961853027,6.289999961853027,0.0,6.289999961853027
2016-11-07,6.289999961853027,6.289999961853027,6.289999961853027,6.289999961853027,0.0,6.289999961853027
2016-11-08,6.289999961853027,6.289999961853027,6.289999961853027,6.289999961853027,0.0,6.289999961853027
2016-11-09,6.289999961853027,6.289999961853027,6.289999961853027,6.289999961853027,0.0,6.289999961853027
2016-11-10,6.289999961853027,6.289999961853027,6.289999961853027,6.289999961853027,0.0,6.289999961853027
2016-11-11,6.289999961853027,6.289999961853027,6.289999961853027,6.289999961853027,0.0,6.289999961853027
2016-11-14,6.289999961853027,6.289999961853027,6.289999961853027,6.289999961853027,0.0,6.289999961853027
2016-11-15,6.289999961853027,6.289999961853027,6.289999961853027,6.289999961853027,0.0,6.289999961853027
2016-11-16,6.289999961853027,6.289999961853027,6.289999961853027,6.289999961853027,0.0,6.289999961853027
2016-11-17,6.289999961853027,6.289999961853027,6.289999961853027,6.289999961853027,0.0,6.289999961853027
2016-11-18,6.289999961853027,6.289999961853027,6.289999961853027,6.289999961853027,0.0,6.289999961853027
2016-11-21,6.289999961853027,6.289999961853027,6.289999961853027,6.289999961853027,0.0,6.289999961853027
2016-11-22,6.289999961853027,6.289999961853027,6.289999961853027,6.289999961853027,0.0,6.289999961853027
2016-11-23,6.289999961853027,6.289999961853027,6.289999961853027,6.289999961853027,0.0,6.289999961853027
2016-11-25,6.289999961853027,6.289999961853027,6.289999961853027,6.289999961853027,0.0,6.289999961853027
2016-11-28,6.289999961853027,6.289999961853027,6.289999961853027,6.289999961853027,0.0,6.289999961853027
2016-11-29,6.289999961853027,6.289999961853027,6.289999961853027,6.289999961853027,0.0,6.289999961853027
2016-11-30,6.289999961853027,6.289999961853027,6.289999961853027,6.289999961853027,0.0,6.289999961853027
2016-12-01,6.289999961853027,6.289999961853027,6.289999961853027,6.289999961853027,0.0,6.289999961853027
2016-12-02,6.289999961853027,6.289999961853027,6.289999961853027,6.289999961853027,0.0,6.289999961853027
2016-12-05,6.289999961853027,6.289999961853027,6.289999961853027,6.289999961853027,0.0,6.289999961853027
2016-12-06,6.289999961853027,6.289999961853027,6.289999961853027,6.289999961853027,0.0,6.289999961853027
2016-12-07,6.289999961853027,6.289999961853027,6.289999961853027,6.289999961853027,0.0,6.289999961853027
2016-12-08,6.289999961853027,6.289999961853027,6.289999961853027,6.289999961853027,0.0,6.289999961853027
2016-12-09,6.289999961853027,6.289999961853027,6.289999961853027,6.289999961853027,0.0,6.289999961853027
2016-12-12,6.289999961853027,6.289999961853027,6.289999961853027,6.289999961853027,0.0,6.289999961853027
2016-12-13,6.289999961853027,6.289999961853027,6.289999961853027,6.289999961853027,0.0,6.289999961853027
2016-12-14,6.289999961853027,6.289999961853027,6.289999961853027,6.289999961853027,0.0,6.289999961853027
2016-12-15,6.289999961853027,6.289999961853027,6.289999961853027,6.289999961853027,0.0,6.289999961853027
2016-12-16,6.289999961853027,6.289999961853027,6.289999961853027,6.289999961853027,0.0,6.289999961853027
2016-12-19,6.289999961853027,6.289999961853027,6.289999961853027,6.289999961853027,0.0,6.289999961853027
2016-12-20,6.289999961853027,6.289999961853027,6.289999961853027,6.289999961853027,0.0,6.289999961853027
2016-12-21,6.289999961853027,6.289999961853027,6.289999961853027,6.289999961853027,0.0,6.289999961853027
2016-12-22,6.289999961853027,6.289999961853027,6.289999961853027,6.289999961853027,0.0,6.289999961853027
2016-12-23,6.289999961853027,6.289999961853027,6.289999961853027,6.289999961853027,0.0,6.289999961853027
2016-12-27,6.289999961853027,6.289999961853027,6.289999961853027,6.289999961853027,0.0,6.289999961853027
2016-12-28,6.289999961853027,6.289999961853027,6.289999961853027,6.289999961853027,0.0,6.289999961853027
2016-12-29,6.289999961853027,6.289999961853027,6.289999961853027,6.289999961853027,0.0,6.289999961853027
2016-12-30,6.289999961853027,6.289999961853027,6.289999961853027,6.289999961853027,0.0,6.289999961853027
2017-01-03,6.289999961853027,6.289999961853027,6.289999961853027,6.289999961853027,0.0,6.289999961853027
2017-01-04,6.289999961853027,6.289999961853027,6.289999961853027,6.289999961853027,0.0,6.289999961853027
2017-01-05,6.289999961853027,6.289999961853027,6.289999961853027,6.289999961853027,0.0,6.289999961853027
2017-01-06,6.289999961853027,6.289999961853027,6.289999961853027,6.289999961853027,0.0,6.289999961853027
2017-01-09,6.289999961853027,6.289999961853027,6.289999961853027,6.289999961853027,0.0,6.289999961853027
2017-01-10,6.289999961853027,6.289999961853027,6.289999961853027,6.289999961853027,0.0,6.289999961853027
2017-01-11,6.289999961853027,6.289999961853027,6.289999961853027,6.289999961853027,0.0,6.289999961853027
2017-01-12,6.289999961853027,6.289999961853027,6.289999961853027,6.289999961853027,0.0,6.289999961853027
2017-01-13,6.289999961853027,6.289999961853027,6.289999961853027,6.289999961853027,0.0,6.289999961853027
2017-01-17,6.289999961853027,6.289999961853027,6.289999961853027,6.289999961853027,0.0,6.289999961853027
2017-01-18,6.289999961853027,6.289999961853027,6.289999961853027,6.289999961853027,0.0,6.289999961853027
2017-01-19,6.289999961853027,6.289999961853027,6.289999961853027,6.289999961853027,0.0,6.289999961853027
2017-01-20,6.289999961853027,6.289999961853027,6.289999961853027,6.289999961853027,0.0,6.289999961853027
2017-01-23,6.289999961853027,6.289999961853027,6.289999961853027,6.289999961853027,0.0,6.289999961853027
2017-01-24,6.289999961853027,6.289999961853027,6.289999961853027,6.289999961853027,0.0,6.289999961853027
2017-01-25,6.289999961853027,6.289999961853027,6.289999961853027,6.289999961853027,0.0,6.289999961853027
2017-01-26,6.289999961853027,6.289999961853027,6.289999961853027,6.289999961853027,0.0,6.289999961853027
2017-01-27,6.289999961853027,6.289999961853027,6.289999961853027,6.289999961853027,0.0,6.289999961853027
2017-01-30,6.289999961853027,6.289999961853027,6.289999961853027,6.289999961853027,0.0,6.289999961853027
2017-01-31,6.289999961853027,6.289999961853027,6.289999961853027,6.289999961853027,0.0,6.289999961853027
2017-02-01,6.289999961853027,6.289999961853027,6.289999961853027,6.289999961853027,0.0,6.289999961853027
2017-02-02,6.289999961853027,6.289999961853027,6.289999961853027,6.289999961853027,0.0,6.289999961853027
2017-02-03,6.289999961853027,6.289999961853027,6.289999961853027,6.289999961853027,0.0,6.289999961853027
2017-02-06,6.289999961853027,6.289999961853027,6.289999961853027,6.289999961853027,0.0,6.289999961853027
2017-02-07,6.289999961853027,6.289999961853027,6.289999961853027,6.289999961853027,0.0,6.289999961853027
2017-02-08,6.289999961853027,6.289999961853027,6.289999961853027,6.289999961853027,0.0,6.289999961853027
2017-02-09,6.289999961853027,6.289999961853027,6.289999961853027,6.289999961853027,0.0,6.289999961853027
2017-02-10,6.289999961853027,6.289999961853027,6.289999961853027,6.289999961853027,0.0,6.289999961853027
2017-02-13,6.289999961853027,6.289999961853027,6.289999961853027,6.289999961853027,0.0,6.289999961853027
2017-02-14,6.289999961853027,6.289999961853027,6.289999961853027,6.289999961853027,0.0,6.289999961853027
2017-02-15,6.289999961853027,6.289999961853027,6.289999961853027,6.289999961853027,0.0,6.289999961853027
2017-02-16,6.289999961853027,6.289999961853027,6.289999961853027,6.289999961853027,0.0,6.289999961853027
2017-02-17,6.289999961853027,6.289999961853027,6.289999961853027,6.289999961853027,0.0,6.289999961853027
2017-02-21,6.289999961853027,6.289999961853027,6.289999961853027,6.289999961853027,0.0,6.289999961853027
2017-02-22,6.289999961853027,6.289999961853027,6.289999961853027,6.289999961853027,0.0,6.289999961853027
2017-02-23,6.289999961853027,6.289999961853027,6.289999961853027,6.289999961853027,0.0,6.289999961853027
2017-02-24,6.289999961853027,6.289999961853027,6.289999961853027,6.289999961853027,0.0,6.289999961853027
2017-02-27,6.289999961853027,6.289999961853027,6.289999961853027,6.289999961853027,0.0,6.289999961853027
2017-02-28,6.289999961853027,6.289999961853027,6.289999961853027,6.289999961853027,0.0,6.289999961853027
2017-03-01,6.289999961853027,6.289999961853027,6.289999961853027,6.289999961853027,0.0,6.289999961853027
2017-03-02,6.289999961853027,6.289999961853027,6.289999961853027,6.289999961853027,0.0,6.289999961853027
2017-03-03,6.289999961853027,6.289999961853027,6.289999961853027,6.289999961853027,0.0,6.289999961853027
2017-03-06,6.289999961853027,6.289999961853027,6.289999961853027,6.289999961853027,0.0,6.289999961853027
2017-03-07,6.289999961853027,6.289999961853027,6.289999961853027,6.289999961853027,0.0,6.289999961853027
2017-03-08,6.289999961853027,6.289999961853027,6.289999961853027,6.289999961853027,0.0,6.289999961853027
2017-03-09,6.289999961853027,6.289999961853027,6.289999961853027,6.289999961853027,0.0,6.289999961853027
2017-03-10,6.289999961853027,6.289999961853027,6.289999961853027,6.289999961853027,0.0,6.289999961853027
2017-03-13,6.289999961853027,6.289999961853027,6.289999961853027,6.289999961853027,0.0,6.289999961853027
2017-03-14,6.289999961853027,6.289999961853027,6.289999961853027,6.289999961853027,0.0,6.289999961853027
2017-03-15,6.289999961853027,6.289999961853027,6.289999961853027,6.289999961853027,0.0,6.289999961853027
2017-03-16,6.289999961853027,6.289999961853027,6.289999961853027,6.289999961853027,0.0,6.289999961853027
2017-03-17,6.289999961853027,6.289999961853027,6.289999961853027,6.289999961853027,0.0,6.289999961853027
2017-03-20,6.289999961853027,6.289999961853027,6.289999961853027,6.289999961853027,0.0,6.289999961853027
2017-03-21,6.289999961853027,6.289999961853027,6.289999961853027,6.289999961853027,0.0,6.289999961853027
2017-03-22,6.289999961853027,6.289999961853027,6.289999961853027,6.289999961853027,0.0,6.289999961853027
2017-03-23,6.289999961853027,6.289999961853027,6.289999961853027,6.289999961853027,0.0,6.289999961853027
2017-03-24,6.289999961853027,6.289999961853027,6.289999961853027,6.289999961853027,0.0,6.289999961853027
2017-03-27,6.289999961853027,6.289999961853027,6.289999961853027,6.289999961853027,0.0,6.289999961853027
2017-03-28,6.289999961853027,6.289999961853027,6.289999961853027,6.289999961853027,0.0,6.289999961853027
2017-03-29,6.289999961853027,6.289999961853027,6.289999961853027,6.289999961853027,0.0,6.289999961853027
2017-03-30,6.289999961853027,6.289999961853027,6.289999961853027,6.289999961853027,0.0,6.289999961853027
2017-03-31,6.289999961853027,6.289999961853027,6.289999961853027,6.289999961853027,0.0,6.289999961853027
2017-04-03,6.289999961853027,6.289999961853027,6.289999961853027,6.289999961853027,0.0,6.289999961853027
2017-04-04,6.289999961853027,6.289999961853027,6.289999961853027,6.289999961853027,0.0,6.289999961853027
2017-04-05,6.289999961853027,6.289999961853027,6.289999961853027,6.289999961853027,0.0,6.289999961853027
2017-04-06,6.289999961853027,6.289999961853027,6.289999961853027,6.289999961853027,0.0,6.289999961853027
2017-04-07,6.289999961853027,6.289999961853027,6.289999961853027,6.289999961853027,0.0,6.289999961853027
2017-04-10,6.289999961853027,6.289999961853027,6.289999961853027,6.289999961853027,0.0,6.289999961853027
2017-04-11,6.289999961853027,6.289999961853027,6.289999961853027,6.289999961853027,0.0,6.289999961853027
2017-04-12,6.289999961853027,6.289999961853027,6.289999961853027,6.289999961853027,0.0,6.289999961853027
2017-04-13,6.289999961853027,6.289999961853027,6.289999961853027,6.289999961853027,0.0,6.289999961853027
2017-04-17,6.289999961853027,6.289999961853027,6.289999961853027,6.289999961853027,0.0,6.289999961853027
2017-04-18,6.289999961853027,6.289999961853027,6.289999961853027,6.289999961853027,0.0,6.289999961853027
2017-04-19,6.289999961853027,6.289999961853027,6.289999961853027,6.289999961853027,0.0,6.289999961853027
2017-04-20,6.289999961853027,6.289999961853027,6.289999961853027,6.289999961853027,0.0,6.289999961853027
2017-04-21,6.289999961853027,6.289999961853027,6.289999961853027,6.289999961853027,0.0,6.289999961853027
2017-04-24,6.289999961853027,6.289999961853027,6.289999961853027,6.289999961853027,0.0,6.289999961853027
2017-04-25,6.289999961853027,6.289999961853027,6.289999961853027,6.289999961853027,0.0,6.289999961853027
2017-04-26,6.289999961853027,6.289999961853027,6.289999961853027,6.289999961853027,0.0,6.289999961853027
2017-04-27,6.289999961853027,6.289999961853027,6.289999961853027,6.289999961853027,0.0,6.289999961853027
2017-04-28,6.289999961853027,6.289999961853027,6.289999961853027,6.289999961853027,0.0,6.289999961853027
2017-05-01,6.289999961853027,6.289999961853027,6.289999961853027,6.289999961853027,0.0,6.289999961853027
2017-05-02,6.289999961853027,6.289999961853027,6.289999961853027,6.289999961853027,0.0,6.289999961853027
2017-05-03,6.289999961853027,6.289999961853027,6.289999961853027,6.289999961853027,0.0,6.289999961853027
2017-05-04,6.289999961853027,6.289999961853027,6.289999961853027,6.289999961853027,0.0,6.289999961853027
2017-05-05,6.289999961853027,6.289999961853027,6.289999961853027,6.289999961853027,0.0,6.289999961853027
2017-05-08,6.289999961853027,6.289999961853027,6.289999961853027,6.289999961853027,0.0,6.289999961853027
2017-05-09,6.289999961853027,6.289999961853027,6.289999961853027,6.289999961853027,0.0,6.289999961853027
2017-05-10,6.289999961853027,6.289999961853027,6.289999961853027,6.289999961853027,0.0,6.289999961853027
2017-05-11,6.289999961853027,6.289999961853027,6.289999961853027,6.289999961853027,0.0,6.289999961853027
2017-05-12,6.289999961853027,6.289999961853027,6.289999961853027,6.289999961853027,0.0,6.289999961853027
2017-05-15,6.289999961853027,6.289999961853027,6.289999961853027,6.289999961853027,0.0,6.289999961853027
2017-05-16,6.289999961853027,6.289999961853027,6.289999961853027,6.289999961853027,0.0,6.289999961853027
2017-05-17,6.289999961853027,6.289999961853027,6.289999961853027,6.289999961853027,0.0,6.289999961853027
2017-05-18,6.289999961853027,6.289999961853027,6.289999961853027,6.289999961853027,0.0,6.289999961853027
2017-05-19,6.289999961853027,6.289999961853027,6.289999961853027,6.289999961853027,0.0,6.289999961853027
2017-05-22,6.289999961853027,6.289999961853027,6.289999961853027,6.289999961853027,0.0,6.289999961853027
2017-05-23,6.289999961853027,6.289999961853027,6.289999961853027,6.289999961853027,0.0,6.289999961853027
2017-05-24,6.289999961853027,6.289999961853027,6.289999961853027,6.289999961853027,0.0,6.289999961853027
2017-05-25,6.289999961853027,6.289999961853027,6.289999961853027,6.289999961853027,0.0,6.289999961853027
2017-05-26,6.289999961853027,6.289999961853027,6.289999961853027,6.289999961853027,0.0,6.289999961853027
2017-05-30,6.289999961853027,6.289999961853027,6.289999961853027,6.289999961853027,0.0,6.289999961853027
2017-05-31,6.289999961853027,6.289999961853027,6.289999961853027,6.289999961853027,0.0,6.289999961853027
2017-06-01,6.289999961853027,6.289999961853027,6.289999961853027,6.289999961853027,0.0,6.289999961853027
2017-06-02,6.289999961853027,6.289999961853027,6.289999961853027,6.289999961853027,0.0,6.289999961853027
2017-06-05,6.289999961853027,6.289999961853027,6.289999961853027,6.289999961853027,0.0,6.289999961853027
2017-06-06,6.289999961853027,6.289999961853027,6.289999961853027,6.289999961853027,0.0,6.289999961853027
2017-06-07,6.289999961853027,6.289999961853027,6.289999961853027,6.289999961853027,0.0,6.289999961853027
2017-06-08,6.289999961853027,6.289999961853027,6.289999961853027,6.289999961853027,0.0,6.289999961853027
2017-06-09,6.289999961853027,6.289999961853027,6.289999961853027,6.289999961853027,0.0,6.289999961853027
2017-06-12,6.289999961853027,6.289999961853027,6.289999961853027,6.289999961853027,0.0,6.289999961853027
2017-06-13,6.289999961853027,6.289999961853027,6.289999961853027,6.289999961853027,0.0,6.289999961853027
2017-06-14,6.289999961853027,6.289999961853027,6.289999961853027,6.289999961853027,0.0,6.289999961853027
2017-06-15,6.289999961853027,6.289999961853027,6.289999961853027,6.289999961853027,0.0,6.289999961853027
2017-06-16,6.289999961853027,6.289999961853027,6.289999961853027,6.289999961853027,0.0,6.289999961853027
2017-06-19,6.289999961853027,6.289999961853027,6.289999961853027,6.289999961853027,0.0,6.289999961853027
2017-06-20,6.289999961853027,6.289999961853027,6.289999961853027,6.289999961853027,0.0,6.289999961853027
2017-06-21,6.289999961853027,6.289999961853027,6.289999961853027,6.289999961853027,0.0,6.289999961853027
2017-06-22,6.289999961853027,6.289999961853027,6.289999961853027,6.289999961853027,0.0,6.289999961853027
2017-06-23,6.289999961853027,6.289999961853027,6.289999961853027,6.289999961853027,0.0,6.289999961853027
2017-06-26,6.289999961853027,6.289999961853027,6.289999961853027,6.289999961853027,0.0,6.289999961853027
2017-06-27,6.289999961853027,6.289999961853027,6.289999961853027,6.289999961853027,0.0,6.289999961853027
2017-06-28,6.289999961853027,6.289999961853027,6.289999961853027,6.289999961853027,0.0,6.289999961853027
2017-06-29,6.289999961853027,6.289999961853027,6.289999961853027,6.289999961853027,0.0,6.289999961853027
2017-06-30,6.289999961853027,6.289999961853027,6.289999961853027,6.289999961853027,0.0,6.289999961853027
2017-07-03,6.289999961853027,6.289999961853027,6.289999961853027,6.289999961853027,0.0,6.289999961853027
2017-07-05,6.289999961853027,6.289999961853027,6.289999961853027,6.289999961853027,0.0,6.289999961853027
2017-07-06,6.289999961853027,6.289999961853027,6.289999961853027,6.289999961853027,0.0,6.289999961853027
2017-07-07,6.289999961853027,6.289999961853027,6.289999961853027,6.289999961853027,0.0,6.289999961853027
2017-07-10,6.289999961853027,6.289999961853027,6.289999961853027,6.289999961853027,0.0,6.289999961853027
2017-07-11,6.289999961853027,6.289999961853027,6.289999961853027,6.289999961853027,0.0,6.289999961853027
2017-07-12,6.289999961853027,6.289999961853027,6.289999961853027,6.289999961853027,0.0,6.289999961853027
2017-07-13,6.289999961853027,6.289999961853027,6.289999961853027,6.289999961853027,0.0,6.289999961853027
2017-07-14,6.289999961853027,6.289999961853027,6.289999961853027,6.289999961853027,0.0,6.289999961853027
2017-07-17,6.289999961853027,6.289999961853027,6.289999961853027,6.289999961853027,0.0,6.289999961853027
2017-07-18,6.289999961853027,6.289999961853027,6.289999961853027,6.289999961853027,0.0,6.289999961853027
2017-07-19,6.289999961853027,6.289999961853027,6.289999961853027,6.289999961853027,0.0,6.289999961853027
2017-07-20,6.289999961853027,6.289999961853027,6.289999961853027,6.289999961853027,0.0,6.289999961853027
2017-07-21,6.289999961853027,6.289999961853027,6.289999961853027,6.289999961853027,0.0,6.289999961853027
2017-07-24,6.289999961853027,6.289999961853027,6.289999961853027,6.289999961853027,0.0,6.289999961853027
2017-07-25,6.289999961853027,6.289999961853027,6.289999961853027,6.289999961853027,0.0,6.289999961853027
2017-07-26,6.289999961853027,6.289999961853027,6.289999961853027,6.289999961853027,0.0,6.289999961853027
2017-07-27,6.289999961853027,6.289999961853027,6.289999961853027,6.289999961853027,0.0,6.289999961853027
2017-07-28,6.289999961853027,6.289999961853027,6.289999961853027,6.289999961853027,0.0,6.289999961853027
2017-07-31,6.289999961853027,6.289999961853027,6.289999961853027,6.289999961853027,0.0,6.289999961853027
2017-08-01,6.289999961853027,6.289999961853027,6.289999961853027,6.289999961853027,0.0,6.289999961853027
2017-08-02,6.289999961853027,6.289999961853027,6.289999961853027,6.289999961853027,0.0,6.289999961853027
2017-08-03,6.289999961853027,6.289999961853027,6.289999961853027,6.289999961853027,0.0,6.289999961853027
2017-08-04,6.289999961853027,6.289999961853027,6.289999961853027,6.289999961853027,0.0,6.289999961853027
2017-08-07,6.289999961853027,6.289999961853027,6.289999961853027,6.289999961853027,0.0,6.289999961853027
2017-08-08,6.289999961853027,6.289999961853027,6.289999961853027,6.289999961853027,0.0,6.289999961853027
2017-08-09,6.289999961853027,6.289999961853027,6.289999961853027,6.289999961853027,0.0,6.289999961853027
2017-08-10,6.289999961853027,6.289999961853027,6.289999961853027,6.289999961853027,0.0,6.289999961853027
2017-08-11,6.289999961853027,6.289999961853027,6.289999961853027,6.289999961853027,0.0,6.289999961853027
2017-08-14,6.289999961853027,6.289999961853027,6.289999961853027,6.289999961853027,0.0,6.289999961853027
2017-08-15,6.289999961853027,6.289999961853027,6.289999961853027,6.289999961853027,0.0,6.289999961853027
2017-08-16,6.289999961853027,6.289999961853027,6.289999961853027,6.289999961853027,0.0,6.289999961853027
2017-08-17,6.289999961853027,6.289999961853027,6.289999961853027,6.289999961853027,0.0,6.289999961853027
2017-08-18,6.289999961853027,6.289999961853027,6.289999961853027,6.289999961853027,0.0,6.289999961853027
2017-08-21,6.289999961853027,6.289999961853027,6.289999961853027,6.289999961853027,0.0,6.289999961853027
2017-08-22,6.289999961853027,6.289999961853027,6.289999961853027,6.289999961853027,0.0,6.289999961853027
2017-08-23,6.289999961853027,6.289999961853027,6.289999961853027,6.289999961853027,0.0,6.289999961853027
2017-08-24,6.289999961853027,6.289999961853027,6.289999961853027,6.289999961853027,0.0,6.289999961853027
2017-08-25,6.289999961853027,6.289999961853027,6.289999961853027,6.289999961853027,0.0,6.289999961853027
2017-08-28,6.289999961853027,6.289999961853027,6.289999961853027,6.289999961853027,0.0,6.289999961853027
2017-08-29,6.289999961853027,6.289999961853027,6.289999961853027,6.289999961853027,0.0,6.289999961853027
2018-05-04,13.239999771118164,12.0,13.0,12.100000381469727,4086300.0,12.100000381469727
2018-05-07,12.25,12.039999961853027,12.100000381469727,12.050000190734863,487100.0,12.050000190734863
2018-05-08,12.210000038146973,12.0,12.180000305175781,12.050000190734863,295300.0,12.050000190734863
2018-05-09,12.180000305175781,12.0,12.039999961853027,12.020000457763672,170100.0,12.020000457763672
2018-05-10,12.149999618530273,12.0,12.010000228881836,12.0,109100.0,12.0
2018-05-11,12.0600004196167,12.0,12.050000190734863,12.029999732971191,152800.0,12.029999732971191
2018-05-14,12.149999618530273,12.0,12.069999694824219,12.140000343322754,86000.0,12.140000343322754
2018-05-15,12.25,12.149999618530273,12.149999618530273,12.15999984741211,75500.0,12.15999984741211
2018-05-16,12.25,12.039999961853027,12.199999809265137,12.039999961853027,44300.0,12.039999961853027
2018-05-17,12.40999984741211,12.100000381469727,12.100000381469727,12.109999656677246,66300.0,12.109999656677246
2018-05-18,12.5,12.130000114440918,12.199999809265137,12.380000114440918,142500.0,12.380000114440918
2018-05-21,12.489999771118164,12.270000457763672,12.380000114440918,12.390000343322754,99100.0,12.390000343322754
2018-05-22,12.430000305175781,12.069999694824219,12.329999923706055,12.25,67600.0,12.25
2018-05-23,12.550000190734863,12.130000114440918,12.15999984741211,12.239999771118164,111100.0,12.239999771118164
2018-05-24,12.40999984741211,12.069999694824219,12.25,12.199999809265137,41000.0,12.199999809265137
2018-05-25,12.470000267028809,12.111000061035156,12.470000267028809,12.260000228881836,57900.0,12.260000228881836
2018-05-29,12.350000381469727,10.859999656677246,12.109999656677246,12.029999732971191,432800.0,12.029999732971191
2018-05-30,12.487000465393066,12.100000381469727,12.149999618530273,12.119999885559082,129300.0,12.119999885559082
2018-05-31,12.39799976348877,12.0,12.199999809265137,12.149999618530273,239500.0,12.149999618530273
2018-06-01,12.800000190734863,12.0,12.180000305175781,12.6899995803833,179300.0,12.6899995803833
2018-06-04,12.888999938964844,12.399999618530273,12.75,12.489999771118164,280200.0,12.489999771118164
2018-06-05,12.760000228881836,12.199999809265137,12.729999542236328,12.289999961853027,228500.0,12.289999961853027
2018-06-06,12.5,12.1899995803833,12.289999961853027,12.289999961853027,99700.0,12.289999961853027
2018-06-07,12.380000114440918,12.069999694824219,12.380000114440918,12.100000381469727,119000.0,12.100000381469727
2018-06-08,12.329999923706055,12.0,12.0600004196167,12.140000343322754,172100.0,12.140000343322754
2018-06-11,12.84000015258789,12.020000457763672,12.100000381469727,12.770000457763672,285200.0,12.770000457763672
2018-06-12,12.888999938964844,12.552000045776367,12.8100004196167,12.699999809265137,171100.0,12.699999809265137
2018-06-13,13.843000411987305,12.545999526977539,12.6899995803833,13.670000076293945,557200.0,13.670000076293945
2018-06-14,14.0600004196167,13.289999961853027,13.670000076293945,13.949999809265137,516500.0,13.949999809265137
2018-06-15,13.989999771118164,13.130000114440918,13.960000038146973,13.270000457763672,453300.0,13.270000457763672
2018-06-18,14.0,13.100000381469727,13.119999885559082,13.869999885559082,202000.0,13.869999885559082
2018-06-19,13.899999618530273,13.310999870300293,13.800000190734863,13.84000015258789,175400.0,13.84000015258789
2018-06-20,13.800000190734863,13.170000076293945,13.800000190734863,13.260000228881836,63300.0,13.260000228881836
2018-06-21,13.720000267028809,12.857000350952148,13.180000305175781,13.4399995803833,87800.0,13.4399995803833
2018-06-22,13.5600004196167,13.079999923706055,13.449000358581543,13.510000228881836,91400.0,13.510000228881836
2018-06-25,13.800000190734863,12.829999923706055,13.595000267028809,13.029999732971191,90600.0,13.029999732971191
2018-06-26,13.15999984741211,12.800000190734863,13.100000381469727,13.0,49300.0,13.0
2018-06-27,13.26099967956543,12.510000228881836,13.0,12.800000190734863,75200.0,12.800000190734863
2018-06-28,13.420000076293945,12.475000381469727,12.760000228881836,13.039999961853027,56200.0,13.039999961853027
2018-06-29,13.25,13.050000190734863,13.25,13.170000076293945,85700.0,13.170000076293945
2018-07-02,13.1899995803833,12.949999809265137,13.100000381469727,13.010000228881836,37300.0,13.010000228881836
2018-07-03,13.265000343322754,13.029999732971191,13.220000267028809,13.050000190734863,19600.0,13.050000190734863
2018-07-05,13.029999732971191,12.520000457763672,13.029999732971191,12.670000076293945,75400.0,12.670000076293945
2018-07-06,13.050000190734863,12.456000328063965,12.59000015258789,12.729999542236328,80100.0,12.729999542236328
2018-07-09,12.98799991607666,12.529999732971191,12.529999732971191,12.720000267028809,77000.0,12.720000267028809
2018-07-10,12.800000190734863,12.539999961853027,12.609999656677246,12.789999961853027,46400.0,12.789999961853027
2018-07-11,12.800000190734863,12.34000015258789,12.788999557495117,12.5,38800.0,12.5
2018-07-12,12.760000228881836,12.359999656677246,12.760000228881836,12.609999656677246,35300.0,12.609999656677246
2018-07-13,12.65999984741211,12.3100004196167,12.59000015258789,12.420000076293945,53700.0,12.420000076293945
2018-07-16,12.630000114440918,12.0,12.279999732971191,12.630000114440918,83700.0,12.630000114440918
2018-07-17,12.800000190734863,12.380000114440918,12.550000190734863,12.520000457763672,61700.0,12.520000457763672
2018-07-18,12.609999656677246,12.199999809265137,12.609999656677246,12.380000114440918,46500.0,12.380000114440918
2018-07-19,12.640000343322754,12.270000457763672,12.399999618530273,12.449999809265137,65300.0,12.449999809265137
2018-07-20,12.5,12.220000267028809,12.5,12.380000114440918,40200.0,12.380000114440918
2018-07-23,12.649999618530273,12.25,12.369999885559082,12.300000190734863,53500.0,12.300000190734863
2018-07-24,12.53499984741211,12.300000190734863,12.449999809265137,12.380000114440918,42400.0,12.380000114440918
2018-07-25,12.89799976348877,12.300000190734863,12.470000267028809,12.739999771118164,41800.0,12.739999771118164
2018-07-26,12.65999984741211,12.119999885559082,12.220000267028809,12.430000305175781,112400.0,12.430000305175781
2018-07-27,12.649999618530273,12.119999885559082,12.649999618530273,12.489999771118164,44400.0,12.489999771118164
2018-07-30,12.579999923706055,12.140000343322754,12.449999809265137,12.319999694824219,90200.0,12.319999694824219
2018-07-31,12.359999656677246,12.050000190734863,12.300000190734863,12.239999771118164,29100.0,12.239999771118164
2018-08-01,12.399999618530273,12.010000228881836,12.100000381469727,12.199999809265137,38500.0,12.199999809265137
2018-08-02,12.34000015258789,11.489999771118164,12.003000259399414,11.680000305175781,100500.0,11.680000305175781
2018-08-03,12.086000442504883,11.449999809265137,12.003000259399414,11.460000038146973,56600.0,11.460000038146973
2018-08-06,11.710000038146973,11.210000038146973,11.390000343322754,11.380000114440918,37900.0,11.380000114440918
2018-08-07,12.0,11.210000038146973,11.300000190734863,11.279999732971191,32100.0,11.279999732971191
2018-08-08,11.699999809265137,10.3100004196167,11.25,11.010000228881836,169000.0,11.010000228881836
2018-08-09,11.4399995803833,10.600000381469727,10.9399995803833,11.359999656677246,106700.0,11.359999656677246
2018-08-10,12.395999908447266,10.680000305175781,12.199999809265137,11.109999656677246,555600.0,11.109999656677246
2018-08-13,11.989999771118164,11.071000099182129,11.130000114440918,11.890000343322754,48900.0,11.890000343322754
2018-08-14,12.125,11.734999656677246,11.970000267028809,11.899999618530273,108300.0,11.899999618530273
2018-08-15,12.1899995803833,11.579999923706055,11.899999618530273,11.899999618530273,91200.0,11.899999618530273
2018-08-16,12.133000373840332,11.729999542236328,11.970000267028809,12.0600004196167,69900.0,12.0600004196167
2018-08-17,12.130000114440918,11.789999961853027,12.130000114440918,12.039999961853027,14400.0,12.039999961853027
2018-08-20,12.079999923706055,11.5,11.904999732971191,11.960000038146973,40900.0,11.960000038146973
2018-08-21,12.210000038146973,11.85099983215332,12.0,12.020000457763672,57500.0,12.020000457763672
2018-08-22,12.180000305175781,11.59000015258789,12.029999732971191,11.930000305175781,94400.0,11.930000305175781
2018-08-23,12.109999656677246,11.539999961853027,11.899999618530273,12.0,59800.0,12.0
2018-08-24,12.069999694824219,11.864999771118164,12.0,11.970000267028809,60300.0,11.970000267028809
2018-08-27,12.420000076293945,11.970000267028809,12.050000190734863,12.0600004196167,99900.0,12.0600004196167
2018-08-28,12.109999656677246,11.510000228881836,12.109999656677246,11.970000267028809,40000.0,11.970000267028809
2018-08-29,12.100000381469727,11.75,11.890000343322754,11.989999771118164,18700.0,11.989999771118164
2018-08-30,12.100000381469727,11.484999656677246,12.09000015258789,12.0,165000.0,12.0
2018-08-31,12.300000190734863,11.902000427246094,12.09000015258789,12.149999618530273,19000.0,12.149999618530273
2018-09-04,12.354000091552734,11.90999984741211,12.239999771118164,12.210000038146973,179700.0,12.210000038146973
2018-09-05,12.720000267028809,11.899999618530273,12.109999656677246,12.350000381469727,117600.0,12.350000381469727
2018-09-06,12.680000305175781,12.119999885559082,12.260000228881836,12.289999961853027,63200.0,12.289999961853027
2018-09-07,12.5649995803833,12.220000267028809,12.5649995803833,12.510000228881836,33400.0,12.510000228881836
2018-09-10,12.800000190734863,12.104999542236328,12.600000381469727,12.399999618530273,108500.0,12.399999618530273
2018-09-11,12.529999732971191,12.130000114440918,12.4399995803833,12.3100004196167,51800.0,12.3100004196167
2018-09-12,12.449999809265137,12.229999542236328,12.229999542236328,12.390000343322754,39200.0,12.390000343322754
2018-09-13,12.399999618530273,11.961000442504883,12.34000015258789,12.229999542236328,23900.0,12.229999542236328
2018-09-14,12.399999618530273,11.810999870300293,12.1899995803833,12.210000038146973,15700.0,12.210000038146973
2018-09-17,12.392000198364258,11.925000190734863,11.925000190734863,12.270000457763672,87800.0,12.270000457763672
2018-09-18,12.5,12.050000190734863,12.314000129699707,12.199999809265137,60100.0,12.199999809265137
2018-09-19,12.5,12.020000457763672,12.15999984741211,12.199999809265137,51200.0,12.199999809265137
2018-09-20,12.5,12.180000305175781,12.180000305175781,12.420000076293945,150900.0,12.420000076293945
2018-09-21,12.699999809265137,12.199999809265137,12.34000015258789,12.630000114440918,59000.0,12.630000114440918
2018-09-24,12.75,12.25100040435791,12.680000305175781,12.3100004196167,67500.0,12.3100004196167
2018-09-25,12.6899995803833,12.029999732971191,12.289999961853027,12.09000015258789,32200.0,12.09000015258789
2018-09-26,12.739999771118164,11.829999923706055,12.170000076293945,12.15999984741211,58700.0,12.15999984741211
2018-09-27,12.48799991607666,11.930000305175781,12.444999694824219,12.149999618530273,59000.0,12.149999618530273
2018-09-28,12.430000305175781,11.899999618530273,12.0600004196167,12.100000381469727,39600.0,12.100000381469727
2018-10-01,12.145000457763672,11.710000038146973,12.050000190734863,11.8100004196167,120500.0,11.8100004196167
2018-10-02,11.90999984741211,11.399999618530273,11.90999984741211,11.529999732971191,113900.0,11.529999732971191
2018-10-03,11.609999656677246,11.020000457763672,11.470000267028809,11.40999984741211,177300.0,11.40999984741211
2018-10-04,11.670000076293945,11.039999961853027,11.460000038146973,11.670000076293945,116000.0,11.670000076293945
2018-10-05,11.880000114440918,11.079999923706055,11.75,11.710000038146973,42400.0,11.710000038146973
2018-10-08,11.789999961853027,11.140000343322754,11.640000343322754,11.390000343322754,56000.0,11.390000343322754
2018-10-09,11.670000076293945,11.140000343322754,11.300000190734863,11.210000038146973,84200.0,11.210000038146973
2018-10-10,11.614999771118164,10.932000160217285,11.25,11.079999923706055,40300.0,11.079999923706055
2018-10-11,11.515000343322754,10.5600004196167,11.020000457763672,10.8100004196167,56600.0,10.8100004196167
2018-10-12,11.041999816894531,10.329999923706055,10.869999885559082,10.550000190734863,57800.0,10.550000190734863
2018-10-15,10.920000076293945,10.329999923706055,10.4399995803833,10.680000305175781,48600.0,10.680000305175781
2018-10-16,11.600000381469727,10.5,10.800000190734863,11.449999809265137,79900.0,11.449999809265137
2018-10-17,11.859999656677246,10.760000228881836,11.369999885559082,11.0,37500.0,11.0
2018-10-18,11.40999984741211,10.029999732971191,10.979999542236328,10.289999961853027,69500.0,10.289999961853027
2018-10-19,10.579999923706055,10.119999885559082,10.220000267028809,10.1899995803833,82300.0,10.1899995803833
2018-10-22,10.5600004196167,9.869999885559082,10.149999618530273,9.9399995803833,44300.0,9.9399995803833
2018-10-23,10.147000312805176,9.579999923706055,9.84000015258789,9.789999961853027,49300.0,9.789999961853027
2018-10-24,10.194999694824219,8.850000381469727,9.75,9.050000190734863,47100.0,9.050000190734863
2018-10-25,9.305000305175781,8.517000198364258,9.0,8.890000343322754,126600.0,8.890000343322754
2018-10-26,9.130000114440918,8.399999618530273,8.739999771118164,8.489999771118164,112200.0,8.489999771118164
2018-10-29,9.15999984741211,8.553000450134277,8.5600004196167,8.8100004196167,44300.0,8.8100004196167
2018-10-30,9.194999694824219,8.505000114440918,8.760000228881836,8.550000190734863,32700.0,8.550000190734863
2018-10-31,9.1899995803833,8.170000076293945,8.779999732971191,9.039999961853027,109800.0,9.039999961853027
2018-11-01,9.550000190734863,8.800000190734863,9.010000228881836,9.34000015258789,33400.0,9.34000015258789
2018-11-02,9.826000213623047,9.055000305175781,9.3100004196167,9.600000381469727,110800.0,9.600000381469727
2018-11-05,10.010000228881836,9.37399959564209,9.59000015258789,9.770000457763672,50200.0,9.770000457763672
2018-11-06,10.0,9.081000328063965,9.739999771118164,9.960000038146973,96200.0,9.960000038146973
2018-11-07,10.6899995803833,9.975000381469727,10.039999961853027,10.369999885559082,96400.0,10.369999885559082
2018-11-08,10.446000099182129,9.579999923706055,10.220000267028809,9.789999961853027,64700.0,9.789999961853027
2018-11-09,10.140000343322754,9.552000045776367,9.649999618530273,9.6899995803833,31600.0,9.6899995803833
2018-11-12,9.9399995803833,9.350000381469727,9.699999809265137,9.6899995803833,138900.0,9.6899995803833
2018-11-13,10.229999542236328,9.470000267028809,9.619999885559082,9.770000457763672,19600.0,9.770000457763672
2018-11-14,10.060999870300293,9.390000343322754,9.760000228881836,9.600000381469727,119200.0,9.600000381469727
2018-11-15,9.904999732971191,9.34000015258789,9.470000267028809,9.600000381469727,211000.0,9.600000381469727
2018-11-16,9.84000015258789,9.4399995803833,9.569999694824219,9.770000457763672,53100.0,9.770000457763672
2018-11-19,9.970000267028809,9.5649995803833,9.670000076293945,9.720000267028809,38900.0,9.720000267028809
2018-11-20,9.895000457763672,9.369999885559082,9.630000114440918,9.760000228881836,64800.0,9.760000228881836
2018-11-21,10.178000450134277,9.529999732971191,9.729999542236328,9.729999542236328,36200.0,9.729999542236328
2018-11-23,10.300000190734863,9.704999923706055,9.729999542236328,9.850000381469727,17900.0,9.850000381469727
2018-11-26,10.380000114440918,9.585000038146973,9.960000038146973,10.380000114440918,77800.0,10.380000114440918
2018-11-27,10.4399995803833,9.8149995803833,10.350000381469727,10.069999694824219,111800.0,10.069999694824219
2018-11-28,10.4399995803833,9.930000305175781,10.029999732971191,10.0600004196167,29700.0,10.0600004196167
2018-11-29,10.21500015258789,9.6899995803833,10.039999961853027,9.899999618530273,48000.0,9.899999618530273
2018-11-30,10.1899995803833,9.557000160217285,9.800000190734863,9.789999961853027,10000.0,9.789999961853027
2018-12-03,10.300000190734863,9.649999618530273,9.930000305175781,9.859999656677246,55800.0,9.859999656677246
2018-12-04,10.119999885559082,9.305000305175781,9.8100004196167,9.399999618530273,56300.0,9.399999618530273
2018-12-06,10.109999656677246,9.305000305175781,9.3100004196167,9.699999809265137,70200.0,9.699999809265137
2018-12-07,9.989999771118164,8.789999961853027,9.8100004196167,9.0,73300.0,9.0
2018-12-10,9.633999824523926,8.739999771118164,8.760000228881836,8.75,41800.0,8.75
2018-12-11,8.920000076293945,8.40999984741211,8.40999984741211,8.760000228881836,146100.0,8.760000228881836
2018-12-12,9.1899995803833,8.545000076293945,8.550000190734863,9.029999732971191,151000.0,9.029999732971191
2018-12-13,9.199999809265137,8.220000267028809,9.050000190734863,8.25,237000.0,8.25
2018-12-14,8.640000343322754,8.081000328063965,8.170000076293945,8.34000015258789,52100.0,8.34000015258789
2018-12-17,8.595000267028809,8.199999809265137,8.25,8.359999656677246,178600.0,8.359999656677246
2018-12-18,8.920000076293945,8.350000381469727,8.359999656677246,8.609999656677246,226400.0,8.609999656677246
2018-12-19,9.3100004196167,8.470000267028809,8.470000267028809,8.65999984741211,278200.0,8.65999984741211
2018-12-20,9.210000038146973,8.0600004196167,8.859999656677246,8.170000076293945,145800.0,8.170000076293945
2018-12-21,8.609999656677246,7.699999809265137,8.210000038146973,8.510000228881836,214400.0,8.510000228881836
2018-12-24,8.71500015258789,8.1899995803833,8.510000228881836,8.279999732971191,140800.0,8.279999732971191
2018-12-26,9.020000457763672,7.739999771118164,8.390000343322754,8.989999771118164,207200.0,8.989999771118164
2018-12-27,9.010000228881836,8.10099983215332,8.84000015258789,8.350000381469727,124500.0,8.350000381469727
2018-12-28,8.979999542236328,8.359999656677246,8.359999656677246,8.90999984741211,294200.0,8.90999984741211
2018-12-31,9.119999885559082,8.541000366210938,8.970000267028809,8.829999923706055,103500.0,8.829999923706055
2019-01-02,9.9399995803833,8.510000228881836,8.6899995803833,9.5600004196167,97900.0,9.5600004196167
2019-01-03,9.899999618530273,9.319999694824219,9.460000038146973,9.65999984741211,69000.0,9.65999984741211
2019-01-04,9.90999984741211,9.46500015258789,9.8100004196167,9.550000190734863,59200.0,9.550000190734863
2019-01-07,9.989999771118164,9.470000267028809,9.510000228881836,9.75,20100.0,9.75
2019-01-08,10.65999984741211,9.489999771118164,9.8100004196167,10.489999771118164,124900.0,10.489999771118164
2019-01-09,10.819000244140625,10.079999923706055,10.579999923706055,10.40999984741211,67900.0,10.40999984741211
2019-01-10,10.449999809265137,10.210000038146973,10.430000305175781,10.359999656677246,38300.0,10.359999656677246
2019-01-11,10.989999771118164,10.109999656677246,10.319999694824219,10.989999771118164,73900.0,10.989999771118164
2019-01-14,11.34000015258789,10.6899995803833,10.899999618530273,11.069999694824219,106400.0,11.069999694824219
2019-01-15,11.229999542236328,10.5,11.109999656677246,10.5,36600.0,10.5
2019-01-16,10.989999771118164,10.378000259399414,10.600000381469727,10.84000015258789,20500.0,10.84000015258789
2019-01-17,10.989999771118164,10.675000190734863,10.890000343322754,10.739999771118164,47700.0,10.739999771118164
2019-01-18,11.496000289916992,10.729999542236328,10.729999542236328,11.149999618530273,50900.0,11.149999618530273
2019-01-22,11.920000076293945,11.149999618530273,11.220000267028809,11.600000381469727,123300.0,11.600000381469727
2019-01-23,11.949999809265137,10.954000473022461,11.680000305175781,11.4399995803833,75400.0,11.4399995803833
2019-01-24,11.800000190734863,11.154999732971191,11.3100004196167,11.600000381469727,49900.0,11.600000381469727
2019-01-25,11.899999618530273,11.581999778747559,11.609999656677246,11.8100004196167,38100.0,11.8100004196167
2019-01-28,12.229999542236328,11.739999771118164,11.75,11.850000381469727,52000.0,11.850000381469727
2019-01-29,11.949999809265137,11.524999618530273,11.850000381469727,11.890000343322754,52800.0,11.890000343322754
2019-01-30,12.204999923706055,11.84000015258789,11.899999618530273,12.0,85100.0,12.0
2019-01-31,12.220000267028809,11.446999549865723,11.970000267028809,11.9399995803833,30100.0,11.9399995803833
2019-02-01,12.09000015258789,11.550000190734863,11.890000343322754,11.699999809265137,21900.0,11.699999809265137
2019-02-04,11.859999656677246,11.09000015258789,11.850000381469727,11.479999542236328,58600.0,11.479999542236328
2019-02-05,11.609999656677246,11.100000381469727,11.4399995803833,11.149999618530273,64600.0,11.149999618530273
2019-02-06,11.630000114440918,10.649999618530273,11.149999618530273,11.539999961853027,185600.0,11.539999961853027
2019-02-07,11.899999618530273,11.109000205993652,11.539999961853027,11.649999618530273,83400.0,11.649999618530273
2019-02-08,11.597000122070312,11.170000076293945,11.529999732971191,11.380000114440918,9200.0,11.380000114440918
2019-02-11,11.699999809265137,11.319999694824219,11.390000343322754,11.5,24200.0,11.5
2019-02-12,11.725000381469727,10.899999618530273,10.90999984741211,11.069999694824219,91200.0,11.069999694824219
2019-02-13,11.895000457763672,11.079999923706055,11.079999923706055,11.119999885559082,55600.0,11.119999885559082
2019-02-14,11.479999542236328,11.119999885559082,11.270000457763672,11.420000076293945,26400.0,11.420000076293945
2019-02-15,11.989999771118164,11.199999809265137,11.40999984741211,11.859999656677246,67800.0,11.859999656677246
2019-02-19,12.1899995803833,11.470000267028809,11.989999771118164,11.920000076293945,65300.0,11.920000076293945
2019-02-20,12.479999542236328,11.824999809265137,12.0,11.949999809265137,80700.0,11.949999809265137
2019-02-21,12.25,11.75,11.920000076293945,12.010000228881836,9800.0,12.010000228881836
2019-02-22,12.199999809265137,11.625,12.100000381469727,12.09000015258789,24100.0,12.09000015258789
2019-02-25,12.140000343322754,11.670000076293945,11.960000038146973,11.850000381469727,43900.0,11.850000381469727
2019-02-26,12.194999694824219,11.710000038146973,11.859999656677246,11.760000228881836,33300.0,11.760000228881836
2019-02-27,12.70300006866455,11.850000381469727,11.850000381469727,12.699999809265137,142300.0,12.699999809265137
2019-02-28,12.600000381469727,12.100000381469727,12.600000381469727,12.359999656677246,84700.0,12.359999656677246
2019-03-01,12.5,12.109999656677246,12.4399995803833,12.140000343322754,27100.0,12.140000343322754
2019-03-04,12.336000442504883,11.904000282287598,12.220000267028809,12.319999694824219,15100.0,12.319999694824219
2019-03-05,12.600000381469727,12.029999732971191,12.15999984741211,12.210000038146973,178100.0,12.210000038146973
2019-03-06,12.5,12.050000190734863,12.199999809265137,12.220000267028809,58600.0,12.220000267028809
2019-03-07,12.640000343322754,12.050000190734863,12.210000038146973,12.350000381469727,52900.0,12.350000381469727
2019-03-08,12.52299976348877,12.100000381469727,12.270000457763672,12.25,20600.0,12.25
2019-03-11,12.399999618530273,11.850000381469727,12.180000305175781,11.880000114440918,60000.0,11.880000114440918
2019-03-12,12.210000038146973,11.755000114440918,11.930000305175781,11.869999885559082,17200.0,11.869999885559082
2019-03-13,12.420000076293945,11.890000343322754,11.890000343322754,12.319999694824219,54400.0,12.319999694824219
2019-03-14,12.40999984741211,11.805000305175781,12.329999923706055,12.220000267028809,40900.0,12.220000267028809
2019-03-15,12.449999809265137,11.607999801635742,11.800000190734863,12.270000457763672,69400.0,12.270000457763672
2019-03-18,12.3100004196167,11.829999923706055,12.119999885559082,12.140000343322754,53100.0,12.140000343322754
2019-03-19,12.699999809265137,11.901000022888184,12.1899995803833,11.949999809265137,31000.0,11.949999809265137
2019-03-20,12.5,11.819999694824219,12.029999732971191,12.170000076293945,77800.0,12.170000076293945
2019-03-21,12.425000190734863,11.720000267028809,12.15999984741211,11.720000267028809,45500.0,11.720000267028809
2019-03-22,12.479999542236328,11.640000343322754,11.739999771118164,12.3100004196167,123100.0,12.3100004196167
2019-03-25,12.489999771118164,11.699999809265137,12.119999885559082,11.850000381469727,39000.0,11.850000381469727
2019-03-26,12.359999656677246,11.585000038146973,11.850000381469727,12.289999961853027,105200.0,12.289999961853027
2019-03-27,12.510000228881836,11.795000076293945,12.279999732971191,12.359999656677246,107000.0,12.359999656677246
2019-03-28,12.680000305175781,12.010000228881836,12.460000038146973,12.09000015258789,43600.0,12.09000015258789
2019-03-29,12.779999732971191,12.050000190734863,12.600000381469727,12.770000457763672,59300.0,12.770000457763672
2019-04-01,12.800000190734863,12.489999771118164,12.75,12.579999923706055,27500.0,12.579999923706055
2019-04-02,12.789999961853027,12.010000228881836,12.569999694824219,12.020000457763672,52600.0,12.020000457763672
2019-04-03,12.734999656677246,12.130000114440918,12.130000114440918,12.329999923706055,37400.0,12.329999923706055
2019-04-04,12.65999984741211,12.050000190734863,12.34000015258789,12.050000190734863,5800.0,12.050000190734863
2019-04-05,12.680000305175781,12.069999694824219,12.597000122070312,12.460000038146973,26400.0,12.460000038146973
2019-04-08,12.670000076293945,12.100000381469727,12.380000114440918,12.210000038146973,24700.0,12.210000038146973
2019-04-09,12.66100025177002,12.180000305175781,12.34000015258789,12.390000343322754,30400.0,12.390000343322754
2019-04-10,12.40999984741211,12.079999923706055,12.380000114440918,12.270000457763672,28500.0,12.270000457763672
2019-04-11,12.460000038146973,12.069999694824219,12.319999694824219,12.180000305175781,36200.0,12.180000305175781
2019-04-12,12.475000381469727,11.819999694824219,12.25,11.819999694824219,45700.0,11.819999694824219
2019-04-15,12.545000076293945,12.0,12.0,12.380000114440918,76800.0,12.380000114440918
2019-04-16,12.619999885559082,12.300000190734863,12.390000343322754,12.600000381469727,136500.0,12.600000381469727
2019-04-17,12.649999618530273,12.300000190734863,12.539999961853027,12.550000190734863,26300.0,12.550000190734863
2019-04-18,12.637999534606934,12.307000160217285,12.609999656677246,12.4399995803833,9400.0,12.4399995803833
2019-04-22,12.75,12.454999923706055,12.579999923706055,12.739999771118164,29700.0,12.739999771118164
2019-04-23,12.890000343322754,12.539999961853027,12.699999809265137,12.760000228881836,52200.0,12.760000228881836
2019-04-24,12.760000228881836,11.890000343322754,12.760000228881836,12.079999923706055,143800.0,12.079999923706055
2019-04-25,12.579999923706055,12.0600004196167,12.149999618530273,12.220000267028809,5400.0,12.220000267028809
2019-04-26,12.430000305175781,11.850000381469727,12.220000267028809,12.350000381469727,19300.0,12.350000381469727
2019-04-29,12.670000076293945,12.319999694824219,12.350000381469727,12.649999618530273,61000.0,12.649999618530273
2019-04-30,13.270000457763672,12.579999923706055,12.630000114440918,13.100000381469727,156400.0,13.100000381469727
2019-05-01,13.71500015258789,13.09000015258789,13.300000190734863,13.5,165500.0,13.5
2019-05-02,13.59000015258789,12.869999885559082,13.59000015258789,12.880000114440918,39300.0,12.880000114440918
2019-05-03,13.460000038146973,12.850000381469727,12.970000267028809,13.130000114440918,88700.0,13.130000114440918
2019-05-06,13.229999542236328,12.25,13.029999732971191,12.359999656677246,83800.0,12.359999656677246
2019-05-07,12.727999687194824,11.739999771118164,12.399999618530273,11.75,88500.0,11.75
2019-05-08,12.28499984741211,11.3100004196167,11.850000381469727,11.5,114200.0,11.5
2019-05-09,11.737000465393066,11.199999809265137,11.510000228881836,11.220000267028809,81200.0,11.220000267028809
2019-05-10,12.770000457763672,11.550000190734863,11.90999984741211,12.0,213500.0,12.0
2019-05-13,12.75,11.75,12.100000381469727,12.649999618530273,195200.0,12.649999618530273
2019-05-14,13.800000190734863,12.430000305175781,12.770000457763672,13.5600004196167,292200.0,13.5600004196167
2019-05-15,13.5600004196167,12.779999732971191,13.5,12.9399995803833,103300.0,12.9399995803833
2019-05-16,13.899999618530273,12.899999618530273,12.9399995803833,13.65999984741211,195100.0,13.65999984741211
2019-05-17,14.380000114440918,13.33899974822998,13.699999809265137,13.960000038146973,175100.0,13.960000038146973
2019-05-20,14.199999809265137,13.739999771118164,13.829999923706055,14.0600004196167,125200.0,14.0600004196167
2019-05-21,14.581999778747559,14.0,14.119999885559082,14.199999809265137,128000.0,14.199999809265137
2019-05-22,14.456000328063965,13.760000228881836,14.210000038146973,13.880000114440918,42600.0,13.880000114440918
2019-05-23,13.890000343322754,13.270000457763672,13.770000457763672,13.369999885559082,40700.0,13.369999885559082
2019-05-24,13.59000015258789,13.010000228881836,13.4399995803833,13.279999732971191,41700.0,13.279999732971191
