Date,High,Low,Open,Close,Volume,Adj Close
2017-01-04,208.0,208.0,208.0,208.0,1721.0,208.0
2017-02-21,225.0,225.0,225.0,225.0,100.0,225.0
2017-02-27,237.60000610351562,237.60000610351562,237.60000610351562,237.60000610351562,200.0,237.60000610351562
2017-02-28,236.92999267578125,236.69000244140625,236.69000244140625,236.92999267578125,270.0,236.92999267578125
2017-03-15,219.73699951171875,219.73699951171875,219.73699951171875,219.73699951171875,100.0,219.73699951171875
2017-03-20,219.73699951171875,219.73699951171875,219.73699951171875,219.73699951171875,0.0,219.73699951171875
2017-08-08,255.0,255.0,255.0,255.0,0.0,255.0
2017-08-09,255.0,255.0,255.0,255.0,0.0,255.0
2017-08-10,195.00999450683594,195.00999450683594,195.00999450683594,195.00999450683594,100.0,195.00999450683594
2017-08-11,195.00999450683594,195.00999450683594,195.00999450683594,195.00999450683594,0.0,195.00999450683594
2017-08-14,195.00999450683594,195.00999450683594,195.00999450683594,195.00999450683594,0.0,195.00999450683594
2017-08-15,195.00999450683594,195.00999450683594,195.00999450683594,195.00999450683594,0.0,195.00999450683594
2017-08-16,195.00999450683594,195.00999450683594,195.00999450683594,195.00999450683594,0.0,195.00999450683594
2017-08-17,195.00999450683594,195.00999450683594,195.00999450683594,195.00999450683594,0.0,195.00999450683594
2017-08-18,195.00999450683594,195.00999450683594,195.00999450683594,195.00999450683594,0.0,195.00999450683594
2017-08-21,195.00999450683594,195.00999450683594,195.00999450683594,195.00999450683594,0.0,195.00999450683594
2017-08-22,195.00999450683594,195.00999450683594,195.00999450683594,195.00999450683594,0.0,195.00999450683594
2017-08-30,195.00999450683594,195.00999450683594,195.00999450683594,195.00999450683594,0.0,195.00999450683594
2017-08-31,195.00999450683594,195.00999450683594,195.00999450683594,195.00999450683594,0.0,195.00999450683594
2017-09-01,195.00999450683594,195.00999450683594,195.00999450683594,195.00999450683594,0.0,195.00999450683594
2017-09-05,195.00999450683594,195.00999450683594,195.00999450683594,195.00999450683594,0.0,195.00999450683594
2017-09-06,195.00999450683594,195.00999450683594,195.00999450683594,195.00999450683594,0.0,195.00999450683594
2017-09-07,195.00999450683594,195.00999450683594,195.00999450683594,195.00999450683594,0.0,195.00999450683594
2017-09-08,195.00999450683594,195.00999450683594,195.00999450683594,195.00999450683594,0.0,195.00999450683594
2017-09-11,195.00999450683594,195.00999450683594,195.00999450683594,195.00999450683594,0.0,195.00999450683594
2017-09-12,195.00999450683594,195.00999450683594,195.00999450683594,195.00999450683594,0.0,195.00999450683594
2017-09-13,195.00999450683594,195.00999450683594,195.00999450683594,195.00999450683594,0.0,195.00999450683594
2017-09-14,195.00999450683594,195.00999450683594,195.00999450683594,195.00999450683594,0.0,195.00999450683594
2017-09-15,195.00999450683594,195.00999450683594,195.00999450683594,195.00999450683594,0.0,195.00999450683594
2017-09-18,195.00999450683594,195.00999450683594,195.00999450683594,195.00999450683594,0.0,195.00999450683594
2017-09-19,195.00999450683594,195.00999450683594,195.00999450683594,195.00999450683594,0.0,195.00999450683594
2017-09-20,195.00999450683594,195.00999450683594,195.00999450683594,195.00999450683594,0.0,195.00999450683594
2017-09-21,195.00999450683594,195.00999450683594,195.00999450683594,195.00999450683594,0.0,195.00999450683594
2017-09-22,195.00999450683594,195.00999450683594,195.00999450683594,195.00999450683594,0.0,195.00999450683594
2017-09-25,195.00999450683594,195.00999450683594,195.00999450683594,195.00999450683594,0.0,195.00999450683594
2017-09-26,195.00999450683594,195.00999450683594,195.00999450683594,195.00999450683594,0.0,195.00999450683594
2017-09-27,195.00999450683594,195.00999450683594,195.00999450683594,195.00999450683594,0.0,195.00999450683594
2017-09-28,195.00999450683594,195.00999450683594,195.00999450683594,195.00999450683594,0.0,195.00999450683594
2017-10-05,280.7699890136719,249.61000061035156,249.61000061035156,280.7699890136719,200.0,280.7699890136719
2017-10-06,280.7699890136719,280.7699890136719,280.7699890136719,280.7699890136719,0.0,280.7699890136719
2017-10-09,280.7699890136719,280.7699890136719,280.7699890136719,280.7699890136719,0.0,280.7699890136719
2017-10-10,280.7699890136719,280.7699890136719,280.7699890136719,280.7699890136719,0.0,280.7699890136719
2017-10-11,280.7699890136719,280.7699890136719,280.7699890136719,280.7699890136719,0.0,280.7699890136719
2017-10-12,280.7699890136719,280.7699890136719,280.7699890136719,280.7699890136719,0.0,280.7699890136719
2017-10-13,280.7699890136719,280.7699890136719,280.7699890136719,280.7699890136719,0.0,280.7699890136719
2017-10-16,280.7699890136719,280.7699890136719,280.7699890136719,280.7699890136719,0.0,280.7699890136719
2017-10-17,280.7699890136719,280.7699890136719,280.7699890136719,280.7699890136719,0.0,280.7699890136719
2017-10-18,280.7699890136719,280.7699890136719,280.7699890136719,280.7699890136719,0.0,280.7699890136719
2017-10-19,280.7699890136719,280.7699890136719,280.7699890136719,280.7699890136719,0.0,280.7699890136719
2017-10-20,280.7699890136719,280.7699890136719,280.7699890136719,280.7699890136719,0.0,280.7699890136719
2017-10-23,280.7699890136719,280.7699890136719,280.7699890136719,280.7699890136719,0.0,280.7699890136719
2017-10-24,280.7699890136719,280.7699890136719,280.7699890136719,280.7699890136719,0.0,280.7699890136719
2017-10-25,280.7699890136719,280.7699890136719,280.7699890136719,280.7699890136719,0.0,280.7699890136719
2017-10-26,280.7699890136719,280.7699890136719,280.7699890136719,280.7699890136719,0.0,280.7699890136719
2017-10-27,280.7699890136719,280.7699890136719,280.7699890136719,280.7699890136719,0.0,280.7699890136719
2017-10-30,280.7699890136719,280.7699890136719,280.7699890136719,280.7699890136719,0.0,280.7699890136719
2017-10-31,280.7699890136719,280.7699890136719,280.7699890136719,280.7699890136719,0.0,280.7699890136719
2017-11-01,280.7699890136719,280.7699890136719,280.7699890136719,280.7699890136719,0.0,280.7699890136719
2017-11-02,285.20001220703125,285.20001220703125,285.20001220703125,285.20001220703125,100.0,285.20001220703125
2017-11-03,285.20001220703125,285.20001220703125,285.20001220703125,285.20001220703125,0.0,285.20001220703125
2017-11-06,285.20001220703125,285.20001220703125,285.20001220703125,285.20001220703125,0.0,285.20001220703125
2017-11-07,285.20001220703125,285.20001220703125,285.20001220703125,285.20001220703125,0.0,285.20001220703125
2017-11-08,285.20001220703125,285.20001220703125,285.20001220703125,285.20001220703125,0.0,285.20001220703125
2017-11-09,285.20001220703125,285.20001220703125,285.20001220703125,285.20001220703125,0.0,285.20001220703125
2017-11-10,285.20001220703125,285.20001220703125,285.20001220703125,285.20001220703125,0.0,285.20001220703125
2017-11-13,285.20001220703125,285.20001220703125,285.20001220703125,285.20001220703125,0.0,285.20001220703125
2017-11-14,250.0,250.0,250.0,250.0,100.0,250.0
2017-11-15,250.0,250.0,250.0,250.0,0.0,250.0
2017-11-16,250.0,250.0,250.0,250.0,0.0,250.0
2017-11-17,250.0,250.0,250.0,250.0,0.0,250.0
2017-11-20,250.0,250.0,250.0,250.0,0.0,250.0
2017-11-21,250.0,250.0,250.0,250.0,0.0,250.0
2017-11-22,250.0,250.0,250.0,250.0,0.0,250.0
2017-11-24,250.0,250.0,250.0,250.0,0.0,250.0
2017-11-27,250.0,250.0,250.0,250.0,0.0,250.0
2017-11-28,250.0,250.0,250.0,250.0,0.0,250.0
2017-11-29,250.0,250.0,250.0,250.0,0.0,250.0
2017-11-30,250.0,250.0,250.0,250.0,0.0,250.0
2017-12-01,250.0,250.0,250.0,250.0,0.0,250.0
2017-12-04,250.0,250.0,250.0,250.0,0.0,250.0
2017-12-05,250.0,250.0,250.0,250.0,0.0,250.0
2017-12-06,250.0,250.0,250.0,250.0,0.0,250.0
2017-12-07,250.0,250.0,250.0,250.0,0.0,250.0
2017-12-08,250.0,250.0,250.0,250.0,0.0,250.0
2017-12-11,250.0,250.0,250.0,250.0,0.0,250.0
2017-12-12,250.0,250.0,250.0,250.0,0.0,250.0
2017-12-13,250.0,250.0,250.0,250.0,0.0,250.0
2017-12-14,250.0,250.0,250.0,250.0,0.0,250.0
2017-12-15,250.0,250.0,250.0,250.0,0.0,250.0
2017-12-18,250.0,250.0,250.0,250.0,0.0,250.0
2017-12-19,250.0,250.0,250.0,250.0,0.0,250.0
2017-12-20,250.0,250.0,250.0,250.0,100.0,250.0
2017-12-21,250.0,250.0,250.0,250.0,0.0,250.0
2017-12-22,250.0,250.0,250.0,250.0,0.0,250.0
2017-12-26,250.0,250.0,250.0,250.0,0.0,250.0
2017-12-27,250.0,250.0,250.0,250.0,0.0,250.0
2017-12-28,250.0,250.0,250.0,250.0,0.0,250.0
2017-12-29,250.0,250.0,250.0,250.0,0.0,250.0
2018-01-02,250.0,250.0,250.0,250.0,0.0,250.0
2018-01-03,250.0,250.0,250.0,250.0,0.0,250.0
2018-01-04,250.0,250.0,250.0,250.0,0.0,250.0
2018-01-05,250.0,250.0,250.0,250.0,0.0,250.0
2018-01-08,250.0,250.0,250.0,250.0,0.0,250.0
2018-01-09,250.0,250.0,250.0,250.0,0.0,250.0
2018-01-10,250.0,250.0,250.0,250.0,0.0,250.0
2018-01-11,250.0,250.0,250.0,250.0,0.0,250.0
2018-01-12,250.0,250.0,250.0,250.0,0.0,250.0
2018-01-16,250.0,250.0,250.0,250.0,0.0,250.0
2018-01-17,250.0,250.0,250.0,250.0,0.0,250.0
2018-01-18,250.0,250.0,250.0,250.0,0.0,250.0
2018-01-19,294.0,294.0,294.0,294.0,100.0,294.0
2018-01-22,314.07000732421875,265.0199890136719,295.0,314.07000732421875,300.0,314.07000732421875
2018-01-23,314.07000732421875,314.07000732421875,314.07000732421875,314.07000732421875,0.0,314.07000732421875
2018-01-24,314.07000732421875,314.07000732421875,314.07000732421875,314.07000732421875,0.0,314.07000732421875
2018-01-25,228.7899932861328,228.7899932861328,228.7899932861328,228.7899932861328,100.0,228.7899932861328
2018-01-26,228.7899932861328,228.7899932861328,228.7899932861328,228.7899932861328,0.0,228.7899932861328
2018-01-29,228.7899932861328,228.7899932861328,228.7899932861328,228.7899932861328,0.0,228.7899932861328
2018-01-30,228.7899932861328,228.7899932861328,228.7899932861328,228.7899932861328,0.0,228.7899932861328
2018-01-31,228.7899932861328,228.7899932861328,228.7899932861328,228.7899932861328,0.0,228.7899932861328
2018-02-01,228.7899932861328,228.7899932861328,228.7899932861328,228.7899932861328,0.0,228.7899932861328
2018-02-02,228.7899932861328,228.7899932861328,228.7899932861328,228.7899932861328,0.0,228.7899932861328
2018-02-05,228.7899932861328,228.7899932861328,228.7899932861328,228.7899932861328,0.0,228.7899932861328
2018-02-06,228.7899932861328,228.7899932861328,228.7899932861328,228.7899932861328,0.0,228.7899932861328
2018-02-07,228.7899932861328,228.7899932861328,228.7899932861328,228.7899932861328,0.0,228.7899932861328
2018-02-08,228.7899932861328,228.7899932861328,228.7899932861328,228.7899932861328,0.0,228.7899932861328
2018-02-09,228.7899932861328,228.7899932861328,228.7899932861328,228.7899932861328,0.0,228.7899932861328
2018-02-12,228.7899932861328,228.7899932861328,228.7899932861328,228.7899932861328,0.0,228.7899932861328
2018-02-13,228.7899932861328,228.7899932861328,228.7899932861328,228.7899932861328,0.0,228.7899932861328
2018-02-14,228.7899932861328,228.7899932861328,228.7899932861328,228.7899932861328,0.0,228.7899932861328
2018-02-15,228.7899932861328,228.7899932861328,228.7899932861328,228.7899932861328,0.0,228.7899932861328
2018-02-16,228.7899932861328,228.7899932861328,228.7899932861328,228.7899932861328,0.0,228.7899932861328
2018-02-20,228.7899932861328,228.7899932861328,228.7899932861328,228.7899932861328,0.0,228.7899932861328
2018-02-21,228.7899932861328,228.7899932861328,228.7899932861328,228.7899932861328,0.0,228.7899932861328
2018-02-22,228.7899932861328,228.7899932861328,228.7899932861328,228.7899932861328,0.0,228.7899932861328
2018-02-23,228.7899932861328,228.7899932861328,228.7899932861328,228.7899932861328,0.0,228.7899932861328
2018-02-26,228.7899932861328,228.7899932861328,228.7899932861328,228.7899932861328,0.0,228.7899932861328
2018-02-27,228.7899932861328,228.7899932861328,228.7899932861328,228.7899932861328,0.0,228.7899932861328
2018-02-28,228.7899932861328,228.7899932861328,228.7899932861328,228.7899932861328,0.0,228.7899932861328
2018-03-01,228.7899932861328,228.7899932861328,228.7899932861328,228.7899932861328,0.0,228.7899932861328
2018-03-02,228.7899932861328,228.7899932861328,228.7899932861328,228.7899932861328,0.0,228.7899932861328
2018-03-05,228.7899932861328,228.7899932861328,228.7899932861328,228.7899932861328,0.0,228.7899932861328
2018-03-06,228.7899932861328,228.7899932861328,228.7899932861328,228.7899932861328,0.0,228.7899932861328
2018-03-07,228.7899932861328,228.7899932861328,228.7899932861328,228.7899932861328,0.0,228.7899932861328
2018-03-08,228.7899932861328,228.7899932861328,228.7899932861328,228.7899932861328,0.0,228.7899932861328
2018-03-09,228.7899932861328,228.7899932861328,228.7899932861328,228.7899932861328,0.0,228.7899932861328
2018-03-12,228.7899932861328,228.7899932861328,228.7899932861328,228.7899932861328,0.0,228.7899932861328
2018-03-13,228.7899932861328,228.7899932861328,228.7899932861328,228.7899932861328,0.0,228.7899932861328
2018-03-14,228.7899932861328,228.7899932861328,228.7899932861328,228.7899932861328,0.0,228.7899932861328
2018-03-15,228.7899932861328,228.7899932861328,228.7899932861328,228.7899932861328,0.0,228.7899932861328
2018-03-16,228.7899932861328,228.7899932861328,228.7899932861328,228.7899932861328,0.0,228.7899932861328
2018-03-19,228.7899932861328,228.7899932861328,228.7899932861328,228.7899932861328,0.0,228.7899932861328
2018-03-20,228.7899932861328,228.7899932861328,228.7899932861328,228.7899932861328,0.0,228.7899932861328
2018-03-21,228.7899932861328,228.7899932861328,228.7899932861328,228.7899932861328,0.0,228.7899932861328
2018-03-22,228.7899932861328,228.7899932861328,228.7899932861328,228.7899932861328,0.0,228.7899932861328
2018-03-23,228.7899932861328,228.7899932861328,228.7899932861328,228.7899932861328,0.0,228.7899932861328
2018-03-26,228.7899932861328,228.7899932861328,228.7899932861328,228.7899932861328,0.0,228.7899932861328
2018-03-27,228.7899932861328,228.7899932861328,228.7899932861328,228.7899932861328,0.0,228.7899932861328
2018-03-28,228.7899932861328,228.7899932861328,228.7899932861328,228.7899932861328,0.0,228.7899932861328
2018-03-29,228.7899932861328,228.7899932861328,228.7899932861328,228.7899932861328,0.0,228.7899932861328
2018-04-02,228.7899932861328,228.7899932861328,228.7899932861328,228.7899932861328,0.0,228.7899932861328
2018-04-03,228.7899932861328,228.7899932861328,228.7899932861328,228.7899932861328,0.0,228.7899932861328
2018-04-04,228.7899932861328,228.7899932861328,228.7899932861328,228.7899932861328,0.0,228.7899932861328
2018-04-05,228.7899932861328,228.7899932861328,228.7899932861328,228.7899932861328,0.0,228.7899932861328
2018-04-06,228.7899932861328,228.7899932861328,228.7899932861328,228.7899932861328,0.0,228.7899932861328
2018-04-09,228.7899932861328,228.7899932861328,228.7899932861328,228.7899932861328,0.0,228.7899932861328
2018-04-10,228.7899932861328,228.7899932861328,228.7899932861328,228.7899932861328,0.0,228.7899932861328
2018-04-11,228.7899932861328,228.7899932861328,228.7899932861328,228.7899932861328,0.0,228.7899932861328
2018-04-12,228.7899932861328,228.7899932861328,228.7899932861328,228.7899932861328,0.0,228.7899932861328
2018-04-23,228.7899932861328,228.7899932861328,228.7899932861328,228.7899932861328,0.0,228.7899932861328
2018-04-24,228.7899932861328,228.7899932861328,228.7899932861328,228.7899932861328,0.0,228.7899932861328
2018-04-25,228.7899932861328,228.7899932861328,228.7899932861328,228.7899932861328,0.0,228.7899932861328
2018-04-26,228.7899932861328,228.7899932861328,228.7899932861328,228.7899932861328,0.0,228.7899932861328
2018-04-27,228.7899932861328,228.7899932861328,228.7899932861328,228.7899932861328,0.0,228.7899932861328
2018-04-30,228.7899932861328,228.7899932861328,228.7899932861328,228.7899932861328,0.0,228.7899932861328
2018-05-01,228.7899932861328,228.7899932861328,228.7899932861328,228.7899932861328,0.0,228.7899932861328
2018-06-13,228.7899932861328,228.7899932861328,228.7899932861328,228.7899932861328,0.0,228.7899932861328
2018-06-14,228.7899932861328,228.7899932861328,228.7899932861328,228.7899932861328,0.0,228.7899932861328
2018-06-15,228.7899932861328,228.7899932861328,228.7899932861328,228.7899932861328,0.0,228.7899932861328
2018-06-18,228.7899932861328,228.7899932861328,228.7899932861328,228.7899932861328,0.0,228.7899932861328
2018-06-19,228.7899932861328,228.7899932861328,228.7899932861328,228.7899932861328,0.0,228.7899932861328
2018-06-20,228.7899932861328,228.7899932861328,228.7899932861328,228.7899932861328,0.0,228.7899932861328
2018-06-21,228.7899932861328,228.7899932861328,228.7899932861328,228.7899932861328,0.0,228.7899932861328
2018-06-22,228.7899932861328,228.7899932861328,228.7899932861328,228.7899932861328,0.0,228.7899932861328
2018-07-23,228.7899932861328,228.7899932861328,228.7899932861328,228.7899932861328,0.0,228.7899932861328
2018-07-24,228.7899932861328,228.7899932861328,228.7899932861328,228.7899932861328,0.0,228.7899932861328
2018-07-25,228.7899932861328,228.7899932861328,228.7899932861328,228.7899932861328,0.0,228.7899932861328
2018-07-26,228.7899932861328,228.7899932861328,228.7899932861328,228.7899932861328,0.0,228.7899932861328
2018-07-27,228.7899932861328,228.7899932861328,228.7899932861328,228.7899932861328,0.0,228.7899932861328
2018-07-30,228.7899932861328,228.7899932861328,228.7899932861328,228.7899932861328,0.0,228.7899932861328
2018-08-15,228.7899932861328,228.7899932861328,228.7899932861328,228.7899932861328,0.0,228.7899932861328
2018-08-16,228.7899932861328,228.7899932861328,228.7899932861328,228.7899932861328,0.0,228.7899932861328
2018-08-17,228.7899932861328,228.7899932861328,228.7899932861328,228.7899932861328,0.0,228.7899932861328
2018-08-20,228.7899932861328,228.7899932861328,228.7899932861328,228.7899932861328,0.0,228.7899932861328
2018-08-21,228.7899932861328,228.7899932861328,228.7899932861328,228.7899932861328,0.0,228.7899932861328
2018-08-22,228.7899932861328,228.7899932861328,228.7899932861328,228.7899932861328,0.0,228.7899932861328
2018-08-23,228.7899932861328,228.7899932861328,228.7899932861328,228.7899932861328,0.0,228.7899932861328
2018-08-24,228.7899932861328,228.7899932861328,228.7899932861328,228.7899932861328,0.0,228.7899932861328
2018-09-06,228.7899932861328,228.7899932861328,228.7899932861328,228.7899932861328,0.0,228.7899932861328
2018-09-07,228.7899932861328,228.7899932861328,228.7899932861328,228.7899932861328,0.0,228.7899932861328
2018-09-10,228.7899932861328,228.7899932861328,228.7899932861328,228.7899932861328,0.0,228.7899932861328
2018-09-11,228.7899932861328,228.7899932861328,228.7899932861328,228.7899932861328,0.0,228.7899932861328
2018-09-12,228.7899932861328,228.7899932861328,228.7899932861328,228.7899932861328,0.0,228.7899932861328
2018-09-13,228.7899932861328,228.7899932861328,228.7899932861328,228.7899932861328,0.0,228.7899932861328
