Date,High,Low,Open,Close,Volume,Adj Close
2017-11-02,45.54999923706055,45.54999923706055,45.54999923706055,45.54999923706055,200.0,45.22645950317383
2017-11-03,47.0,46.54999923706055,46.54999923706055,47.0,400.0,46.666160583496094
2017-11-06,47.45000076293945,45.650001525878906,47.22999954223633,46.5,1300.0,46.16971206665039
2018-05-24,44.5,43.0,44.5,44.45000076293945,3700.0,44.134273529052734
2018-05-25,44.54999923706055,42.560001373291016,44.54999923706055,44.29999923706055,3400.0,43.98533630371094
2018-05-29,44.29999923706055,43.61000061035156,44.29999923706055,43.61000061035156,900.0,43.30023956298828
2018-05-30,44.0,43.119998931884766,43.70000076293945,43.25,3200.0,42.94279479980469
2018-05-31,43.650001525878906,43.5,43.650001525878906,43.5,1200.0,43.19102096557617
2018-06-01,44.0,43.20000076293945,43.95000076293945,44.0,1100.0,43.687469482421875
2018-06-04,44.0,43.099998474121094,43.70000076293945,43.099998474121094,2500.0,42.793861389160156
2018-06-05,43.099998474121094,43.099998474121094,43.099998474121094,43.099998474121094,0.0,42.793861389160156
2018-06-06,44.0,43.0,43.0,43.150001525878906,2700.0,42.843509674072266
2018-06-07,43.900001525878906,42.369998931884766,43.15999984741211,43.099998474121094,8400.0,42.793861389160156
2018-06-08,44.369998931884766,43.25,44.25,43.25,6400.0,42.94279479980469
2018-06-11,44.290000915527344,44.0,44.0,44.099998474121094,1300.0,43.78675842285156
2018-06-12,44.900001525878906,44.0,44.900001525878906,44.36000061035156,1700.0,44.04491424560547
2018-06-13,44.75,43.900001525878906,44.75,44.5,1400.0,44.18391799926758
2018-06-14,44.5,43.75,43.75,44.5,600.0,44.18391799926758
2018-06-15,44.650001525878906,44.20000076293945,44.20000076293945,44.650001525878906,6100.0,44.332855224609375
2018-06-18,45.0,45.0,45.0,45.0,1400.0,44.68036651611328
2018-06-19,45.0,44.54999923706055,45.0,44.54999923706055,900.0,44.23356246948242
2018-06-20,45.0,44.06999969482422,45.0,44.54999923706055,3600.0,44.23356246948242
2018-06-21,45.900001525878906,43.869998931884766,44.630001068115234,45.849998474121094,6400.0,45.52432632446289
2018-06-22,45.599998474121094,43.099998474121094,45.599998474121094,45.599998474121094,5500.0,45.27610397338867
2018-06-25,45.79999923706055,42.959999084472656,42.959999084472656,45.79999923706055,4500.0,45.47468185424805
2018-06-26,45.70000076293945,45.70000076293945,45.70000076293945,45.70000076293945,900.0,45.375396728515625
2018-06-27,45.5,44.20000076293945,44.70000076293945,44.20000076293945,5000.0,43.886051177978516
2018-06-28,44.20000076293945,44.20000076293945,44.20000076293945,44.20000076293945,0.0,43.886051177978516
2018-06-29,44.20000076293945,44.20000076293945,44.20000076293945,44.20000076293945,0.0,43.886051177978516
2018-07-02,48.439998626708984,44.650001525878906,44.650001525878906,48.439998626708984,4300.0,48.09593200683594
2018-07-03,44.15999984741211,44.15999984741211,44.15999984741211,44.15999984741211,500.0,43.84633255004883
2018-07-05,47.95000076293945,45.349998474121094,46.349998474121094,45.650001525878906,1400.0,45.32575225830078
2018-07-06,46.5099983215332,45.20000076293945,45.400001525878906,45.20000076293945,1300.0,44.87894821166992
2018-07-09,45.20000076293945,45.20000076293945,45.20000076293945,45.20000076293945,0.0,44.87894821166992
2018-07-10,46.0,45.099998474121094,46.0,45.099998474121094,600.0,44.77965545654297
2018-07-11,45.099998474121094,45.099998474121094,45.099998474121094,45.099998474121094,0.0,44.77965545654297
2018-07-12,45.38999938964844,43.150001525878906,45.25,43.150001525878906,2900.0,42.843509674072266
2018-07-13,43.150001525878906,43.150001525878906,43.150001525878906,43.150001525878906,0.0,42.843509674072266
2018-07-16,43.75,42.5,43.75,42.70000076293945,2800.0,42.396705627441406
2018-07-17,43.02000045776367,42.5099983215332,42.5099983215332,43.0,1600.0,42.69457244873047
2018-07-18,42.75,42.5,42.75,42.75,700.0,42.44635009765625
2018-07-19,43.0,42.0,43.0,42.5,6300.0,42.198123931884766
2018-07-20,42.5,42.5,42.5,42.5,0.0,42.198123931884766
2018-07-23,42.5099983215332,42.5,42.5099983215332,42.5,1800.0,42.198123931884766
2018-07-24,42.720001220703125,42.5,42.5,42.5099983215332,400.0,42.20804977416992
2018-07-25,42.5099983215332,42.5099983215332,42.5099983215332,42.5099983215332,0.0,42.20804977416992
2018-07-26,42.5,42.5,42.5,42.5,1100.0,42.198123931884766
2018-07-27,43.27000045776367,42.54999923706055,42.54999923706055,43.27000045776367,1000.0,42.96265411376953
2018-07-30,42.599998474121094,42.5,42.54999923706055,42.5,400.0,42.198123931884766
2018-07-31,43.900001525878906,42.650001525878906,43.150001525878906,43.900001525878906,4300.0,43.58818054199219
2018-08-01,43.54999923706055,43.0,43.20000076293945,43.54999923706055,2000.0,43.240665435791016
2018-08-02,43.70000076293945,43.0,43.099998474121094,43.70000076293945,700.0,43.38960266113281
2018-08-03,43.70000076293945,43.70000076293945,43.70000076293945,43.70000076293945,0.0,43.38960266113281
2018-08-06,43.119998931884766,43.119998931884766,43.119998931884766,43.119998931884766,600.0,42.813720703125
2018-08-07,44.0,44.0,44.0,44.0,200.0,43.687469482421875
2018-08-08,43.70000076293945,42.86000061035156,42.93000030517578,43.099998474121094,2600.0,42.793861389160156
2018-08-09,44.2400016784668,43.04999923706055,43.20000076293945,43.70000076293945,4400.0,43.38960266113281
2018-08-10,43.150001525878906,42.650001525878906,42.650001525878906,43.150001525878906,300.0,42.843509674072266
2018-08-13,43.45000076293945,42.54999923706055,42.599998474121094,42.599998474121094,1500.0,42.29741287231445
2018-08-14,42.720001220703125,42.5,42.720001220703125,42.5,400.0,42.198123931884766
2018-08-15,42.5,42.5,42.5,42.5,0.0,42.198123931884766
2018-08-16,42.5,42.5,42.5,42.5,0.0,42.198123931884766
2018-08-17,42.400001525878906,42.20000076293945,42.290000915527344,42.20000076293945,1100.0,41.9002571105957
2018-08-20,42.20000076293945,42.20000076293945,42.20000076293945,42.20000076293945,0.0,41.9002571105957
2018-08-21,42.849998474121094,42.849998474121094,42.849998474121094,42.849998474121094,400.0,42.54563522338867
2018-08-22,42.7599983215332,42.7599983215332,42.7599983215332,42.7599983215332,100.0,42.456275939941406
2018-08-23,41.91999816894531,41.91999816894531,41.91999816894531,41.91999816894531,100.0,41.62224197387695
2018-08-24,41.93000030517578,41.0,41.849998474121094,41.70000076293945,4500.0,41.40380859375
2018-08-27,41.20000076293945,41.20000076293945,41.20000076293945,41.20000076293945,500.0,40.9073600769043
2018-08-28,41.5,41.5,41.5,41.5,400.0,41.20522689819336
2018-08-29,41.45000076293945,40.099998474121094,41.45000076293945,40.36000061035156,1700.0,40.073326110839844
2018-08-30,41.20000076293945,41.0,41.0,41.16999816894531,2600.0,40.877567291259766
2018-08-31,42.849998474121094,41.04999923706055,42.20000076293945,42.20000076293945,4700.0,41.9002571105957
2018-09-04,42.20000076293945,42.20000076293945,42.20000076293945,42.20000076293945,0.0,41.9002571105957
2018-09-05,42.0,41.54999923706055,41.54999923706055,42.0,900.0,41.70167541503906
2018-09-06,42.5,41.5,41.599998474121094,42.0099983215332,4100.0,41.71160125732422
2018-09-07,42.20000076293945,42.04999923706055,42.20000076293945,42.04999923706055,300.0,41.751319885253906
2018-09-10,42.900001525878906,42.900001525878906,42.900001525878906,42.900001525878906,400.0,42.59528350830078
2018-09-11,42.380001068115234,41.5,41.5,42.0,800.0,41.70167541503906
2018-09-12,41.959999084472656,41.959999084472656,41.959999084472656,41.959999084472656,300.0,41.661956787109375
2018-09-13,42.900001525878906,42.88999938964844,42.900001525878906,42.88999938964844,300.0,42.58535385131836
2018-09-14,42.220001220703125,42.0,42.220001220703125,42.0,700.0,41.70167541503906
2018-09-17,42.0,42.0,42.0,42.0,0.0,41.70167541503906
2018-09-18,42.0,42.0,42.0,42.0,300.0,41.70167541503906
2018-09-19,42.0099983215332,42.0,42.0,42.0,1700.0,41.70167541503906
2018-09-20,42.130001068115234,41.75,41.75,41.75,1200.0,41.453453063964844
2018-09-21,43.349998474121094,41.79999923706055,41.79999923706055,43.349998474121094,1700.0,43.042083740234375
2018-09-24,42.0,42.0,42.0,42.0,600.0,41.70167541503906
2018-09-25,42.900001525878906,41.95000076293945,41.95000076293945,42.900001525878906,300.0,42.59528350830078
2018-09-26,42.900001525878906,42.900001525878906,42.900001525878906,42.900001525878906,0.0,42.59528350830078
2018-09-27,42.27000045776367,41.849998474121094,42.099998474121094,41.849998474121094,1500.0,41.552738189697266
2018-09-28,42.0,41.900001525878906,41.900001525878906,42.0,600.0,41.70167541503906
2018-10-01,43.040000915527344,42.65999984741211,42.65999984741211,43.040000915527344,400.0,42.734291076660156
2018-10-02,43.040000915527344,42.220001220703125,42.9900016784668,43.040000915527344,2600.0,42.734291076660156
2018-10-03,43.040000915527344,43.040000915527344,43.040000915527344,43.040000915527344,0.0,42.734291076660156
2018-10-04,42.04999923706055,42.0,42.0,42.0099983215332,600.0,41.71160125732422
2018-10-05,43.0,43.0,43.0,43.0,100.0,42.69457244873047
2018-10-08,42.22999954223633,42.0099983215332,42.04999923706055,42.0099983215332,500.0,41.71160125732422
2018-10-09,42.29999923706055,42.0,42.29999923706055,42.0,800.0,41.70167541503906
2018-10-10,42.06999969482422,41.95000076293945,42.06999969482422,42.0,1200.0,41.70167541503906
2018-10-11,42.130001068115234,42.0,42.130001068115234,42.0,600.0,41.70167541503906
2018-10-12,43.0,42.130001068115234,43.0,42.130001068115234,700.0,41.830753326416016
2018-10-15,43.0,42.130001068115234,42.130001068115234,43.0,600.0,42.69457244873047
2018-10-16,42.88999938964844,42.0,42.0,42.88999938964844,1900.0,42.58535385131836
2018-10-17,42.5,42.0,42.0,42.5,700.0,42.198123931884766
2018-10-18,42.11000061035156,42.11000061035156,42.11000061035156,42.11000061035156,2000.0,41.81089401245117
2018-10-19,42.04999923706055,42.0,42.0,42.0,1200.0,41.70167541503906
2018-10-22,41.52000045776367,41.52000045776367,41.52000045776367,41.52000045776367,100.0,41.2250862121582
2018-10-23,42.5,41.5,41.5,41.65999984741211,700.0,41.36408996582031
2018-10-24,41.65999984741211,41.65999984741211,41.65999984741211,41.65999984741211,100.0,41.36408996582031
2018-10-25,39.0099983215332,39.0099983215332,39.0099983215332,39.0099983215332,400.0,38.73291015625
2018-10-26,39.0099983215332,39.0099983215332,39.0099983215332,39.0099983215332,0.0,38.73291015625
2018-10-29,39.16999816894531,38.45000076293945,39.16999816894531,38.459999084472656,700.0,38.18681716918945
2018-10-30,40.15999984741211,38.720001220703125,40.15999984741211,38.720001220703125,500.0,38.44497299194336
2018-10-31,39.459999084472656,38.75,38.75,38.91999816894531,1100.0,38.643550872802734
2018-11-01,39.470001220703125,39.470001220703125,39.470001220703125,39.470001220703125,400.0,39.18964767456055
2018-11-02,39.470001220703125,39.470001220703125,39.470001220703125,39.470001220703125,100.0,39.18964767456055
2018-11-05,41.0,39.779998779296875,41.0,39.779998779296875,900.0,39.49744415283203
2018-11-06,39.779998779296875,39.779998779296875,39.779998779296875,39.779998779296875,0.0,39.49744415283203
2018-11-07,39.779998779296875,39.779998779296875,39.779998779296875,39.779998779296875,100.0,39.49744415283203
2018-11-08,39.77000045776367,38.310001373291016,39.77000045776367,38.310001373291016,400.0,38.03788757324219
2018-11-09,38.310001373291016,38.310001373291016,38.310001373291016,38.310001373291016,100.0,38.03788757324219
2018-11-12,40.540000915527344,38.310001373291016,38.810001373291016,40.540000915527344,800.0,40.25204849243164
2018-11-13,40.540000915527344,40.540000915527344,40.540000915527344,40.540000915527344,0.0,40.25204849243164
2018-11-14,40.540000915527344,40.540000915527344,40.540000915527344,40.540000915527344,100.0,40.25204849243164
2018-11-15,40.540000915527344,40.540000915527344,40.540000915527344,40.540000915527344,100.0,40.25204849243164
2018-11-16,39.689998626708984,38.689998626708984,39.5,38.7599983215332,2700.0,38.48468780517578
2018-11-19,38.75,38.5,38.5,38.5,1000.0,38.22653579711914
2018-11-20,39.310001373291016,38.400001525878906,38.900001525878906,38.599998474121094,2100.0,38.32582473754883
2018-11-21,38.66999816894531,37.88999938964844,38.02000045776367,38.119998931884766,3200.0,37.84923553466797
2018-11-23,38.119998931884766,38.119998931884766,38.119998931884766,38.119998931884766,0.0,37.84923553466797
2018-11-26,38.119998931884766,38.119998931884766,38.119998931884766,38.119998931884766,100.0,37.84923553466797
2018-11-27,39.97999954223633,37.70000076293945,38.400001525878906,37.900001525878906,3600.0,37.63079833984375
2018-11-28,39.779998779296875,37.83000183105469,39.040000915527344,38.56999969482422,8200.0,38.29603958129883
2018-11-29,40.0,38.0099983215332,40.0,38.689998626708984,2800.0,38.415184020996094
2018-11-30,40.0,37.79999923706055,38.59000015258789,37.79999923706055,12400.0,37.5315055847168
2018-12-03,39.0,38.0,38.599998474121094,38.63999938964844,9200.0,38.36553955078125
2018-12-04,38.970001220703125,37.869998931884766,38.0,37.869998931884766,4200.0,37.601009368896484
2018-12-06,38.25,37.849998474121094,37.849998474121094,37.91999816894531,1600.0,37.65065383911133
2018-12-07,38.66999816894531,37.849998474121094,38.400001525878906,38.040000915527344,1600.0,37.769805908203125
2018-12-10,39.279998779296875,37.849998474121094,37.849998474121094,38.0099983215332,1500.0,37.740013122558594
2018-12-11,38.369998931884766,38.09000015258789,38.369998931884766,38.09000015258789,2000.0,37.8194465637207
2018-12-12,37.0,37.0,37.0,37.0,700.0,36.73719024658203
2018-12-13,38.099998474121094,37.5,37.5099983215332,38.099998474121094,1000.0,37.829376220703125
2018-12-14,38.099998474121094,38.099998474121094,38.099998474121094,38.099998474121094,100.0,37.829376220703125
2018-12-17,38.63999938964844,37.0,38.369998931884766,37.150001525878906,6100.0,36.88612747192383
2018-12-18,37.0,36.5,36.720001220703125,36.5,800.0,36.24074172973633
2018-12-19,37.59000015258789,37.59000015258789,37.59000015258789,37.59000015258789,500.0,37.322998046875
2018-12-20,37.5,37.5,37.5,37.5,100.0,37.233638763427734
2018-12-21,37.599998474121094,36.900001525878906,36.900001525878906,37.599998474121094,800.0,37.33292770385742
2018-12-24,37.599998474121094,33.20000076293945,35.5,36.0,3700.0,35.744293212890625
2018-12-26,36.18000030517578,36.0099983215332,36.0099983215332,36.18000030517578,500.0,35.92301559448242
2018-12-27,36.0,35.0,36.0,35.25,5200.0,34.99961853027344
2018-12-28,36.0,35.81999969482422,35.959999084472656,36.0,1000.0,35.744293212890625
2018-12-31,37.5,35.779998779296875,37.47999954223633,36.18000030517578,9000.0,35.92301559448242
2019-01-02,36.18000030517578,36.18000030517578,36.18000030517578,36.18000030517578,0.0,35.92301559448242
2019-01-03,35.29999923706055,35.25,35.29999923706055,35.25,1300.0,34.99961853027344
2019-01-04,37.47999954223633,36.33000183105469,36.4900016784668,37.060001373291016,5400.0,36.7967643737793
2019-01-07,36.79999923706055,35.66999816894531,35.66999816894531,36.59000015258789,1700.0,36.330101013183594
2019-01-08,37.31999969482422,36.79999923706055,37.18000030517578,36.90999984741211,4200.0,36.647830963134766
2019-01-09,37.4900016784668,36.04999923706055,36.709999084472656,36.75,1400.0,36.48896789550781
2019-01-10,37.5,36.849998474121094,37.5,37.5,13400.0,37.233638763427734
2019-01-11,37.5,37.18000030517578,37.5,37.5,4100.0,37.233638763427734
2019-01-14,37.5,37.5,37.5,37.5,100.0,37.233638763427734
2019-01-15,39.70000076293945,37.970001220703125,38.0,39.70000076293945,1600.0,39.41801452636719
2019-01-16,42.029998779296875,37.11000061035156,39.619998931884766,40.959999084472656,9600.0,40.66905975341797
2019-01-17,39.970001220703125,37.36000061035156,37.36000061035156,38.41999816894531,4300.0,38.14710235595703
2019-01-18,40.4900016784668,37.849998474121094,38.459999084472656,38.95000076293945,15000.0,38.67333984375
2019-01-22,39.38999938964844,37.650001525878906,37.650001525878906,38.689998626708984,1100.0,38.415184020996094
2019-01-23,36.880001068115234,36.880001068115234,36.880001068115234,36.880001068115234,1500.0,36.6180419921875
2019-01-24,37.310001373291016,37.310001373291016,37.310001373291016,37.310001373291016,100.0,37.04499053955078
2019-01-25,39.81999969482422,39.0,39.0,39.20000076293945,2300.0,38.921566009521484
2019-01-28,39.849998474121094,38.540000915527344,39.849998474121094,38.849998474121094,3600.0,38.57404708862305
2019-01-29,39.54999923706055,39.349998474121094,39.54999923706055,39.349998474121094,600.0,39.07049560546875
2019-01-30,40.5,37.81999969482422,38.06999969482422,39.619998931884766,12900.0,39.33858108520508
2019-01-31,39.9900016784668,37.619998931884766,39.619998931884766,39.9900016784668,1600.0,39.705955505371094
2019-02-01,41.54999923706055,40.0,40.02000045776367,41.0,6500.0,40.708778381347656
2019-02-04,43.86000061035156,43.86000061035156,43.86000061035156,43.86000061035156,200.0,43.548465728759766
2019-02-05,43.849998474121094,41.0099983215332,41.0099983215332,41.130001068115234,6100.0,40.83785629272461
2019-02-06,43.81999969482422,41.16999816894531,41.38999938964844,43.81999969482422,500.0,43.50874710083008
2019-02-07,43.81999969482422,43.81999969482422,43.81999969482422,43.81999969482422,0.0,43.50874710083008
2019-02-08,42.34000015258789,41.68000030517578,42.18000030517578,42.34000015258789,2700.0,42.03926086425781
2019-02-11,42.34000015258789,41.5099983215332,42.34000015258789,41.5099983215332,700.0,41.215152740478516
2019-02-12,41.099998474121094,40.38999938964844,40.38999938964844,40.7599983215332,1000.0,40.470481872558594
2019-02-13,42.41999816894531,42.41999816894531,42.41999816894531,42.41999816894531,300.0,42.118690490722656
2019-02-14,44.689998626708984,42.16999816894531,42.25,42.650001525878906,4700.0,42.34706115722656
2019-02-15,44.33000183105469,41.400001525878906,42.709999084472656,44.20000076293945,900.0,43.886051177978516
2019-02-19,44.0,42.400001525878906,44.0,43.29999923706055,1400.0,42.99243927001953
2019-02-20,44.0,42.15999984741211,43.9900016784668,42.15999984741211,1100.0,41.860538482666016
2019-02-21,43.7400016784668,39.369998931884766,39.77000045776367,43.7400016784668,1100.0,43.429317474365234
2019-02-22,42.7599983215332,41.27000045776367,41.27000045776367,42.7400016784668,700.0,42.43642044067383
2019-02-25,42.40999984741211,42.2599983215332,42.31999969482422,42.29999923706055,1100.0,41.999542236328125
2019-02-26,43.0,41.369998931884766,41.369998931884766,43.0,2900.0,42.69457244873047
2019-02-27,43.9900016784668,43.0,43.220001220703125,43.0,5100.0,42.69457244873047
2019-02-28,44.0,43.0,43.0,44.0,3100.0,43.687469482421875
2019-03-01,43.880001068115234,43.130001068115234,43.130001068115234,43.880001068115234,700.0,43.568321228027344
2019-03-04,44.619998931884766,43.18000030517578,44.619998931884766,43.18000030517578,800.0,42.873294830322266
2019-03-05,43.18000030517578,43.18000030517578,43.18000030517578,43.18000030517578,100.0,42.873294830322266
2019-03-06,43.18000030517578,43.0,43.0,43.18000030517578,1100.0,42.873294830322266
2019-03-07,43.25,43.0,43.119998931884766,43.150001525878906,2000.0,42.843509674072266
2019-03-08,43.25,43.150001525878906,43.25,43.150001525878906,900.0,42.843509674072266
2019-03-11,43.77000045776367,43.0,43.2400016784668,43.0,800.0,42.69457244873047
2019-03-12,43.970001220703125,42.02000045776367,43.79999923706055,42.02000045776367,3100.0,41.721534729003906
2019-03-13,43.70000076293945,42.34000015258789,43.70000076293945,42.5099983215332,9100.0,42.20804977416992
2019-03-14,42.93000030517578,42.400001525878906,42.720001220703125,42.400001525878906,1600.0,42.09883499145508
2019-03-15,44.0,42.099998474121094,43.290000915527344,44.0,4500.0,43.687469482421875
2019-03-18,43.779998779296875,41.61000061035156,42.650001525878906,43.779998779296875,1500.0,43.469032287597656
2019-03-19,43.0,42.61000061035156,42.61000061035156,43.0,1100.0,42.69457244873047
2019-03-20,43.06999969482422,42.900001525878906,42.9900016784668,42.900001525878906,900.0,42.59528350830078
2019-03-21,42.470001220703125,42.220001220703125,42.220001220703125,42.470001220703125,1000.0,42.168338775634766
2019-03-22,42.40999984741211,41.22999954223633,41.349998474121094,41.900001525878906,3800.0,41.602386474609375
2019-03-25,42.099998474121094,41.560001373291016,41.619998931884766,41.599998474121094,2300.0,41.30451583862305
2019-03-26,42.599998474121094,40.400001525878906,41.0099983215332,40.400001525878906,7100.0,40.113040924072266
2019-03-27,41.380001068115234,40.52000045776367,41.0,40.52000045776367,2000.0,40.2321891784668
2019-03-28,42.599998474121094,42.599998474121094,42.599998474121094,42.599998474121094,300.0,42.29741287231445
2019-03-29,41.40999984741211,40.72999954223633,40.939998626708984,41.20000076293945,2300.0,40.9073600769043
2019-04-01,41.470001220703125,40.25,40.84000015258789,40.25,5200.0,39.96410369873047
2019-04-02,40.650001525878906,40.25,40.650001525878906,40.2599983215332,1200.0,39.97403335571289
2019-04-03,41.0,40.5,40.59000015258789,40.630001068115234,2800.0,40.341407775878906
2019-04-04,42.599998474121094,41.5,41.5,42.25,900.0,41.94989776611328
2019-04-05,41.75,40.810001373291016,41.459999084472656,41.75,700.0,41.453453063964844
2019-04-08,41.36000061035156,40.619998931884766,41.0099983215332,41.36000061035156,3700.0,41.06622314453125
2019-04-09,41.369998931884766,40.2599983215332,40.9900016784668,40.7400016784668,4000.0,40.450626373291016
2019-04-10,40.75,40.2599983215332,40.75,40.2599983215332,500.0,39.97403335571289
2019-04-11,42.599998474121094,40.45000076293945,40.45000076293945,42.599998474121094,1000.0,42.29741287231445
2019-04-12,42.59000015258789,40.38999938964844,40.9900016784668,40.599998474121094,2400.0,40.31161880493164
2019-04-15,41.34000015258789,40.75,40.75,40.75,2000.0,40.46055603027344
2019-04-16,42.599998474121094,41.2599983215332,42.400001525878906,41.2599983215332,1500.0,40.9669303894043
2019-04-17,41.59000015258789,40.2599983215332,40.5099983215332,40.5099983215332,1600.0,40.22225570678711
2019-04-18,40.5099983215332,40.5099983215332,40.5099983215332,40.5099983215332,100.0,40.22225570678711
2019-04-22,42.599998474121094,40.25,40.27000045776367,41.72999954223633,800.0,41.43359375
2019-04-23,41.5,40.279998779296875,41.5,40.279998779296875,1000.0,39.993892669677734
2019-04-24,40.29999923706055,39.630001068115234,40.29999923706055,39.630001068115234,1600.0,39.3485107421875
2019-04-25,42.0,39.0,39.0,39.04999923706055,1100.0,38.77262878417969
2019-04-26,39.189998626708984,38.0,39.0,38.97999954223633,2100.0,38.703125
2019-04-29,39.02000045776367,38.459999084472656,39.0099983215332,39.0,3200.0,38.722984313964844
2019-04-30,39.599998474121094,38.86000061035156,39.599998474121094,38.90999984741211,1600.0,38.63362503051758
2019-05-01,39.90999984741211,38.41999816894531,38.41999816894531,39.70000076293945,1400.0,39.41801452636719
2019-05-02,39.70000076293945,38.5,38.5,39.70000076293945,2000.0,39.41801452636719
2019-05-03,39.970001220703125,38.630001068115234,38.79999923706055,39.970001220703125,3000.0,39.68609619140625
2019-05-06,39.939998626708984,38.560001373291016,38.560001373291016,38.79999923706055,2600.0,38.5244026184082
2019-05-07,39.97999954223633,38.529998779296875,39.2400016784668,39.599998474121094,1300.0,39.318721771240234
2019-05-08,39.599998474121094,39.599998474121094,39.599998474121094,39.599998474121094,100.0,39.318721771240234
2019-05-09,40.22999954223633,38.52000045776367,40.22999954223633,38.599998474121094,2500.0,38.32582473754883
2019-05-10,39.77000045776367,38.619998931884766,39.52000045776367,39.43000030517578,4600.0,39.14992904663086
2019-05-13,38.709999084472656,38.54999923706055,38.54999923706055,38.709999084472656,1000.0,38.43504333496094
2019-05-14,41.939998626708984,39.2599983215332,41.939998626708984,41.93000030517578,500.0,41.632171630859375
2019-05-15,40.400001525878906,38.75,39.060001373291016,39.41999816894531,7500.0,39.13999938964844
2019-05-16,39.41999816894531,39.41999816894531,39.41999816894531,39.41999816894531,100.0,39.41999816894531
2019-05-17,39.41999816894531,39.41999816894531,39.41999816894531,39.41999816894531,0.0,39.41999816894531
2019-05-20,39.41999816894531,39.41999816894531,39.41999816894531,39.41999816894531,100.0,39.41999816894531
2019-05-21,40.279998779296875,38.650001525878906,38.650001525878906,38.7599983215332,1300.0,38.7599983215332
2019-05-22,38.599998474121094,37.79999923706055,37.79999923706055,38.25,3500.0,38.25
2019-05-23,38.5,37.599998474121094,38.25,38.25,13600.0,38.25
2019-05-24,39.040000915527344,38.25,38.310001373291016,38.5099983215332,8300.0,38.5099983215332
