Date,High,Low,Open,Close,Volume,Adj Close
2015-01-02,31.110000610351562,30.75,31.110000610351562,30.760000228881836,5400,30.760000228881836
2015-01-05,30.399999618530273,29.829999923706055,30.399999618530273,29.8700008392334,1500,29.8700008392334
2015-01-06,30.020000457763672,29.149999618530273,30.020000457763672,29.43000030517578,1600,29.43000030517578
2015-01-07,29.969999313354492,29.780000686645508,29.889999389648438,29.969999313354492,1200,29.969999313354492
2015-01-08,31.100000381469727,30.940000534057617,31.059999465942383,30.989999771118164,1600,30.989999771118164
2015-01-09,31.229999542236328,31.020000457763672,31.229999542236328,31.040000915527344,900,31.040000915527344
2015-01-12,30.15999984741211,29.899999618530273,30.149999618530273,30.040000915527344,1100,30.040000915527344
2015-01-13,30.43000030517578,29.90999984741211,30.43000030517578,29.959999084472656,1800,29.959999084472656
2015-01-14,29.56999969482422,28.959999084472656,29.0,29.559999465942383,1300,29.559999465942383
2015-01-15,29.709999084472656,29.579999923706055,29.709999084472656,29.579999923706055,600,29.579999923706055
2015-01-16,29.549999237060547,29.229999542236328,29.229999542236328,29.450000762939453,3500,29.450000762939453
2015-01-20,29.860000610351562,29.450000762939453,29.860000610351562,29.860000610351562,1900,29.860000610351562
2015-01-21,30.299999237060547,30.049999237060547,30.260000228881836,30.110000610351562,1400,30.110000610351562
2015-01-22,30.979999542236328,30.979999542236328,30.979999542236328,30.979999542236328,100,30.979999542236328
2015-01-23,31.0,30.920000076293945,31.0,30.979999542236328,6900,30.979999542236328
2015-01-26,30.959999084472656,30.729999542236328,30.770000457763672,30.899999618530273,3000,30.899999618530273
2015-01-27,30.040000915527344,29.950000762939453,29.950000762939453,30.040000915527344,1200,30.040000915527344
2015-01-28,30.040000915527344,30.040000915527344,30.040000915527344,30.040000915527344,0,30.040000915527344
2015-01-29,29.520000457763672,29.0,29.0,29.5,1000,29.5
2015-01-30,29.5,29.5,29.5,29.5,0,29.5
2015-02-02,29.739999771118164,29.010000228881836,29.209999084472656,29.739999771118164,2400,29.739999771118164
2015-02-03,30.600000381469727,30.09000015258789,30.260000228881836,30.600000381469727,2000,30.600000381469727
2015-02-04,30.760000228881836,30.280000686645508,30.420000076293945,30.280000686645508,16400,30.280000686645508
2015-02-05,30.280000686645508,30.280000686645508,30.280000686645508,30.280000686645508,0,30.280000686645508
2015-02-06,31.219999313354492,30.780000686645508,31.219999313354492,30.780000686645508,3700,30.780000686645508
2015-02-09,30.780000686645508,30.780000686645508,30.780000686645508,30.780000686645508,0,30.780000686645508
2015-02-10,30.56999969482422,30.56999969482422,30.56999969482422,30.56999969482422,0,30.56999969482422
2015-02-11,31.329999923706055,31.0,31.0,31.329999923706055,1700,31.329999923706055
2015-02-12,31.889999389648438,31.5,31.540000915527344,31.540000915527344,2300,31.540000915527344
2015-02-13,32.0,31.889999389648438,31.889999389648438,32.0,300,32.0
2015-02-17,32.0,32.0,32.0,32.0,0,32.0
2015-02-18,32.040000915527344,32.0099983215332,32.040000915527344,32.0099983215332,600,32.0099983215332
2015-02-19,32.220001220703125,32.209999084472656,32.209999084472656,32.220001220703125,200,32.220001220703125
2015-02-20,32.439998626708984,32.0,32.02000045776367,32.40999984741211,900,32.40999984741211
2015-02-23,32.459999084472656,32.34000015258789,32.36000061035156,32.459999084472656,1000,32.459999084472656
2015-02-24,32.630001068115234,32.470001220703125,32.630001068115234,32.470001220703125,800,32.470001220703125
2015-02-25,32.7400016784668,32.5,32.59000015258789,32.5,2100,32.5
2015-02-26,32.5099983215332,32.5099983215332,32.5099983215332,32.5099983215332,200,32.5099983215332
2015-02-27,32.38999938964844,32.349998474121094,32.380001068115234,32.349998474121094,400,32.349998474121094
2015-03-02,32.720001220703125,32.560001373291016,32.56999969482422,32.689998626708984,1200,32.689998626708984
2015-03-03,32.689998626708984,32.689998626708984,32.689998626708984,32.689998626708984,0,32.689998626708984
2015-03-04,31.940000534057617,31.940000534057617,31.940000534057617,31.940000534057617,100,31.940000534057617
2015-03-05,32.34000015258789,32.29999923706055,32.29999923706055,32.34000015258789,300,32.34000015258789
2015-03-06,31.739999771118164,31.399999618530273,31.5,31.399999618530273,1200,31.399999618530273
2015-03-09,31.6200008392334,31.6200008392334,31.6200008392334,31.6200008392334,200,31.6200008392334
2015-03-10,30.690000534057617,30.690000534057617,30.690000534057617,30.690000534057617,100,30.690000534057617
2015-03-11,30.700000762939453,30.459999084472656,30.700000762939453,30.540000915527344,2000,30.540000915527344
2015-03-12,30.540000915527344,30.540000915527344,30.540000915527344,30.540000915527344,0,30.540000915527344
2015-03-13,31.18000030517578,31.18000030517578,31.18000030517578,31.18000030517578,0,31.18000030517578
2015-03-16,31.610000610351562,31.450000762939453,31.450000762939453,31.610000610351562,500,31.610000610351562
2015-03-17,31.610000610351562,31.610000610351562,31.610000610351562,31.610000610351562,0,31.610000610351562
2015-03-18,31.209999084472656,31.15999984741211,31.209999084472656,31.15999984741211,500,31.15999984741211
2015-03-19,32.150001525878906,31.799999237060547,31.899999618530273,31.940000534057617,32400,31.940000534057617
2015-03-20,32.400001525878906,32.11000061035156,32.400001525878906,32.11000061035156,4100,32.11000061035156
2015-03-23,32.11000061035156,32.11000061035156,32.11000061035156,32.11000061035156,0,32.11000061035156
2015-03-24,23.3799991607666,23.3799991607666,23.3799991607666,23.3799991607666,0,23.3799991607666
2015-03-25,32.150001525878906,31.389999389648438,32.150001525878906,31.389999389648438,600,31.389999389648438
2015-03-26,30.770000457763672,30.549999237060547,30.770000457763672,30.549999237060547,2100,30.549999237060547
2015-03-27,31.100000381469727,31.09000015258789,31.100000381469727,31.09000015258789,900,31.09000015258789
2015-03-30,31.889999389648438,31.760000228881836,31.889999389648438,31.760000228881836,600,31.760000228881836
2015-03-31,31.760000228881836,31.760000228881836,31.760000228881836,31.760000228881836,0,31.760000228881836
2015-04-01,31.760000228881836,31.760000228881836,31.760000228881836,31.760000228881836,0,31.760000228881836
2015-04-02,31.760000228881836,31.760000228881836,31.760000228881836,31.760000228881836,0,31.760000228881836
2015-04-06,31.760000228881836,31.760000228881836,31.760000228881836,31.760000228881836,0,31.760000228881836
2015-04-07,32.09000015258789,31.809999465942383,32.09000015258789,31.850000381469727,3000,31.850000381469727
2015-04-08,31.850000381469727,31.850000381469727,31.850000381469727,31.850000381469727,0,31.850000381469727
2015-04-09,31.850000381469727,31.850000381469727,31.850000381469727,31.850000381469727,0,31.850000381469727
2015-04-10,31.850000381469727,31.850000381469727,31.850000381469727,31.850000381469727,0,31.850000381469727
2015-04-13,32.2400016784668,31.850000381469727,32.2400016784668,31.850000381469727,600,31.850000381469727
2015-04-14,31.850000381469727,31.850000381469727,31.850000381469727,31.850000381469727,0,31.850000381469727
2015-04-15,32.54999923706055,32.540000915527344,32.54999923706055,32.54999923706055,500,32.54999923706055
2015-04-16,32.54999923706055,32.54999923706055,32.54999923706055,32.54999923706055,0,32.54999923706055
2015-04-17,32.54999923706055,32.54999923706055,32.54999923706055,32.54999923706055,0,32.54999923706055
2015-04-20,32.54999923706055,32.54999923706055,32.54999923706055,32.54999923706055,0,32.54999923706055
2015-04-21,32.40999984741211,32.40999984741211,32.40999984741211,32.40999984741211,200,32.40999984741211
2015-04-22,32.40999984741211,32.40999984741211,32.40999984741211,32.40999984741211,0,32.40999984741211
2015-04-23,32.63999938964844,32.599998474121094,32.599998474121094,32.63999938964844,200,32.63999938964844
2015-04-24,32.63999938964844,32.63999938964844,32.63999938964844,32.63999938964844,0,32.63999938964844
2015-04-27,32.9900016784668,32.720001220703125,32.88999938964844,32.7400016784668,2500,32.7400016784668
2015-04-28,32.7400016784668,32.7400016784668,32.7400016784668,32.7400016784668,0,32.7400016784668
2015-04-29,32.7400016784668,32.7400016784668,32.7400016784668,32.7400016784668,0,32.7400016784668
2015-04-30,32.060001373291016,31.969999313354492,32.060001373291016,31.969999313354492,500,31.969999313354492
2015-05-01,32.470001220703125,32.41999816894531,32.41999816894531,32.470001220703125,1600,32.470001220703125
2015-05-04,32.72999954223633,32.72999954223633,32.72999954223633,32.72999954223633,300,32.72999954223633
2015-05-05,32.02000045776367,32.02000045776367,32.02000045776367,32.02000045776367,200,32.02000045776367
2015-05-06,32.02000045776367,32.02000045776367,32.02000045776367,32.02000045776367,0,32.02000045776367
2015-05-07,23.170000076293945,23.170000076293945,23.170000076293945,23.170000076293945,0,23.170000076293945
2015-05-08,34.900001525878906,31.56999969482422,33.380001068115234,32.75,2400,32.75
2015-05-11,32.75,32.75,32.75,32.75,0,32.75
2015-05-12,32.75,32.75,32.75,32.75,0,32.75
2015-05-13,32.560001373291016,31.389999389648438,32.560001373291016,32.400001525878906,1000,32.400001525878906
2015-05-14,32.97999954223633,32.619998931884766,32.63999938964844,32.97999954223633,700,32.97999954223633
2015-05-15,33.0099983215332,32.91999816894531,33.0,32.970001220703125,700,32.970001220703125
2015-05-18,33.279998779296875,32.81999969482422,32.9900016784668,33.279998779296875,2500,33.279998779296875
2015-05-19,33.27000045776367,33.099998474121094,33.099998474121094,33.27000045776367,500,33.27000045776367
2015-05-20,33.34000015258789,33.0,33.189998626708984,33.189998626708984,3900,33.189998626708984
2015-05-21,33.189998626708984,33.189998626708984,33.189998626708984,33.189998626708984,0,33.189998626708984
2015-05-22,33.310001373291016,33.209999084472656,33.310001373291016,33.29999923706055,600,33.29999923706055
2015-05-26,32.40999984741211,32.2400016784668,32.40999984741211,32.2400016784668,400,32.2400016784668
2015-05-27,33.38999938964844,32.880001068115234,32.91999816894531,33.15999984741211,1700,33.15999984741211
2015-05-28,32.95000076293945,31.739999771118164,32.95000076293945,31.739999771118164,600,31.739999771118164
2015-05-29,31.739999771118164,31.739999771118164,31.739999771118164,31.739999771118164,0,31.739999771118164
2015-06-01,31.739999771118164,31.739999771118164,31.739999771118164,31.739999771118164,0,31.739999771118164
2015-06-02,31.739999771118164,31.739999771118164,31.739999771118164,31.739999771118164,0,31.739999771118164
2015-06-03,31.739999771118164,31.739999771118164,31.739999771118164,31.739999771118164,0,31.739999771118164
2015-06-04,31.739999771118164,31.739999771118164,31.739999771118164,31.739999771118164,0,31.739999771118164
2015-06-05,32.41999816894531,32.25,32.310001373291016,32.2599983215332,6300,32.2599983215332
2015-06-08,32.119998931884766,31.81999969482422,32.099998474121094,31.920000076293945,1300,31.920000076293945
2015-06-09,31.920000076293945,31.920000076293945,31.920000076293945,31.920000076293945,0,31.920000076293945
2015-06-10,32.59000015258789,32.59000015258789,32.59000015258789,32.59000015258789,300,32.59000015258789
2015-06-11,32.810001373291016,32.59000015258789,32.66999816894531,32.810001373291016,700,32.810001373291016
2015-06-12,32.29999923706055,31.06999969482422,32.220001220703125,32.29999923706055,700,32.29999923706055
2015-06-15,32.0099983215332,31.93000030517578,32.0099983215332,31.93000030517578,600,31.93000030517578
2015-06-16,31.93000030517578,31.93000030517578,31.93000030517578,31.93000030517578,0,31.93000030517578
2015-06-17,32.52000045776367,32.52000045776367,32.52000045776367,32.52000045776367,400,32.52000045776367
2015-06-18,32.52000045776367,32.52000045776367,32.52000045776367,32.52000045776367,0,32.52000045776367
2015-06-19,32.52000045776367,32.52000045776367,32.52000045776367,32.52000045776367,0,32.52000045776367
2015-06-22,32.52000045776367,32.52000045776367,32.52000045776367,32.52000045776367,0,32.52000045776367
2015-06-23,32.52000045776367,32.52000045776367,32.52000045776367,32.52000045776367,0,32.52000045776367
2015-06-24,32.52000045776367,32.52000045776367,32.52000045776367,32.52000045776367,0,32.52000045776367
2015-06-25,32.52000045776367,32.52000045776367,32.52000045776367,32.52000045776367,0,32.52000045776367
2015-06-26,32.52000045776367,32.52000045776367,32.52000045776367,32.52000045776367,0,32.52000045776367
2015-06-29,32.029998779296875,31.139999389648438,31.5,31.15999984741211,900,31.15999984741211
2015-06-30,31.799999237060547,31.290000915527344,31.799999237060547,31.290000915527344,1100,31.290000915527344
2015-07-01,31.290000915527344,31.290000915527344,31.290000915527344,31.290000915527344,0,31.290000915527344
2015-07-02,31.290000915527344,31.290000915527344,31.290000915527344,31.290000915527344,0,31.290000915527344
2015-07-06,29.760000228881836,29.760000228881836,29.760000228881836,29.760000228881836,0,29.760000228881836
2015-07-07,31.200000762939453,31.0,31.190000534057617,31.0,400,31.0
2015-07-08,31.440000534057617,31.280000686645508,31.299999237060547,31.290000915527344,600,31.290000915527344
2015-07-09,31.290000915527344,31.290000915527344,31.290000915527344,31.290000915527344,0,31.290000915527344
2015-07-10,31.290000915527344,31.290000915527344,31.290000915527344,31.290000915527344,0,31.290000915527344
2015-07-13,32.34000015258789,32.34000015258789,32.34000015258789,32.34000015258789,100,32.34000015258789
2015-07-14,32.709999084472656,32.709999084472656,32.709999084472656,32.709999084472656,300,32.709999084472656
2015-07-15,32.849998474121094,32.7599983215332,32.849998474121094,32.7599983215332,200,32.7599983215332
2015-07-16,32.7599983215332,32.7599983215332,32.7599983215332,32.7599983215332,0,32.7599983215332
2015-07-17,32.7599983215332,32.7599983215332,32.7599983215332,32.7599983215332,0,32.7599983215332
2015-07-20,32.7599983215332,32.7599983215332,32.7599983215332,32.7599983215332,0,32.7599983215332
2015-07-21,34.22999954223633,33.09000015258789,33.09000015258789,34.22999954223633,1100,34.22999954223633
2015-07-22,34.22999954223633,34.22999954223633,34.22999954223633,34.22999954223633,0,34.22999954223633
2015-07-23,34.22999954223633,34.22999954223633,34.22999954223633,34.22999954223633,0,34.22999954223633
2015-07-24,32.540000915527344,31.93000030517578,32.540000915527344,31.93000030517578,200,31.93000030517578
2015-07-27,31.75,31.75,31.75,31.75,1000,31.75
2015-07-28,31.75,31.75,31.75,31.75,0,31.75
2015-07-29,31.75,31.75,31.75,31.75,0,31.75
2015-07-30,31.75,31.75,31.75,31.75,0,31.75
2015-07-31,31.75,31.75,31.75,31.75,0,31.75
2015-08-03,32.560001373291016,32.5,32.560001373291016,32.5,200,32.5
2015-08-04,32.5,32.5,32.5,32.5,0,32.5
2015-08-05,32.5,32.5,32.5,32.5,0,32.5
2015-08-06,32.349998474121094,31.84000015258789,32.349998474121094,31.860000610351562,2200,31.860000610351562
2015-08-07,31.729999542236328,30.56999969482422,31.59000015258789,30.56999969482422,1600,30.56999969482422
2015-08-10,30.56999969482422,30.56999969482422,30.56999969482422,30.56999969482422,0,30.56999969482422
2015-08-11,30.56999969482422,30.56999969482422,30.56999969482422,30.56999969482422,0,30.56999969482422
2015-08-12,30.56999969482422,30.56999969482422,30.56999969482422,30.56999969482422,0,30.56999969482422
2015-08-13,30.56999969482422,30.56999969482422,30.56999969482422,30.56999969482422,0,30.56999969482422
2015-08-14,32.34000015258789,30.950000762939453,32.15999984741211,32.34000015258789,1000,32.34000015258789
2015-08-17,32.34000015258789,32.34000015258789,32.34000015258789,32.34000015258789,0,32.34000015258789
2015-08-18,32.54999923706055,32.540000915527344,32.54999923706055,32.540000915527344,600,32.540000915527344
2015-08-19,32.540000915527344,32.540000915527344,32.540000915527344,32.540000915527344,0,32.540000915527344
2015-08-20,32.540000915527344,32.540000915527344,32.540000915527344,32.540000915527344,0,32.540000915527344
2015-08-21,30.149999618530273,28.700000762939453,30.0,28.739999771118164,4000,28.739999771118164
2015-08-24,30.719999313354492,26.440000534057617,29.989999771118164,26.440000534057617,6000,26.440000534057617
2015-08-25,27.950000762939453,26.34000015258789,26.8799991607666,26.34000015258789,3400,26.34000015258789
2015-08-26,27.209999084472656,26.200000762939453,26.8799991607666,27.209999084472656,4000,27.209999084472656
2015-08-27,28.979999542236328,28.399999618530273,28.399999618530273,28.979999542236328,500,28.979999542236328
2015-08-28,29.06999969482422,28.920000076293945,28.920000076293945,29.06999969482422,300,29.06999969482422
2015-08-31,28.670000076293945,28.670000076293945,28.670000076293945,28.670000076293945,200,28.670000076293945
2015-09-01,36.959999084472656,26.6200008392334,36.959999084472656,26.850000381469727,800,26.850000381469727
2015-09-02,27.670000076293945,27.469999313354492,27.5,27.670000076293945,1400,27.670000076293945
2015-09-03,31.010000228881836,28.190000534057617,28.190000534057617,28.270000457763672,2700,28.270000457763672
2015-09-04,27.350000381469727,27.31999969482422,27.34000015258789,27.350000381469727,300,27.350000381469727
2015-09-08,28.290000915527344,27.979999542236328,27.979999542236328,28.290000915527344,400,28.290000915527344
2015-09-09,29.049999237060547,26.940000534057617,28.170000076293945,29.049999237060547,1900,29.049999237060547
2015-09-10,27.950000762939453,27.8700008392334,27.8700008392334,27.950000762939453,400,27.950000762939453
2015-09-11,28.0,28.0,28.0,28.0,300,28.0
2015-09-14,28.299999237060547,27.809999465942383,27.809999465942383,28.299999237060547,2700,28.299999237060547
2015-09-15,28.299999237060547,28.299999237060547,28.299999237060547,28.299999237060547,0,28.299999237060547
2015-09-16,29.239999771118164,28.6299991607666,28.6299991607666,29.190000534057617,4500,29.190000534057617
2015-09-17,29.940000534057617,29.510000228881836,29.510000228881836,29.600000381469727,2900,29.600000381469727
2015-09-18,28.670000076293945,28.139999389648438,28.43000030517578,28.139999389648438,1100,28.139999389648438
2015-09-21,28.420000076293945,28.420000076293945,28.420000076293945,28.420000076293945,100,28.420000076293945
2015-09-22,27.93000030517578,27.43000030517578,27.809999465942383,27.43000030517578,500,27.43000030517578
2015-09-23,28.030000686645508,27.6299991607666,27.729999542236328,27.6299991607666,1100,27.6299991607666
2015-09-24,27.31999969482422,26.889999389648438,27.31999969482422,26.950000762939453,1100,26.950000762939453
2015-09-25,28.020000457763672,27.489999771118164,27.950000762939453,27.5,1300,27.5
2015-09-28,27.5,27.5,27.5,27.5,0,27.5
2015-09-29,26.200000762939453,26.149999618530273,26.149999618530273,26.200000762939453,200,26.200000762939453
2015-09-30,26.200000762939453,26.200000762939453,26.200000762939453,26.200000762939453,0,26.200000762939453
2015-10-01,26.200000762939453,26.200000762939453,26.200000762939453,26.200000762939453,0,26.200000762939453
2015-10-02,26.6299991607666,26.6299991607666,26.6299991607666,26.6299991607666,300,26.6299991607666
2015-10-05,28.799999237060547,28.799999237060547,28.799999237060547,28.799999237060547,800,28.799999237060547
2015-10-06,29.329999923706055,28.559999465942383,29.260000228881836,28.559999465942383,1200,28.559999465942383
2015-10-07,29.309999465942383,28.520000457763672,29.219999313354492,28.520000457763672,800,28.520000457763672
2015-10-08,29.270000457763672,29.260000228881836,29.260000228881836,29.270000457763672,200,29.270000457763672
2015-10-09,29.270000457763672,29.270000457763672,29.270000457763672,29.270000457763672,0,29.270000457763672
2015-10-12,29.920000076293945,29.719999313354492,29.719999313354492,29.809999465942383,1300,29.809999465942383
2015-10-13,30.0,29.6299991607666,29.6299991607666,29.65999984741211,11600,29.65999984741211
2015-10-14,29.65999984741211,29.25,29.639999389648438,29.530000686645508,12300,29.530000686645508
2015-10-15,29.520000457763672,29.399999618530273,29.520000457763672,29.399999618530273,600,29.399999618530273
2015-10-16,30.420000076293945,30.020000457763672,30.270000457763672,30.420000076293945,1300,30.420000076293945
2015-10-19,30.329999923706055,30.1200008392334,30.1200008392334,30.170000076293945,1600,30.170000076293945
2015-10-20,30.43000030517578,30.209999084472656,30.43000030517578,30.329999923706055,600,30.329999923706055
2015-10-21,30.459999084472656,30.299999237060547,30.440000534057617,30.31999969482422,500,30.31999969482422
2015-10-22,30.850000381469727,30.850000381469727,30.850000381469727,30.850000381469727,200,30.850000381469727
2015-10-23,31.549999237060547,31.549999237060547,31.549999237060547,31.549999237060547,100,31.549999237060547
2015-10-26,31.5,31.5,31.5,31.5,100,31.5
2015-10-27,31.5,31.5,31.5,31.5,0,31.5
2015-10-28,31.709999084472656,31.469999313354492,31.559999465942383,31.469999313354492,700,31.469999313354492
2015-10-29,31.469999313354492,31.469999313354492,31.469999313354492,31.469999313354492,0,31.469999313354492
2015-10-30,31.899999618530273,31.829999923706055,31.84000015258789,31.899999618530273,600,31.899999618530273
2015-11-02,31.899999618530273,31.899999618530273,31.899999618530273,31.899999618530273,100,31.899999618530273
2015-11-03,32.470001220703125,32.279998779296875,32.279998779296875,32.470001220703125,700,32.470001220703125
2015-11-04,32.470001220703125,32.470001220703125,32.470001220703125,32.470001220703125,0,32.470001220703125
2015-11-05,32.470001220703125,32.470001220703125,32.470001220703125,32.470001220703125,0,32.470001220703125
2015-11-06,32.470001220703125,32.470001220703125,32.470001220703125,32.470001220703125,0,32.470001220703125
2015-11-09,31.5,31.5,31.5,31.5,100,31.5
2015-11-10,31.649999618530273,31.649999618530273,31.649999618530273,31.649999618530273,100,31.649999618530273
2015-11-11,31.739999771118164,31.739999771118164,31.739999771118164,31.739999771118164,200,31.739999771118164
2015-11-12,32.380001068115234,31.100000381469727,31.329999923706055,31.100000381469727,3000,31.100000381469727
2015-11-13,31.100000381469727,31.100000381469727,31.100000381469727,31.100000381469727,0,31.100000381469727
2015-11-16,31.100000381469727,31.100000381469727,31.100000381469727,31.100000381469727,0,31.100000381469727
2015-11-17,30.8799991607666,30.8799991607666,30.8799991607666,30.8799991607666,100,30.8799991607666
2015-11-18,30.8799991607666,30.8799991607666,30.8799991607666,30.8799991607666,0,30.8799991607666
2015-11-19,30.8799991607666,30.8799991607666,30.8799991607666,30.8799991607666,0,30.8799991607666
2015-11-20,30.8799991607666,30.8799991607666,30.8799991607666,30.8799991607666,0,30.8799991607666
2015-11-23,30.8799991607666,30.8799991607666,30.8799991607666,30.8799991607666,0,30.8799991607666
2015-11-24,30.8799991607666,30.8799991607666,30.8799991607666,30.8799991607666,0,30.8799991607666
2015-11-25,30.8799991607666,30.8799991607666,30.8799991607666,30.8799991607666,0,30.8799991607666
2015-11-27,30.760000228881836,30.760000228881836,30.760000228881836,30.760000228881836,0,30.760000228881836
2015-11-30,32.02000045776367,32.02000045776367,32.02000045776367,32.02000045776367,200,32.02000045776367
2015-12-01,32.02000045776367,32.02000045776367,32.02000045776367,32.02000045776367,0,32.02000045776367
2015-12-02,31.790000915527344,31.739999771118164,31.790000915527344,31.739999771118164,1900,31.739999771118164
2015-12-03,31.739999771118164,31.739999771118164,31.739999771118164,31.739999771118164,0,31.739999771118164
2015-12-04,31.739999771118164,31.739999771118164,31.739999771118164,31.739999771118164,0,31.739999771118164
2015-12-07,31.540000915527344,31.540000915527344,31.540000915527344,31.540000915527344,1400,31.540000915527344
2015-12-08,31.540000915527344,31.540000915527344,31.540000915527344,31.540000915527344,0,31.540000915527344
2015-12-09,31.540000915527344,31.540000915527344,31.540000915527344,31.540000915527344,0,31.540000915527344
2015-12-10,31.540000915527344,31.540000915527344,31.540000915527344,31.540000915527344,0,31.540000915527344
2015-12-11,30.170000076293945,30.170000076293945,30.170000076293945,30.170000076293945,200,30.170000076293945
2015-12-14,30.100000381469727,27.079999923706055,29.329999923706055,29.290000915527344,7100,29.290000915527344
2015-12-15,31.06999969482422,28.84000015258789,30.149999618530273,31.06999969482422,3600,31.06999969482422
2015-12-16,31.15999984741211,30.899999618530273,31.010000228881836,31.15999984741211,500,31.15999984741211
2015-12-17,31.139999389648438,30.989999771118164,31.139999389648438,31.100000381469727,800,31.100000381469727
2015-12-18,31.100000381469727,31.100000381469727,31.100000381469727,31.100000381469727,0,31.100000381469727
2015-12-21,29.829999923706055,29.829999923706055,29.829999923706055,29.829999923706055,100,29.829999923706055
2015-12-22,29.829999923706055,29.829999923706055,29.829999923706055,29.829999923706055,0,29.829999923706055
2015-12-23,31.450000762939453,31.030000686645508,31.030000686645508,31.299999237060547,400,31.299999237060547
2015-12-24,31.299999237060547,31.299999237060547,31.299999237060547,31.299999237060547,0,31.299999237060547
2015-12-28,31.299999237060547,31.299999237060547,31.299999237060547,31.299999237060547,0,31.299999237060547
2015-12-29,31.299999237060547,31.299999237060547,31.299999237060547,31.299999237060547,0,31.299999237060547
2015-12-30,31.299999237060547,31.299999237060547,31.299999237060547,31.299999237060547,0,31.299999237060547
2015-12-31,31.110000610351562,31.110000610351562,31.110000610351562,31.110000610351562,200,31.110000610351562
2016-01-04,29.610000610351562,29.610000610351562,29.610000610351562,29.610000610351562,200,29.610000610351562
2016-01-05,30.06999969482422,29.59000015258789,29.989999771118164,29.59000015258789,500,29.59000015258789
2016-01-06,29.59000015258789,29.59000015258789,29.59000015258789,29.59000015258789,0,29.59000015258789
2016-01-07,27.729999542236328,27.729999542236328,27.729999542236328,27.729999542236328,200,27.729999542236328
2016-01-08,27.770000457763672,27.68000030517578,27.770000457763672,27.68000030517578,200,27.68000030517578
2016-01-11,27.34000015258789,26.84000015258789,27.229999542236328,26.84000015258789,800,26.84000015258789
2016-01-12,27.899999618530273,27.5,27.799999237060547,27.709999084472656,1300,27.709999084472656
2016-01-13,27.709999084472656,27.709999084472656,27.709999084472656,27.709999084472656,0,27.709999084472656
2016-01-14,26.950000762939453,25.959999084472656,25.989999771118164,26.8799991607666,1200,26.8799991607666
2016-01-15,25.8700008392334,25.790000915527344,25.8700008392334,25.790000915527344,400,25.790000915527344
2016-01-19,37.130001068115234,25.860000610351562,37.130001068115234,26.1299991607666,3600,26.1299991607666
2016-01-20,24.899999618530273,24.350000381469727,24.420000076293945,24.899999618530273,3300,24.899999618530273
2016-01-21,26.0,25.34000015258789,25.34000015258789,25.770000457763672,3200,25.770000457763672
2016-01-22,26.700000762939453,26.489999771118164,26.489999771118164,26.700000762939453,4600,26.700000762939453
2016-01-25,26.420000076293945,25.139999389648438,25.139999389648438,26.299999237060547,3600,26.299999237060547
2016-01-26,26.489999771118164,26.420000076293945,26.479999542236328,26.420000076293945,2000,26.420000076293945
2016-01-27,26.889999389648438,25.75,26.25,25.979999542236328,76800,25.979999542236328
2016-01-28,26.5,25.68000030517578,26.420000076293945,26.290000915527344,162200,26.290000915527344
2016-01-29,27.690000534057617,26.450000762939453,26.739999771118164,27.530000686645508,10200,27.530000686645508
2016-02-01,27.670000076293945,27.040000915527344,27.190000534057617,27.6200008392334,119700,27.6200008392334
2016-02-02,27.170000076293945,26.729999542236328,27.1299991607666,26.81999969482422,26800,26.81999969482422
2016-02-03,27.0,25.780000686645508,26.739999771118164,26.8700008392334,39300,26.8700008392334
2016-02-04,27.309999465942383,26.469999313354492,26.729999542236328,26.920000076293945,31200,26.920000076293945
2016-02-05,26.959999084472656,26.239999771118164,26.6200008392334,26.450000762939453,34200,26.450000762939453
2016-02-08,25.350000381469727,24.600000381469727,25.239999771118164,25.1299991607666,34500,25.1299991607666
2016-02-09,25.559999465942383,24.729999542236328,25.059999465942383,25.0,35300,25.0
2016-02-10,26.030000686645508,25.299999237060547,25.559999465942383,25.299999237060547,25700,25.299999237060547
2016-02-11,25.100000381469727,24.219999313354492,24.3700008392334,24.719999313354492,33200,24.719999313354492
2016-02-12,25.40999984741211,24.75,24.920000076293945,25.3799991607666,34000,25.3799991607666
2016-02-16,26.420000076293945,25.860000610351562,26.079999923706055,26.420000076293945,39200,26.420000076293945
2016-02-17,27.479999542236328,26.770000457763672,27.030000686645508,27.389999389648438,72600,27.389999389648438
2016-02-18,27.5,26.989999771118164,27.1299991607666,27.1200008392334,56100,27.1200008392334
2016-02-19,27.139999389648438,26.520000457763672,27.030000686645508,27.09000015258789,80600,27.09000015258789
2016-02-22,28.93000030517578,27.579999923706055,27.75,27.90999984741211,144300,27.90999984741211
2016-02-23,27.790000915527344,25.329999923706055,27.700000762939453,27.270000457763672,73900,27.270000457763672
2016-02-24,31.360000610351562,26.239999771118164,31.360000610351562,27.5,101900,27.5
2016-02-25,28.290000915527344,27.260000228881836,27.549999237060547,28.09000015258789,59600,28.09000015258789
2016-02-26,28.68000030517578,27.81999969482422,28.68000030517578,28.09000015258789,95300,28.09000015258789
2016-02-29,28.25,27.6299991607666,28.06999969482422,27.639999389648438,11500,27.639999389648438
2016-03-01,28.850000381469727,27.670000076293945,27.959999084472656,28.850000381469727,19000,28.850000381469727
2016-03-02,29.329999923706055,28.549999237060547,29.059999465942383,29.059999465942383,32900,29.059999465942383
2016-03-03,29.420000076293945,28.65999984741211,29.049999237060547,29.290000915527344,37600,29.290000915527344
2016-03-04,29.709999084472656,28.899999618530273,29.280000686645508,29.459999084472656,50200,29.459999084472656
2016-03-07,29.729999542236328,29.020000457763672,29.239999771118164,29.489999771118164,45600,29.489999771118164
2016-03-08,29.3700008392334,28.93000030517578,29.3700008392334,28.940000534057617,57100,28.940000534057617
2016-03-09,29.450000762939453,28.850000381469727,29.030000686645508,29.18000030517578,49100,29.18000030517578
2016-03-10,29.729999542236328,28.75,29.190000534057617,29.219999313354492,48900,29.219999313354492
2016-03-11,30.15999984741211,29.899999618530273,29.93000030517578,30.15999984741211,1300,30.15999984741211
2016-03-14,30.170000076293945,30.059999465942383,30.149999618530273,30.1299991607666,4300,30.1299991607666
2016-03-15,29.969999313354492,29.6299991607666,29.739999771118164,29.959999084472656,34700,29.959999084472656
2016-03-16,30.450000762939453,29.959999084472656,30.040000915527344,30.31999969482422,4900,30.31999969482422
2016-03-17,30.719999313354492,30.200000762939453,30.290000915527344,30.719999313354492,1900,30.719999313354492
2016-03-18,30.719999313354492,30.719999313354492,30.719999313354492,30.719999313354492,0,30.719999313354492
2016-03-21,31.010000228881836,30.760000228881836,31.010000228881836,30.760000228881836,2000,30.760000228881836
2016-03-22,31.8799991607666,30.790000915527344,31.579999923706055,30.969999313354492,6200,30.969999313354492
2016-03-23,30.81999969482422,30.780000686645508,30.81999969482422,30.790000915527344,2100,30.790000915527344
2016-03-24,30.350000381469727,30.329999923706055,30.350000381469727,30.329999923706055,400,30.329999923706055
2016-03-28,30.709999084472656,30.59000015258789,30.709999084472656,30.600000381469727,1100,30.600000381469727
2016-03-29,31.110000610351562,30.489999771118164,30.510000228881836,31.110000610351562,10600,31.110000610351562
2016-03-30,31.110000610351562,31.110000610351562,31.110000610351562,31.110000610351562,0,31.110000610351562
2016-03-31,31.110000610351562,31.110000610351562,31.110000610351562,31.110000610351562,0,31.110000610351562
2016-04-01,31.700000762939453,31.670000076293945,31.68000030517578,31.68000030517578,1200,31.68000030517578
2016-04-04,31.579999923706055,31.540000915527344,31.579999923706055,31.579999923706055,4500,31.579999923706055
2016-04-05,31.079999923706055,30.989999771118164,30.989999771118164,31.079999923706055,1300,31.079999923706055
2016-04-06,30.829999923706055,30.829999923706055,30.829999923706055,30.829999923706055,200,30.829999923706055
2016-04-07,30.829999923706055,30.829999923706055,30.829999923706055,30.829999923706055,0,30.829999923706055
2016-04-08,30.829999923706055,30.829999923706055,30.829999923706055,30.829999923706055,0,30.829999923706055
2016-04-11,30.829999923706055,30.829999923706055,30.829999923706055,30.829999923706055,0,30.829999923706055
2016-04-12,31.18000030517578,30.65999984741211,30.670000076293945,31.18000030517578,5000,31.18000030517578
2016-04-13,31.860000610351562,31.610000610351562,31.75,31.860000610351562,1200,31.860000610351562
2016-04-14,31.860000610351562,31.860000610351562,31.860000610351562,31.860000610351562,0,31.860000610351562
2016-04-15,31.8799991607666,31.860000610351562,31.8799991607666,31.8700008392334,12600,31.8700008392334
2016-04-18,32.25,32.20000076293945,32.20000076293945,32.25,3000,32.25
2016-04-19,32.5099983215332,32.41999816894531,32.5099983215332,32.45000076293945,1100,32.45000076293945
2016-04-20,32.45000076293945,32.45000076293945,32.45000076293945,32.45000076293945,0,32.45000076293945
2016-04-21,32.58000183105469,32.22999954223633,32.529998779296875,32.25,1800,32.25
2016-04-22,32.25,32.25,32.25,32.25,0,32.25
2016-04-25,32.25,32.25,32.25,32.25,0,32.25
2016-04-26,32.16999816894531,32.08000183105469,32.16999816894531,32.130001068115234,1400,32.130001068115234
2016-04-27,32.130001068115234,32.130001068115234,32.130001068115234,32.130001068115234,0,32.130001068115234
2016-04-28,32.40999984741211,31.670000076293945,32.40999984741211,31.75,5700,31.75
2016-04-29,31.520000457763672,31.100000381469727,31.440000534057617,31.450000762939453,11300,31.450000762939453
2016-05-02,31.860000610351562,31.489999771118164,31.489999771118164,31.81999969482422,2000,31.81999969482422
2016-05-03,31.200000762939453,31.200000762939453,31.200000762939453,31.200000762939453,600,31.200000762939453
2016-05-04,31.200000762939453,31.200000762939453,31.200000762939453,31.200000762939453,0,31.200000762939453
2016-05-05,31.209999084472656,30.93000030517578,30.940000534057617,31.209999084472656,1800,31.209999084472656
2016-05-06,31.209999084472656,31.209999084472656,31.209999084472656,31.209999084472656,0,31.209999084472656
2016-05-09,31.209999084472656,31.209999084472656,31.209999084472656,31.209999084472656,0,31.209999084472656
2016-05-10,31.209999084472656,31.209999084472656,31.209999084472656,31.209999084472656,0,31.209999084472656
2016-05-11,31.959999084472656,31.959999084472656,31.959999084472656,31.959999084472656,300,31.959999084472656
2016-05-12,31.6299991607666,31.450000762939453,31.549999237060547,31.450000762939453,700,31.450000762939453
2016-05-13,31.540000915527344,30.920000076293945,31.540000915527344,30.979999542236328,4300,30.979999542236328
2016-05-16,31.469999313354492,31.25,31.25,31.469999313354492,2400,31.469999313354492
2016-05-17,31.469999313354492,31.469999313354492,31.469999313354492,31.469999313354492,100,31.469999313354492
2016-05-18,30.8799991607666,30.780000686645508,30.81999969482422,30.8799991607666,1100,30.8799991607666
2016-05-19,30.56999969482422,30.3799991607666,30.440000534057617,30.56999969482422,1000,30.56999969482422
2016-05-20,31.239999771118164,31.139999389648438,31.18000030517578,31.139999389648438,700,31.139999389648438
2016-05-23,31.139999389648438,31.139999389648438,31.139999389648438,31.139999389648438,0,31.139999389648438
2016-05-24,31.889999389648438,31.860000610351562,31.860000610351562,31.889999389648438,400,31.889999389648438
2016-05-25,32.33000183105469,31.969999313354492,31.969999313354492,32.33000183105469,1000,32.33000183105469
2016-05-26,32.33000183105469,32.33000183105469,32.33000183105469,32.33000183105469,0,32.33000183105469
2016-05-27,32.33000183105469,32.33000183105469,32.33000183105469,32.33000183105469,0,32.33000183105469
2016-05-31,32.54999923706055,32.540000915527344,32.54999923706055,32.540000915527344,1800,32.540000915527344
2016-06-01,32.540000915527344,32.540000915527344,32.540000915527344,32.540000915527344,0,32.540000915527344
2016-06-02,32.70000076293945,32.5099983215332,32.5099983215332,32.65999984741211,4300,32.65999984741211
2016-06-03,32.65999984741211,32.65999984741211,32.65999984741211,32.65999984741211,0,32.65999984741211
2016-06-06,32.959999084472656,32.880001068115234,32.91999816894531,32.88999938964844,2400,32.88999938964844
2016-06-07,33.209999084472656,33.119998931884766,33.18000030517578,33.119998931884766,3500,33.119998931884766
2016-06-08,33.189998626708984,33.189998626708984,33.189998626708984,33.189998626708984,200,33.189998626708984
2016-06-09,33.09000015258789,32.869998931884766,33.09000015258789,32.869998931884766,400,32.869998931884766
2016-06-10,32.47999954223633,32.29999923706055,32.38999938964844,32.349998474121094,5400,32.349998474121094
2016-06-13,32.59000015258789,32.43000030517578,32.470001220703125,32.43000030517578,3900,32.43000030517578
2016-06-14,31.969999313354492,31.559999465942383,31.969999313354492,31.850000381469727,400,31.850000381469727
2016-06-15,31.829999923706055,31.799999237060547,31.799999237060547,31.799999237060547,1500,31.799999237060547
2016-06-16,31.15999984741211,31.15999984741211,31.15999984741211,31.15999984741211,300,31.15999984741211
2016-06-17,31.799999237060547,31.799999237060547,31.799999237060547,31.799999237060547,200,31.799999237060547
2016-06-20,32.47999954223633,32.36000061035156,32.47999954223633,32.36000061035156,800,32.36000061035156
2016-06-21,32.34000015258789,32.220001220703125,32.220001220703125,32.34000015258789,1000,32.34000015258789
2016-06-22,32.34000015258789,32.34000015258789,32.34000015258789,32.34000015258789,0,32.34000015258789
2016-06-23,32.86000061035156,32.86000061035156,32.86000061035156,32.86000061035156,500,32.86000061035156
2016-06-24,32.5,30.959999084472656,32.5,30.959999084472656,3300,30.959999084472656
2016-06-27,29.389999389648438,29.389999389648438,29.389999389648438,29.389999389648438,300,29.389999389648438
2016-06-28,30.31999969482422,30.1299991607666,30.299999237060547,30.31999969482422,3400,30.31999969482422
2016-06-29,30.31999969482422,30.31999969482422,30.31999969482422,30.31999969482422,0,30.31999969482422
2016-06-30,32.36000061035156,32.36000061035156,32.36000061035156,32.36000061035156,300,32.36000061035156
2016-07-01,32.36000061035156,32.36000061035156,32.36000061035156,32.36000061035156,0,32.36000061035156
2016-07-05,32.38999938964844,32.38999938964844,32.38999938964844,32.38999938964844,300,32.38999938964844
2016-07-06,32.63999938964844,32.13999938964844,32.13999938964844,32.63999938964844,7300,32.63999938964844
2016-07-07,32.9900016784668,32.790000915527344,32.9900016784668,32.790000915527344,1400,32.790000915527344
2016-07-08,33.2400016784668,33.0,33.2400016784668,33.0,3100,33.0
2016-07-11,33.95000076293945,33.95000076293945,33.95000076293945,33.95000076293945,300,33.95000076293945
2016-07-12,34.13999938964844,34.13999938964844,34.13999938964844,34.13999938964844,900,34.13999938964844
2016-07-13,34.33000183105469,34.209999084472656,34.220001220703125,34.209999084472656,500,34.209999084472656
2016-07-14,34.70000076293945,34.459999084472656,34.470001220703125,34.70000076293945,600,34.70000076293945
2016-07-15,34.52000045776367,34.459999084472656,34.459999084472656,34.52000045776367,500,34.52000045776367
2016-07-18,35.0,34.68000030517578,35.0,34.70000076293945,1000,34.70000076293945
2016-07-19,34.619998931884766,34.540000915527344,34.540000915527344,34.619998931884766,400,34.619998931884766
2016-07-20,35.08000183105469,35.0,35.08000183105469,35.0,1100,35.0
2016-07-21,35.0,35.0,35.0,35.0,0,35.0
2016-07-22,35.0,35.0,35.0,35.0,0,35.0
2016-07-25,35.0,35.0,35.0,35.0,0,35.0
2016-07-26,34.939998626708984,34.939998626708984,34.939998626708984,34.939998626708984,200,34.939998626708984
2016-07-27,34.939998626708984,34.939998626708984,34.939998626708984,34.939998626708984,0,34.939998626708984
2016-07-28,34.810001373291016,34.810001373291016,34.810001373291016,34.810001373291016,400,34.810001373291016
2016-07-29,34.810001373291016,34.810001373291016,34.810001373291016,34.810001373291016,0,34.810001373291016
2016-08-01,34.88999938964844,34.810001373291016,34.88999938964844,34.810001373291016,300,34.810001373291016
2016-08-02,34.810001373291016,34.810001373291016,34.810001373291016,34.810001373291016,0,34.810001373291016
2016-08-03,34.63999938964844,34.54999923706055,34.630001068115234,34.54999923706055,800,34.54999923706055
2016-08-04,34.54999923706055,34.54999923706055,34.54999923706055,34.54999923706055,0,34.54999923706055
2016-08-05,34.54999923706055,34.54999923706055,34.54999923706055,34.54999923706055,0,34.54999923706055
2016-08-08,35.349998474121094,35.279998779296875,35.279998779296875,35.349998474121094,400,35.349998474121094
2016-08-09,35.439998626708984,35.290000915527344,35.439998626708984,35.34000015258789,600,35.34000015258789
2016-08-10,35.34000015258789,35.34000015258789,35.34000015258789,35.34000015258789,0,35.34000015258789
2016-08-11,35.34000015258789,35.34000015258789,35.34000015258789,35.34000015258789,0,35.34000015258789
2016-08-12,35.34000015258789,35.34000015258789,35.34000015258789,35.34000015258789,0,35.34000015258789
2016-08-15,35.68000030517578,35.58000183105469,35.68000030517578,35.58000183105469,2600,35.58000183105469
2016-08-16,35.58000183105469,35.58000183105469,35.58000183105469,35.58000183105469,0,35.58000183105469
2016-08-17,35.58000183105469,35.58000183105469,35.58000183105469,35.58000183105469,0,35.58000183105469
2016-08-18,35.58000183105469,35.58000183105469,35.58000183105469,35.58000183105469,0,35.58000183105469
2016-08-19,35.58000183105469,35.58000183105469,35.58000183105469,35.58000183105469,0,35.58000183105469
2016-08-22,35.58000183105469,35.58000183105469,35.58000183105469,35.58000183105469,0,35.58000183105469
2016-08-23,35.630001068115234,35.58000183105469,35.630001068115234,35.58000183105469,300,35.58000183105469
2016-08-24,35.58000183105469,35.58000183105469,35.58000183105469,35.58000183105469,0,35.58000183105469
2016-08-25,35.060001373291016,35.060001373291016,35.060001373291016,35.060001373291016,200,35.060001373291016
2016-08-26,34.900001525878906,34.900001525878906,34.900001525878906,34.900001525878906,300,34.900001525878906
2016-08-29,34.900001525878906,34.900001525878906,34.900001525878906,34.900001525878906,0,34.900001525878906
2016-08-30,34.900001525878906,34.900001525878906,34.900001525878906,34.900001525878906,0,34.900001525878906
2016-08-31,34.900001525878906,34.900001525878906,34.900001525878906,34.900001525878906,0,34.900001525878906
2016-09-01,34.900001525878906,34.900001525878906,34.900001525878906,34.900001525878906,0,34.900001525878906
2016-09-02,35.33000183105469,35.33000183105469,35.33000183105469,35.33000183105469,200,35.33000183105469
2016-09-06,35.47999954223633,35.470001220703125,35.470001220703125,35.470001220703125,6200,35.470001220703125
2016-09-07,35.470001220703125,35.470001220703125,35.470001220703125,35.470001220703125,200,35.470001220703125
2016-09-08,35.470001220703125,35.470001220703125,35.470001220703125,35.470001220703125,0,35.470001220703125
2016-09-09,34.349998474121094,34.279998779296875,34.349998474121094,34.279998779296875,1300,34.279998779296875
2016-09-12,34.61000061035156,34.0,34.61000061035156,34.0,300,34.0
2016-09-13,33.63999938964844,33.599998474121094,33.63999938964844,33.599998474121094,600,33.599998474121094
2016-09-14,34.04999923706055,34.04999923706055,34.04999923706055,34.04999923706055,200,34.04999923706055
2016-09-15,34.04999923706055,34.04999923706055,34.04999923706055,34.04999923706055,0,34.04999923706055
2016-09-16,34.0099983215332,33.93000030517578,34.0099983215332,33.93000030517578,700,33.93000030517578
2016-09-19,34.619998931884766,34.619998931884766,34.619998931884766,34.619998931884766,500,34.619998931884766
2016-09-20,34.31999969482422,33.130001068115234,34.279998779296875,33.25,3400,33.25
2016-09-21,34.65999984741211,34.41999816894531,34.65999984741211,34.599998474121094,800,34.599998474121094
2016-09-22,35.27000045776367,35.27000045776367,35.27000045776367,35.27000045776367,300,35.27000045776367
2016-09-23,35.27000045776367,35.27000045776367,35.27000045776367,35.27000045776367,0,35.27000045776367
2016-09-26,35.27000045776367,35.27000045776367,35.27000045776367,35.27000045776367,0,35.27000045776367
2016-09-27,35.27000045776367,35.27000045776367,35.27000045776367,35.27000045776367,0,35.27000045776367
2016-09-28,35.27000045776367,35.27000045776367,35.27000045776367,35.27000045776367,0,35.27000045776367
2016-09-29,35.27000045776367,35.27000045776367,35.27000045776367,35.27000045776367,0,35.27000045776367
2016-09-30,35.27000045776367,35.27000045776367,35.27000045776367,35.27000045776367,0,35.27000045776367
2016-10-03,34.70000076293945,34.70000076293945,34.70000076293945,34.70000076293945,100,34.70000076293945
2016-10-04,34.70000076293945,34.70000076293945,34.70000076293945,34.70000076293945,0,34.70000076293945
2016-10-05,34.79999923706055,34.7599983215332,34.79999923706055,34.7599983215332,200,34.7599983215332
2016-10-06,34.7599983215332,34.7599983215332,34.7599983215332,34.7599983215332,0,34.7599983215332
2016-10-07,34.7599983215332,34.7599983215332,34.7599983215332,34.7599983215332,0,34.7599983215332
2016-10-10,34.7599983215332,34.7599983215332,34.7599983215332,34.7599983215332,0,34.7599983215332
2016-10-11,34.22999954223633,34.22999954223633,34.22999954223633,34.22999954223633,200,34.22999954223633
2016-10-12,34.22999954223633,34.22999954223633,34.22999954223633,34.22999954223633,0,34.22999954223633
2016-10-13,33.4900016784668,33.459999084472656,33.4900016784668,33.459999084472656,200,33.459999084472656
2016-10-14,34.0099983215332,34.0099983215332,34.0099983215332,34.0099983215332,100,34.0099983215332
2016-10-17,34.0099983215332,34.0099983215332,34.0099983215332,34.0099983215332,0,34.0099983215332
2016-10-18,34.0099983215332,34.0099983215332,34.0099983215332,34.0099983215332,0,34.0099983215332
2016-10-19,34.0099983215332,34.0099983215332,34.0099983215332,34.0099983215332,0,34.0099983215332
2016-10-20,34.0099983215332,34.0099983215332,34.0099983215332,34.0099983215332,0,34.0099983215332
2016-10-21,34.209999084472656,34.209999084472656,34.209999084472656,34.209999084472656,200,34.209999084472656
2016-10-24,34.52000045776367,34.52000045776367,34.52000045776367,34.52000045776367,200,34.52000045776367
2016-10-25,34.52000045776367,34.439998626708984,34.439998626708984,34.52000045776367,3000,34.52000045776367
2016-10-26,34.52000045776367,34.52000045776367,34.52000045776367,34.52000045776367,0,34.52000045776367
2016-10-27,34.52000045776367,34.52000045776367,34.52000045776367,34.52000045776367,0,34.52000045776367
2016-10-28,34.52000045776367,34.52000045776367,34.52000045776367,34.52000045776367,0,34.52000045776367
2016-10-31,33.84000015258789,33.84000015258789,33.84000015258789,33.84000015258789,100,33.84000015258789
2016-11-01,33.84000015258789,33.84000015258789,33.84000015258789,33.84000015258789,0,33.84000015258789
2016-11-02,33.84000015258789,33.84000015258789,33.84000015258789,33.84000015258789,0,33.84000015258789
2016-11-03,33.84000015258789,33.84000015258789,33.84000015258789,33.84000015258789,0,33.84000015258789
2016-11-04,33.84000015258789,33.84000015258789,33.84000015258789,33.84000015258789,0,33.84000015258789
2016-11-07,33.81999969482422,33.79999923706055,33.79999923706055,33.81999969482422,2600,33.81999969482422
2016-11-08,33.630001068115234,33.630001068115234,33.630001068115234,33.630001068115234,2600,33.630001068115234
2016-11-09,34.88999938964844,33.81999969482422,34.150001525878906,34.86000061035156,2300,34.86000061035156
2016-11-10,35.33000183105469,35.33000183105469,35.33000183105469,35.33000183105469,100,35.33000183105469
2016-11-11,35.400001525878906,34.5,35.400001525878906,34.5,3200,34.5
2016-11-14,34.81999969482422,34.81999969482422,34.81999969482422,34.81999969482422,200,34.81999969482422
2016-11-15,36.20000076293945,35.11000061035156,36.20000076293945,35.11000061035156,500,35.11000061035156
2016-11-16,35.11000061035156,35.11000061035156,35.11000061035156,35.11000061035156,0,35.11000061035156
2016-11-17,35.689998626708984,35.689998626708984,35.689998626708984,35.689998626708984,200,35.689998626708984
2016-11-18,35.59000015258789,35.59000015258789,35.59000015258789,35.59000015258789,200,35.59000015258789
2016-11-21,35.59000015258789,35.59000015258789,35.59000015258789,35.59000015258789,0,35.59000015258789
2016-11-22,36.16999816894531,36.16999816894531,36.16999816894531,36.16999816894531,500,36.16999816894531
2016-11-23,36.16999816894531,36.16999816894531,36.16999816894531,36.16999816894531,0,36.16999816894531
2016-11-25,36.16999816894531,36.16999816894531,36.16999816894531,36.16999816894531,0,36.16999816894531
2016-11-28,36.33000183105469,36.33000183105469,36.33000183105469,36.33000183105469,200,36.33000183105469
2016-11-29,36.33000183105469,36.33000183105469,36.33000183105469,36.33000183105469,0,36.33000183105469
2016-11-30,36.369998931884766,36.369998931884766,36.369998931884766,36.369998931884766,600,36.369998931884766
2016-12-01,36.0,36.0,36.0,36.0,400,36.0
2016-12-02,35.9900016784668,35.93000030517578,35.95000076293945,35.95000076293945,2900,35.95000076293945
2016-12-05,35.95000076293945,35.95000076293945,35.95000076293945,35.95000076293945,100,35.95000076293945
2016-12-06,35.95000076293945,35.95000076293945,35.95000076293945,35.95000076293945,0,35.95000076293945
2016-12-07,35.95000076293945,35.95000076293945,35.95000076293945,35.95000076293945,0,35.95000076293945
2016-12-08,37.630001068115234,37.59000015258789,37.59000015258789,37.630001068115234,500,37.630001068115234
2016-12-09,37.869998931884766,37.79999923706055,37.79999923706055,37.869998931884766,600,37.869998931884766
2016-12-12,38.09000015258789,34.58000183105469,38.09000015258789,37.9900016784668,5700,37.9900016784668
2016-12-13,38.52000045776367,38.290000915527344,38.29999923706055,38.52000045776367,5900,38.52000045776367
2016-12-14,38.52000045776367,38.52000045776367,38.52000045776367,38.52000045776367,0,38.52000045776367
2016-12-15,38.16999816894531,38.130001068115234,38.130001068115234,38.16999816894531,800,38.16999816894531
2016-12-16,38.16999816894531,38.16999816894531,38.16999816894531,38.16999816894531,0,38.16999816894531
2016-12-19,38.209999084472656,38.20000076293945,38.20000076293945,38.209999084472656,500,38.209999084472656
2016-12-20,38.47999954223633,38.400001525878906,38.47999954223633,38.400001525878906,200,38.400001525878906
2016-12-21,38.349998474121094,38.349998474121094,38.349998474121094,38.349998474121094,1000,38.349998474121094
2016-12-22,38.349998474121094,38.349998474121094,38.349998474121094,38.349998474121094,0,38.349998474121094
2016-12-23,38.349998474121094,38.349998474121094,38.349998474121094,38.349998474121094,0,38.349998474121094
2016-12-27,38.619998931884766,38.619998931884766,38.619998931884766,38.619998931884766,400,38.619998931884766
2016-12-28,38.189998626708984,38.099998474121094,38.18000030517578,38.099998474121094,300,38.099998474121094
2016-12-29,37.88999938964844,36.61000061035156,37.88999938964844,37.810001373291016,3900,37.810001373291016
2016-12-30,37.86000061035156,37.47999954223633,37.86000061035156,37.52000045776367,700,37.52000045776367
2017-01-03,37.52000045776367,37.52000045776367,37.52000045776367,37.52000045776367,0,37.52000045776367
2017-01-04,37.52000045776367,37.52000045776367,37.52000045776367,37.52000045776367,100,37.52000045776367
2017-01-05,37.52000045776367,37.52000045776367,37.52000045776367,37.52000045776367,0,37.52000045776367
2017-01-06,38.869998931884766,38.869998931884766,38.869998931884766,38.869998931884766,300,38.869998931884766
2017-01-09,38.56999969482422,38.56999969482422,38.56999969482422,38.56999969482422,200,38.56999969482422
2017-01-10,38.56999969482422,38.56999969482422,38.56999969482422,38.56999969482422,0,38.56999969482422
2017-01-11,38.56999969482422,38.56999969482422,38.56999969482422,38.56999969482422,0,38.56999969482422
2017-01-12,38.56999969482422,38.56999969482422,38.56999969482422,38.56999969482422,0,38.56999969482422
2017-01-13,38.56999969482422,38.56999969482422,38.56999969482422,38.56999969482422,0,38.56999969482422
2017-01-17,38.56999969482422,38.56999969482422,38.56999969482422,38.56999969482422,0,38.56999969482422
2017-01-18,38.43000030517578,38.43000030517578,38.43000030517578,38.43000030517578,700,38.43000030517578
2017-01-19,38.5,38.5,38.5,38.5,300,38.5
2017-01-20,38.5,38.5,38.5,38.5,0,38.5
2017-01-23,38.2599983215332,38.2599983215332,38.2599983215332,38.2599983215332,200,38.2599983215332
2017-01-24,38.2599983215332,38.2599983215332,38.2599983215332,38.2599983215332,0,38.2599983215332
2017-01-25,39.45000076293945,39.45000076293945,39.45000076293945,39.45000076293945,100,39.45000076293945
2017-01-26,39.45000076293945,39.45000076293945,39.45000076293945,39.45000076293945,0,39.45000076293945
2017-01-27,39.33000183105469,39.31999969482422,39.31999969482422,39.33000183105469,400,39.33000183105469
2017-01-30,38.63999938964844,38.560001373291016,38.619998931884766,38.58000183105469,1000,38.58000183105469
2017-01-31,38.58000183105469,38.58000183105469,38.58000183105469,38.58000183105469,0,38.58000183105469
2017-02-01,38.58000183105469,38.58000183105469,38.58000183105469,38.58000183105469,0,38.58000183105469
2017-02-02,38.58000183105469,38.58000183105469,38.58000183105469,38.58000183105469,0,38.58000183105469
2017-02-03,39.45000076293945,39.20000076293945,39.20000076293945,39.45000076293945,400,39.45000076293945
2017-02-06,39.45000076293945,39.45000076293945,39.45000076293945,39.45000076293945,0,39.45000076293945
2017-02-07,39.45000076293945,39.45000076293945,39.45000076293945,39.45000076293945,0,39.45000076293945
2017-02-08,39.29999923706055,39.099998474121094,39.15999984741211,39.29999923706055,500,39.29999923706055
2017-02-09,39.29999923706055,39.29999923706055,39.29999923706055,39.29999923706055,0,39.29999923706055
2017-02-10,40.20000076293945,38.68000030517578,40.15999984741211,38.68000030517578,1600,38.68000030517578
2017-02-13,40.47999954223633,40.36000061035156,40.439998626708984,40.400001525878906,2000,40.400001525878906
2017-02-14,40.790000915527344,40.43000030517578,40.43000030517578,40.790000915527344,600,40.790000915527344
2017-02-15,40.790000915527344,40.790000915527344,40.790000915527344,40.790000915527344,0,40.790000915527344
2017-02-16,41.189998626708984,41.189998626708984,41.189998626708984,41.189998626708984,1200,41.189998626708984
2017-02-17,41.189998626708984,41.189998626708984,41.189998626708984,41.189998626708984,0,41.189998626708984
2017-02-21,41.86000061035156,41.77000045776367,41.79999923706055,41.77000045776367,2800,41.77000045776367
2017-02-22,41.77000045776367,41.7400016784668,41.75,41.7400016784668,2200,41.7400016784668
2017-02-23,41.779998779296875,41.560001373291016,41.689998626708984,41.779998779296875,6900,41.779998779296875
2017-02-24,41.650001525878906,41.41999816894531,41.41999816894531,41.650001525878906,900,41.650001525878906
2017-02-27,41.650001525878906,41.650001525878906,41.650001525878906,41.650001525878906,0,41.650001525878906
2017-02-28,41.900001525878906,41.779998779296875,41.900001525878906,41.779998779296875,200,41.779998779296875
2017-03-01,43.119998931884766,42.810001373291016,42.810001373291016,43.09000015258789,1800,43.09000015258789
2017-03-02,42.56999969482422,42.54999923706055,42.56999969482422,42.54999923706055,1300,42.54999923706055
2017-03-03,42.54999923706055,42.54999923706055,42.54999923706055,42.54999923706055,0,42.54999923706055
2017-03-06,42.54999923706055,42.54999923706055,42.54999923706055,42.54999923706055,0,42.54999923706055
2017-03-07,42.54999923706055,42.54999923706055,42.54999923706055,42.54999923706055,0,42.54999923706055
2017-03-08,42.54999923706055,42.54999923706055,42.54999923706055,42.54999923706055,0,42.54999923706055
2017-03-09,42.54999923706055,42.54999923706055,42.54999923706055,42.54999923706055,0,42.54999923706055
2017-03-10,42.54999923706055,42.54999923706055,42.54999923706055,42.54999923706055,0,42.54999923706055
2017-03-13,42.16999816894531,42.0,42.0,42.16999816894531,2700,42.16999816894531
2017-03-14,41.91999816894531,41.880001068115234,41.91999816894531,41.880001068115234,200,41.880001068115234
2017-03-15,42.4900016784668,42.380001068115234,42.4900016784668,42.380001068115234,200,42.380001068115234
2017-03-16,42.380001068115234,42.380001068115234,42.380001068115234,42.380001068115234,0,42.380001068115234
2017-03-17,42.380001068115234,42.380001068115234,42.380001068115234,42.380001068115234,0,42.380001068115234
2017-03-20,42.380001068115234,42.380001068115234,42.380001068115234,42.380001068115234,0,42.380001068115234
2017-03-21,42.380001068115234,42.380001068115234,42.380001068115234,42.380001068115234,0,42.380001068115234
2017-03-22,42.75,41.0,42.75,41.060001373291016,5000,41.060001373291016
2017-03-23,41.060001373291016,41.060001373291016,41.060001373291016,41.060001373291016,0,41.060001373291016
2017-03-24,41.060001373291016,41.060001373291016,41.060001373291016,41.060001373291016,0,41.060001373291016
2017-03-27,40.9900016784668,40.9900016784668,40.9900016784668,40.9900016784668,200,40.9900016784668
2017-03-28,40.9900016784668,40.9900016784668,40.9900016784668,40.9900016784668,0,40.9900016784668
2017-03-29,40.9900016784668,40.9900016784668,40.9900016784668,40.9900016784668,0,40.9900016784668
2017-03-30,40.9900016784668,40.9900016784668,40.9900016784668,40.9900016784668,0,40.9900016784668
2017-03-31,40.9900016784668,40.9900016784668,40.9900016784668,40.9900016784668,0,40.9900016784668
2017-04-03,40.9900016784668,40.9900016784668,40.9900016784668,40.9900016784668,0,40.9900016784668
2017-04-04,41.599998474121094,41.560001373291016,41.56999969482422,41.56999969482422,2300,41.56999969482422
2017-04-05,41.810001373291016,41.66999816894531,41.810001373291016,41.66999816894531,300,41.66999816894531
2017-04-06,41.66999816894531,41.66999816894531,41.66999816894531,41.66999816894531,0,41.66999816894531
2017-04-07,41.66999816894531,41.66999816894531,41.66999816894531,41.66999816894531,0,41.66999816894531
2017-04-10,41.81999969482422,41.81999969482422,41.81999969482422,41.81999969482422,100,41.81999969482422
2017-04-11,41.81999969482422,41.81999969482422,41.81999969482422,41.81999969482422,0,41.81999969482422
2017-04-12,41.81999969482422,41.81999969482422,41.81999969482422,41.81999969482422,0,41.81999969482422
2017-04-13,41.0,40.959999084472656,41.0,40.959999084472656,800,40.959999084472656
2017-04-17,40.959999084472656,40.959999084472656,40.959999084472656,40.959999084472656,0,40.959999084472656
2017-04-18,41.11000061035156,41.099998474121094,41.099998474121094,41.11000061035156,300,41.11000061035156
2017-04-19,40.849998474121094,40.849998474121094,40.849998474121094,40.849998474121094,200,40.849998474121094
2017-04-20,41.65999984741211,41.65999984741211,41.65999984741211,41.65999984741211,500,41.65999984741211
2017-04-21,41.65999984741211,41.65999984741211,41.65999984741211,41.65999984741211,0,41.65999984741211
2017-04-24,42.20000076293945,42.20000076293945,42.20000076293945,42.20000076293945,200,42.20000076293945
2017-04-25,42.83000183105469,42.72999954223633,42.83000183105469,42.72999954223633,700,42.72999954223633
2017-04-26,42.72999954223633,42.72999954223633,42.72999954223633,42.72999954223633,0,42.72999954223633
2017-04-27,42.72999954223633,42.72999954223633,42.72999954223633,42.72999954223633,500,42.72999954223633
2017-04-28,42.72999954223633,42.72999954223633,42.72999954223633,42.72999954223633,0,42.72999954223633
2017-05-01,42.72999954223633,42.72999954223633,42.72999954223633,42.72999954223633,0,42.72999954223633
2017-05-02,42.709999084472656,42.709999084472656,42.709999084472656,42.709999084472656,400,42.709999084472656
2017-05-03,42.709999084472656,42.709999084472656,42.709999084472656,42.709999084472656,0,42.709999084472656
2017-05-04,42.709999084472656,42.709999084472656,42.709999084472656,42.709999084472656,0,42.709999084472656
2017-05-05,42.5099983215332,42.5099983215332,42.5099983215332,42.5099983215332,200,42.5099983215332
2017-05-08,42.5099983215332,42.5099983215332,42.5099983215332,42.5099983215332,0,42.5099983215332
2017-05-09,42.5099983215332,42.5099983215332,42.5099983215332,42.5099983215332,0,42.5099983215332
2017-05-10,42.5099983215332,42.5099983215332,42.5099983215332,42.5099983215332,0,42.5099983215332
2017-05-11,42.5099983215332,42.5099983215332,42.5099983215332,42.5099983215332,0,42.5099983215332
2017-05-12,42.84000015258789,42.84000015258789,42.84000015258789,42.84000015258789,100,42.84000015258789
2017-05-15,42.84000015258789,42.84000015258789,42.84000015258789,42.84000015258789,0,42.84000015258789
2017-05-16,43.189998626708984,43.189998626708984,43.189998626708984,43.189998626708984,300,43.189998626708984
2017-05-17,43.189998626708984,43.189998626708984,43.189998626708984,43.189998626708984,0,43.189998626708984
2017-05-18,43.189998626708984,43.189998626708984,43.189998626708984,43.189998626708984,0,43.189998626708984
2017-05-19,43.189998626708984,43.189998626708984,43.189998626708984,43.189998626708984,0,43.189998626708984
2017-05-22,43.189998626708984,43.189998626708984,43.189998626708984,43.189998626708984,0,43.189998626708984
2017-05-23,43.189998626708984,43.189998626708984,43.189998626708984,43.189998626708984,0,43.189998626708984
2017-05-24,43.189998626708984,43.189998626708984,43.189998626708984,43.189998626708984,0,43.189998626708984
2017-05-25,43.189998626708984,43.189998626708984,43.189998626708984,43.189998626708984,0,43.189998626708984
2017-05-26,43.81999969482422,43.7599983215332,43.79999923706055,43.7599983215332,900,43.7599983215332
2017-05-30,43.7599983215332,43.7599983215332,43.7599983215332,43.7599983215332,0,43.7599983215332
2017-05-31,43.7599983215332,43.7599983215332,43.7599983215332,43.7599983215332,0,43.7599983215332
2017-06-01,43.7599983215332,43.7599983215332,43.7599983215332,43.7599983215332,0,43.7599983215332
2017-06-02,43.7599983215332,43.7599983215332,43.7599983215332,43.7599983215332,0,43.7599983215332
2017-06-05,43.7599983215332,43.7599983215332,43.7599983215332,43.7599983215332,0,43.7599983215332
2017-06-06,43.7599983215332,43.7599983215332,43.7599983215332,43.7599983215332,0,43.7599983215332
2017-06-07,43.7599983215332,43.7599983215332,43.7599983215332,43.7599983215332,0,43.7599983215332
2017-06-08,43.7599983215332,43.7599983215332,43.7599983215332,43.7599983215332,0,43.7599983215332
2017-06-09,43.7599983215332,43.7599983215332,43.7599983215332,43.7599983215332,0,43.7599983215332
2017-06-12,43.7599983215332,43.7599983215332,43.7599983215332,43.7599983215332,0,43.7599983215332
2017-06-13,43.7599983215332,43.7599983215332,43.7599983215332,43.7599983215332,0,43.7599983215332
2017-06-14,43.7599983215332,43.7599983215332,43.7599983215332,43.7599983215332,0,43.7599983215332
2017-06-15,43.7599983215332,43.7599983215332,43.7599983215332,43.7599983215332,0,43.7599983215332
2017-06-16,43.7599983215332,43.7599983215332,43.7599983215332,43.7599983215332,0,43.7599983215332
2017-06-19,43.7599983215332,43.7599983215332,43.7599983215332,43.7599983215332,0,43.7599983215332
2017-06-20,43.7599983215332,43.7599983215332,43.7599983215332,43.7599983215332,0,43.7599983215332
2017-06-21,44.66999816894531,44.540000915527344,44.66999816894531,44.540000915527344,2700,44.540000915527344
2017-06-22,44.540000915527344,44.540000915527344,44.540000915527344,44.540000915527344,0,44.540000915527344
2017-06-23,44.540000915527344,44.540000915527344,44.540000915527344,44.540000915527344,300,44.540000915527344
2017-06-26,44.540000915527344,44.540000915527344,44.540000915527344,44.540000915527344,0,44.540000915527344
2017-06-27,44.540000915527344,44.540000915527344,44.540000915527344,44.540000915527344,0,44.540000915527344
2017-06-28,44.540000915527344,44.540000915527344,44.540000915527344,44.540000915527344,0,44.540000915527344
2017-06-29,44.47999954223633,44.47999954223633,44.47999954223633,44.47999954223633,100,44.47999954223633
2017-06-30,44.47999954223633,44.47999954223633,44.47999954223633,44.47999954223633,0,44.47999954223633
2017-07-03,44.47999954223633,44.47999954223633,44.47999954223633,44.47999954223633,0,44.47999954223633
2017-07-05,44.54999923706055,44.119998931884766,44.54999923706055,44.119998931884766,500,44.119998931884766
2017-07-06,44.119998931884766,44.119998931884766,44.119998931884766,44.119998931884766,0,44.119998931884766
2017-07-07,44.27000045776367,44.27000045776367,44.27000045776367,44.27000045776367,700,44.27000045776367
2017-07-10,44.27000045776367,44.27000045776367,44.27000045776367,44.27000045776367,0,44.27000045776367
2017-07-11,44.27000045776367,44.27000045776367,44.27000045776367,44.27000045776367,0,44.27000045776367
2017-07-12,44.27000045776367,44.27000045776367,44.27000045776367,44.27000045776367,0,44.27000045776367
2017-07-13,44.27000045776367,44.27000045776367,44.27000045776367,44.27000045776367,0,44.27000045776367
2017-07-14,45.560001373291016,45.560001373291016,45.560001373291016,45.560001373291016,300,45.560001373291016
2017-07-17,45.560001373291016,45.560001373291016,45.560001373291016,45.560001373291016,0,45.560001373291016
2017-07-18,45.34000015258789,45.33000183105469,45.34000015258789,45.33000183105469,200,45.33000183105469
2017-07-19,45.81999969482422,45.810001373291016,45.81999969482422,45.810001373291016,500,45.810001373291016
2017-07-20,45.810001373291016,45.810001373291016,45.810001373291016,45.810001373291016,0,45.810001373291016
2017-07-21,45.810001373291016,45.810001373291016,45.810001373291016,45.810001373291016,0,45.810001373291016
2017-07-24,45.810001373291016,45.810001373291016,45.810001373291016,45.810001373291016,0,45.810001373291016
2017-07-25,46.27000045776367,46.22999954223633,46.27000045776367,46.22999954223633,500,46.22999954223633
2017-07-26,46.22999954223633,46.060001373291016,46.22999954223633,46.060001373291016,500,46.060001373291016
2017-07-27,46.060001373291016,46.060001373291016,46.060001373291016,46.060001373291016,0,46.060001373291016
2017-07-28,45.90999984741211,45.7400016784668,45.90999984741211,45.84000015258789,900,45.84000015258789
2017-07-31,45.84000015258789,45.84000015258789,45.84000015258789,45.84000015258789,100,45.84000015258789
2017-08-01,45.84000015258789,45.84000015258789,45.84000015258789,45.84000015258789,0,45.84000015258789
2017-08-02,45.84000015258789,45.84000015258789,45.84000015258789,45.84000015258789,100,45.84000015258789
2017-08-03,45.84000015258789,45.84000015258789,45.84000015258789,45.84000015258789,0,45.84000015258789
2017-08-04,45.84000015258789,45.84000015258789,45.84000015258789,45.84000015258789,0,45.84000015258789
2017-08-07,45.84000015258789,45.84000015258789,45.84000015258789,45.84000015258789,0,45.84000015258789
2017-08-08,46.439998626708984,46.09000015258789,46.439998626708984,46.09000015258789,2300,46.09000015258789
2017-08-09,46.09000015258789,46.09000015258789,46.09000015258789,46.09000015258789,0,46.09000015258789
2017-08-10,45.11000061035156,45.11000061035156,45.11000061035156,45.11000061035156,300,45.11000061035156
2017-08-11,44.939998626708984,44.91999816894531,44.939998626708984,44.91999816894531,400,44.91999816894531
2017-08-14,44.91999816894531,44.91999816894531,44.91999816894531,44.91999816894531,0,44.91999816894531
2017-08-15,44.91999816894531,44.91999816894531,44.91999816894531,44.91999816894531,0,44.91999816894531
2017-08-16,44.91999816894531,44.91999816894531,44.91999816894531,44.91999816894531,0,44.91999816894531
2017-08-17,44.91999816894531,44.91999816894531,44.91999816894531,44.91999816894531,0,44.91999816894531
2017-08-18,44.29999923706055,44.209999084472656,44.29999923706055,44.2400016784668,1800,44.2400016784668
2017-08-21,44.2400016784668,44.2400016784668,44.2400016784668,44.2400016784668,0,44.2400016784668
2017-08-22,45.31999969482422,45.31999969482422,45.31999969482422,45.31999969482422,300,45.31999969482422
2017-08-23,45.31999969482422,45.31999969482422,45.31999969482422,45.31999969482422,0,45.31999969482422
2017-08-24,45.31999969482422,45.31999969482422,45.31999969482422,45.31999969482422,0,45.31999969482422
2017-08-25,45.31999969482422,45.31999969482422,45.31999969482422,45.31999969482422,0,45.31999969482422
2017-08-28,43.290000915527344,35.849998474121094,38.970001220703125,43.290000915527344,2000,43.290000915527344
2017-08-29,44.72999954223633,44.72999954223633,44.72999954223633,44.72999954223633,500,44.72999954223633
2017-08-30,45.38999938964844,45.04999923706055,45.04999923706055,45.38999938964844,1100,45.38999938964844
2017-08-31,45.38999938964844,45.38999938964844,45.38999938964844,45.38999938964844,0,45.38999938964844
2017-09-01,45.38999938964844,45.38999938964844,45.38999938964844,45.38999938964844,0,45.38999938964844
2017-09-05,45.38999938964844,45.38999938964844,45.38999938964844,45.38999938964844,0,45.38999938964844
2017-09-06,45.38999938964844,45.38999938964844,45.38999938964844,45.38999938964844,0,45.38999938964844
2017-09-07,45.38999938964844,45.38999938964844,45.38999938964844,45.38999938964844,0,45.38999938964844
2017-09-08,45.38999938964844,45.38999938964844,45.38999938964844,45.38999938964844,0,45.38999938964844
2017-09-11,45.38999938964844,45.38999938964844,45.38999938964844,45.38999938964844,0,45.38999938964844
2017-09-12,46.93000030517578,46.81999969482422,46.81999969482422,46.93000030517578,200,46.93000030517578
2017-09-13,46.93000030517578,46.93000030517578,46.93000030517578,46.93000030517578,0,46.93000030517578
2017-09-14,46.93000030517578,46.93000030517578,46.93000030517578,46.93000030517578,0,46.93000030517578
2017-09-15,46.93000030517578,46.93000030517578,46.93000030517578,46.93000030517578,0,46.93000030517578
2017-09-18,46.93000030517578,46.93000030517578,46.93000030517578,46.93000030517578,0,46.93000030517578
2017-09-19,47.439998626708984,47.40999984741211,47.439998626708984,47.40999984741211,1300,47.40999984741211
2017-09-20,47.459999084472656,47.43000030517578,47.45000076293945,47.43000030517578,400,47.43000030517578
2017-09-21,47.43000030517578,47.43000030517578,47.43000030517578,47.43000030517578,0,47.43000030517578
2017-09-22,47.43000030517578,47.43000030517578,47.43000030517578,47.43000030517578,0,47.43000030517578
2017-09-25,46.84000015258789,46.84000015258789,46.84000015258789,46.84000015258789,400,46.84000015258789
2017-09-26,47.15999984741211,46.72999954223633,46.72999954223633,47.15999984741211,300,47.15999984741211
2017-09-27,47.15999984741211,47.15999984741211,47.15999984741211,47.15999984741211,0,47.15999984741211
2017-09-28,47.15999984741211,47.15999984741211,47.15999984741211,47.15999984741211,0,47.15999984741211
2017-09-29,47.15999984741211,47.15999984741211,47.15999984741211,47.15999984741211,0,47.15999984741211
2017-10-02,48.0,48.0,48.0,48.0,900,48.0
2017-10-03,48.459999084472656,48.349998474121094,48.459999084472656,48.349998474121094,700,48.349998474121094
2017-10-04,48.349998474121094,48.349998474121094,48.349998474121094,48.349998474121094,0,48.349998474121094
2017-10-05,48.349998474121094,48.349998474121094,48.349998474121094,48.349998474121094,0,48.349998474121094
2017-10-06,48.349998474121094,48.349998474121094,48.349998474121094,48.349998474121094,0,48.349998474121094
2017-10-09,48.939998626708984,48.900001525878906,48.900001525878906,48.939998626708984,500,48.939998626708984
2017-10-10,49.04999923706055,49.04999923706055,49.04999923706055,49.04999923706055,200,49.04999923706055
2017-10-11,49.119998931884766,49.119998931884766,49.119998931884766,49.119998931884766,200,49.119998931884766
2017-10-12,49.119998931884766,49.119998931884766,49.119998931884766,49.119998931884766,0,49.119998931884766
2017-10-13,49.119998931884766,49.119998931884766,49.119998931884766,49.119998931884766,0,49.119998931884766
2017-10-16,49.119998931884766,49.119998931884766,49.119998931884766,49.119998931884766,0,49.119998931884766
2017-10-17,49.119998931884766,49.119998931884766,49.119998931884766,49.119998931884766,0,49.119998931884766
2017-10-18,49.119998931884766,49.119998931884766,49.119998931884766,49.119998931884766,0,49.119998931884766
2017-10-19,49.119998931884766,49.119998931884766,49.119998931884766,49.119998931884766,0,49.119998931884766
2017-10-20,49.119998931884766,49.119998931884766,49.119998931884766,49.119998931884766,0,49.119998931884766
2017-10-23,49.119998931884766,49.119998931884766,49.119998931884766,49.119998931884766,0,49.119998931884766
2017-10-24,49.81999969482422,49.75,49.75,49.81999969482422,500,49.81999969482422
2017-10-25,49.61000061035156,49.33000183105469,49.61000061035156,49.33000183105469,400,49.33000183105469
2017-10-26,49.119998931884766,49.119998931884766,49.119998931884766,49.119998931884766,200,49.119998931884766
2017-10-27,50.130001068115234,49.95000076293945,49.95000076293945,50.130001068115234,300,50.130001068115234
2017-10-30,50.040000915527344,49.72999954223633,49.75,49.72999954223633,1800,49.72999954223633
2017-10-31,49.72999954223633,49.72999954223633,49.72999954223633,49.72999954223633,0,49.72999954223633
2017-11-01,50.33000183105469,50.33000183105469,50.33000183105469,50.33000183105469,900,50.33000183105469
2017-11-02,50.099998474121094,50.099998474121094,50.099998474121094,50.099998474121094,100,50.099998474121094
2017-11-03,50.529998779296875,50.529998779296875,50.529998779296875,50.529998779296875,100,50.529998779296875
2017-11-06,50.529998779296875,50.529998779296875,50.529998779296875,50.529998779296875,0,50.529998779296875
2017-11-07,50.529998779296875,50.529998779296875,50.529998779296875,50.529998779296875,0,50.529998779296875
2017-11-08,50.5,50.4900016784668,50.5,50.4900016784668,200,50.4900016784668
2017-11-09,50.4900016784668,50.4900016784668,50.4900016784668,50.4900016784668,0,50.4900016784668
2017-11-10,50.130001068115234,50.130001068115234,50.130001068115234,50.130001068115234,200,50.130001068115234
2017-11-13,50.369998931884766,50.369998931884766,50.369998931884766,50.369998931884766,200,50.369998931884766
2017-11-14,49.90999984741211,49.86000061035156,49.869998931884766,49.90999984741211,1000,49.90999984741211
2017-11-15,50.0,50.0,50.0,50.0,400,50.0
2017-11-16,50.0,50.0,50.0,50.0,0,50.0
2017-11-17,50.0,50.0,50.0,50.0,0,50.0
2017-11-20,50.36000061035156,50.36000061035156,50.36000061035156,50.36000061035156,200,50.36000061035156
2017-11-21,51.0099983215332,51.0099983215332,51.0099983215332,51.0099983215332,300,51.0099983215332
2017-11-22,51.0099983215332,51.0099983215332,51.0099983215332,51.0099983215332,0,51.0099983215332
2017-11-24,51.189998626708984,50.900001525878906,51.13999938964844,50.900001525878906,800,50.900001525878906
2017-11-27,51.130001068115234,51.06999969482422,51.06999969482422,51.119998931884766,500,51.119998931884766
2017-11-28,51.119998931884766,51.119998931884766,51.119998931884766,51.119998931884766,0,51.119998931884766
2017-11-29,51.119998931884766,51.119998931884766,51.119998931884766,51.119998931884766,0,51.119998931884766
2017-11-30,53.15999984741211,52.75,52.75,53.15999984741211,1600,53.15999984741211
2017-12-01,52.88999938964844,51.689998626708984,52.88999938964844,52.40999984741211,2500,52.40999984741211
2017-12-04,52.40999984741211,52.40999984741211,52.40999984741211,52.40999984741211,0,52.40999984741211
2017-12-05,52.86000061035156,52.400001525878906,52.86000061035156,52.400001525878906,7800,52.400001525878906
2017-12-06,52.290000915527344,51.880001068115234,51.880001068115234,52.290000915527344,600,52.290000915527344
2017-12-07,52.290000915527344,52.290000915527344,52.290000915527344,52.290000915527344,0,52.290000915527344
2017-12-08,53.09000015258789,52.880001068115234,53.02000045776367,52.90999984741211,5500,52.90999984741211
2017-12-11,53.310001373291016,53.099998474121094,53.099998474121094,53.310001373291016,900,53.310001373291016
2017-12-12,53.310001373291016,53.310001373291016,53.310001373291016,53.310001373291016,0,53.310001373291016
2017-12-13,53.88999938964844,53.84000015258789,53.88999938964844,53.849998474121094,1400,53.849998474121094
2017-12-14,53.529998779296875,53.25,53.529998779296875,53.2599983215332,400,53.2599983215332
2017-12-15,53.70000076293945,53.59000015258789,53.599998474121094,53.66999816894531,7400,53.66999816894531
2017-12-18,54.83000183105469,54.689998626708984,54.83000183105469,54.72999954223633,2900,54.72999954223633
2017-12-19,54.27000045776367,54.27000045776367,54.27000045776367,54.27000045776367,1000,54.27000045776367
2017-12-20,54.27000045776367,54.27000045776367,54.27000045776367,54.27000045776367,100,54.27000045776367
2017-12-21,54.27000045776367,54.27000045776367,54.27000045776367,54.27000045776367,0,54.27000045776367
2017-12-22,54.220001220703125,54.16999816894531,54.16999816894531,54.220001220703125,2000,54.220001220703125
2017-12-26,54.2599983215332,54.25,54.2599983215332,54.25,800,54.25
2017-12-27,54.349998474121094,54.25,54.33000183105469,54.25,2000,54.25
2017-12-28,54.25,54.25,54.25,54.25,0,54.25
2017-12-29,54.25,54.25,54.25,54.25,0,54.25
2018-01-02,54.7400016784668,54.56999969482422,54.7400016784668,54.66999816894531,1400,54.66999816894531
2018-01-03,73.3499984741211,55.09000015258789,73.3499984741211,55.54999923706055,9800,55.54999923706055
2018-01-04,56.150001525878906,55.95000076293945,56.029998779296875,56.150001525878906,6500,56.150001525878906
2018-01-05,56.31999969482422,54.79999923706055,56.220001220703125,56.20000076293945,7000,56.20000076293945
2018-01-08,56.880001068115234,56.59000015258789,56.619998931884766,56.880001068115234,600,56.880001068115234
2018-01-09,56.880001068115234,56.880001068115234,56.880001068115234,56.880001068115234,0,56.880001068115234
2018-01-10,56.959999084472656,56.869998931884766,56.959999084472656,56.939998626708984,800,56.939998626708984
2018-01-11,57.279998779296875,57.279998779296875,57.279998779296875,57.279998779296875,200,57.279998779296875
2018-01-12,57.279998779296875,57.279998779296875,57.279998779296875,57.279998779296875,0,57.279998779296875
2018-01-16,58.880001068115234,58.45000076293945,58.45000076293945,58.810001373291016,400,58.810001373291016
2018-01-17,58.90999984741211,58.689998626708984,58.689998626708984,58.90999984741211,800,58.90999984741211
2018-01-18,59.150001525878906,58.56999969482422,58.56999969482422,59.150001525878906,1300,59.150001525878906
2018-01-19,59.4900016784668,59.4900016784668,59.4900016784668,59.4900016784668,200,59.4900016784668
2018-01-22,59.4900016784668,59.4900016784668,59.4900016784668,59.4900016784668,0,59.4900016784668
2018-01-23,60.650001525878906,60.400001525878906,60.43000030517578,60.5099983215332,800,60.5099983215332
2018-01-24,60.5099983215332,60.5099983215332,60.5099983215332,60.5099983215332,0,60.5099983215332
2018-01-25,60.70000076293945,60.70000076293945,60.70000076293945,60.70000076293945,300,60.70000076293945
2018-01-26,61.20000076293945,61.18000030517578,61.20000076293945,61.18000030517578,600,61.18000030517578
2018-01-29,61.68000030517578,61.619998931884766,61.619998931884766,61.68000030517578,300,61.68000030517578
2018-01-30,60.38999938964844,60.0099983215332,60.20000076293945,60.0099983215332,500,60.0099983215332
2018-01-31,60.0099983215332,60.0099983215332,60.0099983215332,60.0099983215332,0,60.0099983215332
2018-02-01,60.0099983215332,60.0099983215332,60.0099983215332,60.0099983215332,0,60.0099983215332
2018-02-02,57.599998474121094,57.52000045776367,57.540000915527344,57.52000045776367,500,57.52000045776367
2018-02-05,57.119998931884766,52.61000061035156,57.119998931884766,52.61000061035156,8900,52.61000061035156
2018-02-06,59.25,52.15999984741211,59.25,52.29999923706055,2700,52.29999923706055
2018-02-07,55.959999084472656,54.11000061035156,54.11000061035156,55.08000183105469,2400,55.08000183105469
2018-02-08,53.599998474121094,50.5,53.599998474121094,50.5,2000,50.5
2018-02-09,52.060001373291016,47.81999969482422,49.5,52.060001373291016,4200,52.060001373291016
2018-02-12,53.79999923706055,52.060001373291016,52.119998931884766,53.310001373291016,10500,53.310001373291016
2018-02-13,53.349998474121094,53.06999969482422,53.06999969482422,53.2400016784668,600,53.2400016784668
2018-02-14,54.58000183105469,52.720001220703125,54.29999923706055,54.58000183105469,2700,54.58000183105469
2018-02-15,55.0,54.650001525878906,55.0,54.650001525878906,500,54.650001525878906
2018-02-16,56.66999816894531,56.0,56.0,56.599998474121094,600,56.599998474121094
2018-02-20,55.279998779296875,55.279998779296875,55.279998779296875,55.279998779296875,200,55.279998779296875
2018-02-21,56.689998626708984,56.689998626708984,56.689998626708984,56.689998626708984,400,56.689998626708984
2018-02-22,57.279998779296875,54.90999984741211,55.72999954223633,55.060001373291016,24700,55.060001373291016
2018-02-23,56.79999923706055,55.95000076293945,55.95000076293945,56.79999923706055,900,56.79999923706055
2018-02-26,58.0,58.0,58.0,58.0,400,58.0
2018-02-27,58.43000030517578,57.189998626708984,58.36000061035156,57.189998626708984,500,57.189998626708984
2018-02-28,57.189998626708984,57.189998626708984,57.189998626708984,57.189998626708984,0,57.189998626708984
2018-03-01,55.630001068115234,55.630001068115234,55.630001068115234,55.630001068115234,800,55.630001068115234
2018-03-02,54.060001373291016,52.93000030517578,52.93000030517578,54.060001373291016,900,54.060001373291016
2018-03-05,56.02000045776367,55.869998931884766,56.02000045776367,55.869998931884766,500,55.869998931884766
2018-03-06,55.869998931884766,55.869998931884766,55.869998931884766,55.869998931884766,0,55.869998931884766
2018-03-07,55.869998931884766,55.869998931884766,55.869998931884766,55.869998931884766,0,55.869998931884766
2018-03-08,55.869998931884766,55.869998931884766,55.869998931884766,55.869998931884766,0,55.869998931884766
2018-03-09,55.869998931884766,55.869998931884766,55.869998931884766,55.869998931884766,0,55.869998931884766
2018-03-12,58.599998474121094,58.38999938964844,58.54999923706055,58.38999938964844,1000,58.38999938964844
2018-03-13,57.59000015258789,57.59000015258789,57.59000015258789,57.59000015258789,200,57.59000015258789
2018-03-14,57.59000015258789,57.060001373291016,57.59000015258789,57.16999816894531,800,57.16999816894531
2018-03-15,56.900001525878906,56.63999938964844,56.7400016784668,56.900001525878906,2200,56.900001525878906
2018-03-16,57.400001525878906,57.34000015258789,57.400001525878906,57.34000015258789,200,57.34000015258789
2018-03-19,57.34000015258789,57.34000015258789,57.34000015258789,57.34000015258789,0,57.34000015258789
2018-03-20,57.34000015258789,57.34000015258789,57.34000015258789,57.34000015258789,0,57.34000015258789
2018-03-21,56.54999923706055,55.75,56.54999923706055,55.75,2100,55.75
2018-03-22,54.45000076293945,53.65999984741211,54.439998626708984,53.65999984741211,3200,53.65999984741211
2018-03-23,53.65999984741211,53.65999984741211,53.65999984741211,53.65999984741211,0,53.65999984741211
2018-03-26,53.65999984741211,53.65999984741211,53.65999984741211,53.65999984741211,0,53.65999984741211
2018-03-27,53.65999984741211,53.65999984741211,53.65999984741211,53.65999984741211,0,53.65999984741211
2018-03-28,51.689998626708984,51.40999984741211,51.689998626708984,51.40999984741211,400,51.40999984741211
2018-03-29,52.56999969482422,52.56999969482422,52.56999969482422,52.56999969482422,400,52.56999969482422
2018-04-02,50.310001373291016,49.93000030517578,50.0,50.310001373291016,800,50.310001373291016
2018-04-03,51.529998779296875,51.529998779296875,51.529998779296875,51.529998779296875,5100,51.529998779296875
2018-04-04,50.310001373291016,50.310001373291016,50.310001373291016,50.310001373291016,200,50.310001373291016
2018-04-05,53.2599983215332,53.0099983215332,53.0099983215332,53.13999938964844,14700,53.13999938964844
2018-04-06,52.869998931884766,51.27000045776367,52.869998931884766,51.27000045776367,500,51.27000045776367
2018-04-09,52.77000045776367,51.63999938964844,52.0,52.77000045776367,11200,52.77000045776367
2018-04-10,52.77000045776367,52.77000045776367,52.77000045776367,52.77000045776367,0,52.77000045776367
2018-04-11,53.02000045776367,53.02000045776367,53.02000045776367,53.02000045776367,200,53.02000045776367
2018-04-12,53.630001068115234,52.97999954223633,53.630001068115234,52.97999954223633,2600,52.97999954223633
2018-04-13,53.810001373291016,53.810001373291016,53.810001373291016,53.810001373291016,200,53.810001373291016
2018-04-16,54.150001525878906,54.0,54.0,54.150001525878906,2000,54.150001525878906
2018-04-17,55.31999969482422,54.689998626708984,54.91999816894531,55.31999969482422,3100,55.31999969482422
2018-04-18,55.27000045776367,55.2599983215332,55.27000045776367,55.2599983215332,1000,55.2599983215332
2018-04-19,55.2599983215332,55.2599983215332,55.2599983215332,55.2599983215332,0,55.2599983215332
2018-04-20,53.470001220703125,53.470001220703125,53.470001220703125,53.470001220703125,300,53.470001220703125
2018-04-23,54.099998474121094,53.54999923706055,53.54999923706055,54.04999923706055,3900,54.04999923706055
2018-04-24,54.310001373291016,52.189998626708984,54.310001373291016,52.29999923706055,3900,52.29999923706055
2018-04-25,52.27000045776367,52.27000045776367,52.27000045776367,52.27000045776367,400,52.27000045776367
2018-04-26,53.150001525878906,53.150001525878906,53.150001525878906,53.150001525878906,100,53.150001525878906
2018-04-27,53.150001525878906,53.150001525878906,53.150001525878906,53.150001525878906,0,53.150001525878906
2018-04-30,52.970001220703125,52.970001220703125,52.970001220703125,52.970001220703125,200,52.970001220703125
2018-05-01,52.290000915527344,52.290000915527344,52.290000915527344,52.290000915527344,200,52.290000915527344
2018-05-02,52.290000915527344,52.290000915527344,52.290000915527344,52.290000915527344,0,52.290000915527344
2018-05-03,51.130001068115234,50.93000030517578,51.0,50.939998626708984,1400,50.939998626708984
2018-05-04,50.939998626708984,50.939998626708984,50.939998626708984,50.939998626708984,0,50.939998626708984
2018-05-07,50.939998626708984,50.939998626708984,50.939998626708984,50.939998626708984,0,50.939998626708984
2018-05-08,50.939998626708984,50.939998626708984,50.939998626708984,50.939998626708984,0,50.939998626708984
2018-05-09,54.689998626708984,54.38999938964844,54.38999938964844,54.689998626708984,200,54.689998626708984
2018-05-10,55.41999816894531,55.41999816894531,55.41999816894531,55.41999816894531,1900,55.41999816894531
2018-05-11,55.41999816894531,55.41999816894531,55.41999816894531,55.41999816894531,0,55.41999816894531
2018-05-14,56.369998931884766,55.939998626708984,56.369998931884766,55.939998626708984,300,55.939998626708984
2018-05-15,55.939998626708984,55.939998626708984,55.939998626708984,55.939998626708984,0,55.939998626708984
2018-05-16,55.90999984741211,55.90999984741211,55.90999984741211,55.90999984741211,100,55.90999984741211
2018-05-17,55.650001525878906,55.650001525878906,55.650001525878906,55.650001525878906,100,55.650001525878906
2018-05-18,55.459999084472656,55.29999923706055,55.459999084472656,55.29999923706055,200,55.29999923706055
2018-05-21,55.29999923706055,55.29999923706055,55.29999923706055,55.29999923706055,0,55.29999923706055
2018-05-22,55.29999923706055,55.29999923706055,55.29999923706055,55.29999923706055,0,55.29999923706055
2018-05-23,55.66999816894531,55.66999816894531,55.66999816894531,55.66999816894531,100,55.66999816894531
2018-05-24,55.66999816894531,55.66999816894531,55.66999816894531,55.66999816894531,0,55.66999816894531
2018-05-25,55.66999816894531,55.66999816894531,55.66999816894531,55.66999816894531,0,55.66999816894531
2018-05-29,54.90999984741211,54.90999984741211,54.90999984741211,54.90999984741211,1000,54.90999984741211
2018-05-30,54.90999984741211,54.90999984741211,54.90999984741211,54.90999984741211,0,54.90999984741211
2018-05-31,54.90999984741211,54.90999984741211,54.90999984741211,54.90999984741211,0,54.90999984741211
2018-06-01,54.90999984741211,54.90999984741211,54.90999984741211,54.90999984741211,0,54.90999984741211
2018-06-04,56.66999816894531,56.66999816894531,56.66999816894531,56.66999816894531,100,56.66999816894531
2018-06-05,56.939998626708984,56.79999923706055,56.79999923706055,56.83000183105469,400,56.83000183105469
2018-06-06,56.83000183105469,56.83000183105469,56.83000183105469,56.83000183105469,0,56.83000183105469
2018-06-07,56.83000183105469,56.83000183105469,56.83000183105469,56.83000183105469,0,56.83000183105469
2018-06-08,56.83000183105469,56.83000183105469,56.83000183105469,56.83000183105469,0,56.83000183105469
2018-06-11,58.58000183105469,57.900001525878906,57.900001525878906,58.45000076293945,400,58.45000076293945
2018-06-12,58.06999969482422,58.06999969482422,58.06999969482422,58.06999969482422,500,58.06999969482422
2018-06-13,58.689998626708984,58.040000915527344,58.689998626708984,58.040000915527344,1400,58.040000915527344
2018-06-14,58.040000915527344,58.040000915527344,58.040000915527344,58.040000915527344,0,58.040000915527344
2018-06-15,58.040000915527344,58.040000915527344,58.040000915527344,58.040000915527344,0,58.040000915527344
2018-06-18,58.040000915527344,58.040000915527344,58.040000915527344,58.040000915527344,0,58.040000915527344
2018-06-19,57.25,57.25,57.25,57.25,300,57.25
2018-06-20,57.25,57.25,57.25,57.25,0,57.25
2018-06-21,57.099998474121094,57.09000015258789,57.099998474121094,57.09000015258789,14100,57.09000015258789
2018-06-22,57.68000030517578,57.630001068115234,57.68000030517578,57.630001068115234,500,57.630001068115234
2018-06-25,57.630001068115234,57.630001068115234,57.630001068115234,57.630001068115234,0,57.630001068115234
2018-06-26,57.630001068115234,57.630001068115234,57.630001068115234,57.630001068115234,0,57.630001068115234
2018-06-27,57.630001068115234,57.630001068115234,57.630001068115234,57.630001068115234,0,57.630001068115234
2018-06-28,57.630001068115234,57.630001068115234,57.630001068115234,57.630001068115234,0,57.630001068115234
2018-06-29,57.630001068115234,57.630001068115234,57.630001068115234,57.630001068115234,0,57.630001068115234
2018-07-02,57.630001068115234,57.630001068115234,57.630001068115234,57.630001068115234,0,57.630001068115234
2018-07-03,57.630001068115234,57.630001068115234,57.630001068115234,57.630001068115234,0,57.630001068115234
