Date,High,Low,Open,Close,Volume,Adj Close
2015-12-01,50.52000045776367,50.279998779296875,50.290000915527344,50.52000045776367,523000.0,47.779876708984375
2015-12-02,50.59000015258789,50.029998779296875,50.59000015258789,50.150001525878906,1900.0,47.42993927001953
2015-12-03,50.20000076293945,49.279998779296875,50.20000076293945,49.34600067138672,23300.0,46.6695556640625
2015-12-04,51.56999969482422,49.56999969482422,51.56999969482422,50.40999984741211,4300.0,47.67584228515625
2015-12-07,50.52000045776367,49.93000030517578,50.52000045776367,50.040000915527344,81700.0,47.32591247558594
2015-12-08,50.189998626708984,49.76900100708008,50.099998474121094,49.849998474121094,53500.0,47.146209716796875
2015-12-09,49.9739990234375,49.2400016784668,49.9739990234375,49.2400016784668,6300.0,46.569305419921875
2015-12-10,49.88999938964844,49.4900016784668,49.4900016784668,49.599998474121094,9100.0,46.90977096557617
2015-12-11,49.56999969482422,48.56999969482422,49.56999969482422,48.56999969482422,3400.0,45.935630798339844
2015-12-14,48.77399826049805,48.369998931884766,48.599998474121094,48.77399826049805,5100.0,46.128570556640625
2015-12-15,49.720001220703125,49.41999816894531,49.720001220703125,49.41999816894531,300.0,46.73953628540039
2015-12-16,50.04999923706055,49.41999816894531,49.7599983215332,50.04999923706055,11100.0,47.33536148071289
2015-12-17,49.900001525878906,49.650001525878906,49.900001525878906,49.650001525878906,700.0,46.95705795288086
2015-12-18,49.400001525878906,48.459999084472656,49.400001525878906,48.459999084472656,522900.0,45.83160400390625
2015-12-21,48.88999938964844,48.369998931884766,48.88999938964844,48.7400016784668,16500.0,46.09642028808594
2015-12-22,49.215999603271484,48.8849983215332,48.8849983215332,49.215999603271484,1200.0,46.54660415649414
2015-12-23,49.215999603271484,49.215999603271484,49.215999603271484,49.215999603271484,0.0,46.54660415649414
2015-12-24,49.72999954223633,49.5099983215332,49.5099983215332,49.72999954223633,400.0,47.032718658447266
2015-12-28,49.689998626708984,49.470001220703125,49.470001220703125,49.599998474121094,6400.0,46.90977096557617
2015-12-29,50.040000915527344,50.029998779296875,50.029998779296875,50.040000915527344,6200.0,47.32591247558594
2015-12-30,50.099998474121094,49.970001220703125,50.099998474121094,49.970001220703125,2900.0,47.259708404541016
2015-12-31,49.58000183105469,49.400001525878906,49.400001525878906,49.41999816894531,1700.0,46.73953628540039
2016-01-04,48.9900016784668,48.0,48.9900016784668,48.5,7900.0,45.86943817138672
2016-01-05,48.65999984741211,48.45000076293945,48.45000076293945,48.65999984741211,1200.0,46.020755767822266
2016-01-06,48.400001525878906,47.9900016784668,48.400001525878906,47.9900016784668,3500.0,45.3870964050293
2016-01-07,47.52000045776367,47.290000915527344,47.43000030517578,47.29999923706055,1700.0,44.734519958496094
2016-01-08,47.650001525878906,46.54999923706055,47.650001525878906,46.54999923706055,17000.0,44.025203704833984
2016-01-11,46.81999969482422,46.040000915527344,46.81999969482422,46.599998474121094,5800.0,44.072486877441406
2016-01-12,47.380001068115234,46.439998626708984,47.380001068115234,46.79999923706055,4100.0,44.26164245605469
2016-01-13,47.130001068115234,45.869998931884766,47.09000015258789,46.75,2800.0,44.214351654052734
2016-01-14,46.61000061035156,45.599998474121094,46.290000915527344,46.58000183105469,5700.0,44.0535774230957
2016-01-15,51.70000076293945,45.0,47.0,45.52000045776367,7400.0,43.051063537597656
2016-01-19,46.40999984741211,45.470001220703125,46.40999984741211,45.470001220703125,2300.0,43.00377655029297
2016-01-20,45.380001068115234,44.013999938964844,44.5099983215332,45.029998779296875,12700.0,42.587646484375
2016-01-21,45.56999969482422,45.04999923706055,45.38999938964844,45.29999923706055,8300.0,42.84299850463867
2016-01-22,46.029998779296875,45.834999084472656,45.880001068115234,46.029998779296875,4700.0,43.53340530395508
2016-01-25,47.0,45.380001068115234,47.0,45.40999984741211,12900.0,42.947044372558594
2016-01-26,45.95000076293945,45.56999969482422,45.7400016784668,45.95000076293945,2100.0,43.45774459838867
2016-01-27,45.97999954223633,45.369998931884766,45.97999954223633,45.400001525878906,5300.0,42.93757629394531
2016-01-28,45.880001068115234,45.369998931884766,45.880001068115234,45.65999984741211,5100.0,43.18346405029297
2016-01-29,46.72999954223633,45.880001068115234,46.040000915527344,46.72999954223633,1400.0,44.1954345703125
2016-02-01,46.70000076293945,46.470001220703125,46.70000076293945,46.599998474121094,57900.0,44.072486877441406
2016-02-02,46.619998931884766,45.86000061035156,46.619998931884766,45.959999084472656,31700.0,43.46719741821289
2016-02-03,46.11000061035156,45.380001068115234,45.790000915527344,46.11000061035156,2500.0,43.60906219482422
2016-02-04,46.25,46.02000045776367,46.04999923706055,46.17599868774414,7300.0,43.671485900878906
2016-02-05,45.724998474121094,45.51100158691406,45.724998474121094,45.51100158691406,700.0,43.04255294799805
2016-02-08,45.0,44.09000015258789,45.0,44.56700134277344,9500.0,42.1497688293457
2016-02-09,44.65999984741211,44.02000045776367,44.02000045776367,44.65999984741211,5400.0,42.237709045410156
2016-02-10,45.20500183105469,44.73099899291992,45.02000045776367,44.73099899291992,5900.0,42.30485916137695
2016-02-11,44.150001525878906,43.790000915527344,44.130001068115234,44.150001525878906,9900.0,41.75536346435547
2016-02-12,44.959999084472656,44.43000030517578,44.599998474121094,44.959999084472656,5400.0,42.52144241333008
2016-02-16,45.720001220703125,45.316001892089844,45.5099983215332,45.630001068115234,20600.0,43.15510177612305
2016-02-17,46.540000915527344,46.2400016784668,46.2400016784668,46.5,4500.0,43.977909088134766
2016-02-18,46.70000076293945,44.56999969482422,46.70000076293945,46.28799819946289,54500.0,43.77740478515625
2016-02-19,46.290000915527344,46.22999954223633,46.22999954223633,46.290000915527344,700.0,43.77930450439453
2016-02-22,46.92499923706055,46.84000015258789,46.92499923706055,46.84000015258789,2200.0,44.299476623535156
2016-02-23,46.880001068115234,46.4379997253418,46.880001068115234,46.47999954223633,1400.0,43.95899963378906
2016-02-24,46.63999938964844,46.63999938964844,46.63999938964844,46.63999938964844,200.0,44.110313415527344
2016-02-25,46.93000030517578,46.7859992980957,46.93000030517578,46.7859992980957,600.0,44.24839401245117
2016-02-26,47.38999938964844,47.220001220703125,47.38999938964844,47.2599983215332,700.0,44.696693420410156
2016-02-29,47.22999954223633,46.84000015258789,47.220001220703125,46.84000015258789,1800.0,44.299476623535156
2016-03-01,47.63999938964844,47.0,47.20000076293945,47.63999938964844,6300.0,45.05607604980469
2016-03-02,47.95000076293945,47.7599983215332,47.7599983215332,47.95000076293945,300.0,45.34926986694336
2016-03-03,48.189998626708984,48.040000915527344,48.08000183105469,48.189998626708984,39200.0,45.57624435424805
2016-03-04,48.525001525878906,48.25,48.369998931884766,48.31999969482422,19900.0,45.69919204711914
2016-03-07,48.34000015258789,48.16999816894531,48.16999816894531,48.189998626708984,1300.0,45.57624435424805
2016-03-08,48.13999938964844,47.75,47.91999816894531,47.779998779296875,16800.0,45.18848419189453
2016-03-09,48.18000030517578,47.900001525878906,48.18000030517578,47.95000076293945,3300.0,45.34926986694336
2016-03-10,48.22999954223633,47.70000076293945,48.22999954223633,47.9900016784668,5500.0,45.3870964050293
2016-03-11,48.7599983215332,48.5,48.599998474121094,48.7599983215332,4100.0,46.115333557128906
2016-03-14,48.840999603271484,48.755001068115234,48.755001068115234,48.840999603271484,3000.0,46.191932678222656
2016-03-15,48.65999984741211,48.619998931884766,48.63800048828125,48.65999984741211,11800.0,46.020755767822266
2016-03-16,48.93000030517578,48.630001068115234,48.65999984741211,48.93000030517578,15200.0,46.2761116027832
2016-03-17,49.26100158691406,48.93000030517578,49.04999923706055,49.2400016784668,1300.0,46.569305419921875
2016-03-18,49.2599983215332,48.900001525878906,48.900001525878906,49.20000076293945,2900.0,46.75747299194336
2016-03-21,49.290000915527344,49.15999984741211,49.290000915527344,49.15999984741211,2700.0,46.71945571899414
2016-03-22,49.36000061035156,49.220001220703125,49.220001220703125,49.30799865722656,4400.0,46.860107421875
2016-03-23,49.31999969482422,48.93199920654297,49.31999969482422,49.0099983215332,3700.0,46.576900482177734
2016-03-24,48.970001220703125,48.70000076293945,48.88999938964844,48.970001220703125,41000.0,46.538883209228516
2016-03-28,48.970001220703125,48.970001220703125,48.970001220703125,48.970001220703125,0.0,46.538883209228516
2016-03-29,49.439998626708984,48.86000061035156,48.86000061035156,49.43000030517578,8300.0,46.97605514526367
2016-03-30,49.810001373291016,49.630001068115234,49.810001373291016,49.67399978637695,7400.0,47.20793151855469
2016-03-31,49.70000076293945,49.534000396728516,49.619998931884766,49.534000396728516,3000.0,47.07489013671875
2016-04-01,49.599998474121094,49.29899978637695,49.29899978637695,49.59000015258789,3200.0,47.12810134887695
2016-04-04,49.849998474121094,49.70500183105469,49.75199890136719,49.70500183105469,2000.0,47.23740005493164
2016-04-05,49.439998626708984,49.29800033569336,49.41999816894531,49.33000183105469,7000.0,46.881019592285156
2016-04-06,49.779998779296875,49.290000915527344,49.41999816894531,49.779998779296875,11500.0,47.30867004394531
2016-04-07,49.63999938964844,48.99100112915039,49.63999938964844,48.99100112915039,1300.0,46.558841705322266
2016-04-08,49.56999969482422,49.290000915527344,49.56999969482422,49.290000915527344,700.0,46.84300231933594
2016-04-11,49.56999969482422,49.220001220703125,49.56999969482422,49.25,2400.0,46.80498123168945
2016-04-12,49.529998779296875,49.09000015258789,49.310001373291016,49.45000076293945,6800.0,46.99505615234375
2016-04-13,49.93000030517578,49.790000915527344,49.93000030517578,49.88999938964844,1200.0,47.41321563720703
2016-04-14,50.11000061035156,49.9900016784668,49.9900016784668,50.0099983215332,1000.0,47.52725601196289
2016-04-15,50.060001373291016,49.96699905395508,49.9900016784668,49.96699905395508,2400.0,47.486385345458984
2016-04-18,50.06999969482422,49.97999954223633,50.06999969482422,49.97999954223633,4100.0,47.49873733520508
2016-04-19,50.459999084472656,50.380001068115234,50.459999084472656,50.380001068115234,400.0,47.87887954711914
2016-04-20,50.66999816894531,50.439998626708984,50.650001525878906,50.5,3000.0,47.992923736572266
2016-04-21,50.30400085449219,50.25,50.30400085449219,50.25,3600.0,47.75534439086914
2016-04-22,50.15999984741211,50.04999923706055,50.150001525878906,50.15999984741211,1300.0,47.66980743408203
2016-04-25,50.130001068115234,49.90599822998047,50.130001068115234,50.0099983215332,3200.0,47.52725601196289
2016-04-26,50.13999938964844,50.099998474121094,50.13999938964844,50.099998474121094,600.0,47.6127815246582
2016-04-27,50.2599983215332,50.0,50.0,50.2599983215332,700.0,47.76485061645508
2016-04-28,50.88999938964844,49.709999084472656,50.88999938964844,49.709999084472656,3000.0,47.242149353027344
2016-04-29,49.41999816894531,49.41999816894531,49.41999816894531,49.41999816894531,100.0,46.96654510498047
2016-05-02,49.709999084472656,49.66999816894531,49.709999084472656,49.709999084472656,900.0,47.242149353027344
2016-05-03,49.599998474121094,49.400001525878906,49.599998474121094,49.400001525878906,400.0,46.94754409790039
2016-05-04,49.400001525878906,49.400001525878906,49.400001525878906,49.400001525878906,0.0,46.94754409790039
2016-05-05,49.29999923706055,49.119998931884766,49.29999923706055,49.16999816894531,36300.0,46.72895431518555
2016-05-06,49.349998474121094,49.11000061035156,49.16999816894531,49.290000915527344,5400.0,46.84300231933594
2016-05-09,49.46500015258789,49.41699981689453,49.459999084472656,49.46500015258789,600.0,47.00931167602539
2016-05-10,50.0,49.790000915527344,49.790000915527344,50.0,2800.0,47.51775360107422
2016-05-11,50.0099983215332,49.58000183105469,50.0099983215332,49.58000183105469,1800.0,47.11860275268555
2016-05-12,49.65999984741211,49.369998931884766,49.54999923706055,49.599998474121094,7700.0,47.13760757446289
2016-05-13,49.45100021362305,49.08000183105469,49.45100021362305,49.15999984741211,4000.0,46.71945571899414
2016-05-16,49.720001220703125,49.33000183105469,49.33000183105469,49.720001220703125,900.0,47.25164794921875
2016-05-17,49.47999954223633,49.0,49.47999954223633,49.119998931884766,16300.0,46.68144226074219
2016-05-18,49.41999816894531,48.933998107910156,48.933998107910156,49.119998931884766,1200.0,46.68144226074219
2016-05-19,48.9900016784668,48.689998626708984,48.9900016784668,48.88999938964844,63300.0,46.46285629272461
2016-05-20,49.459999084472656,49.29800033569336,49.31999969482422,49.29800033569336,4300.0,46.85060119628906
2016-05-23,49.459999084472656,49.25,49.459999084472656,49.2599983215332,55100.0,46.814483642578125
2016-05-24,49.2599983215332,49.2599983215332,49.2599983215332,49.2599983215332,0.0,46.814483642578125
2016-05-25,50.46799850463867,50.220001220703125,50.220001220703125,50.220001220703125,1600.0,47.72682571411133
2016-05-26,50.220001220703125,50.220001220703125,50.220001220703125,50.220001220703125,0.0,47.72682571411133
2016-05-27,50.439998626708984,50.33000183105469,50.36000061035156,50.33000183105469,900.0,47.83136749267578
2016-05-31,50.5,50.268001556396484,50.36000061035156,50.268001556396484,1900.0,47.7724494934082
2016-06-01,50.529998779296875,50.439998626708984,50.439998626708984,50.529998779296875,300.0,48.02143859863281
2016-06-02,50.599998474121094,50.54999923706055,50.54999923706055,50.599998474121094,800.0,48.08796310424805
2016-06-03,50.540000915527344,50.5,50.540000915527344,50.5,28900.0,47.992923736572266
2016-06-06,50.68000030517578,50.56999969482422,50.599998474121094,50.68000030517578,1800.0,48.163997650146484
2016-06-07,50.869998931884766,50.77000045776367,50.81999969482422,50.77000045776367,900.0,48.2495231628418
2016-06-08,50.91999816894531,50.91999816894531,50.91999816894531,50.91999816894531,500.0,48.39207458496094
2016-06-09,50.880001068115234,50.83000183105469,50.880001068115234,50.849998474121094,1000.0,48.325557708740234
2016-06-10,50.43299865722656,50.36899948120117,50.43299865722656,50.36899948120117,1200.0,47.86843490600586
2016-06-13,50.369998931884766,50.16899871826172,50.369998931884766,50.16899871826172,2700.0,47.67836380004883
2016-06-14,49.91999816894531,49.62799835205078,49.900001525878906,49.869998931884766,3200.0,47.39420700073242
2016-06-15,49.970001220703125,49.970001220703125,49.970001220703125,49.970001220703125,300.0,47.4892463684082
2016-06-16,50.0,49.347999572753906,49.5,50.0,20500.0,47.51775360107422
2016-06-17,49.88999938964844,49.560001373291016,49.88999938964844,49.560001373291016,1200.0,47.327720642089844
2016-06-20,50.2400016784668,49.83000183105469,50.07500076293945,49.83000183105469,48800.0,47.58555603027344
2016-06-21,50.09000015258789,49.900001525878906,49.900001525878906,49.970001220703125,126000.0,47.7192497253418
2016-06-22,50.130001068115234,49.900001525878906,50.130001068115234,49.900001525878906,1100.0,47.65239715576172
2016-06-23,50.560001373291016,50.349998474121094,50.40999984741211,50.560001373291016,55300.0,48.282676696777344
2016-06-24,49.409000396728516,48.36000061035156,48.36000061035156,48.81999969482422,55500.0,46.62104797363281
2016-06-27,50.689998626708984,47.720001220703125,50.689998626708984,47.779998779296875,16200.0,45.62788772583008
2016-06-28,48.70000076293945,48.29499816894531,48.34000015258789,48.70000076293945,6400.0,46.506446838378906
2016-06-29,49.50899887084961,49.20500183105469,49.209999084472656,49.50899887084961,11800.0,47.27900695800781
2016-06-30,49.50899887084961,49.50899887084961,49.50899887084961,49.50899887084961,0.0,47.27900695800781
2016-07-01,50.22999954223633,50.013999938964844,50.189998626708984,50.209999084472656,6300.0,47.94844055175781
2016-07-05,50.220001220703125,49.78300094604492,50.220001220703125,50.060001373291016,11000.0,47.80519485473633
2016-07-06,50.14799880981445,49.72999954223633,49.970001220703125,50.125999450683594,2700.0,47.868221282958984
2016-07-07,50.29999923706055,50.2400016784668,50.29999923706055,50.2400016784668,1000.0,47.977081298828125
2016-07-08,50.86000061035156,50.86000061035156,50.86000061035156,50.86000061035156,600.0,48.56916809082031
2016-07-11,50.86000061035156,50.86000061035156,50.86000061035156,50.86000061035156,200.0,48.56916809082031
2016-07-12,51.52000045776367,51.41899871826172,51.41899871826172,51.52000045776367,1700.0,49.19943618774414
2016-07-13,51.56999969482422,51.50600051879883,51.56999969482422,51.50600051879883,300.0,49.186065673828125
2016-07-14,51.90700149536133,51.849998474121094,51.90700149536133,51.849998474121094,2200.0,49.514564514160156
2016-07-15,51.85900115966797,51.779998779296875,51.85900115966797,51.790000915527344,1200.0,49.457275390625
2016-07-18,51.939998626708984,51.88999938964844,51.939998626708984,51.895999908447266,3600.0,49.55849838256836
2016-07-19,51.779998779296875,51.779998779296875,51.779998779296875,51.779998779296875,200.0,49.44771957397461
2016-07-20,52.11199951171875,52.11199951171875,52.11199951171875,52.11199951171875,400.0,49.7647705078125
2016-07-21,51.90999984741211,51.88999938964844,51.88999938964844,51.900001525878906,600.0,49.56231689453125
2016-07-22,52.150001525878906,51.79499816894531,52.04999923706055,52.150001525878906,3800.0,49.80105972290039
2016-07-25,52.189998626708984,51.92900085449219,52.189998626708984,52.04499816894531,1600.0,49.70078659057617
2016-07-26,51.959999084472656,51.959999084472656,51.959999084472656,51.959999084472656,300.0,49.61960983276367
2016-07-27,52.15999984741211,51.90999984741211,52.15999984741211,52.10300064086914,4600.0,49.75617218017578
2016-07-28,52.130001068115234,52.06800079345703,52.130001068115234,52.06800079345703,400.0,49.722747802734375
2016-07-29,52.29999923706055,52.06999969482422,52.06999969482422,52.20100021362305,1200.0,49.84975814819336
2016-08-01,52.29999923706055,52.20000076293945,52.29999923706055,52.20000076293945,1600.0,49.84880447387695
2016-08-02,52.20000076293945,51.85599899291992,52.20000076293945,51.85599899291992,7100.0,49.520301818847656
2016-08-03,51.900001525878906,51.900001525878906,51.900001525878906,51.900001525878906,400.0,49.56231689453125
2016-08-04,52.2400016784668,52.08000183105469,52.2400016784668,52.08000183105469,1500.0,49.734214782714844
2016-08-05,52.5099983215332,52.5099983215332,52.5099983215332,52.5099983215332,200.0,50.144840240478516
2016-08-08,52.619998931884766,52.43000030517578,52.619998931884766,52.43000030517578,11200.0,50.06844711303711
2016-08-09,52.62900161743164,52.349998474121094,52.349998474121094,52.47999954223633,8800.0,50.116188049316406
2016-08-10,52.79999923706055,52.26900100708008,52.79999923706055,52.316001892089844,8300.0,49.95957946777344
2016-08-11,52.650001525878906,52.470001220703125,52.470001220703125,52.540000915527344,2000.0,50.173492431640625
2016-08-12,52.599998474121094,52.459999084472656,52.59000015258789,52.5099983215332,2300.0,50.144840240478516
2016-08-15,52.779998779296875,52.689998626708984,52.689998626708984,52.779998779296875,3700.0,50.40267562866211
2016-08-16,52.529998779296875,52.400001525878906,52.5,52.400001525878906,2900.0,50.039798736572266
2016-08-17,52.619998931884766,52.400001525878906,52.619998931884766,52.400001525878906,600.0,50.039798736572266
2016-08-18,52.400001525878906,52.400001525878906,52.400001525878906,52.400001525878906,0.0,50.039798736572266
2016-08-19,52.5099983215332,52.36000061035156,52.380001068115234,52.5099983215332,700.0,50.144840240478516
2016-08-22,52.52799987792969,52.40999984741211,52.45000076293945,52.518001556396484,3600.0,50.1524772644043
2016-08-23,52.7599983215332,52.68299865722656,52.7599983215332,52.68299865722656,1500.0,50.310054779052734
2016-08-24,52.5,52.5,52.5,52.5,400.0,50.13528823852539
2016-08-25,52.38999938964844,52.2400016784668,52.38999938964844,52.2599983215332,4000.0,49.90609359741211
2016-08-26,52.45000076293945,52.07699966430664,52.45000076293945,52.18000030517578,2700.0,49.8297004699707
2016-08-29,52.47999954223633,52.34000015258789,52.34000015258789,52.47999954223633,500.0,50.116188049316406
2016-08-30,52.33000183105469,52.33000183105469,52.33000183105469,52.33000183105469,200.0,49.97295379638672
2016-08-31,52.290000915527344,52.22999954223633,52.22999954223633,52.290000915527344,400.0,49.93475341796875
2016-09-01,52.7599983215332,52.0,52.439998626708984,52.040000915527344,1100.0,49.69601058959961
2016-09-02,52.58000183105469,52.43000030517578,52.58000183105469,52.5099983215332,1300.0,50.144840240478516
2016-09-06,52.59000015258789,52.47999954223633,52.58000183105469,52.584999084472656,9300.0,50.21646499633789
2016-09-07,52.641998291015625,52.5260009765625,52.641998291015625,52.630001068115234,8700.0,50.25943374633789
2016-09-08,52.59000015258789,52.45000076293945,52.59000015258789,52.5,2400.0,50.13528823852539
2016-09-09,52.34000015258789,51.27000045776367,52.34000015258789,51.33399963378906,27600.0,49.021812438964844
2016-09-12,51.9900016784668,51.12900161743164,51.27299880981445,51.9900016784668,4200.0,49.64826965332031
2016-09-13,51.38999938964844,51.20000076293945,51.38999938964844,51.310001373291016,3200.0,48.9988899230957
2016-09-14,51.869998931884766,51.16999816894531,51.869998931884766,51.16999816894531,7200.0,48.86519241333008
2016-09-15,51.88999938964844,51.43000030517578,51.43000030517578,51.77000045776367,3300.0,49.438175201416016
2016-09-16,51.540000915527344,51.27000045776367,51.529998779296875,51.474998474121094,13400.0,49.3863639831543
2016-09-19,51.736000061035156,51.400001525878906,51.63600158691406,51.400001525878906,2700.0,49.31441116333008
2016-09-20,51.689998626708984,51.47600173950195,51.689998626708984,51.55799865722656,2400.0,49.46598815917969
2016-09-21,51.55799865722656,51.55799865722656,51.55799865722656,51.55799865722656,0.0,49.46598815917969
2016-09-22,52.459999084472656,52.189998626708984,52.459999084472656,52.189998626708984,10500.0,50.07234573364258
2016-09-23,52.11000061035156,52.04999923706055,52.08000183105469,52.04999923706055,6200.0,49.93803024291992
2016-09-26,51.97999954223633,51.54999923706055,51.97999954223633,51.630001068115234,40800.0,49.53507995605469
2016-09-27,51.9630012512207,51.779998779296875,51.9630012512207,51.790000915527344,1200.0,49.68857955932617
2016-09-28,52.02000045776367,52.02000045776367,52.02000045776367,52.02000045776367,500.0,49.90925216674805
2016-09-29,52.13999938964844,51.650001525878906,52.099998474121094,51.650001525878906,700.0,49.554264068603516
2016-09-30,52.15999984741211,51.779998779296875,51.849998474121094,52.095001220703125,6600.0,49.98120880126953
2016-10-03,52.380001068115234,51.71699905395508,52.380001068115234,51.71699905395508,1300.0,49.61853790283203
2016-10-04,51.95000076293945,51.540000915527344,51.95000076293945,51.59700012207031,1600.0,49.50341033935547
2016-10-05,52.040000915527344,51.790000915527344,51.86000061035156,51.849998474121094,1900.0,49.74614334106445
2016-10-06,51.88999938964844,51.66999816894531,51.88999938964844,51.86000061035156,1500.0,49.755741119384766
2016-10-07,51.83000183105469,51.54999923706055,51.83000183105469,51.724998474121094,4100.0,49.626216888427734
2016-10-10,51.91999816894531,51.861000061035156,51.861000061035156,51.91999816894531,600.0,49.81330108642578
2016-10-11,51.790000915527344,51.33000183105469,51.790000915527344,51.33000183105469,800.0,49.24724578857422
2016-10-12,51.7599983215332,51.2599983215332,51.7599983215332,51.290000915527344,17900.0,49.208866119384766
2016-10-13,50.970001220703125,50.81999969482422,50.970001220703125,50.869998931884766,1400.0,48.805912017822266
2016-10-14,51.599998474121094,51.29100036621094,51.470001220703125,51.29100036621094,3000.0,49.2098274230957
2016-10-17,51.263999938964844,51.040000915527344,51.1879997253418,51.040000915527344,1700.0,48.96901321411133
2016-10-18,51.4900016784668,51.349998474121094,51.349998474121094,51.400001525878906,800.0,49.31441116333008
2016-10-19,51.77000045776367,51.33000183105469,51.38999938964844,51.737998962402344,10100.0,49.63869094848633
2016-10-20,51.5,51.4119987487793,51.4119987487793,51.5,2300.0,49.41035079956055
2016-10-21,51.44599914550781,51.415000915527344,51.44599914550781,51.415000915527344,300.0,49.32879638671875
2016-10-24,51.810001373291016,51.70000076293945,51.810001373291016,51.75,1100.0,49.650203704833984
2016-10-25,51.689998626708984,51.4900016784668,51.689998626708984,51.4900016784668,1100.0,49.400753021240234
2016-10-26,51.4900016784668,51.4900016784668,51.4900016784668,51.4900016784668,97200.0,49.400753021240234
2016-10-27,51.4900016784668,51.20000076293945,51.43000030517578,51.20000076293945,6300.0,49.122520446777344
2016-10-28,51.3650016784668,51.04100036621094,51.150001525878906,51.11600112915039,1000.0,49.041927337646484
2016-10-31,51.255001068115234,51.255001068115234,51.255001068115234,51.255001068115234,400.0,49.175289154052734
2016-11-01,51.27000045776367,50.762001037597656,51.2599983215332,50.79999923706055,1700.0,48.738746643066406
2016-11-02,50.65999984741211,50.38999938964844,50.65999984741211,50.529998779296875,1400.0,48.479705810546875
2016-11-03,50.970001220703125,50.310001373291016,50.970001220703125,50.310001373291016,400.0,48.26863098144531
2016-11-04,50.4900016784668,50.13199996948242,50.32699966430664,50.13199996948242,10300.0,48.09785461425781
2016-11-07,51.36000061035156,51.132999420166016,51.36000061035156,51.279998779296875,1900.0,49.199275970458984
2016-11-08,51.439998626708984,51.43600082397461,51.439998626708984,51.43899917602539,1100.0,49.35182189941406
2016-11-09,52.0,50.880001068115234,50.880001068115234,51.84400177001953,2600.0,49.74039077758789
2016-11-10,52.59199905395508,52.34000015258789,52.59199905395508,52.345001220703125,2200.0,50.2210578918457
2016-11-11,52.369998931884766,51.784000396728516,52.369998931884766,52.15999984741211,2400.0,50.04356384277344
2016-11-14,52.470001220703125,52.143001556396484,52.470001220703125,52.220001220703125,3500.0,50.101131439208984
2016-11-15,52.5,52.24800109863281,52.29999923706055,52.5,1000.0,50.36977005004883
2016-11-16,52.439998626708984,52.22999954223633,52.22999954223633,52.369998931884766,1900.0,50.245052337646484
2016-11-17,52.75,52.45199966430664,52.45199966430664,52.64899826049805,2500.0,50.512725830078125
2016-11-18,52.72999954223633,52.597999572753906,52.689998626708984,52.597999572753906,2000.0,50.46379470825195
2016-11-21,52.79999923706055,52.79999923706055,52.79999923706055,52.79999923706055,300.0,50.657596588134766
2016-11-22,53.06999969482422,52.90999984741211,53.04999923706055,52.970001220703125,1800.0,50.820701599121094
2016-11-23,53.04600143432617,52.86000061035156,52.86000061035156,53.007999420166016,1800.0,50.857154846191406
2016-11-25,53.2599983215332,53.1609992980957,53.1609992980957,53.2599983215332,700.0,51.09893798828125
2016-11-28,53.279998779296875,53.047000885009766,53.279998779296875,53.11000061035156,3700.0,50.95501708984375
2016-11-29,53.29999923706055,53.0099983215332,53.150001525878906,53.012001037597656,40700.0,50.86099624633789
2016-11-30,53.099998474121094,52.95899963378906,53.099998474121094,52.95899963378906,800.0,50.81014633178711
2016-12-01,53.290000915527344,52.65999984741211,53.290000915527344,52.65999984741211,900.0,50.523284912109375
2016-12-02,52.757999420166016,52.59700012207031,52.59700012207031,52.65999984741211,15200.0,50.523284912109375
2016-12-05,53.06999969482422,52.930999755859375,53.06999969482422,52.95399856567383,6300.0,50.80534744262695
2016-12-06,53.25,52.86000061035156,53.25,53.15999984741211,5900.0,51.002994537353516
2016-12-07,53.869998931884766,53.141998291015625,53.220001220703125,53.779998779296875,10600.0,51.59783172607422
2016-12-08,54.099998474121094,53.93899917602539,53.970001220703125,53.95000076293945,12900.0,51.76094055175781
2016-12-09,54.38999938964844,54.09400177001953,54.25,54.38999938964844,5500.0,52.18308639526367
2016-12-12,54.459999084472656,54.159000396728516,54.459999084472656,54.33000183105469,4500.0,52.125526428222656
2016-12-13,54.709999084472656,54.58100128173828,54.59000015258789,54.65999984741211,2900.0,52.44212341308594
2016-12-14,54.869998931884766,54.24100112915039,54.869998931884766,54.3489990234375,5700.0,52.14374923706055
2016-12-15,54.63999938964844,54.41999816894531,54.41999816894531,54.47999954223633,5400.0,52.26942825317383
2016-12-16,54.47999954223633,53.94499969482422,54.47999954223633,53.94499969482422,2900.0,52.04656219482422
2016-12-19,54.17300033569336,53.99599838256836,54.09000015258789,54.00199890136719,4000.0,52.10155487060547
2016-12-20,54.400001525878906,54.31999969482422,54.34000015258789,54.349998474121094,1300.0,52.43730545043945
2016-12-21,54.334999084472656,54.25600051879883,54.29999923706055,54.25600051879883,17800.0,52.346614837646484
2016-12-22,54.31999969482422,54.0,54.31999969482422,54.08000183105469,6200.0,52.17681121826172
2016-12-23,54.33000183105469,54.09600067138672,54.33000183105469,54.189998626708984,2600.0,52.28293228149414
2016-12-27,54.400001525878906,54.31999969482422,54.400001525878906,54.31999969482422,2500.0,52.408363342285156
2016-12-28,54.15999984741211,53.87200164794922,54.15999984741211,53.87200164794922,3300.0,51.976131439208984
2016-12-29,54.060001373291016,53.880001068115234,54.060001373291016,53.880001068115234,4400.0,51.98385238647461
2016-12-30,54.13999938964844,53.529998779296875,54.13999938964844,53.529998779296875,4600.0,51.64616394042969
2017-01-03,54.143001556396484,53.709999084472656,53.709999084472656,53.808998107910156,3300.0,51.915348052978516
2017-01-04,54.459999084472656,54.22600173950195,54.25400161743164,54.40999984741211,8900.0,52.49519729614258
2017-01-05,54.4900016784668,54.20000076293945,54.4900016784668,54.31999969482422,13200.0,52.408363342285156
2017-01-06,54.709999084472656,54.349998474121094,54.349998474121094,54.619998931884766,6700.0,52.69780349731445
2017-01-09,54.90999984741211,54.4900016784668,54.90999984741211,54.4900016784668,4800.0,52.57238006591797
2017-01-10,54.70000076293945,54.59000015258789,54.61000061035156,54.59000015258789,3900.0,52.66886520385742
2017-01-11,54.599998474121094,54.25,54.5,54.36000061035156,9400.0,52.44694900512695
2017-01-12,54.65999984741211,54.1619987487793,54.65999984741211,54.47999954223633,6600.0,52.56273651123047
2017-01-13,54.638999938964844,54.38999938964844,54.38999938964844,54.5099983215332,15800.0,52.5916748046875
2017-01-17,54.63999938964844,54.220001220703125,54.63999938964844,54.310001373291016,4700.0,52.39871597290039
2017-01-18,54.58000183105469,54.34299850463867,54.58000183105469,54.47999954223633,5600.0,52.56273651123047
2017-01-19,54.45000076293945,54.255001068115234,54.367000579833984,54.255001068115234,2200.0,52.34565353393555
2017-01-20,54.5,54.43000030517578,54.5,54.43000030517578,1200.0,52.514495849609375
2017-01-23,54.65999984741211,54.23899841308594,54.65999984741211,54.369998931884766,1000.0,52.456600189208984
2017-01-24,54.70100021362305,54.470001220703125,54.5,54.70100021362305,2200.0,52.77595520019531
2017-01-25,55.143001556396484,54.900001525878906,55.0,55.143001556396484,2900.0,53.20240020751953
2017-01-26,55.2599983215332,55.08000183105469,55.2599983215332,55.0989990234375,4500.0,53.159950256347656
2017-01-27,55.099998474121094,55.095001220703125,55.099998474121094,55.095001220703125,1000.0,53.156089782714844
2017-01-30,55.0099983215332,54.5260009765625,55.0,54.619998931884766,5000.0,52.69780349731445
2017-01-31,54.70000076293945,54.50199890136719,54.70000076293945,54.68000030517578,16900.0,52.75569152832031
2017-02-01,55.36000061035156,54.803001403808594,55.36000061035156,54.86000061035156,6200.0,52.92935562133789
2017-02-02,54.959999084472656,54.73500061035156,54.959999084472656,54.8129997253418,8300.0,52.88401412963867
2017-02-03,55.275001525878906,55.15999984741211,55.15999984741211,55.27000045776367,3000.0,53.32492446899414
2017-02-06,55.20000076293945,55.04999923706055,55.04999923706055,55.20000076293945,6300.0,53.25739669799805
2017-02-07,55.43000030517578,55.18000030517578,55.43000030517578,55.22999954223633,1500.0,53.286338806152344
2017-02-08,55.33000183105469,55.099998474121094,55.099998474121094,55.290000915527344,36300.0,53.3442268371582
2017-02-09,55.63999938964844,55.43000030517578,55.470001220703125,55.619998931884766,2800.0,53.662620544433594
2017-02-10,55.83000183105469,55.70000076293945,55.7599983215332,55.779998779296875,3200.0,53.816978454589844
2017-02-13,56.310001373291016,56.04999923706055,56.310001373291016,56.09400177001953,6200.0,54.11993408203125
2017-02-14,56.439998626708984,56.10100173950195,56.439998626708984,56.349998474121094,2800.0,54.36692428588867
2017-02-15,56.7400016784668,56.38999938964844,56.38999938964844,56.720001220703125,3300.0,54.723899841308594
2017-02-16,56.599998474121094,56.55799865722656,56.599998474121094,56.599998474121094,1200.0,54.60811996459961
2017-02-17,56.75,56.48699951171875,56.52000045776367,56.75,3100.0,54.75284194946289
2017-02-21,57.20000076293945,56.97100067138672,57.20000076293945,57.119998931884766,7000.0,55.10982894897461
2017-02-22,57.13999938964844,57.01599884033203,57.099998474121094,57.08100128173828,4700.0,55.07219696044922
2017-02-23,57.189998626708984,56.94900131225586,57.189998626708984,57.119998931884766,35800.0,55.10982894897461
2017-02-24,57.27000045776367,56.935001373291016,57.27000045776367,57.08300018310547,2500.0,55.07412338256836
2017-02-27,57.33700180053711,57.13999938964844,57.13999938964844,57.2859992980957,2200.0,55.26998519897461
2017-02-28,57.34000015258789,57.060001373291016,57.34000015258789,57.060001373291016,1400.0,55.051937103271484
2017-03-01,58.04999923706055,57.595001220703125,57.849998474121094,57.95000076293945,12400.0,55.91061782836914
2017-03-02,58.18000030517578,57.5989990234375,58.18000030517578,57.619998931884766,7500.0,55.592227935791016
2017-03-03,57.71500015258789,57.470001220703125,57.56999969482422,57.65999984741211,12000.0,55.630821228027344
2017-03-06,57.474998474121094,57.29999923706055,57.44499969482422,57.474998474121094,11000.0,55.452327728271484
2017-03-07,57.400001525878906,57.176998138427734,57.18000030517578,57.29999923706055,9300.0,55.28349304199219
2017-03-08,57.57699966430664,57.099998474121094,57.189998626708984,57.099998474121094,6900.0,55.09052658081055
2017-03-09,57.47999954223633,57.119998931884766,57.119998931884766,57.29999923706055,3100.0,55.28349304199219
2017-03-10,57.709999084472656,57.29999923706055,57.61000061035156,57.630001068115234,13000.0,55.601871490478516
2017-03-13,57.790000915527344,57.470001220703125,57.790000915527344,57.619998931884766,3500.0,55.592227935791016
2017-03-14,57.470001220703125,57.21200180053711,57.459999084472656,57.349998474121094,20800.0,55.33172607421875
2017-03-15,57.90999984741211,57.4900016784668,57.849998474121094,57.90999984741211,2900.0,55.87202072143555
2017-03-16,57.900001525878906,57.6349983215332,57.720001220703125,57.7599983215332,2900.0,55.727298736572266
2017-03-17,57.70000076293945,57.470001220703125,57.68000030517578,57.54999923706055,5800.0,55.745704650878906
2017-03-20,57.59000015258789,57.21900177001953,57.59000015258789,57.21900177001953,5700.0,55.425079345703125
2017-03-21,57.439998626708984,56.52000045776367,57.439998626708984,56.650001525878906,5600.0,54.87392807006836
2017-03-22,56.779998779296875,56.5,56.77000045776367,56.77000045776367,4000.0,54.99015808105469
2017-03-23,56.97999954223633,56.5,56.97999954223633,56.500999450683594,8600.0,54.72959899902344
2017-03-24,57.06999969482422,56.45899963378906,56.560001373291016,56.650001525878906,9700.0,54.87392807006836
2017-03-27,56.58000183105469,56.150001525878906,56.56999969482422,56.529998779296875,10500.0,54.75768280029297
2017-03-28,57.040000915527344,56.48400115966797,56.54999923706055,57.029998779296875,4000.0,55.242008209228516
2017-03-29,57.380001068115234,56.91899871826172,57.380001068115234,57.06999969482422,2000.0,55.2807502746582
2017-03-30,57.25,56.970001220703125,57.16999816894531,57.2400016784668,4900.0,55.4454231262207
2017-03-31,57.244998931884766,57.08000183105469,57.2400016784668,57.08000183105469,13200.0,55.29044723510742
2017-04-03,57.209999084472656,56.7239990234375,57.209999084472656,56.959999084472656,9800.0,55.17420196533203
2017-04-04,57.02000045776367,56.79999923706055,56.79999923706055,57.02000045776367,7400.0,55.23232650756836
2017-04-05,57.41600036621094,56.959999084472656,57.150001525878906,56.959999084472656,5800.0,55.17420196533203
2017-04-06,57.04199981689453,56.83000183105469,56.869998931884766,56.86000061035156,2900.0,55.07733917236328
2017-04-07,57.040000915527344,56.81800079345703,57.040000915527344,56.92100143432617,1200.0,55.13642501831055
2017-04-10,57.29999923706055,56.869998931884766,57.29999923706055,56.91999816894531,7200.0,55.135459899902344
2017-04-11,56.939998626708984,56.5,56.939998626708984,56.7599983215332,4600.0,54.98046875
2017-04-12,56.79999923706055,56.529998779296875,56.79999923706055,56.560001373291016,9200.0,54.78675079345703
2017-04-13,56.7400016784668,56.310001373291016,56.560001373291016,56.349998474121094,4300.0,54.58332824707031
2017-04-17,56.79999923706055,56.470001220703125,56.68000030517578,56.79999923706055,3900.0,55.01921844482422
2017-04-18,56.720001220703125,56.4900016784668,56.720001220703125,56.709999084472656,8500.0,54.93204116821289
2017-04-19,57.189998626708984,56.53499984741211,57.189998626708984,56.58000183105469,7700.0,54.806121826171875
2017-04-20,57.130001068115234,56.70000076293945,56.970001220703125,57.0099983215332,8500.0,55.22262954711914
2017-04-21,57.279998779296875,56.775001525878906,57.279998779296875,56.83300018310547,7100.0,55.051185607910156
2017-04-24,57.5,57.220001220703125,57.220001220703125,57.41999816894531,2400.0,55.61978530883789
2017-04-25,57.9900016784668,57.729000091552734,57.91999816894531,57.83000183105469,3900.0,56.016929626464844
2017-04-26,57.95000076293945,57.66999816894531,57.939998626708984,57.70100021362305,6600.0,55.8919677734375
2017-04-27,57.959999084472656,57.65999984741211,57.90999984741211,57.93000030517578,71600.0,56.113792419433594
2017-04-28,58.08000183105469,57.689998626708984,58.08000183105469,57.72700119018555,2900.0,55.917152404785156
2017-05-01,58.040000915527344,57.810001373291016,58.040000915527344,57.900001525878906,5500.0,56.08473587036133
2017-05-02,58.189998626708984,57.766998291015625,58.189998626708984,57.93000030517578,1800.0,56.113792419433594
2017-05-03,57.91999816894531,57.750999450683594,57.91999816894531,57.900001525878906,2300.0,56.08473587036133
2017-05-04,58.08000183105469,57.779998779296875,58.08000183105469,58.0099983215332,3900.0,56.1912841796875
2017-05-05,58.099998474121094,57.93299865722656,57.987998962402344,58.099998474121094,1200.0,56.27846145629883
2017-05-08,58.599998474121094,58.04899978637695,58.599998474121094,58.06999969482422,1900.0,56.24940490722656
2017-05-09,58.630001068115234,58.02000045776367,58.630001068115234,58.08000183105469,2200.0,56.259090423583984
2017-05-10,58.2400016784668,58.07400131225586,58.09000015258789,58.2400016784668,3700.0,56.41407775878906
2017-05-11,58.03200149536133,57.87300109863281,57.900001525878906,58.00899887084961,2500.0,56.1903190612793
2017-05-12,58.119998931884766,57.72200012207031,58.119998931884766,57.900001525878906,3100.0,56.08473587036133
2017-05-15,58.25,57.84000015258789,57.84000015258789,58.25,8500.0,56.42375564575195
2017-05-16,58.369998931884766,58.099998474121094,58.369998931884766,58.25,5600.0,56.42375564575195
2017-05-17,58.119998931884766,57.25,58.119998931884766,57.290000915527344,7000.0,55.493858337402344
2017-05-18,57.58000183105469,56.970001220703125,56.970001220703125,57.38999938964844,5000.0,55.59072494506836
2017-05-19,57.974998474121094,57.652000427246094,57.709999084472656,57.77000045776367,5000.0,55.95880889892578
2017-05-22,58.1349983215332,57.849998474121094,58.06999969482422,58.1349983215332,1800.0,56.31236267089844
2017-05-23,58.22800064086914,58.060001373291016,58.060001373291016,58.18000030517578,2100.0,56.355953216552734
2017-05-24,58.439998626708984,58.119998931884766,58.38999938964844,58.41999816894531,8900.0,56.58843231201172
2017-05-25,58.66999816894531,58.584999084472656,58.59000015258789,58.66999816894531,1600.0,56.83059310913086
2017-05-26,58.77000045776367,58.61000061035156,58.77000045776367,58.7400016784668,5100.0,56.898399353027344
2017-05-30,58.76499938964844,58.6349983215332,58.7400016784668,58.650001525878906,4200.0,56.811222076416016
2017-05-31,58.79999923706055,58.404998779296875,58.79999923706055,58.56700134277344,4800.0,56.73081970214844
2017-06-01,59.13999938964844,58.709999084472656,58.880001068115234,59.13999938964844,12300.0,57.28585433959961
2017-06-02,59.45000076293945,59.117000579833984,59.20000076293945,59.400001525878906,11200.0,57.5377082824707
2017-06-05,59.75,59.29999923706055,59.75,59.380001068115234,5400.0,57.518333435058594
2017-06-06,59.34000015258789,59.13999938964844,59.34000015258789,59.150001525878906,8100.0,57.2955436706543
2017-06-07,59.349998474121094,59.04999923706055,59.2599983215332,59.34000015258789,10900.0,57.479583740234375
2017-06-08,59.41999816894531,59.02000045776367,59.400001525878906,59.25,10100.0,57.39240646362305
2017-06-09,59.529998779296875,58.834999084472656,59.529998779296875,58.834999084472656,17100.0,56.99041748046875
2017-06-12,59.189998626708984,58.95000076293945,59.189998626708984,58.95000076293945,3000.0,57.10181427001953
2017-06-13,59.459999084472656,58.97999954223633,58.97999954223633,59.349998474121094,10700.0,57.4892692565918
2017-06-14,59.64899826049805,59.08000183105469,59.470001220703125,59.150001525878906,21400.0,57.2955436706543
2017-06-15,59.2599983215332,58.86000061035156,59.0,59.2599983215332,4400.0,57.40209197998047
2017-06-16,58.939998626708984,58.75,58.790000915527344,58.939998626708984,12000.0,57.34954833984375
2017-06-19,59.41999816894531,59.2599983215332,59.41999816894531,59.40999984741211,5500.0,57.80686950683594
2017-06-20,59.45600128173828,59.0620002746582,59.29999923706055,59.099998474121094,3600.0,57.50523376464844
2017-06-21,59.220001220703125,58.97999954223633,59.11000061035156,59.119998931884766,10300.0,57.524696350097656
2017-06-22,59.400001525878906,58.98099899291992,59.400001525878906,59.119998931884766,5200.0,57.524696350097656
2017-06-23,59.220001220703125,58.9900016784668,59.20000076293945,59.16999816894531,8300.0,57.573341369628906
2017-06-26,59.380001068115234,59.125999450683594,59.2400016784668,59.220001220703125,7700.0,57.62199783325195
2017-06-27,59.27000045776367,58.70000076293945,59.0099983215332,58.70000076293945,15300.0,57.116031646728516
2017-06-28,59.400001525878906,59.064998626708984,59.400001525878906,59.2599983215332,5400.0,57.660919189453125
2017-06-29,59.310001373291016,58.36000061035156,59.29999923706055,58.650001525878906,9800.0,57.067378997802734
2017-06-30,59.0099983215332,58.744998931884766,59.0099983215332,58.79999923706055,4100.0,57.21332550048828
2017-07-03,59.130001068115234,58.88999938964844,58.93000030517578,58.88999938964844,6700.0,57.300899505615234
2017-07-05,59.18000030517578,58.790000915527344,59.18000030517578,59.060001373291016,22800.0,57.466312408447266
2017-07-06,58.724998474121094,58.400001525878906,58.720001220703125,58.540000915527344,3600.0,56.96034622192383
2017-07-07,59.040000915527344,58.698001861572266,59.040000915527344,58.869998931884766,11200.0,57.281436920166016
2017-07-10,59.119998931884766,58.75,58.75,59.119998931884766,5600.0,57.524696350097656
2017-07-11,59.04999923706055,58.70000076293945,58.86000061035156,59.04999923706055,8800.0,57.456581115722656
2017-07-12,59.5,59.040000915527344,59.040000915527344,59.5,10200.0,57.894439697265625
2017-07-13,59.58000183105469,59.29999923706055,59.29999923706055,59.52000045776367,6500.0,57.913902282714844
2017-07-14,59.849998474121094,59.31999969482422,59.31999969482422,59.7400016784668,22900.0,58.127967834472656
2017-07-17,59.91999816894531,59.65999984741211,59.91999816894531,59.77000045776367,4700.0,58.15715789794922
2017-07-18,59.779998779296875,59.5,59.75,59.70899963378906,12900.0,58.097801208496094
2017-07-19,60.04499816894531,59.902000427246094,59.959999084472656,60.04499816894531,2800.0,58.42473220825195
2017-07-20,60.150001525878906,59.99100112915039,60.06999969482422,60.09000015258789,2300.0,58.4685173034668
2017-07-21,60.369998931884766,59.84199905395508,60.08000183105469,60.0099983215332,4800.0,58.39067840576172
2017-07-24,60.06999969482422,59.915000915527344,59.97999954223633,60.04499816894531,27800.0,58.42473220825195
2017-07-25,60.27000045776367,60.11600112915039,60.11600112915039,60.16999816894531,8300.0,58.546356201171875
2017-07-26,60.20000076293945,60.097999572753906,60.18000030517578,60.20000076293945,8400.0,58.57555389404297
2017-07-27,60.2400016784668,59.76100158691406,60.2400016784668,59.80099868774414,3800.0,58.187313079833984
2017-07-28,59.90299987792969,59.83000183105469,59.900001525878906,59.88999938964844,2400.0,58.27391815185547
2017-07-31,60.058998107910156,59.95000076293945,60.058998107910156,59.9900016784668,12100.0,58.37122344970703
2017-08-01,60.279998779296875,60.0,60.0,60.119998931884766,86400.0,58.497711181640625
2017-08-02,60.13999938964844,59.93000030517578,60.119998931884766,60.10499954223633,2000.0,58.483116149902344
2017-08-03,60.119998931884766,59.9900016784668,60.119998931884766,60.119998931884766,7300.0,58.497711181640625
2017-08-04,60.2599983215332,60.130001068115234,60.2400016784668,60.130001068115234,4800.0,58.50743865966797
2017-08-07,60.22999954223633,60.108001708984375,60.108001708984375,60.22999954223633,6500.0,58.604740142822266
2017-08-08,60.52000045776367,60.08000183105469,60.52000045776367,60.11000061035156,7700.0,58.48798370361328
2017-08-09,60.104000091552734,59.86000061035156,59.93000030517578,60.04999923706055,4000.0,58.42959976196289
2017-08-10,60.040000915527344,59.15999984741211,60.040000915527344,59.15999984741211,6400.0,57.56361389160156
2017-08-11,59.5,59.25,59.25,59.43000030517578,2100.0,57.826332092285156
2017-08-14,60.0,59.75,59.75,59.90999984741211,2800.0,58.29337692260742
2017-08-15,60.31999969482422,59.854000091552734,60.31999969482422,60.06999969482422,29400.0,58.449058532714844
2017-08-16,60.36000061035156,60.040000915527344,60.36000061035156,60.119998931884766,10100.0,58.497711181640625
2017-08-17,60.400001525878906,59.2599983215332,60.400001525878906,59.2599983215332,3100.0,57.660919189453125
2017-08-18,59.290000915527344,58.959999084472656,59.16999816894531,59.178001403808594,5000.0,57.58113479614258
2017-08-21,59.18000030517578,58.95000076293945,59.18000030517578,59.13199996948242,2500.0,57.53636932373047
2017-08-22,59.7400016784668,59.27000045776367,59.27000045776367,59.7400016784668,5300.0,58.127967834472656
2017-08-23,59.7400016784668,59.505001068115234,59.72999954223633,59.63999938964844,4400.0,58.030662536621094
2017-08-24,59.86000061035156,59.369998931884766,59.86000061035156,59.41999816894531,2900.0,57.81659698486328
2017-08-25,59.7400016784668,59.439998626708984,59.7400016784668,59.65999984741211,1900.0,58.05012130737305
2017-08-28,59.599998474121094,59.349998474121094,59.599998474121094,59.349998474121094,7100.0,57.74848556518555
2017-08-29,59.63199996948242,59.130001068115234,59.130001068115234,59.59000015258789,8500.0,57.98201370239258
2017-08-30,59.95000076293945,59.560001373291016,59.560001373291016,59.93000030517578,14300.0,58.312843322753906
2017-08-31,60.27000045776367,60.0,60.0,60.220001220703125,16900.0,58.59501266479492
2017-09-01,60.650001525878906,60.310001373291016,60.650001525878906,60.38399887084961,13900.0,58.75458908081055
2017-09-05,60.400001525878906,59.68000030517578,60.400001525878906,59.720001220703125,11000.0,58.10850524902344
2017-09-06,60.099998474121094,59.86000061035156,60.099998474121094,60.0,15300.0,58.380950927734375
2017-09-07,60.189998626708984,59.880001068115234,60.189998626708984,59.95000076293945,12500.0,58.332298278808594
2017-09-08,60.09000015258789,59.869998931884766,59.959999084472656,59.88999938964844,25000.0,58.27391815185547
2017-09-11,60.619998931884766,60.439998626708984,60.560001373291016,60.47999954223633,12700.0,58.847999572753906
2017-09-12,60.7599983215332,60.61000061035156,60.650001525878906,60.689998626708984,12200.0,59.05232620239258
2017-09-13,60.81999969482422,60.68000030517578,60.81999969482422,60.709999084472656,9300.0,59.0717887878418
2017-09-14,60.7599983215332,60.65999984741211,60.66999816894531,60.7599983215332,8200.0,59.12043762207031
2017-09-15,60.83000183105469,60.41999816894531,60.83000183105469,60.459999084472656,15000.0,59.097957611083984
2017-09-18,60.78799819946289,60.5099983215332,60.66999816894531,60.66999816894531,82700.0,59.303226470947266
2017-09-19,60.779998779296875,60.650001525878906,60.709999084472656,60.779998779296875,1900.0,59.41074752807617
2017-09-20,60.70800018310547,60.63800048828125,60.70800018310547,60.66999816894531,1300.0,59.303226470947266
2017-09-21,60.77000045776367,60.57500076293945,60.77000045776367,60.57500076293945,5300.0,59.21036911010742
2017-09-22,60.709999084472656,60.45199966430664,60.709999084472656,60.560001373291016,8000.0,59.195709228515625
2017-09-25,60.560001373291016,60.28300094604492,60.529998779296875,60.40999984741211,7700.0,59.0490837097168
2017-09-26,60.58399963378906,60.36399841308594,60.5,60.43000030517578,5400.0,59.068634033203125
2017-09-27,60.74399948120117,60.45000076293945,60.720001220703125,60.70000076293945,6400.0,59.332550048828125
2017-09-28,60.790000915527344,60.58000183105469,60.790000915527344,60.720001220703125,13800.0,59.35210037231445
2017-09-29,60.92499923706055,60.75699996948242,60.75699996948242,60.92499923706055,3800.0,59.55248260498047
2017-10-02,61.2599983215332,60.900001525878906,60.900001525878906,61.2599983215332,15700.0,59.87993240356445
2017-10-03,61.319000244140625,61.25,61.25,61.319000244140625,3900.0,59.93760681152344
2017-10-04,61.50600051879883,61.380001068115234,61.380001068115234,61.46799850463867,2200.0,60.083248138427734
2017-10-05,61.82899856567383,61.573001861572266,61.573001861572266,61.79600143432617,7500.0,60.40385818481445
2017-10-06,61.8650016784668,61.61000061035156,61.84000015258789,61.7869987487793,11000.0,60.39506530761719
2017-10-09,61.95000076293945,61.61800003051758,61.95000076293945,61.61800003051758,3700.0,60.22987747192383
2017-10-10,61.939998626708984,61.689998626708984,61.939998626708984,61.810001373291016,4100.0,60.417545318603516
2017-10-11,61.849998474121094,61.79999923706055,61.79999923706055,61.821998596191406,1200.0,60.42927932739258
2017-10-12,61.91999816894531,61.83000183105469,61.86000061035156,61.83000183105469,3800.0,60.43709945678711
2017-10-13,62.0,61.849998474121094,61.849998474121094,61.981998443603516,7500.0,60.58566665649414
2017-10-16,62.13999938964844,61.900001525878906,62.13999938964844,62.029998779296875,4400.0,60.632591247558594
2017-10-17,62.130001068115234,61.93000030517578,62.130001068115234,62.025001525878906,2200.0,60.62770462036133
2017-10-18,62.290000915527344,62.04999923706055,62.290000915527344,62.119998931884766,24600.0,60.720558166503906
2017-10-19,62.10100173950195,61.7599983215332,62.099998474121094,62.084999084472656,4200.0,60.68635177612305
2017-10-20,62.472999572753906,62.279998779296875,62.33000183105469,62.395999908447266,7100.0,60.9903450012207
2017-10-23,62.5,62.20000076293945,62.5,62.20000076293945,5800.0,60.798763275146484
2017-10-24,62.409000396728516,62.22999954223633,62.332000732421875,62.301998138427734,3900.0,60.89845657348633
2017-10-25,62.38999938964844,61.70000076293945,62.38999938964844,62.029998779296875,3000.0,60.632591247558594
2017-10-26,62.27000045776367,62.106998443603516,62.27000045776367,62.150001525878906,7400.0,60.7498893737793
2017-10-27,62.68000030517578,62.29999923706055,62.560001373291016,62.68000030517578,5200.0,61.2679443359375
2017-10-30,62.72999954223633,62.34000015258789,62.560001373291016,62.400001525878906,6100.0,60.99425506591797
2017-10-31,62.56999969482422,62.45000076293945,62.45000076293945,62.459999084472656,4700.0,61.05290222167969
2017-11-01,62.81999969482422,62.5,62.81999969482422,62.540000915527344,3700.0,61.131103515625
2017-11-02,62.59000015258789,62.2599983215332,62.59000015258789,62.43000030517578,4200.0,61.02357864379883
2017-11-03,62.7599983215332,62.52000045776367,62.529998779296875,62.7599983215332,3900.0,61.34614562988281
2017-11-06,62.90999984741211,62.72999954223633,62.90999984741211,62.77000045776367,2700.0,61.355918884277344
2017-11-07,62.79499816894531,62.6870002746582,62.790000915527344,62.707000732421875,2500.0,61.294342041015625
2017-11-08,62.90999984741211,62.724998474121094,62.724998474121094,62.90999984741211,2000.0,61.49276351928711
2017-11-09,62.709999084472656,62.48500061035156,62.709999084472656,62.61000061035156,6500.0,61.19952392578125
2017-11-10,62.720001220703125,62.47999954223633,62.720001220703125,62.625,4600.0,61.21418762207031
2017-11-13,62.76300048828125,62.439998626708984,62.439998626708984,62.665000915527344,7400.0,61.25328826904297
2017-11-14,62.58000183105469,62.31999969482422,62.58000183105469,62.564998626708984,3400.0,61.15553665161133
2017-11-15,62.5099983215332,62.220001220703125,62.25,62.22999954223633,12100.0,60.828086853027344
2017-11-16,62.902000427246094,62.529998779296875,62.56999969482422,62.84000015258789,3700.0,61.42434310913086
2017-11-17,62.75,62.650001525878906,62.75,62.650001525878906,9200.0,61.238624572753906
2017-11-20,62.9900016784668,62.691001892089844,62.9900016784668,62.75,3500.0,61.33637237548828
2017-11-21,63.15800094604492,62.880001068115234,62.880001068115234,63.15599822998047,3100.0,61.73322296142578
2017-11-22,63.125999450683594,63.047000885009766,63.09400177001953,63.125999450683594,1400.0,61.70390319824219
2017-11-24,63.25,63.220001220703125,63.22999954223633,63.23500061035156,1100.0,61.81044387817383
2017-11-27,63.380001068115234,63.22999954223633,63.380001068115234,63.279998779296875,13600.0,61.85442352294922
2017-11-28,63.79999923706055,63.540000915527344,63.560001373291016,63.79999923706055,2700.0,62.36271667480469
2017-11-29,63.959999084472656,63.779998779296875,63.939998626708984,63.810001373291016,11900.0,62.37248992919922
2017-11-30,64.45999908447266,64.0999984741211,64.19000244140625,64.31300354003906,14700.0,62.864166259765625
2017-12-01,64.38999938964844,63.39799880981445,64.33999633789062,64.22000122070312,15200.0,62.77325439453125
2017-12-04,64.83999633789062,64.33000183105469,64.7300033569336,64.33000183105469,7600.0,62.88077163696289
2017-12-05,64.44000244140625,63.94499969482422,64.44000244140625,63.94499969482422,7000.0,62.50444793701172
2017-12-06,64.06999969482422,63.810001373291016,63.810001373291016,64.0199966430664,4400.0,62.577754974365234
2017-12-07,64.25,63.93000030517578,64.12000274658203,64.25,5100.0,62.80257797241211
2017-12-08,64.52100372314453,64.33999633789062,64.37999725341797,64.4800033569336,6300.0,63.02739715576172
2017-12-11,64.70999908447266,64.52999877929688,64.58999633789062,64.62999725341797,24900.0,63.174015045166016
2017-12-12,64.98999786376953,64.75,64.94000244140625,64.91999816894531,31700.0,63.45748519897461
2017-12-13,65.05999755859375,64.73999786376953,64.95999908447266,64.98999786376953,10500.0,63.525901794433594
2017-12-14,65.12000274658203,64.54000091552734,65.12000274658203,64.63999938964844,10400.0,63.18379211425781
2017-12-15,64.9209976196289,64.55000305175781,64.77999877929688,64.79000091552734,8100.0,63.64351272583008
2017-12-18,65.36199951171875,65.16999816894531,65.26000213623047,65.23999786376953,13600.0,64.0855484008789
2017-12-19,65.26000213623047,65.0,65.26000213623047,65.01599884033203,18600.0,63.865509033203125
2017-12-20,65.31999969482422,64.9000015258789,65.31999969482422,64.94000244140625,20900.0,63.79084777832031
2017-12-21,65.16000366210938,64.93000030517578,65.13999938964844,65.01000213623047,33300.0,63.859615325927734
2017-12-22,65.13999938964844,64.80500030517578,65.13999938964844,64.95999908447266,6000.0,63.81049728393555
2017-12-26,64.91999816894531,64.78500366210938,64.80000305175781,64.78500366210938,6200.0,63.63859939575195
2017-12-27,64.9520034790039,64.8499984741211,64.88999938964844,64.86000061035156,4600.0,63.712276458740234
2017-12-28,65.08000183105469,64.94000244140625,64.94499969482422,65.06999969482422,12400.0,63.918548583984375
2017-12-29,65.04000091552734,64.80000305175781,65.0,64.80000305175781,450600.0,63.65333557128906
2018-01-02,65.22000122070312,64.96499633789062,65.1500015258789,65.22000122070312,34000.0,64.06590270996094
2018-01-03,65.68000030517578,65.2699966430664,65.41000366210938,65.63999938964844,10100.0,64.47846221923828
2018-01-04,66.01499938964844,65.76000213623047,65.97000122070312,65.88999938964844,10000.0,64.72405242919922
2018-01-05,66.18000030517578,66.0,66.13999938964844,66.1780014038086,14100.0,65.00694274902344
2018-01-08,66.45999908447266,66.30000305175781,66.44999694824219,66.42500305175781,21000.0,65.24958038330078
2018-01-09,66.80000305175781,66.5999984741211,66.62999725341797,66.5999984741211,9600.0,65.42147827148438
2018-01-10,66.55000305175781,66.4000015258789,66.5199966430664,66.54000091552734,19500.0,65.36254119873047
2018-01-11,66.87999725341797,66.61799621582031,66.69000244140625,66.80999755859375,4700.0,65.62776184082031
2018-01-12,67.44999694824219,67.1259994506836,67.19999694824219,67.41999816894531,22600.0,66.22697448730469
2018-01-16,68.01100158691406,67.08999633789062,67.93000030517578,67.25,20100.0,66.05997467041016
2018-01-17,67.87999725341797,67.33999633789062,67.41999816894531,67.87799835205078,7900.0,66.67686462402344
2018-01-18,67.9800033569336,67.70600128173828,67.9800033569336,67.8499984741211,5900.0,66.64935302734375
2018-01-19,68.06999969482422,67.86000061035156,67.91999816894531,68.06999969482422,7200.0,66.86547088623047
2018-01-22,68.55999755859375,68.0250015258789,68.08999633789062,68.55999755859375,12000.0,67.34679412841797
2018-01-23,68.8219985961914,68.58499908447266,68.62000274658203,68.81999969482422,6700.0,67.6021957397461
2018-01-24,69.2699966430664,68.5199966430664,69.2699966430664,68.75,8600.0,67.53343200683594
2018-01-25,69.52999877929688,68.69000244140625,69.16999816894531,68.73999786376953,16200.0,67.52361297607422
2018-01-26,69.3550033569336,68.9800033569336,69.13999938964844,69.3550033569336,7000.0,68.12773132324219
2018-01-29,69.63999938964844,69.22000122070312,69.41999816894531,69.22000122070312,17300.0,67.99512481689453
2018-01-30,68.73999786376953,68.38999938964844,68.73999786376953,68.54000091552734,45100.0,67.32715606689453
2018-01-31,68.91000366210938,68.4800033569336,68.83999633789062,68.4800033569336,82600.0,67.2682113647461
2018-02-01,68.81999969482422,68.28500366210938,68.33999633789062,68.30000305175781,18200.0,67.09140014648438
2018-02-02,68.2300033569336,67.01499938964844,68.2300033569336,67.01499938964844,20600.0,65.82913208007812
2018-02-05,67.0199966430664,64.0,66.19000244140625,64.68000030517578,79800.0,63.535457611083984
2018-02-06,65.40899658203125,63.025001525878906,63.040000915527344,65.40899658203125,29000.0,64.25154876708984
2018-02-07,66.12000274658203,65.2969970703125,65.66999816894531,65.30000305175781,53100.0,64.14448547363281
2018-02-08,65.33999633789062,62.650001525878906,65.33999633789062,62.650001525878906,15900.0,61.5413818359375
2018-02-09,64.03700256347656,61.71799850463867,63.58000183105469,63.709999084472656,37400.0,62.582618713378906
2018-02-12,64.9000015258789,63.875,64.25,64.5,11000.0,63.358638763427734
2018-02-13,64.83000183105469,64.33000183105469,64.33000183105469,64.76399993896484,3800.0,63.61797332763672
2018-02-14,65.70999908447266,64.37999725341797,64.37999725341797,65.69100189208984,18100.0,64.52857208251953
2018-02-15,66.43000030517578,65.62000274658203,66.01000213623047,66.40899658203125,12500.0,65.23385620117188
2018-02-16,66.98999786376953,66.3499984741211,66.55000305175781,66.73999786376953,11200.0,65.55899047851562
2018-02-20,66.69999694824219,65.98999786376953,66.51000213623047,66.18000030517578,12900.0,65.0089111328125
2018-02-21,66.94999694824219,65.98999786376953,66.5199966430664,65.98999786376953,6800.0,64.82227325439453
2018-02-22,66.55000305175781,65.86699676513672,66.41000366210938,65.94999694824219,7500.0,64.7829818725586
2018-02-23,66.80999755859375,66.1500015258789,66.56999969482422,66.80999755859375,6600.0,65.62776184082031
2018-02-26,67.73999786376953,67.05000305175781,67.33000183105469,67.73999786376953,11300.0,66.54130554199219
2018-02-27,67.96900177001953,66.88999938964844,67.73999786376953,66.88999938964844,11700.0,65.70635223388672
2018-02-28,67.18000030517578,66.12999725341797,67.1500015258789,66.12999725341797,8500.0,64.95979309082031
2018-03-01,66.45999908447266,65.0,66.16000366210938,65.29000091552734,11000.0,64.1346664428711
2018-03-02,65.69999694824219,64.78800201416016,65.02999877929688,65.69999694824219,5900.0,64.53739929199219
2018-03-05,66.41000366210938,65.51000213623047,65.51000213623047,66.41000366210938,12600.0,65.23484802246094
2018-03-06,66.59500122070312,66.18000030517578,66.5199966430664,66.58000183105469,17100.0,65.40184020996094
2018-03-07,66.66000366210938,66.19000244140625,66.19000244140625,66.54399871826172,14600.0,65.36647033691406
2018-03-08,66.9000015258789,66.63500213623047,66.9000015258789,66.70800018310547,3100.0,65.52758026123047
2018-03-09,67.94000244140625,67.21499633789062,67.21499633789062,67.9000015258789,8500.0,66.69847106933594
2018-03-12,68.27999877929688,67.79000091552734,68.19000244140625,68.03600311279297,20600.0,66.83207702636719
2018-03-13,68.16999816894531,67.33999633789062,68.08000183105469,67.4749984741211,5500.0,66.28099060058594
2018-03-14,67.95999908447266,67.04100036621094,67.95999908447266,67.11000061035156,4100.0,65.92245483398438
2018-03-15,67.30999755859375,67.02100372314453,67.16999816894531,67.13600158691406,5200.0,65.94799041748047
2018-03-16,67.43000030517578,67.18199920654297,67.37999725341797,67.18199920654297,1800.0,65.99317932128906
2018-03-19,66.91000366210938,65.63999938964844,66.91000366210938,65.86699676513672,9200.0,64.93923950195312
2018-03-20,66.23999786376953,65.9800033569336,65.9800033569336,66.09700012207031,75200.0,65.16600036621094
2018-03-21,66.3499984741211,65.9749984741211,66.29000091552734,66.16699981689453,12300.0,65.23501586914062
2018-03-22,65.24700164794922,64.21499633789062,65.12000274658203,64.26000213623047,12400.0,63.35487747192383
2018-03-23,64.58999633789062,62.810001373291016,64.58999633789062,62.875999450683594,14800.0,61.9903678894043
2018-03-26,64.43000030517578,63.27000045776367,63.65999984741211,64.43000030517578,9600.0,63.52247619628906
2018-03-27,64.86000061035156,63.61000061035156,64.63999938964844,63.6349983215332,8600.0,62.73867416381836
2018-03-28,63.81999969482422,63.244998931884766,63.720001220703125,63.58000183105469,8700.0,62.684452056884766
2018-03-29,64.3949966430664,63.45000076293945,63.45000076293945,64.3949966430664,6600.0,63.48796463012695
2018-04-02,64.12999725341797,62.10499954223633,64.12999725341797,62.72999954223633,54800.0,61.8464241027832
2018-04-03,63.540000915527344,62.78099822998047,62.91999816894531,63.25,81800.0,62.359100341796875
2018-04-04,64.22899627685547,62.691001892089844,62.709999084472656,64.21199798583984,10000.0,63.30754852294922
2018-04-05,64.73799896240234,64.37000274658203,64.37000274658203,64.6500015258789,7800.0,63.739383697509766
2018-04-06,64.16999816894531,62.9900016784668,63.7599983215332,63.25,37200.0,62.359100341796875
2018-04-09,64.37000274658203,63.51499938964844,63.79999923706055,63.61800003051758,5300.0,62.721920013427734
2018-04-10,64.62999725341797,64.14800262451172,64.14800262451172,64.4800033569336,11800.0,63.57177734375
2018-04-11,64.30999755859375,63.900001525878906,63.900001525878906,64.05000305175781,4800.0,63.14783477783203
2018-04-12,64.7699966430664,64.48999786376953,64.48999786376953,64.73699951171875,2900.0,63.82516098022461
2018-04-13,65.0,64.19499969482422,65.0,64.37999725341797,5100.0,63.473175048828125
2018-04-16,65.12000274658203,64.6500015258789,64.97000122070312,64.91999816894531,6400.0,64.00557708740234
2018-04-17,65.72000122070312,65.38999938964844,65.41000366210938,65.69000244140625,12800.0,64.76473999023438
2018-04-18,65.82099914550781,65.68499755859375,65.79000091552734,65.68499755859375,2200.0,64.75979614257812
2018-04-19,65.7300033569336,65.0999984741211,65.7300033569336,65.2750015258789,3400.0,64.35558319091797
2018-04-20,65.27999877929688,64.5260009765625,65.02999877929688,64.70999908447266,5500.0,63.79853820800781
2018-04-23,65.0,64.47000122070312,64.94000244140625,64.69999694824219,14100.0,63.78867721557617
2018-04-24,65.11000061035156,63.374000549316406,65.11000061035156,63.784000396728516,10500.0,62.88557815551758
2018-04-25,63.915000915527344,63.470001220703125,63.470001220703125,63.810001373291016,2700.0,62.91121292114258
2018-04-26,64.72000122070312,64.30999755859375,64.30999755859375,64.63999938964844,7100.0,63.72951889038086
2018-04-27,64.98999786376953,64.58999633789062,64.98999786376953,64.67400360107422,6100.0,63.76304244995117
2018-04-30,65.08999633789062,64.27999877929688,65.08999633789062,64.30699920654297,12500.0,63.401206970214844
2018-05-01,64.4000015258789,63.630001068115234,64.4000015258789,64.11000061035156,69400.0,63.20698928833008
2018-05-02,64.447998046875,63.97999954223633,64.31999969482422,63.992000579833984,14700.0,63.09064865112305
2018-05-03,63.869998931884766,63.042999267578125,63.481998443603516,63.7400016784668,19500.0,62.842201232910156
2018-05-04,64.67400360107422,63.38999938964844,63.38999938964844,64.61000061035156,2000.0,63.69994354248047
2018-05-07,65.05000305175781,64.66000366210938,65.05000305175781,64.73400115966797,10500.0,63.82219696044922
2018-05-08,64.81999969482422,64.5199966430664,64.6259994506836,64.54000091552734,4500.0,63.63093185424805
2018-05-09,65.3499984741211,64.79000091552734,64.79000091552734,65.21099853515625,7000.0,64.29247283935547
2018-05-10,65.99500274658203,65.53900146484375,65.53900146484375,65.93000030517578,7200.0,65.00135040283203
2018-05-11,66.18000030517578,65.69000244140625,65.69000244140625,66.00299835205078,4500.0,65.07332611083984
2018-05-14,66.19999694824219,66.07499694824219,66.12000274658203,66.16999816894531,3900.0,65.23796081542969
2018-05-15,66.0199966430664,65.447998046875,66.0199966430664,65.62999725341797,6100.0,64.70557403564453
2018-05-16,66.01799774169922,65.875,65.88899993896484,65.875,2300.0,64.94712829589844
2018-05-17,66.04000091552734,65.68499755859375,65.72000122070312,65.88999938964844,10000.0,64.96192169189453
2018-05-18,65.81500244140625,65.69000244140625,65.69000244140625,65.7249984741211,10100.0,64.79924011230469
2018-05-21,66.33999633789062,65.9800033569336,65.9800033569336,66.11000061035156,4000.0,65.17881774902344
2018-05-22,66.4000015258789,66.22000122070312,66.36000061035156,66.22000122070312,4500.0,65.28726196289062
2018-05-23,66.26000213623047,65.72799682617188,66.01000213623047,66.26000213623047,2000.0,65.32670593261719
2018-05-24,66.20999908447266,65.82499694824219,65.8499984741211,66.16600036621094,2100.0,65.23402404785156
2018-05-25,66.19999694824219,65.97699737548828,65.98999786376953,66.00800323486328,7200.0,65.07826232910156
2018-05-29,66.0,65.03900146484375,66.0,65.0999984741211,7700.0,64.18303680419922
2018-05-30,66.16400146484375,65.54000091552734,65.54000091552734,66.07499694824219,5000.0,65.14430236816406
2018-05-31,66.01000213623047,65.61100006103516,66.01000213623047,65.69499969482422,2300.0,64.76966094970703
2018-06-01,66.41000366210938,66.0,66.0,66.28099822998047,8300.0,65.34740447998047
2018-06-04,66.75,66.54000091552734,66.66000366210938,66.75,5300.0,65.80979919433594
2018-06-05,66.86000061035156,66.65399932861328,66.70500183105469,66.71700286865234,1500.0,65.77726745605469
2018-06-06,67.21499633789062,66.8239974975586,66.86000061035156,67.21499633789062,3100.0,66.26824951171875
2018-06-07,67.81999969482422,67.2750015258789,67.81999969482422,67.2750015258789,5900.0,66.32740020751953
2018-06-08,67.5,67.14700317382812,67.33999633789062,67.5,4900.0,66.54924011230469
2018-06-11,67.75800323486328,67.44999694824219,67.44999694824219,67.51000213623047,6000.0,66.5591049194336
2018-06-12,68.01000213623047,67.56999969482422,68.01000213623047,67.6500015258789,9300.0,66.69712829589844
2018-06-13,67.83000183105469,67.55999755859375,67.83000183105469,67.55999755859375,4100.0,66.60839080810547
2018-06-14,67.68900299072266,67.50900268554688,67.66000366210938,67.59500122070312,18900.0,66.64290618896484
2018-06-15,67.66000366210938,67.1500015258789,67.2699966430664,67.51000213623047,6600.0,66.5591049194336
2018-06-18,67.10900115966797,66.8499984741211,66.8499984741211,67.08499908447266,3700.0,66.41653442382812
2018-06-19,66.79499816894531,66.375,66.58999633789062,66.7750015258789,9400.0,66.109619140625
2018-06-20,67.16999816894531,66.9800033569336,67.16999816894531,67.01000213623047,4300.0,66.34228515625
2018-06-21,67.0,66.43000030517578,67.0,66.43000030517578,21500.0,65.76805877685547
2018-06-22,66.88999938964844,66.6500015258789,66.77999877929688,66.79199981689453,20300.0,66.12644958496094
2018-06-25,66.30000305175781,65.33699798583984,66.30000305175781,65.66400146484375,5600.0,65.00969696044922
2018-06-26,66.01000213623047,65.72100067138672,65.75,65.84200286865234,6800.0,65.18592071533203
2018-06-27,65.9800033569336,65.20999908447266,65.90799713134766,65.20999908447266,7100.0,64.56021881103516
2018-06-28,65.58999633789062,65.14600372314453,65.18499755859375,65.58999633789062,1600.0,64.9364242553711
2018-06-29,66.18299865722656,65.81999969482422,65.93000030517578,65.81999969482422,2000.0,65.16413879394531
2018-07-02,65.45999908447266,65.30000305175781,65.37999725341797,65.37999725341797,4600.0,64.72852325439453
2018-07-03,66.30999755859375,65.4800033569336,66.30999755859375,65.4800033569336,3200.0,64.82752227783203
2018-07-05,66.05000305175781,65.70800018310547,65.8499984741211,66.05000305175781,4100.0,65.39185333251953
2018-07-06,66.68000030517578,65.79000091552734,65.79000091552734,66.62999725341797,2200.0,65.966064453125
2018-07-09,67.31999969482422,66.79000091552734,66.79000091552734,67.31400299072266,5500.0,66.64325714111328
2018-07-10,67.54000091552734,67.37000274658203,67.37000274658203,67.4749984741211,8700.0,66.80264282226562
2018-07-11,67.2959976196289,66.73999786376953,66.73999786376953,67.05000305175781,11600.0,66.38188934326172
2018-07-12,67.6500015258789,67.19999694824219,67.30000305175781,67.6500015258789,2600.0,66.97590637207031
2018-07-13,67.83899688720703,67.60099792480469,67.72000122070312,67.73500061035156,3600.0,67.06005859375
2018-07-16,67.83000183105469,67.64800262451172,67.83000183105469,67.75,7800.0,67.07491302490234
2018-07-17,68.08999633789062,67.69000244140625,67.69000244140625,68.08999633789062,3900.0,67.41151428222656
2018-07-18,68.41999816894531,68.05999755859375,68.41999816894531,68.16000366210938,5300.0,67.48082733154297
2018-07-19,68.05999755859375,67.88999938964844,68.00599670410156,67.94400024414062,8800.0,67.26697540283203
2018-07-20,68.01000213623047,67.78600311279297,67.80999755859375,67.83999633789062,6700.0,67.16400146484375
2018-07-23,68.02999877929688,67.7300033569336,68.02999877929688,67.94999694824219,21400.0,67.27291107177734
2018-07-24,68.42900085449219,68.0999984741211,68.34500122070312,68.25900268554688,3700.0,67.5788345336914
2018-07-25,68.81999969482422,68.25,68.29000091552734,68.81999969482422,149500.0,68.13424682617188
2018-07-26,68.7490005493164,68.5199966430664,68.5199966430664,68.66999816894531,6400.0,67.9857406616211
2018-07-27,68.74500274658203,68.08000183105469,68.74500274658203,68.2699966430664,4600.0,67.5897216796875
2018-07-30,68.19000244140625,67.86499786376953,68.19000244140625,67.86499786376953,4400.0,67.18875885009766
2018-07-31,68.33000183105469,68.0009994506836,68.12999725341797,68.26000213623047,9100.0,67.57982635498047
2018-08-01,68.43000030517578,68.0199966430664,68.37999725341797,68.15899658203125,21700.0,67.47982788085938
2018-08-02,68.58000183105469,67.8499984741211,68.12999725341797,68.51499938964844,11400.0,67.83228302001953
2018-08-03,68.9000015258789,68.12999725341797,68.12999725341797,68.87999725341797,2900.0,68.19364929199219
2018-08-06,69.2300033569336,68.98999786376953,68.98999786376953,69.15799713134766,3200.0,68.4688720703125
2018-08-07,69.44999694824219,69.3499984741211,69.38999938964844,69.3499984741211,6000.0,68.65896606445312
2018-08-08,69.6500015258789,69.23999786376953,69.6500015258789,69.38999938964844,8100.0,68.69856262207031
2018-08-09,69.51000213623047,69.33999633789062,69.47000122070312,69.33999633789062,7900.0,68.64906311035156
2018-08-10,69.08999633789062,68.70999908447266,68.70999908447266,69.08999633789062,4500.0,68.40155029296875
2018-08-13,68.9800033569336,68.5199966430664,68.9800033569336,68.5199966430664,6700.0,67.83722686767578
2018-08-14,69.30999755859375,68.69999694824219,69.30999755859375,69.05500030517578,12100.0,68.36689758300781
2018-08-15,68.69999694824219,68.2699966430664,68.69999694824219,68.62999725341797,2100.0,67.94613647460938
2018-08-16,69.37000274658203,69.05999755859375,69.31999969482422,69.08999633789062,7800.0,68.40155029296875
2018-08-17,69.43000030517578,69.02799987792969,69.0999984741211,69.39299774169922,2800.0,68.70153045654297
2018-08-20,69.86000061035156,69.45999908447266,69.86000061035156,69.53500366210938,5200.0,68.84212493896484
2018-08-21,69.88700103759766,69.63999938964844,69.73899841308594,69.7300033569336,4200.0,69.0351791381836
2018-08-22,69.69000244140625,69.55000305175781,69.63999938964844,69.66000366210938,2100.0,68.96587371826172
2018-08-23,69.66899871826172,69.47000122070312,69.48999786376953,69.62000274658203,2000.0,68.92626953125
2018-08-24,69.9800033569336,69.72000122070312,69.76000213623047,69.9000015258789,11100.0,69.20348358154297
2018-08-27,70.53500366210938,70.2300033569336,70.2300033569336,70.46900177001953,5800.0,69.76681518554688
2018-08-28,70.66999816894531,70.45700073242188,70.48999786376953,70.45700073242188,7400.0,69.75493621826172
2018-08-29,70.99800109863281,70.58999633789062,70.58999633789062,70.97000122070312,6100.0,70.2628173828125
2018-08-30,71.08000183105469,70.7699966430664,71.08000183105469,70.9000015258789,1400.0,70.19351959228516
2018-08-31,70.9000015258789,70.36000061035156,70.9000015258789,70.5999984741211,7800.0,69.8965072631836
2018-09-04,70.68000030517578,70.30000305175781,70.68000030517578,70.55799865722656,12900.0,69.85492706298828
2018-09-05,70.3499984741211,70.2020034790039,70.20999908447266,70.33999633789062,6000.0,69.63909149169922
2018-09-06,70.30000305175781,69.97899627685547,70.29000091552734,70.01000213623047,4200.0,69.31239318847656
2018-09-07,70.50900268554688,69.63999938964844,69.63999938964844,69.9530029296875,5100.0,69.2559585571289
2018-09-10,70.41000366210938,70.10299682617188,70.41000366210938,70.13500213623047,18000.0,69.43614959716797
2018-09-11,70.44000244140625,69.81999969482422,69.81999969482422,70.3550033569336,2800.0,69.6539535522461
2018-09-12,70.37999725341797,70.12000274658203,70.12000274658203,70.37999725341797,2200.0,69.67869567871094
2018-09-13,70.73999786376953,70.48999786376953,70.48999786376953,70.73400115966797,4400.0,70.0291748046875
2018-09-14,71.08999633789062,70.62300109863281,71.08999633789062,70.63999938964844,2300.0,69.93611145019531
2018-09-17,70.72000122070312,70.39900207519531,70.72000122070312,70.39900207519531,2700.0,69.69751739501953
2018-09-18,70.87999725341797,70.5009994506836,70.5009994506836,70.80999755859375,2100.0,70.10440826416016
2018-09-19,70.93000030517578,70.7300033569336,70.7300033569336,70.87999725341797,5800.0,70.17371368408203
2018-09-20,71.47899627685547,71.25,71.44000244140625,71.47899627685547,1300.0,70.7667465209961
2018-09-21,71.5739974975586,71.44000244140625,71.55000305175781,71.44999694824219,6300.0,70.73802947998047
2018-09-24,71.16999816894531,70.63899993896484,71.16999816894531,70.7300033569336,5600.0,70.34815979003906
2018-09-25,71.20999908447266,70.62000274658203,71.20999908447266,70.62000274658203,2800.0,70.23875427246094
2018-09-26,71.05999755859375,70.65499877929688,70.9000015258789,70.65499877929688,6400.0,70.2735595703125
2018-09-27,71.0,70.66999816894531,70.73999786376953,70.70999908447266,6300.0,70.32826232910156
2018-09-28,70.8499984741211,70.55999755859375,70.8499984741211,70.63099670410156,4700.0,70.24968719482422
2018-10-01,71.18800354003906,70.77999877929688,70.77999877929688,70.8219985961914,3900.0,70.43965911865234
2018-10-02,70.98400115966797,70.7770004272461,70.81999969482422,70.7770004272461,3100.0,70.39490509033203
2018-10-03,71.20999908447266,70.8949966430664,71.20999908447266,70.91999816894531,4400.0,70.53712463378906
2018-10-04,71.11000061035156,69.91000366210938,71.11000061035156,70.16000366210938,3400.0,69.78123474121094
2018-10-05,70.48999786376953,69.53500366210938,70.48999786376953,69.8280029296875,9700.0,69.4510269165039
2018-10-08,69.97000122070312,69.27799987792969,69.97000122070312,69.6729965209961,6400.0,69.29685974121094
2018-10-09,70.11000061035156,69.56999969482422,70.11000061035156,69.69999694824219,3900.0,69.32371520996094
2018-10-10,69.63999938964844,67.31999969482422,69.63999938964844,67.31999969482422,52800.0,66.9565658569336
2018-10-11,67.25,65.66999816894531,67.20999908447266,66.33000183105469,13700.0,65.97190856933594
2018-10-12,67.36000061035156,66.18399810791016,67.36000061035156,67.0,8500.0,66.63829040527344
2018-10-15,67.12999725341797,66.86000061035156,67.12999725341797,66.99500274658203,13600.0,66.6333236694336
2018-10-16,68.05000305175781,67.2300033569336,67.2300033569336,68.05000305175781,27200.0,67.68262481689453
2018-10-17,68.30999755859375,67.55000305175781,68.0199966430664,68.05000305175781,87000.0,67.68262481689453
2018-10-18,68.30999755859375,66.69999694824219,68.30999755859375,67.11799621582031,7400.0,66.75565338134766
2018-10-19,67.7300033569336,67.05999755859375,67.7300033569336,67.1500015258789,3800.0,66.78748321533203
2018-10-22,67.13999938964844,66.7229995727539,67.13999938964844,66.85700225830078,3800.0,66.49606323242188
2018-10-23,66.625,65.29000091552734,65.98999786376953,66.52999877929688,7100.0,66.17082977294922
2018-10-24,66.27999877929688,64.5999984741211,66.26000213623047,64.5999984741211,172000.0,64.2512435913086
2018-10-25,66.03199768066406,64.83999633789062,64.83999633789062,65.81999969482422,11100.0,65.46466064453125
2018-10-26,65.10299682617188,63.58100128173828,64.75,64.68800354003906,29300.0,64.33877563476562
2018-10-29,65.85299682617188,64.20999908447266,65.34100341796875,64.20999908447266,12800.0,63.86335372924805
2018-10-30,64.87799835205078,63.97999954223633,63.9900016784668,64.87799835205078,14400.0,64.52774810791016
2018-10-31,66.30599975585938,65.78700256347656,66.02999877929688,65.88899993896484,12000.0,65.53328704833984
2018-11-01,67.02999877929688,65.86000061035156,66.05000305175781,66.45999908447266,59600.0,66.10120391845703
2018-11-02,66.88999938964844,65.75499725341797,66.88999938964844,66.19000244140625,12200.0,65.8326644897461
2018-11-05,66.88999938964844,66.0,66.81999969482422,66.88999938964844,9300.0,66.52888488769531
2018-11-06,66.97000122070312,66.44999694824219,66.97000122070312,66.85700225830078,23200.0,66.49606323242188
2018-11-07,68.2979965209961,67.67500305175781,67.67500305175781,68.2979965209961,4400.0,67.92928314208984
2018-11-08,68.41999816894531,67.80000305175781,67.80000305175781,68.03199768066406,2400.0,67.66471862792969
2018-11-09,67.86100006103516,67.34100341796875,67.86100006103516,67.62000274658203,3000.0,67.25494384765625
2018-11-12,67.41000366210938,66.0,67.41000366210938,66.0999984741211,31600.0,65.74314880371094
2018-11-13,66.71600341796875,65.94999694824219,66.54499816894531,66.18000030517578,3900.0,65.82271575927734
2018-11-14,66.58799743652344,65.43000030517578,66.4800033569336,65.8740005493164,6000.0,65.51837158203125
2018-11-15,66.30999755859375,64.94999694824219,65.4800033569336,66.2300033569336,5400.0,65.87245178222656
2018-11-16,66.72000122070312,65.94999694824219,65.94999694824219,66.72000122070312,74500.0,66.35980224609375
2018-11-19,66.56999969482422,65.2699966430664,66.56999969482422,65.27999877929688,6000.0,64.92757415771484
2018-11-20,64.76000213623047,64.0,64.62000274658203,64.16400146484375,8800.0,63.817604064941406
2018-11-21,64.73600006103516,64.52999877929688,64.53199768066406,64.52999877929688,3400.0,64.18162536621094
2018-11-23,64.13999938964844,63.762001037597656,64.0999984741211,64.13999938964844,2700.0,63.793731689453125
2018-11-26,64.88500213623047,64.5770034790039,64.75,64.82099914550781,2700.0,64.47105407714844
2018-11-27,65.31999969482422,64.80000305175781,64.80000305175781,65.31999969482422,8000.0,64.96736145019531
2018-11-28,66.4000015258789,65.56999969482422,65.56999969482422,66.4000015258789,6200.0,66.04153442382812
2018-11-29,66.9000015258789,66.19200134277344,66.52999877929688,66.72000122070312,4900.0,66.35980224609375
2018-11-30,67.13999938964844,66.5,66.81999969482422,67.0260009765625,6500.0,66.66415405273438
2018-12-03,68.06999969482422,67.47000122070312,67.9000015258789,67.75399780273438,14200.0,67.38822174072266
2018-12-04,67.91999816894531,65.72000122070312,67.91999816894531,65.7300033569336,14700.0,65.37515258789062
2018-12-06,65.28800201416016,63.68000030517578,64.6500015258789,65.27100372314453,15600.0,64.91863250732422
2018-12-07,65.7699966430664,63.742000579833984,65.62000274658203,64.47000122070312,11600.0,64.1219482421875
2018-12-10,64.5,63.36000061035156,64.5,64.15499877929688,13400.0,63.808650970458984
2018-12-11,65.48999786376953,63.875999450683594,65.48999786376953,64.08599853515625,11400.0,63.740020751953125
2018-12-12,65.62999725341797,64.6500015258789,64.93000030517578,64.6500015258789,9400.0,64.30097961425781
2018-12-13,65.30000305175781,64.16999816894531,65.30000305175781,64.46099853515625,8400.0,64.11299896240234
2018-12-14,64.0,63.029998779296875,64.0,63.349998474121094,6700.0,63.00799560546875
2018-12-17,63.13999938964844,61.709999084472656,62.45000076293945,61.80500030517578,8000.0,61.471336364746094
2018-12-18,63.04999923706055,61.779998779296875,62.029998779296875,61.90999984741211,15000.0,61.57577133178711
2018-12-19,62.874000549316406,60.619998931884766,62.159000396728516,61.03799819946289,14600.0,60.70847702026367
2018-12-20,60.970001220703125,59.55099868774414,60.849998474121094,59.959999084472656,15800.0,59.636295318603516
2018-12-21,60.369998931884766,58.66999816894531,60.130001068115234,58.90399932861328,12500.0,58.58599853515625
2018-12-24,58.310001373291016,57.17900085449219,57.939998626708984,57.17900085449219,19400.0,57.17900085449219
2018-12-26,59.97999954223633,56.915000915527344,57.70000076293945,59.880001068115234,23500.0,59.880001068115234
2018-12-27,60.34000015258789,58.11000061035156,59.43000030517578,60.34000015258789,78800.0,60.34000015258789
2018-12-28,61.0,60.16999816894531,60.61000061035156,60.26900100708008,39100.0,60.26900100708008
2018-12-31,60.97999954223633,60.327999114990234,60.650001525878906,60.939998626708984,29700.0,60.939998626708984
2019-01-02,61.130001068115234,59.72999954223633,59.72999954223633,60.93000030517578,8300.0,60.93000030517578
2019-01-03,60.36000061035156,59.321998596191406,60.34000015258789,59.321998596191406,13900.0,59.321998596191406
2019-01-04,61.400001525878906,60.31999969482422,60.31999969482422,61.400001525878906,13300.0,61.400001525878906
2019-01-07,62.11000061035156,61.34000015258789,61.34000015258789,61.90999984741211,14900.0,61.90999984741211
2019-01-08,62.30500030517578,61.823001861572266,62.196998596191406,62.30500030517578,4200.0,62.30500030517578
2019-01-09,62.84000015258789,62.558998107910156,62.689998626708984,62.558998107910156,5600.0,62.558998107910156
2019-01-10,62.900001525878906,62.13999938964844,62.5099983215332,62.89400100708008,8900.0,62.89400100708008
2019-01-11,62.900001525878906,62.41999816894531,62.84000015258789,62.81999969482422,5300.0,62.81999969482422
2019-01-14,62.77000045776367,62.41999816894531,62.5099983215332,62.650001525878906,9600.0,62.650001525878906
2019-01-15,63.2760009765625,62.83000183105469,62.83000183105469,63.26900100708008,4300.0,63.26900100708008
2019-01-16,63.66999816894531,63.49300003051758,63.66999816894531,63.49300003051758,7700.0,63.49300003051758
2019-01-17,63.930999755859375,63.36000061035156,63.36000061035156,63.887001037597656,5800.0,63.887001037597656
2019-01-18,64.94000244140625,64.33000183105469,64.62000274658203,64.6729965209961,13900.0,64.6729965209961
2019-01-22,64.62000274658203,63.64500045776367,64.62000274658203,63.90999984741211,10200.0,63.90999984741211
2019-01-23,64.41000366210938,63.38999938964844,64.4000015258789,63.987998962402344,4700.0,63.987998962402344
2019-01-24,64.11100006103516,63.84000015258789,64.02999877929688,64.08599853515625,9800.0,64.08599853515625
2019-01-25,64.86000061035156,64.63600158691406,64.86000061035156,64.63600158691406,3600.0,64.63600158691406
2019-01-28,64.22000122070312,63.7760009765625,64.22000122070312,64.0979995727539,3200.0,64.0979995727539
2019-01-29,64.44000244140625,63.99800109863281,64.44000244140625,64.00900268554688,7100.0,64.00900268554688
2019-01-30,65.37000274658203,64.51000213623047,64.63999938964844,65.04499816894531,22300.0,65.04499816894531
2019-01-31,65.77999877929688,64.94999694824219,65.06999969482422,65.77999877929688,3200.0,65.77999877929688
2019-02-01,65.86000061035156,65.4800033569336,65.80000305175781,65.69000244140625,14700.0,65.69000244140625
2019-02-04,66.16000366210938,65.58000183105469,65.80999755859375,66.16000366210938,9800.0,66.16000366210938
2019-02-05,66.45999908447266,66.05999755859375,66.37999725341797,66.45999908447266,14300.0,66.45999908447266
2019-02-06,66.5199966430664,66.24500274658203,66.44000244140625,66.375,30400.0,66.375
2019-02-07,65.88200378417969,65.37000274658203,65.76000213623047,65.77999877929688,9400.0,65.77999877929688
2019-02-08,65.66999816894531,65.26000213623047,65.27999877929688,65.63200378417969,9700.0,65.63200378417969
2019-02-11,66.04000091552734,65.73999786376953,66.04000091552734,65.80000305175781,4400.0,65.80000305175781
2019-02-12,66.80000305175781,66.3550033569336,66.44999694824219,66.80000305175781,19900.0,66.80000305175781
2019-02-13,67.04199981689453,66.80000305175781,66.95500183105469,66.94000244140625,12900.0,66.94000244140625
2019-02-14,67.04000091552734,66.5,66.9000015258789,66.94999694824219,10500.0,66.94999694824219
2019-02-15,67.43000030517578,67.05999755859375,67.12000274658203,67.43000030517578,23800.0,67.43000030517578
2019-02-19,67.70099639892578,67.33000183105469,67.33000183105469,67.68000030517578,23800.0,67.68000030517578
2019-02-20,67.70999908447266,67.49500274658203,67.56999969482422,67.70999908447266,6000.0,67.70999908447266
2019-02-21,67.56800079345703,67.20500183105469,67.5,67.41200256347656,8400.0,67.41200256347656
2019-02-22,67.91000366210938,67.58000183105469,67.58000183105469,67.83399963378906,11300.0,67.83399963378906
2019-02-25,68.47000122070312,68.06999969482422,68.31999969482422,68.06999969482422,7000.0,68.06999969482422
2019-02-26,68.13099670410156,67.9280014038086,67.98999786376953,68.04199981689453,3900.0,68.04199981689453
2019-02-27,67.95999908447266,67.47200012207031,67.87000274658203,67.87999725341797,19300.0,67.87999725341797
2019-02-28,67.93000030517578,67.73500061035156,67.76000213623047,67.73500061035156,4900.0,67.73500061035156
2019-03-01,68.3499984741211,67.83999633789062,68.3499984741211,68.19000244140625,23000.0,68.19000244140625
2019-03-04,68.51000213623047,67.34500122070312,68.51000213623047,67.80000305175781,8700.0,67.80000305175781
2019-03-05,68.08000183105469,67.70500183105469,67.72000122070312,67.91200256347656,6500.0,67.91200256347656
2019-03-06,67.77999877929688,67.35700225830078,67.7300033569336,67.41300201416016,6800.0,67.41300201416016
2019-03-07,67.0,66.59600067138672,67.0,66.63999938964844,9500.0,66.63999938964844
2019-03-08,66.63300323486328,66.2699966430664,66.5,66.63300323486328,5000.0,66.63300323486328
2019-03-11,67.75,66.81999969482422,66.81999969482422,67.69999694824219,7400.0,67.69999694824219
2019-03-12,68.04000091552734,67.69000244140625,67.69000244140625,67.83300018310547,7100.0,67.83300018310547
2019-03-13,68.66999816894531,68.26000213623047,68.3499984741211,68.375,9200.0,68.375
2019-03-14,68.45999908447266,68.25299835205078,68.30500030517578,68.34400177001953,7400.0,68.34400177001953
2019-03-15,68.80899810791016,68.49700164794922,68.5,68.625,9700.0,68.625
2019-03-18,68.76000213623047,68.33000183105469,68.58999633789062,68.68000030517578,36900.0,68.68000030517578
2019-03-19,69.05000305175781,68.46499633789062,68.9010009765625,68.5739974975586,13200.0,68.5739974975586
2019-03-20,68.88999938964844,68.15399932861328,68.44000244140625,68.55000305175781,7100.0,68.55000305175781
2019-03-21,69.18199920654297,68.29000091552734,68.29000091552734,69.16500091552734,2900.0,69.16500091552734
2019-03-22,69.0199966430664,67.83000183105469,69.0199966430664,67.83000183105469,12200.0,67.83000183105469
2019-03-25,68.0,67.51000213623047,67.87000274658203,67.93000030517578,9600.0,67.93000030517578
2019-03-26,68.43000030517578,67.95899963378906,68.33000183105469,68.177001953125,4700.0,68.177001953125
2019-03-27,68.48999786376953,67.68599700927734,68.48999786376953,68.0199966430664,18500.0,68.0199966430664
2019-03-28,68.29000091552734,68.0260009765625,68.26100158691406,68.1449966430664,6400.0,68.1449966430664
2019-03-29,68.70500183105469,68.23999786376953,68.58999633789062,68.23999786376953,31200.0,68.23999786376953
2019-04-01,69.51399993896484,69.19000244140625,69.23999786376953,69.51399993896484,9700.0,69.51399993896484
2019-04-02,69.83999633789062,69.4000015258789,69.83999633789062,69.63500213623047,14000.0,69.63500213623047
2019-04-03,69.99500274658203,69.6500015258789,69.8499984741211,69.8499984741211,9400.0,69.8499984741211
2019-04-04,69.9800033569336,69.80000305175781,69.95999908447266,69.91500091552734,4800.0,69.91500091552734
2019-04-05,70.18000030517578,70.01000213623047,70.01000213623047,70.12699890136719,9800.0,70.12699890136719
2019-04-08,70.36000061035156,69.94000244140625,70.16000366210938,70.36000061035156,8800.0,70.36000061035156
2019-04-09,70.19999694824219,69.8290023803711,70.19999694824219,69.86000061035156,4500.0,69.86000061035156
2019-04-10,70.16000366210938,69.97000122070312,69.97000122070312,70.11499786376953,6000.0,70.11499786376953
2019-04-11,70.22100067138672,70.01000213623047,70.18000030517578,70.11599731445312,12600.0,70.11599731445312
2019-04-12,70.75,70.35700225830078,70.66000366210938,70.5199966430664,7200.0,70.5199966430664
2019-04-15,70.5999984741211,70.41999816894531,70.5,70.58799743652344,6500.0,70.58799743652344
2019-04-16,70.86000061035156,70.55599975585938,70.86000061035156,70.55599975585938,6100.0,70.55599975585938
2019-04-17,71.02999877929688,70.45500183105469,71.02999877929688,70.45500183105469,4200.0,70.45500183105469
2019-04-18,70.69999694824219,70.33200073242188,70.66999816894531,70.55699920654297,2200.0,70.55699920654297
2019-04-22,70.6449966430664,70.3949966430664,70.58000183105469,70.6449966430664,15600.0,70.6449966430664
2019-04-23,71.43000030517578,70.9000015258789,70.9000015258789,71.27799987792969,5600.0,71.27799987792969
2019-04-24,71.4800033569336,71.16999816894531,71.4800033569336,71.25399780273438,8300.0,71.25399780273438
2019-04-25,71.31999969482422,70.83999633789062,70.96299743652344,71.21900177001953,5000.0,71.21900177001953
2019-04-26,71.4800033569336,71.01000213623047,71.37999725341797,71.37000274658203,28800.0,71.37000274658203
2019-04-29,71.79000091552734,71.55999755859375,71.55999755859375,71.625,5900.0,71.625
2019-04-30,71.62000274658203,71.55000305175781,71.62000274658203,71.60199737548828,10600.0,71.60199737548828
2019-05-01,71.87000274658203,71.14800262451172,71.83999633789062,71.14800262451172,7900.0,71.14800262451172
2019-05-02,71.38999938964844,70.69999694824219,71.27999877929688,71.05999755859375,46800.0,71.05999755859375
2019-05-03,71.81400299072266,71.22000122070312,71.22000122070312,71.77799987792969,10200.0,71.77799987792969
2019-05-06,71.70999908447266,70.3740005493164,70.76000213623047,71.5199966430664,55600.0,71.5199966430664
2019-05-07,71.19000244140625,69.875,71.19000244140625,70.06999969482422,13800.0,70.06999969482422
2019-05-08,70.47000122070312,70.11000061035156,70.11000061035156,70.17900085449219,7600.0,70.17900085449219
2019-05-09,70.05000305175781,69.31999969482422,69.5,69.77999877929688,3300.0,69.77999877929688
2019-05-10,70.05999755859375,68.86799621582031,69.44999694824219,70.04000091552734,9300.0,70.04000091552734
2019-05-13,69.1500015258789,68.25,69.1500015258789,68.26000213623047,14200.0,68.26000213623047
2019-05-14,69.41999816894531,68.74800109863281,68.83999633789062,69.37000274658203,11900.0,69.37000274658203
2019-05-15,69.66999816894531,68.86000061035156,68.86000061035156,69.30999755859375,5700.0,69.30999755859375
2019-05-16,70.52999877929688,69.75,69.75,70.03199768066406,6000.0,70.03199768066406
2019-05-17,70.21299743652344,69.51000213623047,69.80000305175781,69.51000213623047,12700.0,69.51000213623047
2019-05-20,69.66000366210938,68.9489974975586,69.66000366210938,69.01000213623047,10100.0,69.01000213623047
2019-05-21,69.87999725341797,69.45099639892578,69.87999725341797,69.5199966430664,51500.0,69.5199966430664
2019-05-22,69.65299987792969,69.37000274658203,69.48999786376953,69.37000274658203,17800.0,69.37000274658203
2019-05-23,69.23999786376953,68.31999969482422,69.23999786376953,68.5199966430664,16500.0,68.5199966430664
2019-05-24,69.25,68.81999969482422,69.25,68.81999969482422,5200.0,68.81999969482422
