Date,High,Low,Open,Close,Volume,Adj Close
2017-07-05,18.299999237060547,18.100000381469727,18.1299991607666,18.209999084472656,109500.0,17.936681747436523
2017-07-06,18.299999237060547,18.09000015258789,18.200000762939453,18.09000015258789,25900.0,17.818483352661133
2017-07-07,18.239999771118164,18.049999237060547,18.09000015258789,18.1200008392334,30200.0,17.848033905029297
2017-07-10,18.25,18.010000228881836,18.200000762939453,18.079999923706055,84300.0,17.808631896972656
2017-07-11,18.229999542236328,18.079999923706055,18.110000610351562,18.18000030517578,99300.0,17.907133102416992
2017-07-12,18.29800033569336,18.149999618530273,18.229999542236328,18.18000030517578,96000.0,17.907133102416992
2017-07-13,25.209999084472656,25.049999237060547,25.1299991607666,25.209999084472656,4100.0,24.831615447998047
2017-07-14,25.31999969482422,25.200000762939453,25.200000762939453,25.280000686645508,6900.0,24.90056800842285
2017-07-17,25.399999618530273,25.3700008392334,25.399999618530273,25.3700008392334,1000.0,24.98921775817871
2017-07-18,25.25,25.170000076293945,25.25,25.190000534057617,5200.0,24.811918258666992
2017-07-19,25.420000076293945,25.420000076293945,25.420000076293945,25.420000076293945,500.0,25.03846549987793
2017-07-20,25.510000228881836,25.5,25.510000228881836,25.5,2000.0,25.117265701293945
2017-07-21,25.520000457763672,25.190000534057617,25.520000457763672,25.209999084472656,9800.0,24.831615447998047
2017-07-24,25.209999084472656,25.190000534057617,25.209999084472656,25.190000534057617,1500.0,24.811918258666992
2017-07-25,25.520000457763672,25.479999542236328,25.510000228881836,25.479999542236328,2500.0,25.097564697265625
2017-07-26,25.40999984741211,25.299999237060547,25.40999984741211,25.299999237060547,4000.0,24.92026710510254
2017-07-27,25.09000015258789,25.059999465942383,25.09000015258789,25.059999465942383,4700.0,24.683868408203125
2017-07-28,25.079999923706055,24.92799949645996,25.079999923706055,24.969999313354492,15600.0,24.595218658447266
2017-07-31,25.010000228881836,24.90999984741211,24.959999084472656,25.010000228881836,3000.0,24.634620666503906
2017-08-01,25.079999923706055,24.898000717163086,24.959999084472656,25.059999465942383,7600.0,24.683868408203125
2017-08-02,24.899999618530273,24.701000213623047,24.899999618530273,24.701000213623047,4100.0,24.330257415771484
2017-08-03,24.65999984741211,24.643999099731445,24.65999984741211,24.643999099731445,600.0,24.274110794067383
2017-08-04,24.600000381469727,24.530000686645508,24.559999465942383,24.600000381469727,3100.0,24.230772018432617
2017-08-07,24.636999130249023,24.577999114990234,24.59000015258789,24.636999130249023,2000.0,24.2672176361084
2017-08-08,24.889999389648438,24.586999893188477,24.600000381469727,24.6200008392334,6300.0,24.250473022460938
2017-08-09,24.290000915527344,24.1200008392334,24.270000457763672,24.190000534057617,4900.0,23.826927185058594
2017-08-10,23.945999145507812,23.79599952697754,23.945999145507812,23.79599952697754,3200.0,23.438840866088867
2017-08-11,23.8700008392334,23.420000076293945,23.420000076293945,23.790000915527344,6500.0,23.432931900024414
2017-08-14,24.09000015258789,23.959999084472656,23.959999084472656,24.09000015258789,3300.0,23.72842788696289
2017-08-15,23.899999618530273,23.819000244140625,23.889999389648438,23.850000381469727,2900.0,23.49203109741211
2017-08-16,23.920000076293945,23.8799991607666,23.920000076293945,23.8799991607666,2000.0,23.521577835083008
2017-08-17,23.59000015258789,23.549999237060547,23.59000015258789,23.549999237060547,4800.0,23.196533203125
2017-08-18,23.34000015258789,23.325000762939453,23.34000015258789,23.325000762939453,2000.0,22.974910736083984
2017-08-21,23.365999221801758,23.365999221801758,23.365999221801758,23.365999221801758,500.0,23.01529312133789
2017-08-22,23.365999221801758,23.365999221801758,23.365999221801758,23.365999221801758,0.0,23.01529312133789
2017-08-23,23.469999313354492,23.45800018310547,23.469999313354492,23.45800018310547,1700.0,23.105913162231445
2017-08-24,23.45800018310547,23.45800018310547,23.45800018310547,23.45800018310547,0.0,23.105913162231445
2017-08-25,23.610000610351562,23.590999603271484,23.610000610351562,23.590999603271484,600.0,23.23691749572754
2017-08-28,23.590999603271484,23.590999603271484,23.590999603271484,23.590999603271484,0.0,23.23691749572754
2017-08-29,23.90999984741211,23.898000717163086,23.90999984741211,23.898000717163086,1000.0,23.539310455322266
2017-08-30,23.898000717163086,23.898000717163086,23.898000717163086,23.898000717163086,0.0,23.539310455322266
2017-08-31,24.530000686645508,24.530000686645508,24.530000686645508,24.530000686645508,4900.0,24.16182518005371
2017-09-01,24.209999084472656,24.18899917602539,24.209999084472656,24.18899917602539,2000.0,23.82594108581543
2017-09-05,24.200000762939453,23.950000762939453,24.200000762939453,23.950000762939453,2500.0,23.590530395507812
2017-09-06,24.209999084472656,24.08099937438965,24.209999084472656,24.08099937438965,2300.0,23.719562530517578
2017-09-07,24.079999923706055,24.040000915527344,24.040000915527344,24.049999237060547,4600.0,23.68902587890625
2017-09-08,24.020000457763672,23.965999603271484,23.979999542236328,24.020000457763672,1100.0,23.65947914123535
2017-09-11,24.299999237060547,24.299999237060547,24.299999237060547,24.299999237060547,400.0,23.935274124145508
2017-09-12,24.530000686645508,24.530000686645508,24.530000686645508,24.530000686645508,500.0,24.16182518005371
2017-09-13,24.530000686645508,24.530000686645508,24.530000686645508,24.530000686645508,0.0,24.16182518005371
2017-09-14,24.56999969482422,24.549999237060547,24.56999969482422,24.549999237060547,300.0,24.181522369384766
2017-09-15,24.549999237060547,24.549999237060547,24.549999237060547,24.549999237060547,0.0,24.181522369384766
2017-09-18,24.84000015258789,24.84000015258789,24.84000015258789,24.84000015258789,400.0,24.46717071533203
2017-09-19,24.780000686645508,24.780000686645508,24.780000686645508,24.780000686645508,200.0,24.408071517944336
2017-09-20,24.889999389648438,24.889999389648438,24.889999389648438,24.889999389648438,100.0,24.516420364379883
2017-09-21,24.889999389648438,24.889999389648438,24.889999389648438,24.889999389648438,0.0,24.516420364379883
2017-09-22,24.889999389648438,24.889999389648438,24.889999389648438,24.889999389648438,0.0,24.516420364379883
2017-09-25,25.149999618530273,25.132999420166016,25.149999618530273,25.139999389648438,1100.0,24.76266860961914
2017-09-26,25.260000228881836,25.23699951171875,25.260000228881836,25.23699951171875,2100.0,24.858211517333984
2017-09-27,25.23699951171875,25.23699951171875,25.23699951171875,25.23699951171875,0.0,24.858211517333984
2017-09-28,25.969999313354492,25.969999313354492,25.969999313354492,25.969999313354492,100.0,25.580209732055664
2017-09-29,25.950000762939453,25.8799991607666,25.950000762939453,25.889999389648438,3200.0,25.50140953063965
2017-10-02,26.100000381469727,26.100000381469727,26.100000381469727,26.100000381469727,200.0,25.70825958251953
2017-10-03,26.170000076293945,26.15999984741211,26.15999984741211,26.170000076293945,12000.0,25.777210235595703
2017-10-04,26.170000076293945,26.170000076293945,26.170000076293945,26.170000076293945,0.0,25.777210235595703
2017-10-05,26.389999389648438,26.389999389648438,26.389999389648438,26.389999389648438,200.0,25.993906021118164
2017-10-06,26.31999969482422,26.31999969482422,26.31999969482422,26.31999969482422,1400.0,25.924957275390625
2017-10-09,26.18000030517578,26.18000030517578,26.18000030517578,26.18000030517578,1400.0,25.787057876586914
2017-10-10,26.200000762939453,26.200000762939453,26.200000762939453,26.200000762939453,800.0,25.806758880615234
2017-10-11,26.350000381469727,26.260000228881836,26.350000381469727,26.260000228881836,1100.0,25.86585807800293
2017-10-12,26.290000915527344,26.290000915527344,26.290000915527344,26.290000915527344,200.0,25.895408630371094
2017-10-13,26.290000915527344,26.290000915527344,26.290000915527344,26.290000915527344,0.0,25.895408630371094
2017-10-16,26.290000915527344,26.290000915527344,26.290000915527344,26.290000915527344,0.0,25.895408630371094
2017-10-17,26.290000915527344,26.290000915527344,26.290000915527344,26.290000915527344,0.0,25.895408630371094
2017-10-18,26.43000030517578,26.420000076293945,26.43000030517578,26.420000076293945,1000.0,26.023456573486328
2017-10-19,26.420000076293945,26.420000076293945,26.420000076293945,26.420000076293945,0.0,26.023456573486328
2017-10-20,26.420000076293945,26.420000076293945,26.420000076293945,26.420000076293945,0.0,26.023456573486328
2017-10-23,26.479999542236328,26.459999084472656,26.479999542236328,26.459999084472656,700.0,26.062854766845703
2017-10-24,26.309999465942383,26.280000686645508,26.309999465942383,26.280000686645508,400.0,25.88555908203125
2017-10-25,26.280000686645508,26.280000686645508,26.280000686645508,26.280000686645508,0.0,25.88555908203125
2017-10-26,26.280000686645508,26.280000686645508,26.280000686645508,26.280000686645508,0.0,25.88555908203125
2017-10-27,26.280000686645508,26.280000686645508,26.280000686645508,26.280000686645508,0.0,25.88555908203125
2017-10-30,26.280000686645508,26.280000686645508,26.280000686645508,26.280000686645508,0.0,25.88555908203125
2017-10-31,26.148000717163086,26.139999389648438,26.148000717163086,26.139999389648438,2700.0,25.747657775878906
2017-11-01,25.8799991607666,25.729999542236328,25.81999969482422,25.729999542236328,12600.0,25.343812942504883
2017-11-02,26.06999969482422,26.06999969482422,26.06999969482422,26.06999969482422,400.0,25.678709030151367
2017-11-03,25.93000030517578,25.93000030517578,25.93000030517578,25.93000030517578,100.0,25.54081153869629
2017-11-06,26.0,25.889999389648438,25.920000076293945,25.989999771118164,2800.0,25.599910736083984
2017-11-07,25.989999771118164,25.989999771118164,25.989999771118164,25.989999771118164,0.0,25.599910736083984
2017-11-08,25.989999771118164,25.989999771118164,25.989999771118164,25.989999771118164,0.0,25.599910736083984
2017-11-09,25.989999771118164,25.989999771118164,25.989999771118164,25.989999771118164,0.0,25.599910736083984
2017-11-10,25.690000534057617,25.690000534057617,25.690000534057617,25.690000534057617,100.0,25.304414749145508
2017-11-13,25.690000534057617,25.690000534057617,25.690000534057617,25.690000534057617,0.0,25.304414749145508
2017-11-14,25.690000534057617,25.690000534057617,25.690000534057617,25.690000534057617,0.0,25.304414749145508
2017-11-15,25.690000534057617,25.690000534057617,25.690000534057617,25.690000534057617,0.0,25.304414749145508
2017-11-16,25.690000534057617,25.690000534057617,25.690000534057617,25.690000534057617,0.0,25.304414749145508
2017-11-17,25.690000534057617,25.690000534057617,25.690000534057617,25.690000534057617,0.0,25.304414749145508
2017-11-20,25.690000534057617,25.690000534057617,25.690000534057617,25.690000534057617,0.0,25.304414749145508
2017-11-21,25.690000534057617,25.690000534057617,25.690000534057617,25.690000534057617,0.0,25.304414749145508
2017-11-22,26.56999969482422,26.56999969482422,26.56999969482422,26.56999969482422,200.0,26.171205520629883
2017-11-24,26.56999969482422,26.56999969482422,26.56999969482422,26.56999969482422,0.0,26.171205520629883
2017-11-27,26.56999969482422,26.56999969482422,26.56999969482422,26.56999969482422,0.0,26.171205520629883
2017-11-28,26.56999969482422,26.56999969482422,26.56999969482422,26.56999969482422,0.0,26.171205520629883
2017-11-29,26.56999969482422,26.56999969482422,26.56999969482422,26.56999969482422,0.0,26.171205520629883
2017-11-30,27.284000396728516,27.149999618530273,27.284000396728516,27.149999618530273,1000.0,26.74250030517578
2017-12-01,27.049999237060547,26.549999237060547,27.049999237060547,26.898000717163086,7300.0,26.49428367614746
2017-12-04,27.459999084472656,27.173999786376953,27.290000915527344,27.18000030517578,1800.0,26.772048950195312
2017-12-05,27.049999237060547,27.049999237060547,27.049999237060547,27.049999237060547,200.0,26.643999099731445
2017-12-06,27.049999237060547,27.049999237060547,27.049999237060547,27.049999237060547,0.0,26.643999099731445
2017-12-07,26.899999618530273,26.8799991607666,26.899999618530273,26.8799991607666,500.0,26.476551055908203
2017-12-08,26.8799991607666,26.8799991607666,26.8799991607666,26.8799991607666,0.0,26.476551055908203
2017-12-11,26.8799991607666,26.8799991607666,26.8799991607666,26.8799991607666,0.0,26.476551055908203
2017-12-12,26.8799991607666,26.8799991607666,26.8799991607666,26.8799991607666,0.0,26.476551055908203
2017-12-13,26.8799991607666,26.8799991607666,26.8799991607666,26.8799991607666,0.0,26.476551055908203
2017-12-14,26.8799991607666,26.8799991607666,26.8799991607666,26.8799991607666,0.0,26.476551055908203
2017-12-15,26.8799991607666,26.8799991607666,26.8799991607666,26.8799991607666,0.0,26.476551055908203
2017-12-18,27.3799991607666,27.378000259399414,27.3799991607666,27.378000259399414,800.0,26.967077255249023
2017-12-19,27.25,27.239999771118164,27.239999771118164,27.25,400.0,26.840999603271484
2017-12-20,27.25,27.25,27.25,27.25,100.0,26.840999603271484
2017-12-21,27.25,27.25,27.25,27.25,0.0,26.840999603271484
2017-12-22,27.25,27.25,27.25,27.25,0.0,26.840999603271484
2017-12-26,27.309999465942383,27.309999465942383,27.309999465942383,27.309999465942383,100.0,27.009126663208008
2017-12-27,27.309999465942383,27.309999465942383,27.309999465942383,27.309999465942383,0.0,27.009126663208008
2017-12-28,27.309999465942383,27.309999465942383,27.309999465942383,27.309999465942383,0.0,27.009126663208008
2017-12-29,27.239999771118164,27.239999771118164,27.239999771118164,27.239999771118164,700.0,26.939897537231445
2018-01-02,27.389999389648438,27.100000381469727,27.100000381469727,27.290000915527344,3000.0,26.989347457885742
2018-01-03,27.389999389648438,27.389999389648438,27.389999389648438,27.389999389648438,500.0,27.088245391845703
2018-01-04,27.34000015258789,27.34000015258789,27.34000015258789,27.34000015258789,300.0,27.038795471191406
2018-01-05,27.34000015258789,27.34000015258789,27.34000015258789,27.34000015258789,100.0,27.038795471191406
2018-01-08,27.34000015258789,27.34000015258789,27.34000015258789,27.34000015258789,0.0,27.038795471191406
2018-01-09,27.34000015258789,27.34000015258789,27.34000015258789,27.34000015258789,0.0,27.038795471191406
2018-01-10,27.150999069213867,27.150999069213867,27.150999069213867,27.150999069213867,200.0,26.851877212524414
2018-01-11,27.150999069213867,27.150999069213867,27.150999069213867,27.150999069213867,0.0,26.851877212524414
2018-01-12,28.25,28.226999282836914,28.25,28.226999282836914,300.0,27.91602325439453
2018-01-16,28.329999923706055,28.229999542236328,28.329999923706055,28.229999542236328,800.0,27.918991088867188
2018-01-17,28.229999542236328,28.229999542236328,28.229999542236328,28.229999542236328,0.0,27.918991088867188
2018-01-18,27.899999618530273,27.899999618530273,27.899999618530273,27.899999618530273,100.0,27.592626571655273
2018-01-19,28.260000228881836,27.917999267578125,27.940000534057617,28.260000228881836,1400.0,27.948659896850586
2018-01-22,28.15999984741211,28.1299991607666,28.15999984741211,28.1299991607666,900.0,27.820091247558594
2018-01-23,28.1299991607666,28.1299991607666,28.1299991607666,28.1299991607666,0.0,27.820091247558594
2018-01-24,28.1299991607666,28.1299991607666,28.1299991607666,28.1299991607666,0.0,27.820091247558594
2018-01-25,28.020000457763672,28.0,28.0,28.020000457763672,2300.0,27.711305618286133
2018-01-26,28.020000457763672,28.020000457763672,28.020000457763672,28.020000457763672,0.0,27.711305618286133
2018-01-29,28.020000457763672,28.020000457763672,28.020000457763672,28.020000457763672,0.0,27.711305618286133
2018-01-30,27.780000686645508,27.780000686645508,27.780000686645508,27.780000686645508,200.0,27.473949432373047
2018-01-31,27.809999465942383,27.58799934387207,27.809999465942383,27.58799934387207,700.0,27.2840633392334
2018-02-01,27.58799934387207,27.58799934387207,27.58799934387207,27.58799934387207,0.0,27.2840633392334
2018-02-02,27.58799934387207,27.58799934387207,27.58799934387207,27.58799934387207,0.0,27.2840633392334
2018-02-05,26.799999237060547,26.697999954223633,26.780000686645508,26.697999954223633,3500.0,26.40386962890625
2018-02-06,26.1200008392334,26.1200008392334,26.1200008392334,26.1200008392334,300.0,25.832237243652344
2018-02-07,26.1200008392334,26.1200008392334,26.1200008392334,26.1200008392334,0.0,25.832237243652344
2018-02-08,26.0,26.0,26.0,26.0,1000.0,25.713558197021484
2018-02-09,26.0,26.0,26.0,26.0,0.0,25.713558197021484
2018-02-12,26.0,26.0,26.0,26.0,0.0,25.713558197021484
2018-02-13,26.200000762939453,26.200000762939453,26.200000762939453,26.200000762939453,400.0,25.91135597229004
2018-02-14,26.200000762939453,26.200000762939453,26.200000762939453,26.200000762939453,0.0,25.91135597229004
2018-02-15,26.200000762939453,26.200000762939453,26.200000762939453,26.200000762939453,0.0,25.91135597229004
2018-02-16,27.190000534057617,27.190000534057617,27.190000534057617,27.190000534057617,200.0,26.89044952392578
2018-02-20,27.190000534057617,27.190000534057617,27.190000534057617,27.190000534057617,0.0,26.89044952392578
2018-02-21,27.290000915527344,27.179000854492188,27.290000915527344,27.179000854492188,400.0,26.87957000732422
2018-02-22,27.179000854492188,27.179000854492188,27.179000854492188,27.179000854492188,0.0,26.87957000732422
2018-02-23,27.179000854492188,27.179000854492188,27.179000854492188,27.179000854492188,0.0,26.87957000732422
2018-02-26,27.315000534057617,27.315000534057617,27.315000534057617,27.315000534057617,300.0,27.01407241821289
2018-02-27,27.315000534057617,27.315000534057617,27.315000534057617,27.315000534057617,0.0,27.01407241821289
2018-02-28,27.315000534057617,27.315000534057617,27.315000534057617,27.315000534057617,0.0,27.01407241821289
2018-03-01,27.315000534057617,27.315000534057617,27.315000534057617,27.315000534057617,0.0,27.01407241821289
2018-03-02,27.315000534057617,27.315000534057617,27.315000534057617,27.315000534057617,0.0,27.01407241821289
2018-03-05,27.315000534057617,27.315000534057617,27.315000534057617,27.315000534057617,0.0,27.01407241821289
2018-03-06,27.315000534057617,27.315000534057617,27.315000534057617,27.315000534057617,0.0,27.01407241821289
2018-03-07,27.315000534057617,27.315000534057617,27.315000534057617,27.315000534057617,0.0,27.01407241821289
2018-03-08,27.315000534057617,27.315000534057617,27.315000534057617,27.315000534057617,0.0,27.01407241821289
2018-03-09,27.315000534057617,27.315000534057617,27.315000534057617,27.315000534057617,0.0,27.01407241821289
2018-03-12,27.315000534057617,27.315000534057617,27.315000534057617,27.315000534057617,0.0,27.01407241821289
2018-03-13,27.989999771118164,27.989999771118164,27.989999771118164,27.989999771118164,200.0,27.6816349029541
2018-03-14,27.989999771118164,27.989999771118164,27.989999771118164,27.989999771118164,0.0,27.6816349029541
2018-03-15,27.6200008392334,27.618000030517578,27.6200008392334,27.618000030517578,600.0,27.31373405456543
2018-03-16,27.618000030517578,27.618000030517578,27.618000030517578,27.618000030517578,0.0,27.31373405456543
2018-03-19,27.618000030517578,27.618000030517578,27.618000030517578,27.618000030517578,0.0,27.31373405456543
2018-03-20,27.618000030517578,27.618000030517578,27.618000030517578,27.618000030517578,0.0,27.31373405456543
2018-03-21,27.81999969482422,27.81999969482422,27.81999969482422,27.81999969482422,300.0,27.513507843017578
2018-03-22,27.81999969482422,27.81999969482422,27.81999969482422,27.81999969482422,0.0,27.513507843017578
2018-03-23,27.81999969482422,27.81999969482422,27.81999969482422,27.81999969482422,0.0,27.513507843017578
2018-03-26,27.81999969482422,27.81999969482422,27.81999969482422,27.81999969482422,0.0,27.513507843017578
2018-03-27,27.81999969482422,27.81999969482422,27.81999969482422,27.81999969482422,0.0,27.513507843017578
2018-03-28,26.889999389648438,26.889999389648438,26.889999389648438,26.889999389648438,100.0,26.593753814697266
2018-03-29,26.889999389648438,26.889999389648438,26.889999389648438,26.889999389648438,0.0,26.593753814697266
2018-04-02,26.889999389648438,26.889999389648438,26.889999389648438,26.889999389648438,0.0,26.593753814697266
2018-04-03,26.889999389648438,26.889999389648438,26.889999389648438,26.889999389648438,0.0,26.593753814697266
2018-04-04,27.049999237060547,27.049999237060547,27.049999237060547,27.049999237060547,100.0,26.751991271972656
2018-04-05,27.049999237060547,27.049999237060547,27.049999237060547,27.049999237060547,0.0,26.751991271972656
2018-04-06,27.049999237060547,27.049999237060547,27.049999237060547,27.049999237060547,0.0,26.751991271972656
2018-04-09,27.049999237060547,27.049999237060547,27.049999237060547,27.049999237060547,0.0,26.751991271972656
2018-04-10,27.049999237060547,27.049999237060547,27.049999237060547,27.049999237060547,0.0,26.751991271972656
2018-04-11,27.049999237060547,27.049999237060547,27.049999237060547,27.049999237060547,0.0,26.751991271972656
2018-04-12,27.049999237060547,27.049999237060547,27.049999237060547,27.049999237060547,0.0,26.751991271972656
2018-04-13,27.864999771118164,27.864999771118164,27.864999771118164,27.864999771118164,200.0,27.558012008666992
2018-04-16,27.864999771118164,27.864999771118164,27.864999771118164,27.864999771118164,0.0,27.558012008666992
2018-04-17,28.31999969482422,28.31999969482422,28.31999969482422,28.31999969482422,200.0,28.007999420166016
2018-04-18,28.31999969482422,28.31999969482422,28.31999969482422,28.31999969482422,0.0,28.007999420166016
2018-04-19,28.263999938964844,28.263999938964844,28.263999938964844,28.263999938964844,600.0,27.95261573791504
2018-04-20,28.263999938964844,28.263999938964844,28.263999938964844,28.263999938964844,0.0,27.95261573791504
2018-04-23,28.263999938964844,28.263999938964844,28.263999938964844,28.263999938964844,0.0,27.95261573791504
2018-04-24,28.079999923706055,28.066999435424805,28.079999923706055,28.066999435424805,500.0,27.75778579711914
2018-04-25,28.066999435424805,28.066999435424805,28.066999435424805,28.066999435424805,0.0,27.75778579711914
2018-04-26,28.066999435424805,28.066999435424805,28.066999435424805,28.066999435424805,0.0,27.75778579711914
2018-04-27,27.8799991607666,27.809999465942383,27.8799991607666,27.809999465942383,400.0,27.503618240356445
2018-04-30,27.809999465942383,27.809999465942383,27.809999465942383,27.809999465942383,0.0,27.503618240356445
2018-05-01,27.809999465942383,27.809999465942383,27.809999465942383,27.809999465942383,0.0,27.503618240356445
2018-05-02,27.809999465942383,27.809999465942383,27.809999465942383,27.809999465942383,0.0,27.503618240356445
2018-05-03,27.809999465942383,27.809999465942383,27.809999465942383,27.809999465942383,0.0,27.503618240356445
2018-05-04,27.809999465942383,27.809999465942383,27.809999465942383,27.809999465942383,0.0,27.503618240356445
2018-05-07,28.1200008392334,28.030000686645508,28.030000686645508,28.1200008392334,600.0,27.810203552246094
2018-05-08,28.1200008392334,28.1200008392334,28.1200008392334,28.1200008392334,0.0,27.810203552246094
2018-05-09,28.299999237060547,28.264999389648438,28.299999237060547,28.264999389648438,500.0,27.95360565185547
2018-05-10,28.434999465942383,28.31999969482422,28.34000015258789,28.434999465942383,2100.0,28.121732711791992
2018-05-11,28.520000457763672,28.506000518798828,28.520000457763672,28.506000518798828,1000.0,28.191951751708984
2018-05-14,28.540000915527344,28.459999084472656,28.540000915527344,28.5,3000.0,28.186016082763672
2018-05-15,28.510000228881836,28.385000228881836,28.385000228881836,28.510000228881836,1100.0,28.195905685424805
2018-05-16,28.979999542236328,28.8700008392334,28.8700008392334,28.979999542236328,600.0,28.660728454589844
2018-05-17,29.110000610351562,29.030000686645508,29.110000610351562,29.030000686645508,3100.0,28.71017837524414
2018-05-18,29.110000610351562,29.09000015258789,29.110000610351562,29.100000381469727,1500.0,28.779407501220703
2018-05-21,29.209999084472656,29.165000915527344,29.200000762939453,29.209999084472656,2200.0,28.888193130493164
2018-05-22,29.219999313354492,29.100000381469727,29.219999313354492,29.100000381469727,1300.0,28.779407501220703
2018-05-23,29.0,29.0,29.0,29.0,1100.0,28.68050765991211
2018-05-24,29.059999465942383,28.899999618530273,28.899999618530273,29.059999465942383,1100.0,28.73984718322754
2018-05-25,29.049999237060547,29.03499984741211,29.049999237060547,29.03499984741211,2000.0,28.71512222290039
2018-05-29,29.040000915527344,29.040000915527344,29.040000915527344,29.040000915527344,500.0,28.720067977905273
2018-05-30,29.540000915527344,29.299999237060547,29.299999237060547,29.540000915527344,2400.0,29.21455955505371
2018-05-31,29.382999420166016,29.200000762939453,29.360000610351562,29.200000762939453,1200.0,28.878305435180664
2018-06-01,29.510000228881836,29.510000228881836,29.510000228881836,29.510000228881836,300.0,29.18488883972168
2018-06-04,29.600000381469727,29.586000442504883,29.600000381469727,29.586000442504883,500.0,29.260051727294922
2018-06-05,29.586000442504883,29.586000442504883,29.586000442504883,29.586000442504883,0.0,29.260051727294922
2018-06-06,30.100000381469727,29.829999923706055,29.829999923706055,30.100000381469727,1200.0,29.768390655517578
2018-06-07,30.03499984741211,30.03499984741211,30.03499984741211,30.03499984741211,200.0,29.704105377197266
2018-06-08,30.079999923706055,30.0,30.0,30.079999923706055,1200.0,29.74860954284668
2018-06-11,30.209999084472656,30.190000534057617,30.209999084472656,30.190000534057617,200.0,29.857398986816406
2018-06-12,30.309999465942383,30.170000076293945,30.309999465942383,30.170000076293945,5200.0,29.837617874145508
2018-06-13,30.149999618530273,30.108999252319336,30.149999618530273,30.108999252319336,800.0,29.77729034423828
2018-06-14,30.100000381469727,30.059999465942383,30.100000381469727,30.059999465942383,1300.0,29.728830337524414
2018-06-15,30.049999237060547,30.049999237060547,30.049999237060547,30.049999237060547,200.0,29.71893882751465
2018-06-18,30.219999313354492,30.219999313354492,30.219999313354492,30.219999313354492,100.0,29.887065887451172
2018-06-19,30.3700008392334,30.209999084472656,30.209999084472656,30.3700008392334,600.0,30.035415649414062
2018-06-20,30.3700008392334,30.3700008392334,30.3700008392334,30.3700008392334,0.0,30.035415649414062
2018-06-21,30.290000915527344,30.290000915527344,30.290000915527344,30.290000915527344,1600.0,29.956296920776367
2018-06-22,30.3799991607666,30.200000762939453,30.3799991607666,30.200000762939453,4000.0,29.86728858947754
2018-06-25,29.972999572753906,29.969999313354492,29.972000122070312,29.972999572753906,2800.0,29.64278793334961
2018-06-26,30.215999603271484,30.190000534057617,30.190000534057617,30.190000534057617,3000.0,29.857398986816406
2018-06-27,29.899999618530273,29.899999618530273,29.899999618530273,29.899999618530273,300.0,29.570592880249023
2018-06-28,29.559999465942383,29.559999465942383,29.559999465942383,29.559999465942383,300.0,29.234338760375977
2018-06-29,29.559999465942383,29.559999465942383,29.559999465942383,29.559999465942383,0.0,29.234338760375977
2018-07-02,29.540000915527344,29.540000915527344,29.540000915527344,29.540000915527344,400.0,29.21455955505371
2018-07-03,29.540000915527344,29.540000915527344,29.540000915527344,29.540000915527344,0.0,29.21455955505371
2018-07-05,29.540000915527344,29.540000915527344,29.540000915527344,29.540000915527344,0.0,29.21455955505371
2018-07-06,30.459999084472656,30.450000762939453,30.459999084472656,30.450000762939453,1700.0,30.114534378051758
2018-07-09,30.65999984741211,30.65999984741211,30.65999984741211,30.65999984741211,200.0,30.322219848632812
2018-07-10,30.829999923706055,30.594999313354492,30.829999923706055,30.6299991607666,3200.0,30.29254913330078
2018-07-11,30.6299991607666,30.6299991607666,30.6299991607666,30.6299991607666,0.0,30.29254913330078
2018-07-12,30.239999771118164,30.209999084472656,30.219999313354492,30.209999084472656,1200.0,29.87717628479004
2018-07-13,30.209999084472656,30.209999084472656,30.209999084472656,30.209999084472656,0.0,29.87717628479004
2018-07-16,30.31999969482422,30.0,30.31999969482422,30.0,500.0,29.669490814208984
2018-07-17,30.0,30.0,30.0,30.0,0.0,29.669490814208984
2018-07-18,30.239999771118164,30.239999771118164,30.239999771118164,30.239999771118164,300.0,29.90684700012207
2018-07-19,30.170000076293945,30.167999267578125,30.170000076293945,30.167999267578125,700.0,29.83563995361328
2018-07-20,30.3700008392334,30.34000015258789,30.360000610351562,30.34000015258789,500.0,30.00574493408203
2018-07-23,30.34000015258789,30.34000015258789,30.34000015258789,30.34000015258789,0.0,30.00574493408203
2018-07-24,30.34000015258789,30.34000015258789,30.34000015258789,30.34000015258789,0.0,30.00574493408203
2018-07-25,30.145000457763672,30.0,30.079999923706055,30.0,1000.0,29.669490814208984
2018-07-26,30.0,30.0,30.0,30.0,0.0,29.669490814208984
2018-07-27,30.489999771118164,30.489999771118164,30.489999771118164,30.489999771118164,500.0,30.15409278869629
2018-07-30,29.809999465942383,29.788999557495117,29.809999465942383,29.788999557495117,600.0,29.4608154296875
2018-07-31,30.030000686645508,30.030000686645508,30.030000686645508,30.030000686645508,1600.0,29.699161529541016
2018-08-01,30.030000686645508,30.030000686645508,30.030000686645508,30.030000686645508,0.0,29.699161529541016
2018-08-02,30.1299991607666,30.030000686645508,30.030000686645508,30.11400032043457,1600.0,29.782236099243164
2018-08-03,30.100000381469727,30.020000457763672,30.100000381469727,30.03499984741211,1100.0,29.704105377197266
2018-08-06,30.209999084472656,30.202999114990234,30.209999084472656,30.202999114990234,1300.0,29.870254516601562
2018-08-07,30.34000015258789,30.316999435424805,30.34000015258789,30.316999435424805,2000.0,29.98299789428711
2018-08-08,30.309999465942383,30.270000457763672,30.270000457763672,30.290000915527344,2300.0,29.956296920776367
2018-08-09,30.389999389648438,30.389999389648438,30.389999389648438,30.389999389648438,1000.0,30.055192947387695
2018-08-10,30.309999465942383,30.260000228881836,30.309999465942383,30.260000228881836,3200.0,29.926626205444336
2018-08-13,30.190000534057617,30.180999755859375,30.190000534057617,30.180999755859375,2000.0,29.84849739074707
2018-08-14,30.3799991607666,30.25200080871582,30.3700008392334,30.320999145507812,2900.0,29.986953735351562
2018-08-15,30.170000076293945,29.809999465942383,30.170000076293945,29.920000076293945,5200.0,29.59037208557129
2018-08-16,30.170000076293945,30.170000076293945,30.170000076293945,30.170000076293945,1000.0,29.837617874145508
2018-08-17,30.15999984741211,30.15999984741211,30.15999984741211,30.15999984741211,600.0,29.827728271484375
2018-08-20,30.437000274658203,30.3700008392334,30.3700008392334,30.437000274658203,1800.0,30.10167694091797
2018-08-21,30.84000015258789,30.652000427246094,30.652000427246094,30.84000015258789,1100.0,30.50023651123047
2018-08-22,30.850000381469727,30.802000045776367,30.802000045776367,30.84000015258789,2300.0,30.50023651123047
2018-08-23,30.84000015258789,30.84000015258789,30.84000015258789,30.84000015258789,0.0,30.50023651123047
2018-08-24,30.899999618530273,30.760000228881836,30.899999618530273,30.760000228881836,1100.0,30.421117782592773
2018-08-27,30.84000015258789,30.84000015258789,30.84000015258789,30.84000015258789,1600.0,30.50023651123047
2018-08-28,31.0,30.780000686645508,31.0,30.799999237060547,50200.0,30.460676193237305
2018-08-29,30.799999237060547,30.799999237060547,30.799999237060547,30.799999237060547,0.0,30.460676193237305
2018-08-30,30.829999923706055,30.829999923706055,30.829999923706055,30.829999923706055,1000.0,30.490346908569336
2018-08-31,30.829999923706055,30.719999313354492,30.719999313354492,30.829999923706055,9200.0,30.490346908569336
2018-09-04,30.829999923706055,30.829999923706055,30.829999923706055,30.829999923706055,0.0,30.490346908569336
2018-09-05,30.829999923706055,30.829999923706055,30.829999923706055,30.829999923706055,0.0,30.490346908569336
2018-09-06,30.719999313354492,30.70800018310547,30.719999313354492,30.70800018310547,2000.0,30.369691848754883
2018-09-07,30.520000457763672,30.350000381469727,30.520000457763672,30.350000381469727,18300.0,30.015636444091797
2018-09-10,30.350000381469727,30.350000381469727,30.350000381469727,30.350000381469727,0.0,30.015636444091797
2018-09-11,30.229999542236328,30.229999542236328,30.229999542236328,30.229999542236328,800.0,29.896957397460938
2018-09-12,30.350000381469727,30.18000030517578,30.18000030517578,30.350000381469727,1200.0,30.015636444091797
2018-09-13,30.290000915527344,30.239999771118164,30.260000228881836,30.290000915527344,12200.0,29.956296920776367
2018-09-14,30.290000915527344,30.290000915527344,30.290000915527344,30.290000915527344,0.0,29.956296920776367
2018-09-17,30.290000915527344,30.290000915527344,30.290000915527344,30.290000915527344,0.0,29.956296920776367
2018-09-18,30.149999618530273,30.149999618530273,30.149999618530273,30.149999618530273,600.0,29.817838668823242
2018-09-19,30.040000915527344,30.040000915527344,30.040000915527344,30.040000915527344,500.0,29.70905113220215
2018-09-20,30.358999252319336,30.260000228881836,30.260000228881836,30.358999252319336,12300.0,30.0245361328125
2018-09-21,30.399999618530273,30.3799991607666,30.3799991607666,30.399999618530273,1200.0,30.06508445739746
2018-09-24,30.350000381469727,30.350000381469727,30.350000381469727,30.350000381469727,900.0,30.015636444091797
2018-09-25,30.139999389648438,30.139999389648438,30.139999389648438,30.139999389648438,400.0,29.807947158813477
2018-09-26,30.1200008392334,30.1200008392334,30.1200008392334,30.1200008392334,100.0,29.788169860839844
2018-09-27,29.959999084472656,29.959999084472656,29.959999084472656,29.959999084472656,400.0,29.62993049621582
2018-09-28,30.040000915527344,30.000999450683594,30.000999450683594,30.040000915527344,1100.0,29.70905113220215
2018-10-01,29.940000534057617,29.940000534057617,29.940000534057617,29.940000534057617,200.0,29.610153198242188
2018-10-02,29.940000534057617,29.940000534057617,29.940000534057617,29.940000534057617,0.0,29.610153198242188
2018-10-03,29.940000534057617,29.940000534057617,29.940000534057617,29.940000534057617,0.0,29.610153198242188
2018-10-04,29.426000595092773,29.426000595092773,29.426000595092773,29.426000595092773,1000.0,29.101816177368164
2018-10-05,29.739999771118164,29.030000686645508,29.739999771118164,29.139999389648438,1900.0,28.818965911865234
2018-10-08,29.100000381469727,28.940000534057617,29.079999923706055,28.979999542236328,500.0,28.660728454589844
2018-10-09,29.15999984741211,29.020000457763672,29.1200008392334,29.049999237060547,1100.0,28.729955673217773
2018-10-10,28.84000015258789,28.799999237060547,28.799999237060547,28.84000015258789,200.0,28.52227020263672
2018-10-11,28.200000762939453,27.979999542236328,28.200000762939453,28.06999969482422,1200.0,27.760753631591797
2018-10-12,28.149999618530273,27.950000762939453,28.149999618530273,27.950000762939453,500.0,27.64207649230957
2018-10-15,28.059999465942383,27.799999237060547,27.899999618530273,28.059999465942383,1600.0,27.750864028930664
2018-10-16,28.639999389648438,28.040000915527344,28.06999969482422,28.639999389648438,1400.0,28.324474334716797
2018-10-17,28.559999465942383,28.399999618530273,28.520000457763672,28.549999237060547,500.0,28.235464096069336
2018-10-18,28.420000076293945,28.329999923706055,28.420000076293945,28.329999923706055,400.0,28.01788902282715
2018-10-19,28.329999923706055,28.329999923706055,28.329999923706055,28.329999923706055,0.0,28.01788902282715
2018-10-22,27.790000915527344,27.729999542236328,27.75,27.729999542236328,700.0,27.42449951171875
2018-10-23,27.65999984741211,27.65999984741211,27.65999984741211,27.65999984741211,100.0,27.355270385742188
2018-10-24,27.209999084472656,26.81999969482422,27.209999084472656,26.81999969482422,3900.0,26.524524688720703
2018-10-25,26.81999969482422,26.81999969482422,26.81999969482422,26.81999969482422,0.0,26.524524688720703
2018-10-26,26.829999923706055,26.825000762939453,26.825000762939453,26.829999923706055,1900.0,26.534414291381836
2018-10-29,27.469999313354492,27.229999542236328,27.3799991607666,27.299999237060547,1700.0,26.999235153198242
2018-10-30,27.3799991607666,27.209999084472656,27.270000457763672,27.31999969482422,700.0,27.01901626586914
2018-10-31,27.649999618530273,27.639999389648438,27.649999618530273,27.639999389648438,2000.0,27.335491180419922
2018-11-01,27.8799991607666,27.84000015258789,27.850000381469727,27.844999313354492,1500.0,27.538232803344727
2018-11-02,28.299999237060547,28.079999923706055,28.299999237060547,28.260000228881836,2800.0,27.948659896850586
2018-11-05,28.25,28.1200008392334,28.1200008392334,28.21500015258789,1500.0,27.904155731201172
2018-11-06,28.21500015258789,28.21500015258789,28.21500015258789,28.21500015258789,0.0,27.904155731201172
2018-11-07,28.68000030517578,28.329999923706055,28.389999389648438,28.631999969482422,700.0,28.31656265258789
2018-11-08,28.729999542236328,28.540000915527344,28.719999313354492,28.59000015258789,6500.0,28.2750244140625
2018-11-09,28.350000381469727,28.1299991607666,28.350000381469727,28.1299991607666,2800.0,27.820091247558594
2018-11-12,27.920000076293945,27.700000762939453,27.81999969482422,27.709999084472656,10600.0,27.40471839904785
2018-11-13,27.860000610351562,27.56999969482422,27.860000610351562,27.56999969482422,2000.0,27.26626205444336
2018-11-14,27.6299991607666,27.555999755859375,27.6299991607666,27.555999755859375,2000.0,27.252416610717773
2018-11-15,27.729999542236328,27.34000015258789,27.34000015258789,27.61400032043457,6700.0,27.309778213500977
2018-11-16,27.799999237060547,27.520000457763672,27.65999984741211,27.790000915527344,9500.0,27.48383903503418
2018-11-19,27.5,27.469999313354492,27.489999771118164,27.469999313354492,600.0,27.1673641204834
2018-11-20,27.139999389648438,26.940000534057617,27.139999389648438,26.940000534057617,3200.0,26.643203735351562
2018-11-21,27.270000457763672,26.979999542236328,27.079999923706055,27.270000457763672,2900.0,26.969568252563477
2018-11-23,27.200000762939453,27.149999618530273,27.149999618530273,27.200000762939453,300.0,26.900339126586914
2018-11-26,27.469999313354492,27.170000076293945,27.170000076293945,27.25,3500.0,26.949787139892578
2018-11-27,27.25,27.25,27.25,27.25,0.0,26.949787139892578
2018-11-28,27.440000534057617,27.0,27.440000534057617,27.200000762939453,1700.0,26.900339126586914
2018-11-29,27.760000228881836,27.600000381469727,27.68000030517578,27.760000228881836,1400.0,27.45417022705078
2018-11-30,27.719999313354492,27.530000686645508,27.68000030517578,27.530000686645508,5800.0,27.226703643798828
2018-12-03,27.8700008392334,27.729999542236328,27.8700008392334,27.729999542236328,400.0,27.42449951171875
2018-12-04,27.68000030517578,26.8700008392334,27.68000030517578,26.950000762939453,900.0,26.653093338012695
2018-12-06,26.43000030517578,26.219999313354492,26.43000030517578,26.219999313354492,800.0,25.931135177612305
2018-12-07,26.6299991607666,26.450000762939453,26.6299991607666,26.450000762939453,500.0,26.158601760864258
2018-12-10,25.950000762939453,25.610000610351562,25.950000762939453,25.950000762939453,2100.0,25.66411018371582
2018-12-11,26.15999984741211,25.889999389648438,26.15999984741211,25.889999389648438,600.0,25.60477066040039
2018-12-12,26.18000030517578,26.1200008392334,26.1200008392334,26.1299991607666,3800.0,25.842124938964844
2018-12-13,25.899999618530273,25.899999618530273,25.899999618530273,25.899999618530273,100.0,25.614660263061523
2018-12-14,25.690000534057617,25.290000915527344,25.690000534057617,25.290000915527344,700.0,25.011381149291992
2018-12-17,25.31999969482422,25.049999237060547,25.049999237060547,25.110000610351562,800.0,24.833364486694336
2018-12-18,25.006000518798828,24.969999313354492,24.969999313354492,25.006000518798828,500.0,24.730510711669922
2018-12-19,25.06999969482422,24.59000015258789,25.040000915527344,24.59000015258789,1000.0,24.319093704223633
2018-12-20,24.440000534057617,23.899999618530273,24.389999389648438,24.15999984741211,1600.0,23.893829345703125
2018-12-21,24.0,23.920000076293945,24.0,23.920000076293945,300.0,23.656475067138672
2018-12-24,23.649999618530273,23.469999313354492,23.469999313354492,23.600000381469727,600.0,23.34000015258789
2018-12-26,23.020000457763672,23.020000457763672,23.020000457763672,23.020000457763672,100.0,23.020000457763672
2018-12-27,23.81999969482422,23.469999313354492,23.65999984741211,23.81999969482422,1000.0,23.81999969482422
2018-12-28,24.440000534057617,24.0,24.079999923706055,24.299999237060547,2000.0,24.299999237060547
2018-12-31,24.170000076293945,24.09000015258789,24.170000076293945,24.099000930786133,3700.0,24.099000930786133
2019-01-02,24.149999618530273,24.125,24.139999389648438,24.149999618530273,600.0,24.149999618530273
2019-01-03,24.459999084472656,24.1200008392334,24.190000534057617,24.219999313354492,1500.0,24.219999313354492
2019-01-04,24.989999771118164,24.989999771118164,24.989999771118164,24.989999771118164,100.0,24.989999771118164
2019-01-07,25.5,25.395000457763672,25.5,25.398000717163086,2400.0,25.398000717163086
2019-01-08,25.600000381469727,25.450000762939453,25.600000381469727,25.469999313354492,500.0,25.469999313354492
2019-01-09,26.010000228881836,25.84000015258789,25.84000015258789,26.010000228881836,600.0,26.010000228881836
2019-01-10,26.020000457763672,25.84000015258789,25.8700008392334,25.84000015258789,700.0,25.84000015258789
2019-01-11,26.06999969482422,25.84000015258789,25.850000381469727,26.040000915527344,1300.0,26.040000915527344
2019-01-14,26.040000915527344,26.040000915527344,26.040000915527344,26.040000915527344,0.0,26.040000915527344
2019-01-15,26.040000915527344,26.040000915527344,26.040000915527344,26.040000915527344,0.0,26.040000915527344
2019-01-16,26.3700008392334,26.290000915527344,26.3700008392334,26.290000915527344,1200.0,26.290000915527344
2019-01-17,26.450000762939453,26.450000762939453,26.450000762939453,26.450000762939453,100.0,26.450000762939453
2019-01-18,26.899999618530273,26.850000381469727,26.8799991607666,26.850000381469727,400.0,26.850000381469727
2019-01-22,26.649999618530273,26.6200008392334,26.649999618530273,26.6200008392334,200.0,26.6200008392334
2019-01-23,26.559999465942383,26.23699951171875,26.559999465942383,26.23699951171875,500.0,26.23699951171875
2019-01-24,26.31999969482422,26.270000457763672,26.309999465942383,26.270000457763672,500.0,26.270000457763672
2019-01-25,26.743000030517578,26.729999542236328,26.743000030517578,26.729999542236328,1700.0,26.729999542236328
2019-01-28,26.639999389648438,26.639999389648438,26.639999389648438,26.639999389648438,100.0,26.639999389648438
2019-01-29,26.6200008392334,26.600000381469727,26.600000381469727,26.6200008392334,200.0,26.6200008392334
2019-01-30,26.59000015258789,26.59000015258789,26.59000015258789,26.59000015258789,100.0,26.59000015258789
2019-01-31,26.809999465942383,26.770000457763672,26.799999237060547,26.809999465942383,1900.0,26.809999465942383
2019-02-01,26.959999084472656,26.81999969482422,26.81999969482422,26.959999084472656,500.0,26.959999084472656
2019-02-04,26.969999313354492,26.969999313354492,26.969999313354492,26.969999313354492,100.0,26.969999313354492
2019-02-05,27.260000228881836,27.260000228881836,27.260000228881836,27.260000228881836,100.0,27.260000228881836
2019-02-06,27.209999084472656,27.170000076293945,27.209999084472656,27.170000076293945,1100.0,27.170000076293945
2019-02-07,27.040000915527344,26.829999923706055,27.040000915527344,26.8439998626709,1700.0,26.8439998626709
2019-02-08,26.709999084472656,26.643999099731445,26.643999099731445,26.709999084472656,1200.0,26.709999084472656
2019-02-11,27.030000686645508,27.030000686645508,27.030000686645508,27.030000686645508,200.0,27.030000686645508
2019-02-12,27.43000030517578,27.336000442504883,27.336000442504883,27.43000030517578,1000.0,27.43000030517578
2019-02-13,27.59000015258789,27.510000228881836,27.59000015258789,27.510000228881836,2300.0,27.510000228881836
2019-02-14,27.770000457763672,27.7450008392334,27.75,27.770000457763672,1300.0,27.770000457763672
2019-02-15,28.15999984741211,28.15999984741211,28.15999984741211,28.15999984741211,100.0,28.15999984741211
2019-02-19,28.329999923706055,28.29599952697754,28.29599952697754,28.329999923706055,400.0,28.329999923706055
2019-02-20,28.350000381469727,28.34000015258789,28.34000015258789,28.350000381469727,900.0,28.350000381469727
2019-02-21,28.510000228881836,28.40999984741211,28.510000228881836,28.40999984741211,12300.0,28.40999984741211
2019-02-22,28.610000610351562,28.566999435424805,28.610000610351562,28.566999435424805,1200.0,28.566999435424805
2019-02-25,28.670000076293945,28.670000076293945,28.670000076293945,28.670000076293945,100.0,28.670000076293945
2019-02-26,28.670000076293945,28.670000076293945,28.670000076293945,28.670000076293945,0.0,28.670000076293945
2019-02-27,28.280000686645508,28.280000686645508,28.280000686645508,28.280000686645508,100.0,28.280000686645508
2019-02-28,28.280000686645508,28.280000686645508,28.280000686645508,28.280000686645508,100.0,28.280000686645508
2019-03-01,28.280000686645508,28.280000686645508,28.280000686645508,28.280000686645508,0.0,28.280000686645508
2019-03-04,28.15999984741211,28.110000610351562,28.110000610351562,28.15999984741211,1700.0,28.15999984741211
2019-03-05,28.15999984741211,28.15999984741211,28.15999984741211,28.15999984741211,100.0,28.15999984741211
2019-03-06,27.503999710083008,27.503999710083008,27.503999710083008,27.503999710083008,500.0,27.503999710083008
2019-03-07,27.32900047302246,27.170000076293945,27.319000244140625,27.170000076293945,3000.0,27.170000076293945
2019-03-08,27.149999618530273,27.149999618530273,27.149999618530273,27.149999618530273,400.0,27.149999618530273
2019-03-11,27.149999618530273,27.149999618530273,27.149999618530273,27.149999618530273,0.0,27.149999618530273
2019-03-12,27.149999618530273,27.149999618530273,27.149999618530273,27.149999618530273,0.0,27.149999618530273
2019-03-13,27.639999389648438,27.600000381469727,27.639999389648438,27.600000381469727,400.0,27.600000381469727
2019-03-14,27.386999130249023,27.386999130249023,27.386999130249023,27.386999130249023,200.0,27.386999130249023
2019-03-15,27.459999084472656,27.40999984741211,27.40999984741211,27.416000366210938,9100.0,27.416000366210938
2019-03-18,27.416000366210938,27.416000366210938,27.416000366210938,27.416000366210938,0.0,27.416000366210938
2019-03-19,27.420000076293945,27.420000076293945,27.420000076293945,27.420000076293945,400.0,27.420000076293945
2019-03-20,27.280000686645508,27.030000686645508,27.030000686645508,27.280000686645508,400.0,27.280000686645508
2019-03-21,27.219999313354492,27.219999313354492,27.219999313354492,27.219999313354492,100.0,27.219999313354492
2019-03-22,27.219999313354492,27.219999313354492,27.219999313354492,27.219999313354492,100.0,27.219999313354492
2019-03-25,27.219999313354492,27.219999313354492,27.219999313354492,27.219999313354492,0.0,27.219999313354492
2019-03-26,27.219999313354492,27.219999313354492,27.219999313354492,27.219999313354492,0.0,27.219999313354492
2019-03-27,27.219999313354492,27.219999313354492,27.219999313354492,27.219999313354492,0.0,27.219999313354492
2019-03-28,27.219999313354492,27.219999313354492,27.219999313354492,27.219999313354492,100.0,27.219999313354492
2019-03-29,27.219999313354492,27.219999313354492,27.219999313354492,27.219999313354492,0.0,27.219999313354492
2019-04-01,26.770000457763672,26.770000457763672,26.770000457763672,26.770000457763672,300.0,26.770000457763672
2019-04-02,27.030000686645508,27.010000228881836,27.030000686645508,27.010000228881836,400.0,27.010000228881836
2019-04-03,27.27400016784668,27.15999984741211,27.270000457763672,27.15999984741211,400.0,27.15999984741211
2019-04-04,27.15999984741211,27.15999984741211,27.15999984741211,27.15999984741211,0.0,27.15999984741211
2019-04-05,27.670000076293945,27.670000076293945,27.670000076293945,27.670000076293945,1700.0,27.670000076293945
2019-04-08,27.593000411987305,27.593000411987305,27.593000411987305,27.593000411987305,2000.0,27.593000411987305
2019-04-09,27.440000534057617,27.37700080871582,27.440000534057617,27.37700080871582,1400.0,27.37700080871582
2019-04-10,27.350000381469727,27.350000381469727,27.350000381469727,27.350000381469727,200.0,27.350000381469727
2019-04-11,27.350000381469727,27.350000381469727,27.350000381469727,27.350000381469727,0.0,27.350000381469727
2019-04-12,27.350000381469727,27.350000381469727,27.350000381469727,27.350000381469727,0.0,27.350000381469727
2019-04-15,27.350000381469727,27.350000381469727,27.350000381469727,27.350000381469727,0.0,27.350000381469727
2019-04-16,27.670000076293945,27.670000076293945,27.670000076293945,27.670000076293945,1000.0,27.670000076293945
2019-04-17,27.670000076293945,27.670000076293945,27.670000076293945,27.670000076293945,0.0,27.670000076293945
2019-04-18,27.670000076293945,27.670000076293945,27.670000076293945,27.670000076293945,100.0,27.670000076293945
2019-04-22,27.670000076293945,27.670000076293945,27.670000076293945,27.670000076293945,0.0,27.670000076293945
2019-04-23,27.729999542236328,27.3799991607666,27.3799991607666,27.729999542236328,2400.0,27.729999542236328
2019-04-24,27.719999313354492,27.719999313354492,27.719999313354492,27.719999313354492,200.0,27.719999313354492
2019-04-25,27.719999313354492,27.719999313354492,27.719999313354492,27.719999313354492,0.0,27.719999313354492
2019-04-26,27.719999313354492,27.719999313354492,27.719999313354492,27.719999313354492,0.0,27.719999313354492
2019-04-29,27.850000381469727,27.75,27.75,27.850000381469727,1100.0,27.850000381469727
2019-04-30,27.850000381469727,27.850000381469727,27.850000381469727,27.850000381469727,0.0,27.850000381469727
2019-05-01,27.850000381469727,27.850000381469727,27.850000381469727,27.850000381469727,0.0,27.850000381469727
2019-05-02,27.35300064086914,27.329999923706055,27.35300064086914,27.329999923706055,600.0,27.329999923706055
2019-05-03,27.940000534057617,27.65999984741211,27.65999984741211,27.940000534057617,300.0,27.940000534057617
2019-05-06,27.940000534057617,27.940000534057617,27.940000534057617,27.940000534057617,0.0,27.940000534057617
2019-05-07,27.940000534057617,27.940000534057617,27.940000534057617,27.940000534057617,100.0,27.940000534057617
2019-05-08,27.440000534057617,27.305999755859375,27.440000534057617,27.305999755859375,600.0,27.305999755859375
2019-05-09,27.010000228881836,26.969999313354492,26.969999313354492,27.010000228881836,900.0,27.010000228881836
2019-05-10,26.865999221801758,26.865999221801758,26.865999221801758,26.865999221801758,500.0,26.865999221801758
2019-05-13,26.865999221801758,26.865999221801758,26.865999221801758,26.865999221801758,0.0,26.865999221801758
2019-05-14,26.440000534057617,26.280000686645508,26.280000686645508,26.40999984741211,5400.0,26.40999984741211
2019-05-15,26.42799949645996,26.190000534057617,26.190000534057617,26.42799949645996,1500.0,26.42799949645996
2019-05-16,26.709999084472656,26.649999618530273,26.649999618530273,26.68000030517578,7800.0,26.68000030517578
2019-05-17,26.329999923706055,26.329999923706055,26.329999923706055,26.329999923706055,300.0,26.329999923706055
2019-05-20,26.066999435424805,25.93000030517578,25.93000030517578,26.030000686645508,4000.0,26.030000686645508
2019-05-21,26.280000686645508,26.139999389648438,26.280000686645508,26.239999771118164,500.0,26.239999771118164
2019-05-22,26.0,25.959999084472656,26.0,25.959999084472656,500.0,25.959999084472656
2019-05-23,25.489999771118164,25.219999313354492,25.489999771118164,25.219999313354492,12400.0,25.219999313354492
2019-05-24,25.540000915527344,25.3700008392334,25.540000915527344,25.466999053955078,1100.0,25.466999053955078
