Date,High,Low,Open,Close,Volume,Adj Close
2017-11-02,5.849999904632568,5.610000133514404,5.610000133514404,5.849999904632568,2300.0,5.849999904632568
2017-11-03,5.909999847412109,5.699999809265137,5.900000095367432,5.889999866485596,10900.0,5.889999866485596
2017-11-06,5.949999809265137,5.460000038146973,5.809999942779541,5.699999809265137,14600.0,5.699999809265137
2018-01-16,5.400000095367432,5.261000156402588,5.400000095367432,5.300000190734863,9900.0,5.300000190734863
2018-01-17,5.300000190734863,5.25,5.25,5.300000190734863,900.0,5.300000190734863
2018-01-18,5.349999904632568,5.269999980926514,5.349999904632568,5.269999980926514,4000.0,5.269999980926514
2018-01-19,5.369999885559082,5.260000228881836,5.269999980926514,5.260000228881836,9200.0,5.260000228881836
2018-01-22,5.260000228881836,5.210000038146973,5.260000228881836,5.21999979019165,2300.0,5.21999979019165
2018-01-23,5.243000030517578,5.21999979019165,5.21999979019165,5.243000030517578,500.0,5.243000030517578
2018-01-24,5.46999979019165,5.28000020980835,5.28000020980835,5.329999923706055,3700.0,5.329999923706055
2018-01-25,5.650000095367432,5.550000190734863,5.550000190734863,5.550000190734863,4600.0,5.550000190734863
2018-01-26,5.730000019073486,5.599999904632568,5.730000019073486,5.639999866485596,2900.0,5.639999866485596
2018-01-29,5.664999961853027,5.409999847412109,5.650000095367432,5.534999847412109,2700.0,5.534999847412109
2018-01-30,5.489999771118164,5.349999904632568,5.489999771118164,5.368000030517578,3700.0,5.368000030517578
2018-01-31,5.480000019073486,5.419000148773193,5.419000148773193,5.449999809265137,1300.0,5.449999809265137
2018-02-01,5.599999904632568,5.429999828338623,5.550000190734863,5.579999923706055,20700.0,5.579999923706055
2018-02-02,5.617000102996826,5.2179999351501465,5.599999904632568,5.519999980926514,26500.0,5.519999980926514
2018-02-05,5.53000020980835,5.409999847412109,5.510000228881836,5.489999771118164,6400.0,5.489999771118164
2018-02-06,5.480000019073486,5.416999816894531,5.480000019073486,5.434999942779541,4500.0,5.434999942779541
2018-02-07,5.639999866485596,5.460000038146973,5.639999866485596,5.5,2800.0,5.5
2018-02-08,5.610000133514404,5.5,5.5,5.598999977111816,11400.0,5.598999977111816
2018-02-09,5.639999866485596,5.5,5.5,5.639999866485596,10700.0,5.639999866485596
2018-02-12,5.630000114440918,5.579999923706055,5.579999923706055,5.599999904632568,3600.0,5.599999904632568
2018-02-13,5.798999786376953,5.650000095367432,5.650000095367432,5.798999786376953,14200.0,5.798999786376953
2018-02-14,5.800000190734863,5.75,5.800000190734863,5.75,5000.0,5.75
2018-02-15,5.734000205993652,5.659999847412109,5.734000205993652,5.659999847412109,300.0,5.659999847412109
2018-02-16,5.739999771118164,5.650000095367432,5.739999771118164,5.670000076293945,1700.0,5.670000076293945
2018-02-20,5.71999979019165,5.670000076293945,5.699999809265137,5.71999979019165,4000.0,5.71999979019165
2018-02-21,5.75,5.729000091552734,5.739999771118164,5.75,5200.0,5.75
2018-02-22,5.75,5.659999847412109,5.75,5.659999847412109,1500.0,5.659999847412109
2018-02-23,5.685999870300293,5.539999961853027,5.685999870300293,5.539999961853027,2700.0,5.539999961853027
2018-02-26,5.639999866485596,5.599999904632568,5.599999904632568,5.639999866485596,400.0,5.639999866485596
2018-02-27,5.599999904632568,5.550000190734863,5.599999904632568,5.560999870300293,1600.0,5.560999870300293
2018-02-28,6.099999904632568,5.590000152587891,5.699999809265137,5.590000152587891,10000.0,5.590000152587891
2018-03-01,5.679999828338623,5.611000061035156,5.611000061035156,5.679999828338623,2100.0,5.679999828338623
2018-03-02,5.71999979019165,5.559999942779541,5.679999828338623,5.71999979019165,5000.0,5.71999979019165
2018-03-05,5.880000114440918,5.699999809265137,5.699999809265137,5.880000114440918,1400.0,5.880000114440918
2018-03-06,5.900000095367432,5.710000038146973,5.848999977111816,5.710000038146973,8500.0,5.710000038146973
2018-03-07,5.800000190734863,5.730000019073486,5.750999927520752,5.730000019073486,3200.0,5.730000019073486
2018-03-08,5.979000091552734,5.800000190734863,5.849999904632568,5.800000190734863,8300.0,5.800000190734863
2018-03-09,5.829999923706055,5.789999961853027,5.818999767303467,5.829999923706055,2800.0,5.829999923706055
2018-03-12,5.849999904632568,5.809999942779541,5.849999904632568,5.809999942779541,2300.0,5.809999942779541
2018-03-13,5.96999979019165,5.800000190734863,5.829999923706055,5.829999923706055,6600.0,5.829999923706055
2018-03-14,5.960000038146973,5.869999885559082,5.940000057220459,5.869999885559082,6200.0,5.869999885559082
2018-03-15,5.960000038146973,5.889999866485596,5.949999809265137,5.889999866485596,400.0,5.889999866485596
2018-03-16,5.96999979019165,5.75,5.96999979019165,5.869999885559082,8700.0,5.869999885559082
2018-03-19,5.900000095367432,5.860000133514404,5.894000053405762,5.869999885559082,1200.0,5.869999885559082
2018-03-20,5.9070000648498535,5.880000114440918,5.880000114440918,5.880000114440918,4200.0,5.880000114440918
2018-03-21,5.940000057220459,5.699999809265137,5.761000156402588,5.888999938964844,12300.0,5.888999938964844
2018-03-22,5.870999813079834,5.789999961853027,5.821000099182129,5.820000171661377,3400.0,5.820000171661377
2018-03-23,5.889999866485596,5.75,5.760000228881836,5.889999866485596,1700.0,5.889999866485596
2018-03-26,6.0,5.869999885559082,5.921999931335449,5.96999979019165,11200.0,5.96999979019165
2018-03-27,5.949999809265137,5.889999866485596,5.929999828338623,5.889999866485596,8900.0,5.889999866485596
2018-03-28,5.90500020980835,5.828000068664551,5.889999866485596,5.828000068664551,7100.0,5.828000068664551
2018-03-29,5.840000152587891,5.840000152587891,5.840000152587891,5.840000152587891,300.0,5.840000152587891
2018-04-02,5.849999904632568,5.820000171661377,5.849999904632568,5.839000225067139,1800.0,5.839000225067139
2018-04-03,5.849999904632568,5.809999942779541,5.821000099182129,5.809999942779541,3000.0,5.809999942779541
2018-04-04,5.800000190734863,5.75,5.800000190734863,5.75,400.0,5.75
2018-04-05,5.75,5.75,5.75,5.75,0.0,5.75
2018-04-06,5.849999904632568,5.809999942779541,5.809999942779541,5.809999942779541,13400.0,5.809999942779541
2018-04-09,5.880000114440918,5.849999904632568,5.85099983215332,5.869999885559082,10400.0,5.869999885559082
2018-04-10,5.889999866485596,5.880000114440918,5.880000114440918,5.889999866485596,600.0,5.889999866485596
2018-04-11,5.900000095367432,5.849999904632568,5.889999866485596,5.849999904632568,7000.0,5.849999904632568
2018-04-12,5.860000133514404,5.849999904632568,5.85099983215332,5.860000133514404,9000.0,5.860000133514404
2018-04-13,5.889999866485596,5.849999904632568,5.861000061035156,5.889999866485596,7700.0,5.889999866485596
2018-04-16,5.889999866485596,5.849999904632568,5.849999904632568,5.880000114440918,14100.0,5.880000114440918
2018-04-17,6.043000221252441,5.849999904632568,5.920000076293945,5.86299991607666,23800.0,5.86299991607666
2018-04-18,6.070000171661377,5.880000114440918,5.896999835968018,5.880000114440918,8900.0,5.880000114440918
2018-04-19,5.980000019073486,5.949999809265137,5.980000019073486,5.96999979019165,2100.0,5.96999979019165
2018-04-20,6.013000011444092,5.0,6.002999782562256,5.861000061035156,8800.0,5.861000061035156
2018-04-23,5.929999828338623,5.860000133514404,5.929999828338623,5.860000133514404,1000.0,5.860000133514404
2018-04-24,6.050000190734863,5.880000114440918,5.980000019073486,6.050000190734863,17000.0,6.050000190734863
2018-04-25,6.079999923706055,5.869999885559082,6.050000190734863,5.872000217437744,12900.0,5.872000217437744
2018-04-26,6.0269999504089355,5.869999885559082,6.0269999504089355,5.869999885559082,2300.0,5.869999885559082
2018-04-27,6.039999961853027,5.880000114440918,5.940000057220459,6.039999961853027,700.0,6.039999961853027
2018-04-30,6.050000190734863,5.880000114440918,6.050000190734863,6.0,44500.0,6.0
2018-05-01,6.050000190734863,5.869999885559082,6.000999927520752,6.050000190734863,66200.0,6.050000190734863
2018-05-02,6.039999961853027,6.0,6.03000020980835,6.0,5000.0,6.0
2018-05-03,6.809999942779541,6.010000228881836,6.090000152587891,6.809999942779541,25900.0,6.809999942779541
2018-05-04,7.0,6.519999980926514,7.0,6.860000133514404,21900.0,6.860000133514404
2018-05-07,6.920000076293945,6.639999866485596,6.900000095367432,6.650000095367432,24500.0,6.650000095367432
2018-05-08,6.880000114440918,6.5,6.559999942779541,6.5,12900.0,6.5
2018-05-09,6.829999923706055,6.539999961853027,6.539999961853027,6.550000190734863,4800.0,6.550000190734863
2018-05-10,6.929999828338623,6.599999904632568,6.690000057220459,6.929999828338623,3300.0,6.929999828338623
2018-05-11,6.754000186920166,6.754000186920166,6.754000186920166,6.754000186920166,1100.0,6.754000186920166
2018-05-14,6.906000137329102,6.867000102996826,6.906000137329102,6.867000102996826,2000.0,6.867000102996826
2018-05-15,7.010000228881836,6.789999961853027,6.928999900817871,7.0,22700.0,7.0
2018-05-16,6.900000095367432,6.699999809265137,6.900000095367432,6.699999809265137,1400.0,6.699999809265137
2018-05-17,6.699999809265137,6.6579999923706055,6.659999847412109,6.699999809265137,700.0,6.699999809265137
2018-05-18,6.949999809265137,6.539999961853027,6.949999809265137,6.800000190734863,19900.0,6.800000190734863
2018-05-21,7.084000110626221,6.75,6.929999828338623,6.760000228881836,15700.0,6.760000228881836
2018-05-22,6.880000114440918,6.789999961853027,6.880000114440918,6.826000213623047,7600.0,6.826000213623047
2018-05-23,6.989999771118164,6.581999778747559,6.989999771118164,6.769999980926514,16800.0,6.769999980926514
2018-05-24,6.880000114440918,6.659999847412109,6.870999813079834,6.659999847412109,18900.0,6.659999847412109
2018-05-25,6.916999816894531,6.703999996185303,6.760000228881836,6.829999923706055,1100.0,6.829999923706055
2018-05-29,6.800000190734863,6.710000038146973,6.800000190734863,6.738999843597412,4000.0,6.738999843597412
2018-05-30,6.909999847412109,6.550000190734863,6.690000057220459,6.550000190734863,3900.0,6.550000190734863
2018-05-31,6.559999942779541,6.440000057220459,6.559999942779541,6.440000057220459,1100.0,6.440000057220459
2018-06-01,6.479000091552734,6.25,6.454999923706055,6.329999923706055,14200.0,6.329999923706055
2018-06-04,6.5,6.190999984741211,6.283999919891357,6.5,33100.0,6.5
2018-06-05,6.749000072479248,6.5,6.5,6.599999904632568,16200.0,6.599999904632568
2018-06-06,6.738999843597412,6.449999809265137,6.513000011444092,6.449999809265137,15700.0,6.449999809265137
2018-06-07,6.5,6.400000095367432,6.400000095367432,6.489999771118164,8600.0,6.489999771118164
2018-06-08,6.429999828338623,6.429999828338623,6.429999828338623,6.429999828338623,500.0,6.429999828338623
2018-06-11,6.389999866485596,6.21999979019165,6.340000152587891,6.340000152587891,9700.0,6.340000152587891
2018-06-12,6.650000095367432,6.2210001945495605,6.322999954223633,6.570000171661377,4300.0,6.570000171661377
2018-06-13,6.800000190734863,6.489999771118164,6.5,6.800000190734863,43600.0,6.800000190734863
2018-06-14,6.880000114440918,6.800000190734863,6.823999881744385,6.869999885559082,34400.0,6.869999885559082
2018-06-15,7.46999979019165,6.815000057220459,6.84499979019165,7.329999923706055,32200.0,7.329999923706055
2018-06-18,7.591000080108643,7.139999866485596,7.139999866485596,7.579999923706055,49300.0,7.579999923706055
2018-06-19,7.710000038146973,7.186999797821045,7.710000038146973,7.440000057220459,35100.0,7.440000057220459
2018-06-20,7.710000038146973,7.400000095367432,7.400000095367432,7.710000038146973,75900.0,7.710000038146973
2018-06-21,7.599999904632568,7.247000217437744,7.5,7.429999828338623,63100.0,7.429999828338623
2018-06-22,7.485000133514404,7.329999923706055,7.440000057220459,7.449999809265137,109000.0,7.449999809265137
2018-06-25,7.579999923706055,7.330999851226807,7.409999847412109,7.5,90000.0,7.5
2018-06-26,7.5,7.349999904632568,7.5,7.349999904632568,29400.0,7.349999904632568
2018-06-27,7.448999881744385,6.909999847412109,7.440000057220459,7.150000095367432,11000.0,7.150000095367432
2018-06-28,7.269999980926514,7.15500020980835,7.260000228881836,7.15500020980835,5800.0,7.15500020980835
2018-06-29,7.260000228881836,6.909999847412109,6.909999847412109,7.260000228881836,5400.0,7.260000228881836
2018-07-02,7.440000057220459,7.349999904632568,7.349999904632568,7.440000057220459,900.0,7.440000057220459
2018-07-03,7.449999809265137,7.199999809265137,7.449999809265137,7.210000038146973,2000.0,7.210000038146973
2018-07-05,7.340000152587891,7.170000076293945,7.340000152587891,7.260000228881836,6200.0,7.260000228881836
2018-07-06,7.429999828338623,7.298999786376953,7.360000133514404,7.320000171661377,5000.0,7.320000171661377
2018-07-09,7.370999813079834,7.284999847412109,7.284999847412109,7.369999885559082,8500.0,7.369999885559082
2018-07-10,7.550000190734863,7.418000221252441,7.449999809265137,7.429999828338623,38300.0,7.429999828338623
2018-07-11,7.429999828338623,7.429999828338623,7.429999828338623,7.429999828338623,0.0,7.429999828338623
2018-07-12,7.440000057220459,7.400000095367432,7.440000057220459,7.414999961853027,2200.0,7.414999961853027
2018-07-13,7.422999858856201,7.300000190734863,7.420000076293945,7.300000190734863,6000.0,7.300000190734863
2018-07-16,7.320000171661377,7.110000133514404,7.239999771118164,7.110000133514404,2600.0,7.110000133514404
2018-07-17,7.136000156402588,6.409999847412109,7.110000133514404,6.800000190734863,36700.0,6.800000190734863
2018-07-18,6.97599983215332,6.73799991607666,6.900000095367432,6.940000057220459,12100.0,6.940000057220459
2018-07-19,7.0,6.861999988555908,6.989999771118164,6.900000095367432,4600.0,6.900000095367432
2018-07-20,7.045000076293945,6.769999980926514,6.849999904632568,6.920000076293945,14900.0,6.920000076293945
2018-07-23,6.900000095367432,6.880000114440918,6.880000114440918,6.880000114440918,1100.0,6.880000114440918
2018-07-24,6.860000133514404,6.769999980926514,6.860000133514404,6.769999980926514,3000.0,6.769999980926514
2018-07-25,6.71999979019165,6.639999866485596,6.71999979019165,6.699999809265137,10900.0,6.699999809265137
2018-07-26,6.880000114440918,6.788000106811523,6.820000171661377,6.849999904632568,19400.0,6.849999904632568
2018-07-27,6.849999904632568,6.849999904632568,6.849999904632568,6.849999904632568,0.0,6.849999904632568
2018-07-30,6.880000114440918,6.820000171661377,6.820000171661377,6.820000171661377,900.0,6.820000171661377
2018-07-31,6.841000080108643,6.820000171661377,6.820000171661377,6.820000171661377,1600.0,6.820000171661377
2018-08-01,7.125,6.8460001945495605,6.849999904632568,7.035999774932861,51400.0,7.035999774932861
2018-08-02,7.5,7.113999843597412,7.400000095367432,7.46999979019165,95400.0,7.46999979019165
2018-08-03,7.5,6.800000190734863,7.480000019073486,7.099999904632568,65400.0,7.099999904632568
2018-08-06,7.289999961853027,7.019999980926514,7.099999904632568,7.083000183105469,9700.0,7.083000183105469
2018-08-07,7.255000114440918,7.050000190734863,7.079999923706055,7.210000038146973,30900.0,7.210000038146973
2018-08-08,7.517000198364258,7.400000095367432,7.46999979019165,7.5,22600.0,7.5
2018-08-09,7.5,7.389999866485596,7.449999809265137,7.46999979019165,48600.0,7.46999979019165
2018-08-10,7.320000171661377,7.15500020980835,7.320000171661377,7.159999847412109,35700.0,7.159999847412109
2018-08-13,7.199999809265137,7.0,7.199999809265137,7.010000228881836,4600.0,7.010000228881836
2018-08-14,7.198999881744385,7.050000190734863,7.059999942779541,7.070000171661377,5200.0,7.070000171661377
2018-08-15,7.150000095367432,7.070000171661377,7.150000095367432,7.110000133514404,3900.0,7.110000133514404
2018-08-16,7.139999866485596,7.110000133514404,7.139999866485596,7.110000133514404,400.0,7.110000133514404
2018-08-17,7.199999809265137,7.070000171661377,7.199999809265137,7.070000171661377,1900.0,7.070000171661377
2018-08-20,7.150000095367432,7.119999885559082,7.130000114440918,7.119999885559082,900.0,7.119999885559082
2018-08-21,7.099999904632568,7.0,7.070000171661377,7.03000020980835,13000.0,7.03000020980835
2018-08-22,7.150000095367432,6.931000232696533,7.150000095367432,6.949999809265137,13100.0,6.949999809265137
2018-08-23,7.0,6.956999778747559,7.0,6.980000019073486,9700.0,6.980000019073486
2018-08-24,7.179999828338623,6.991000175476074,6.991000175476074,7.019999980926514,7600.0,7.019999980926514
2018-08-27,7.550000190734863,7.050000190734863,7.489999771118164,7.550000190734863,30300.0,7.550000190734863
2018-08-28,7.559999942779541,7.301000118255615,7.559999942779541,7.360000133514404,37200.0,7.360000133514404
2018-08-29,7.5,7.197000026702881,7.478000164031982,7.421000003814697,5400.0,7.421000003814697
2018-08-30,7.429999828338623,7.429999828338623,7.429999828338623,7.429999828338623,3300.0,7.429999828338623
2018-08-31,7.489999771118164,7.369999885559082,7.489999771118164,7.369999885559082,7400.0,7.369999885559082
2018-09-04,7.400000095367432,7.110000133514404,7.369999885559082,7.289999961853027,13500.0,7.289999961853027
2018-09-05,7.389999866485596,7.215000152587891,7.215000152587891,7.242000102996826,3800.0,7.242000102996826
2018-09-06,7.25,7.0,7.139999866485596,7.230000019073486,11700.0,7.230000019073486
2018-09-07,7.440000057220459,7.28000020980835,7.28000020980835,7.420000076293945,27300.0,7.420000076293945
2018-09-10,7.559999942779541,7.380000114440918,7.400000095367432,7.427000045776367,35100.0,7.427000045776367
2018-09-11,8.875,7.383999824523926,7.420000076293945,8.125,40100.0,8.125
2018-09-12,8.5,7.699999809265137,8.130000114440918,7.767000198364258,34400.0,7.767000198364258
2018-09-13,7.050000190734863,6.800000190734863,6.889999866485596,6.809999942779541,1265500.0,6.809999942779541
2018-09-14,6.989999771118164,6.800000190734863,6.800000190734863,6.829999923706055,232500.0,6.829999923706055
2018-09-17,6.880000114440918,6.800000190734863,6.880000114440918,6.800000190734863,234800.0,6.800000190734863
2018-09-18,6.900000095367432,6.800000190734863,6.800000190734863,6.900000095367432,262500.0,6.900000095367432
2018-09-19,7.190000057220459,6.860000133514404,6.900000095367432,7.179999828338623,223800.0,7.179999828338623
2018-09-20,7.360000133514404,7.065000057220459,7.179999828338623,7.309999942779541,73600.0,7.309999942779541
2018-09-21,7.670000076293945,7.204999923706055,7.28000020980835,7.590000152587891,198300.0,7.590000152587891
2018-09-24,7.630000114440918,7.510000228881836,7.619999885559082,7.619999885559082,128200.0,7.619999885559082
2018-09-25,8.229999542236328,7.670000076293945,7.730000019073486,7.900000095367432,137100.0,7.900000095367432
2018-09-26,8.279999732971191,7.948999881744385,8.050000190734863,8.0,134500.0,8.0
2018-09-27,8.199999809265137,7.900000095367432,7.989999771118164,8.09000015258789,39400.0,8.09000015258789
2018-09-28,8.600000381469727,7.659999847412109,8.0600004196167,8.380000114440918,66600.0,8.380000114440918
2018-10-01,8.75,8.380000114440918,8.40999984741211,8.720000267028809,51800.0,8.720000267028809
2018-10-02,8.850000381469727,8.399999618530273,8.710000038146973,8.579999923706055,44700.0,8.579999923706055
2018-10-03,8.699999809265137,8.25,8.699999809265137,8.390000343322754,30300.0,8.390000343322754
2018-10-04,8.319999694824219,8.034000396728516,8.319999694824219,8.199999809265137,12400.0,8.199999809265137
2018-10-05,8.4399995803833,7.5,8.029999732971191,8.3100004196167,107000.0,8.3100004196167
2018-10-08,8.25,7.552000045776367,8.25,7.869999885559082,18500.0,7.869999885559082
2018-10-09,8.09000015258789,7.5,7.949999809265137,7.690000057220459,46200.0,7.690000057220459
2018-10-10,7.53000020980835,6.889999866485596,7.53000020980835,6.989999771118164,65300.0,6.989999771118164
2018-10-11,7.150000095367432,6.96999979019165,6.96999979019165,7.059999942779541,50000.0,7.059999942779541
2018-10-12,7.28000020980835,6.96999979019165,7.070000171661377,7.159999847412109,43800.0,7.159999847412109
2018-10-15,7.2210001945495605,6.5,6.809999942779541,6.670000076293945,270100.0,6.670000076293945
2018-10-16,7.150000095367432,6.610000133514404,6.619999885559082,6.880000114440918,107200.0,6.880000114440918
2018-10-17,6.940000057220459,6.300000190734863,6.940000057220459,6.559999942779541,95300.0,6.559999942779541
2018-10-18,6.800000190734863,6.230000019073486,6.559999942779541,6.46999979019165,117800.0,6.46999979019165
2018-10-19,6.449999809265137,5.59499979019165,6.380000114440918,5.619999885559082,294200.0,5.619999885559082
2018-10-22,6.150000095367432,5.684999942779541,5.690000057220459,6.110000133514404,205500.0,6.110000133514404
2018-10-23,6.389999866485596,5.960000038146973,6.070000171661377,6.25,182200.0,6.25
2018-10-24,6.389999866485596,6.03000020980835,6.210000038146973,6.170000076293945,59400.0,6.170000076293945
2018-10-25,6.400000095367432,6.159999847412109,6.159999847412109,6.28000020980835,26400.0,6.28000020980835
2018-10-26,6.380000114440918,6.010000228881836,6.199999809265137,6.090000152587891,70300.0,6.090000152587891
2018-10-29,6.2789998054504395,5.989999771118164,6.099999904632568,6.070000171661377,48300.0,6.070000171661377
2018-10-30,6.090000152587891,5.78000020980835,6.03000020980835,5.940000057220459,64300.0,5.940000057220459
2018-10-31,6.177999973297119,5.816999912261963,5.940000057220459,5.974999904632568,29700.0,5.974999904632568
2018-11-01,6.639999866485596,6.0,6.0,6.5,90800.0,6.5
2018-11-02,7.099999904632568,6.210000038146973,7.0,6.46999979019165,131600.0,6.46999979019165
2018-11-05,6.46999979019165,6.070000171661377,6.46999979019165,6.110000133514404,81200.0,6.110000133514404
2018-11-06,6.199999809265137,6.059999942779541,6.139999866485596,6.139999866485596,15000.0,6.139999866485596
2018-11-07,6.400000095367432,5.900000095367432,6.139999866485596,6.260000228881836,109100.0,6.260000228881836
2018-11-08,6.760000228881836,6.170000076293945,6.170000076293945,6.519999980926514,66200.0,6.519999980926514
2018-11-09,6.670000076293945,6.300000190734863,6.46999979019165,6.610000133514404,51200.0,6.610000133514404
2018-11-12,6.619999885559082,6.090000152587891,6.619999885559082,6.230000019073486,65200.0,6.230000019073486
2018-11-13,6.199999809265137,5.699999809265137,6.199999809265137,6.039999961853027,142900.0,6.039999961853027
2018-11-14,6.050000190734863,5.730000019073486,6.0,5.820000171661377,75800.0,5.820000171661377
2018-11-15,5.8379998207092285,5.369999885559082,5.760000228881836,5.579999923706055,88600.0,5.579999923706055
2018-11-16,5.869999885559082,5.547999858856201,5.570000171661377,5.849999904632568,18600.0,5.849999904632568
2018-11-19,6.076000213623047,5.809999942779541,5.840000152587891,5.880000114440918,10700.0,5.880000114440918
2018-11-20,6.215000152587891,5.710000038146973,6.183000087738037,5.800000190734863,55800.0,5.800000190734863
2018-11-21,6.195000171661377,5.769999980926514,6.0,5.789999961853027,52000.0,5.789999961853027
2018-11-23,6.09499979019165,5.610000133514404,5.690000057220459,5.670000076293945,20300.0,5.670000076293945
2018-11-26,5.690000057220459,5.510000228881836,5.659999847412109,5.679999828338623,72200.0,5.679999828338623
2018-11-27,5.940000057220459,5.570000171661377,5.630000114440918,5.940000057220459,38100.0,5.940000057220459
2018-11-28,5.934999942779541,5.619999885559082,5.929999828338623,5.849999904632568,45900.0,5.849999904632568
2018-11-29,6.056000232696533,5.309999942779541,5.78000020980835,5.309999942779541,87400.0,5.309999942779541
2018-11-30,5.89900016784668,5.389999866485596,5.389999866485596,5.840000152587891,43500.0,5.840000152587891
2018-12-03,6.409999847412109,5.699999809265137,5.961999893188477,5.760000228881836,51800.0,5.760000228881836
2018-12-04,5.952000141143799,5.449999809265137,5.880000114440918,5.760000228881836,26500.0,5.760000228881836
2018-12-06,6.050000190734863,5.610000133514404,5.690000057220459,5.769999980926514,106100.0,5.769999980926514
2018-12-07,5.820000171661377,5.309999942779541,5.820000171661377,5.519999980926514,68700.0,5.519999980926514
2018-12-10,5.75,5.3429999351501465,5.5,5.659999847412109,51100.0,5.659999847412109
2018-12-11,6.070000171661377,5.699999809265137,5.909999847412109,5.71999979019165,106300.0,5.71999979019165
2018-12-12,6.059999942779541,5.789999961853027,5.820000171661377,5.900000095367432,51600.0,5.900000095367432
2018-12-13,5.988999843597412,5.71999979019165,5.889999866485596,5.800000190734863,42400.0,5.800000190734863
2018-12-14,5.78000020980835,5.599999904632568,5.78000020980835,5.739999771118164,27100.0,5.739999771118164
2018-12-17,5.73199987411499,5.519999980926514,5.639999866485596,5.679999828338623,23600.0,5.679999828338623
2018-12-18,5.860000133514404,5.510000228881836,5.610000133514404,5.849999904632568,62500.0,5.849999904632568
2018-12-19,6.051000118255615,5.610000133514404,5.840000152587891,5.849999904632568,68300.0,5.849999904632568
2018-12-20,5.999000072479248,5.690000057220459,5.929999828338623,5.809999942779541,18800.0,5.809999942779541
2018-12-21,6.21999979019165,5.610000133514404,5.889999866485596,6.159999847412109,138900.0,6.159999847412109
2018-12-24,6.400000095367432,6.054999828338623,6.159999847412109,6.119999885559082,114500.0,6.119999885559082
2018-12-26,6.394999980926514,6.019999980926514,6.019999980926514,6.289999961853027,37400.0,6.289999961853027
2018-12-27,6.46999979019165,6.281000137329102,6.353000164031982,6.400000095367432,7900.0,6.400000095367432
2018-12-28,7.340000152587891,6.400000095367432,6.409999847412109,7.03000020980835,42800.0,7.03000020980835
2018-12-31,7.449999809265137,6.885000228881836,7.0,7.409999847412109,47500.0,7.409999847412109
2019-01-02,7.599999904632568,7.190000057220459,7.309999942779541,7.599999904632568,24300.0,7.599999904632568
2019-01-03,7.699999809265137,7.269999980926514,7.53000020980835,7.460000038146973,18800.0,7.460000038146973
2019-01-04,7.769999980926514,7.5,7.679999828338623,7.650000095367432,37400.0,7.650000095367432
2019-01-07,7.989999771118164,7.510000228881836,7.679999828338623,7.989999771118164,122500.0,7.989999771118164
2019-01-08,8.40999984741211,7.789999961853027,8.0,8.369999885559082,95500.0,8.369999885559082
2019-01-09,8.460000038146973,7.839000225067139,8.369999885559082,8.0,175000.0,8.0
2019-01-10,8.38700008392334,7.730000019073486,8.050000190734863,7.929999828338623,27400.0,7.929999828338623
2019-01-11,8.279999732971191,7.789000034332275,8.109999656677246,7.989999771118164,17900.0,7.989999771118164
2019-01-14,8.229999542236328,7.650000095367432,7.75,7.989999771118164,37100.0,7.989999771118164
2019-01-15,8.069999694824219,7.730000019073486,7.960000038146973,8.0,25900.0,8.0
2019-01-16,8.199999809265137,7.849999904632568,7.849999904632568,8.199999809265137,29600.0,8.199999809265137
2019-01-17,8.199999809265137,7.889999866485596,8.1899995803833,8.199999809265137,38800.0,8.199999809265137
2019-01-18,8.199999809265137,8.0,8.196000099182129,8.140000343322754,31300.0,8.140000343322754
2019-01-22,8.199999809265137,8.010000228881836,8.029999732971191,8.09000015258789,27500.0,8.09000015258789
2019-01-23,8.199999809265137,7.989999771118164,8.140000343322754,8.09000015258789,27200.0,8.09000015258789
2019-01-24,8.1899995803833,7.798999786376953,8.0600004196167,8.1899995803833,25700.0,8.1899995803833
2019-01-25,8.1899995803833,8.010000228881836,8.170000076293945,8.180000305175781,11700.0,8.180000305175781
2019-01-28,8.239999771118164,8.0600004196167,8.0600004196167,8.130000114440918,23200.0,8.130000114440918
2019-01-29,8.0,6.71999979019165,8.0,7.590000152587891,232300.0,7.590000152587891
2019-01-30,7.75,7.375,7.559999942779541,7.429999828338623,108800.0,7.429999828338623
2019-01-31,7.75,7.429999828338623,7.429999828338623,7.690000057220459,38600.0,7.690000057220459
2019-02-01,7.75,7.570000171661377,7.650000095367432,7.730000019073486,45800.0,7.730000019073486
2019-02-04,7.764999866485596,7.619999885559082,7.650000095367432,7.730000019073486,24700.0,7.730000019073486
2019-02-05,7.75,7.610000133514404,7.75,7.71999979019165,23100.0,7.71999979019165
2019-02-06,7.730000019073486,7.590000152587891,7.730000019073486,7.636000156402588,6300.0,7.636000156402588
2019-02-07,7.75,7.710000038146973,7.710000038146973,7.75,6500.0,7.75
2019-02-08,7.75,7.420000076293945,7.711999893188477,7.510000228881836,21900.0,7.510000228881836
2019-02-11,7.590000152587891,7.0,7.590000152587891,7.03000020980835,83000.0,7.03000020980835
2019-02-12,7.489999771118164,7.03000020980835,7.03000020980835,7.460000038146973,39700.0,7.460000038146973
2019-02-13,7.829999923706055,7.460000038146973,7.460000038146973,7.829999923706055,53900.0,7.829999923706055
2019-02-14,7.75,7.449999809265137,7.75,7.739999771118164,55400.0,7.739999771118164
2019-02-15,8.630000114440918,7.300000190734863,8.25,7.519999980926514,77100.0,7.519999980926514
2019-02-19,7.590000152587891,7.050000190734863,7.53000020980835,7.400000095367432,72500.0,7.400000095367432
2019-02-20,7.599999904632568,7.204999923706055,7.409999847412109,7.460000038146973,58400.0,7.460000038146973
2019-02-21,7.599999904632568,7.5,7.5,7.599999904632568,52400.0,7.599999904632568
2019-02-22,7.75,7.545000076293945,7.599999904632568,7.75,27300.0,7.75
2019-02-25,8.029999732971191,7.449999809265137,7.739999771118164,7.630000114440918,201200.0,7.630000114440918
2019-02-26,7.75,7.409999847412109,7.699999809265137,7.71999979019165,52900.0,7.71999979019165
2019-02-27,7.75,7.550000190734863,7.75,7.739999771118164,42200.0,7.739999771118164
2019-02-28,7.75,7.599999904632568,7.651000022888184,7.699999809265137,37000.0,7.699999809265137
2019-03-01,7.75,7.668000221252441,7.71999979019165,7.75,72300.0,7.75
2019-03-04,7.75,7.630000114440918,7.75,7.690000057220459,51100.0,7.690000057220459
2019-03-05,7.75,7.619999885559082,7.650000095367432,7.659999847412109,13800.0,7.659999847412109
2019-03-06,7.650000095367432,7.360000133514404,7.639999866485596,7.360000133514404,21400.0,7.360000133514404
2019-03-07,7.630000114440918,7.420000076293945,7.420000076293945,7.489999771118164,15500.0,7.489999771118164
2019-03-08,7.650000095367432,7.449999809265137,7.449999809265137,7.610000133514404,22700.0,7.610000133514404
2019-03-11,7.75,7.551000118255615,7.63100004196167,7.75,81900.0,7.75
2019-03-12,7.75,7.559999942779541,7.619999885559082,7.650000095367432,78600.0,7.650000095367432
2019-03-13,7.739999771118164,7.630000114440918,7.710000038146973,7.730000019073486,21000.0,7.730000019073486
2019-03-14,7.730000019073486,7.559999942779541,7.730000019073486,7.579999923706055,13800.0,7.579999923706055
2019-03-15,9.229999542236328,7.590000152587891,7.590000152587891,9.229999542236328,110100.0,9.229999542236328
2019-03-18,9.0,7.610000133514404,9.0,7.900000095367432,139200.0,7.900000095367432
2019-03-19,7.909999847412109,7.614999771118164,7.869999885559082,7.699999809265137,130700.0,7.699999809265137
2019-03-20,7.989999771118164,7.460000038146973,7.989999771118164,7.519999980926514,61700.0,7.519999980926514
2019-03-21,7.658999919891357,7.190000057220459,7.53000020980835,7.610000133514404,37700.0,7.610000133514404
2019-03-22,7.610000133514404,7.28000020980835,7.5,7.349999904632568,34400.0,7.349999904632568
2019-03-25,7.460000038146973,7.0,7.300000190734863,7.460000038146973,43400.0,7.460000038146973
2019-03-26,7.389999866485596,7.179999828338623,7.389999866485596,7.239999771118164,18800.0,7.239999771118164
2019-03-27,7.25,7.013000011444092,7.150000095367432,7.139999866485596,54100.0,7.139999866485596
2019-03-28,7.230000019073486,7.0,7.110000133514404,7.190000057220459,12300.0,7.190000057220459
2019-03-29,7.386000156402588,7.019999980926514,7.179999828338623,7.019999980926514,5500.0,7.019999980926514
2019-04-01,7.170000076293945,6.689000129699707,7.099999904632568,6.760000228881836,26900.0,6.760000228881836
2019-04-02,7.098999977111816,6.679999828338623,6.71999979019165,6.829999923706055,27800.0,6.829999923706055
2019-04-03,6.949999809265137,6.71999979019165,6.800000190734863,6.900000095367432,17900.0,6.900000095367432
2019-04-04,6.942999839782715,6.710000038146973,6.849999904632568,6.900000095367432,16000.0,6.900000095367432
2019-04-05,7.0,6.710000038146973,6.889999866485596,6.940000057220459,17200.0,6.940000057220459
2019-04-08,6.869999885559082,6.639999866485596,6.869999885559082,6.650000095367432,46200.0,6.650000095367432
2019-04-09,6.75,6.619999885559082,6.730000019073486,6.619999885559082,27900.0,6.619999885559082
2019-04-10,6.690000057220459,6.559999942779541,6.690000057220459,6.570000171661377,21900.0,6.570000171661377
2019-04-11,6.699999809265137,6.460000038146973,6.617000102996826,6.699999809265137,13200.0,6.699999809265137
2019-04-12,6.610000133514404,6.460000038146973,6.599999904632568,6.590000152587891,12000.0,6.590000152587891
2019-04-15,6.59499979019165,6.320000171661377,6.571000099182129,6.440000057220459,22800.0,6.440000057220459
2019-04-16,6.485000133514404,6.28000020980835,6.400000095367432,6.400000095367432,24300.0,6.400000095367432
2019-04-17,6.48199987411499,6.25,6.369999885559082,6.25,24400.0,6.25
2019-04-18,6.329999923706055,6.130000114440918,6.260000228881836,6.159999847412109,35500.0,6.159999847412109
2019-04-22,6.184999942779541,6.150000095367432,6.159999847412109,6.150000095367432,5000.0,6.150000095367432
2019-04-23,6.400000095367432,6.110000133514404,6.25,6.190000057220459,59800.0,6.190000057220459
2019-04-24,6.329999923706055,6.150000095367432,6.159999847412109,6.289999961853027,68200.0,6.289999961853027
2019-04-25,6.460000038146973,6.309999942779541,6.3420000076293945,6.389999866485596,30600.0,6.389999866485596
2019-04-26,6.369999885559082,6.175000190734863,6.340000152587891,6.300000190734863,12800.0,6.300000190734863
2019-04-29,6.5,6.239999771118164,6.357999801635742,6.5,28400.0,6.5
2019-04-30,6.696000099182129,6.300000190734863,6.599999904632568,6.429999828338623,41800.0,6.429999828338623
2019-05-01,6.46999979019165,6.170000076293945,6.380000114440918,6.21999979019165,24000.0,6.21999979019165
2019-05-02,6.309999942779541,6.170000076293945,6.300000190734863,6.179999828338623,34200.0,6.179999828338623
2019-05-03,6.760000228881836,6.159999847412109,6.159999847412109,6.320000171661377,45300.0,6.320000171661377
2019-05-06,6.5,6.239999771118164,6.388999938964844,6.389999866485596,11200.0,6.389999866485596
2019-05-07,6.480000019073486,6.269999980926514,6.269999980926514,6.40500020980835,18800.0,6.40500020980835
2019-05-08,6.672999858856201,6.150000095367432,6.586999893188477,6.320000171661377,45100.0,6.320000171661377
2019-05-09,6.474999904632568,6.244999885559082,6.354000091552734,6.381999969482422,64300.0,6.381999969482422
2019-05-10,5.869999885559082,5.349999904632568,5.869999885559082,5.380000114440918,280900.0,5.380000114440918
2019-05-13,5.880000114440918,5.21999979019165,5.309999942779541,5.579999923706055,209300.0,5.579999923706055
2019-05-14,5.827000141143799,5.539999961853027,5.599999904632568,5.539999961853027,39600.0,5.539999961853027
2019-05-15,5.809999942779541,5.380000114440918,5.510000228881836,5.429999828338623,52300.0,5.429999828338623
2019-05-16,5.644999980926514,5.349999904632568,5.623000144958496,5.400000095367432,52100.0,5.400000095367432
2019-05-17,5.920000076293945,5.269999980926514,5.743000030517578,5.525000095367432,23700.0,5.525000095367432
2019-05-20,5.440000057220459,5.289999961853027,5.400000095367432,5.369999885559082,21900.0,5.369999885559082
2019-05-21,5.739999771118164,5.400000095367432,5.494999885559082,5.710000038146973,25200.0,5.710000038146973
2019-05-22,5.760000228881836,5.5,5.75,5.619999885559082,19300.0,5.619999885559082
2019-05-23,5.626999855041504,5.53000020980835,5.626999855041504,5.53000020980835,15200.0,5.53000020980835
2019-05-24,5.690000057220459,5.510000228881836,5.690000057220459,5.599999904632568,16500.0,5.599999904632568
