Date,High,Low,Open,Close,Volume,Adj Close
2018-05-04,22.549999237060547,21.75,22.0,21.850000381469727,828000,21.850000381469727
2018-05-07,22.309999465942383,21.959999084472656,22.139999389648438,22.149999618530273,76000,22.149999618530273
2018-05-08,22.315000534057617,21.9950008392334,22.200000762939453,22.09000015258789,65200,22.09000015258789
2018-05-09,22.280000686645508,21.989999771118164,22.15399932861328,22.059999465942383,76800,22.059999465942383
2018-05-10,22.25,21.260000228881836,22.239999771118164,21.299999237060547,38600,21.299999237060547
2018-05-11,21.479999542236328,21.100000381469727,21.389999389648438,21.3799991607666,13600,21.3799991607666
2018-05-14,21.5,21.09000015258789,21.489999771118164,21.5,40700,21.5
2018-05-15,21.700000762939453,21.110000610351562,21.5,21.239999771118164,20400,21.239999771118164
2018-05-16,21.299999237060547,20.770000457763672,20.770000457763672,21.209999084472656,13500,21.209999084472656
2018-05-17,21.25,21.1200008392334,21.139999389648438,21.170000076293945,5100,21.170000076293945
2018-05-18,21.389999389648438,20.979999542236328,21.270000457763672,21.100000381469727,10900,21.100000381469727
2018-05-21,21.489999771118164,21.200000762939453,21.200000762939453,21.489999771118164,50400,21.489999771118164
2018-05-22,21.700000762939453,21.0,21.6200008392334,21.0,99100,21.0
2018-05-23,21.079999923706055,20.709999084472656,21.0,21.020000457763672,111500,21.020000457763672
2018-05-24,21.0,20.729999542236328,20.8799991607666,20.950000762939453,82200,20.950000762939453
2018-05-25,21.649999618530273,20.559999465942383,20.559999465942383,21.079999923706055,51500,21.079999923706055
2018-05-29,21.649999618530273,20.8799991607666,20.8799991607666,21.450000762939453,45800,21.450000762939453
2018-05-30,21.469999313354492,21.0,21.0,21.229999542236328,59400,21.229999542236328
2018-05-31,21.579999923706055,21.0,21.190000534057617,21.0,40700,21.0
2018-06-01,21.514999389648438,21.0,21.200000762939453,21.1200008392334,18800,21.1200008392334
2018-06-04,21.31999969482422,21.049999237060547,21.059999465942383,21.06999969482422,41400,21.06999969482422
2018-06-05,21.739999771118164,20.90999984741211,21.209999084472656,21.059999465942383,77100,21.059999465942383
2018-06-06,21.239999771118164,21.059999465942383,21.229999542236328,21.059999465942383,34700,21.059999465942383
2018-06-07,21.25,21.059999465942383,21.100000381469727,21.100000381469727,21800,21.100000381469727
2018-06-08,21.1299991607666,20.799999237060547,21.100000381469727,20.799999237060547,60000,20.799999237060547
2018-06-11,21.079999923706055,20.700000762939453,20.93000030517578,20.860000610351562,50900,20.860000610351562
2018-06-12,20.979999542236328,20.489999771118164,20.489999771118164,20.700000762939453,60700,20.700000762939453
2018-06-13,20.979999542236328,20.40999984741211,20.780000686645508,20.549999237060547,83600,20.549999237060547
2018-06-14,20.969999313354492,20.40999984741211,20.549999237060547,20.489999771118164,60500,20.489999771118164
2018-06-15,20.75,20.040000915527344,20.469999313354492,20.450000762939453,212000,20.450000762939453
2018-06-18,20.850000381469727,20.459999084472656,20.559999465942383,20.649999618530273,60700,20.649999618530273
2018-06-19,20.93000030517578,20.31999969482422,20.65999984741211,20.799999237060547,28300,20.799999237060547
2018-06-20,21.15999984741211,20.639999389648438,20.860000610351562,21.0,90900,21.0
2018-06-21,20.989999771118164,20.3700008392334,20.989999771118164,20.81999969482422,31600,20.81999969482422
2018-06-22,21.0,20.67099952697754,20.90999984741211,20.850000381469727,234300,20.850000381469727
2018-06-25,20.979999542236328,20.350000381469727,20.84000015258789,20.6299991607666,51800,20.6299991607666
2018-06-26,20.799999237060547,20.530000686645508,20.649999618530273,20.739999771118164,35200,20.739999771118164
2018-06-27,20.75,20.600000381469727,20.670000076293945,20.649999618530273,21500,20.649999618530273
2018-06-28,20.65999984741211,20.3799991607666,20.56999969482422,20.65999984741211,2900,20.65999984741211
2018-06-29,20.6200008392334,20.350000381469727,20.6200008392334,20.600000381469727,85400,20.600000381469727
2018-07-02,20.610000610351562,20.280000686645508,20.610000610351562,20.56999969482422,31800,20.56999969482422
2018-07-03,20.649999618530273,20.301000595092773,20.600000381469727,20.510000228881836,7200,20.510000228881836
2018-07-05,20.59000015258789,20.43000030517578,20.59000015258789,20.510000228881836,13800,20.510000228881836
2018-07-06,20.559999465942383,20.350000381469727,20.549999237060547,20.440000534057617,14800,20.440000534057617
2018-07-09,20.600000381469727,20.399999618530273,20.399999618530273,20.469999313354492,31300,20.469999313354492
2018-07-10,20.610000610351562,20.450000762939453,20.479999542236328,20.56999969482422,30900,20.56999969482422
2018-07-11,20.68000030517578,20.31999969482422,20.31999969482422,20.489999771118164,10900,20.489999771118164
2018-07-12,20.520000457763672,20.299999237060547,20.520000457763672,20.360000610351562,26300,20.360000610351562
2018-07-13,20.360000610351562,20.25,20.34000015258789,20.25,22600,20.25
2018-07-16,20.5,20.219999313354492,20.219999313354492,20.450000762939453,55700,20.450000762939453
2018-07-17,20.440000534057617,20.25,20.440000534057617,20.299999237060547,43500,20.299999237060547
2018-07-18,20.450000762939453,20.25,20.34000015258789,20.360000610351562,20500,20.360000610351562
2018-07-19,20.549999237060547,20.399999618530273,20.399999618530273,20.450000762939453,7400,20.450000762939453
2018-07-20,21.889999389648438,20.700000762939453,20.700000762939453,21.579999923706055,394400,21.579999923706055
2018-07-23,21.719999313354492,21.402999877929688,21.5,21.6200008392334,12500,21.6200008392334
2018-07-24,21.709999084472656,21.5,21.709999084472656,21.549999237060547,9100,21.549999237060547
2018-07-25,21.600000381469727,21.030000686645508,21.270000457763672,21.59000015258789,26600,21.59000015258789
2018-07-26,21.850000381469727,21.520000457763672,21.579999923706055,21.600000381469727,41500,21.600000381469727
2018-07-27,21.649999618530273,21.600000381469727,21.600000381469727,21.639999389648438,16100,21.639999389648438
2018-07-30,21.75,21.350000381469727,21.62700080871582,21.5,10500,21.5
2018-07-31,21.950000762939453,21.399999618530273,21.700000762939453,21.8799991607666,44300,21.8799991607666
2018-08-01,22.0,21.530000686645508,21.760000228881836,21.649999618530273,7700,21.649999618530273
2018-08-02,22.0,21.639999389648438,22.0,21.649999618530273,11800,21.649999618530273
2018-08-03,21.889999389648438,21.6299991607666,21.6299991607666,21.790000915527344,13400,21.790000915527344
2018-08-06,21.829999923706055,21.500999450683594,21.670000076293945,21.510000228881836,14300,21.510000228881836
2018-08-07,21.489999771118164,21.459999084472656,21.459999084472656,21.489999771118164,2100,21.489999771118164
2018-08-08,21.549999237060547,21.440000534057617,21.549999237060547,21.524999618530273,5700,21.524999618530273
2018-08-09,21.530000686645508,21.530000686645508,21.530000686645508,21.530000686645508,900,21.530000686645508
2018-08-10,21.600000381469727,21.450000762939453,21.489999771118164,21.479999542236328,7300,21.479999542236328
2018-08-13,21.549999237060547,21.399999618530273,21.399999618530273,21.549999237060547,2600,21.549999237060547
2018-08-14,21.649999618530273,21.399999618530273,21.642000198364258,21.579999923706055,16000,21.579999923706055
2018-08-15,21.64900016784668,21.459999084472656,21.459999084472656,21.530000686645508,4900,21.530000686645508
2018-08-16,21.81999969482422,21.450000762939453,21.549999237060547,21.75,24100,21.75
2018-08-17,22.559999465942383,21.760000228881836,21.760000228881836,22.5,63000,22.5
2018-08-20,22.559999465942383,21.608999252319336,22.559999465942383,22.079999923706055,7800,22.079999923706055
2018-08-21,22.25,22.040000915527344,22.209999084472656,22.110000610351562,3400,22.110000610351562
2018-08-22,22.200000762939453,21.299999237060547,21.40999984741211,21.979999542236328,20500,21.979999542236328
2018-08-23,22.200000762939453,21.75,21.979999542236328,21.93000030517578,8200,21.93000030517578
2018-08-24,22.0,21.6200008392334,21.6200008392334,21.959999084472656,7600,21.959999084472656
2018-08-27,22.0,21.604000091552734,22.0,21.770000457763672,10100,21.770000457763672
2018-08-28,21.93000030517578,21.469999313354492,21.690000534057617,21.84000015258789,10800,21.84000015258789
2018-08-29,21.899999618530273,21.56999969482422,21.899999618530273,21.56999969482422,1300,21.56999969482422
2018-08-30,21.889999389648438,21.5,21.649999618530273,21.81999969482422,12200,21.81999969482422
2018-08-31,21.84000015258789,21.56999969482422,21.84000015258789,21.56999969482422,1000,21.56999969482422
2018-09-04,21.84000015258789,21.309999465942383,21.469999313354492,21.84000015258789,27600,21.84000015258789
2018-09-05,21.84000015258789,21.600000381469727,21.84000015258789,21.809999465942383,4700,21.809999465942383
2018-09-06,22.0,21.68400001525879,21.704999923706055,21.850000381469727,8900,21.850000381469727
2018-09-07,22.540000915527344,21.60099983215332,21.969999313354492,22.219999313354492,31300,22.219999313354492
2018-09-10,22.209999084472656,21.889999389648438,21.889999389648438,22.190000534057617,13500,22.190000534057617
2018-09-11,22.25,21.600000381469727,22.049999237060547,22.059999465942383,29800,22.059999465942383
2018-09-12,22.18000030517578,21.860000610351562,22.18000030517578,22.170000076293945,2900,22.170000076293945
2018-09-13,22.049999237060547,21.565000534057617,22.020000457763672,21.6299991607666,13700,21.6299991607666
2018-09-14,21.850000381469727,21.65999984741211,21.850000381469727,21.760000228881836,1300,21.760000228881836
2018-09-17,21.851999282836914,21.649999618530273,21.649999618530273,21.809999465942383,2900,21.809999465942383
2018-09-18,21.86199951171875,21.600000381469727,21.75,21.600000381469727,6100,21.600000381469727
2018-09-19,21.90999984741211,21.5,21.5,21.700000762939453,51900,21.700000762939453
2018-09-20,21.90999984741211,21.59000015258789,21.59000015258789,21.81999969482422,7200,21.81999969482422
2018-09-21,22.0,21.100000381469727,21.780000686645508,22.0,35100,22.0
2018-09-24,22.0,21.059999465942383,21.760000228881836,21.549999237060547,45200,21.549999237060547
2018-09-25,21.906999588012695,21.118000030517578,21.906999588012695,21.760000228881836,9900,21.760000228881836
2018-09-26,21.868999481201172,21.43000030517578,21.799999237060547,21.670000076293945,14400,21.670000076293945
2018-09-27,21.739999771118164,21.469999313354492,21.469999313354492,21.559999465942383,19900,21.559999465942383
2018-09-28,22.0,21.260000228881836,21.295000076293945,21.59000015258789,10500,21.59000015258789
2018-10-01,21.59000015258789,21.290000915527344,21.40999984741211,21.59000015258789,5900,21.59000015258789
2018-10-02,21.25,21.0,21.149999618530273,21.06999969482422,5500,21.06999969482422
2018-10-03,21.5,20.899999618530273,21.010000228881836,21.5,14400,21.5
2018-10-04,21.59000015258789,20.850000381469727,21.59000015258789,21.479999542236328,3400,21.479999542236328
2018-10-05,21.530000686645508,21.360000610351562,21.360000610351562,21.530000686645508,2900,21.530000686645508
2018-10-08,21.579999923706055,21.020000457763672,21.56999969482422,21.489999771118164,4300,21.489999771118164
2018-10-09,21.53499984741211,21.469999313354492,21.479999542236328,21.5,5300,21.5
2018-10-10,21.59000015258789,21.32200050354004,21.32200050354004,21.469999313354492,7500,21.469999313354492
2018-10-11,21.19499969482422,21.04599952697754,21.04599952697754,21.100000381469727,1800,21.100000381469727
2018-10-12,21.559999465942383,20.570999145507812,21.559999465942383,21.0,11800,21.0
2018-10-15,21.59000015258789,20.577999114990234,21.260000228881836,21.239999771118164,8400,21.239999771118164
2018-10-16,21.5,20.628999710083008,21.5,21.145000457763672,11000,21.145000457763672
2018-10-17,21.312000274658203,20.56999969482422,21.0,20.56999969482422,7800,20.56999969482422
2018-10-18,21.09000015258789,20.299999237060547,21.09000015258789,20.399999618530273,6400,20.399999618530273
2018-10-19,20.3799991607666,19.299999237060547,20.299999237060547,19.299999237060547,14800,19.299999237060547
2018-10-22,20.030000686645508,19.100000381469727,20.030000686645508,19.239999771118164,9900,19.239999771118164
2018-10-23,20.334999084472656,16.700000762939453,19.0,20.25,70000,20.25
2018-10-24,21.170000076293945,18.777000427246094,20.270000457763672,21.170000076293945,29300,21.170000076293945
2018-10-25,21.1299991607666,18.600000381469727,21.030000686645508,21.100000381469727,10900,21.100000381469727
2018-10-26,21.100000381469727,20.5,20.979999542236328,20.729999542236328,25200,20.729999542236328
2018-10-29,21.18000030517578,20.149999618530273,20.610000610351562,21.149999618530273,16700,21.149999618530273
2018-10-30,21.239999771118164,21.0,21.149999618530273,21.030000686645508,128900,21.030000686645508
2018-10-31,21.299999237060547,20.8700008392334,21.15999984741211,20.8700008392334,8700,20.8700008392334
2018-11-01,20.700000762939453,19.149999618530273,20.270000457763672,20.010000228881836,29600,20.010000228881836
2018-11-02,20.399999618530273,19.68000030517578,19.68000030517578,19.75,82900,19.75
2018-11-05,19.75,19.219999313354492,19.510000228881836,19.350000381469727,21200,19.350000381469727
2018-11-06,19.40999984741211,18.770000457763672,19.40999984741211,18.950000762939453,22600,18.950000762939453
2018-11-07,19.229000091552734,18.5,18.6299991607666,18.610000610351562,9100,18.610000610351562
2018-11-08,18.940000534057617,18.43000030517578,18.530000686645508,18.700000762939453,33400,18.700000762939453
2018-11-09,18.875,18.600000381469727,18.600000381469727,18.700000762939453,5500,18.700000762939453
2018-11-12,19.059999465942383,18.350000381469727,18.780000686645508,18.450000762939453,17300,18.450000762939453
2018-11-13,19.149999618530273,18.360000610351562,19.149999618530273,18.65999984741211,9900,18.65999984741211
2018-11-14,19.030000686645508,18.469999313354492,18.850000381469727,18.989999771118164,19500,18.989999771118164
2018-11-15,19.149999618530273,18.360000610351562,18.760000228881836,18.920000076293945,15100,18.920000076293945
2018-11-16,19.899999618530273,18.350000381469727,18.93000030517578,19.510000228881836,45200,19.510000228881836
2018-11-19,19.600000381469727,18.639999389648438,19.600000381469727,19.190000534057617,34200,19.190000534057617
2018-11-20,19.40999984741211,18.6200008392334,18.6200008392334,19.280000686645508,10600,19.280000686645508
2018-11-21,19.5,19.200000762939453,19.200000762939453,19.309999465942383,3700,19.309999465942383
2018-11-23,20.559999465942383,19.200000762939453,19.360000610351562,20.559999465942383,18100,20.559999465942383
2018-11-26,20.700000762939453,18.850000381469727,19.8799991607666,19.809999465942383,29500,19.809999465942383
2018-11-27,19.700000762939453,19.149999618530273,19.674999237060547,19.649999618530273,38900,19.649999618530273
2018-11-28,20.430999755859375,19.315000534057617,19.809999465942383,20.149999618530273,22700,20.149999618530273
2018-11-29,21.450000762939453,20.149999618530273,20.229999542236328,20.610000610351562,15800,20.610000610351562
2018-11-30,20.579999923706055,19.770000457763672,20.579999923706055,20.299999237060547,11100,20.299999237060547
2018-12-03,21.989999771118164,19.81999969482422,20.770000457763672,21.809999465942383,117600,21.809999465942383
2018-12-04,22.0,21.34000015258789,21.350000381469727,21.790000915527344,58000,21.790000915527344
2018-12-06,22.0,21.239999771118164,21.81999969482422,21.770000457763672,127100,21.770000457763672
2018-12-07,22.600000381469727,21.1299991607666,21.850000381469727,21.540000915527344,337000,21.540000915527344
2018-12-10,22.280000686645508,20.530000686645508,21.65999984741211,21.90999984741211,71800,21.90999984741211
2018-12-11,22.239999771118164,19.422000885009766,21.989999771118164,22.18000030517578,168300,22.18000030517578
2018-12-12,22.579999923706055,21.459999084472656,22.290000915527344,22.09000015258789,114100,22.09000015258789
2018-12-13,22.540000915527344,20.545000076293945,21.75,22.040000915527344,97700,22.040000915527344
2018-12-14,22.56999969482422,20.139999389648438,22.1299991607666,21.979999542236328,95200,21.979999542236328
2018-12-17,22.114999771118164,21.149999618530273,22.020000457763672,21.15999984741211,111100,21.15999984741211
2018-12-18,21.739999771118164,20.920000076293945,21.1299991607666,21.09000015258789,99300,21.09000015258789
2018-12-19,21.860000610351562,20.530000686645508,21.100000381469727,20.8799991607666,103700,20.8799991607666
2018-12-20,20.979999542236328,19.059999465942383,20.649999618530273,20.079999923706055,95800,20.079999923706055
2018-12-21,21.969999313354492,19.31999969482422,20.079999923706055,21.329999923706055,841100,21.329999923706055
2018-12-24,21.229999542236328,20.649999618530273,21.229999542236328,20.649999618530273,9700,20.649999618530273
2018-12-26,21.5,20.62299919128418,20.889999389648438,21.479999542236328,37600,21.479999542236328
2018-12-27,21.424999237060547,20.3700008392334,21.260000228881836,21.200000762939453,75800,21.200000762939453
2018-12-28,22.09000015258789,20.65999984741211,21.309999465942383,21.75,130200,21.75
2018-12-31,22.809999465942383,21.187999725341797,22.0,22.780000686645508,97600,22.780000686645508
2019-01-02,22.889999389648438,21.979999542236328,22.889999389648438,22.600000381469727,88500,22.600000381469727
2019-01-03,22.6299991607666,21.700000762939453,22.440000534057617,22.479999542236328,26300,22.479999542236328
2019-01-04,22.649999618530273,22.280000686645508,22.280000686645508,22.5,73700,22.5
2019-01-07,23.530000686645508,22.450000762939453,22.5,23.18000030517578,73300,23.18000030517578
2019-01-08,23.329999923706055,22.642000198364258,23.329999923706055,22.8799991607666,16100,22.8799991607666
2019-01-09,23.040000915527344,22.722999572753906,23.040000915527344,22.850000381469727,8800,22.850000381469727
2019-01-10,22.9950008392334,22.40999984741211,22.84000015258789,22.59000015258789,17200,22.59000015258789
2019-01-11,22.43000030517578,22.139999389648438,22.43000030517578,22.3700008392334,10900,22.3700008392334
2019-01-14,22.700000762939453,21.941999435424805,22.290000915527344,21.959999084472656,13600,21.959999084472656
2019-01-15,22.297000885009766,21.656999588012695,22.079999923706055,22.200000762939453,42400,22.200000762939453
2019-01-16,22.334999084472656,21.549999237060547,22.010000228881836,21.75,44900,21.75
2019-01-17,22.209999084472656,21.709999084472656,21.75,21.709999084472656,28200,21.709999084472656
2019-01-18,22.0,21.709999084472656,21.709999084472656,21.719999313354492,12900,21.719999313354492
2019-01-22,21.719999313354492,21.350000381469727,21.6299991607666,21.440000534057617,14600,21.440000534057617
2019-01-23,21.889999389648438,21.209999084472656,21.59000015258789,21.299999237060547,19300,21.299999237060547
2019-01-24,21.329999923706055,21.010000228881836,21.329999923706055,21.329999923706055,7600,21.329999923706055
2019-01-25,21.850000381469727,21.399999618530273,21.469999313354492,21.670000076293945,12600,21.670000076293945
2019-01-28,21.65999984741211,21.329999923706055,21.420000076293945,21.579999923706055,14800,21.579999923706055
2019-01-29,21.700000762939453,21.3799991607666,21.5,21.389999389648438,7900,21.389999389648438
2019-01-30,21.860000610351562,21.510000228881836,21.510000228881836,21.799999237060547,25600,21.799999237060547
2019-01-31,22.219999313354492,21.700000762939453,21.899999618530273,22.020000457763672,21800,22.020000457763672
2019-02-01,21.989999771118164,21.350000381469727,21.989999771118164,21.5,4900,21.5
2019-02-04,21.67799949645996,21.329999923706055,21.389999389648438,21.479999542236328,10000,21.479999542236328
2019-02-05,21.885000228881836,21.0,21.420000076293945,21.469999313354492,14100,21.469999313354492
2019-02-06,21.375,20.8700008392334,21.350000381469727,21.200000762939453,6400,21.200000762939453
2019-02-07,21.270000457763672,20.549999237060547,21.25,20.670000076293945,4200,20.670000076293945
2019-02-08,21.75,20.649999618530273,20.649999618530273,21.700000762939453,67100,21.700000762939453
2019-02-11,21.729999542236328,20.88800048828125,21.6299991607666,21.479999542236328,11200,21.479999542236328
2019-02-12,22.110000610351562,21.09000015258789,21.104999542236328,21.6200008392334,25800,21.6200008392334
2019-02-13,21.700000762939453,21.266000747680664,21.364999771118164,21.700000762939453,8800,21.700000762939453
2019-02-14,21.950000762939453,21.253000259399414,21.700000762939453,21.81999969482422,16800,21.81999969482422
2019-02-15,21.979999542236328,21.850000381469727,21.850000381469727,21.940000534057617,16600,21.940000534057617
2019-02-19,21.979999542236328,21.549999237060547,21.549999237060547,21.899999618530273,19900,21.899999618530273
2019-02-20,21.979999542236328,21.450000762939453,21.674999237060547,21.850000381469727,12700,21.850000381469727
2019-02-21,21.889999389648438,21.535999298095703,21.791000366210938,21.889999389648438,4400,21.889999389648438
2019-02-22,21.950000762939453,21.739999771118164,21.739999771118164,21.950000762939453,10400,21.950000762939453
2019-02-25,21.950000762939453,21.469999313354492,21.950000762939453,21.540000915527344,10900,21.540000915527344
2019-02-26,21.950000762939453,21.607999801635742,21.65999984741211,21.639999389648438,18800,21.639999389648438
2019-02-27,22.100000381469727,21.739999771118164,21.770000457763672,22.09000015258789,21700,22.09000015258789
2019-02-28,22.100000381469727,21.559999465942383,22.100000381469727,21.600000381469727,20700,21.600000381469727
2019-03-01,21.799999237060547,21.600000381469727,21.760000228881836,21.799999237060547,9800,21.799999237060547
2019-03-04,21.799999237060547,20.940000534057617,21.799999237060547,21.5,28800,21.5
2019-03-05,21.799999237060547,21.1299991607666,21.610000610351562,21.5,5500,21.5
2019-03-06,22.049999237060547,21.195999145507812,21.195999145507812,21.309999465942383,26100,21.309999465942383
2019-03-07,21.309999465942383,20.989999771118164,21.15999984741211,21.010000228881836,9300,21.010000228881836
2019-03-08,21.739999771118164,21.010000228881836,21.010000228881836,21.110000610351562,16500,21.110000610351562
2019-03-11,21.799999237060547,21.079999923706055,21.3700008392334,21.790000915527344,13300,21.790000915527344
2019-03-12,21.90999984741211,21.239999771118164,21.577999114990234,21.5,10600,21.5
2019-03-13,21.75,21.530000686645508,21.579999923706055,21.65999984741211,14700,21.65999984741211
2019-03-14,21.75,21.200000762939453,21.60099983215332,21.25,30300,21.25
2019-03-15,21.56999969482422,21.100000381469727,21.219999313354492,21.229999542236328,97100,21.229999542236328
2019-03-18,21.5,21.1200008392334,21.360000610351562,21.139999389648438,17400,21.139999389648438
2019-03-19,21.225000381469727,21.01099967956543,21.209999084472656,21.110000610351562,10400,21.110000610351562
2019-03-20,21.15999984741211,20.56999969482422,21.110000610351562,21.020000457763672,21600,21.020000457763672
2019-03-21,21.1200008392334,20.56999969482422,20.8700008392334,20.700000762939453,8500,20.700000762939453
2019-03-22,20.959999084472656,20.5,20.579999923706055,20.75,28500,20.75
2019-03-25,21.1299991607666,20.280000686645508,20.649999618530273,21.0,17000,21.0
2019-03-26,21.030000686645508,20.5,20.899999618530273,20.920000076293945,9300,20.920000076293945
2019-03-27,21.290000915527344,20.485000610351562,20.510000228881836,21.200000762939453,26700,21.200000762939453
2019-03-28,21.309999465942383,20.8799991607666,20.8799991607666,21.200000762939453,21400,21.200000762939453
2019-03-29,21.43000030517578,20.780000686645508,21.209999084472656,21.200000762939453,50100,21.200000762939453
2019-04-01,21.350000381469727,20.799999237060547,21.209999084472656,21.200000762939453,17800,21.200000762939453
2019-04-02,21.219999313354492,21.059999465942383,21.059999465942383,21.200000762939453,4700,21.200000762939453
2019-04-03,21.200000762939453,20.600000381469727,21.190000534057617,21.190000534057617,11400,21.190000534057617
2019-04-04,21.5,20.950000762939453,21.15999984741211,21.31999969482422,36000,21.31999969482422
2019-04-05,21.25,20.93000030517578,21.075000762939453,21.25,9500,21.25
2019-04-08,21.725000381469727,20.899999618530273,20.969999313354492,21.530000686645508,40500,21.530000686645508
2019-04-09,21.739999771118164,21.049999237060547,21.450000762939453,21.520000457763672,15800,21.520000457763672
2019-04-10,21.854999542236328,21.163000106811523,21.163000106811523,21.844999313354492,18000,21.844999313354492
2019-04-11,21.809999465942383,20.586000442504883,20.586000442504883,21.520000457763672,6800,21.520000457763672
2019-04-12,21.670000076293945,20.90999984741211,21.670000076293945,21.31999969482422,21800,21.31999969482422
2019-04-15,21.8700008392334,21.270000457763672,21.40999984741211,21.459999084472656,28800,21.459999084472656
2019-04-16,21.889999389648438,21.020000457763672,21.5,21.770000457763672,18600,21.770000457763672
2019-04-17,21.90999984741211,21.40999984741211,21.540000915527344,21.850000381469727,19400,21.850000381469727
2019-04-18,22.049999237060547,21.319000244140625,21.670000076293945,21.450000762939453,59600,21.450000762939453
2019-04-22,21.950000762939453,21.079999923706055,21.59000015258789,21.920000076293945,22100,21.920000076293945
2019-04-23,21.969999313354492,21.540000915527344,21.969999313354492,21.93000030517578,7200,21.93000030517578
2019-04-24,21.979999542236328,21.510000228881836,21.809999465942383,21.65999984741211,8100,21.65999984741211
2019-04-25,21.989999771118164,21.670000076293945,21.700000762939453,21.860000610351562,6300,21.860000610351562
2019-04-26,22.219999313354492,21.56999969482422,21.606000900268555,22.059999465942383,19500,22.059999465942383
2019-04-29,22.209999084472656,21.559999465942383,21.899999618530273,22.209999084472656,16600,22.209999084472656
2019-04-30,22.5,21.79199981689453,22.239999771118164,22.469999313354492,32200,22.469999313354492
2019-05-01,22.479999542236328,22.200000762939453,22.31999969482422,22.200000762939453,8000,22.200000762939453
2019-05-02,22.229999542236328,21.729999542236328,22.020000457763672,22.190000534057617,12700,22.190000534057617
2019-05-03,22.75,22.06999969482422,22.06999969482422,22.65999984741211,15500,22.65999984741211
2019-05-06,22.75,22.049999237060547,22.25,22.309999465942383,13200,22.309999465942383
2019-05-07,22.389999389648438,21.770000457763672,22.202999114990234,22.06999969482422,11600,22.06999969482422
2019-05-08,22.68000030517578,21.940000534057617,21.940000534057617,22.43000030517578,17800,22.43000030517578
2019-05-09,22.729999542236328,22.040000915527344,22.40999984741211,22.530000686645508,29300,22.530000686645508
2019-05-10,22.649999618530273,22.059999465942383,22.329999923706055,22.520000457763672,23300,22.520000457763672
2019-05-13,22.600000381469727,22.139999389648438,22.299999237060547,22.450000762939453,19600,22.450000762939453
2019-05-14,22.709999084472656,22.06800079345703,22.06800079345703,22.510000228881836,18200,22.510000228881836
2019-05-15,22.7450008392334,22.34000015258789,22.510000228881836,22.56999969482422,7800,22.56999969482422
2019-05-16,22.68000030517578,22.0,22.48200035095215,22.3799991607666,30800,22.3799991607666
2019-05-17,22.469999313354492,22.0,22.209999084472656,22.309999465942383,9100,22.309999465942383
2019-05-20,22.59000015258789,22.065000534057617,22.18000030517578,22.420000076293945,14700,22.420000076293945
2019-05-21,22.59000015258789,22.270000457763672,22.290000915527344,22.56999969482422,8900,22.56999969482422
2019-05-22,22.68000030517578,21.940000534057617,22.59000015258789,22.489999771118164,25000,22.489999771118164
2019-05-23,22.540000915527344,21.909000396728516,21.909000396728516,22.469999313354492,14000,22.469999313354492
2019-05-24,22.6200008392334,22.450000762939453,22.540000915527344,22.520000457763672,7900,22.520000457763672
