Date,High,Low,Open,Close,Volume,Adj Close
2016-07-28,11.880000114440918,10.0,10.350000381469727,11.079999923706055,1569000,11.079999923706055
2016-07-29,11.90999984741211,10.260000228881836,11.0,11.260000228881836,232700,11.260000228881836
2016-08-01,12.069999694824219,11.020000457763672,11.600000381469727,12.069999694824219,112800,12.069999694824219
2016-08-02,13.199999809265137,11.880000114440918,11.880000114440918,13.15999984741211,105400,13.15999984741211
2016-08-03,13.75,13.199999809265137,13.199999809265137,13.649999618530273,80100,13.649999618530273
2016-08-04,13.850000381469727,12.800000190734863,13.850000381469727,13.529999732971191,108400,13.529999732971191
2016-08-05,14.520000457763672,13.199999809265137,13.199999809265137,14.079999923706055,84300,14.079999923706055
2016-08-08,14.850000381469727,13.220000267028809,14.5,13.819999694824219,44300,13.819999694824219
2016-08-09,14.220000267028809,13.265000343322754,13.925000190734863,14.09000015258789,23400,14.09000015258789
2016-08-10,14.100000381469727,13.345999717712402,13.930000305175781,14.09000015258789,51900,14.09000015258789
2016-08-11,14.180000305175781,13.5,14.0,14.0,25100,14.0
2016-08-12,14.199999809265137,13.5,14.199999809265137,13.880000114440918,59100,13.880000114440918
2016-08-15,14.140000343322754,13.3100004196167,14.020000457763672,13.670000076293945,75600,13.670000076293945
2016-08-16,14.5,12.170000076293945,13.40999984741211,13.640000343322754,95600,13.640000343322754
2016-08-17,13.699999809265137,12.720000267028809,13.645000457763672,13.449999809265137,41500,13.449999809265137
2016-08-18,13.5,13.0600004196167,13.435999870300293,13.25,34600,13.25
2016-08-19,13.529999732971191,13.010000228881836,13.4399995803833,13.229999542236328,24500,13.229999542236328
2016-08-22,13.062000274658203,12.699999809265137,13.050000190734863,12.850000381469727,55700,12.850000381469727
2016-08-23,13.4399995803833,12.899999618530273,12.899999618530273,13.199999809265137,42000,13.199999809265137
2016-08-24,13.869999885559082,13.130000114440918,13.170000076293945,13.59000015258789,63700,13.59000015258789
2016-08-25,13.829999923706055,13.350000381469727,13.829999923706055,13.600000381469727,23800,13.600000381469727
2016-08-26,13.800000190734863,13.295000076293945,13.600000381469727,13.569999694824219,24500,13.569999694824219
2016-08-29,13.9399995803833,13.5,13.75,13.770000457763672,37100,13.770000457763672
2016-08-30,13.795000076293945,13.5,13.699000358581543,13.710000038146973,17600,13.710000038146973
2016-08-31,14.850000381469727,13.359999656677246,13.359999656677246,14.527999877929688,61600,14.527999877929688
2016-09-01,15.40999984741211,14.395000457763672,14.520000457763672,15.020000457763672,138000,15.020000457763672
2016-09-02,16.44099998474121,14.8100004196167,15.390000343322754,14.869999885559082,113800,14.869999885559082
2016-09-06,15.439000129699707,14.520999908447266,14.75,15.074999809265137,67700,15.074999809265137
2016-09-07,16.260000228881836,15.600000381469727,15.649999618530273,15.859999656677246,189500,15.859999656677246
2016-09-08,16.329999923706055,15.760000228881836,16.329999923706055,16.100000381469727,73800,16.100000381469727
2016-09-09,16.200000762939453,15.75,16.200000762939453,15.949999809265137,43400,15.949999809265137
2016-09-12,15.90999984741211,15.420000076293945,15.90999984741211,15.65999984741211,47000,15.65999984741211
2016-09-13,16.981000900268555,15.5,15.619999885559082,16.549999237060547,119300,16.549999237060547
2016-09-14,18.389999389648438,16.0,16.360000610351562,18.100000381469727,247800,18.100000381469727
2016-09-15,19.260000228881836,17.649999618530273,18.25,18.65999984741211,107500,18.65999984741211
2016-09-16,20.049999237060547,18.739999771118164,18.899999618530273,19.520000457763672,255000,19.520000457763672
2016-09-19,21.200000762939453,17.479999542236328,19.719999313354492,17.979999542236328,155100,17.979999542236328
2016-09-20,19.290000915527344,17.799999237060547,17.799999237060547,19.25,89800,19.25
2016-09-21,19.389999389648438,18.760000228881836,19.389999389648438,19.15999984741211,68400,19.15999984741211
2016-09-22,19.59000015258789,18.079999923706055,19.09000015258789,19.200000762939453,67700,19.200000762939453
2016-09-23,20.549999237060547,19.020000457763672,19.600000381469727,20.18000030517578,107400,20.18000030517578
2016-09-26,22.290000915527344,19.75,20.170000076293945,19.950000762939453,233800,19.950000762939453
2016-09-27,20.979999542236328,18.642000198364258,20.09000015258789,18.940000534057617,86200,18.940000534057617
2016-09-28,19.5,18.58300018310547,19.06999969482422,19.139999389648438,179000,19.139999389648438
2016-09-29,19.399999618530273,17.260000228881836,19.239999771118164,17.5,126000,17.5
2016-09-30,19.639999389648438,17.5,17.5,18.700000762939453,453500,18.700000762939453
2016-10-03,19.0,17.989999771118164,19.0,18.450000762939453,74300,18.450000762939453
2016-10-04,18.670000076293945,18.06999969482422,18.670000076293945,18.139999389648438,25000,18.139999389648438
2016-10-05,19.59000015258789,18.110000610351562,18.350000381469727,19.030000686645508,33100,19.030000686645508
2016-10-06,19.0,18.649999618530273,18.950000762939453,18.84000015258789,18000,18.84000015258789
2016-10-07,20.25,18.652000427246094,18.90999984741211,19.8700008392334,87500,19.8700008392334
2016-10-10,20.139999389648438,19.420000076293945,19.829999923706055,19.59000015258789,25300,19.59000015258789
2016-10-11,19.290000915527344,17.617000579833984,19.290000915527344,19.020000457763672,67300,19.020000457763672
2016-10-12,18.920000076293945,18.040000915527344,18.920000076293945,18.450000762939453,19100,18.450000762939453
2016-10-13,19.18000030517578,18.31999969482422,18.329999923706055,19.030000686645508,26900,19.030000686645508
2016-10-14,19.459999084472656,18.0,19.459999084472656,18.299999237060547,38200,18.299999237060547
2016-10-17,19.389999389648438,18.565000534057617,18.610000610351562,19.1200008392334,31800,19.1200008392334
2016-10-18,19.329999923706055,18.34000015258789,19.329999923706055,19.030000686645508,30000,19.030000686645508
2016-10-19,19.339000701904297,18.954999923706055,19.020000457763672,19.190000534057617,19700,19.190000534057617
2016-10-20,19.15999984741211,18.482999801635742,19.110000610351562,18.989999771118164,16000,18.989999771118164
2016-10-21,19.139999389648438,18.18000030517578,18.850000381469727,18.829999923706055,17500,18.829999923706055
2016-10-24,19.570999145507812,18.299999237060547,18.809999465942383,19.329999923706055,32500,19.329999923706055
2016-10-25,19.69499969482422,19.364999771118164,19.440000534057617,19.5,17300,19.5
2016-10-26,19.700000762939453,18.649999618530273,19.700000762939453,18.709999084472656,9000,18.709999084472656
2016-10-27,19.030000686645508,17.239999771118164,18.93000030517578,17.5,39300,17.5
2016-10-28,18.874000549316406,17.0,17.639999389648438,17.520000457763672,47000,17.520000457763672
2016-10-31,17.8799991607666,17.270000457763672,17.540000915527344,17.764999389648438,26100,17.764999389648438
2016-11-01,17.850000381469727,17.1299991607666,17.739999771118164,17.34000015258789,23900,17.34000015258789
2016-11-02,18.25,17.040000915527344,18.25,17.56999969482422,26200,17.56999969482422
2016-11-03,17.790000915527344,16.739999771118164,17.709999084472656,16.860000610351562,24500,16.860000610351562
2016-11-04,17.700000762939453,17.040000915527344,17.040000915527344,17.350000381469727,17100,17.350000381469727
2016-11-07,18.204999923706055,17.469999313354492,17.489999771118164,17.56999969482422,24800,17.56999969482422
2016-11-08,17.530000686645508,16.829999923706055,17.5,17.040000915527344,43700,17.040000915527344
2016-11-09,17.579999923706055,15.711000442504883,17.350000381469727,17.18000030517578,41200,17.18000030517578
2016-11-10,18.59000015258789,17.329999923706055,17.950000762939453,18.280000686645508,34400,18.280000686645508
2016-11-11,19.25,18.3700008392334,19.25,18.489999771118164,51100,18.489999771118164
2016-11-14,18.6200008392334,17.280000686645508,18.6200008392334,17.350000381469727,18300,17.350000381469727
2016-11-15,17.649999618530273,17.0,17.299999237060547,17.540000915527344,20800,17.540000915527344
2016-11-16,18.139999389648438,16.149999618530273,17.399999618530273,18.0,40000,18.0
2016-11-17,19.0,17.459999084472656,18.474000930786133,18.809999465942383,16600,18.809999465942383
2016-11-18,19.229999542236328,18.209999084472656,18.639999389648438,18.450000762939453,26400,18.450000762939453
2016-11-21,18.899999618530273,18.100000381469727,18.89900016784668,18.34000015258789,16600,18.34000015258789
2016-11-22,18.68000030517578,17.75,18.399999618530273,18.110000610351562,21300,18.110000610351562
2016-11-23,17.610000610351562,16.799999237060547,17.520000457763672,16.979999542236328,40400,16.979999542236328
2016-11-25,17.06999969482422,16.559999465942383,17.06999969482422,16.700000762939453,17200,16.700000762939453
2016-11-28,16.860000610351562,16.010000228881836,16.81999969482422,16.229999542236328,20300,16.229999542236328
2016-11-29,16.790000915527344,15.670000076293945,16.020000457763672,16.40999984741211,23200,16.40999984741211
2016-11-30,16.989999771118164,16.010000228881836,16.06999969482422,16.329999923706055,25100,16.329999923706055
2016-12-01,17.7450008392334,15.75,16.299999237060547,15.979999542236328,28500,15.979999542236328
2016-12-02,16.200000762939453,14.899999618530273,15.850000381469727,15.069999694824219,36800,15.069999694824219
2016-12-05,16.0,14.701000213623047,15.649999618530273,14.899999618530273,59700,14.899999618530273
2016-12-06,15.710000038146973,14.920000076293945,15.029999732971191,15.109999656677246,43100,15.109999656677246
2016-12-07,15.734999656677246,14.9399995803833,15.670000076293945,15.180000305175781,67000,15.180000305175781
2016-12-08,15.9399995803833,15.279999732971191,15.649999618530273,15.770000457763672,18100,15.770000457763672
2016-12-09,16.0,14.979999542236328,15.331000328063965,15.279999732971191,31500,15.279999732971191
2016-12-12,15.770000457763672,15.050000190734863,15.399999618530273,15.3100004196167,22900,15.3100004196167
2016-12-13,16.260000228881836,15.289999961853027,15.289999961853027,15.979999542236328,17300,15.979999542236328
2016-12-14,16.399999618530273,15.550000190734863,15.550000190734863,15.829999923706055,34500,15.829999923706055
2016-12-15,16.09000015258789,15.460000038146973,16.01099967956543,15.770000457763672,77800,15.770000457763672
2016-12-16,15.960000038146973,15.399999618530273,15.890000343322754,15.729999542236328,98400,15.729999542236328
2016-12-19,16.674999237060547,15.59000015258789,15.710000038146973,16.06999969482422,62300,16.06999969482422
2016-12-20,16.344999313354492,15.5,16.020000457763672,16.0,50600,16.0
2016-12-21,16.45599937438965,15.75,16.204999923706055,15.819999694824219,27400,15.819999694824219
2016-12-22,16.114999771118164,15.84000015258789,15.84000015258789,16.0,13200,16.0
2016-12-23,16.389999389648438,15.75,16.07699966430664,16.309999465942383,32900,16.309999465942383
2016-12-27,16.68000030517578,15.850000381469727,16.34000015258789,16.200000762939453,38500,16.200000762939453
2016-12-28,16.7450008392334,16.0,16.100000381469727,16.25,34700,16.25
2016-12-29,16.719999313354492,16.1200008392334,16.31999969482422,16.469999313354492,19800,16.469999313354492
2016-12-30,16.775999069213867,16.25,16.5,16.40999984741211,17500,16.40999984741211
2017-01-03,16.559999465942383,15.40999984741211,16.280000686645508,15.699999809265137,26000,15.699999809265137
2017-01-04,16.200000762939453,15.729999542236328,15.729999542236328,16.0,46100,16.0
2017-01-05,16.299999237060547,15.800000190734863,16.0,15.890000343322754,70900,15.890000343322754
2017-01-06,16.417999267578125,15.180000305175781,16.059999465942383,15.399999618530273,71700,15.399999618530273
2017-01-09,15.800000190734863,15.239999771118164,15.430000305175781,15.460000038146973,28900,15.460000038146973
2017-01-10,15.779999732971191,15.25,15.640000343322754,15.5,35300,15.5
2017-01-11,15.789999961853027,15.350000381469727,15.390000343322754,15.4399995803833,32300,15.4399995803833
2017-01-12,15.489999771118164,14.949999809265137,15.489999771118164,15.0,37900,15.0
2017-01-13,15.180000305175781,15.0,15.090999603271484,15.170000076293945,26100,15.170000076293945
2017-01-17,15.49899959564209,15.015000343322754,15.199999809265137,15.170000076293945,73600,15.170000076293945
2017-01-18,15.59000015258789,15.0,15.25,15.350000381469727,38800,15.350000381469727
2017-01-19,16.100000381469727,15.279999732971191,15.460000038146973,15.470000267028809,92500,15.470000267028809
2017-01-20,16.5,15.420000076293945,15.430000305175781,16.34000015258789,51900,16.34000015258789
2017-01-23,16.65999984741211,16.049999237060547,16.290000915527344,16.479999542236328,26300,16.479999542236328
2017-01-24,16.235000610351562,15.1899995803833,16.079999923706055,16.100000381469727,158600,16.100000381469727
2017-01-25,16.5,15.479999542236328,16.174999237060547,15.890000343322754,94400,15.890000343322754
2017-01-26,16.344999313354492,15.75,16.0,15.880000114440918,57300,15.880000114440918
2017-01-27,15.880000114440918,14.420000076293945,15.880000114440918,14.819999694824219,210000,14.819999694824219
2017-01-30,15.5,14.369999885559082,14.84000015258789,14.920000076293945,55400,14.920000076293945
2017-01-31,15.5,14.710000038146973,14.920000076293945,15.40999984741211,88400,15.40999984741211
2017-02-01,15.989999771118164,15.100000381469727,15.260000228881836,15.609999656677246,62900,15.609999656677246
2017-02-02,15.979999542236328,15.109999656677246,15.470000267028809,15.859999656677246,40400,15.859999656677246
2017-02-03,16.25,15.649999618530273,15.920000076293945,16.079999923706055,83900,16.079999923706055
2017-02-06,16.200000762939453,15.920000076293945,16.200000762939453,16.06999969482422,102500,16.06999969482422
2017-02-07,16.5,15.920000076293945,16.03499984741211,16.0,93400,16.0
2017-02-08,16.065000534057617,15.095000267028809,15.960000038146973,15.829999923706055,48400,15.829999923706055
2017-02-09,16.100000381469727,15.657999992370605,15.75,15.899999618530273,29800,15.899999618530273
2017-02-10,16.18000030517578,15.149999618530273,15.920000076293945,15.319999694824219,46400,15.319999694824219
2017-02-13,15.920000076293945,15.050000190734863,15.720000267028809,15.130000114440918,35600,15.130000114440918
2017-02-14,15.640000343322754,14.980999946594238,15.0,15.479999542236328,57000,15.479999542236328
2017-02-15,15.819999694824219,15.300000190734863,15.359999656677246,15.760000228881836,53400,15.760000228881836
2017-02-16,16.200000762939453,15.40999984741211,15.826000213623047,15.859999656677246,136000,15.859999656677246
2017-02-17,16.139999389648438,15.920000076293945,15.949999809265137,16.0,45100,16.0
2017-02-21,16.5,16.100000381469727,16.1200008392334,16.5,64700,16.5
2017-02-22,16.510000228881836,16.200000762939453,16.5,16.43000030517578,61000,16.43000030517578
2017-02-23,17.209999084472656,16.190000534057617,16.4950008392334,17.09000015258789,42900,17.09000015258789
2017-02-24,17.239999771118164,16.739999771118164,17.190000534057617,17.190000534057617,22800,17.190000534057617
2017-02-27,17.639999389648438,16.899999618530273,17.25,17.260000228881836,76500,17.260000228881836
2017-02-28,20.40999984741211,17.969999313354492,18.350000381469727,20.229999542236328,477800,20.229999542236328
2017-03-01,21.059999465942383,19.78499984741211,20.229999542236328,20.329999923706055,322900,20.329999923706055
2017-03-02,20.110000610351562,18.270000457763672,20.110000610351562,18.479999542236328,122400,18.479999542236328
2017-03-03,19.329999923706055,17.940000534057617,17.940000534057617,18.950000762939453,88100,18.950000762939453
2017-03-06,19.174999237060547,18.700000762939453,19.049999237060547,19.0,52000,19.0
2017-03-07,19.729999542236328,18.368000030517578,18.770000457763672,19.559999465942383,41500,19.559999465942383
2017-03-08,20.3700008392334,19.059999465942383,19.729999542236328,19.860000610351562,143300,19.860000610351562
2017-03-09,20.75,19.6299991607666,19.989999771118164,20.690000534057617,51200,20.690000534057617
2017-03-10,20.959999084472656,20.149999618530273,20.920000076293945,20.65999984741211,80800,20.65999984741211
2017-03-13,20.799999237060547,19.600000381469727,20.799999237060547,19.989999771118164,141300,19.989999771118164
2017-03-14,19.899999618530273,18.219999313354492,19.899999618530273,18.559999465942383,104600,18.559999465942383
2017-03-15,18.559999465942383,17.969999313354492,18.559999465942383,18.200000762939453,205000,18.200000762939453
2017-03-16,18.829999923706055,17.77199935913086,18.59000015258789,17.969999313354492,257100,17.969999313354492
2017-03-17,18.239999771118164,17.666000366210938,17.90999984741211,17.940000534057617,247800,17.940000534057617
2017-03-20,18.90999984741211,17.395999908447266,18.059999465942383,18.799999237060547,64500,18.799999237060547
2017-03-21,19.079999923706055,18.165000915527344,18.790000915527344,18.860000610351562,60000,18.860000610351562
2017-03-22,18.899999618530273,17.770000457763672,18.799999237060547,17.860000610351562,124900,17.860000610351562
2017-03-23,18.329999923706055,17.5,17.760000228881836,18.0,72400,18.0
2017-03-24,18.760000228881836,17.860000610351562,17.920000076293945,18.139999389648438,116200,18.139999389648438
2017-03-27,18.4950008392334,17.829999923706055,18.0,18.18000030517578,50000,18.18000030517578
2017-03-28,18.530000686645508,17.639999389648438,18.100000381469727,18.0,88100,18.0
2017-03-29,18.5,17.90999984741211,17.90999984741211,18.229999542236328,77400,18.229999542236328
2017-03-30,18.719999313354492,17.8799991607666,18.719999313354492,18.479999542236328,39500,18.479999542236328
2017-03-31,19.1299991607666,18.15999984741211,18.399999618530273,18.950000762939453,59900,18.950000762939453
2017-04-03,19.40999984741211,18.34000015258789,18.950000762939453,18.729999542236328,47300,18.729999542236328
2017-04-04,18.719999313354492,18.0,18.719999313354492,18.149999618530273,28900,18.149999618530273
2017-04-05,18.549999237060547,18.010000228881836,18.049999237060547,18.239999771118164,62500,18.239999771118164
2017-04-06,19.110000610351562,18.1200008392334,18.219999313354492,18.75,87100,18.75
2017-04-07,19.860000610351562,18.420000076293945,18.75,19.860000610351562,116100,19.860000610351562
2017-04-10,20.0,19.0,19.788000106811523,19.0,146600,19.0
2017-04-11,19.190000534057617,17.75,19.09000015258789,17.950000762939453,96000,17.950000762939453
2017-04-12,18.030000686645508,16.690000534057617,18.030000686645508,17.110000610351562,139200,17.110000610351562
2017-04-13,17.399999618530273,16.979999542236328,17.040000915527344,17.350000381469727,55900,17.350000381469727
2017-04-17,17.65999984741211,17.260000228881836,17.43000030517578,17.610000610351562,65100,17.610000610351562
2017-04-18,17.540000915527344,16.899999618530273,17.450000762939453,17.110000610351562,92600,17.110000610351562
2017-04-19,17.959999084472656,17.219999313354492,17.219999313354492,17.93000030517578,38400,17.93000030517578
2017-04-20,18.739999771118164,17.8700008392334,17.989999771118164,18.190000534057617,66800,18.190000534057617
2017-04-21,18.549999237060547,17.95800018310547,18.260000228881836,18.450000762939453,23400,18.450000762939453
2017-04-24,19.1200008392334,18.579999923706055,18.579999923706055,19.06999969482422,54300,19.06999969482422
2017-04-25,19.8799991607666,18.90999984741211,19.31999969482422,19.020000457763672,103600,19.020000457763672
2017-04-26,19.420000076293945,18.8700008392334,19.099000930786133,19.040000915527344,43800,19.040000915527344
2017-04-27,19.299999237060547,18.757999420166016,18.757999420166016,19.09000015258789,35600,19.09000015258789
2017-04-28,19.100000381469727,18.384000778198242,19.100000381469727,18.850000381469727,63000,18.850000381469727
2017-05-01,19.18000030517578,18.729999542236328,18.899999618530273,19.110000610351562,37600,19.110000610351562
2017-05-02,19.559999465942383,18.760000228881836,19.079999923706055,18.899999618530273,58900,18.899999618530273
2017-05-03,18.920000076293945,18.25,18.6200008392334,18.489999771118164,40100,18.489999771118164
2017-05-04,19.18000030517578,18.354999542236328,18.549999237060547,19.149999618530273,35700,19.149999618530273
2017-05-05,19.149999618530273,18.540000915527344,19.049999237060547,19.030000686645508,106800,19.030000686645508
2017-05-08,19.600000381469727,18.75,19.059999465942383,19.360000610351562,256700,19.360000610351562
2017-05-09,22.743999481201172,19.850000381469727,20.5,21.68000030517578,533200,21.68000030517578
2017-05-10,22.459999084472656,21.219999313354492,21.40999984741211,21.850000381469727,186800,21.850000381469727
2017-05-11,22.0,21.25,21.739999771118164,21.8799991607666,499200,21.8799991607666
2017-05-12,23.709999084472656,21.792999267578125,21.920000076293945,23.229999542236328,227200,23.229999542236328
2017-05-15,23.440000534057617,22.323999404907227,23.1200008392334,23.170000076293945,138200,23.170000076293945
2017-05-16,23.579999923706055,21.0,23.0,23.139999389648438,203400,23.139999389648438
2017-05-17,23.475000381469727,22.309999465942383,22.920000076293945,22.889999389648438,164600,22.889999389648438
2017-05-18,24.469999313354492,22.200000762939453,23.020000457763672,24.149999618530273,148400,24.149999618530273
2017-05-19,25.149999618530273,22.559999465942383,24.5,24.649999618530273,283600,24.649999618530273
2017-05-22,24.690000534057617,23.3799991607666,24.600000381469727,23.8799991607666,129100,23.8799991607666
2017-05-23,23.969999313354492,23.299999237060547,23.959999084472656,23.799999237060547,78500,23.799999237060547
2017-05-24,23.969999313354492,23.5,23.770000457763672,23.719999313354492,92000,23.719999313354492
2017-05-25,23.709999084472656,22.719999313354492,23.709999084472656,23.0,101700,23.0
2017-05-26,23.450000762939453,22.65999984741211,22.84000015258789,23.229999542236328,79900,23.229999542236328
2017-05-30,23.76300048828125,22.809999465942383,23.229999542236328,23.309999465942383,107900,23.309999465942383
2017-05-31,24.65999984741211,22.44700050354004,23.239999771118164,24.329999923706055,373900,24.329999923706055
2017-06-01,26.950000762939453,24.1200008392334,24.299999237060547,25.780000686645508,587600,25.780000686645508
2017-06-02,26.75,25.56999969482422,25.56999969482422,26.5,135400,26.5
2017-06-05,26.989999771118164,26.270000457763672,26.31999969482422,26.510000228881836,129600,26.510000228881836
2017-06-06,26.700000762939453,25.010000228881836,26.420000076293945,25.219999313354492,132100,25.219999313354492
2017-06-07,25.700000762939453,24.420000076293945,25.0,24.940000534057617,184000,24.940000534057617
2017-06-08,25.690000534057617,24.399999618530273,24.829999923706055,25.15999984741211,222100,25.15999984741211
2017-06-09,25.700000762939453,25.110000610351562,25.469999313354492,25.469999313354492,187600,25.469999313354492
2017-06-12,26.204999923706055,24.780000686645508,25.25,25.690000534057617,172500,25.690000534057617
2017-06-13,26.610000610351562,24.709999084472656,25.799999237060547,25.020000457763672,498100,25.020000457763672
2017-06-14,25.700000762939453,24.165000915527344,25.170000076293945,24.40999984741211,97800,24.40999984741211
2017-06-15,25.729999542236328,24.0,24.149999618530273,24.959999084472656,473300,24.959999084472656
2017-06-16,26.5,24.799999237060547,25.049999237060547,26.31999969482422,327300,26.31999969482422
2017-06-19,27.051000595092773,26.378000259399414,26.399999618530273,26.6299991607666,207100,26.6299991607666
2017-06-20,28.1200008392334,26.399999618530273,26.639999389648438,26.989999771118164,214200,26.989999771118164
2017-06-21,27.722000122070312,26.299999237060547,27.049999237060547,26.6200008392334,190300,26.6200008392334
2017-06-22,26.899999618530273,26.229999542236328,26.739999771118164,26.719999313354492,111600,26.719999313354492
2017-06-23,27.6299991607666,26.350000381469727,26.520000457763672,27.1200008392334,708000,27.1200008392334
2017-06-26,28.281999588012695,26.59000015258789,27.309999465942383,28.030000686645508,180200,28.030000686645508
2017-06-27,28.790000915527344,27.299999237060547,28.030000686645508,28.200000762939453,229900,28.200000762939453
2017-06-28,30.200000762939453,28.290000915527344,28.290000915527344,29.31999969482422,407700,29.31999969482422
2017-06-29,29.510000228881836,28.389999389648438,29.149999618530273,28.940000534057617,151700,28.940000534057617
2017-06-30,29.53499984741211,28.1200008392334,29.149999618530273,28.579999923706055,140100,28.579999923706055
2017-07-03,28.760000228881836,27.5310001373291,28.440000534057617,27.690000534057617,109500,27.690000534057617
2017-07-05,28.020000457763672,27.070999145507812,27.6299991607666,27.520000457763672,176600,27.520000457763672
2017-07-06,28.030000686645508,27.059999465942383,27.239999771118164,27.639999389648438,160700,27.639999389648438
2017-07-07,29.3799991607666,27.520000457763672,27.770000457763672,29.299999237060547,192800,29.299999237060547
2017-07-10,29.610000610351562,28.540000915527344,29.350000381469727,28.81999969482422,187300,28.81999969482422
2017-07-11,29.84000015258789,28.55500030517578,28.899999618530273,29.6299991607666,179200,29.6299991607666
2017-07-12,30.538999557495117,29.257999420166016,29.489999771118164,30.010000228881836,202600,30.010000228881836
2017-07-13,30.15399932861328,29.388999938964844,30.1299991607666,30.049999237060547,156400,30.049999237060547
2017-07-14,31.399999618530273,29.75,29.979999542236328,30.950000762939453,151300,30.950000762939453
2017-07-17,31.489999771118164,29.639999389648438,31.190000534057617,29.81999969482422,198300,29.81999969482422
2017-07-18,30.639999389648438,29.739999771118164,29.829999923706055,30.520000457763672,90100,30.520000457763672
2017-07-19,31.0,30.209999084472656,30.6299991607666,30.520000457763672,94500,30.520000457763672
2017-07-20,30.889999389648438,29.854999542236328,30.40999984741211,30.030000686645508,99600,30.030000686645508
2017-07-21,30.61400032043457,29.68000030517578,30.170000076293945,30.0,93700,30.0
2017-07-24,30.200000762939453,29.309999465942383,30.06999969482422,29.770000457763672,122500,29.770000457763672
2017-07-25,30.78499984741211,29.65999984741211,30.059999465942383,30.389999389648438,223300,30.389999389648438
2017-07-26,30.698999404907227,30.1299991607666,30.649999618530273,30.290000915527344,86200,30.290000915527344
2017-07-27,30.579999923706055,29.68899917602539,30.420000076293945,30.280000686645508,98500,30.280000686645508
2017-07-28,30.59000015258789,29.75,30.18000030517578,30.030000686645508,114400,30.030000686645508
2017-07-31,30.469999313354492,29.290000915527344,30.010000228881836,29.549999237060547,81400,29.549999237060547
2017-08-01,30.232999801635742,28.6200008392334,29.549999237060547,29.209999084472656,83200,29.209999084472656
2017-08-02,29.969999313354492,28.139999389648438,29.0,28.489999771118164,88200,28.489999771118164
2017-08-03,29.280000686645508,27.809999465942383,28.290000915527344,29.149999618530273,94400,29.149999618530273
2017-08-04,29.290000915527344,28.15999984741211,29.290000915527344,28.389999389648438,81000,28.389999389648438
2017-08-07,29.8799991607666,28.29400062561035,28.56999969482422,29.68000030517578,107800,29.68000030517578
2017-08-08,35.790000915527344,31.5,31.5,33.33000183105469,768000,33.33000183105469
2017-08-09,33.939998626708984,31.639999389648438,32.540000915527344,32.970001220703125,288400,32.970001220703125
2017-08-10,33.13999938964844,30.844999313354492,33.0,31.299999237060547,154800,31.299999237060547
2017-08-11,31.790000915527344,30.1200008392334,31.25,30.56999969482422,158600,30.56999969482422
2017-08-14,33.619998931884766,30.739999771118164,30.739999771118164,32.959999084472656,227100,32.959999084472656
2017-08-15,33.95000076293945,32.75,33.09000015258789,33.939998626708984,160200,33.939998626708984
2017-08-16,34.790000915527344,33.040000915527344,34.150001525878906,33.27000045776367,211300,33.27000045776367
2017-08-17,34.01499938964844,32.86000061035156,33.02000045776367,33.7599983215332,131200,33.7599983215332
2017-08-18,35.0,32.60100173950195,33.630001068115234,33.84000015258789,360200,33.84000015258789
2017-08-21,33.775001525878906,32.80500030517578,33.56999969482422,33.279998779296875,141300,33.279998779296875
2017-08-22,34.03499984741211,32.9900016784668,33.439998626708984,33.119998931884766,106500,33.119998931884766
2017-08-23,34.0,33.0099983215332,33.0099983215332,33.900001525878906,109900,33.900001525878906
2017-08-24,33.8650016784668,31.59000015258789,33.84000015258789,32.380001068115234,178200,32.380001068115234
2017-08-25,32.630001068115234,31.899999618530273,32.540000915527344,32.06999969482422,146500,32.06999969482422
2017-08-28,32.869998931884766,32.025001525878906,32.22999954223633,32.7599983215332,126700,32.7599983215332
2017-08-29,32.650001525878906,32.0,32.61000061035156,32.380001068115234,90600,32.380001068115234
2017-08-30,32.77000045776367,32.02000045776367,32.31999969482422,32.2400016784668,78100,32.2400016784668
2017-08-31,32.88999938964844,32.0,32.43000030517578,32.880001068115234,54900,32.880001068115234
2017-09-01,33.13999938964844,32.2130012512207,32.849998474121094,33.02000045776367,140700,33.02000045776367
2017-09-05,34.209999084472656,32.7599983215332,32.77000045776367,33.7599983215332,160900,33.7599983215332
2017-09-06,34.255001068115234,33.38999938964844,33.66999816894531,33.869998931884766,89700,33.869998931884766
2017-09-07,35.84000015258789,33.93000030517578,34.0,35.529998779296875,199100,35.529998779296875
2017-09-08,36.20000076293945,34.400001525878906,35.31999969482422,34.439998626708984,177100,34.439998626708984
2017-09-11,35.2400016784668,33.81999969482422,34.7599983215332,35.189998626708984,160200,35.189998626708984
2017-09-12,36.15999984741211,34.45000076293945,35.40999984741211,35.5099983215332,163300,35.5099983215332
2017-09-13,35.0,33.25,33.849998474121094,34.66999816894531,1561600,34.66999816894531
2017-09-14,37.875,34.310001373291016,34.77000045776367,36.790000915527344,329000,36.790000915527344
2017-09-15,37.02000045776367,35.279998779296875,36.59000015258789,35.630001068115234,353900,35.630001068115234
2017-09-18,35.040000915527344,33.529998779296875,33.83000183105469,34.29999923706055,391200,34.29999923706055
2017-09-19,34.38999938964844,32.7599983215332,34.119998931884766,33.0,258000,33.0
2017-09-20,34.29999923706055,32.83000183105469,32.86000061035156,33.56999969482422,222200,33.56999969482422
2017-09-21,34.0099983215332,32.83000183105469,33.31999969482422,33.97999954223633,236300,33.97999954223633
2017-09-22,33.810001373291016,30.6299991607666,33.75,30.860000610351562,705700,30.860000610351562
2017-09-25,30.71500015258789,27.510000228881836,30.6299991607666,29.84000015258789,1276200,29.84000015258789
2017-09-26,30.440000534057617,28.899999618530273,30.0,28.950000762939453,352100,28.950000762939453
2017-09-27,31.309999465942383,28.90999984741211,28.959999084472656,31.190000534057617,290700,31.190000534057617
2017-09-28,32.426998138427734,30.700000762939453,30.950000762939453,30.979999542236328,332700,30.979999542236328
2017-09-29,31.5,30.5,31.149999618530273,30.950000762939453,342100,30.950000762939453
2017-10-02,31.420000076293945,30.6200008392334,30.860000610351562,31.34000015258789,318700,31.34000015258789
2017-10-03,32.119998931884766,31.09000015258789,31.559999465942383,31.899999618530273,256100,31.899999618530273
2017-10-04,33.279998779296875,31.549999237060547,31.729999542236328,32.75,210900,32.75
2017-10-05,33.880001068115234,32.400001525878906,32.869998931884766,32.84000015258789,320700,32.84000015258789
2017-10-06,32.9900016784668,32.099998474121094,32.72999954223633,32.959999084472656,119600,32.959999084472656
2017-10-09,32.970001220703125,30.950000762939453,32.900001525878906,31.360000610351562,231700,31.360000610351562
2017-10-10,31.8799991607666,30.950000762939453,31.3799991607666,31.139999389648438,135900,31.139999389648438
2017-10-11,31.277999877929688,30.329999923706055,31.149999618530273,30.989999771118164,131200,30.989999771118164
2017-10-12,31.84000015258789,31.290000915527344,31.709999084472656,31.809999465942383,267100,31.809999465942383
2017-10-13,32.20000076293945,31.399999618530273,31.75,31.920000076293945,252900,31.920000076293945
2017-10-16,31.979999542236328,30.860000610351562,31.979999542236328,30.8700008392334,238500,30.8700008392334
2017-10-17,30.75,29.739999771118164,30.719999313354492,30.190000534057617,209100,30.190000534057617
2017-10-18,31.040000915527344,29.899999618530273,30.200000762939453,31.030000686645508,210600,31.030000686645508
2017-10-19,31.93000030517578,30.729999542236328,30.950000762939453,31.920000076293945,119400,31.920000076293945
2017-10-20,32.310001373291016,31.809999465942383,31.8700008392334,31.989999771118164,126300,31.989999771118164
2017-10-23,32.2599983215332,31.40999984741211,31.8799991607666,31.489999771118164,100800,31.489999771118164
2017-10-24,31.56999969482422,30.56999969482422,31.5,30.75,154800,30.75
2017-10-25,31.239999771118164,30.479999542236328,30.579999923706055,30.610000610351562,241300,30.610000610351562
2017-10-26,31.149999618530273,30.049999237060547,30.540000915527344,30.329999923706055,184400,30.329999923706055
2017-10-27,30.600000381469727,29.881000518798828,30.309999465942383,30.399999618530273,78800,30.399999618530273
2017-10-30,30.579999923706055,28.420000076293945,30.25,28.780000686645508,210200,28.780000686645508
2017-10-31,28.989999771118164,28.285999298095703,28.850000381469727,28.690000534057617,311800,28.690000534057617
2017-11-01,28.69499969482422,26.600000381469727,28.6299991607666,27.030000686645508,345100,27.030000686645508
2017-11-02,27.459999084472656,26.799999237060547,27.139999389648438,27.010000228881836,331300,27.010000228881836
2017-11-03,28.309999465942383,27.020000457763672,27.209999084472656,27.31999969482422,243700,27.31999969482422
2017-11-06,27.969999313354492,26.850000381469727,27.190000534057617,27.299999237060547,343900,27.299999237060547
2017-11-07,27.350000381469727,25.600000381469727,27.260000228881836,26.700000762939453,679900,26.700000762939453
2017-11-08,29.520000457763672,22.719999313354492,28.770000457763672,24.450000762939453,1236700,24.450000762939453
2017-11-09,26.3700008392334,24.5,25.81999969482422,25.43000030517578,506400,25.43000030517578
2017-11-10,25.729999542236328,24.920000076293945,25.520000457763672,25.229999542236328,255400,25.229999542236328
2017-11-13,25.979999542236328,24.959999084472656,25.09000015258789,25.760000228881836,129100,25.760000228881836
2017-11-14,26.959999084472656,25.469999313354492,25.709999084472656,26.850000381469727,289000,26.850000381469727
2017-11-15,26.81999969482422,26.040000915527344,26.81999969482422,26.5,278000,26.5
2017-11-16,27.040000915527344,25.799999237060547,26.520000457763672,26.209999084472656,363900,26.209999084472656
2017-11-17,26.5,25.6299991607666,26.139999389648438,25.979999542236328,227000,25.979999542236328
2017-11-20,29.889999389648438,27.809999465942383,28.510000228881836,28.219999313354492,1653500,28.219999313354492
2017-11-21,28.309999465942383,26.270000457763672,28.309999465942383,26.920000076293945,2517100,26.920000076293945
2017-11-22,28.329999923706055,26.670000076293945,26.940000534057617,27.90999984741211,438500,27.90999984741211
2017-11-24,28.375,27.510000228881836,28.09000015258789,27.829999923706055,212000,27.829999923706055
2017-11-27,27.850000381469727,26.469999313354492,27.850000381469727,26.969999313354492,349300,26.969999313354492
2017-11-28,27.589000701904297,26.030000686645508,26.770000457763672,27.34000015258789,333000,27.34000015258789
2017-11-29,28.59000015258789,27.40999984741211,27.40999984741211,28.229999542236328,392000,28.229999542236328
2017-11-30,30.020000457763672,28.079999923706055,28.270000457763672,29.829999923706055,490400,29.829999923706055
2017-12-01,29.94499969482422,28.40999984741211,29.799999237060547,29.1200008392334,304800,29.1200008392334
2017-12-04,29.420000076293945,27.700000762939453,29.34000015258789,28.010000228881836,253200,28.010000228881836
2017-12-05,28.46500015258789,27.100000381469727,28.030000686645508,27.190000534057617,176200,27.190000534057617
2017-12-06,27.09000015258789,26.5,27.079999923706055,26.65999984741211,178500,26.65999984741211
2017-12-07,27.424999237060547,26.649999618530273,26.700000762939453,27.0,205600,27.0
2017-12-08,27.760000228881836,26.90999984741211,27.149999618530273,27.530000686645508,208000,27.530000686645508
2017-12-11,28.229999542236328,27.360000610351562,27.549999237060547,27.739999771118164,215500,27.739999771118164
2017-12-12,28.43000030517578,26.989999771118164,27.860000610351562,28.34000015258789,201600,28.34000015258789
2017-12-13,29.690000534057617,28.200000762939453,28.40999984741211,29.389999389648438,330200,29.389999389648438
2017-12-14,29.979999542236328,28.729999542236328,29.459999084472656,28.899999618530273,198800,28.899999618530273
2017-12-15,30.790000915527344,29.011999130249023,29.25,30.270000457763672,909600,30.270000457763672
2017-12-18,30.68000030517578,30.020000457763672,30.350000381469727,30.260000228881836,208900,30.260000228881836
2017-12-19,30.434999465942383,29.610000610351562,30.270000457763672,29.709999084472656,151700,29.709999084472656
2017-12-20,30.059999465942383,29.05900001525879,29.540000915527344,29.469999313354492,123900,29.469999313354492
2017-12-21,29.549999237060547,28.309999465942383,29.329999923706055,29.06999969482422,111300,29.06999969482422
2017-12-22,30.0,28.6299991607666,29.059999465942383,29.790000915527344,200600,29.790000915527344
2017-12-26,30.40999984741211,29.350000381469727,29.899999618530273,29.690000534057617,116000,29.690000534057617
2017-12-27,29.979999542236328,29.579999923706055,29.81999969482422,29.719999313354492,91000,29.719999313354492
2017-12-28,30.149999618530273,29.209999084472656,29.783000946044922,30.09000015258789,175000,30.09000015258789
2017-12-29,30.6299991607666,28.84000015258789,30.229999542236328,28.979999542236328,282900,28.979999542236328
2018-01-02,29.739999771118164,29.010000228881836,29.209999084472656,29.579999923706055,148300,29.579999923706055
2018-01-03,29.981000900268555,28.959999084472656,29.459999084472656,29.079999923706055,103600,29.079999923706055
2018-01-04,29.649999618530273,28.40999984741211,29.100000381469727,28.81999969482422,138300,28.81999969482422
2018-01-05,28.670000076293945,27.84000015258789,28.670000076293945,28.049999237060547,198500,28.049999237060547
2018-01-08,28.25,27.041000366210938,28.1299991607666,28.149999618530273,334700,28.149999618530273
2018-01-09,29.260000228881836,28.06999969482422,28.280000686645508,28.15999984741211,234400,28.15999984741211
2018-01-10,28.34000015258789,27.889999389648438,28.31999969482422,28.219999313354492,117700,28.219999313354492
2018-01-11,28.56999969482422,27.809999465942383,28.350000381469727,28.260000228881836,197700,28.260000228881836
2018-01-12,29.450000762939453,27.969999313354492,28.360000610351562,29.40999984741211,190400,29.40999984741211
2018-01-16,29.809999465942383,28.559999465942383,29.5,28.81999969482422,133600,28.81999969482422
2018-01-17,29.5,28.625,28.950000762939453,29.350000381469727,111400,29.350000381469727
2018-01-18,29.700000762939453,28.959999084472656,29.350000381469727,29.59000015258789,152100,29.59000015258789
2018-01-19,31.315000534057617,29.280000686645508,29.479999542236328,31.149999618530273,356600,31.149999618530273
2018-01-22,31.538999557495117,30.34000015258789,30.920000076293945,30.760000228881836,257900,30.760000228881836
2018-01-23,32.18000030517578,30.559999465942383,30.809999465942383,32.0099983215332,267700,32.0099983215332
2018-01-24,32.65999984741211,30.6200008392334,32.099998474121094,31.200000762939453,284100,31.200000762939453
2018-01-25,31.899999618530273,30.889999389648438,31.280000686645508,31.81999969482422,316300,31.81999969482422
2018-01-26,32.38999938964844,31.520000457763672,32.06999969482422,32.130001068115234,110100,32.130001068115234
2018-01-29,32.2599983215332,31.40999984741211,32.029998779296875,32.13999938964844,177300,32.13999938964844
2018-01-30,32.38999938964844,31.219999313354492,31.690000534057617,32.29999923706055,124300,32.29999923706055
2018-01-31,32.56999969482422,31.459999084472656,32.34000015258789,31.530000686645508,191500,31.530000686645508
2018-02-01,31.6299991607666,30.524999618530273,31.3700008392334,31.549999237060547,179700,31.549999237060547
2018-02-02,31.969999313354492,30.924999237060547,31.270000457763672,31.799999237060547,161600,31.799999237060547
2018-02-05,31.950000762939453,31.149999618530273,31.579999923706055,31.600000381469727,181700,31.600000381469727
2018-02-06,31.860000610351562,30.309999465942383,31.06999969482422,30.649999618530273,168200,30.649999618530273
2018-02-07,31.16699981689453,29.93600082397461,30.479999542236328,30.309999465942383,161900,30.309999465942383
2018-02-08,30.440000534057617,28.5049991607666,30.260000228881836,28.540000915527344,167100,28.540000915527344
2018-02-09,28.941999435424805,27.8700008392334,28.739999771118164,28.610000610351562,218400,28.610000610351562
2018-02-12,29.59000015258789,28.510000228881836,28.610000610351562,29.350000381469727,148600,29.350000381469727
2018-02-13,29.649999618530273,28.8799991607666,29.200000762939453,29.440000534057617,106800,29.440000534057617
2018-02-14,30.559999465942383,29.06999969482422,29.149999618530273,30.43000030517578,132300,30.43000030517578
2018-02-15,31.950000762939453,30.459999084472656,30.459999084472656,31.5,275800,31.5
2018-02-16,31.420000076293945,30.774999618530273,31.420000076293945,31.1299991607666,181800,31.1299991607666
2018-02-20,31.559999465942383,29.020000457763672,31.309999465942383,29.93000030517578,147100,29.93000030517578
2018-02-21,31.3700008392334,30.1200008392334,30.1200008392334,30.8799991607666,171300,30.8799991607666
2018-02-22,31.389999389648438,30.530000686645508,30.989999771118164,30.760000228881836,134900,30.760000228881836
2018-02-23,31.780000686645508,30.100000381469727,31.0,31.25,202200,31.25
2018-02-26,32.54999923706055,31.28700065612793,31.510000228881836,32.41999816894531,208000,32.41999816894531
2018-02-27,35.08000183105469,29.950000762939453,29.950000762939453,33.70000076293945,1060000,33.70000076293945
2018-02-28,34.0,32.141998291015625,33.91999816894531,32.36000061035156,443100,32.36000061035156
2018-03-01,32.38999938964844,31.010000228881836,32.29999923706055,31.260000228881836,240800,31.260000228881836
2018-03-02,32.0,30.6299991607666,30.93000030517578,31.760000228881836,250000,31.760000228881836
2018-03-05,32.58000183105469,31.350000381469727,31.350000381469727,32.130001068115234,138000,32.130001068115234
2018-03-06,32.970001220703125,31.6299991607666,32.15999984741211,32.91999816894531,276100,32.91999816894531
2018-03-07,32.970001220703125,31.0,32.470001220703125,32.5,150000,32.5
2018-03-08,32.90999984741211,31.809999465942383,32.61000061035156,32.79999923706055,188300,32.79999923706055
2018-03-09,33.849998474121094,32.0,33.0,32.38999938964844,320400,32.38999938964844
2018-03-12,33.09000015258789,32.189998626708984,32.4900016784668,32.84000015258789,130300,32.84000015258789
2018-03-13,33.09000015258789,31.979999542236328,32.4900016784668,32.400001525878906,135600,32.400001525878906
2018-03-14,33.13999938964844,32.220001220703125,32.66999816894531,32.619998931884766,216900,32.619998931884766
2018-03-15,33.099998474121094,31.6200008392334,32.70000076293945,31.93000030517578,176000,31.93000030517578
2018-03-16,32.48500061035156,31.700000762939453,31.799999237060547,32.02000045776367,272200,32.02000045776367
2018-03-19,32.290000915527344,30.209999084472656,31.959999084472656,31.010000228881836,243600,31.010000228881836
2018-03-20,31.62299919128418,30.795000076293945,31.020000457763672,31.530000686645508,191900,31.530000686645508
2018-03-21,32.06999969482422,31.440000534057617,31.59000015258789,31.719999313354492,125900,31.719999313354492
2018-03-22,31.75,31.075000762939453,31.440000534057617,31.440000534057617,114100,31.440000534057617
2018-03-23,31.649999618530273,30.780000686645508,31.489999771118164,31.0,186400,31.0
2018-03-26,31.530000686645508,30.709999084472656,31.40999984741211,31.489999771118164,149200,31.489999771118164
2018-03-27,31.68000030517578,30.929000854492188,31.579999923706055,31.110000610351562,191800,31.110000610351562
2018-03-28,31.65999984741211,30.850000381469727,31.170000076293945,31.0,108600,31.0
2018-03-29,32.2599983215332,30.381999969482422,31.170000076293945,31.799999237060547,193000,31.799999237060547
2018-04-02,31.844999313354492,31.0,31.760000228881836,31.229999542236328,148500,31.229999542236328
2018-04-03,31.760000228881836,31.149999618530273,31.5,31.690000534057617,82400,31.690000534057617
2018-04-04,31.770000457763672,30.959999084472656,31.15999984741211,31.68000030517578,92800,31.68000030517578
2018-04-05,32.41999816894531,31.395000457763672,31.850000381469727,32.04999923706055,136100,32.04999923706055
2018-04-06,32.22999954223633,31.520000457763672,31.860000610351562,31.899999618530273,117800,31.899999618530273
2018-04-09,32.04999923706055,31.0,32.04999923706055,31.56999969482422,121300,31.56999969482422
2018-04-10,33.380001068115234,31.520000457763672,31.860000610351562,33.29999923706055,314300,33.29999923706055
2018-04-11,34.0,32.90999984741211,33.20000076293945,33.470001220703125,129900,33.470001220703125
2018-04-12,34.75,33.630001068115234,33.630001068115234,34.70000076293945,134800,34.70000076293945
2018-04-13,34.88999938964844,34.22999954223633,34.88999938964844,34.439998626708984,100800,34.439998626708984
2018-04-16,35.7400016784668,34.26499938964844,34.58000183105469,35.34000015258789,242100,35.34000015258789
2018-04-17,36.36000061035156,35.220001220703125,35.47999954223633,35.66999816894531,232800,35.66999816894531
2018-04-18,36.310001373291016,35.439998626708984,35.75,35.7599983215332,162700,35.7599983215332
2018-04-19,36.02000045776367,35.02000045776367,35.65999984741211,35.189998626708984,133100,35.189998626708984
2018-04-20,35.75,34.83000183105469,35.02000045776367,34.939998626708984,119100,34.939998626708984
2018-04-23,35.257999420166016,34.119998931884766,34.970001220703125,34.34000015258789,139800,34.34000015258789
2018-04-24,34.97999954223633,33.529998779296875,34.459999084472656,34.06999969482422,127900,34.06999969482422
2018-04-25,34.15999984741211,32.810001373291016,34.0,34.13999938964844,108600,34.13999938964844
2018-04-26,34.77000045776367,33.88999938964844,34.150001525878906,34.5,51400,34.5
2018-04-27,34.77000045776367,33.540000915527344,34.52000045776367,34.439998626708984,124500,34.439998626708984
2018-04-30,34.994998931884766,34.36000061035156,34.650001525878906,34.810001373291016,95500,34.810001373291016
2018-05-01,35.099998474121094,34.54999923706055,34.709999084472656,34.90999984741211,116200,34.90999984741211
2018-05-02,35.41999816894531,34.470001220703125,34.7400016784668,35.209999084472656,105400,35.209999084472656
2018-05-03,35.560001373291016,34.79999923706055,35.0,35.459999084472656,163700,35.459999084472656
2018-05-04,36.099998474121094,34.88999938964844,35.349998474121094,36.02000045776367,132400,36.02000045776367
2018-05-07,37.47999954223633,35.95000076293945,36.0,36.91999816894531,259000,36.91999816894531
2018-05-08,44.439998626708984,37.7400016784668,37.79999923706055,43.22999954223633,933100,43.22999954223633
2018-05-09,46.58000183105469,43.10100173950195,43.150001525878906,44.86000061035156,423900,44.86000061035156
2018-05-10,45.72999954223633,44.095001220703125,44.61000061035156,45.52000045776367,361300,45.52000045776367
2018-05-11,46.41999816894531,44.98500061035156,45.56999969482422,45.689998626708984,441700,45.689998626708984
2018-05-14,46.18000030517578,45.0,45.86000061035156,45.439998626708984,262700,45.439998626708984
2018-05-15,45.97999954223633,44.16299819946289,44.95000076293945,45.36000061035156,348700,45.36000061035156
2018-05-16,46.22999954223633,44.58000183105469,45.43000030517578,45.54999923706055,223700,45.54999923706055
2018-05-17,46.88999938964844,45.150001525878906,45.61000061035156,46.2599983215332,188400,46.2599983215332
2018-05-18,46.470001220703125,45.709999084472656,46.439998626708984,45.9900016784668,235800,45.9900016784668
2018-05-21,47.279998779296875,44.91999816894531,46.02000045776367,46.459999084472656,222700,46.459999084472656
2018-05-22,48.13999938964844,45.9900016784668,46.599998474121094,46.91999816894531,202800,46.91999816894531
2018-05-23,47.4900016784668,46.75,46.7599983215332,47.459999084472656,125500,47.459999084472656
2018-05-24,48.720001220703125,47.099998474121094,47.45000076293945,48.36000061035156,163000,48.36000061035156
2018-05-25,48.709999084472656,46.255001068115234,48.279998779296875,48.52000045776367,89900,48.52000045776367
2018-05-29,49.06999969482422,47.25,48.29999923706055,48.970001220703125,155600,48.970001220703125
2018-05-30,49.97999954223633,48.84000015258789,49.11000061035156,49.060001373291016,199900,49.060001373291016
2018-05-31,50.38999938964844,49.060001373291016,49.349998474121094,49.630001068115234,200600,49.630001068115234
2018-06-01,52.22999954223633,49.529998779296875,50.209999084472656,50.439998626708984,303300,50.439998626708984
2018-06-04,48.0,45.4119987487793,48.0,46.869998931884766,575900,46.869998931884766
2018-06-05,49.13999938964844,46.970001220703125,47.09000015258789,49.04999923706055,340600,49.04999923706055
2018-06-06,50.95000076293945,48.630001068115234,48.849998474121094,50.849998474121094,305100,50.849998474121094
2018-06-07,50.630001068115234,47.380001068115234,50.630001068115234,49.38999938964844,298400,49.38999938964844
2018-06-08,50.529998779296875,49.09000015258789,49.220001220703125,50.209999084472656,126700,50.209999084472656
2018-06-11,51.959999084472656,48.540000915527344,50.0,51.369998931884766,257800,51.369998931884766
2018-06-12,52.689998626708984,50.869998931884766,51.400001525878906,51.63999938964844,322900,51.63999938964844
2018-06-13,56.2400016784668,51.939998626708984,51.939998626708984,55.0099983215332,518000,55.0099983215332
2018-06-14,56.9900016784668,55.02000045776367,55.02000045776367,56.54999923706055,405500,56.54999923706055
2018-06-15,55.97999954223633,53.9900016784668,55.689998626708984,55.15999984741211,492100,55.15999984741211
2018-06-18,57.599998474121094,54.5,55.08000183105469,57.04999923706055,294100,57.04999923706055
2018-06-19,57.0,55.29499816894531,56.720001220703125,55.58000183105469,367800,55.58000183105469
2018-06-20,56.150001525878906,54.529998779296875,55.810001373291016,55.27000045776367,247100,55.27000045776367
2018-06-21,56.060001373291016,51.86000061035156,55.31999969482422,52.91999816894531,448100,52.91999816894531
2018-06-22,53.220001220703125,51.029998779296875,53.150001525878906,52.54999923706055,841800,52.54999923706055
2018-06-25,53.81999969482422,52.2400016784668,53.13999938964844,53.63999938964844,196500,53.63999938964844
2018-06-26,54.95000076293945,53.540000915527344,53.540000915527344,54.59000015258789,242100,54.59000015258789
2018-06-27,55.0099983215332,51.11000061035156,54.5,51.41999816894531,202300,51.41999816894531
2018-06-28,52.36000061035156,50.902000427246094,51.349998474121094,51.97999954223633,110900,51.97999954223633
2018-06-29,52.560001373291016,51.61000061035156,52.130001068115234,52.0,152800,52.0
2018-07-02,53.2400016784668,51.5,51.5,53.209999084472656,93200,53.209999084472656
2018-07-03,55.08000183105469,53.290000915527344,53.290000915527344,54.779998779296875,84700,54.779998779296875
2018-07-05,55.9109992980957,54.279998779296875,55.209999084472656,55.540000915527344,173100,55.540000915527344
2018-07-06,56.52000045776367,55.279998779296875,55.56999969482422,56.08000183105469,193500,56.08000183105469
2018-07-09,57.59000015258789,54.52000045776367,56.36000061035156,55.439998626708984,300100,55.439998626708984
2018-07-10,55.959999084472656,52.810001373291016,55.41999816894531,53.369998931884766,219600,53.369998931884766
2018-07-11,56.0,52.45000076293945,53.13999938964844,53.529998779296875,129500,53.529998779296875
2018-07-12,54.150001525878906,53.06999969482422,53.77000045776367,53.5,159300,53.5
2018-07-13,53.91999816894531,52.5,53.650001525878906,53.06999969482422,120300,53.06999969482422
2018-07-16,54.33000183105469,52.4900016784668,52.4900016784668,54.2599983215332,154600,54.2599983215332
2018-07-17,55.11000061035156,53.95000076293945,54.22999954223633,54.54999923706055,158200,54.54999923706055
2018-07-18,55.36000061035156,54.290000915527344,54.54999923706055,55.11000061035156,82600,55.11000061035156
2018-07-19,55.349998474121094,53.880001068115234,55.040000915527344,54.369998931884766,177100,54.369998931884766
2018-07-20,56.5,54.310001373291016,54.310001373291016,55.599998474121094,278200,55.599998474121094
2018-07-23,56.459999084472656,54.7400016784668,55.400001525878906,56.209999084472656,244700,56.209999084472656
2018-07-24,56.79999923706055,50.369998931884766,56.63999938964844,51.84000015258789,459100,51.84000015258789
2018-07-25,54.72999954223633,51.33000183105469,51.65999984741211,53.5099983215332,212300,53.5099983215332
2018-07-26,53.52000045776367,51.459999084472656,53.5,52.810001373291016,118300,52.810001373291016
2018-07-27,53.01499938964844,47.54999923706055,52.959999084472656,48.650001525878906,332400,48.650001525878906
2018-07-30,49.65999984741211,47.7400016784668,47.97999954223633,47.97999954223633,165600,47.97999954223633
2018-07-31,49.459999084472656,47.9900016784668,48.08000183105469,48.06999969482422,281900,48.06999969482422
2018-08-01,50.15999984741211,47.540000915527344,47.540000915527344,49.83000183105469,155400,49.83000183105469
2018-08-02,51.345001220703125,48.06700134277344,48.849998474121094,50.84000015258789,163800,50.84000015258789
2018-08-03,51.029998779296875,49.15999984741211,51.0099983215332,50.84000015258789,369000,50.84000015258789
2018-08-06,51.43600082397461,48.4900016784668,50.630001068115234,48.779998779296875,360700,48.779998779296875
2018-08-07,59.779998779296875,49.56999969482422,51.04999923706055,57.65999984741211,799000,57.65999984741211
2018-08-08,59.9900016784668,57.599998474121094,58.209999084472656,58.56999969482422,341100,58.56999969482422
2018-08-09,59.65999984741211,56.20000076293945,58.290000915527344,57.0099983215332,253400,57.0099983215332
2018-08-10,58.2599983215332,55.97999954223633,56.54999923706055,57.150001525878906,163300,57.150001525878906
2018-08-13,58.21500015258789,56.130001068115234,57.5099983215332,57.529998779296875,202400,57.529998779296875
2018-08-14,58.130001068115234,56.7400016784668,57.7599983215332,58.040000915527344,275700,58.040000915527344
2018-08-15,58.5,56.90999984741211,58.470001220703125,57.599998474121094,263900,57.599998474121094
2018-08-16,58.72999954223633,56.814998626708984,57.040000915527344,58.31999969482422,195400,58.31999969482422
2018-08-17,60.2599983215332,57.36000061035156,57.95000076293945,60.189998626708984,206300,60.189998626708984
2018-08-20,64.30999755859375,60.810001373291016,60.810001373291016,63.099998474121094,539700,63.099998474121094
2018-08-21,63.599998474121094,60.630001068115234,63.18000030517578,61.7599983215332,289000,61.7599983215332
2018-08-22,63.689998626708984,61.619998931884766,61.77000045776367,63.5099983215332,209200,63.5099983215332
2018-08-23,65.95999908447266,63.18000030517578,63.18000030517578,65.19000244140625,214400,65.19000244140625
2018-08-24,65.36000061035156,64.13999938964844,65.36000061035156,64.6500015258789,180500,64.6500015258789
2018-08-27,65.63999938964844,64.5,64.79000091552734,65.48999786376953,169600,65.48999786376953
2018-08-28,66.26000213623047,65.02999877929688,65.48999786376953,65.55999755859375,128800,65.55999755859375
2018-08-29,67.33999633789062,64.87999725341797,65.3499984741211,67.0,143200,67.0
2018-08-30,70.1500015258789,66.80999755859375,67.08000183105469,67.91000366210938,266500,67.91000366210938
2018-08-31,68.58000183105469,66.69999694824219,67.76000213623047,67.66999816894531,177000,67.66999816894531
2018-09-04,68.55999755859375,66.66000366210938,67.68000030517578,67.93000030517578,231900,67.93000030517578
2018-09-05,70.48999786376953,67.16000366210938,68.18000030517578,69.97000122070312,255200,69.97000122070312
2018-09-06,70.69999694824219,67.6500015258789,70.56999969482422,68.79000091552734,284000,68.79000091552734
2018-09-07,70.13999938964844,66.72100067138672,68.47000122070312,67.48999786376953,185900,67.48999786376953
2018-09-10,72.41000366210938,68.86000061035156,69.9000015258789,70.7699966430664,391700,70.7699966430664
2018-09-11,71.33999633789062,68.61699676513672,70.37000274658203,70.16999816894531,220000,70.16999816894531
2018-09-12,70.8949966430664,67.4800033569336,70.2300033569336,67.5,234900,67.5
2018-09-13,70.27999877929688,67.61000061035156,67.75,69.01000213623047,164900,69.01000213623047
2018-09-14,69.83999633789062,67.94000244140625,68.91999816894531,68.7300033569336,206100,68.7300033569336
2018-09-17,68.75,64.9800033569336,68.5999984741211,65.12999725341797,222400,65.12999725341797
2018-09-18,66.7699966430664,63.83000183105469,64.7300033569336,66.4800033569336,282000,66.4800033569336
2018-09-19,67.23999786376953,64.91999816894531,66.4800033569336,65.54000091552734,216500,65.54000091552734
2018-09-20,66.05999755859375,64.33999633789062,64.94000244140625,64.47000122070312,131400,64.47000122070312
2018-09-21,66.12000274658203,63.349998474121094,64.19000244140625,63.90999984741211,515600,63.90999984741211
2018-09-24,65.54299926757812,63.52000045776367,63.900001525878906,65.41000366210938,169700,65.41000366210938
2018-09-25,68.76000213623047,65.68000030517578,65.68000030517578,68.0999984741211,165400,68.0999984741211
2018-09-26,70.63500213623047,67.33999633789062,68.63999938964844,69.44000244140625,237300,69.44000244140625
2018-09-27,71.36000061035156,68.2300033569336,69.77999877929688,69.61000061035156,249700,69.61000061035156
2018-09-28,73.23500061035156,69.19000244140625,69.54000091552734,71.05000305175781,479100,71.05000305175781
2018-10-01,72.3499984741211,68.41999816894531,71.54000091552734,68.93000030517578,350400,68.93000030517578
2018-10-02,69.25,65.52999877929688,69.08000183105469,66.61000061035156,341900,66.61000061035156
2018-10-03,66.69999694824219,64.01000213623047,66.69999694824219,65.41000366210938,216000,65.41000366210938
2018-10-04,65.33000183105469,61.529998779296875,65.19000244140625,62.36000061035156,265900,62.36000061035156
2018-10-05,64.38999938964844,61.720001220703125,62.380001068115234,63.38999938964844,180700,63.38999938964844
2018-10-08,64.63999938964844,61.11000061035156,62.52000045776367,62.779998779296875,228900,62.779998779296875
2018-10-09,64.08999633789062,61.79999923706055,62.279998779296875,62.20000076293945,120100,62.20000076293945
2018-10-10,62.459999084472656,60.41999816894531,62.029998779296875,60.810001373291016,276900,60.810001373291016
2018-10-11,61.939998626708984,60.09000015258789,60.13999938964844,60.34000015258789,219500,60.34000015258789
2018-10-12,63.5,60.15999984741211,61.22999954223633,62.20000076293945,199900,62.20000076293945
2018-10-15,62.540000915527344,60.43000030517578,61.720001220703125,62.119998931884766,185100,62.119998931884766
2018-10-16,67.2300033569336,62.40999984741211,62.7400016784668,66.26000213623047,248400,66.26000213623047
2018-10-17,66.63999938964844,63.58000183105469,66.18000030517578,66.41000366210938,131600,66.41000366210938
2018-10-18,67.33000183105469,64.94999694824219,65.81999969482422,66.08999633789062,225400,66.08999633789062
2018-10-19,65.90499877929688,62.84000015258789,65.30000305175781,64.47000122070312,213000,64.47000122070312
2018-10-22,65.55000305175781,62.65999984741211,64.87999725341797,64.51000213623047,265500,64.51000213623047
2018-10-23,66.0999984741211,61.68000030517578,63.5099983215332,66.01000213623047,137700,66.01000213623047
2018-10-24,68.0,63.47999954223633,65.88999938964844,63.900001525878906,216400,63.900001525878906
2018-10-25,64.66799926757812,62.15999984741211,64.4000015258789,63.290000915527344,210700,63.290000915527344
2018-10-26,63.58000183105469,60.310001373291016,62.380001068115234,62.709999084472656,162400,62.709999084472656
2018-10-29,65.21499633789062,62.59000015258789,62.689998626708984,63.72999954223633,127200,63.72999954223633
2018-10-30,66.22000122070312,63.349998474121094,63.59000015258789,66.06999969482422,154400,66.06999969482422
2018-10-31,68.22000122070312,65.37000274658203,67.43000030517578,65.4800033569336,189600,65.4800033569336
2018-11-01,67.22000122070312,64.94000244140625,65.29000091552734,66.18000030517578,188100,66.18000030517578
2018-11-02,68.29499816894531,66.16999816894531,66.9800033569336,66.33999633789062,144300,66.33999633789062
2018-11-05,67.12999725341797,64.30999755859375,66.33999633789062,65.16000366210938,280900,65.16000366210938
2018-11-06,62.0,54.4900016784668,61.0,61.08000183105469,707000,61.08000183105469
2018-11-07,64.0,61.099998474121094,61.25,62.9900016784668,259500,62.9900016784668
2018-11-08,62.90999984741211,60.22999954223633,62.689998626708984,61.97999954223633,153100,61.97999954223633
2018-11-09,62.97999954223633,60.619998931884766,61.0099983215332,62.63999938964844,177800,62.63999938964844
2018-11-12,63.5,59.86000061035156,62.959999084472656,60.91999816894531,229900,60.91999816894531
2018-11-13,61.599998474121094,60.38999938964844,61.380001068115234,60.70000076293945,138100,60.70000076293945
2018-11-14,61.90999984741211,57.70000076293945,61.29999923706055,57.790000915527344,190100,57.790000915527344
2018-11-15,59.27000045776367,56.029998779296875,56.65999984741211,58.56999969482422,214500,58.56999969482422
2018-11-16,61.099998474121094,56.97999954223633,58.220001220703125,58.52000045776367,201100,58.52000045776367
2018-11-19,59.0,54.959999084472656,58.310001373291016,55.02000045776367,191500,55.02000045776367
2018-11-20,55.13999938964844,53.220001220703125,54.220001220703125,54.20000076293945,210600,54.20000076293945
2018-11-21,54.880001068115234,52.5,54.36000061035156,53.61000061035156,179700,53.61000061035156
2018-11-23,56.04499816894531,53.84000015258789,53.84000015258789,54.66999816894531,79800,54.66999816894531
2018-11-26,55.79899978637695,54.04899978637695,55.13999938964844,54.369998931884766,172500,54.369998931884766
2018-11-27,56.150001525878906,52.80500030517578,53.939998626708984,53.310001373291016,157100,53.310001373291016
2018-11-28,54.54999923706055,52.029998779296875,53.540000915527344,54.380001068115234,196800,54.380001068115234
2018-11-29,56.689998626708984,53.04999923706055,53.95000076293945,55.880001068115234,164800,55.880001068115234
2018-11-30,56.97999954223633,55.70000076293945,55.70000076293945,56.2400016784668,179200,56.2400016784668
2018-12-03,57.970001220703125,55.540000915527344,57.060001373291016,57.560001373291016,248900,57.560001373291016
2018-12-04,59.150001525878906,54.040000915527344,57.22999954223633,54.2400016784668,269300,54.2400016784668
2018-12-06,55.27199935913086,53.095001220703125,53.189998626708984,54.66999816894531,204100,54.66999816894531
2018-12-07,56.099998474121094,50.84000015258789,54.630001068115234,53.5099983215332,288600,53.5099983215332
2018-12-10,53.65999984741211,52.36000061035156,53.61000061035156,53.18000030517578,117300,53.18000030517578
2018-12-11,53.630001068115234,51.722999572753906,53.630001068115234,52.59000015258789,200600,52.59000015258789
2018-12-12,54.06999969482422,52.59000015258789,52.970001220703125,53.189998626708984,127500,53.189998626708984
2018-12-13,53.7400016784668,51.779998779296875,53.529998779296875,52.09000015258789,115100,52.09000015258789
2018-12-14,52.939998626708984,50.029998779296875,51.220001220703125,50.470001220703125,205300,50.470001220703125
2018-12-17,50.08000183105469,47.40999984741211,49.849998474121094,47.869998931884766,310500,47.869998931884766
2018-12-18,48.029998779296875,44.720001220703125,48.029998779296875,44.720001220703125,411300,44.720001220703125
2018-12-19,47.220001220703125,44.393001556396484,44.959999084472656,45.060001373291016,236400,45.060001373291016
2018-12-20,45.650001525878906,42.13999938964844,44.810001373291016,43.779998779296875,282700,43.779998779296875
2018-12-21,44.0,41.970001220703125,43.970001220703125,42.25,496000,42.25
2018-12-24,42.79999923706055,37.400001525878906,41.7599983215332,41.790000915527344,93000,41.790000915527344
2018-12-26,43.720001220703125,41.0,42.11000061035156,43.529998779296875,173200,43.529998779296875
2018-12-27,43.65999984741211,41.724998474121094,42.900001525878906,43.65999984741211,178100,43.65999984741211
2018-12-28,44.6349983215332,42.369998931884766,43.650001525878906,43.83000183105469,127900,43.83000183105469
2018-12-31,47.79499816894531,43.529998779296875,44.18000030517578,45.54999923706055,291500,45.54999923706055
2019-01-02,45.560001373291016,44.060001373291016,45.41999816894531,44.59000015258789,259700,44.59000015258789
2019-01-03,44.75,42.61000061035156,44.40999984741211,43.119998931884766,148300,43.119998931884766
2019-01-04,46.880001068115234,43.720001220703125,43.720001220703125,46.04999923706055,156500,46.04999923706055
2019-01-07,47.540000915527344,45.029998779296875,46.099998474121094,47.349998474121094,169700,47.349998474121094
2019-01-08,60.779998779296875,50.90999984741211,51.0,59.72999954223633,1252100,59.72999954223633
2019-01-09,60.5099983215332,58.51300048828125,59.72999954223633,60.09000015258789,429000,60.09000015258789
2019-01-10,61.79100036621094,58.95000076293945,59.650001525878906,61.439998626708984,297300,61.439998626708984
2019-01-11,62.66999816894531,60.61000061035156,61.77000045776367,62.130001068115234,433600,62.130001068115234
2019-01-14,62.09000015258789,60.119998931884766,61.70000076293945,60.380001068115234,347000,60.380001068115234
2019-01-15,60.91999816894531,58.72999954223633,59.4900016784668,59.59000015258789,299000,59.59000015258789
2019-01-16,61.5099983215332,59.29999923706055,59.65999984741211,61.369998931884766,237700,61.369998931884766
2019-01-17,62.70000076293945,60.13800048828125,60.849998474121094,62.349998474121094,243400,62.349998474121094
2019-01-18,64.93000030517578,62.54999923706055,62.54999923706055,63.209999084472656,227900,63.209999084472656
2019-01-22,63.630001068115234,61.779998779296875,62.709999084472656,62.13999938964844,138300,62.13999938964844
2019-01-23,64.68599700927734,62.150001525878906,62.529998779296875,64.20999908447266,267100,64.20999908447266
2019-01-24,66.19999694824219,64.11000061035156,64.38999938964844,65.41999816894531,278400,65.41999816894531
2019-01-25,66.19000244140625,64.5199966430664,65.7300033569336,65.26000213623047,103300,65.26000213623047
2019-01-28,64.97000122070312,63.13600158691406,64.45999908447266,64.5,57400,64.5
2019-01-29,65.41999816894531,64.0999984741211,64.5999984741211,64.91999816894531,89700,64.91999816894531
2019-01-30,66.66999816894531,65.00499725341797,65.08999633789062,66.31999969482422,133000,66.31999969482422
2019-01-31,68.1500015258789,66.01000213623047,66.30999755859375,66.58000183105469,214900,66.58000183105469
2019-02-01,68.25,66.04000091552734,66.04000091552734,67.5999984741211,149700,67.5999984741211
2019-02-04,68.25,67.02999877929688,67.56999969482422,68.2300033569336,115500,68.2300033569336
2019-02-05,69.6500015258789,67.68000030517578,68.25,68.27999877929688,134900,68.27999877929688
2019-02-06,68.62000274658203,66.9800033569336,68.2300033569336,68.56999969482422,76700,68.56999969482422
2019-02-07,69.61499786376953,67.69300079345703,67.87999725341797,68.6500015258789,135500,68.6500015258789
2019-02-08,69.4000015258789,67.26000213623047,68.5,68.97000122070312,102900,68.97000122070312
2019-02-11,70.31500244140625,68.61000061035156,68.61000061035156,69.19000244140625,167700,69.19000244140625
2019-02-12,70.70999908447266,67.04100036621094,69.68000030517578,70.62000274658203,247900,70.62000274658203
2019-02-13,72.19999694824219,70.08000183105469,70.22000122070312,71.73999786376953,251900,71.73999786376953
2019-02-14,71.68000030517578,68.83999633789062,71.58000183105469,69.44000244140625,269200,69.44000244140625
2019-02-15,70.91000366210938,68.75,69.44000244140625,70.66000366210938,210600,70.66000366210938
2019-02-19,75.45999908447266,70.2300033569336,70.2300033569336,74.11000061035156,477000,74.11000061035156
2019-02-20,76.62999725341797,72.93000030517578,74.0199966430664,73.5,387600,73.5
2019-02-21,74.45999908447266,73.04000091552734,73.51000213623047,73.80000305175781,147200,73.80000305175781
2019-02-22,74.9800033569336,73.64099884033203,74.66000366210938,74.48999786376953,113900,74.48999786376953
2019-02-25,76.44000244140625,75.08000183105469,75.12000274658203,76.29000091552734,196500,76.29000091552734
2019-02-26,76.1500015258789,73.69000244140625,75.9000015258789,73.76000213623047,201800,73.76000213623047
2019-02-27,74.60399627685547,71.0,73.58000183105469,72.66999816894531,269100,72.66999816894531
2019-02-28,76.37899780273438,71.1050033569336,72.63999938964844,76.01000213623047,389400,76.01000213623047
2019-03-01,75.73999786376953,69.0,69.0,72.98999786376953,714300,72.98999786376953
2019-03-04,74.43000030517578,71.69000244140625,73.68000030517578,72.63999938964844,225000,72.63999938964844
2019-03-05,75.20999908447266,71.08000183105469,71.97000122070312,74.79000091552734,296600,74.79000091552734
2019-03-06,74.87999725341797,72.18000030517578,74.41999816894531,72.83999633789062,211400,72.83999633789062
2019-03-07,73.41000366210938,71.7300033569336,73.05999755859375,72.79000091552734,107300,72.79000091552734
2019-03-08,73.13999938964844,71.2699966430664,72.3499984741211,72.0999984741211,126200,72.0999984741211
2019-03-11,73.69000244140625,71.66000366210938,72.25,72.80999755859375,114600,72.80999755859375
2019-03-12,71.71299743652344,65.0199966430664,70.36000061035156,66.13999938964844,770600,66.13999938964844
2019-03-13,66.6259994506836,61.41999816894531,65.7300033569336,62.5,868800,62.5
2019-03-14,63.22999954223633,61.380001068115234,61.720001220703125,62.93000030517578,301200,62.93000030517578
2019-03-15,64.54000091552734,62.150001525878906,62.70000076293945,63.189998626708984,427200,63.189998626708984
2019-03-18,64.05999755859375,61.540000915527344,63.06999969482422,62.189998626708984,260800,62.189998626708984
2019-03-19,63.224998474121094,60.52000045776367,62.619998931884766,61.459999084472656,380200,61.459999084472656
2019-03-20,61.630001068115234,59.709999084472656,61.58000183105469,60.099998474121094,284100,60.099998474121094
2019-03-21,61.45000076293945,59.849998474121094,59.97999954223633,60.849998474121094,417600,60.849998474121094
2019-03-22,60.63600158691406,54.30500030517578,60.599998474121094,55.56999969482422,700400,55.56999969482422
2019-03-25,56.810001373291016,54.31999969482422,55.56999969482422,55.97999954223633,333100,55.97999954223633
2019-03-26,56.58000183105469,53.09000015258789,56.58000183105469,53.25,496700,53.25
2019-03-27,53.86000061035156,50.11000061035156,53.220001220703125,52.38999938964844,551800,52.38999938964844
2019-03-28,53.86000061035156,51.68000030517578,52.810001373291016,52.540000915527344,322300,52.540000915527344
2019-03-29,53.4900016784668,52.28499984741211,53.0,52.720001220703125,332300,52.720001220703125
2019-04-01,53.48500061035156,51.029998779296875,53.029998779296875,51.900001525878906,457900,51.900001525878906
2019-04-02,53.900001525878906,50.66999816894531,51.88999938964844,53.25,325300,53.25
2019-04-03,54.66999816894531,52.97999954223633,53.68000030517578,53.5099983215332,327800,53.5099983215332
2019-04-04,54.26499938964844,52.61000061035156,53.5099983215332,53.0099983215332,430500,53.0099983215332
2019-04-05,53.54999923706055,51.439998626708984,53.2400016784668,52.75,384800,52.75
2019-04-08,52.810001373291016,51.79999923706055,52.650001525878906,52.68000030517578,265400,52.68000030517578
2019-04-09,54.0,51.97999954223633,52.470001220703125,52.29999923706055,274400,52.29999923706055
2019-04-10,54.91999816894531,52.43000030517578,52.599998474121094,53.72999954223633,303400,53.72999954223633
2019-04-11,55.09000015258789,52.9900016784668,53.970001220703125,54.130001068115234,234600,54.130001068115234
2019-04-12,55.08000183105469,52.5099983215332,54.599998474121094,53.16999816894531,182900,53.16999816894531
2019-04-15,54.36000061035156,52.349998474121094,52.97999954223633,52.4900016784668,131800,52.4900016784668
2019-04-16,54.369998931884766,52.125,52.45000076293945,54.08000183105469,227700,54.08000183105469
2019-04-17,54.34000015258789,49.45000076293945,54.34000015258789,50.13999938964844,470100,50.13999938964844
2019-04-18,52.47999954223633,47.279998779296875,49.83000183105469,48.279998779296875,482500,48.279998779296875
2019-04-22,49.029998779296875,47.599998474121094,48.0,48.81999969482422,227200,48.81999969482422
2019-04-23,49.7400016784668,48.29999923706055,49.099998474121094,48.79999923706055,394600,48.79999923706055
2019-04-24,50.279998779296875,47.90999984741211,48.79999923706055,49.0,221000,49.0
2019-04-25,49.755001068115234,47.79999923706055,48.810001373291016,48.52000045776367,201200,48.52000045776367
2019-04-26,49.29999923706055,48.099998474121094,48.41999816894531,49.04999923706055,181000,49.04999923706055
2019-04-29,51.290000915527344,49.189998626708984,49.33000183105469,49.529998779296875,191900,49.529998779296875
2019-04-30,52.029998779296875,48.290000915527344,49.630001068115234,49.7599983215332,200500,49.7599983215332
2019-05-01,50.88999938964844,48.8650016784668,49.970001220703125,49.900001525878906,212500,49.900001525878906
2019-05-02,51.619998931884766,49.849998474121094,49.849998474121094,51.13999938964844,163600,51.13999938964844
2019-05-03,53.720001220703125,51.09000015258789,51.599998474121094,53.380001068115234,203200,53.380001068115234
2019-05-06,55.619998931884766,52.130001068115234,54.88999938964844,55.59000015258789,377200,55.59000015258789
2019-05-07,57.97999954223633,53.380001068115234,57.97999954223633,55.77000045776367,838300,55.77000045776367
2019-05-08,58.400001525878906,54.5,55.279998779296875,57.93000030517578,483800,57.93000030517578
2019-05-09,58.39500045776367,56.119998931884766,57.34000015258789,58.02000045776367,295900,58.02000045776367
2019-05-10,58.09000015258789,55.25,57.900001525878906,55.4900016784668,296800,55.4900016784668
2019-05-13,55.0,51.459999084472656,54.459999084472656,52.470001220703125,287900,52.470001220703125
2019-05-14,53.060001373291016,51.41999816894531,52.650001525878906,51.470001220703125,231700,51.470001220703125
2019-05-15,51.69499969482422,50.0099983215332,51.4900016784668,50.209999084472656,362800,50.209999084472656
2019-05-16,51.43000030517578,50.15999984741211,50.15999984741211,50.93000030517578,212900,50.93000030517578
2019-05-17,51.18000030517578,49.36000061035156,50.38999938964844,49.540000915527344,214300,49.540000915527344
2019-05-20,49.81999969482422,47.7400016784668,49.0099983215332,49.61000061035156,178900,49.61000061035156
2019-05-21,50.37099838256836,49.04999923706055,49.849998474121094,49.959999084472656,200400,49.959999084472656
2019-05-22,50.349998474121094,48.650001525878906,49.7599983215332,49.63999938964844,133300,49.63999938964844
2019-05-23,50.0,48.02000045776367,49.06999969482422,48.4900016784668,210100,48.4900016784668
2019-05-24,49.65999984741211,47.540000915527344,48.63999938964844,49.560001373291016,141200,49.560001373291016
