Date,High,Low,Open,Close,Volume,Adj Close
2015-12-09,21.0,21.0,21.0,21.0,0,21.0
2015-12-10,28.5,26.5,27.670000076293945,27.780000686645508,15007300,27.780000686645508
2015-12-11,28.5,27.479999542236328,27.850000381469727,27.5,2286100,27.5
2015-12-14,27.860000610351562,26.110000610351562,27.5,26.260000228881836,1223500,26.260000228881836
2015-12-15,26.948999404907227,26.299999237060547,26.389999389648438,26.5,1086400,26.5
2015-12-16,26.950000762939453,26.469999313354492,26.75,26.540000915527344,483700,26.540000915527344
2015-12-17,28.18000030517578,26.649999618530273,26.940000534057617,28.010000228881836,626900,28.010000228881836
2015-12-18,28.239999771118164,27.65999984741211,27.899999618530273,28.219999313354492,945200,28.219999313354492
2015-12-21,29.860000610351562,28.75,28.84000015258789,29.350000381469727,876700,29.350000381469727
2015-12-22,30.739999771118164,29.559999465942383,30.15999984741211,30.100000381469727,954100,30.100000381469727
2015-12-23,30.56999969482422,28.350000381469727,30.56999969482422,28.489999771118164,1071300,28.489999771118164
2015-12-24,28.889999389648438,27.510000228881836,28.329999923706055,28.209999084472656,470800,28.209999084472656
2015-12-28,28.93000030517578,28.0,28.280000686645508,28.899999618530273,342600,28.899999618530273
2015-12-29,31.309999465942383,29.209999084472656,29.209999084472656,31.100000381469727,888100,31.100000381469727
2015-12-30,31.459999084472656,30.0,31.459999084472656,30.209999084472656,297400,30.209999084472656
2015-12-31,31.0,29.989999771118164,30.219999313354492,30.079999923706055,304900,30.079999923706055
2016-01-04,29.030000686645508,27.200000762939453,28.940000534057617,27.40999984741211,1312000,27.40999984741211
2016-01-05,28.0,26.270000457763672,27.90999984741211,26.770000457763672,917700,26.770000457763672
2016-01-06,27.229999542236328,26.020000457763672,26.459999084472656,27.049999237060547,619000,27.049999237060547
2016-01-07,27.319000244140625,26.459999084472656,26.549999237060547,26.969999313354492,661500,26.969999313354492
2016-01-08,27.760000228881836,26.93000030517578,27.059999465942383,27.170000076293945,455900,27.170000076293945
2016-01-11,27.5,26.950000762939453,27.100000381469727,27.1200008392334,808100,27.1200008392334
2016-01-12,27.427000045776367,26.639999389648438,27.200000762939453,26.81999969482422,809000,26.81999969482422
2016-01-13,27.200000762939453,26.0,27.0,26.729999542236328,1231600,26.729999542236328
2016-01-14,27.139999389648438,25.75,26.68000030517578,26.84000015258789,485200,26.84000015258789
2016-01-15,26.315000534057617,24.520000457763672,26.040000915527344,25.190000534057617,1183300,25.190000534057617
2016-01-19,25.709999084472656,23.020000457763672,25.299999237060547,24.020000457763672,1739400,24.020000457763672
2016-01-20,23.65999984741211,21.6200008392334,23.209999084472656,22.6299991607666,1944800,22.6299991607666
2016-01-21,25.079999923706055,22.030000686645508,22.719999313354492,24.239999771118164,759600,24.239999771118164
2016-01-22,25.325000762939453,24.270000457763672,25.110000610351562,24.610000610351562,673100,24.610000610351562
2016-01-25,24.63599967956543,23.450000762939453,24.5,23.670000076293945,581700,23.670000076293945
2016-01-26,24.200000762939453,22.579999923706055,23.68000030517578,24.010000228881836,633600,24.010000228881836
2016-01-27,24.665000915527344,22.1299991607666,24.020000457763672,22.280000686645508,427200,22.280000686645508
2016-01-28,22.965999603271484,20.170000076293945,22.719999313354492,20.389999389648438,1331100,20.389999389648438
2016-01-29,21.75,20.520000457763672,20.989999771118164,20.770000457763672,1261200,20.770000457763672
2016-02-01,21.219999313354492,20.065000534057617,20.690000534057617,21.170000076293945,753800,21.170000076293945
2016-02-02,21.81999969482422,20.670000076293945,21.040000915527344,21.34000015258789,641000,21.34000015258789
2016-02-03,24.5,21.1200008392334,21.93000030517578,23.770000457763672,550100,23.770000457763672
2016-02-04,24.8799991607666,23.350000381469727,24.0,24.0,1613100,24.0
2016-02-05,24.059999465942383,17.549999237060547,24.0,20.190000534057617,3629800,20.190000534057617
2016-02-08,19.979999542236328,16.920000076293945,19.8799991607666,17.920000076293945,3170500,17.920000076293945
2016-02-09,19.459999084472656,17.6200008392334,17.850000381469727,18.920000076293945,1934200,18.920000076293945
2016-02-10,21.170000076293945,19.040000915527344,19.040000915527344,20.059999465942383,1251400,20.059999465942383
2016-02-11,20.3799991607666,19.200000762939453,19.40999984741211,20.350000381469727,714600,20.350000381469727
2016-02-12,20.899999618530273,19.690000534057617,20.479999542236328,20.100000381469727,712200,20.100000381469727
2016-02-16,23.770000457763672,20.399999618530273,20.399999618530273,22.18000030517578,1763100,22.18000030517578
2016-02-17,23.68000030517578,22.31999969482422,22.329999923706055,23.350000381469727,976500,23.350000381469727
2016-02-18,23.93000030517578,21.889999389648438,23.239999771118164,22.0,853200,22.0
2016-02-19,22.68000030517578,20.920000076293945,21.59000015258789,22.1299991607666,920300,22.1299991607666
2016-02-22,22.989999771118164,21.899999618530273,22.100000381469727,22.110000610351562,623200,22.110000610351562
2016-02-23,22.600000381469727,21.8799991607666,21.8799991607666,22.510000228881836,819800,22.510000228881836
2016-02-24,22.670000076293945,21.690000534057617,22.34000015258789,22.559999465942383,463000,22.559999465942383
2016-02-25,23.55500030517578,22.3700008392334,23.010000228881836,23.53499984741211,418900,23.53499984741211
2016-02-26,23.670000076293945,22.809999465942383,23.469999313354492,23.299999237060547,704400,23.299999237060547
2016-02-29,23.989999771118164,23.100000381469727,23.1299991607666,23.770000457763672,723900,23.770000457763672
2016-03-01,24.25,23.15999984741211,23.860000610351562,23.600000381469727,619600,23.600000381469727
2016-03-02,24.190000534057617,23.23200035095215,23.450000762939453,24.15999984741211,516700,24.15999984741211
2016-03-03,24.489999771118164,22.850000381469727,24.040000915527344,23.0,433600,23.0
2016-03-04,23.39900016784668,22.450000762939453,23.239999771118164,23.020000457763672,591200,23.020000457763672
2016-03-07,23.8700008392334,22.489999771118164,22.979999542236328,23.030000686645508,807100,23.030000686645508
2016-03-08,23.010000228881836,22.290000915527344,22.850000381469727,22.360000610351562,305500,22.360000610351562
2016-03-09,23.770000457763672,21.579999923706055,22.549999237060547,21.770000457763672,544600,21.770000457763672
2016-03-10,22.739999771118164,21.239999771118164,21.799999237060547,22.219999313354492,616000,22.219999313354492
2016-03-11,23.56999969482422,22.209999084472656,22.360000610351562,22.969999313354492,519000,22.969999313354492
2016-03-14,23.200000762939453,22.500999450683594,22.969999313354492,22.729999542236328,201000,22.729999542236328
2016-03-15,23.59000015258789,22.299999237060547,22.510000228881836,23.5,327200,23.5
2016-03-16,24.3700008392334,23.40999984741211,23.6299991607666,24.190000534057617,528700,24.190000534057617
2016-03-17,24.670000076293945,23.735000610351562,23.979999542236328,24.420000076293945,280800,24.420000076293945
2016-03-18,24.649999618530273,23.200000762939453,24.329999923706055,23.239999771118164,570600,23.239999771118164
2016-03-21,24.270000457763672,23.06999969482422,23.399999618530273,23.920000076293945,317000,23.920000076293945
2016-03-22,25.020000457763672,23.674999237060547,23.770000457763672,24.690000534057617,465700,24.690000534057617
2016-03-23,25.06999969482422,24.19499969482422,24.75,24.6299991607666,630600,24.6299991607666
2016-03-24,24.600000381469727,23.280000686645508,24.56999969482422,23.81999969482422,700800,23.81999969482422
2016-03-28,24.420000076293945,23.690000534057617,24.0,24.010000228881836,312300,24.010000228881836
2016-03-29,24.238000869750977,23.709999084472656,23.829999923706055,24.110000610351562,262100,24.110000610351562
2016-03-30,24.790000915527344,23.68000030517578,24.049999237060547,23.739999771118164,455500,23.739999771118164
2016-03-31,25.18000030517578,23.649999618530273,23.68000030517578,25.149999618530273,1731600,25.149999618530273
2016-04-01,24.975000381469727,23.5,24.850000381469727,23.690000534057617,587400,23.690000534057617
2016-04-04,24.149999618530273,23.350000381469727,23.770000457763672,24.100000381469727,443900,24.100000381469727
2016-04-05,24.0,22.760000228881836,23.860000610351562,23.479999542236328,407900,23.479999542236328
2016-04-06,23.770000457763672,23.200000762939453,23.440000534057617,23.549999237060547,269300,23.549999237060547
2016-04-07,23.59000015258789,22.84000015258789,23.190000534057617,23.059999465942383,305200,23.059999465942383
2016-04-08,23.6200008392334,23.06999969482422,23.25,23.239999771118164,258600,23.239999771118164
2016-04-11,23.51300048828125,23.100000381469727,23.389999389648438,23.229999542236328,251600,23.229999542236328
2016-04-12,23.440000534057617,22.950000762939453,23.299999237060547,23.110000610351562,372200,23.110000610351562
2016-04-13,23.6299991607666,23.235000610351562,23.270000457763672,23.56999969482422,378800,23.56999969482422
2016-04-14,23.68000030517578,22.899999618530273,23.56999969482422,22.940000534057617,378200,22.940000534057617
2016-04-15,23.190000534057617,22.5,22.899999618530273,22.610000610351562,219600,22.610000610351562
2016-04-18,23.3799991607666,22.510000228881836,22.68000030517578,23.299999237060547,343500,23.299999237060547
2016-04-19,23.559999465942383,23.139999389648438,23.40999984741211,23.399999618530273,323800,23.399999618530273
2016-04-20,24.010000228881836,23.020000457763672,23.420000076293945,23.610000610351562,386000,23.610000610351562
2016-04-21,24.579999923706055,23.649999618530273,23.649999618530273,24.299999237060547,559100,24.299999237060547
2016-04-22,24.450000762939453,23.690000534057617,24.299999237060547,23.81999969482422,359100,23.81999969482422
2016-04-25,24.360000610351562,23.6200008392334,23.6200008392334,23.90999984741211,336000,23.90999984741211
2016-04-26,24.280000686645508,23.850000381469727,24.040000915527344,24.100000381469727,292800,24.100000381469727
2016-04-27,24.420000076293945,23.479999542236328,24.059999465942383,23.65999984741211,615300,23.65999984741211
2016-04-28,23.920000076293945,23.06599998474121,23.690000534057617,23.190000534057617,338000,23.190000534057617
2016-04-29,23.450000762939453,22.549999237060547,23.149999618530273,23.170000076293945,241200,23.170000076293945
2016-05-02,24.209999084472656,23.309999465942383,23.350000381469727,24.170000076293945,190700,24.170000076293945
2016-05-03,23.989999771118164,23.049999237060547,23.93000030517578,23.780000686645508,317200,23.780000686645508
2016-05-04,23.8799991607666,22.780000686645508,23.610000610351562,23.280000686645508,258200,23.280000686645508
2016-05-05,23.489999771118164,22.5,23.3799991607666,23.020000457763672,579000,23.020000457763672
2016-05-06,23.420000076293945,21.100000381469727,22.809999465942383,21.829999923706055,1140200,21.829999923706055
2016-05-09,22.600000381469727,20.902999877929688,21.899999618530273,21.09000015258789,519300,21.09000015258789
2016-05-10,22.0,20.510000228881836,21.049999237060547,21.809999465942383,657200,21.809999465942383
2016-05-11,22.350000381469727,21.100000381469727,21.639999389648438,22.010000228881836,887600,22.010000228881836
2016-05-12,22.1299991607666,21.260000228881836,21.950000762939453,21.579999923706055,324300,21.579999923706055
2016-05-13,22.309999465942383,21.469999313354492,21.469999313354492,21.93000030517578,275400,21.93000030517578
2016-05-16,22.920000076293945,21.75,21.75,22.030000686645508,251700,22.030000686645508
2016-05-17,22.229999542236328,21.530000686645508,21.90999984741211,21.729999542236328,186900,21.729999542236328
2016-05-18,22.260000228881836,21.5,21.56999969482422,22.1200008392334,343600,22.1200008392334
2016-05-19,22.0,21.510000228881836,21.90999984741211,21.799999237060547,800100,21.799999237060547
2016-05-20,22.75,21.549999237060547,21.739999771118164,22.690000534057617,427300,22.690000534057617
2016-05-23,22.989999771118164,22.290000915527344,22.579999923706055,22.3700008392334,567200,22.3700008392334
2016-05-24,23.15999984741211,22.5,22.5,22.81999969482422,642200,22.81999969482422
2016-05-25,23.239999771118164,22.25,22.559999465942383,23.020000457763672,418800,23.020000457763672
2016-05-26,23.260000228881836,22.65999984741211,22.989999771118164,22.90999984741211,292300,22.90999984741211
2016-05-27,22.860000610351562,22.15999984741211,22.709999084472656,22.780000686645508,300800,22.780000686645508
2016-05-31,22.8700008392334,22.299999237060547,22.850000381469727,22.56999969482422,387300,22.56999969482422
2016-06-01,23.950000762939453,22.450000762939453,22.450000762939453,23.93000030517578,506700,23.93000030517578
2016-06-02,25.030000686645508,23.739999771118164,23.959999084472656,24.950000762939453,728400,24.950000762939453
2016-06-03,24.989999771118164,24.0,24.989999771118164,24.149999618530273,393700,24.149999618530273
2016-06-06,24.716999053955078,23.950000762939453,24.020000457763672,24.360000610351562,269400,24.360000610351562
2016-06-07,24.350000381469727,23.309999465942383,23.440000534057617,23.459999084472656,3263000,23.459999084472656
2016-06-08,24.0,22.969999313354492,23.559999465942383,23.790000915527344,1183300,23.790000915527344
2016-06-09,24.170000076293945,23.44099998474121,23.559999465942383,23.989999771118164,872800,23.989999771118164
2016-06-10,23.850000381469727,23.229999542236328,23.520000457763672,23.84000015258789,749400,23.84000015258789
2016-06-13,24.40999984741211,23.53499984741211,23.549999237060547,24.350000381469727,1263200,24.350000381469727
2016-06-14,24.59000015258789,23.844999313354492,24.09000015258789,24.520000457763672,1047900,24.520000457763672
2016-06-15,26.0,24.520000457763672,24.780000686645508,25.989999771118164,2122800,25.989999771118164
2016-06-16,25.979999542236328,24.718000411987305,25.540000915527344,25.5,1517200,25.5
2016-06-17,25.969999313354492,25.190000534057617,25.5,25.809999465942383,593900,25.809999465942383
2016-06-20,26.299999237060547,25.530000686645508,25.979999542236328,26.260000228881836,1117400,26.260000228881836
2016-06-21,26.059999465942383,25.3700008392334,26.0,25.989999771118164,1710700,25.989999771118164
2016-06-22,26.299999237060547,25.520000457763672,25.889999389648438,26.190000534057617,1246900,26.190000534057617
2016-06-23,26.84000015258789,25.940000534057617,26.040000915527344,26.780000686645508,1183200,26.780000686645508
2016-06-24,26.579999923706055,25.010000228881836,25.5,25.899999618530273,2872500,25.899999618530273
2016-06-27,25.84000015258789,24.940000534057617,25.5,24.950000762939453,3529100,24.950000762939453
2016-06-28,25.84000015258789,25.03499984741211,25.360000610351562,25.3799991607666,1407500,25.3799991607666
2016-06-29,26.190000534057617,25.350000381469727,25.6299991607666,25.809999465942383,1309900,25.809999465942383
2016-06-30,26.0,24.889999389648438,25.969999313354492,25.899999618530273,1384100,25.899999618530273
2016-07-01,25.93000030517578,25.389999389648438,25.68000030517578,25.6200008392334,805500,25.6200008392334
2016-07-05,26.18000030517578,25.219999313354492,25.299999237060547,26.170000076293945,1317200,26.170000076293945
2016-07-06,27.049999237060547,25.780000686645508,25.84000015258789,26.969999313354492,2232000,26.969999313354492
2016-07-07,27.0,26.170000076293945,27.0,26.579999923706055,755500,26.579999923706055
2016-07-08,27.09000015258789,26.6200008392334,26.770000457763672,26.979999542236328,634600,26.979999542236328
2016-07-11,27.440000534057617,26.809999465942383,27.079999923706055,27.219999313354492,729300,27.219999313354492
2016-07-12,27.299999237060547,26.924999237060547,27.110000610351562,27.299999237060547,705300,27.299999237060547
2016-07-13,27.979999542236328,27.010000228881836,27.40999984741211,27.110000610351562,650500,27.110000610351562
2016-07-14,27.5,26.940000534057617,27.079999923706055,27.350000381469727,801100,27.350000381469727
2016-07-15,28.0,27.329999923706055,27.579999923706055,27.399999618530273,637300,27.399999618530273
2016-07-18,27.459999084472656,27.079999923706055,27.399999618530273,27.200000762939453,318200,27.200000762939453
2016-07-19,27.530000686645508,27.1200008392334,27.219999313354492,27.510000228881836,426900,27.510000228881836
2016-07-20,28.139999389648438,27.610000610351562,27.729999542236328,28.020000457763672,681400,28.020000457763672
2016-07-21,28.040000915527344,27.709999084472656,27.899999618530273,27.729999542236328,387400,27.729999542236328
2016-07-22,28.200000762939453,27.719999313354492,27.809999465942383,28.15999984741211,260000,28.15999984741211
2016-07-25,28.600000381469727,28.049999237060547,28.200000762939453,28.399999618530273,415900,28.399999618530273
2016-07-26,28.739999771118164,27.850000381469727,28.309999465942383,28.700000762939453,375700,28.700000762939453
2016-07-27,29.118000030517578,28.579999923706055,28.729999542236328,29.0,550500,29.0
2016-07-28,29.959999084472656,29.0,29.229999542236328,29.739999771118164,650600,29.739999771118164
2016-07-29,30.0,29.219999313354492,29.700000762939453,29.969999313354492,700800,29.969999313354492
2016-08-01,29.989999771118164,29.25,29.989999771118164,29.84000015258789,735300,29.84000015258789
2016-08-02,29.959999084472656,29.15999984741211,29.959999084472656,29.329999923706055,611500,29.329999923706055
2016-08-03,30.0,29.0,29.200000762939453,29.790000915527344,768000,29.790000915527344
2016-08-04,30.139999389648438,29.899999618530273,29.989999771118164,30.040000915527344,1684600,30.040000915527344
2016-08-05,32.540000915527344,29.75,30.5,31.969999313354492,2983800,31.969999313354492
2016-08-08,31.899999618530273,29.961999893188477,31.81999969482422,30.489999771118164,3258500,30.489999771118164
2016-08-09,30.850000381469727,29.815000534057617,30.229999542236328,30.65999984741211,2017700,30.65999984741211
2016-08-10,30.3700008392334,28.280000686645508,30.149999618530273,29.950000762939453,1588900,29.950000762939453
2016-08-11,30.329999923706055,29.670000076293945,29.899999618530273,29.979999542236328,562200,29.979999542236328
2016-08-12,30.010000228881836,29.450000762939453,29.920000076293945,30.0,547500,30.0
2016-08-15,30.540000915527344,29.81999969482422,29.850000381469727,30.329999923706055,678500,30.329999923706055
2016-08-16,30.469999313354492,29.950000762939453,30.389999389648438,29.950000762939453,1004800,29.950000762939453
2016-08-17,30.309999465942383,29.524999618530273,29.84000015258789,29.6299991607666,760900,29.6299991607666
2016-08-18,30.0,29.639999389648438,29.700000762939453,29.709999084472656,363000,29.709999084472656
2016-08-19,29.69499969482422,28.729999542236328,29.59000015258789,29.420000076293945,1031100,29.420000076293945
2016-08-22,29.700000762939453,28.8700008392334,29.200000762939453,28.969999313354492,440100,28.969999313354492
2016-08-23,29.31999969482422,28.559999465942383,28.969999313354492,28.969999313354492,669400,28.969999313354492
2016-08-24,29.020000457763672,28.59000015258789,28.979999542236328,28.739999771118164,403700,28.739999771118164
2016-08-25,29.0,28.0,28.469999313354492,28.93000030517578,515200,28.93000030517578
2016-08-26,29.06599998474121,28.565000534057617,28.739999771118164,28.940000534057617,647700,28.940000534057617
2016-08-29,29.260000228881836,28.719999313354492,28.739999771118164,29.020000457763672,1002000,29.020000457763672
2016-08-30,29.719999313354492,28.8799991607666,29.040000915527344,29.700000762939453,985800,29.700000762939453
2016-08-31,29.690000534057617,28.65999984741211,29.610000610351562,29.479999542236328,972700,29.479999542236328
2016-09-01,30.0,29.299999237060547,29.299999237060547,29.969999313354492,606900,29.969999313354492
2016-09-02,30.239999771118164,29.770000457763672,30.0,30.100000381469727,468300,30.100000381469727
2016-09-06,30.450000762939453,29.889999389648438,30.280000686645508,30.420000076293945,650400,30.420000076293945
2016-09-07,30.9950008392334,30.25,30.34000015258789,30.639999389648438,973100,30.639999389648438
2016-09-08,31.100000381469727,30.34000015258789,30.600000381469727,30.670000076293945,822800,30.670000076293945
2016-09-09,30.600000381469727,29.350000381469727,30.559999465942383,29.479999542236328,621100,29.479999542236328
2016-09-12,30.290000915527344,28.959999084472656,29.25,30.229999542236328,454300,30.229999542236328
2016-09-13,30.079999923706055,29.34000015258789,29.850000381469727,29.489999771118164,485300,29.489999771118164
2016-09-14,30.239999771118164,29.290000915527344,29.479999542236328,29.729999542236328,300600,29.729999542236328
2016-09-15,30.100000381469727,29.295000076293945,29.729999542236328,30.010000228881836,275900,30.010000228881836
2016-09-16,30.170000076293945,29.600000381469727,29.899999618530273,30.0,422400,30.0
2016-09-19,30.59000015258789,29.719999313354492,29.989999771118164,30.290000915527344,549800,30.290000915527344
2016-09-20,30.600000381469727,30.059999465942383,30.5,30.260000228881836,410000,30.260000228881836
2016-09-21,35.15999984741211,30.18000030517578,30.450000762939453,31.899999618530273,2225500,31.899999618530273
2016-09-22,32.099998474121094,30.40999984741211,32.099998474121094,31.360000610351562,1646800,31.360000610351562
2016-09-23,31.540000915527344,30.6299991607666,31.459999084472656,30.75,406000,30.75
2016-09-26,30.700000762939453,29.709999084472656,30.389999389648438,30.020000457763672,606300,30.020000457763672
2016-09-27,30.420000076293945,29.450000762939453,29.899999618530273,29.780000686645508,634400,29.780000686645508
2016-09-28,30.170000076293945,29.520000457763672,29.829999923706055,30.0,530500,30.0
2016-09-29,31.489999771118164,29.920000076293945,31.479999542236328,30.31999969482422,1036100,30.31999969482422
2016-09-30,30.399999618530273,29.969999313354492,30.399999618530273,29.969999313354492,579600,29.969999313354492
2016-10-03,30.0,28.559999465942383,29.799999237060547,29.190000534057617,713400,29.190000534057617
2016-10-04,29.312000274658203,28.559999465942383,29.1299991607666,28.719999313354492,817700,28.719999313354492
2016-10-05,29.889999389648438,28.989999771118164,29.280000686645508,29.079999923706055,487900,29.079999923706055
2016-10-06,29.479999542236328,28.600000381469727,29.149999618530273,28.850000381469727,344300,28.850000381469727
2016-10-07,28.895000457763672,28.1200008392334,28.780000686645508,28.270000457763672,465200,28.270000457763672
2016-10-10,28.809999465942383,28.190000534057617,28.3799991607666,28.459999084472656,399300,28.459999084472656
2016-10-11,28.610000610351562,28.110000610351562,28.350000381469727,28.40999984741211,715600,28.40999984741211
2016-10-12,28.3700008392334,27.84000015258789,28.229999542236328,28.0,535000,28.0
2016-10-13,28.479999542236328,27.549999237060547,27.75,28.049999237060547,434600,28.049999237060547
2016-10-14,28.610000610351562,27.889999389648438,28.34000015258789,28.420000076293945,437300,28.420000076293945
2016-10-17,28.5,28.299999237060547,28.5,28.43000030517578,391600,28.43000030517578
2016-10-18,28.989999771118164,28.479999542236328,28.530000686645508,28.90999984741211,452200,28.90999984741211
2016-10-19,29.15999984741211,28.540000915527344,29.0,29.030000686645508,279600,29.030000686645508
2016-10-20,29.239999771118164,28.549999237060547,29.100000381469727,28.700000762939453,392900,28.700000762939453
2016-10-21,29.204999923706055,28.59000015258789,28.829999923706055,29.040000915527344,466400,29.040000915527344
2016-10-24,29.690000534057617,29.0,29.690000534057617,29.25,241500,29.25
2016-10-25,29.440000534057617,28.899999618530273,29.3700008392334,29.139999389648438,447500,29.139999389648438
2016-10-26,29.510000228881836,28.645000457763672,28.950000762939453,28.770000457763672,1108400,28.770000457763672
2016-10-27,29.06999969482422,28.139999389648438,28.860000610351562,28.309999465942383,952800,28.309999465942383
2016-10-28,28.040000915527344,26.84000015258789,28.020000457763672,27.200000762939453,2521000,27.200000762939453
2016-10-31,27.059999465942383,26.059999465942383,27.0,26.860000610351562,2278200,26.860000610351562
2016-11-01,27.290000915527344,26.59000015258789,26.780000686645508,27.190000534057617,2334900,27.190000534057617
2016-11-02,27.299999237060547,26.690000534057617,27.06999969482422,27.1299991607666,974100,27.1299991607666
2016-11-03,27.229999542236328,26.84000015258789,27.040000915527344,26.940000534057617,656900,26.940000534057617
2016-11-04,27.09000015258789,26.770000457763672,26.84000015258789,26.899999618530273,593300,26.899999618530273
2016-11-07,27.450000762939453,26.670000076293945,27.010000228881836,27.440000534057617,856300,27.440000534057617
2016-11-08,27.600000381469727,27.020000457763672,27.309999465942383,27.420000076293945,943600,27.420000076293945
2016-11-09,27.40999984741211,25.739999771118164,26.0,27.31999969482422,882000,27.31999969482422
2016-11-10,27.649999618530273,27.040000915527344,27.299999237060547,27.469999313354492,904900,27.469999313354492
2016-11-11,27.65999984741211,27.190000534057617,27.40999984741211,27.489999771118164,562900,27.489999771118164
2016-11-14,28.15999984741211,27.25,27.520000457763672,27.59000015258789,1665100,27.59000015258789
2016-11-15,28.0,27.15999984741211,27.719999313354492,27.90999984741211,646500,27.90999984741211
2016-11-16,28.559999465942383,27.6299991607666,27.90999984741211,28.549999237060547,1111100,28.549999237060547
2016-11-17,29.399999618530273,28.3799991607666,28.59000015258789,29.360000610351562,594600,29.360000610351562
2016-11-18,29.385000228881836,28.56999969482422,29.190000534057617,28.760000228881836,955800,28.760000228881836
2016-11-21,28.849000930786133,27.719999313354492,28.709999084472656,27.90999984741211,825600,27.90999984741211
2016-11-22,27.850000381469727,27.049999237060547,27.850000381469727,27.34000015258789,586100,27.34000015258789
2016-11-23,27.65999984741211,27.0,27.360000610351562,27.40999984741211,755600,27.40999984741211
2016-11-25,27.549999237060547,27.110000610351562,27.5,27.420000076293945,219300,27.420000076293945
2016-11-28,27.75,27.049999237060547,27.110000610351562,27.219999313354492,549800,27.219999313354492
2016-11-29,28.083999633789062,27.079999923706055,27.1200008392334,27.610000610351562,780100,27.610000610351562
2016-11-30,27.520000457763672,26.75,27.510000228881836,27.139999389648438,1558500,27.139999389648438
2016-12-01,27.030000686645508,25.860000610351562,27.030000686645508,26.1200008392334,1186900,26.1200008392334
2016-12-02,26.719999313354492,24.489999771118164,26.709999084472656,25.229999542236328,3329700,25.229999542236328
2016-12-05,25.969999313354492,25.0,25.1299991607666,25.59000015258789,719100,25.59000015258789
2016-12-06,25.829999923706055,25.350000381469727,25.770000457763672,25.579999923706055,553500,25.579999923706055
2016-12-07,26.270000457763672,25.43000030517578,25.649999618530273,26.079999923706055,573700,26.079999923706055
2016-12-08,26.559999465942383,25.670000076293945,26.18000030517578,26.530000686645508,439400,26.530000686645508
2016-12-09,26.989999771118164,26.375,26.709999084472656,26.549999237060547,825800,26.549999237060547
2016-12-12,26.65999984741211,25.5,26.309999465942383,25.639999389648438,580300,25.639999389648438
2016-12-13,25.790000915527344,25.229999542236328,25.639999389648438,25.280000686645508,1030100,25.280000686645508
2016-12-14,25.5,24.84000015258789,25.299999237060547,24.889999389648438,1046900,24.889999389648438
2016-12-15,25.18000030517578,24.540000915527344,24.940000534057617,24.649999618530273,1157400,24.649999618530273
2016-12-16,24.829999923706055,24.1200008392334,24.639999389648438,24.190000534057617,1379200,24.190000534057617
2016-12-19,25.239999771118164,23.799999237060547,25.239999771118164,24.06999969482422,1835300,24.06999969482422
2016-12-20,24.729999542236328,24.0,24.079999923706055,24.610000610351562,1230400,24.610000610351562
2016-12-21,24.739999771118164,23.8799991607666,24.649999618530273,24.329999923706055,1174300,24.329999923706055
2016-12-22,24.395000457763672,23.85300064086914,24.34000015258789,24.049999237060547,1358100,24.049999237060547
2016-12-23,24.368000030517578,23.90999984741211,24.110000610351562,24.1299991607666,318600,24.1299991607666
2016-12-27,26.020000457763672,24.059999465942383,24.40999984741211,24.309999465942383,714900,24.309999465942383
2016-12-28,24.440000534057617,23.93000030517578,24.360000610351562,24.25,598300,24.25
2016-12-29,24.479999542236328,24.149999618530273,24.270000457763672,24.260000228881836,525400,24.260000228881836
2016-12-30,24.389999389648438,23.959999084472656,24.34000015258789,24.079999923706055,537300,24.079999923706055
2017-01-03,24.729999542236328,24.200000762939453,24.31999969482422,24.600000381469727,487800,24.600000381469727
2017-01-04,25.610000610351562,24.714000701904297,24.75,25.149999618530273,556500,25.149999618530273
2017-01-05,25.579999923706055,24.709999084472656,25.15999984741211,24.969999313354492,594900,24.969999313354492
2017-01-06,25.25,24.634000778198242,25.06999969482422,24.719999313354492,931600,24.719999313354492
2017-01-09,25.1200008392334,24.709999084472656,24.729999542236328,25.030000686645508,510600,25.030000686645508
2017-01-10,25.3799991607666,24.950000762939453,25.030000686645508,25.239999771118164,495500,25.239999771118164
2017-01-11,26.079999923706055,25.15999984741211,25.280000686645508,26.0,677800,26.0
2017-01-12,26.84000015258789,26.010000228881836,26.030000686645508,26.809999465942383,1214300,26.809999465942383
2017-01-13,26.979999542236328,26.479999542236328,26.920000076293945,26.90999984741211,564800,26.90999984741211
2017-01-17,26.8700008392334,26.42799949645996,26.81999969482422,26.6299991607666,674700,26.6299991607666
2017-01-18,27.450000762939453,26.6200008392334,26.8799991607666,27.200000762939453,1101500,27.200000762939453
2017-01-19,27.510000228881836,27.139999389648438,27.350000381469727,27.420000076293945,921800,27.420000076293945
2017-01-20,28.139999389648438,26.959999084472656,27.209999084472656,28.030000686645508,2014800,28.030000686645508
2017-01-23,27.969999313354492,27.229999542236328,27.780000686645508,27.639999389648438,1493600,27.639999389648438
2017-01-24,28.100000381469727,27.3799991607666,27.520000457763672,27.93000030517578,666400,27.93000030517578
2017-01-25,28.690000534057617,27.68000030517578,28.690000534057617,27.850000381469727,1066500,27.850000381469727
2017-01-26,27.989999771118164,27.6200008392334,27.860000610351562,27.770000457763672,508900,27.770000457763672
2017-01-27,27.969999313354492,27.520000457763672,27.809999465942383,27.760000228881836,643900,27.760000228881836
2017-01-30,27.690000534057617,26.969999313354492,27.510000228881836,27.610000610351562,449400,27.610000610351562
2017-01-31,27.700000762939453,27.06999969482422,27.389999389648438,27.6299991607666,664800,27.6299991607666
2017-02-01,28.190000534057617,27.329999923706055,27.56999969482422,28.020000457763672,857300,28.020000457763672
2017-02-02,28.184999465942383,27.6200008392334,28.0,28.139999389648438,518000,28.139999389648438
2017-02-03,28.3700008392334,27.850000381469727,28.059999465942383,28.15999984741211,401000,28.15999984741211
2017-02-06,27.979999542236328,27.719999313354492,27.959999084472656,27.93000030517578,237900,27.93000030517578
2017-02-07,28.100000381469727,27.809999465942383,28.0,28.0,272900,28.0
2017-02-08,28.190000534057617,27.68000030517578,27.979999542236328,28.110000610351562,237600,28.110000610351562
2017-02-09,28.3799991607666,27.957000732421875,28.110000610351562,28.260000228881836,426000,28.260000228881836
2017-02-10,28.81999969482422,28.101999282836914,28.209999084472656,28.639999389648438,526700,28.639999389648438
2017-02-13,28.989999771118164,28.5,28.639999389648438,28.920000076293945,428900,28.920000076293945
2017-02-14,29.0,28.75,28.950000762939453,28.959999084472656,351800,28.959999084472656
2017-02-15,29.739999771118164,28.84600067138672,28.899999618530273,29.6200008392334,580600,29.6200008392334
2017-02-16,29.59000015258789,28.8799991607666,29.469999313354492,29.15999984741211,393500,29.15999984741211
2017-02-17,29.899999618530273,28.760000228881836,28.959999084472656,29.889999389648438,614100,29.889999389648438
2017-02-21,30.239999771118164,29.530000686645508,29.790000915527344,30.049999237060547,717400,30.049999237060547
2017-02-22,30.239999771118164,29.280000686645508,30.059999465942383,29.420000076293945,524000,29.420000076293945
2017-02-23,29.625,29.309999465942383,29.350000381469727,29.5,398500,29.5
2017-02-24,29.389999389648438,29.059999465942383,29.389999389648438,29.270000457763672,252900,29.270000457763672
2017-02-27,29.200000762939453,28.729999542236328,29.059999465942383,28.81999969482422,457100,28.81999969482422
2017-02-28,29.0,28.389999389648438,28.540000915527344,28.440000534057617,556400,28.440000534057617
2017-03-01,28.989999771118164,28.25,28.729999542236328,28.93000030517578,412800,28.93000030517578
2017-03-02,28.969999313354492,28.530000686645508,28.829999923706055,28.600000381469727,572600,28.600000381469727
2017-03-03,28.889999389648438,28.399999618530273,28.65999984741211,28.790000915527344,381400,28.790000915527344
2017-03-06,28.760000228881836,28.34000015258789,28.559999465942383,28.6299991607666,358300,28.6299991607666
2017-03-07,28.829999923706055,28.360000610351562,28.690000534057617,28.549999237060547,453200,28.549999237060547
2017-03-08,28.709999084472656,28.31999969482422,28.670000076293945,28.6299991607666,246200,28.6299991607666
2017-03-09,28.799999237060547,28.299999237060547,28.75,28.540000915527344,272300,28.540000915527344
2017-03-10,28.716999053955078,28.5,28.690000534057617,28.670000076293945,240500,28.670000076293945
2017-03-13,29.190000534057617,28.579999923706055,28.579999923706055,29.1299991607666,381600,29.1299991607666
2017-03-14,29.149999618530273,28.735000610351562,29.149999618530273,28.920000076293945,325000,28.920000076293945
2017-03-15,29.15999984741211,28.78499984741211,29.040000915527344,29.030000686645508,510000,29.030000686645508
2017-03-16,29.459999084472656,28.920000076293945,29.1299991607666,29.389999389648438,423000,29.389999389648438
2017-03-17,29.760000228881836,29.391000747680664,29.530000686645508,29.65999984741211,446100,29.65999984741211
2017-03-20,29.889999389648438,29.100000381469727,29.809999465942383,29.450000762939453,538900,29.450000762939453
2017-03-21,29.790000915527344,28.75,29.729999542236328,28.989999771118164,752800,28.989999771118164
2017-03-22,29.3799991607666,28.799999237060547,29.040000915527344,29.18000030517578,680200,29.18000030517578
2017-03-23,29.763999938964844,29.020000457763672,29.020000457763672,29.290000915527344,583700,29.290000915527344
2017-03-24,29.70599937438965,29.084999084472656,29.31999969482422,29.43000030517578,392700,29.43000030517578
2017-03-27,29.760000228881836,29.139999389648438,29.299999237060547,29.59000015258789,341100,29.59000015258789
2017-03-28,30.0,29.31999969482422,29.600000381469727,29.809999465942383,382200,29.809999465942383
2017-03-29,29.959999084472656,29.40999984741211,29.809999465942383,29.850000381469727,434900,29.850000381469727
2017-03-30,30.0,29.6200008392334,29.899999618530273,29.829999923706055,612800,29.829999923706055
2017-03-31,30.0,29.579999923706055,29.639999389648438,29.950000762939453,322200,29.950000762939453
2017-04-03,30.079999923706055,29.559999465942383,29.850000381469727,29.739999771118164,548100,29.739999771118164
2017-04-04,30.0,29.68000030517578,29.809999465942383,29.90999984741211,353200,29.90999984741211
2017-04-05,30.3799991607666,29.889999389648438,30.0,30.110000610351562,647700,30.110000610351562
2017-04-06,31.329999923706055,30.149999618530273,30.149999618530273,31.31999969482422,1167900,31.31999969482422
2017-04-07,31.43000030517578,31.110000610351562,31.110000610351562,31.31999969482422,685500,31.31999969482422
2017-04-10,31.690000534057617,31.075000762939453,31.43000030517578,31.549999237060547,537900,31.549999237060547
2017-04-11,31.5,30.829999923706055,31.43000030517578,31.219999313354492,739400,31.219999313354492
2017-04-12,31.639999389648438,31.010000228881836,31.010000228881836,31.600000381469727,580400,31.600000381469727
2017-04-13,31.6200008392334,31.18000030517578,31.600000381469727,31.229999542236328,560400,31.229999542236328
2017-04-17,31.600000381469727,31.290000915527344,31.34000015258789,31.489999771118164,340800,31.489999771118164
2017-04-18,31.719999313354492,31.260000228881836,31.450000762939453,31.59000015258789,411200,31.59000015258789
2017-04-19,31.979999542236328,31.450000762939453,31.579999923706055,31.829999923706055,534500,31.829999923706055
2017-04-20,31.5,30.90999984741211,31.440000534057617,31.270000457763672,1040900,31.270000457763672
2017-04-21,31.614999771118164,31.200000762939453,31.440000534057617,31.540000915527344,735900,31.540000915527344
2017-04-24,32.029998779296875,31.579999923706055,31.889999389648438,32.02000045776367,463500,32.02000045776367
2017-04-25,32.810001373291016,31.790000915527344,31.969999313354492,32.56999969482422,670700,32.56999969482422
2017-04-26,32.849998474121094,32.45000076293945,32.56999969482422,32.81999969482422,515200,32.81999969482422
2017-04-27,33.56999969482422,32.54999923706055,32.65999984741211,33.470001220703125,1403900,33.470001220703125
2017-04-28,34.970001220703125,33.66999816894531,34.20000076293945,34.47999954223633,1870700,34.47999954223633
2017-05-01,34.790000915527344,32.84000015258789,33.650001525878906,34.720001220703125,1684500,34.720001220703125
2017-05-02,34.95000076293945,34.29999923706055,34.689998626708984,34.939998626708984,1150100,34.939998626708984
2017-05-03,35.31999969482422,34.84000015258789,34.959999084472656,35.279998779296875,933400,35.279998779296875
2017-05-04,36.88999938964844,35.130001068115234,35.36000061035156,36.529998779296875,1066400,36.529998779296875
2017-05-05,37.0099983215332,36.029998779296875,36.47999954223633,36.810001373291016,678600,36.810001373291016
2017-05-08,37.040000915527344,36.529998779296875,36.91999816894531,36.81999969482422,865000,36.81999969482422
2017-05-09,37.060001373291016,36.650001525878906,36.83000183105469,36.84000015258789,948400,36.84000015258789
2017-05-10,37.41999816894531,36.599998474121094,36.790000915527344,37.18000030517578,546600,37.18000030517578
2017-05-11,37.119998931884766,36.46099853515625,37.0,36.93000030517578,613900,36.93000030517578
2017-05-12,37.189998626708984,36.400001525878906,36.790000915527344,36.84000015258789,1674600,36.84000015258789
2017-05-15,37.27000045776367,36.810001373291016,36.91999816894531,37.060001373291016,886300,37.060001373291016
2017-05-16,37.150001525878906,36.84000015258789,37.060001373291016,36.900001525878906,564400,36.900001525878906
2017-05-17,36.650001525878906,35.349998474121094,36.5099983215332,35.400001525878906,976400,35.400001525878906
2017-05-18,35.52000045776367,34.7400016784668,35.29999923706055,35.34000015258789,845900,35.34000015258789
2017-05-19,35.63999938964844,35.1150016784668,35.459999084472656,35.25,1017500,35.25
2017-05-22,35.70000076293945,34.76499938964844,35.13999938964844,35.560001373291016,839700,35.560001373291016
2017-05-23,35.779998779296875,35.209999084472656,35.630001068115234,35.43000030517578,941900,35.43000030517578
2017-05-24,35.9900016784668,35.29999923706055,35.40999984741211,35.900001525878906,735400,35.900001525878906
2017-05-25,36.0,35.41999816894531,35.7599983215332,35.95000076293945,677100,35.95000076293945
2017-05-26,35.9900016784668,35.41999816894531,35.810001373291016,35.58000183105469,639100,35.58000183105469
2017-05-30,35.755001068115234,35.279998779296875,35.459999084472656,35.599998474121094,494800,35.599998474121094
2017-05-31,35.7599983215332,35.20000076293945,35.66999816894531,35.7599983215332,450000,35.7599983215332
2017-06-01,36.52000045776367,35.619998931884766,35.86000061035156,36.5099983215332,531100,36.5099983215332
2017-06-02,36.7599983215332,36.2599983215332,36.61000061035156,36.7400016784668,284600,36.7400016784668
2017-06-05,37.14799880981445,36.630001068115234,36.70000076293945,36.86000061035156,481400,36.86000061035156
2017-06-06,37.83000183105469,36.599998474121094,36.77000045776367,37.709999084472656,826000,37.709999084472656
2017-06-07,37.900001525878906,36.56999969482422,37.779998779296875,36.869998931884766,824700,36.869998931884766
2017-06-08,37.27000045776367,36.59000015258789,37.04999923706055,37.209999084472656,733500,37.209999084472656
2017-06-09,37.5,34.30699920654297,37.38999938964844,34.619998931884766,900900,34.619998931884766
2017-06-12,34.88999938964844,32.58000183105469,34.5099983215332,34.56999969482422,1014300,34.56999969482422
2017-06-13,35.349998474121094,34.45000076293945,34.790000915527344,34.630001068115234,563700,34.630001068115234
2017-06-14,35.2400016784668,34.220001220703125,34.81999969482422,34.630001068115234,360600,34.630001068115234
2017-06-15,34.709999084472656,34.064998626708984,34.34000015258789,34.63999938964844,434100,34.63999938964844
2017-06-16,34.81999969482422,34.2599983215332,34.779998779296875,34.790000915527344,483400,34.790000915527344
2017-06-19,35.25,34.52000045776367,34.939998626708984,34.849998474121094,401900,34.849998474121094
2017-06-20,34.970001220703125,34.38999938964844,34.810001373291016,34.599998474121094,487500,34.599998474121094
2017-06-21,35.0099983215332,34.33000183105469,34.79999923706055,34.79999923706055,408500,34.79999923706055
2017-06-22,35.45000076293945,34.63999938964844,34.720001220703125,35.29999923706055,489200,35.29999923706055
2017-06-23,36.27000045776367,35.0,35.29999923706055,36.0,3442100,36.0
2017-06-26,36.38999938964844,35.58000183105469,36.0099983215332,35.93000030517578,635700,35.93000030517578
2017-06-27,36.47999954223633,35.540000915527344,35.90999984741211,35.66999816894531,561500,35.66999816894531
2017-06-28,36.25,35.45000076293945,35.849998474121094,36.099998474121094,340200,36.099998474121094
2017-06-29,36.0099983215332,34.75,36.0099983215332,35.18000030517578,590900,35.18000030517578
2017-06-30,35.66999816894531,34.90999984741211,35.27000045776367,35.18000030517578,295300,35.18000030517578
2017-07-03,35.29999923706055,33.34000015258789,35.25,34.15999984741211,539400,34.15999984741211
2017-07-05,34.790000915527344,34.07500076293945,34.20000076293945,34.68000030517578,566200,34.68000030517578
2017-07-06,35.02000045776367,34.244998931884766,34.400001525878906,34.619998931884766,594600,34.619998931884766
2017-07-07,35.81999969482422,34.61000061035156,34.72999954223633,35.310001373291016,471500,35.310001373291016
2017-07-10,35.58300018310547,34.9900016784668,35.310001373291016,35.31999969482422,282500,35.31999969482422
2017-07-11,35.560001373291016,34.88999938964844,35.15999984741211,35.34000015258789,517700,35.34000015258789
2017-07-12,36.400001525878906,35.59000015258789,35.7599983215332,36.2400016784668,364700,36.2400016784668
2017-07-13,36.43000030517578,35.4900016784668,36.29999923706055,35.529998779296875,258200,35.529998779296875
2017-07-14,35.75,35.27000045776367,35.720001220703125,35.650001525878906,231800,35.650001525878906
2017-07-17,35.790000915527344,35.40999984741211,35.75,35.650001525878906,214900,35.650001525878906
2017-07-18,35.66999816894531,35.2599983215332,35.66999816894531,35.43000030517578,332300,35.43000030517578
2017-07-19,36.36000061035156,35.349998474121094,35.54999923706055,36.2599983215332,334700,36.2599983215332
2017-07-20,36.290000915527344,35.61000061035156,36.290000915527344,35.97999954223633,316600,35.97999954223633
2017-07-21,36.29999923706055,35.4900016784668,35.970001220703125,35.75,210900,35.75
2017-07-24,36.4900016784668,35.41999816894531,35.41999816894531,36.40999984741211,400800,36.40999984741211
2017-07-25,38.4900016784668,36.939998626708984,36.939998626708984,38.0,1110700,38.0
2017-07-26,38.9900016784668,37.41999816894531,38.0,38.84000015258789,686200,38.84000015258789
2017-07-27,39.25,37.12799835205078,39.0,37.970001220703125,1001400,37.970001220703125
2017-07-28,37.36000061035156,35.09000015258789,37.209999084472656,37.13999938964844,1582300,37.13999938964844
2017-07-31,36.93000030517578,35.349998474121094,36.93000030517578,35.81999969482422,1378900,35.81999969482422
2017-08-01,36.31999969482422,35.33000183105469,35.81999969482422,36.290000915527344,760700,36.290000915527344
2017-08-02,36.5,34.439998626708984,36.369998931884766,34.5,858000,34.5
2017-08-03,35.22999954223633,34.5099983215332,34.650001525878906,35.040000915527344,723900,35.040000915527344
2017-08-04,35.36000061035156,34.7599983215332,35.0,35.33000183105469,315900,35.33000183105469
2017-08-07,35.5099983215332,34.90999984741211,35.5099983215332,35.43000030517578,423300,35.43000030517578
2017-08-08,35.369998931884766,35.040000915527344,35.29999923706055,35.150001525878906,295600,35.150001525878906
2017-08-09,35.459999084472656,34.83000183105469,35.0,35.439998626708984,552600,35.439998626708984
2017-08-10,35.29999923706055,34.540000915527344,35.25,34.779998779296875,829300,34.779998779296875
2017-08-11,35.470001220703125,34.47999954223633,35.06999969482422,35.459999084472656,421800,35.459999084472656
2017-08-14,36.0,35.560001373291016,35.630001068115234,35.97999954223633,330300,35.97999954223633
2017-08-15,36.38999938964844,35.689998626708984,35.97999954223633,36.369998931884766,425400,36.369998931884766
2017-08-16,37.66999816894531,36.13999938964844,36.38999938964844,37.459999084472656,705300,37.459999084472656
2017-08-17,37.33000183105469,36.689998626708984,37.2599983215332,36.90999984741211,604600,36.90999984741211
2017-08-18,36.91999816894531,36.2400016784668,36.91999816894531,36.34000015258789,433500,36.34000015258789
2017-08-21,36.48500061035156,34.939998626708984,36.220001220703125,36.16999816894531,904000,36.16999816894531
2017-08-22,36.40800094604492,35.38999938964844,36.369998931884766,35.900001525878906,436600,35.900001525878906
2017-08-23,36.220001220703125,35.45000076293945,35.56999969482422,35.75,289100,35.75
2017-08-24,35.81999969482422,34.68000030517578,35.75,35.220001220703125,548000,35.220001220703125
2017-08-25,35.29399871826172,34.459999084472656,35.189998626708984,34.63999938964844,502000,34.63999938964844
2017-08-28,34.81999969482422,33.939998626708984,34.70000076293945,34.68000030517578,471500,34.68000030517578
2017-08-29,34.970001220703125,34.27000045776367,34.34000015258789,34.61000061035156,420400,34.61000061035156
2017-08-30,35.560001373291016,34.34000015258789,34.529998779296875,35.529998779296875,451800,35.529998779296875
2017-08-31,35.65999984741211,34.93000030517578,35.43000030517578,35.599998474121094,487000,35.599998474121094
2017-09-01,35.65999984741211,34.84000015258789,35.529998779296875,34.900001525878906,345900,34.900001525878906
2017-09-05,34.959999084472656,34.25,34.959999084472656,34.900001525878906,303800,34.900001525878906
2017-09-06,35.06999969482422,34.31999969482422,35.060001373291016,34.38999938964844,259500,34.38999938964844
2017-09-07,34.779998779296875,34.40999984741211,34.59000015258789,34.4900016784668,298900,34.4900016784668
2017-09-08,34.630001068115234,34.189998626708984,34.54999923706055,34.349998474121094,286000,34.349998474121094
2017-09-11,36.0,34.47999954223633,36.0,35.029998779296875,381500,35.029998779296875
2017-09-12,34.86000061035156,33.65999984741211,34.83000183105469,33.79999923706055,582000,33.79999923706055
2017-09-13,34.029998779296875,33.15999984741211,33.880001068115234,33.81999969482422,733900,33.81999969482422
2017-09-14,36.619998931884766,33.81999969482422,33.93000030517578,36.54999923706055,1195100,36.54999923706055
2017-09-15,36.72999954223633,35.83000183105469,36.630001068115234,36.150001525878906,686400,36.150001525878906
2017-09-18,36.45000076293945,35.47999954223633,36.130001068115234,36.38999938964844,467700,36.38999938964844
2017-09-19,36.5,35.91999816894531,36.5,36.41999816894531,630800,36.41999816894531
2017-09-20,36.744998931884766,35.709999084472656,36.470001220703125,36.06999969482422,790900,36.06999969482422
2017-09-21,36.474998474121094,34.880001068115234,36.310001373291016,35.15999984741211,554500,35.15999984741211
2017-09-22,35.31999969482422,34.849998474121094,35.15999984741211,35.16999816894531,475200,35.16999816894531
2017-09-25,35.43000030517578,33.83000183105469,35.11000061035156,34.22999954223633,724700,34.22999954223633
2017-09-26,34.63999938964844,33.61000061035156,34.529998779296875,33.939998626708984,825000,33.939998626708984
2017-09-27,34.400001525878906,33.91999816894531,34.15999984741211,34.29999923706055,280200,34.29999923706055
2017-09-28,34.720001220703125,34.22999954223633,34.310001373291016,34.4900016784668,365900,34.4900016784668
2017-09-29,35.15999984741211,34.400001525878906,34.52000045776367,35.150001525878906,499100,35.150001525878906
2017-10-02,36.290000915527344,35.0,35.0,36.25,715700,36.25
2017-10-03,36.93000030517578,36.09000015258789,36.40999984741211,36.650001525878906,868700,36.650001525878906
2017-10-04,38.0,36.52000045776367,36.58000183105469,37.88999938964844,1288700,37.88999938964844
2017-10-05,38.34000015258789,37.720001220703125,37.869998931884766,38.150001525878906,896300,38.150001525878906
2017-10-06,38.869998931884766,37.470001220703125,38.119998931884766,38.66999816894531,990000,38.66999816894531
2017-10-09,40.0,38.630001068115234,38.79999923706055,39.59000015258789,1505400,39.59000015258789
2017-10-10,40.43000030517578,39.650001525878906,39.65999984741211,39.77000045776367,1857800,39.77000045776367
2017-10-11,40.95000076293945,39.869998931884766,39.88999938964844,40.38999938964844,1326700,40.38999938964844
2017-10-12,40.65999984741211,40.10100173950195,40.400001525878906,40.33000183105469,746300,40.33000183105469
2017-10-13,40.459999084472656,39.2400016784668,40.459999084472656,39.63999938964844,685900,39.63999938964844
2017-10-16,40.0,39.209999084472656,39.81999969482422,39.54999923706055,758900,39.54999923706055
2017-10-17,39.970001220703125,39.33000183105469,39.61000061035156,39.75,992200,39.75
2017-10-18,39.939998626708984,39.470001220703125,39.75,39.810001373291016,632000,39.810001373291016
2017-10-19,40.29999923706055,39.060001373291016,39.4900016784668,40.25,1311300,40.25
2017-10-20,50.880001068115234,41.93000030517578,45.97999954223633,50.16999816894531,7226400,50.16999816894531
2017-10-23,49.06999969482422,47.470001220703125,48.65999984741211,49.0,3398300,49.0
2017-10-24,49.560001373291016,48.0,48.54999923706055,49.279998779296875,1320100,49.279998779296875
2017-10-25,49.27000045776367,46.81100082397461,49.27000045776367,48.2599983215332,1700000,48.2599983215332
2017-10-26,48.7400016784668,47.58000183105469,48.08000183105469,47.90999984741211,817700,47.90999984741211
2017-10-27,48.375999450683594,46.400001525878906,48.02000045776367,47.029998779296875,1260000,47.029998779296875
2017-10-30,48.53499984741211,46.599998474121094,46.91999816894531,48.310001373291016,1028400,48.310001373291016
2017-10-31,49.15999984741211,47.540000915527344,48.27000045776367,48.369998931884766,1097100,48.369998931884766
2017-11-01,48.7599983215332,46.93000030517578,48.23500061035156,48.689998626708984,1261800,48.689998626708984
2017-11-02,50.47999954223633,48.18000030517578,48.61000061035156,49.43000030517578,2227400,49.43000030517578
2017-11-03,51.77000045776367,48.79999923706055,49.56999969482422,50.9900016784668,2127900,50.9900016784668
2017-11-06,52.09000015258789,49.86000061035156,50.97999954223633,52.060001373291016,1615300,52.060001373291016
2017-11-07,52.48899841308594,50.779998779296875,52.27000045776367,51.810001373291016,1097600,51.810001373291016
2017-11-08,53.209999084472656,51.29999923706055,51.7599983215332,52.939998626708984,1215900,52.939998626708984
2017-11-09,52.459999084472656,51.279998779296875,52.279998779296875,52.33000183105469,1023900,52.33000183105469
2017-11-10,52.81999969482422,51.91999816894531,52.290000915527344,52.400001525878906,634300,52.400001525878906
2017-11-13,52.369998931884766,51.2599983215332,51.900001525878906,52.27000045776367,873800,52.27000045776367
2017-11-14,52.84000015258789,51.77000045776367,52.2599983215332,52.380001068115234,963700,52.380001068115234
2017-11-15,52.18000030517578,50.900001525878906,51.720001220703125,51.900001525878906,777000,51.900001525878906
2017-11-16,53.45000076293945,51.939998626708984,51.939998626708984,52.43000030517578,835700,52.43000030517578
2017-11-17,52.91999816894531,51.900001525878906,52.380001068115234,52.369998931884766,846100,52.369998931884766
2017-11-20,52.255001068115234,50.869998931884766,52.209999084472656,50.900001525878906,1234900,50.900001525878906
2017-11-21,52.5099983215332,50.52000045776367,50.900001525878906,52.209999084472656,905700,52.209999084472656
2017-11-22,52.11000061035156,51.31999969482422,52.11000061035156,51.7400016784668,509900,51.7400016784668
2017-11-24,52.53499984741211,51.310001373291016,52.099998474121094,52.22999954223633,324900,52.22999954223633
2017-11-27,52.310001373291016,51.220001220703125,52.290000915527344,51.54999923706055,858300,51.54999923706055
2017-11-28,51.93600082397461,50.54999923706055,51.810001373291016,51.189998626708984,702800,51.189998626708984
2017-11-29,50.96500015258789,46.244998931884766,50.75,46.59000015258789,2288900,46.59000015258789
2017-11-30,47.470001220703125,46.03099822998047,47.09000015258789,46.689998626708984,1047700,46.689998626708984
2017-12-01,47.459999084472656,46.082000732421875,46.790000915527344,47.0099983215332,1033600,47.0099983215332
2017-12-04,48.0,44.27000045776367,47.529998779296875,44.279998779296875,1709300,44.279998779296875
2017-12-05,46.029998779296875,43.11000061035156,43.880001068115234,44.970001220703125,919500,44.970001220703125
2017-12-06,45.459999084472656,44.52000045776367,44.88999938964844,45.16999816894531,590500,45.16999816894531
2017-12-07,45.810001373291016,45.0099983215332,45.41999816894531,45.52000045776367,585500,45.52000045776367
2017-12-08,46.54999923706055,45.7400016784668,45.790000915527344,46.459999084472656,755500,46.459999084472656
2017-12-11,47.66999816894531,46.53499984741211,46.83000183105469,47.11000061035156,745400,47.11000061035156
2017-12-12,47.20000076293945,45.41999816894531,47.0,45.459999084472656,769300,45.459999084472656
2017-12-13,46.439998626708984,45.5,45.5099983215332,45.97999954223633,497900,45.97999954223633
2017-12-14,46.619998931884766,45.279998779296875,46.040000915527344,45.43000030517578,467300,45.43000030517578
2017-12-15,47.060001373291016,45.05500030517578,45.439998626708984,47.029998779296875,1614600,47.029998779296875
2017-12-18,47.5099983215332,46.0,47.5,46.810001373291016,1264200,46.810001373291016
2017-12-19,46.970001220703125,46.13999938964844,46.869998931884766,46.869998931884766,686400,46.869998931884766
2017-12-20,47.18000030517578,45.529998779296875,47.04999923706055,46.689998626708984,611600,46.689998626708984
2017-12-21,46.939998626708984,46.08000183105469,46.61000061035156,46.40999984741211,547500,46.40999984741211
2017-12-22,46.5,45.529998779296875,46.5,46.2599983215332,504400,46.2599983215332
2017-12-26,46.7400016784668,45.3849983215332,46.04999923706055,46.4900016784668,422600,46.4900016784668
2017-12-27,46.66999816894531,46.099998474121094,46.400001525878906,46.13999938964844,441400,46.13999938964844
2017-12-28,46.349998474121094,45.470001220703125,46.349998474121094,46.040000915527344,487400,46.040000915527344
2017-12-29,46.290000915527344,45.459999084472656,46.20000076293945,45.52000045776367,508500,45.52000045776367
2018-01-02,47.349998474121094,45.61000061035156,45.939998626708984,47.060001373291016,836800,47.060001373291016
2018-01-03,50.71099853515625,47.31999969482422,47.31999969482422,50.400001525878906,2122800,50.400001525878906
2018-01-04,52.040000915527344,50.630001068115234,51.060001373291016,51.599998474121094,2042800,51.599998474121094
2018-01-05,52.43000030517578,51.599998474121094,51.619998931884766,51.869998931884766,1112200,51.869998931884766
2018-01-08,52.599998474121094,51.27000045776367,51.88999938964844,51.90999984741211,686600,51.90999984741211
2018-01-09,52.849998474121094,51.08000183105469,52.310001373291016,52.720001220703125,912400,52.720001220703125
2018-01-10,52.470001220703125,50.540000915527344,52.220001220703125,51.04999923706055,1134600,51.04999923706055
2018-01-11,52.06999969482422,50.65999984741211,51.150001525878906,52.040000915527344,463200,52.040000915527344
2018-01-12,52.7400016784668,51.31999969482422,52.040000915527344,52.56999969482422,592300,52.56999969482422
2018-01-16,55.25,51.77000045776367,53.380001068115234,52.81999969482422,1982300,52.81999969482422
2018-01-17,55.209999084472656,53.040000915527344,53.310001373291016,54.869998931884766,1736600,54.869998931884766
2018-01-18,55.90999984741211,53.560001373291016,55.90999984741211,55.599998474121094,2247200,55.599998474121094
2018-01-19,55.16999816894531,51.54999923706055,53.310001373291016,53.06999969482422,3658300,53.06999969482422
2018-01-22,53.0,50.93000030517578,52.599998474121094,52.2599983215332,1631100,52.2599983215332
2018-01-23,54.060001373291016,51.2599983215332,51.91999816894531,53.93000030517578,1261100,53.93000030517578
2018-01-24,54.0,52.11000061035156,53.93000030517578,52.77000045776367,1125500,52.77000045776367
2018-01-25,53.41999816894531,52.2400016784668,52.849998474121094,53.09000015258789,844200,53.09000015258789
2018-01-26,53.93000030517578,53.20000076293945,53.63999938964844,53.849998474121094,801200,53.849998474121094
2018-01-29,55.04999923706055,53.15999984741211,53.650001525878906,54.7400016784668,1134100,54.7400016784668
2018-01-30,54.65999984741211,53.10100173950195,53.810001373291016,53.38999938964844,791500,53.38999938964844
2018-01-31,54.529998779296875,53.36000061035156,53.779998779296875,53.9900016784668,606300,53.9900016784668
2018-02-01,54.349998474121094,52.43000030517578,53.470001220703125,53.2599983215332,687400,53.2599983215332
2018-02-02,53.125,52.2400016784668,53.060001373291016,52.720001220703125,914400,52.720001220703125
2018-02-05,53.060001373291016,48.779998779296875,51.93000030517578,51.22999954223633,1037100,51.22999954223633
2018-02-06,52.11199951171875,49.0099983215332,49.790000915527344,52.02000045776367,985900,52.02000045776367
2018-02-07,52.939998626708984,51.75,51.779998779296875,51.790000915527344,615200,51.790000915527344
2018-02-08,52.005001068115234,48.709999084472656,51.79999923706055,48.86000061035156,1023600,48.86000061035156
2018-02-09,50.66999816894531,47.7400016784668,49.56999969482422,50.189998626708984,907000,50.189998626708984
2018-02-12,51.52899932861328,50.060001373291016,50.290000915527344,51.220001220703125,597700,51.220001220703125
2018-02-13,51.9900016784668,50.900001525878906,51.130001068115234,51.79999923706055,404000,51.79999923706055
2018-02-14,52.31999969482422,50.11000061035156,51.290000915527344,52.09000015258789,666200,52.09000015258789
2018-02-15,52.95000076293945,51.900001525878906,52.2400016784668,52.91999816894531,452100,52.91999816894531
2018-02-16,54.689998626708984,52.72999954223633,52.970001220703125,53.22999954223633,733400,53.22999954223633
2018-02-20,54.4900016784668,52.0099983215332,52.45000076293945,54.2599983215332,1469500,54.2599983215332
2018-02-21,57.470001220703125,54.099998474121094,54.220001220703125,55.45000076293945,2034500,55.45000076293945
2018-02-22,55.45000076293945,51.7599983215332,55.31999969482422,52.40999984741211,1361500,52.40999984741211
2018-02-23,53.34000015258789,50.58000183105469,52.349998474121094,53.27000045776367,921400,53.27000045776367
2018-02-26,53.7599983215332,52.61000061035156,53.290000915527344,52.77000045776367,593200,52.77000045776367
2018-02-27,53.459999084472656,52.000999450683594,52.529998779296875,52.90999984741211,554400,52.90999984741211
2018-02-28,55.41999816894531,52.810001373291016,52.810001373291016,54.290000915527344,1294700,54.290000915527344
2018-03-01,54.909000396728516,52.599998474121094,54.56999969482422,54.189998626708984,985300,54.189998626708984
2018-03-02,58.45000076293945,53.0099983215332,53.779998779296875,58.16999816894531,1978300,58.16999816894531
2018-03-05,59.099998474121094,56.95000076293945,58.29999923706055,58.58000183105469,1311700,58.58000183105469
2018-03-06,59.810001373291016,58.5099983215332,59.130001068115234,59.13999938964844,846800,59.13999938964844
2018-03-07,60.31999969482422,58.32500076293945,58.5,59.77000045776367,1238500,59.77000045776367
2018-03-08,60.86000061035156,59.68000030517578,60.279998779296875,59.790000915527344,597900,59.790000915527344
2018-03-09,61.439998626708984,60.040000915527344,60.040000915527344,61.2599983215332,727900,61.2599983215332
2018-03-12,62.17100143432617,60.470001220703125,61.63999938964844,61.79999923706055,741700,61.79999923706055
2018-03-13,62.17100143432617,59.58000183105469,61.63999938964844,59.83000183105469,721400,59.83000183105469
2018-03-14,60.65999984741211,58.34000015258789,60.27000045776367,59.97999954223633,950200,59.97999954223633
2018-03-15,60.189998626708984,59.060001373291016,60.06999969482422,59.560001373291016,711600,59.560001373291016
2018-03-16,59.65999984741211,58.84000015258789,59.529998779296875,59.2599983215332,528100,59.2599983215332
2018-03-19,59.7400016784668,58.08000183105469,59.18000030517578,58.56999969482422,580100,58.56999969482422
2018-03-20,59.45000076293945,58.540000915527344,58.599998474121094,59.15999984741211,775400,59.15999984741211
2018-03-21,59.939998626708984,58.11000061035156,59.41999816894531,58.31999969482422,1027600,58.31999969482422
2018-03-22,58.86000061035156,56.0,57.349998474121094,57.5099983215332,924300,57.5099983215332
2018-03-23,57.68000030517578,55.33000183105469,57.529998779296875,55.36000061035156,974900,55.36000061035156
2018-03-26,56.99100112915039,55.14099884033203,56.5,56.619998931884766,956900,56.619998931884766
2018-03-27,57.619998931884766,53.68000030517578,57.20000076293945,54.0099983215332,762800,54.0099983215332
2018-03-28,53.5,50.84000015258789,53.5,52.15999984741211,2011100,52.15999984741211
2018-03-29,54.4900016784668,52.06999969482422,52.54999923706055,53.91999816894531,970900,53.91999816894531
2018-04-02,54.2400016784668,53.01100158691406,53.540000915527344,53.779998779296875,878700,53.779998779296875
2018-04-03,54.849998474121094,52.939998626708984,54.470001220703125,53.209999084472656,910900,53.209999084472656
2018-04-04,56.22999954223633,51.7599983215332,52.0,56.11000061035156,2386800,56.11000061035156
2018-04-05,57.34000015258789,55.66400146484375,56.90999984741211,55.970001220703125,825900,55.970001220703125
2018-04-06,56.2599983215332,53.959999084472656,55.47999954223633,54.59000015258789,883900,54.59000015258789
2018-04-09,56.90999984741211,55.2400016784668,55.47999954223633,55.900001525878906,853900,55.900001525878906
2018-04-10,57.43000030517578,55.29999923706055,57.040000915527344,56.9900016784668,721200,56.9900016784668
2018-04-11,59.81999969482422,56.35499954223633,56.58000183105469,58.65999984741211,1402100,58.65999984741211
2018-04-12,60.84000015258789,58.31999969482422,58.90999984741211,60.63999938964844,1483900,60.63999938964844
2018-04-13,61.255001068115234,59.95000076293945,61.09000015258789,60.25,1209600,60.25
2018-04-16,61.58000183105469,60.0099983215332,60.869998931884766,60.68000030517578,817400,60.68000030517578
2018-04-17,62.75,60.959999084472656,61.0,62.060001373291016,947500,62.060001373291016
2018-04-18,62.779998779296875,60.540000915527344,61.150001525878906,62.06999969482422,1105100,62.06999969482422
2018-04-19,62.599998474121094,61.0,62.189998626708984,62.27000045776367,1496200,62.27000045776367
2018-04-20,59.61600112915039,54.540000915527344,54.61000061035156,58.20500183105469,9366700,58.20500183105469
2018-04-23,59.025001525878906,56.7869987487793,58.189998626708984,58.97999954223633,2357500,58.97999954223633
2018-04-24,59.4900016784668,56.70000076293945,59.400001525878906,57.209999084472656,3834600,57.209999084472656
2018-04-25,56.83000183105469,54.91999816894531,56.5099983215332,55.16999816894531,3016500,55.16999816894531
2018-04-26,56.38999938964844,55.459999084472656,55.9900016784668,56.040000915527344,1894800,56.040000915527344
2018-04-27,56.380001068115234,54.56999969482422,56.349998474121094,55.41999816894531,1011800,55.41999816894531
2018-04-30,56.349998474121094,55.150001525878906,55.47999954223633,55.97999954223633,1125800,55.97999954223633
2018-05-01,56.2599983215332,55.11000061035156,55.599998474121094,56.2400016784668,933600,56.2400016784668
2018-05-02,57.0,55.93000030517578,56.369998931884766,56.470001220703125,721100,56.470001220703125
2018-05-03,58.5,56.279998779296875,56.459999084472656,58.4900016784668,1323800,58.4900016784668
2018-05-04,60.025001525878906,57.599998474121094,58.0099983215332,59.9900016784668,1571500,59.9900016784668
2018-05-07,62.82500076293945,60.185001373291016,60.400001525878906,62.61000061035156,1613100,62.61000061035156
2018-05-08,63.59000015258789,62.11000061035156,62.13999938964844,63.18000030517578,1328200,63.18000030517578
2018-05-09,64.48999786376953,62.869998931884766,63.099998474121094,64.29000091552734,1755300,64.29000091552734
2018-05-10,65.66999816894531,64.0199966430664,64.29000091552734,65.29000091552734,1725900,65.29000091552734
2018-05-11,66.0,64.71499633789062,65.43000030517578,64.87000274658203,1477900,64.87000274658203
2018-05-14,64.94999694824219,62.33000183105469,64.87999725341797,62.47999954223633,1550700,62.47999954223633
2018-05-15,62.25,60.31999969482422,61.880001068115234,61.79999923706055,1334400,61.79999923706055
2018-05-16,62.720001220703125,60.66999816894531,61.54999923706055,61.77000045776367,856500,61.77000045776367
2018-05-17,62.189998626708984,61.189998626708984,61.7599983215332,61.63999938964844,638600,61.63999938964844
2018-05-18,63.560001373291016,61.65999984741211,61.84000015258789,63.400001525878906,952600,63.400001525878906
2018-05-21,64.0,60.81999969482422,63.400001525878906,61.4900016784668,1537200,61.4900016784668
2018-05-22,62.20000076293945,61.43000030517578,61.58000183105469,61.65999984741211,1006900,61.65999984741211
2018-05-23,63.040000915527344,60.880001068115234,60.880001068115234,62.939998626708984,1077400,62.939998626708984
2018-05-24,64.47000122070312,62.13999938964844,62.79999923706055,63.91999816894531,1122000,63.91999816894531
2018-05-25,63.84000015258789,62.849998474121094,63.45000076293945,62.939998626708984,707400,62.939998626708984
2018-05-29,62.810001373291016,60.540000915527344,62.310001373291016,62.709999084472656,2132200,62.709999084472656
2018-05-30,63.790000915527344,62.13999938964844,62.68000030517578,63.41999816894531,1319900,63.41999816894531
2018-05-31,64.80000305175781,63.040000915527344,63.45000076293945,63.790000915527344,1466500,63.790000915527344
2018-06-01,65.43000030517578,63.2599983215332,64.05000305175781,64.01000213623047,1936700,64.01000213623047
2018-06-04,64.4800033569336,62.54999923706055,64.0,64.41999816894531,2181900,64.41999816894531
2018-06-05,66.8949966430664,64.51000213623047,64.51000213623047,66.66999816894531,1917100,66.66999816894531
2018-06-06,68.7490005493164,66.55999755859375,67.0999984741211,67.81999969482422,1964200,67.81999969482422
2018-06-07,68.0,62.45000076293945,68.0,63.779998779296875,2148200,63.779998779296875
2018-06-08,64.7300033569336,63.0099983215332,64.0,64.27999877929688,674000,64.27999877929688
2018-06-11,64.7239990234375,63.83000183105469,64.54000091552734,64.3499984741211,694300,64.3499984741211
2018-06-12,66.29000091552734,64.3499984741211,64.4000015258789,66.20999908447266,1230600,66.20999908447266
2018-06-13,67.47000122070312,65.52100372314453,66.30000305175781,66.13999938964844,791600,66.13999938964844
2018-06-14,67.5999984741211,66.08000183105469,66.63999938964844,66.48999786376953,966500,66.48999786376953
2018-06-15,66.29000091552734,65.22000122070312,66.27999877929688,66.12000274658203,1125500,66.12000274658203
2018-06-18,67.62999725341797,65.42500305175781,65.80000305175781,66.61000061035156,741400,66.61000061035156
2018-06-19,65.58999633789062,63.220001220703125,65.58999633789062,65.04000091552734,1301400,65.04000091552734
2018-06-20,66.12699890136719,64.94000244140625,65.63999938964844,65.52999877929688,801900,65.52999877929688
2018-06-21,65.97000122070312,64.38999938964844,65.80000305175781,65.58999633789062,934100,65.58999633789062
2018-06-22,65.51000213623047,62.61000061035156,65.51000213623047,64.19000244140625,2128200,64.19000244140625
2018-06-25,63.939998626708984,61.18000030517578,63.54999923706055,62.380001068115234,1055900,62.380001068115234
2018-06-26,63.59000015258789,62.400001525878906,62.869998931884766,63.25,1106400,63.25
2018-06-27,63.529998779296875,60.75,63.369998931884766,60.75,685800,60.75
2018-06-28,62.459999084472656,60.38999938964844,60.689998626708984,62.119998931884766,712900,62.119998931884766
2018-06-29,63.209999084472656,62.09000015258789,62.41999816894531,62.52000045776367,532100,62.52000045776367
2018-07-02,63.52000045776367,61.65999984741211,62.029998779296875,63.349998474121094,521800,63.349998474121094
2018-07-03,64.25,62.59000015258789,63.369998931884766,62.97999954223633,490200,62.97999954223633
2018-07-05,63.869998931884766,62.5,63.02000045776367,63.400001525878906,1168300,63.400001525878906
2018-07-06,65.4000015258789,63.20500183105469,63.29999923706055,65.2300033569336,591000,65.2300033569336
2018-07-09,66.37000274658203,63.61000061035156,65.73999786376953,64.77999877929688,728300,64.77999877929688
2018-07-10,65.25,64.10199737548828,64.88999938964844,64.69999694824219,534700,64.69999694824219
2018-07-11,65.5999984741211,64.0,64.01000213623047,65.33000183105469,460500,65.33000183105469
2018-07-12,68.7699966430664,65.33999633789062,65.61000061035156,68.26000213623047,1439500,68.26000213623047
2018-07-13,68.67500305175781,67.08999633789062,68.56999969482422,67.19000244140625,1170600,67.19000244140625
2018-07-16,68.4000015258789,66.73999786376953,67.5199966430664,66.86000061035156,670300,66.86000061035156
2018-07-17,68.0999984741211,65.1500015258789,66.08999633789062,67.87999725341797,671700,67.87999725341797
2018-07-18,68.5,67.29000091552734,67.95999908447266,68.22000122070312,589200,68.22000122070312
2018-07-19,68.9800033569336,67.80999755859375,68.2300033569336,67.86000061035156,702000,67.86000061035156
2018-07-20,68.66000366210938,67.5,67.8499984741211,67.87000274658203,1198900,67.87000274658203
2018-07-23,67.9800033569336,65.51100158691406,67.48999786376953,66.4000015258789,1383200,66.4000015258789
2018-07-24,67.11000061035156,64.43000030517578,67.11000061035156,64.48999786376953,926900,64.48999786376953
2018-07-25,67.12000274658203,64.77999877929688,64.77999877929688,67.05000305175781,803100,67.05000305175781
2018-07-26,67.7699966430664,65.33000183105469,66.08999633789062,66.83000183105469,1460300,66.83000183105469
2018-07-27,79.81999969482422,72.5,77.93000030517578,73.83999633789062,7461900,73.83999633789062
2018-07-30,75.0,69.12999725341797,73.0,71.08000183105469,2577300,71.08000183105469
2018-07-31,73.80999755859375,70.5,70.77999877929688,72.41000366210938,2057800,72.41000366210938
2018-08-01,74.55500030517578,72.41000366210938,72.5,73.29000091552734,1364600,73.29000091552734
2018-08-02,75.55500030517578,72.86499786376953,73.0,74.91999816894531,1059300,74.91999816894531
2018-08-03,75.19999694824219,73.31400299072266,75.19999694824219,74.12000274658203,934700,74.12000274658203
2018-08-06,76.12999725341797,74.30999755859375,74.3499984741211,75.55000305175781,1518000,75.55000305175781
2018-08-07,76.61000061035156,75.51000213623047,75.91000366210938,75.9800033569336,1086800,75.9800033569336
2018-08-08,76.69999694824219,75.24700164794922,75.62000274658203,76.16999816894531,689600,76.16999816894531
2018-08-09,78.73999786376953,75.66000366210938,76.19999694824219,78.30999755859375,1234400,78.30999755859375
2018-08-10,78.69999694824219,77.10099792480469,77.5199966430664,78.06999969482422,865400,78.06999969482422
2018-08-13,79.5199966430664,77.9800033569336,78.06999969482422,78.2300033569336,763900,78.2300033569336
2018-08-14,78.91000366210938,76.80999755859375,78.05999755859375,78.70999908447266,870600,78.70999908447266
2018-08-15,78.63999938964844,77.1500015258789,77.30999755859375,77.63999938964844,1309700,77.63999938964844
2018-08-16,78.5,77.41999816894531,78.0,78.0999984741211,466200,78.0999984741211
2018-08-17,78.33499908447266,77.0199966430664,78.0,78.0199966430664,714200,78.0199966430664
2018-08-20,78.68000030517578,76.79000091552734,77.62999725341797,78.25,1063300,78.25
2018-08-21,80.68000030517578,78.05000305175781,78.05000305175781,79.26000213623047,1012000,79.26000213623047
2018-08-22,80.5,78.69999694824219,79.25,80.05999755859375,673200,80.05999755859375
2018-08-23,82.9800033569336,79.25,79.5199966430664,82.62999725341797,1925600,82.62999725341797
2018-08-24,86.12999725341797,82.5199966430664,82.5199966430664,86.11000061035156,2064100,86.11000061035156
2018-08-27,87.4800033569336,85.05999755859375,86.02999877929688,86.54000091552734,2420700,86.54000091552734
2018-08-28,88.05000305175781,86.54000091552734,86.76000213623047,87.66000366210938,1796000,87.66000366210938
2018-08-29,89.76000213623047,87.8499984741211,87.8499984741211,89.47000122070312,1647700,89.47000122070312
2018-08-30,90.30999755859375,88.66999816894531,89.0199966430664,89.29000091552734,1350900,89.29000091552734
2018-08-31,91.41999816894531,88.36499786376953,89.0,90.01000213623047,1333800,90.01000213623047
2018-09-04,92.23999786376953,89.60099792480469,90.19999694824219,91.9000015258789,1563400,91.9000015258789
2018-09-05,92.26000213623047,86.73999786376953,92.26000213623047,87.61000061035156,2246600,87.61000061035156
2018-09-06,88.48999786376953,86.55000305175781,87.9800033569336,86.68000030517578,1830500,86.68000030517578
2018-09-07,88.6500015258789,84.46199798583984,86.45999908447266,87.01000213623047,1816600,87.01000213623047
2018-09-10,88.5479965209961,85.43499755859375,87.95999908447266,87.95999908447266,1192600,87.95999908447266
2018-09-11,90.7699966430664,87.25,88.08999633789062,90.48999786376953,876800,90.48999786376953
2018-09-12,90.91999816894531,86.94999694824219,90.12999725341797,89.58000183105469,1046400,89.58000183105469
2018-09-13,94.72000122070312,91.33000183105469,91.75,93.41999816894531,1878800,93.41999816894531
2018-09-14,95.0,92.8499984741211,93.58000183105469,94.18000030517578,1176700,94.18000030517578
2018-09-17,94.5,90.63999938964844,94.48999786376953,91.11000061035156,1411500,91.11000061035156
2018-09-18,93.22000122070312,90.48999786376953,91.06999969482422,92.4000015258789,1659000,92.4000015258789
2018-09-19,92.94999694824219,89.56999969482422,92.41000366210938,89.93000030517578,1498200,89.93000030517578
2018-09-20,91.5,89.47000122070312,90.0,91.31999969482422,1169600,91.31999969482422
2018-09-21,91.7300033569336,89.7300033569336,91.4800033569336,90.69000244140625,1075000,90.69000244140625
2018-09-24,93.16000366210938,88.5739974975586,89.77999877929688,92.47000122070312,1364000,92.47000122070312
2018-09-25,94.61000061035156,92.64199829101562,92.9000015258789,94.27999877929688,930600,94.27999877929688
2018-09-26,95.25,93.52999877929688,94.66999816894531,94.36000061035156,1130800,94.36000061035156
2018-09-27,96.4489974975586,94.80000305175781,95.12000274658203,95.88999938964844,1109500,95.88999938964844
2018-09-28,97.05999755859375,95.02999877929688,95.77999877929688,96.13999938964844,1866100,96.13999938964844
2018-10-01,98.21299743652344,94.84500122070312,97.18000030517578,95.72000122070312,1418700,95.72000122070312
2018-10-02,95.87000274658203,93.55999755859375,94.68000030517578,93.5999984741211,2521900,93.5999984741211
2018-10-03,94.58999633789062,91.76000213623047,94.0,92.9000015258789,1929500,92.9000015258789
2018-10-04,90.83000183105469,85.41999816894531,90.22000122070312,85.66999816894531,3062200,85.66999816894531
2018-10-05,87.25800323486328,84.05000305175781,86.0999984741211,85.36000061035156,1707100,85.36000061035156
2018-10-08,84.71199798583984,79.7699966430664,84.3499984741211,81.08999633789062,3316200,81.08999633789062
2018-10-09,83.8499984741211,80.51200103759766,80.68000030517578,81.29000091552734,1699800,81.29000091552734
2018-10-10,80.69000244140625,77.51000213623047,80.23999786376953,78.6500015258789,2382300,78.6500015258789
2018-10-11,81.22000122070312,76.12000274658203,76.62000274658203,78.33999633789062,2084800,78.33999633789062
2018-10-12,82.36000061035156,79.87000274658203,81.22000122070312,81.70999908447266,1667000,81.70999908447266
2018-10-15,82.13999938964844,78.61199951171875,81.70999908447266,79.77999877929688,1287300,79.77999877929688
2018-10-16,83.19999694824219,80.66000366210938,80.87000274658203,82.83999633789062,1613500,82.83999633789062
2018-10-17,84.05000305175781,81.58000183105469,83.98999786376953,83.62999725341797,1125000,83.62999725341797
2018-10-18,83.9000015258789,80.13500213623047,83.02999877929688,81.88999938964844,2485100,81.88999938964844
2018-10-19,80.86000061035156,69.55999755859375,78.0,70.18000030517578,8073000,70.18000030517578
2018-10-22,73.20999908447266,70.41999816894531,71.02999877929688,72.63999938964844,3574600,72.63999938964844
2018-10-23,72.62999725341797,69.68000030517578,71.19999694824219,72.45999908447266,2069400,72.45999908447266
2018-10-24,73.27999877929688,67.01000213623047,72.05999755859375,67.12000274658203,1984300,67.12000274658203
2018-10-25,70.65499877929688,68.0,69.29000091552734,70.43000030517578,1942400,70.43000030517578
2018-10-26,70.69000244140625,66.80000305175781,67.98999786376953,68.91999816894531,1634000,68.91999816894531
2018-10-29,72.41500091552734,67.37000274658203,71.81999969482422,68.93000030517578,1604600,68.93000030517578
2018-10-30,72.56999969482422,68.2699966430664,68.70999908447266,71.33999633789062,2255300,71.33999633789062
2018-10-31,76.66000366210938,72.05999755859375,72.5,75.91000366210938,2289900,75.91000366210938
2018-11-01,77.43000030517578,74.43000030517578,76.66999816894531,76.75,1389400,76.75
2018-11-02,78.56500244140625,75.19999694824219,77.06999969482422,76.4800033569336,1130200,76.4800033569336
2018-11-05,77.0,73.31999969482422,76.19999694824219,74.61000061035156,772000,74.61000061035156
2018-11-06,75.63999938964844,71.55000305175781,74.1500015258789,72.08999633789062,1118000,72.08999633789062
2018-11-07,78.0,73.09500122070312,73.63999938964844,77.61000061035156,1854100,77.61000061035156
2018-11-08,77.26000213623047,74.7249984741211,76.81999969482422,75.94999694824219,984900,75.94999694824219
2018-11-09,75.45700073242188,71.91000366210938,75.0199966430664,73.29000091552734,684300,73.29000091552734
2018-11-12,72.83000183105469,69.62999725341797,72.06999969482422,70.80000305175781,1284800,70.80000305175781
2018-11-13,74.2699966430664,70.41799926757812,74.2699966430664,73.01000213623047,1323800,73.01000213623047
2018-11-14,74.75,71.70999908447266,74.0199966430664,72.4000015258789,899700,72.4000015258789
2018-11-15,75.93000030517578,71.98999786376953,72.27999877929688,75.75,1262800,75.75
2018-11-16,76.68000030517578,74.52999877929688,75.2699966430664,75.94999694824219,876800,75.94999694824219
2018-11-19,75.75,68.94000244140625,75.4800033569336,69.30999755859375,2160600,69.30999755859375
2018-11-20,70.56999969482422,65.16999816894531,66.04000091552734,70.22000122070312,1871200,70.22000122070312
2018-11-21,73.20999908447266,70.09100341796875,73.11000061035156,72.12999725341797,827700,72.12999725341797
2018-11-23,73.41999816894531,70.0009994506836,70.22000122070312,73.19999694824219,363900,73.19999694824219
2018-11-26,76.26000213623047,72.7699966430664,73.69000244140625,76.16999816894531,884600,76.16999816894531
2018-11-27,76.62999725341797,74.30999755859375,75.29000091552734,74.66000366210938,810400,74.66000366210938
2018-11-28,81.5,75.47000122070312,75.47000122070312,80.69999694824219,1596100,80.69999694824219
2018-11-29,85.83000183105469,79.88999938964844,80.0,83.9000015258789,2191200,83.9000015258789
2018-11-30,87.0,84.05999755859375,84.27999877929688,85.94000244140625,1394100,85.94000244140625
2018-12-03,89.80999755859375,87.06999969482422,89.0,89.5999984741211,1840500,89.5999984741211
2018-12-04,89.81999969482422,85.01000213623047,88.69999694824219,85.72000122070312,1745400,85.72000122070312
2018-12-06,85.76000213623047,81.0,82.30000305175781,85.13999938964844,1908000,85.13999938964844
2018-12-07,84.83000183105469,78.92400360107422,83.81999969482422,80.45999908447266,1817200,80.45999908447266
2018-12-10,84.27999877929688,79.0,80.19999694824219,83.05999755859375,1170800,83.05999755859375
2018-12-11,85.5999984741211,82.16000366210938,85.20999908447266,82.9800033569336,634300,82.9800033569336
2018-12-12,86.75,83.80000305175781,84.83000183105469,84.05000305175781,1149800,84.05000305175781
2018-12-13,85.68000030517578,82.80999755859375,85.0,84.25,714300,84.25
2018-12-14,84.91999816894531,82.01000213623047,82.87000274658203,83.19000244140625,831700,83.19000244140625
2018-12-17,82.75,79.29000091552734,82.75,79.8499984741211,1161900,79.8499984741211
2018-12-18,81.3499984741211,78.7300033569336,81.19999694824219,79.12000274658203,1454000,79.12000274658203
2018-12-19,83.73999786376953,79.3550033569336,79.68000030517578,81.05999755859375,1688200,81.05999755859375
2018-12-20,83.8499984741211,75.55000305175781,80.23999786376953,82.25,2980300,82.25
2018-12-21,83.0,79.45999908447266,82.97000122070312,81.12999725341797,3059400,81.12999725341797
2018-12-24,81.8499984741211,77.33999633789062,79.79000091552734,78.66000366210938,630100,78.66000366210938
2018-12-26,85.5,79.33000183105469,79.36000061035156,85.31999969482422,1510000,85.31999969482422
2018-12-27,87.56999969482422,82.66000366210938,83.5199966430664,87.56999969482422,966700,87.56999969482422
2018-12-28,88.9800033569336,85.22000122070312,88.20999908447266,87.5999984741211,1410700,87.5999984741211
2018-12-31,90.87999725341797,88.19999694824219,89.2300033569336,88.9800033569336,2146700,88.9800033569336
2019-01-02,90.13999938964844,84.18000030517578,85.81999969482422,89.02999877929688,1570400,89.02999877929688
2019-01-03,88.36000061035156,84.29000091552734,87.02999877929688,84.4800033569336,1199500,84.4800033569336
2019-01-04,88.81999969482422,85.48200225830078,86.6500015258789,87.08999633789062,1836200,87.08999633789062
2019-01-07,95.80000305175781,87.69999694824219,89.05000305175781,92.70999908447266,3738800,92.70999908447266
2019-01-08,96.0,91.66000366210938,94.9800033569336,94.81999969482422,2275300,94.81999969482422
2019-01-09,96.97000122070312,94.625,95.2699966430664,95.80999755859375,1454800,95.80999755859375
2019-01-10,95.98999786376953,93.75,95.05999755859375,95.5,1174800,95.5
2019-01-11,96.47000122070312,93.66999816894531,95.30999755859375,95.6500015258789,934900,95.6500015258789
2019-01-14,94.71800231933594,92.85099792480469,94.18000030517578,93.70999908447266,2252100,93.70999908447266
2019-01-15,95.41000366210938,90.4000015258789,91.3499984741211,95.37999725341797,1792200,95.37999725341797
2019-01-16,96.69000244140625,93.4000015258789,95.62999725341797,94.31999969482422,1662900,94.31999969482422
2019-01-17,94.75,91.65699768066406,94.33000183105469,92.91999816894531,3504300,92.91999816894531
2019-01-18,100.0,88.55000305175781,100.0,90.66999816894531,7666900,90.66999816894531
2019-01-22,92.47000122070312,87.18000030517578,88.7699966430664,91.44000244140625,2696100,91.44000244140625
2019-01-23,94.4000015258789,90.8499984741211,92.0,93.6500015258789,2447100,93.6500015258789
2019-01-24,94.9000015258789,92.11000061035156,93.81999969482422,93.31999969482422,1211200,93.31999969482422
2019-01-25,95.98999786376953,93.71399688720703,94.5,95.86000061035156,1154700,95.86000061035156
2019-01-28,95.12000274658203,92.52999877929688,94.41999816894531,94.72000122070312,954700,94.72000122070312
2019-01-29,94.80000305175781,92.4209976196289,94.38999938964844,93.22000122070312,948500,93.22000122070312
2019-01-30,95.84300231933594,94.06999969482422,94.06999969482422,95.01000213623047,1141300,95.01000213623047
2019-01-31,100.0,94.70999908447266,95.0,98.4000015258789,2263300,98.4000015258789
2019-02-01,101.76000213623047,97.86000061035156,98.20999908447266,98.9800033569336,2084700,98.9800033569336
2019-02-04,102.8499984741211,99.06999969482422,99.08000183105469,102.18000030517578,1979900,102.18000030517578
2019-02-05,103.7750015258789,101.625,102.47000122070312,102.7699966430664,1809000,102.7699966430664
2019-02-06,104.30999755859375,101.26000213623047,102.7300033569336,103.54000091552734,1500700,103.54000091552734
2019-02-07,103.71600341796875,101.16000366210938,102.22000122070312,102.3499984741211,1180900,102.3499984741211
2019-02-08,104.9520034790039,101.19999694824219,101.31999969482422,104.33999633789062,1129400,104.33999633789062
2019-02-11,106.4000015258789,104.11000061035156,104.94000244140625,104.56999969482422,1385600,104.56999969482422
2019-02-12,106.58999633789062,104.30000305175781,104.8499984741211,106.12000274658203,1457300,106.12000274658203
2019-02-13,107.19999694824219,103.30999755859375,106.4800033569336,105.25,1131600,105.25
2019-02-14,105.77999877929688,104.11000061035156,104.73999786376953,104.80999755859375,1194100,104.80999755859375
2019-02-15,106.1500015258789,104.12000274658203,106.1500015258789,104.9000015258789,899100,104.9000015258789
2019-02-19,104.62999725341797,103.31999969482422,104.37999725341797,103.91000366210938,1845000,103.91000366210938
2019-02-20,105.66999816894531,102.58000183105469,104.0,104.12000274658203,1162400,104.12000274658203
2019-02-21,103.87999725341797,101.58999633789062,103.30000305175781,103.04000091552734,949600,103.04000091552734
2019-02-22,105.44000244140625,102.73999786376953,102.97000122070312,105.25,967900,105.25
2019-02-25,107.94999694824219,105.75,105.97000122070312,106.75,1390300,106.75
2019-02-26,107.01000213623047,105.44999694824219,106.0199966430664,105.87999725341797,1185300,105.87999725341797
2019-02-27,106.6500015258789,104.79100036621094,105.30000305175781,106.33000183105469,996800,106.33000183105469
2019-02-28,107.95999908447266,105.38099670410156,105.62999725341797,107.4800033569336,1749900,107.4800033569336
2019-03-01,111.76000213623047,107.55999755859375,108.22000122070312,110.94999694824219,1989400,110.94999694824219
2019-03-04,111.58000183105469,99.7699966430664,111.58000183105469,104.70999908447266,3863200,104.70999908447266
2019-03-05,105.33000183105469,101.29000091552734,105.33000183105469,104.43000030517578,1309800,104.43000030517578
2019-03-06,105.0,102.30000305175781,104.25,103.5,855600,103.5
2019-03-07,106.34400177001953,102.55999755859375,102.97000122070312,104.20999908447266,1306000,104.20999908447266
2019-03-08,105.05999755859375,100.51000213623047,102.05999755859375,104.25,1095000,104.25
2019-03-11,110.0999984741211,104.76000213623047,104.76000213623047,109.51000213623047,1533000,109.51000213623047
2019-03-12,112.44999694824219,109.05000305175781,110.05999755859375,110.94000244140625,1747800,110.94000244140625
2019-03-13,112.58000183105469,108.25,111.22000122070312,108.58000183105469,3581400,108.58000183105469
2019-03-14,112.48999786376953,109.30000305175781,109.45999908447266,110.4800033569336,1711200,110.4800033569336
2019-03-15,112.2300033569336,109.64299774169922,110.83000183105469,110.2699966430664,2235500,110.2699966430664
2019-03-18,111.7300033569336,109.66000366210938,110.12000274658203,111.22000122070312,729300,111.22000122070312
2019-03-19,113.4000015258789,110.30999755859375,112.20999908447266,112.41999816894531,1148300,112.41999816894531
2019-03-20,113.9000015258789,111.27799987792969,112.63999938964844,112.83000183105469,823100,112.83000183105469
2019-03-21,115.87999725341797,112.0999984741211,112.33999633789062,115.5,1098100,115.5
2019-03-22,115.05400085449219,109.7300033569336,114.69000244140625,109.83000183105469,1433200,109.83000183105469
2019-03-25,110.38999938964844,107.9000015258789,109.33000183105469,109.86000061035156,890700,109.86000061035156
2019-03-26,112.94999694824219,110.5,111.62999725341797,111.55000305175781,727800,111.55000305175781
2019-03-27,112.0,105.19999694824219,111.4000015258789,106.98999786376953,2086800,106.98999786376953
2019-03-28,109.87000274658203,106.5999984741211,107.08000183105469,108.45999908447266,1132300,108.45999908447266
2019-03-29,112.51000213623047,108.68000030517578,110.19999694824219,112.38999938964844,1239000,112.38999938964844
2019-04-01,115.375,111.37000274658203,114.02999877929688,113.87000274658203,1255300,113.87000274658203
2019-04-02,116.08999633789062,112.22000122070312,114.44000244140625,115.5999984741211,980100,115.5999984741211
2019-04-03,116.69999694824219,114.66999816894531,116.30000305175781,115.36000061035156,1102400,115.36000061035156
2019-04-04,115.5999984741211,106.75,115.5999984741211,110.22000122070312,2366000,110.22000122070312
2019-04-05,112.54000091552734,110.19000244140625,111.52999877929688,111.33000183105469,1239500,111.33000183105469
2019-04-08,112.13999938964844,108.29399871826172,111.27999877929688,112.08000183105469,1009500,112.08000183105469
2019-04-09,112.69000244140625,110.19999694824219,111.0,112.1500015258789,1194300,112.1500015258789
2019-04-10,113.69999694824219,111.83000183105469,112.1500015258789,112.73999786376953,1714200,112.73999786376953
2019-04-11,114.69000244140625,111.56999969482422,113.63999938964844,114.44000244140625,1224200,114.44000244140625
2019-04-12,115.66999816894531,112.27999877929688,115.27999877929688,112.68000030517578,1543200,112.68000030517578
2019-04-15,117.05999755859375,113.55999755859375,114.01000213623047,114.44999694824219,2094000,114.44999694824219
2019-04-16,115.61000061035156,112.22000122070312,115.08999633789062,112.97000122070312,2014300,112.97000122070312
2019-04-17,114.12999725341797,109.67400360107422,113.38999938964844,111.19000244140625,3261600,111.19000244140625
2019-04-18,105.5999984741211,100.25,101.4000015258789,101.94000244140625,7539000,101.94000244140625
2019-04-22,104.25,100.28299713134766,100.72000122070312,103.75,2528700,103.75
2019-04-23,107.0999984741211,103.87000274658203,104.25,106.72000122070312,3142900,106.72000122070312
2019-04-24,108.05999755859375,102.84500122070312,107.5199966430664,103.16999816894531,2177500,103.16999816894531
2019-04-25,106.06999969482422,102.61000061035156,104.0,106.0,1468400,106.0
2019-04-26,108.33999633789062,104.60099792480469,105.83999633789062,108.20999908447266,1129900,108.20999908447266
2019-04-29,110.69999694824219,107.80000305175781,107.93000030517578,110.05000305175781,2116200,110.05000305175781
2019-04-30,111.66200256347656,109.10399627685547,109.25,110.1500015258789,1658600,110.1500015258789
2019-05-01,110.98999786376953,108.56999969482422,110.2300033569336,108.58999633789062,1091800,108.58999633789062
2019-05-02,109.80000305175781,106.80000305175781,107.81999969482422,109.01000213623047,1108200,109.01000213623047
2019-05-03,111.69999694824219,109.45800018310547,110.33000183105469,110.41000366210938,854300,110.41000366210938
2019-05-06,110.9000015258789,106.11000061035156,107.0,110.56999969482422,841000,110.56999969482422
2019-05-07,112.0,109.62999725341797,109.6500015258789,110.66999816894531,2084900,110.66999816894531
2019-05-08,117.44999694824219,110.86399841308594,110.98999786376953,117.16999816894531,3568300,117.16999816894531
2019-05-09,125.30999755859375,115.22000122070312,116.16000366210938,125.12999725341797,4810600,125.12999725341797
2019-05-10,129.97000122070312,121.5,123.11000061035156,128.8699951171875,3709300,128.8699951171875
2019-05-13,126.77799987792969,120.62999725341797,124.70999908447266,120.77999877929688,2720300,120.77999877929688
2019-05-14,124.62000274658203,121.11000061035156,121.5999984741211,123.7699966430664,1435700,123.7699966430664
2019-05-15,127.37000274658203,122.56999969482422,122.91000366210938,126.08000183105469,1212300,126.08000183105469
2019-05-16,131.02999877929688,126.08999633789062,126.08999633789062,129.74000549316406,1596500,129.74000549316406
2019-05-17,131.99000549316406,128.0,128.94000244140625,129.14999389648438,1001800,129.14999389648438
2019-05-20,127.33000183105469,123.7979965209961,125.8499984741211,124.55000305175781,1916300,124.55000305175781
2019-05-21,127.0,125.4000015258789,126.11000061035156,125.54000091552734,911400,125.54000091552734
2019-05-22,128.22999572753906,123.99299621582031,124.11000061035156,126.25,1353000,126.25
2019-05-23,127.83899688720703,124.33100128173828,124.88999938964844,127.26000213623047,1827100,127.26000213623047
2019-05-24,131.0,126.72000122070312,126.80000305175781,129.52000427246094,1688700,129.52000427246094
