Date,High,Low,Open,Close,Volume,Adj Close
2016-07-22,13.829999923706055,11.3100004196167,11.40999984741211,13.5600004196167,3201000,13.5600004196167
2016-07-25,14.220000267028809,13.069999694824219,14.100000381469727,13.25,341200,13.25
2016-07-26,13.899999618530273,13.069999694824219,13.069999694824219,13.829999923706055,208600,13.829999923706055
2016-07-27,14.425000190734863,13.850000381469727,13.850000381469727,14.3100004196167,355600,14.3100004196167
2016-07-28,14.569999694824219,13.609999656677246,14.489999771118164,14.229999542236328,224400,14.229999542236328
2016-07-29,14.649999618530273,14.069999694824219,14.069999694824219,14.625,278100,14.625
2016-08-01,15.489999771118164,14.789999961853027,14.949999809265137,14.885000228881836,286500,14.885000228881836
2016-08-02,15.081000328063965,14.25,14.899999618530273,14.6850004196167,167800,14.6850004196167
2016-08-03,15.199999809265137,14.510000228881836,15.170000076293945,14.789999961853027,180500,14.789999961853027
2016-08-04,16.0,14.52400016784668,14.789999961853027,15.800000190734863,265200,15.800000190734863
2016-08-05,16.0,15.390000343322754,16.0,15.5,240700,15.5
2016-08-08,16.030000686645508,14.90999984741211,16.030000686645508,14.949999809265137,217500,14.949999809265137
2016-08-09,15.239999771118164,14.819999694824219,14.819999694824219,14.9399995803833,162900,14.9399995803833
2016-08-10,15.15999984741211,14.890000343322754,15.039999961853027,15.050000190734863,198900,15.050000190734863
2016-08-11,16.479999542236328,15.5,15.899999618530273,16.290000915527344,507600,16.290000915527344
2016-08-12,16.559999465942383,16.06999969482422,16.079999923706055,16.25,199500,16.25
2016-08-15,17.299999237060547,16.260000228881836,16.43000030517578,16.969999313354492,366100,16.969999313354492
2016-08-16,18.9950008392334,17.049999237060547,17.329999923706055,18.600000381469727,880000,18.600000381469727
2016-08-17,19.190000534057617,18.299999237060547,18.899999618530273,18.889999389648438,294700,18.889999389648438
2016-08-18,19.450000762939453,18.549999237060547,19.25,19.200000762939453,379200,19.200000762939453
2016-08-19,19.239999771118164,18.760000228881836,19.1200008392334,18.950000762939453,98100,18.950000762939453
2016-08-22,19.399999618530273,18.850000381469727,19.0,18.93000030517578,161700,18.93000030517578
2016-08-23,19.270000457763672,18.100000381469727,19.110000610351562,18.56999969482422,284000,18.56999969482422
2016-08-24,18.809999465942383,17.969999313354492,18.479999542236328,18.06999969482422,191700,18.06999969482422
2016-08-25,18.06999969482422,17.3799991607666,17.93000030517578,17.68000030517578,97500,17.68000030517578
2016-08-26,17.899999618530273,17.399999618530273,17.670000076293945,17.530000686645508,104400,17.530000686645508
2016-08-29,20.969999313354492,17.68000030517578,17.739999771118164,20.450000762939453,1345000,20.450000762939453
2016-08-30,20.920000076293945,19.670000076293945,20.6299991607666,20.31999969482422,298500,20.31999969482422
2016-08-31,20.6200008392334,19.229999542236328,20.3799991607666,19.889999389648438,243900,19.889999389648438
2016-09-01,20.43899917602539,19.440000534057617,19.950000762939453,19.790000915527344,119100,19.790000915527344
2016-09-02,20.75,19.35099983215332,19.979999542236328,19.520000457763672,265600,19.520000457763672
2016-09-06,19.75,19.299999237060547,19.65999984741211,19.540000915527344,110300,19.540000915527344
2016-09-07,20.299999237060547,19.309999465942383,19.459999084472656,19.780000686645508,252100,19.780000686645508
2016-09-08,21.450000762939453,19.6200008392334,19.950000762939453,20.309999465942383,634100,20.309999465942383
2016-09-09,20.299999237060547,18.0,20.299999237060547,18.149999618530273,474400,18.149999618530273
2016-09-12,18.940000534057617,17.68000030517578,17.760000228881836,18.700000762939453,231500,18.700000762939453
2016-09-13,18.940000534057617,17.93000030517578,18.420000076293945,18.350000381469727,109200,18.350000381469727
2016-09-14,18.649999618530273,18.009000778198242,18.290000915527344,18.469999313354492,130100,18.469999313354492
2016-09-15,18.940000534057617,18.479999542236328,18.639999389648438,18.59000015258789,175200,18.59000015258789
2016-09-16,19.899999618530273,18.34000015258789,18.610000610351562,19.729999542236328,627900,19.729999542236328
2016-09-19,21.799999237060547,19.725000381469727,19.899999618530273,20.729999542236328,490200,20.729999542236328
2016-09-20,21.200000762939453,19.989999771118164,20.850000381469727,20.059999465942383,157200,20.059999465942383
2016-09-21,20.770000457763672,19.9950008392334,20.290000915527344,20.739999771118164,152000,20.739999771118164
2016-09-22,21.479999542236328,20.219999313354492,21.0,21.059999465942383,435400,21.059999465942383
2016-09-23,21.739999771118164,20.959999084472656,21.100000381469727,21.31999969482422,232000,21.31999969482422
2016-09-26,21.299999237060547,20.350000381469727,21.299999237060547,20.65999984741211,162500,20.65999984741211
2016-09-27,21.607999801635742,20.43000030517578,20.709999084472656,21.290000915527344,332500,21.290000915527344
2016-09-28,22.719999313354492,21.030000686645508,21.450000762939453,22.110000610351562,588600,22.110000610351562
2016-09-29,22.649999618530273,20.540000915527344,22.06999969482422,20.969999313354492,409300,20.969999313354492
2016-09-30,22.0,20.700000762939453,21.020000457763672,21.260000228881836,774400,21.260000228881836
2016-10-03,21.538000106811523,20.731000900268555,21.329999923706055,20.889999389648438,125500,20.889999389648438
2016-10-04,22.06999969482422,20.989999771118164,21.040000915527344,21.850000381469727,199300,21.850000381469727
2016-10-05,22.0,21.260000228881836,22.0,21.3799991607666,162600,21.3799991607666
2016-10-06,21.90999984741211,21.25,21.25,21.770000457763672,102200,21.770000457763672
2016-10-07,23.299999237060547,21.5,21.770000457763672,22.670000076293945,302000,22.670000076293945
2016-10-10,23.0,21.81800079345703,22.950000762939453,22.440000534057617,153800,22.440000534057617
2016-10-11,22.479999542236328,18.06999969482422,22.399999618530273,18.479999542236328,1317300,18.479999542236328
2016-10-12,18.8799991607666,16.610000610351562,18.670000076293945,17.479999542236328,657100,17.479999542236328
2016-10-13,17.559999465942383,16.73200035095215,17.34000015258789,17.43000030517578,250900,17.43000030517578
2016-10-14,18.15999984741211,17.290000915527344,17.5,17.989999771118164,343600,17.989999771118164
2016-10-17,18.06999969482422,17.5,18.049999237060547,17.760000228881836,157600,17.760000228881836
2016-10-18,18.440000534057617,17.600000381469727,17.940000534057617,17.719999313354492,252000,17.719999313354492
2016-10-19,18.350000381469727,17.100000381469727,17.690000534057617,18.200000762939453,169100,18.200000762939453
2016-10-20,18.280000686645508,17.690000534057617,18.1200008392334,17.84000015258789,200500,17.84000015258789
2016-10-21,18.25,17.690000534057617,17.690000534057617,17.90999984741211,140100,17.90999984741211
2016-10-24,18.239999771118164,17.75,18.0,17.90999984741211,90700,17.90999984741211
2016-10-25,17.950000762939453,17.5,17.950000762939453,17.68000030517578,58500,17.68000030517578
2016-10-26,17.639999389648438,16.93000030517578,17.489999771118164,16.959999084472656,240900,16.959999084472656
2016-10-27,17.110000610351562,14.989999771118164,17.110000610351562,15.3100004196167,571800,15.3100004196167
2016-10-28,16.280000686645508,15.350000381469727,15.350000381469727,16.149999618530273,557100,16.149999618530273
2016-10-31,16.3799991607666,15.460000038146973,16.1299991607666,15.920000076293945,247700,15.920000076293945
2016-11-01,16.229999542236328,15.140000343322754,16.020000457763672,15.229999542236328,246600,15.229999542236328
2016-11-02,15.229999542236328,14.449999809265137,15.229999542236328,14.550000190734863,122600,14.550000190734863
2016-11-03,14.630000114440918,13.859999656677246,14.539999961853027,13.899999618530273,109700,13.899999618530273
2016-11-04,14.800000190734863,13.899999618530273,13.899999618530273,14.720000267028809,186900,14.720000267028809
2016-11-07,15.319999694824219,14.8100004196167,14.979999542236328,15.109999656677246,92300,15.109999656677246
2016-11-08,15.359999656677246,14.800000190734863,15.1899995803833,15.229999542236328,97100,15.229999542236328
2016-11-09,15.680000305175781,14.789999961853027,14.9399995803833,15.579999923706055,189900,15.579999923706055
2016-11-10,17.040000915527344,14.850000381469727,16.219999313354492,14.970000267028809,451800,14.970000267028809
2016-11-11,15.020000457763672,14.0600004196167,14.819999694824219,14.449999809265137,221900,14.449999809265137
2016-11-14,14.819999694824219,13.859999656677246,14.449999809265137,13.890000343322754,180800,13.890000343322754
2016-11-15,14.289999961853027,13.319999694824219,13.760000228881836,13.359999656677246,165400,13.359999656677246
2016-11-16,14.100000381469727,13.270999908447266,13.34000015258789,13.930000305175781,117900,13.930000305175781
2016-11-17,14.630000114440918,13.755999565124512,13.890000343322754,14.479999542236328,225000,14.479999542236328
2016-11-18,15.270000457763672,14.180999755859375,14.569999694824219,14.9399995803833,179500,14.9399995803833
2016-11-21,15.350000381469727,14.1899995803833,15.0,14.229999542236328,115800,14.229999542236328
2016-11-22,14.649999618530273,13.550000190734863,14.25,14.550000190734863,149800,14.550000190734863
2016-11-23,14.869999885559082,14.335000038146973,14.510000228881836,14.770000457763672,80800,14.770000457763672
2016-11-25,15.859999656677246,14.84000015258789,14.84000015258789,15.800000190734863,133300,15.800000190734863
2016-11-28,15.75,14.970999717712402,15.710000038146973,15.210000038146973,85600,15.210000038146973
2016-11-29,15.180000305175781,14.805999755859375,15.15999984741211,14.90999984741211,26800,14.90999984741211
2016-11-30,15.569999694824219,14.560999870300293,15.029999732971191,15.170000076293945,91100,15.170000076293945
2016-12-01,15.71500015258789,14.59000015258789,15.390000343322754,14.829999923706055,136000,14.829999923706055
2016-12-02,15.164999961853027,14.595000267028809,14.779999732971191,14.6899995803833,132300,14.6899995803833
2016-12-05,15.199999809265137,14.59000015258789,14.770000457763672,14.6899995803833,67800,14.6899995803833
2016-12-06,14.913000106811523,14.710000038146973,14.729999542236328,14.760000228881836,52600,14.760000228881836
2016-12-07,15.28499984741211,14.75,14.75,15.1899995803833,160800,15.1899995803833
2016-12-08,15.680000305175781,15.100000381469727,15.100000381469727,15.130000114440918,135900,15.130000114440918
2016-12-09,15.479999542236328,15.15999984741211,15.279999732971191,15.25,183800,15.25
2016-12-12,15.239999771118164,14.220000267028809,15.149999618530273,14.380000114440918,136300,14.380000114440918
2016-12-13,15.09000015258789,14.126999855041504,14.470000267028809,14.829999923706055,78000,14.829999923706055
2016-12-14,15.039999961853027,14.640000343322754,14.760000228881836,14.899999618530273,102300,14.899999618530273
2016-12-15,15.149999618530273,14.619999885559082,14.869999885559082,15.010000228881836,55800,15.010000228881836
2016-12-16,15.3100004196167,14.940999984741211,15.0600004196167,15.0600004196167,68300,15.0600004196167
2016-12-19,15.092000007629395,14.579999923706055,15.020000457763672,14.850000381469727,257600,14.850000381469727
2016-12-20,15.609999656677246,14.819999694824219,14.880000114440918,15.5600004196167,140800,15.5600004196167
2016-12-21,15.430000305175781,14.949999809265137,15.430000305175781,15.119999885559082,93000,15.119999885559082
2016-12-22,15.930000305175781,15.100000381469727,15.100000381469727,15.899999618530273,158600,15.899999618530273
2016-12-23,16.209999084472656,15.5,15.850000381469727,15.680000305175781,106400,15.680000305175781
2016-12-27,16.6200008392334,15.699999809265137,15.739999771118164,16.389999389648438,140700,16.389999389648438
2016-12-28,16.899999618530273,16.329999923706055,16.450000762939453,16.399999618530273,174900,16.399999618530273
2016-12-29,16.780000686645508,15.890000343322754,16.360000610351562,16.239999771118164,126600,16.239999771118164
2016-12-30,16.6200008392334,15.579999923706055,16.270000457763672,16.040000915527344,128200,16.040000915527344
2017-01-03,16.479999542236328,15.3100004196167,16.209999084472656,15.420000076293945,89600,15.420000076293945
2017-01-04,15.930000305175781,15.420000076293945,15.510000228881836,15.829999923706055,95200,15.829999923706055
2017-01-05,16.899999618530273,15.75,15.75,16.8799991607666,189800,16.8799991607666
2017-01-06,17.049999237060547,16.3700008392334,16.989999771118164,16.690000534057617,96700,16.690000534057617
2017-01-09,16.899999618530273,16.469999313354492,16.6299991607666,16.610000610351562,90700,16.610000610351562
2017-01-10,17.350000381469727,16.6200008392334,16.6200008392334,17.260000228881836,127600,17.260000228881836
2017-01-11,17.534000396728516,17.020000457763672,17.299999237060547,17.40999984741211,88500,17.40999984741211
2017-01-12,17.799999237060547,16.06999969482422,17.270000457763672,17.309999465942383,130400,17.309999465942383
2017-01-13,17.59000015258789,17.239999771118164,17.280000686645508,17.479999542236328,38300,17.479999542236328
2017-01-17,17.950000762939453,17.1299991607666,17.520000457763672,17.260000228881836,149000,17.260000228881836
2017-01-18,17.940000534057617,16.90999984741211,17.350000381469727,17.850000381469727,77400,17.850000381469727
2017-01-19,17.850000381469727,17.25,17.850000381469727,17.739999771118164,76600,17.739999771118164
2017-01-20,17.90999984741211,17.459999084472656,17.799999237060547,17.6200008392334,50200,17.6200008392334
2017-01-23,18.395000457763672,17.790000915527344,17.899999618530273,18.18000030517578,137200,18.18000030517578
2017-01-24,18.399999618530273,18.1299991607666,18.239999771118164,18.209999084472656,55600,18.209999084472656
2017-01-25,18.899999618530273,17.840999603271484,18.389999389648438,18.68000030517578,135000,18.68000030517578
2017-01-26,19.25,18.415000915527344,18.68000030517578,18.969999313354492,121200,18.969999313354492
2017-01-27,19.100000381469727,18.5,18.969999313354492,18.790000915527344,50300,18.790000915527344
2017-01-30,18.65999984741211,18.059999465942383,18.65999984741211,18.15999984741211,47500,18.15999984741211
2017-01-31,19.450000762939453,18.150999069213867,18.170000076293945,19.40999984741211,211700,19.40999984741211
2017-02-01,19.559999465942383,18.899999618530273,19.469999313354492,19.09000015258789,97900,19.09000015258789
2017-02-02,19.18000030517578,18.670000076293945,19.18000030517578,18.790000915527344,44700,18.790000915527344
2017-02-03,18.941999435424805,18.329999923706055,18.760000228881836,18.6299991607666,40400,18.6299991607666
2017-02-06,18.809999465942383,18.40999984741211,18.65999984741211,18.579999923706055,41600,18.579999923706055
2017-02-07,18.84000015258789,18.270000457763672,18.600000381469727,18.450000762939453,70100,18.450000762939453
2017-02-08,19.030000686645508,18.100000381469727,18.469999313354492,18.93000030517578,153600,18.93000030517578
2017-02-09,19.399999618530273,18.90999984741211,19.0,19.299999237060547,127400,19.299999237060547
2017-02-10,19.600000381469727,19.270000457763672,19.280000686645508,19.31999969482422,57400,19.31999969482422
2017-02-13,19.783000946044922,18.854999542236328,19.399999618530273,19.25,40800,19.25
2017-02-14,19.579999923706055,19.020000457763672,19.299999237060547,19.219999313354492,78700,19.219999313354492
2017-02-15,19.299999237060547,19.010000228881836,19.15999984741211,19.200000762939453,75900,19.200000762939453
2017-02-16,19.280000686645508,19.0,19.25,19.149999618530273,121200,19.149999618530273
2017-02-17,19.280000686645508,18.06999969482422,18.989999771118164,19.149999618530273,123600,19.149999618530273
2017-02-21,19.979999542236328,19.200000762939453,19.389999389648438,19.84000015258789,94500,19.84000015258789
2017-02-22,20.989999771118164,19.610000610351562,19.940000534057617,20.31999969482422,87300,20.31999969482422
2017-02-23,20.549999237060547,19.049999237060547,20.549999237060547,19.34000015258789,137400,19.34000015258789
2017-02-24,19.09000015258789,18.565000534057617,19.09000015258789,18.950000762939453,78400,18.950000762939453
2017-02-27,19.15999984741211,17.950000762939453,18.809999465942383,18.139999389648438,148400,18.139999389648438
2017-02-28,18.139999389648438,17.3700008392334,18.1299991607666,17.450000762939453,137100,17.450000762939453
2017-03-01,17.90999984741211,17.540000915527344,17.899999618530273,17.850000381469727,154100,17.850000381469727
2017-03-02,17.920000076293945,17.690000534057617,17.850000381469727,17.760000228881836,54500,17.760000228881836
2017-03-03,19.301000595092773,17.190000534057617,17.709999084472656,17.360000610351562,68800,17.360000610351562
2017-03-06,17.309999465942383,16.780000686645508,17.309999465942383,17.200000762939453,95700,17.200000762939453
2017-03-07,17.450000762939453,16.940000534057617,17.09000015258789,17.290000915527344,55100,17.290000915527344
2017-03-08,18.100000381469727,17.209999084472656,17.3700008392334,17.440000534057617,73500,17.440000534057617
2017-03-09,17.469999313354492,16.958999633789062,17.459999084472656,17.100000381469727,22300,17.100000381469727
2017-03-10,17.219999313354492,16.6200008392334,17.219999313354492,16.670000076293945,33600,16.670000076293945
2017-03-13,17.030000686645508,16.420000076293945,16.719999313354492,16.600000381469727,38300,16.600000381469727
2017-03-14,16.56999969482422,16.110000610351562,16.56999969482422,16.299999237060547,79100,16.299999237060547
2017-03-15,17.399999618530273,16.31999969482422,16.43000030517578,17.149999618530273,51600,17.149999618530273
2017-03-16,17.350000381469727,17.010000228881836,17.299999237060547,17.239999771118164,45800,17.239999771118164
2017-03-17,17.790000915527344,16.969999313354492,17.0,17.399999618530273,230200,17.399999618530273
2017-03-20,17.649999618530273,16.81999969482422,17.350000381469727,16.989999771118164,46200,16.989999771118164
2017-03-21,17.239999771118164,16.309999465942383,17.020000457763672,16.34000015258789,62200,16.34000015258789
2017-03-22,16.8799991607666,16.281999588012695,16.350000381469727,16.489999771118164,135500,16.489999771118164
2017-03-23,16.940000534057617,16.360000610351562,16.5,16.5,137900,16.5
2017-03-24,16.68000030517578,16.309999465942383,16.56999969482422,16.459999084472656,105200,16.459999084472656
2017-03-27,16.459999084472656,15.890000343322754,16.299999237060547,16.059999465942383,81100,16.059999465942383
2017-03-28,17.739999771118164,16.030000686645508,16.360000610351562,17.399999618530273,365100,17.399999618530273
2017-03-29,18.85300064086914,17.43000030517578,17.549999237060547,18.329999923706055,325400,18.329999923706055
2017-03-30,18.950000762939453,18.139999389648438,18.59000015258789,18.290000915527344,467800,18.290000915527344
2017-03-31,20.0,18.46500015258789,20.0,19.010000228881836,197800,19.010000228881836
2017-04-03,19.079999923706055,18.440000534057617,18.950000762939453,18.889999389648438,80200,18.889999389648438
2017-04-04,19.459999084472656,18.743999481201172,18.760000228881836,19.350000381469727,89300,19.350000381469727
2017-04-05,19.399999618530273,18.8799991607666,19.389999389648438,19.06999969482422,75100,19.06999969482422
2017-04-06,19.84000015258789,18.8799991607666,19.149999618530273,19.43000030517578,107700,19.43000030517578
2017-04-07,19.799999237060547,19.0,19.299999237060547,19.200000762939453,82600,19.200000762939453
2017-04-10,20.3700008392334,19.25,19.25,19.979999542236328,155100,19.979999542236328
2017-04-11,20.030000686645508,19.209999084472656,20.010000228881836,19.889999389648438,127800,19.889999389648438
2017-04-12,19.959999084472656,19.229999542236328,19.899999618530273,19.360000610351562,132600,19.360000610351562
2017-04-13,19.6200008392334,19.200000762939453,19.360000610351562,19.469999313354492,74100,19.469999313354492
2017-04-17,20.0,19.360000610351562,19.68000030517578,19.729999542236328,52600,19.729999542236328
2017-04-18,19.790000915527344,19.260000228881836,19.719999313354492,19.719999313354492,49100,19.719999313354492
2017-04-19,20.690000534057617,19.81999969482422,19.979999542236328,20.350000381469727,166500,20.350000381469727
2017-04-20,20.700000762939453,20.09000015258789,20.510000228881836,20.34000015258789,49400,20.34000015258789
2017-04-21,20.34000015258789,19.979999542236328,20.34000015258789,20.25,39400,20.25
2017-04-24,20.850000381469727,20.209999084472656,20.360000610351562,20.489999771118164,46400,20.489999771118164
2017-04-25,20.729999542236328,19.979999542236328,20.729999542236328,20.1299991607666,151300,20.1299991607666
2017-04-26,20.260000228881836,19.790000915527344,20.0,19.84000015258789,70400,19.84000015258789
2017-04-27,19.8799991607666,19.350000381469727,19.8700008392334,19.56999969482422,58400,19.56999969482422
2017-04-28,19.799999237060547,19.5,19.56999969482422,19.649999618530273,90800,19.649999618530273
2017-05-01,19.829999923706055,19.079999923706055,19.649999618530273,19.170000076293945,89500,19.170000076293945
2017-05-02,19.350000381469727,17.709999084472656,19.170000076293945,17.809999465942383,162900,17.809999465942383
2017-05-03,17.950000762939453,17.5,17.700000762939453,17.520000457763672,81800,17.520000457763672
2017-05-04,18.729999542236328,17.579999923706055,17.579999923706055,18.0,145700,18.0
2017-05-05,18.5049991607666,17.84000015258789,18.06999969482422,17.969999313354492,101900,17.969999313354492
2017-05-08,18.920000076293945,17.600000381469727,18.020000457763672,18.049999237060547,93300,18.049999237060547
2017-05-09,18.80900001525879,18.149999618530273,18.239999771118164,18.600000381469727,95500,18.600000381469727
2017-05-10,18.360000610351562,16.610000610351562,18.360000610351562,16.799999237060547,217900,16.799999237060547
2017-05-11,17.219999313354492,16.559999465942383,16.649999618530273,16.700000762939453,208800,16.700000762939453
2017-05-12,17.059999465942383,15.90999984741211,16.260000228881836,16.31999969482422,2226900,16.31999969482422
2017-05-15,16.84000015258789,16.350000381469727,16.350000381469727,16.729999542236328,571000,16.729999542236328
2017-05-16,16.799999237060547,15.930000305175781,16.799999237060547,16.040000915527344,203300,16.040000915527344
2017-05-17,16.1299991607666,15.449999809265137,15.859999656677246,15.569999694824219,282400,15.569999694824219
2017-05-18,16.059999465942383,15.260000228881836,15.5,15.75,331600,15.75
2017-05-19,16.200000762939453,15.640000343322754,15.899999618530273,15.869999885559082,207600,15.869999885559082
2017-05-22,16.200000762939453,15.824999809265137,15.859999656677246,16.110000610351562,223300,16.110000610351562
2017-05-23,16.510000228881836,15.989999771118164,16.25,16.239999771118164,141400,16.239999771118164
2017-05-24,16.409000396728516,16.051000595092773,16.219999313354492,16.31999969482422,177600,16.31999969482422
2017-05-25,16.389999389648438,16.049999237060547,16.31999969482422,16.360000610351562,171800,16.360000610351562
2017-05-26,17.726999282836914,16.299999237060547,16.440000534057617,17.030000686645508,817700,17.030000686645508
2017-05-30,17.149999618530273,16.579999923706055,16.979999542236328,16.59000015258789,227000,16.59000015258789
2017-05-31,17.030000686645508,16.16699981689453,16.81999969482422,17.020000457763672,268300,17.020000457763672
2017-06-01,17.172000885009766,16.670000076293945,17.040000915527344,17.0,144600,17.0
2017-06-02,17.420000076293945,17.045000076293945,17.299999237060547,17.239999771118164,242900,17.239999771118164
2017-06-05,17.31999969482422,16.679000854492188,17.149999618530273,16.889999389648438,227800,16.889999389648438
2017-06-06,16.969999313354492,16.243999481201172,16.670000076293945,16.809999465942383,228100,16.809999465942383
2017-06-07,16.920000076293945,16.6200008392334,16.799999237060547,16.729999542236328,128600,16.729999542236328
2017-06-08,17.420000076293945,16.56999969482422,16.790000915527344,17.299999237060547,190500,17.299999237060547
2017-06-09,17.690000534057617,17.100000381469727,17.200000762939453,17.270000457763672,224100,17.270000457763672
2017-06-12,17.459999084472656,16.860000610351562,17.059999465942383,17.190000534057617,225200,17.190000534057617
2017-06-13,17.30500030517578,16.8700008392334,17.209999084472656,17.170000076293945,111200,17.170000076293945
2017-06-14,17.31999969482422,16.850000381469727,17.31999969482422,17.219999313354492,91600,17.219999313354492
2017-06-15,17.950000762939453,16.899999618530273,16.959999084472656,17.8799991607666,130000,17.8799991607666
2017-06-16,17.899999618530273,17.31999969482422,17.899999618530273,17.5,228500,17.5
2017-06-19,17.780000686645508,17.350000381469727,17.65999984741211,17.40999984741211,133300,17.40999984741211
2017-06-20,17.6200008392334,17.049999237060547,17.270000457763672,17.290000915527344,172000,17.290000915527344
2017-06-21,17.68000030517578,17.229999542236328,17.239999771118164,17.65999984741211,248100,17.65999984741211
2017-06-22,18.440000534057617,17.6299991607666,17.6299991607666,18.06999969482422,125800,18.06999969482422
2017-06-23,18.829999923706055,17.989999771118164,18.149999618530273,18.600000381469727,905000,18.600000381469727
2017-06-26,18.799999237060547,18.260000228881836,18.729999542236328,18.6200008392334,159900,18.6200008392334
2017-06-27,18.559999465942383,18.15999984741211,18.559999465942383,18.18000030517578,114300,18.18000030517578
2017-06-28,18.790000915527344,17.93000030517578,18.219999313354492,18.559999465942383,118400,18.559999465942383
2017-06-29,18.850000381469727,18.34000015258789,18.579999923706055,18.649999618530273,146000,18.649999618530273
2017-06-30,18.799999237060547,18.459999084472656,18.649999618530273,18.479999542236328,117800,18.479999542236328
2017-07-03,18.799999237060547,18.479999542236328,18.600000381469727,18.770000457763672,64900,18.770000457763672
2017-07-05,18.84000015258789,18.344999313354492,18.84000015258789,18.75,144800,18.75
2017-07-06,18.84000015258789,18.100000381469727,18.530000686645508,18.219999313354492,102700,18.219999313354492
2017-07-07,18.43000030517578,17.90999984741211,18.25,18.399999618530273,92400,18.399999618530273
2017-07-10,18.600000381469727,18.110000610351562,18.209999084472656,18.520000457763672,116900,18.520000457763672
2017-07-11,18.795000076293945,18.381000518798828,18.420000076293945,18.670000076293945,83200,18.670000076293945
2017-07-12,18.860000610351562,18.549999237060547,18.850000381469727,18.68000030517578,112300,18.68000030517578
2017-07-13,18.809999465942383,18.440000534057617,18.639999389648438,18.790000915527344,73300,18.790000915527344
2017-07-14,18.940000534057617,18.68000030517578,18.780000686645508,18.719999313354492,183900,18.719999313354492
2017-07-17,19.450000762939453,18.665000915527344,18.8700008392334,18.93000030517578,193900,18.93000030517578
2017-07-18,19.350000381469727,18.540000915527344,18.84000015258789,19.1200008392334,114700,19.1200008392334
2017-07-19,19.729999542236328,18.920000076293945,19.100000381469727,19.059999465942383,66700,19.059999465942383
2017-07-20,19.13599967956543,18.809999465942383,19.1200008392334,18.90999984741211,58400,18.90999984741211
2017-07-21,19.06999969482422,18.139999389648438,19.06999969482422,18.299999237060547,131100,18.299999237060547
2017-07-24,18.5,18.170000076293945,18.3799991607666,18.3700008392334,56200,18.3700008392334
2017-07-25,18.989999771118164,18.260000228881836,18.469999313354492,18.81999969482422,109200,18.81999969482422
2017-07-26,19.149999618530273,18.43000030517578,18.84000015258789,18.8799991607666,124300,18.8799991607666
2017-07-27,19.139999389648438,18.780000686645508,18.979999542236328,19.0,113400,19.0
2017-07-28,19.350000381469727,18.8700008392334,18.8700008392334,18.969999313354492,127600,18.969999313354492
2017-07-31,19.0,18.479999542236328,18.969999313354492,18.84000015258789,113600,18.84000015258789
2017-08-01,19.0,18.56999969482422,18.899999618530273,18.93000030517578,168100,18.93000030517578
2017-08-02,19.079999923706055,18.719999313354492,18.969999313354492,19.059999465942383,142200,19.059999465942383
2017-08-03,19.31999969482422,18.93000030517578,19.290000915527344,19.020000457763672,77100,19.020000457763672
2017-08-04,19.200000762939453,18.93000030517578,19.1200008392334,19.040000915527344,42900,19.040000915527344
2017-08-07,19.350000381469727,18.981000900268555,19.079999923706055,19.229999542236328,98400,19.229999542236328
2017-08-08,19.350000381469727,19.030000686645508,19.149999618530273,19.09000015258789,121900,19.09000015258789
2017-08-09,22.299999237060547,21.01099967956543,21.31999969482422,21.399999618530273,1173800,21.399999618530273
2017-08-10,22.549999237060547,21.25,21.309999465942383,21.799999237060547,410700,21.799999237060547
2017-08-11,21.260000228881836,19.0,19.5,21.06999969482422,381100,21.06999969482422
2017-08-14,21.950000762939453,20.950000762939453,21.010000228881836,21.290000915527344,249100,21.290000915527344
2017-08-15,21.899999618530273,21.350000381469727,21.43000030517578,21.43000030517578,192200,21.43000030517578
2017-08-16,21.989999771118164,20.959999084472656,21.700000762939453,21.0,306900,21.0
2017-08-17,21.190000534057617,20.0,20.68000030517578,20.030000686645508,294500,20.030000686645508
2017-08-18,21.299999237060547,20.0,20.0,20.780000686645508,341600,20.780000686645508
2017-08-21,21.014999389648438,20.479999542236328,20.690000534057617,20.670000076293945,115400,20.670000076293945
2017-08-22,20.979999542236328,19.90999984741211,20.670000076293945,19.979999542236328,256800,19.979999542236328
2017-08-23,20.299999237060547,19.420000076293945,19.989999771118164,19.940000534057617,249000,19.940000534057617
2017-08-24,20.420000076293945,19.899999618530273,20.139999389648438,20.049999237060547,233900,20.049999237060547
2017-08-25,20.14699935913086,19.790000915527344,20.100000381469727,19.809999465942383,92700,19.809999465942383
2017-08-28,20.25,19.700000762939453,19.81999969482422,20.09000015258789,148800,20.09000015258789
2017-08-29,20.8799991607666,19.959999084472656,19.959999084472656,20.65999984741211,165100,20.65999984741211
2017-08-30,20.968000411987305,20.34000015258789,20.709999084472656,20.420000076293945,146400,20.420000076293945
2017-08-31,20.75,20.309999465942383,20.59000015258789,20.34000015258789,134700,20.34000015258789
2017-09-01,20.849000930786133,20.3700008392334,20.479999542236328,20.440000534057617,117000,20.440000534057617
2017-09-05,20.56999969482422,19.65999984741211,20.350000381469727,19.959999084472656,185500,19.959999084472656
2017-09-06,20.530000686645508,19.950000762939453,20.229999542236328,20.010000228881836,80200,20.010000228881836
2017-09-07,20.200000762939453,19.739999771118164,20.1200008392334,19.905000686645508,115500,19.905000686645508
2017-09-08,20.184999465942383,19.700000762939453,19.899999618530273,19.829999923706055,93100,19.829999923706055
2017-09-11,20.31999969482422,19.860000610351562,20.06999969482422,20.280000686645508,113800,20.280000686645508
2017-09-12,20.540000915527344,20.209999084472656,20.420000076293945,20.260000228881836,61400,20.260000228881836
2017-09-13,20.459999084472656,19.889999389648438,20.31999969482422,20.010000228881836,111400,20.010000228881836
2017-09-14,20.62700080871582,20.030000686645508,20.030000686645508,20.31999969482422,104700,20.31999969482422
2017-09-15,21.34000015258789,20.049999237060547,20.459999084472656,21.030000686645508,439800,21.030000686645508
2017-09-18,21.05500030517578,20.780000686645508,21.010000228881836,20.979999542236328,114600,20.979999542236328
2017-09-19,21.020000457763672,20.600000381469727,20.889999389648438,20.989999771118164,91900,20.989999771118164
2017-09-20,21.170000076293945,20.940000534057617,20.959999084472656,21.1299991607666,140900,21.1299991607666
2017-09-21,21.809999465942383,21.030000686645508,21.1200008392334,21.610000610351562,198700,21.610000610351562
2017-09-22,21.8799991607666,21.349000930786133,21.6299991607666,21.799999237060547,104300,21.799999237060547
2017-09-25,21.8799991607666,21.469999313354492,21.8799991607666,21.530000686645508,198600,21.530000686645508
2017-09-26,22.176000595092773,21.59000015258789,21.600000381469727,21.770000457763672,108400,21.770000457763672
2017-09-27,22.84000015258789,21.709999084472656,21.8700008392334,22.559999465942383,205600,22.559999465942383
2017-09-28,22.530000686645508,22.209999084472656,22.479999542236328,22.420000076293945,151100,22.420000076293945
2017-09-29,22.540000915527344,22.079999923706055,22.350000381469727,22.34000015258789,144300,22.34000015258789
2017-10-02,22.652000427246094,22.010000228881836,22.469999313354492,22.469999313354492,118100,22.469999313354492
2017-10-03,22.790000915527344,22.389999389648438,22.389999389648438,22.59000015258789,167900,22.59000015258789
2017-10-04,22.729999542236328,22.34000015258789,22.510000228881836,22.59000015258789,85900,22.59000015258789
2017-10-05,23.68000030517578,22.5,22.65999984741211,23.0,287200,23.0
2017-10-06,23.170000076293945,22.760000228881836,22.860000610351562,22.860000610351562,106100,22.860000610351562
2017-10-09,23.059999465942383,22.68000030517578,22.81999969482422,22.68000030517578,63200,22.68000030517578
2017-10-10,22.979999542236328,22.610000610351562,22.979999542236328,22.700000762939453,82400,22.700000762939453
2017-10-11,23.040000915527344,22.739999771118164,22.84000015258789,22.90999984741211,104200,22.90999984741211
2017-10-12,23.049999237060547,22.709999084472656,23.010000228881836,22.81999969482422,80900,22.81999969482422
2017-10-13,23.09000015258789,22.670000076293945,22.899999618530273,22.790000915527344,201200,22.790000915527344
2017-10-16,23.389999389648438,22.700000762939453,22.899999618530273,22.729999542236328,104100,22.729999542236328
2017-10-17,23.1299991607666,22.68400001525879,22.729999542236328,22.84000015258789,101900,22.84000015258789
2017-10-18,22.93000030517578,22.59000015258789,22.90999984741211,22.8799991607666,121700,22.8799991607666
2017-10-19,23.450000762939453,22.520000457763672,22.649999618530273,23.020000457763672,181000,23.020000457763672
2017-10-20,23.799999237060547,22.93000030517578,23.229999542236328,23.440000534057617,95100,23.440000534057617
2017-10-23,23.71299934387207,23.139999389648438,23.450000762939453,23.290000915527344,73800,23.290000915527344
2017-10-24,23.610000610351562,23.18000030517578,23.329999923706055,23.190000534057617,94500,23.190000534057617
2017-10-25,23.260000228881836,22.850000381469727,23.260000228881836,22.90999984741211,190100,22.90999984741211
2017-10-26,23.31999969482422,22.809999465942383,22.979999542236328,22.950000762939453,120200,22.950000762939453
2017-10-27,23.709999084472656,23.079999923706055,23.09000015258789,23.600000381469727,63800,23.600000381469727
2017-10-30,23.920000076293945,23.190000534057617,23.65999984741211,23.8700008392334,168000,23.8700008392334
2017-10-31,26.0,23.889999389648438,24.0,25.049999237060547,402100,25.049999237060547
2017-11-01,25.34000015258789,24.040000915527344,25.34000015258789,24.229999542236328,160000,24.229999542236328
2017-11-02,24.520000457763672,23.690000534057617,24.100000381469727,23.729999542236328,159500,23.729999542236328
2017-11-03,24.010000228881836,22.25,23.6200008392334,23.229999542236328,724400,23.229999542236328
2017-11-06,25.0,23.3799991607666,23.5,24.360000610351562,232400,24.360000610351562
2017-11-07,24.777000427246094,23.290000915527344,24.549999237060547,23.440000534057617,278100,23.440000534057617
2017-11-08,24.3700008392334,23.469999313354492,23.520000457763672,24.079999923706055,245400,24.079999923706055
2017-11-09,24.149999618530273,21.030000686645508,24.0,21.260000228881836,800100,21.260000228881836
2017-11-10,21.360000610351562,19.649999618530273,21.09000015258789,19.65999984741211,560200,19.65999984741211
2017-11-13,19.65999984741211,19.1299991607666,19.600000381469727,19.290000915527344,454200,19.290000915527344
2017-11-14,20.6299991607666,19.100000381469727,19.290000915527344,20.31999969482422,343000,20.31999969482422
2017-11-15,20.739999771118164,19.770000457763672,20.229999542236328,19.950000762939453,205100,19.950000762939453
2017-11-16,21.219999313354492,19.959999084472656,21.219999313354492,20.030000686645508,374200,20.030000686645508
2017-11-17,20.18000030517578,18.979999542236328,20.06999969482422,19.059999465942383,670600,19.059999465942383
2017-11-20,19.399999618530273,18.770000457763672,19.31999969482422,18.780000686645508,488300,18.780000686645508
2017-11-21,18.950000762939453,18.219999313354492,18.790000915527344,18.6299991607666,351900,18.6299991607666
2017-11-22,19.0,18.527000427246094,18.700000762939453,18.770000457763672,130300,18.770000457763672
2017-11-24,18.920000076293945,18.398000717163086,18.760000228881836,18.549999237060547,69200,18.549999237060547
2017-11-27,18.829999923706055,17.8799991607666,18.540000915527344,17.93000030517578,392600,17.93000030517578
2017-11-28,18.6200008392334,18.0,18.020000457763672,18.510000228881836,229300,18.510000228881836
2017-11-29,18.670000076293945,18.239999771118164,18.540000915527344,18.3799991607666,140900,18.3799991607666
2017-11-30,19.700000762939453,18.889999389648438,19.649999618530273,18.940000534057617,334800,18.940000534057617
2017-12-01,19.020000457763672,17.56999969482422,18.809999465942383,18.93000030517578,456500,18.93000030517578
2017-12-04,19.239999771118164,16.350000381469727,19.239999771118164,17.649999618530273,908100,17.649999618530273
2017-12-05,18.209999084472656,17.489999771118164,17.760000228881836,17.649999618530273,559700,17.649999618530273
2017-12-06,17.739999771118164,17.190000534057617,17.5,17.290000915527344,388600,17.290000915527344
2017-12-07,18.170000076293945,17.299999237060547,17.299999237060547,17.690000534057617,455800,17.690000534057617
2017-12-08,17.98699951171875,17.642000198364258,17.719999313354492,17.8799991607666,142300,17.8799991607666
2017-12-11,18.030000686645508,17.739999771118164,17.850000381469727,18.020000457763672,190000,18.020000457763672
2017-12-12,18.709999084472656,17.84000015258789,18.030000686645508,18.670000076293945,442000,18.670000076293945
2017-12-13,18.93000030517578,18.209999084472656,18.649999618530273,18.799999237060547,290000,18.799999237060547
2017-12-14,19.5,18.540000915527344,18.959999084472656,18.59000015258789,386600,18.59000015258789
2017-12-15,19.200000762939453,18.149999618530273,18.56999969482422,18.989999771118164,276300,18.989999771118164
2017-12-18,19.81999969482422,19.190000534057617,19.31999969482422,19.610000610351562,258600,19.610000610351562
2017-12-19,20.030000686645508,19.43000030517578,19.649999618530273,19.450000762939453,195300,19.450000762939453
2017-12-20,20.25,19.68000030517578,19.68000030517578,20.110000610351562,297700,20.110000610351562
2017-12-21,20.59000015258789,20.033000946044922,20.149999618530273,20.459999084472656,248500,20.459999084472656
2017-12-22,21.0,20.049999237060547,20.43000030517578,20.110000610351562,234400,20.110000610351562
2017-12-26,20.156999588012695,19.860000610351562,20.0,19.959999084472656,81600,19.959999084472656
2017-12-27,20.56999969482422,19.959999084472656,20.020000457763672,20.020000457763672,216100,20.020000457763672
2017-12-28,20.639999389648438,20.1299991607666,20.200000762939453,20.360000610351562,194200,20.360000610351562
2017-12-29,20.760000228881836,20.270000457763672,20.510000228881836,20.459999084472656,145300,20.459999084472656
2018-01-02,21.079999923706055,20.5,20.5,20.860000610351562,108200,20.860000610351562
2018-01-03,21.059999465942383,20.649999618530273,20.969999313354492,20.8700008392334,135500,20.8700008392334
2018-01-04,21.0,20.510000228881836,21.0,20.59000015258789,105700,20.59000015258789
2018-01-05,20.739999771118164,20.329999923706055,20.610000610351562,20.450000762939453,126400,20.450000762939453
2018-01-08,20.600000381469727,20.25,20.440000534057617,20.489999771118164,103500,20.489999771118164
2018-01-09,20.68000030517578,20.020000457763672,20.530000686645508,20.329999923706055,124400,20.329999923706055
2018-01-10,20.524999618530273,20.079999923706055,20.25,20.360000610351562,127700,20.360000610351562
2018-01-11,20.850000381469727,20.152000427246094,20.299999237060547,20.700000762939453,149000,20.700000762939453
2018-01-12,21.139999389648438,20.739999771118164,20.829999923706055,20.979999542236328,137000,20.979999542236328
2018-01-16,21.600000381469727,20.049999237060547,21.5,20.110000610351562,199300,20.110000610351562
2018-01-17,20.510000228881836,19.90999984741211,20.200000762939453,20.049999237060547,143300,20.049999237060547
2018-01-18,20.170000076293945,19.75,19.969999313354492,19.899999618530273,158200,19.899999618530273
2018-01-19,20.040000915527344,19.700000762939453,19.8799991607666,19.75,184400,19.75
2018-01-22,20.156999588012695,19.729999542236328,19.850000381469727,20.010000228881836,98700,20.010000228881836
2018-01-23,21.1299991607666,19.899999618530273,20.219999313354492,20.309999465942383,173100,20.309999465942383
2018-01-24,20.450000762939453,20.110000610351562,20.31999969482422,20.139999389648438,160000,20.139999389648438
2018-01-25,20.510000228881836,20.100000381469727,20.3700008392334,20.260000228881836,229800,20.260000228881836
2018-01-26,20.420000076293945,20.06999969482422,20.299999237060547,20.209999084472656,176800,20.209999084472656
2018-01-29,20.239999771118164,19.6200008392334,20.1200008392334,19.700000762939453,225900,19.700000762939453
2018-01-30,20.170000076293945,19.530000686645508,19.56999969482422,20.010000228881836,108700,20.010000228881836
2018-01-31,20.389999389648438,19.959999084472656,20.110000610351562,20.079999923706055,77500,20.079999923706055
2018-02-01,20.190000534057617,19.75,19.979999542236328,19.950000762939453,123200,19.950000762939453
2018-02-02,19.770000457763672,19.360000610351562,19.75,19.5,121800,19.5
2018-02-05,19.420000076293945,17.96299934387207,19.34000015258789,18.260000228881836,307500,18.260000228881836
2018-02-06,20.0,17.790000915527344,17.790000915527344,18.350000381469727,203100,18.350000381469727
2018-02-07,18.860000610351562,18.229999542236328,18.290000915527344,18.559999465942383,114100,18.559999465942383
2018-02-08,18.81999969482422,18.200000762939453,18.559999465942383,18.229999542236328,190100,18.229999542236328
2018-02-09,19.059999465942383,18.219999313354492,18.440000534057617,18.84000015258789,183100,18.84000015258789
2018-02-12,18.989999771118164,18.34000015258789,18.989999771118164,18.479999542236328,99600,18.479999542236328
2018-02-13,18.989999771118164,18.440000534057617,18.440000534057617,18.860000610351562,86200,18.860000610351562
2018-02-14,19.549999237060547,18.520000457763672,18.790000915527344,19.1299991607666,163900,19.1299991607666
2018-02-15,19.360000610351562,18.951000213623047,19.360000610351562,19.260000228881836,70200,19.260000228881836
2018-02-16,19.5,19.149999618530273,19.149999618530273,19.479999542236328,50000,19.479999542236328
2018-02-20,19.774999618530273,19.299999237060547,19.469999313354492,19.31999969482422,93400,19.31999969482422
2018-02-21,20.270000457763672,19.360000610351562,19.3799991607666,20.25,182400,20.25
2018-02-22,20.420000076293945,20.030000686645508,20.290000915527344,20.09000015258789,132400,20.09000015258789
2018-02-23,20.298999786376953,20.045000076293945,20.229999542236328,20.18000030517578,89200,20.18000030517578
2018-02-26,20.56999969482422,20.15999984741211,20.34000015258789,20.450000762939453,124400,20.450000762939453
2018-02-27,20.514999389648438,19.920000076293945,20.489999771118164,19.979999542236328,107900,19.979999542236328
2018-02-28,20.18000030517578,19.81999969482422,20.09000015258789,19.81999969482422,93800,19.81999969482422
2018-03-01,20.170000076293945,19.799999237060547,19.81999969482422,19.959999084472656,95300,19.959999084472656
2018-03-02,20.549999237060547,19.513999938964844,19.739999771118164,20.389999389648438,190600,20.389999389648438
2018-03-05,20.520000457763672,19.860000610351562,20.290000915527344,20.290000915527344,150600,20.290000915527344
2018-03-06,20.6200008392334,20.1200008392334,20.389999389648438,20.31999969482422,429100,20.31999969482422
2018-03-07,20.6200008392334,20.100000381469727,20.149999618530273,20.270000457763672,235900,20.270000457763672
2018-03-08,20.75,20.18000030517578,20.360000610351562,20.3799991607666,146700,20.3799991607666
2018-03-09,23.59000015258789,19.31999969482422,19.31999969482422,23.100000381469727,582500,23.100000381469727
2018-03-12,23.819000244140625,22.489999771118164,23.25,22.549999237060547,405100,22.549999237060547
2018-03-13,23.819000244140625,22.489999771118164,23.25,22.889999389648438,386700,22.889999389648438
2018-03-14,23.059999465942383,22.170000076293945,22.8799991607666,22.670000076293945,307000,22.670000076293945
2018-03-15,22.81999969482422,22.1200008392334,22.700000762939453,22.170000076293945,262000,22.170000076293945
2018-03-16,22.170000076293945,21.610000610351562,22.139999389648438,21.799999237060547,680800,21.799999237060547
2018-03-19,22.09000015258789,21.6200008392334,21.68000030517578,22.040000915527344,425000,22.040000915527344
2018-03-20,22.37299919128418,22.059999465942383,22.110000610351562,22.100000381469727,238600,22.100000381469727
2018-03-21,22.75,22.049999237060547,22.049999237060547,22.40999984741211,174500,22.40999984741211
2018-03-22,22.68600082397461,22.309999465942383,22.40999984741211,22.3700008392334,208500,22.3700008392334
2018-03-23,22.520000457763672,22.149999618530273,22.399999618530273,22.329999923706055,237800,22.329999923706055
2018-03-26,22.860000610351562,22.0,22.559999465942383,22.399999618530273,265800,22.399999618530273
2018-03-27,23.25,22.3700008392334,22.450000762939453,22.860000610351562,303900,22.860000610351562
2018-03-28,23.040000915527344,22.299999237060547,22.75,22.65999984741211,297700,22.65999984741211
2018-03-29,23.030000686645508,22.299999237060547,22.760000228881836,22.450000762939453,246300,22.450000762939453
2018-04-02,22.579999923706055,21.979999542236328,22.459999084472656,22.25,175300,22.25
2018-04-03,22.530000686645508,22.139999389648438,22.3799991607666,22.360000610351562,133100,22.360000610351562
2018-04-04,22.760000228881836,22.100000381469727,22.110000610351562,22.75,174300,22.75
2018-04-05,23.0,22.600000381469727,22.790000915527344,22.75,105100,22.75
2018-04-06,22.780000686645508,22.350000381469727,22.68000030517578,22.5,113800,22.5
2018-04-09,22.69099998474121,22.450000762939453,22.579999923706055,22.59000015258789,208400,22.59000015258789
2018-04-10,23.15999984741211,22.5,22.850000381469727,23.049999237060547,157400,23.049999237060547
2018-04-11,23.239999771118164,22.850000381469727,22.979999542236328,23.15999984741211,196400,23.15999984741211
2018-04-12,23.360000610351562,22.8700008392334,23.25,22.979999542236328,191800,22.979999542236328
2018-04-13,23.0,22.56999969482422,23.0,22.649999618530273,183100,22.649999618530273
2018-04-16,22.770000457763672,21.860000610351562,22.770000457763672,21.989999771118164,353100,21.989999771118164
2018-04-17,22.270000457763672,21.950000762939453,22.049999237060547,22.079999923706055,519000,22.079999923706055
2018-04-18,22.280000686645508,21.8799991607666,22.190000534057617,22.149999618530273,110300,22.149999618530273
2018-04-19,22.270000457763672,22.0,22.059999465942383,22.200000762939453,113500,22.200000762939453
2018-04-20,22.329999923706055,22.100000381469727,22.139999389648438,22.209999084472656,104800,22.209999084472656
2018-04-23,22.729999542236328,21.893999099731445,22.059999465942383,22.709999084472656,478100,22.709999084472656
2018-04-24,23.31999969482422,21.8799991607666,22.760000228881836,22.350000381469727,271300,22.350000381469727
2018-04-25,22.579999923706055,21.790000915527344,22.280000686645508,21.899999618530273,115400,21.899999618530273
2018-04-26,22.40999984741211,21.649999618530273,21.950000762939453,22.280000686645508,168600,22.280000686645508
2018-04-27,23.049999237060547,22.190000534057617,22.350000381469727,22.81999969482422,243500,22.81999969482422
2018-04-30,22.8700008392334,22.420000076293945,22.8700008392334,22.649999618530273,196700,22.649999618530273
2018-05-01,22.889999389648438,22.235000610351562,22.709999084472656,22.860000610351562,137600,22.860000610351562
2018-05-02,23.072999954223633,22.889999389648438,22.940000534057617,22.979999542236328,358200,22.979999542236328
2018-05-03,23.020000457763672,22.510000228881836,22.950000762939453,22.959999084472656,191700,22.959999084472656
2018-05-04,26.479999542236328,23.329999923706055,23.709999084472656,26.020000457763672,799700,26.020000457763672
2018-05-07,26.8700008392334,25.31999969482422,26.6200008392334,26.760000228881836,371300,26.760000228881836
2018-05-08,27.90999984741211,26.219999313354492,27.06999969482422,27.540000915527344,465200,27.540000915527344
2018-05-09,28.139999389648438,27.405000686645508,27.479999542236328,27.81999969482422,389600,27.81999969482422
2018-05-10,28.110000610351562,27.440000534057617,27.709999084472656,27.6200008392334,242700,27.6200008392334
2018-05-11,27.540000915527344,26.200000762939453,27.540000915527344,26.440000534057617,1080900,26.440000534057617
2018-05-14,27.170000076293945,26.190000534057617,26.649999618530273,26.479999542236328,606300,26.479999542236328
2018-05-15,26.889999389648438,26.190000534057617,26.200000762939453,26.489999771118164,168800,26.489999771118164
2018-05-16,26.610000610351562,26.260000228881836,26.530000686645508,26.3700008392334,161700,26.3700008392334
2018-05-17,27.030000686645508,26.18000030517578,26.440000534057617,26.469999313354492,254800,26.469999313354492
2018-05-18,27.128999710083008,26.0,26.65999984741211,26.360000610351562,1617600,26.360000610351562
2018-05-21,27.31599998474121,26.170000076293945,26.360000610351562,27.049999237060547,484600,27.049999237060547
2018-05-22,27.549999237060547,26.68000030517578,27.309999465942383,26.760000228881836,326900,26.760000228881836
2018-05-23,26.5,25.8700008392334,26.5,26.059999465942383,310500,26.059999465942383
2018-05-24,26.110000610351562,25.489999771118164,25.799999237060547,26.0,263100,26.0
2018-05-25,26.40999984741211,25.834999084472656,25.959999084472656,26.290000915527344,195300,26.290000915527344
2018-05-29,26.790000915527344,26.260000228881836,26.260000228881836,26.770000457763672,223300,26.770000457763672
2018-05-30,27.0,26.450000762939453,26.719999313354492,26.760000228881836,277300,26.760000228881836
2018-05-31,26.809999465942383,26.110000610351562,26.760000228881836,26.299999237060547,274300,26.299999237060547
2018-06-01,26.54599952697754,25.649999618530273,26.260000228881836,25.850000381469727,237600,25.850000381469727
2018-06-04,26.219999313354492,25.139999389648438,25.829999923706055,26.18000030517578,249500,26.18000030517578
2018-06-05,26.5,25.7450008392334,26.309999465942383,26.360000610351562,233800,26.360000610351562
2018-06-06,26.520000457763672,26.104999542236328,26.3799991607666,26.440000534057617,365500,26.440000534057617
2018-06-07,26.81999969482422,25.850000381469727,26.299999237060547,26.020000457763672,184500,26.020000457763672
2018-06-08,26.010000228881836,25.270000457763672,25.760000228881836,25.84000015258789,148000,25.84000015258789
2018-06-11,26.299999237060547,25.889999389648438,25.93000030517578,26.020000457763672,344600,26.020000457763672
2018-06-12,26.43000030517578,25.850000381469727,26.079999923706055,25.920000076293945,145400,25.920000076293945
2018-06-13,26.040000915527344,25.579999923706055,25.8799991607666,25.81999969482422,220800,25.81999969482422
2018-06-14,25.93000030517578,25.579999923706055,25.780000686645508,25.899999618530273,763500,25.899999618530273
2018-06-15,26.540000915527344,25.65999984741211,25.81999969482422,26.079999923706055,302200,26.079999923706055
2018-06-18,26.469999313354492,25.829999923706055,26.010000228881836,26.0,230400,26.0
2018-06-19,26.427000045776367,25.549999237060547,26.010000228881836,25.809999465942383,231900,25.809999465942383
2018-06-20,29.610000610351562,26.84000015258789,26.84000015258789,29.239999771118164,882400,29.239999771118164
2018-06-21,30.190000534057617,27.81999969482422,29.989999771118164,28.459999084472656,692700,28.459999084472656
2018-06-22,29.280000686645508,28.270000457763672,28.760000228881836,28.920000076293945,896700,28.920000076293945
2018-06-25,28.729999542236328,28.1200008392334,28.610000610351562,28.520000457763672,313600,28.520000457763672
2018-06-26,28.950000762939453,27.709999084472656,28.690000534057617,27.940000534057617,276400,27.940000534057617
2018-06-27,28.834999084472656,27.770000457763672,28.09000015258789,28.31999969482422,486100,28.31999969482422
2018-06-28,29.55500030517578,28.09000015258789,28.209999084472656,29.510000228881836,513100,29.510000228881836
2018-06-29,29.889999389648438,29.209999084472656,29.59000015258789,29.239999771118164,294600,29.239999771118164
2018-07-02,29.459999084472656,28.969999313354492,29.239999771118164,29.260000228881836,179900,29.260000228881836
2018-07-03,30.0,28.81999969482422,29.459999084472656,28.899999618530273,105800,28.899999618530273
2018-07-05,30.149999618530273,28.709999084472656,29.15999984741211,30.059999465942383,349900,30.059999465942383
2018-07-06,30.340999603271484,29.670000076293945,30.059999465942383,29.940000534057617,251000,29.940000534057617
2018-07-09,30.239999771118164,29.489999771118164,30.239999771118164,29.690000534057617,213400,29.690000534057617
2018-07-10,32.06999969482422,30.030000686645508,30.030000686645508,31.920000076293945,496400,31.920000076293945
2018-07-11,32.189998626708984,31.010000228881836,32.08000183105469,31.700000762939453,452200,31.700000762939453
2018-07-12,31.610000610351562,31.139999389648438,31.559999465942383,31.229999542236328,260500,31.229999542236328
2018-07-13,31.459999084472656,30.75,31.200000762939453,31.030000686645508,126000,31.030000686645508
2018-07-16,31.68000030517578,31.0,31.09000015258789,31.25,208300,31.25
2018-07-17,31.059999465942383,29.770000457763672,31.049999237060547,29.850000381469727,642000,29.850000381469727
2018-07-18,30.145000457763672,29.690000534057617,29.700000762939453,29.959999084472656,464200,29.959999084472656
2018-07-19,30.010000228881836,29.44499969482422,29.969999313354492,30.010000228881836,198000,30.010000228881836
2018-07-20,29.899999618530273,29.40999984741211,29.899999618530273,29.559999465942383,197400,29.559999465942383
2018-07-23,30.020000457763672,29.43000030517578,29.489999771118164,29.709999084472656,135100,29.709999084472656
2018-07-24,30.149999618530273,29.520000457763672,29.850000381469727,30.100000381469727,196300,30.100000381469727
2018-07-25,30.850000381469727,29.604000091552734,30.010000228881836,30.809999465942383,207400,30.809999465942383
2018-07-26,32.15999984741211,31.200000762939453,31.420000076293945,32.0099983215332,321700,32.0099983215332
2018-07-27,32.220001220703125,30.725000381469727,32.09000015258789,30.829999923706055,164800,30.829999923706055
2018-07-30,30.93000030517578,30.0,30.809999465942383,30.049999237060547,174100,30.049999237060547
2018-07-31,30.860000610351562,30.110000610351562,30.110000610351562,30.81999969482422,135500,30.81999969482422
2018-08-01,31.15999984741211,30.559999465942383,30.81999969482422,31.1299991607666,142700,31.1299991607666
2018-08-02,31.780000686645508,30.809999465942383,31.139999389648438,31.6299991607666,188900,31.6299991607666
2018-08-03,31.860000610351562,30.889999389648438,31.81999969482422,31.3799991607666,232100,31.3799991607666
2018-08-06,31.929000854492188,30.540000915527344,31.549999237060547,30.65999984741211,213100,30.65999984741211
2018-08-07,30.739999771118164,30.139999389648438,30.649999618530273,30.510000228881836,270300,30.510000228881836
2018-08-08,30.0,27.18000030517578,30.0,29.0049991607666,1228700,29.0049991607666
2018-08-09,29.709999084472656,27.829999923706055,28.600000381469727,28.719999313354492,480500,28.719999313354492
2018-08-10,28.719999313354492,27.489999771118164,28.719999313354492,27.510000228881836,514400,27.510000228881836
2018-08-13,27.5,26.110000610351562,27.450000762939453,26.25,470000,26.25
2018-08-14,26.75,25.549999237060547,26.0,26.139999389648438,883700,26.139999389648438
2018-08-15,26.850000381469727,25.899999618530273,26.010000228881836,26.709999084472656,486700,26.709999084472656
2018-08-16,27.3799991607666,26.200000762939453,26.979999542236328,26.40999984741211,366900,26.40999984741211
2018-08-17,26.969999313354492,26.5,26.510000228881836,26.860000610351562,307700,26.860000610351562
2018-08-20,27.149999618530273,26.639999389648438,26.989999771118164,26.969999313354492,271300,26.969999313354492
2018-08-21,28.25,26.959999084472656,26.959999084472656,28.219999313354492,481400,28.219999313354492
2018-08-22,28.489999771118164,27.829999923706055,28.219999313354492,28.1299991607666,381600,28.1299991607666
2018-08-23,28.100000381469727,27.69499969482422,28.0,27.920000076293945,365000,27.920000076293945
2018-08-24,28.93000030517578,27.940000534057617,28.040000915527344,28.81999969482422,472700,28.81999969482422
2018-08-27,29.15999984741211,28.350000381469727,28.93000030517578,28.799999237060547,365900,28.799999237060547
2018-08-28,28.84000015258789,28.170000076293945,28.760000228881836,28.719999313354492,312900,28.719999313354492
2018-08-29,28.739999771118164,28.229999542236328,28.639999389648438,28.270000457763672,203000,28.270000457763672
2018-08-30,28.979999542236328,27.899999618530273,28.329999923706055,28.43000030517578,333900,28.43000030517578
2018-08-31,28.350000381469727,27.799999237060547,28.350000381469727,28.030000686645508,213500,28.030000686645508
2018-09-04,28.079999923706055,27.100000381469727,28.030000686645508,27.309999465942383,362000,27.309999465942383
2018-09-05,27.479999542236328,26.530000686645508,27.239999771118164,27.420000076293945,522200,27.420000076293945
2018-09-06,27.81999969482422,27.149999618530273,27.299999237060547,27.450000762939453,205000,27.450000762939453
2018-09-07,27.489999771118164,26.899999618530273,27.489999771118164,27.299999237060547,172300,27.299999237060547
2018-09-10,27.600000381469727,27.209999084472656,27.309999465942383,27.459999084472656,178600,27.459999084472656
2018-09-11,27.520000457763672,27.079999923706055,27.5,27.229999542236328,192900,27.229999542236328
2018-09-12,27.479999542236328,26.75,27.450000762939453,27.329999923706055,220700,27.329999923706055
2018-09-13,28.290000915527344,27.309999465942383,27.489999771118164,27.959999084472656,274400,27.959999084472656
2018-09-14,28.3700008392334,27.450000762939453,27.959999084472656,27.469999313354492,278100,27.469999313354492
2018-09-17,27.549999237060547,27.170000076293945,27.530000686645508,27.40999984741211,269400,27.40999984741211
2018-09-18,27.850000381469727,27.34000015258789,27.489999771118164,27.799999237060547,277600,27.799999237060547
2018-09-19,28.260000228881836,27.700000762939453,27.700000762939453,27.959999084472656,234200,27.959999084472656
2018-09-20,29.0,27.93000030517578,28.110000610351562,28.06999969482422,330800,28.06999969482422
2018-09-21,28.290000915527344,27.700000762939453,28.100000381469727,28.260000228881836,619800,28.260000228881836
2018-09-24,28.90999984741211,28.209999084472656,28.260000228881836,28.709999084472656,399600,28.709999084472656
2018-09-25,28.940000534057617,28.670000076293945,28.809999465942383,28.860000610351562,271400,28.860000610351562
2018-09-26,28.989999771118164,28.489999771118164,28.950000762939453,28.530000686645508,314700,28.530000686645508
2018-09-27,28.90999984741211,27.959999084472656,28.559999465942383,28.8799991607666,245400,28.8799991607666
2018-09-28,29.209999084472656,28.459999084472656,28.75,28.549999237060547,203000,28.549999237060547
2018-10-01,29.184999465942383,28.18000030517578,28.6200008392334,28.579999923706055,194100,28.579999923706055
2018-10-02,28.84000015258789,28.09000015258789,28.520000457763672,28.559999465942383,207400,28.559999465942383
2018-10-03,28.860000610351562,28.239999771118164,28.6200008392334,28.610000610351562,208600,28.610000610351562
2018-10-04,28.81999969482422,27.75,28.700000762939453,27.799999237060547,273700,27.799999237060547
2018-10-05,27.774999618530273,26.520000457763672,27.770000457763672,26.610000610351562,638700,26.610000610351562
2018-10-08,26.558000564575195,24.8700008392334,26.489999771118164,26.1299991607666,545900,26.1299991607666
2018-10-09,26.21500015258789,25.290000915527344,26.049999237060547,25.6200008392334,357600,25.6200008392334
2018-10-10,25.739999771118164,25.1299991607666,25.6200008392334,25.1299991607666,342400,25.1299991607666
2018-10-11,25.239999771118164,24.56999969482422,25.0,24.56999969482422,281700,24.56999969482422
2018-10-12,25.559999465942383,24.700000762939453,24.81999969482422,25.049999237060547,551700,25.049999237060547
2018-10-15,26.0,25.100000381469727,25.100000381469727,25.639999389648438,246900,25.639999389648438
2018-10-16,26.479999542236328,25.549999237060547,25.889999389648438,26.440000534057617,187800,26.440000534057617
2018-10-17,27.420000076293945,25.549999237060547,26.540000915527344,25.81999969482422,261500,25.81999969482422
2018-10-18,26.049999237060547,24.600000381469727,25.75,25.059999465942383,522600,25.059999465942383
2018-10-19,25.420000076293945,24.84000015258789,24.969999313354492,25.100000381469727,503000,25.100000381469727
2018-10-22,25.65999984741211,24.299999237060547,25.260000228881836,24.579999923706055,472700,24.579999923706055
2018-10-23,25.149999618530273,24.03499984741211,24.299999237060547,24.709999084472656,298400,24.709999084472656
2018-10-24,25.8799991607666,24.200000762939453,24.670000076293945,24.209999084472656,210400,24.209999084472656
2018-10-25,24.780000686645508,24.139999389648438,24.469999313354492,24.3700008392334,168600,24.3700008392334
2018-10-26,24.59000015258789,23.610000610351562,24.0,23.8799991607666,238200,23.8799991607666
2018-10-29,25.90999984741211,24.510000228881836,25.3700008392334,24.709999084472656,345000,24.709999084472656
2018-10-30,25.5,24.520000457763672,24.719999313354492,25.34000015258789,315500,25.34000015258789
2018-10-31,25.739999771118164,24.920000076293945,25.6200008392334,25.260000228881836,184500,25.260000228881836
2018-11-01,26.219999313354492,25.020000457763672,25.270000457763672,26.170000076293945,460100,26.170000076293945
2018-11-02,26.639999389648438,25.510000228881836,26.260000228881836,26.049999237060547,270500,26.049999237060547
2018-11-05,26.690000534057617,25.729999542236328,26.059999465942383,26.3700008392334,334000,26.3700008392334
2018-11-06,27.059999465942383,26.299999237060547,26.299999237060547,26.93000030517578,418900,26.93000030517578
2018-11-07,27.559999465942383,26.700000762939453,27.040000915527344,27.479999542236328,304500,27.479999542236328
2018-11-08,28.0,24.03499984741211,27.889999389648438,25.334999084472656,1360600,25.334999084472656
2018-11-09,25.709999084472656,24.290000915527344,25.280000686645508,25.59000015258789,303700,25.59000015258789
2018-11-12,25.770000457763672,23.920000076293945,25.670000076293945,24.040000915527344,724700,24.040000915527344
2018-11-13,24.489999771118164,23.364999771118164,24.229999542236328,23.440000534057617,672600,23.440000534057617
2018-11-14,23.799999237060547,23.229999542236328,23.43000030517578,23.709999084472656,368800,23.709999084472656
2018-11-15,24.639999389648438,23.530000686645508,23.56999969482422,24.56999969482422,580500,24.56999969482422
2018-11-16,24.940000534057617,24.100000381469727,24.3700008392334,24.90999984741211,327300,24.90999984741211
2018-11-19,24.950000762939453,23.6299991607666,24.81999969482422,24.09000015258789,223000,24.09000015258789
2018-11-20,24.360000610351562,23.56999969482422,23.81999969482422,23.829999923706055,150500,23.829999923706055
2018-11-21,25.040000915527344,23.579999923706055,23.989999771118164,25.0,237900,25.0
2018-11-23,25.68000030517578,24.735000610351562,24.950000762939453,25.530000686645508,118000,25.530000686645508
2018-11-26,25.979999542236328,25.489999771118164,25.739999771118164,25.670000076293945,220300,25.670000076293945
2018-11-27,26.030000686645508,25.110000610351562,25.450000762939453,25.8799991607666,289800,25.8799991607666
2018-11-28,26.969999313354492,25.770000457763672,26.0,26.799999237060547,249700,26.799999237060547
2018-11-29,27.229999542236328,25.8799991607666,25.90999984741211,27.030000686645508,260600,27.030000686645508
2018-11-30,27.200000762939453,26.709999084472656,27.079999923706055,27.190000534057617,162600,27.190000534057617
2018-12-03,27.75,27.024999618530273,27.479999542236328,27.739999771118164,241200,27.739999771118164
2018-12-04,28.0,26.450000762939453,27.530000686645508,26.479999542236328,222900,26.479999542236328
2018-12-06,27.0,25.829999923706055,26.06999969482422,26.729999542236328,293000,26.729999542236328
2018-12-07,27.360000610351562,25.850000381469727,26.760000228881836,25.8799991607666,205200,25.8799991607666
2018-12-10,26.43000030517578,25.65999984741211,26.010000228881836,26.239999771118164,193600,26.239999771118164
2018-12-11,26.8700008392334,25.790000915527344,26.670000076293945,25.84000015258789,171300,25.84000015258789
2018-12-12,26.56999969482422,25.84000015258789,26.389999389648438,25.850000381469727,197300,25.850000381469727
2018-12-13,26.059999465942383,25.579999923706055,26.049999237060547,25.799999237060547,156200,25.799999237060547
2018-12-14,26.270000457763672,24.75,25.719999313354492,24.770000457763672,295600,24.770000457763672
2018-12-17,24.799999237060547,24.15999984741211,24.799999237060547,24.280000686645508,290200,24.280000686645508
2018-12-18,24.889999389648438,23.790000915527344,24.469999313354492,23.959999084472656,308100,23.959999084472656
2018-12-19,24.3799991607666,23.149999618530273,24.18000030517578,23.93000030517578,349100,23.93000030517578
2018-12-20,24.280000686645508,23.149999618530273,23.920000076293945,23.239999771118164,289300,23.239999771118164
2018-12-21,24.450000762939453,23.149999618530273,23.280000686645508,23.5,294500,23.5
2018-12-24,23.450000762939453,23.100000381469727,23.360000610351562,23.139999389648438,93500,23.139999389648438
2018-12-26,24.1299991607666,22.940000534057617,23.329999923706055,24.110000610351562,121000,24.110000610351562
2018-12-27,24.329999923706055,23.43000030517578,23.770000457763672,24.329999923706055,121300,24.329999923706055
2018-12-28,24.950000762939453,24.280000686645508,24.420000076293945,24.450000762939453,135200,24.450000762939453
2018-12-31,24.6200008392334,23.84000015258789,24.540000915527344,24.579999923706055,164300,24.579999923706055
2019-01-02,25.489999771118164,24.030000686645508,24.360000610351562,25.479999542236328,184600,25.479999542236328
2019-01-03,25.56999969482422,24.65999984741211,25.440000534057617,25.0,151400,25.0
2019-01-04,26.579999923706055,25.139999389648438,25.270000457763672,26.239999771118164,200200,26.239999771118164
2019-01-07,27.139999389648438,26.389999389648438,26.469999313354492,26.719999313354492,143500,26.719999313354492
2019-01-08,27.190000534057617,26.600000381469727,27.0,26.920000076293945,223500,26.920000076293945
2019-01-09,27.670000076293945,26.90999984741211,27.049999237060547,27.56999969482422,238200,27.56999969482422
2019-01-10,28.149999618530273,27.3799991607666,27.540000915527344,27.770000457763672,173500,27.770000457763672
2019-01-11,30.075000762939453,27.770000457763672,28.299999237060547,29.969999313354492,660700,29.969999313354492
2019-01-14,29.81999969482422,28.93000030517578,29.790000915527344,29.399999618530273,292400,29.399999618530273
2019-01-15,29.600000381469727,28.969999313354492,29.59000015258789,29.530000686645508,231600,29.530000686645508
2019-01-16,29.700000762939453,28.649999618530273,29.600000381469727,28.959999084472656,384900,28.959999084472656
2019-01-17,29.239999771118164,27.98900032043457,28.969999313354492,29.1299991607666,407400,29.1299991607666
2019-01-18,29.790000915527344,29.149999618530273,29.360000610351562,29.420000076293945,298400,29.420000076293945
2019-01-22,29.3700008392334,28.690000534057617,29.25,28.959999084472656,183700,28.959999084472656
2019-01-23,29.125,28.43000030517578,29.0,28.540000915527344,143500,28.540000915527344
2019-01-24,29.334999084472656,28.458999633789062,28.559999465942383,29.290000915527344,106100,29.290000915527344
2019-01-25,29.709999084472656,28.875,29.43000030517578,29.31999969482422,216800,29.31999969482422
2019-01-28,29.309999465942383,28.729999542236328,28.889999389648438,29.059999465942383,234800,29.059999465942383
2019-01-29,29.3700008392334,28.947999954223633,29.1200008392334,29.170000076293945,184000,29.170000076293945
2019-01-30,29.719999313354492,29.010000228881836,29.389999389648438,29.6200008392334,161800,29.6200008392334
2019-01-31,30.65999984741211,29.350000381469727,29.790000915527344,30.270000457763672,400300,30.270000457763672
2019-02-01,31.079999923706055,30.440000534057617,30.440000534057617,30.739999771118164,260400,30.739999771118164
2019-02-04,31.06999969482422,30.5,30.809999465942383,31.049999237060547,247400,31.049999237060547
2019-02-05,31.450000762939453,30.850000381469727,31.100000381469727,30.93000030517578,164500,30.93000030517578
2019-02-06,31.030000686645508,30.700000762939453,30.920000076293945,31.020000457763672,255800,31.020000457763672
2019-02-07,31.06999969482422,30.329999923706055,30.84000015258789,31.049999237060547,200300,31.049999237060547
2019-02-08,31.1299991607666,30.459999084472656,31.030000686645508,30.6200008392334,136600,30.6200008392334
2019-02-11,30.899999618530273,29.8700008392334,30.6299991607666,30.399999618530273,207900,30.399999618530273
2019-02-12,31.100000381469727,30.274999618530273,30.700000762939453,31.079999923706055,232300,31.079999923706055
2019-02-13,31.6200008392334,30.860000610351562,31.350000381469727,31.489999771118164,415200,31.489999771118164
2019-02-14,32.16999816894531,31.459999084472656,31.479999542236328,31.610000610351562,147300,31.610000610351562
2019-02-15,32.7400016784668,31.700000762939453,31.780000686645508,32.630001068115234,382600,32.630001068115234
2019-02-19,32.439998626708984,31.15999984741211,32.380001068115234,31.40999984741211,430800,31.40999984741211
2019-02-20,31.68000030517578,30.924999237060547,31.420000076293945,31.190000534057617,251500,31.190000534057617
2019-02-21,31.3799991607666,30.809999465942383,31.260000228881836,30.93000030517578,117700,30.93000030517578
2019-02-22,31.760000228881836,30.760000228881836,31.18000030517578,31.760000228881836,132900,31.760000228881836
2019-02-25,31.950000762939453,31.40999984741211,31.950000762939453,31.40999984741211,215600,31.40999984741211
2019-02-26,31.59000015258789,30.329999923706055,31.399999618530273,31.15999984741211,158100,31.15999984741211
2019-02-27,31.43000030517578,30.84000015258789,31.149999618530273,30.850000381469727,141800,30.850000381469727
2019-02-28,31.059999465942383,30.1299991607666,30.6299991607666,30.209999084472656,355600,30.209999084472656
2019-03-01,29.8799991607666,27.735000610351562,29.399999618530273,28.68000030517578,650900,28.68000030517578
2019-03-04,28.5,26.920000076293945,28.5,27.5,801900,27.5
2019-03-05,29.59000015258789,28.28499984741211,28.459999084472656,28.600000381469727,699400,28.600000381469727
2019-03-06,29.489999771118164,28.540000915527344,28.690000534057617,29.260000228881836,620500,29.260000228881836
2019-03-07,29.700000762939453,28.420000076293945,29.200000762939453,29.549999237060547,302200,29.549999237060547
2019-03-08,29.56999969482422,28.780000686645508,29.329999923706055,29.209999084472656,220200,29.209999084472656
2019-03-11,30.25,28.950000762939453,29.049999237060547,30.06999969482422,291900,30.06999969482422
2019-03-12,30.559999465942383,29.81999969482422,30.209999084472656,30.489999771118164,204800,30.489999771118164
2019-03-13,31.030000686645508,30.3799991607666,30.549999237060547,30.979999542236328,221100,30.979999542236328
2019-03-14,31.378000259399414,30.610000610351562,30.829999923706055,30.969999313354492,167100,30.969999313354492
2019-03-15,31.25,30.540000915527344,30.8700008392334,31.139999389648438,295100,31.139999389648438
2019-03-18,31.405000686645508,30.780000686645508,31.100000381469727,30.940000534057617,301600,30.940000534057617
2019-03-19,31.0,29.81999969482422,30.780000686645508,29.959999084472656,823600,29.959999084472656
2019-03-20,30.309999465942383,29.75,29.969999313354492,30.049999237060547,343400,30.049999237060547
2019-03-21,30.149999618530273,29.239999771118164,29.969999313354492,29.280000686645508,330400,29.280000686645508
2019-03-22,30.200000762939453,29.100000381469727,29.1200008392334,29.1299991607666,781400,29.1299991607666
2019-03-25,29.575000762939453,28.56999969482422,29.25,28.770000457763672,277800,28.770000457763672
2019-03-26,29.309999465942383,28.56999969482422,29.049999237060547,28.719999313354492,169600,28.719999313354492
2019-03-27,28.81999969482422,28.459999084472656,28.65999984741211,28.530000686645508,206800,28.530000686645508
2019-03-28,29.030000686645508,28.350000381469727,28.649999618530273,28.469999313354492,528700,28.469999313354492
2019-03-29,28.889999389648438,28.360000610351562,28.65999984741211,28.6200008392334,296600,28.6200008392334
2019-04-01,29.0,28.540000915527344,28.889999389648438,28.709999084472656,312500,28.709999084472656
2019-04-02,28.84000015258789,28.1200008392334,28.68000030517578,28.479999542236328,502700,28.479999542236328
2019-04-03,28.915000915527344,28.170000076293945,28.639999389648438,28.229999542236328,243200,28.229999542236328
2019-04-04,28.459999084472656,27.81999969482422,28.229999542236328,28.06999969482422,214800,28.06999969482422
2019-04-05,28.729999542236328,28.079999923706055,28.139999389648438,28.709999084472656,471800,28.709999084472656
2019-04-08,28.969999313354492,28.40999984741211,28.479999542236328,28.889999389648438,144300,28.889999389648438
2019-04-09,29.149999618530273,28.530000686645508,28.760000228881836,28.639999389648438,168600,28.639999389648438
2019-04-10,29.219999313354492,28.59000015258789,28.809999465942383,29.1299991607666,186900,29.1299991607666
2019-04-11,29.639999389648438,28.979999542236328,29.209999084472656,29.100000381469727,322600,29.100000381469727
2019-04-12,29.600000381469727,28.920000076293945,29.270000457763672,29.190000534057617,242900,29.190000534057617
2019-04-15,29.799999237060547,29.270000457763672,29.290000915527344,29.770000457763672,306900,29.770000457763672
2019-04-16,30.139999389648438,29.84000015258789,29.90999984741211,30.059999465942383,209500,30.059999465942383
2019-04-17,30.920000076293945,30.0,30.170000076293945,30.6299991607666,648000,30.6299991607666
2019-04-18,30.90999984741211,30.559999465942383,30.68000030517578,30.780000686645508,455900,30.780000686645508
2019-04-22,31.0,30.639999389648438,30.8700008392334,30.979999542236328,317400,30.979999542236328
2019-04-23,31.0,30.3799991607666,31.0,30.59000015258789,227100,30.59000015258789
2019-04-24,31.170000076293945,30.43000030517578,30.719999313354492,30.969999313354492,307700,30.969999313354492
2019-04-25,30.889999389648438,30.209999084472656,30.889999389648438,30.459999084472656,231000,30.459999084472656
2019-04-26,31.020000457763672,30.10300064086914,30.459999084472656,30.940000534057617,234100,30.940000534057617
2019-04-29,31.149999618530273,30.510000228881836,31.020000457763672,30.93000030517578,187100,30.93000030517578
2019-04-30,31.020000457763672,30.709999084472656,30.940000534057617,30.950000762939453,214400,30.950000762939453
2019-05-01,31.18000030517578,30.68000030517578,31.079999923706055,30.700000762939453,331600,30.700000762939453
2019-05-02,26.3799991607666,23.200000762939453,26.3799991607666,25.739999771118164,3371500,25.739999771118164
2019-05-03,26.1200008392334,25.2450008392334,25.84000015258789,25.34000015258789,580300,25.34000015258789
2019-05-06,25.31999969482422,24.6299991607666,24.889999389648438,25.020000457763672,515000,25.020000457763672
2019-05-07,24.9950008392334,24.559999465942383,24.780000686645508,24.860000610351562,476700,24.860000610351562
2019-05-08,25.360000610351562,24.791000366210938,24.81999969482422,25.020000457763672,494700,25.020000457763672
2019-05-09,25.290000915527344,23.5,23.670000076293945,24.520000457763672,808200,24.520000457763672
2019-05-10,24.65999984741211,23.790000915527344,24.260000228881836,24.3700008392334,589900,24.3700008392334
2019-05-13,24.059999465942383,22.959999084472656,23.860000610351562,23.110000610351562,621300,23.110000610351562
2019-05-14,23.3799991607666,22.0,23.09000015258789,22.010000228881836,767000,22.010000228881836
2019-05-15,22.600000381469727,21.670000076293945,21.989999771118164,22.540000915527344,523200,22.540000915527344
2019-05-16,23.100000381469727,22.219999313354492,22.549999237060547,23.010000228881836,576900,23.010000228881836
2019-05-17,23.107999801635742,22.420000076293945,22.899999618530273,22.540000915527344,436600,22.540000915527344
2019-05-20,22.829999923706055,22.06999969482422,22.360000610351562,22.520000457763672,349500,22.520000457763672
2019-05-21,23.579999923706055,22.75,22.860000610351562,23.459999084472656,411100,23.459999084472656
2019-05-22,23.989999771118164,23.079999923706055,23.329999923706055,23.219999313354492,276100,23.219999313354492
2019-05-23,23.290000915527344,22.309999465942383,22.8700008392334,22.559999465942383,244300,22.559999465942383
2019-05-24,22.780000686645508,21.75,22.600000381469727,21.860000610351562,468300,21.860000610351562
