Date,High,Low,Open,Close,Volume,Adj Close
2016-06-23,29.610000610351562,23.65999984741211,23.989999771118164,28.790000915527344,21203300,28.790000915527344
2016-06-24,28.73900032043457,26.049999237060547,27.540000915527344,26.299999237060547,4661600,26.299999237060547
2016-06-27,28.190000534057617,26.299999237060547,27.350000381469727,27.25,3859500,27.25
2016-06-28,33.4109992980957,29.56999969482422,30.399999618530273,29.920000076293945,10608500,29.920000076293945
2016-06-29,37.189998626708984,31.75,31.979999542236328,37.08000183105469,13783000,37.08000183105469
2016-06-30,41.88999938964844,34.79999923706055,39.68000030517578,36.5,18512600,36.5
2016-07-01,37.34000015258789,33.650001525878906,36.970001220703125,34.029998779296875,7005300,34.029998779296875
2016-07-05,35.43000030517578,33.06999969482422,34.869998931884766,34.040000915527344,3998700,34.040000915527344
2016-07-06,37.93000030517578,33.27000045776367,33.40999984741211,37.93000030517578,5074100,37.93000030517578
2016-07-07,38.619998931884766,36.0,38.40999984741211,36.5099983215332,4057600,36.5099983215332
2016-07-08,37.400001525878906,35.25,37.25,35.540000915527344,3250100,35.540000915527344
2016-07-11,38.29999923706055,35.790000915527344,36.29999923706055,37.29999923706055,5734700,37.29999923706055
2016-07-12,38.939998626708984,36.814998626708984,37.9900016784668,38.29999923706055,4178900,38.29999923706055
2016-07-13,42.75,40.209999084472656,41.290000915527344,42.25,8547900,42.25
2016-07-14,44.79999923706055,40.79999923706055,43.400001525878906,41.75,7230800,41.75
2016-07-15,43.75,41.20000076293945,42.7400016784668,43.0,2921400,43.0
2016-07-18,42.48400115966797,40.150001525878906,41.25,41.029998779296875,3758300,41.029998779296875
2016-07-19,41.0,39.040000915527344,40.529998779296875,39.06999969482422,2223600,39.06999969482422
2016-07-20,42.57400131225586,38.5099983215332,39.5,41.72999954223633,4511900,41.72999954223633
2016-07-21,42.54999923706055,39.83000183105469,41.709999084472656,40.119998931884766,2634100,40.119998931884766
2016-07-22,41.7599983215332,40.099998474121094,40.31999969482422,40.810001373291016,1938000,40.810001373291016
2016-07-25,41.4900016784668,39.56999969482422,40.70000076293945,40.75,2240800,40.75
2016-07-26,41.78200149536133,39.75,40.54999923706055,40.38999938964844,2247900,40.38999938964844
2016-07-27,43.25,40.77000045776367,40.91999816894531,42.540000915527344,4801200,42.540000915527344
2016-07-28,43.70000076293945,41.02000045776367,42.959999084472656,42.16999816894531,4156600,42.16999816894531
2016-07-29,42.88100051879883,40.54999923706055,42.75,40.630001068115234,4887700,40.630001068115234
2016-08-01,41.63999938964844,39.11000061035156,40.630001068115234,39.33000183105469,2661800,39.33000183105469
2016-08-02,40.25,37.5,39.099998474121094,37.93000030517578,2648000,37.93000030517578
2016-08-03,39.0,37.20000076293945,38.099998474121094,38.54999923706055,1382800,38.54999923706055
2016-08-04,41.06999969482422,38.900001525878906,38.900001525878906,40.59000015258789,1652000,40.59000015258789
2016-08-05,41.720001220703125,40.75,40.970001220703125,41.4900016784668,1442500,41.4900016784668
2016-08-08,42.91999816894531,40.58000183105469,42.70000076293945,42.5,3250000,42.5
2016-08-09,45.689998626708984,41.349998474121094,44.31999969482422,43.0099983215332,7377900,43.0099983215332
2016-08-10,43.95000076293945,41.900001525878906,43.220001220703125,43.630001068115234,2493600,43.630001068115234
2016-08-11,49.0,43.45000076293945,43.45000076293945,48.709999084472656,8077300,48.709999084472656
2016-08-12,53.369998931884766,48.599998474121094,49.04999923706055,53.290000915527344,9286000,53.290000915527344
2016-08-15,66.39900207519531,55.132999420166016,56.75,58.470001220703125,22052400,58.470001220703125
2016-08-16,64.16000366210938,59.060001373291016,60.56999969482422,59.34000015258789,12272200,59.34000015258789
2016-08-17,61.5,57.04999923706055,60.900001525878906,58.86000061035156,6795900,58.86000061035156
2016-08-18,59.36000061035156,54.150001525878906,59.13999938964844,54.400001525878906,7445200,54.400001525878906
2016-08-19,56.470001220703125,51.849998474121094,52.31999969482422,54.880001068115234,6905500,54.880001068115234
2016-08-22,59.75,55.34000015258789,56.22999954223633,58.650001525878906,7201500,58.650001525878906
2016-08-23,61.349998474121094,55.709999084472656,60.150001525878906,56.08000183105469,7620800,56.08000183105469
2016-08-24,58.06999969482422,53.349998474121094,56.08000183105469,53.599998474121094,7644700,53.599998474121094
2016-08-25,55.099998474121094,51.25699996948242,54.25,51.93000030517578,5511100,51.93000030517578
2016-08-26,54.33000183105469,49.611000061035156,51.93000030517578,54.25,7093700,54.25
2016-08-29,56.0,53.20000076293945,54.54999923706055,53.81999969482422,4451100,53.81999969482422
2016-08-30,54.93000030517578,53.5099983215332,53.849998474121094,53.79999923706055,3393300,53.79999923706055
2016-08-31,54.59000015258789,52.13999938964844,53.9900016784668,53.619998931884766,2177900,53.619998931884766
2016-09-01,56.7400016784668,53.599998474121094,53.61000061035156,54.380001068115234,5952900,54.380001068115234
2016-09-02,57.7400016784668,54.93000030517578,54.93000030517578,57.619998931884766,3741000,57.619998931884766
2016-09-06,60.689998626708984,57.79100036621094,58.2400016784668,59.18000030517578,7321400,59.18000030517578
2016-09-07,60.400001525878906,56.310001373291016,60.20000076293945,56.630001068115234,5303600,56.630001068115234
2016-09-08,58.45000076293945,56.5099983215332,57.400001525878906,57.45000076293945,3655800,57.45000076293945
2016-09-09,58.0,55.02000045776367,57.0,56.0,4478700,56.0
2016-09-12,57.880001068115234,54.58000183105469,55.08000183105469,56.70000076293945,3497400,56.70000076293945
2016-09-13,56.75,53.599998474121094,55.779998779296875,53.970001220703125,4026100,53.970001220703125
2016-09-14,55.0,52.77000045776367,54.970001220703125,53.119998931884766,2714100,53.119998931884766
2016-09-15,54.849998474121094,53.2599983215332,53.880001068115234,54.0,2284200,54.0
2016-09-16,56.9900016784668,53.65999984741211,54.29999923706055,56.75,4355300,56.75
2016-09-19,59.400001525878906,56.900001525878906,57.540000915527344,57.279998779296875,4241300,57.279998779296875
2016-09-20,58.98899841308594,56.599998474121094,57.869998931884766,56.7599983215332,2233000,56.7599983215332
2016-09-21,61.849998474121094,56.849998474121094,57.5,61.70000076293945,5058300,61.70000076293945
2016-09-22,66.4800033569336,62.029998779296875,62.45000076293945,64.91999816894531,8998300,64.91999816894531
2016-09-23,68.4000015258789,63.79999923706055,64.44999694824219,64.06999969482422,7570100,64.06999969482422
2016-09-26,65.68000030517578,62.380001068115234,63.0,64.23999786376953,3880300,64.23999786376953
2016-09-27,68.98999786376953,65.55999755859375,66.0,68.22000122070312,7971000,68.22000122070312
2016-09-28,70.95999908447266,67.44000244140625,70.48999786376953,68.97000122070312,6732500,68.97000122070312
2016-09-29,69.9000015258789,68.19999694824219,69.12999725341797,68.72000122070312,3269900,68.72000122070312
2016-09-30,69.61000061035156,63.0099983215332,69.5,64.36000061035156,7818000,64.36000061035156
2016-10-03,66.63999938964844,62.43000030517578,62.5,65.0199966430664,3766900,65.0199966430664
2016-10-04,65.7300033569336,60.2599983215332,65.26000213623047,60.939998626708984,4149400,60.939998626708984
2016-10-05,63.13999938964844,61.05099868774414,62.09000015258789,61.470001220703125,2417300,61.470001220703125
2016-10-06,62.77000045776367,60.071998596191406,60.720001220703125,60.689998626708984,1921800,60.689998626708984
2016-10-07,61.97999954223633,59.27000045776367,61.33000183105469,60.58000183105469,1737300,60.58000183105469
2016-10-10,58.90999984741211,51.38999938964844,57.630001068115234,52.02000045776367,8650100,52.02000045776367
2016-10-11,54.599998474121094,51.340999603271484,54.43000030517578,52.439998626708984,5416000,52.439998626708984
2016-10-12,53.59000015258789,50.040000915527344,53.459999084472656,50.79999923706055,2594600,50.79999923706055
2016-10-13,49.95000076293945,47.04999923706055,49.869998931884766,47.2400016784668,9154400,47.2400016784668
2016-10-14,49.59000015258789,45.68000030517578,47.79999923706055,46.11000061035156,6714100,46.11000061035156
2016-10-17,47.21799850463867,44.310001373291016,45.38999938964844,44.45000076293945,5101600,44.45000076293945
2016-10-18,48.939998626708984,44.4109992980957,45.88999938964844,47.77000045776367,6553200,47.77000045776367
2016-10-19,48.18000030517578,45.5,48.099998474121094,46.5099983215332,2969900,46.5099983215332
2016-10-20,46.94900131225586,43.540000915527344,45.79999923706055,44.13999938964844,4040700,44.13999938964844
2016-10-21,43.099998474121094,40.189998626708984,41.0,41.060001373291016,18570100,41.060001373291016
2016-10-24,42.79999923706055,40.63999938964844,42.20000076293945,40.72999954223633,7135300,40.72999954223633
2016-10-25,41.630001068115234,38.54999923706055,40.72999954223633,38.599998474121094,7002500,38.599998474121094
2016-10-26,40.43000030517578,38.25,38.41999816894531,39.2400016784668,5316400,39.2400016784668
2016-10-27,39.75,36.720001220703125,39.52000045776367,37.2599983215332,7109700,37.2599983215332
2016-10-28,37.70000076293945,34.7400016784668,36.790000915527344,35.41999816894531,7189300,35.41999816894531
2016-10-31,36.25,33.75,35.40999984741211,34.119998931884766,8314200,34.119998931884766
2016-11-01,36.790000915527344,34.709999084472656,35.400001525878906,35.880001068115234,9924500,35.880001068115234
2016-11-02,36.369998931884766,33.45000076293945,35.72999954223633,34.150001525878906,5118300,34.150001525878906
2016-11-03,34.54999923706055,32.40999984741211,33.869998931884766,32.599998474121094,7687200,32.599998474121094
2016-11-04,35.20000076293945,31.5,34.15999984741211,31.56999969482422,10045300,31.56999969482422
2016-11-07,33.099998474121094,30.43000030517578,32.970001220703125,30.520000457763672,7362300,30.520000457763672
2016-11-08,31.8799991607666,29.920000076293945,30.600000381469727,31.40999984741211,6292200,31.40999984741211
2016-11-09,33.70000076293945,30.299999237060547,30.360000610351562,31.809999465942383,6409200,31.809999465942383
2016-11-10,34.0,30.719999313354492,33.13999938964844,31.5,5155100,31.5
2016-11-11,32.279998779296875,31.030000686645508,31.079999923706055,31.559999465942383,2274900,31.559999465942383
2016-11-14,32.970001220703125,31.209999084472656,31.709999084472656,31.389999389648438,4061500,31.389999389648438
2016-11-15,34.849998474121094,31.389999389648438,31.700000762939453,34.72999954223633,6075200,34.72999954223633
2016-11-16,37.84000015258789,35.0,35.38999938964844,37.04999923706055,10955900,37.04999923706055
2016-11-17,37.439998626708984,34.75,37.41999816894531,35.209999084472656,5879600,35.209999084472656
2016-11-18,36.880001068115234,34.54999923706055,35.40999984741211,36.880001068115234,4349000,36.880001068115234
2016-11-21,38.880001068115234,36.5099983215332,37.5099983215332,36.79999923706055,7352400,36.79999923706055
2016-11-22,38.20000076293945,36.79999923706055,37.599998474121094,37.38999938964844,3628600,37.38999938964844
2016-11-23,37.849998474121094,35.529998779296875,37.09000015258789,35.68000030517578,5314400,35.68000030517578
2016-11-25,35.84000015258789,34.849998474121094,35.68000030517578,35.06999969482422,1543300,35.06999969482422
2016-11-28,35.4900016784668,33.720001220703125,34.810001373291016,33.849998474121094,3233500,33.849998474121094
2016-11-29,34.290000915527344,32.65999984741211,33.9900016784668,33.61000061035156,3402500,33.61000061035156
2016-11-30,35.2400016784668,33.0,33.0,33.91999816894531,3302600,33.91999816894531
2016-12-01,33.79999923706055,31.540000915527344,33.65999984741211,31.8700008392334,3880700,31.8700008392334
2016-12-02,31.739999771118164,30.309999465942383,31.549999237060547,30.3799991607666,3552000,30.3799991607666
2016-12-05,31.670000076293945,30.350000381469727,30.889999389648438,30.729999542236328,3773100,30.729999542236328
2016-12-06,32.4900016784668,30.809999465942383,30.809999465942383,32.13999938964844,3771500,32.13999938964844
2016-12-07,32.869998931884766,30.979999542236328,32.0,31.020000457763672,3027000,31.020000457763672
2016-12-08,31.780000686645508,30.34000015258789,31.049999237060547,30.600000381469727,4905500,30.600000381469727
2016-12-09,30.950000762939453,29.139999389648438,30.600000381469727,29.34000015258789,5737700,29.34000015258789
2016-12-12,29.5,28.3700008392334,29.040000915527344,29.229999542236328,3897300,29.229999542236328
2016-12-13,30.3700008392334,29.0,29.0,29.270000457763672,2623800,29.270000457763672
2016-12-14,29.940000534057617,29.0,29.229999542236328,29.510000228881836,2254400,29.510000228881836
2016-12-15,30.209999084472656,29.25,29.610000610351562,29.649999618530273,2588800,29.649999618530273
2016-12-16,30.530000686645508,28.711000442504883,29.899999618530273,29.25,3324300,29.25
2016-12-19,29.5,28.709999084472656,29.200000762939453,29.149999618530273,2935000,29.149999618530273
2016-12-20,31.489999771118164,28.610000610351562,29.610000610351562,29.920000076293945,10098400,29.920000076293945
2016-12-21,34.68000030517578,30.200000762939453,30.5,34.59000015258789,11589500,34.59000015258789
2016-12-22,35.150001525878906,31.520000457763672,35.06999969482422,31.709999084472656,11640200,31.709999084472656
2016-12-23,32.599998474121094,31.530000686645508,32.119998931884766,32.220001220703125,3237100,32.220001220703125
2016-12-27,33.04999923706055,32.04999923706055,32.70000076293945,32.61000061035156,2792600,32.61000061035156
2016-12-28,32.75,30.030000686645508,32.45000076293945,30.209999084472656,4165600,30.209999084472656
2016-12-29,30.239999771118164,28.85099983215332,30.020000457763672,29.270000457763672,3417200,29.270000457763672
2016-12-30,29.989999771118164,28.649999618530273,29.420000076293945,28.850000381469727,3014600,28.850000381469727
2017-01-03,29.450000762939453,25.979999542236328,29.25,26.5,11108400,26.5
2017-01-04,27.75,26.209999084472656,26.549999237060547,27.510000228881836,6047400,27.510000228881836
2017-01-05,28.75,27.40999984741211,28.600000381469727,28.100000381469727,4683500,28.100000381469727
2017-01-06,28.729999542236328,27.559999465942383,28.059999465942383,27.6299991607666,3790400,27.6299991607666
2017-01-09,28.350000381469727,27.239999771118164,27.770000457763672,28.100000381469727,2616800,28.100000381469727
2017-01-10,29.700000762939453,27.719999313354492,29.25,27.790000915527344,4675800,27.790000915527344
2017-01-11,28.0,27.329999923706055,27.450000762939453,27.940000534057617,2394400,27.940000534057617
2017-01-12,28.719999313354492,27.55900001525879,28.459999084472656,27.8799991607666,2792900,27.8799991607666
2017-01-13,28.110000610351562,27.40999984741211,27.850000381469727,27.959999084472656,2694700,27.959999084472656
2017-01-17,28.059999465942383,27.75,27.899999618530273,27.850000381469727,2526000,27.850000381469727
2017-01-18,27.832000732421875,27.030000686645508,27.770000457763672,27.59000015258789,3581000,27.59000015258789
2017-01-19,28.68000030517578,27.420000076293945,27.729999542236328,28.559999465942383,4984000,28.559999465942383
2017-01-20,29.0,28.020000457763672,28.549999237060547,28.3799991607666,3877400,28.3799991607666
2017-01-23,28.799999237060547,28.150999069213867,28.3799991607666,28.5,2907300,28.5
2017-01-24,29.440000534057617,28.219999313354492,28.469999313354492,28.729999542236328,4087100,28.729999542236328
2017-01-25,30.469999313354492,28.825000762939453,29.190000534057617,29.049999237060547,5137200,29.049999237060547
2017-01-26,30.5,29.350000381469727,30.149999618530273,29.850000381469727,3812700,29.850000381469727
2017-01-27,29.98900032043457,28.850000381469727,29.920000076293945,29.440000534057617,2786600,29.440000534057617
2017-01-30,29.40999984741211,28.280000686645508,29.40999984741211,29.010000228881836,3392300,29.010000228881836
2017-01-31,28.940000534057617,28.43000030517578,28.700000762939453,28.829999923706055,2072800,28.829999923706055
2017-02-01,30.364999771118164,29.360000610351562,29.739999771118164,30.049999237060547,3697500,30.049999237060547
2017-02-02,30.84000015258789,29.6200008392334,29.8700008392334,30.100000381469727,4029600,30.100000381469727
2017-02-03,31.600000381469727,30.06999969482422,30.100000381469727,31.3700008392334,4119600,31.3700008392334
2017-02-06,32.41999816894531,31.299999237060547,31.5,31.81999969482422,6083300,31.81999969482422
2017-02-07,32.310001373291016,30.829999923706055,32.29999923706055,30.959999084472656,7408500,30.959999084472656
2017-02-08,32.689998626708984,29.75,31.709999084472656,31.440000534057617,9781000,31.440000534057617
2017-02-09,34.2400016784668,30.75,31.440000534057617,32.810001373291016,9960600,32.810001373291016
2017-02-10,33.38999938964844,31.579999923706055,31.770000457763672,31.959999084472656,9469200,31.959999084472656
2017-02-13,34.95000076293945,32.060001373291016,32.060001373291016,34.900001525878906,8648300,34.900001525878906
2017-02-14,34.439998626708984,32.880001068115234,33.86000061035156,33.650001525878906,7467000,33.650001525878906
2017-02-15,33.86000061035156,33.11000061035156,33.400001525878906,33.41999816894531,3408200,33.41999816894531
2017-02-16,34.279998779296875,32.76300048828125,33.650001525878906,33.16999816894531,5113000,33.16999816894531
2017-02-17,33.36199951171875,32.20000076293945,33.16999816894531,32.349998474121094,4026800,32.349998474121094
2017-02-21,32.630001068115234,31.395999908447266,32.470001220703125,31.959999084472656,4402700,31.959999084472656
2017-02-22,32.44499969482422,31.735000610351562,31.90999984741211,32.15999984741211,3897900,32.15999984741211
2017-02-23,32.4900016784668,31.399999618530273,32.310001373291016,31.670000076293945,2801700,31.670000076293945
2017-02-24,32.279998779296875,31.010000228881836,31.280000686645508,32.2599983215332,2329700,32.2599983215332
2017-02-27,33.33000183105469,31.860000610351562,32.08000183105469,32.63999938964844,3320100,32.63999938964844
2017-02-28,32.2400016784668,31.329999923706055,32.15999984741211,31.719999313354492,4446200,31.719999313354492
2017-03-01,32.40999984741211,31.670000076293945,32.0,32.31999969482422,3378500,32.31999969482422
2017-03-02,32.65999984741211,30.790000915527344,32.040000915527344,31.030000686645508,4202100,31.030000686645508
2017-03-03,30.889999389648438,29.35099983215332,30.739999771118164,29.809999465942383,4749500,29.809999465942383
2017-03-06,31.030000686645508,29.829999923706055,30.399999618530273,30.889999389648438,3488200,30.889999389648438
2017-03-07,31.329999923706055,30.489999771118164,30.649999618530273,30.739999771118164,1969700,30.739999771118164
2017-03-08,31.15999984741211,30.58799934387207,30.809999465942383,31.079999923706055,1551900,31.079999923706055
2017-03-09,31.84000015258789,30.850000381469727,31.100000381469727,31.31999969482422,2345700,31.31999969482422
2017-03-10,31.709999084472656,31.030000686645508,31.420000076293945,31.229999542236328,1597700,31.229999542236328
2017-03-13,32.66999816894531,31.100000381469727,31.149999618530273,32.06999969482422,2404100,32.06999969482422
2017-03-14,31.950000762939453,30.790000915527344,31.90999984741211,31.06999969482422,1664700,31.06999969482422
2017-03-15,31.389999389648438,30.3439998626709,31.209999084472656,31.299999237060547,1886700,31.299999237060547
2017-03-16,32.62200164794922,31.26300048828125,31.389999389648438,31.40999984741211,2907900,31.40999984741211
2017-03-17,31.790000915527344,30.510000228881836,31.09000015258789,31.030000686645508,4484700,31.030000686645508
2017-03-20,31.489999771118164,30.760000228881836,31.059999465942383,31.200000762939453,1639000,31.200000762939453
2017-03-21,31.329999923706055,29.229999542236328,31.1200008392334,29.600000381469727,3951400,29.600000381469727
2017-03-22,29.889999389648438,28.969999313354492,29.639999389648438,29.170000076293945,2343400,29.170000076293945
2017-03-23,29.5,28.950000762939453,29.239999771118164,29.049999237060547,1481300,29.049999237060547
2017-03-24,29.5,28.822999954223633,29.100000381469727,29.190000534057617,1291500,29.190000534057617
2017-03-27,29.81999969482422,28.360000610351562,28.799999237060547,29.6299991607666,1597200,29.6299991607666
2017-03-28,30.059999465942383,29.20800018310547,29.530000686645508,29.270000457763672,1657500,29.270000457763672
2017-03-29,29.25,28.75,29.25,28.780000686645508,2200200,28.780000686645508
2017-03-30,28.889999389648438,28.1200008392334,28.670000076293945,28.6200008392334,2244100,28.6200008392334
2017-03-31,29.260000228881836,28.260000228881836,28.469999313354492,28.8700008392334,1694600,28.8700008392334
2017-04-03,28.889999389648438,28.190000534057617,28.760000228881836,28.690000534057617,1751300,28.690000534057617
2017-04-04,28.850000381469727,26.950000762939453,28.510000228881836,27.270000457763672,3758900,27.270000457763672
2017-04-05,27.719999313354492,26.81999969482422,27.270000457763672,26.93000030517578,3005000,26.93000030517578
2017-04-06,27.139999389648438,26.760000228881836,26.940000534057617,26.93000030517578,1626400,26.93000030517578
2017-04-07,28.549999237060547,27.709999084472656,28.5,28.170000076293945,5277900,28.170000076293945
2017-04-10,28.8700008392334,27.649999618530273,28.309999465942383,28.469999313354492,3891400,28.469999313354492
2017-04-11,29.6299991607666,28.100000381469727,28.420000076293945,29.350000381469727,3087800,29.350000381469727
2017-04-12,30.190000534057617,29.200000762939453,29.670000076293945,29.559999465942383,3010000,29.559999465942383
2017-04-13,30.639999389648438,29.399999618530273,29.43000030517578,30.290000915527344,2483600,30.290000915527344
2017-04-17,30.850000381469727,29.84000015258789,30.329999923706055,30.799999237060547,1541500,30.799999237060547
2017-04-18,31.209999084472656,30.22800064086914,30.56999969482422,30.799999237060547,1565300,30.799999237060547
2017-04-19,32.25,31.09000015258789,31.09000015258789,31.760000228881836,2724800,31.760000228881836
2017-04-20,32.380001068115234,31.459999084472656,31.719999313354492,31.6299991607666,2178700,31.6299991607666
2017-04-21,31.631000518798828,30.399999618530273,31.440000534057617,30.81999969482422,1298900,30.81999969482422
2017-04-24,31.25,30.209999084472656,31.25,30.93000030517578,1670000,30.93000030517578
2017-04-25,32.130001068115234,30.790000915527344,30.8700008392334,31.93000030517578,2052500,31.93000030517578
2017-04-26,32.560001373291016,31.649999618530273,31.760000228881836,32.2400016784668,2597000,32.2400016784668
2017-04-27,33.290000915527344,32.25,32.2599983215332,32.84000015258789,2306000,32.84000015258789
2017-04-28,33.36000061035156,32.70000076293945,32.79999923706055,33.04999923706055,2023300,33.04999923706055
2017-05-01,34.45000076293945,33.03099822998047,33.099998474121094,34.38999938964844,3836000,34.38999938964844
2017-05-02,34.45000076293945,32.75,34.22999954223633,33.939998626708984,9901600,33.939998626708984
2017-05-03,26.440000534057617,24.149999618530273,24.600000381469727,25.010000228881836,23789100,25.010000228881836
2017-05-04,26.020000457763672,24.889999389648438,25.510000228881836,24.959999084472656,6116600,24.959999084472656
2017-05-05,25.290000915527344,23.8799991607666,25.010000228881836,23.969999313354492,7065300,23.969999313354492
2017-05-08,24.15999984741211,22.799999237060547,23.75,23.84000015258789,7401000,23.84000015258789
2017-05-09,23.84000015258789,23.100000381469727,23.729999542236328,23.170000076293945,3415400,23.170000076293945
2017-05-10,23.760000228881836,22.899999618530273,23.18000030517578,23.450000762939453,2967200,23.450000762939453
2017-05-11,23.32699966430664,23.0,23.15999984741211,23.299999237060547,2125500,23.299999237060547
2017-05-12,24.68899917602539,23.450000762939453,24.200000762939453,24.0,4427500,24.0
2017-05-15,24.350000381469727,23.68000030517578,24.260000228881836,24.299999237060547,2216800,24.299999237060547
2017-05-16,25.31999969482422,24.459999084472656,24.5,24.8799991607666,3596400,24.8799991607666
2017-05-17,25.15999984741211,24.6200008392334,24.670000076293945,24.809999465942383,3831300,24.809999465942383
2017-05-18,25.139999389648438,24.09000015258789,24.75,24.3700008392334,2684500,24.3700008392334
2017-05-19,25.420000076293945,24.149999618530273,24.360000610351562,25.15999984741211,2900200,25.15999984741211
2017-05-22,25.5,24.84000015258789,25.010000228881836,24.959999084472656,2369400,24.959999084472656
2017-05-23,25.600000381469727,24.909000396728516,25.170000076293945,25.559999465942383,2778600,25.559999465942383
2017-05-24,26.65999984741211,25.420000076293945,25.440000534057617,26.049999237060547,3228900,26.049999237060547
2017-05-25,25.899999618530273,24.790000915527344,25.670000076293945,25.0,3753700,25.0
2017-05-26,25.450000762939453,24.940000534057617,25.059999465942383,25.010000228881836,2183500,25.010000228881836
2017-05-30,25.0,24.368000030517578,24.950000762939453,24.5,1694400,24.5
2017-05-31,24.5,23.6200008392334,24.459999084472656,24.309999465942383,2635900,24.309999465942383
2017-06-01,24.469999313354492,23.829999923706055,24.389999389648438,24.149999618530273,2116900,24.149999618530273
2017-06-02,25.010000228881836,24.100000381469727,24.139999389648438,24.850000381469727,2031100,24.850000381469727
2017-06-05,25.489999771118164,24.55500030517578,24.809999465942383,24.950000762939453,2032300,24.950000762939453
2017-06-06,25.920000076293945,24.600000381469727,24.940000534057617,25.540000915527344,2319900,25.540000915527344
2017-06-07,25.969999313354492,25.15999984741211,25.459999084472656,25.25,1633700,25.25
2017-06-08,25.540000915527344,24.920000076293945,25.059999465942383,25.489999771118164,1464100,25.489999771118164
2017-06-09,25.8700008392334,24.3700008392334,25.40999984741211,24.639999389648438,2782000,24.639999389648438
2017-06-12,24.770000457763672,23.95400047302246,24.290000915527344,24.770000457763672,1889300,24.770000457763672
2017-06-13,25.8799991607666,24.809999465942383,24.809999465942383,25.489999771118164,2084400,25.489999771118164
2017-06-14,26.18000030517578,25.270000457763672,25.399999618530273,25.709999084472656,2442300,25.709999084472656
2017-06-15,26.209999084472656,25.329999923706055,25.440000534057617,25.850000381469727,1549000,25.850000381469727
2017-06-16,27.0,25.850000381469727,25.850000381469727,26.8700008392334,2908900,26.8700008392334
2017-06-19,28.75,27.469999313354492,27.469999313354492,28.3700008392334,3273600,28.3700008392334
2017-06-20,28.979999542236328,27.110000610351562,28.5,27.690000534057617,2950700,27.690000534057617
2017-06-21,28.3700008392334,27.79599952697754,27.829999923706055,28.31999969482422,1636100,28.31999969482422
2017-06-22,29.3799991607666,28.1299991607666,28.18000030517578,28.75,2902000,28.75
2017-06-23,29.899999618530273,28.809999465942383,28.809999465942383,29.709999084472656,8606400,29.709999084472656
2017-06-26,29.889999389648438,28.43000030517578,29.799999237060547,28.940000534057617,2641700,28.940000534057617
2017-06-27,29.799999237060547,28.409000396728516,29.149999618530273,28.600000381469727,2089800,28.600000381469727
2017-06-28,29.770000457763672,28.739999771118164,28.959999084472656,29.5,2911700,29.5
2017-06-29,29.65999984741211,28.25,29.110000610351562,29.0,1658600,29.0
2017-06-30,29.649999618530273,28.780000686645508,29.0,29.110000610351562,1966000,29.110000610351562
2017-07-03,29.25,28.68000030517578,29.100000381469727,28.969999313354492,652100,28.969999313354492
2017-07-05,29.239999771118164,28.309999465942383,28.950000762939453,29.06999969482422,1540100,29.06999969482422
2017-07-06,28.8700008392334,28.09000015258789,28.670000076293945,28.309999465942383,1111600,28.309999465942383
2017-07-07,28.81999969482422,28.18000030517578,28.43000030517578,28.43000030517578,1106200,28.43000030517578
2017-07-10,29.049999237060547,28.290000915527344,28.350000381469727,28.75,785700,28.75
2017-07-11,29.6299991607666,29.020000457763672,29.270000457763672,29.31999969482422,2042700,29.31999969482422
2017-07-12,29.75,29.360000610351562,29.68000030517578,29.459999084472656,1123800,29.459999084472656
2017-07-13,30.049999237060547,29.170000076293945,29.670000076293945,29.479999542236328,1452500,29.479999542236328
2017-07-14,29.68000030517578,28.8799991607666,29.6200008392334,29.229999542236328,1164400,29.229999542236328
2017-07-17,30.6200008392334,29.110000610351562,29.18000030517578,30.450000762939453,1590000,30.450000762939453
2017-07-18,31.023000717163086,30.020000457763672,30.450000762939453,30.40999984741211,1956500,30.40999984741211
2017-07-19,31.760000228881836,30.530000686645508,30.75,31.489999771118164,1650300,31.489999771118164
2017-07-20,32.22999954223633,30.829999923706055,31.579999923706055,31.059999465942383,2236600,31.059999465942383
2017-07-21,31.77899932861328,30.479999542236328,31.139999389648438,30.93000030517578,1604800,30.93000030517578
2017-07-24,31.239999771118164,30.67799949645996,31.079999923706055,30.989999771118164,1115200,30.989999771118164
2017-07-25,31.969999313354492,31.0,31.040000915527344,31.399999618530273,1188700,31.399999618530273
2017-07-26,31.75,31.280000686645508,31.489999771118164,31.5,795100,31.5
2017-07-27,31.6299991607666,29.700000762939453,31.510000228881836,30.149999618530273,1607400,30.149999618530273
2017-07-28,30.479999542236328,29.77199935913086,29.950000762939453,29.90999984741211,1277800,29.90999984741211
2017-07-31,30.350000381469727,28.549999237060547,30.0,29.170000076293945,1564500,29.170000076293945
2017-08-01,29.65999984741211,28.700000762939453,29.309999465942383,28.989999771118164,1416200,28.989999771118164
2017-08-02,29.040000915527344,27.93000030517578,29.040000915527344,28.399999618530273,1417300,28.399999618530273
2017-08-03,29.209999084472656,28.260000228881836,28.399999618530273,28.850000381469727,1677200,28.850000381469727
2017-08-04,29.389999389648438,28.729999542236328,28.989999771118164,29.209999084472656,1123900,29.209999084472656
2017-08-07,30.670000076293945,29.5,29.520000457763672,30.530000686645508,5186200,30.530000686645508
2017-08-08,34.7400016784668,32.40999984741211,34.189998626708984,33.58000183105469,12595300,33.58000183105469
2017-08-09,33.619998931884766,32.93000030517578,33.060001373291016,33.0,2023100,33.0
2017-08-10,32.400001525878906,30.06999969482422,32.33000183105469,30.280000686645508,4657300,30.280000686645508
2017-08-11,31.889999389648438,29.760000228881836,30.200000762939453,31.3799991607666,3416000,31.3799991607666
2017-08-14,32.0,31.059999465942383,31.799999237060547,31.40999984741211,1776400,31.40999984741211
2017-08-15,31.489999771118164,30.780000686645508,31.270000457763672,31.0,1357800,31.0
2017-08-16,31.690000534057617,31.0,31.059999465942383,31.059999465942383,1142800,31.059999465942383
2017-08-17,31.239999771118164,30.25,31.030000686645508,30.31999969482422,1429200,30.31999969482422
2017-08-18,30.5,29.68000030517578,30.200000762939453,29.90999984741211,1409800,29.90999984741211
2017-08-21,30.040000915527344,28.829999923706055,29.829999923706055,29.209999084472656,1232300,29.209999084472656
2017-08-22,29.264999389648438,28.209999084472656,29.219999313354492,29.049999237060547,1803600,29.049999237060547
2017-08-23,29.200000762939453,28.690000534057617,28.799999237060547,28.979999542236328,835000,28.979999542236328
2017-08-24,29.600000381469727,28.950000762939453,29.329999923706055,29.31999969482422,1435700,29.31999969482422
2017-08-25,29.450000762939453,28.520000457763672,29.299999237060547,28.93000030517578,989200,28.93000030517578
2017-08-28,29.165000915527344,28.440000534057617,29.049999237060547,28.59000015258789,848500,28.59000015258789
2017-08-29,29.270000457763672,28.25,28.31999969482422,28.989999771118164,1080900,28.989999771118164
2017-08-30,29.389999389648438,28.851999282836914,29.100000381469727,29.229999542236328,842500,29.229999542236328
2017-08-31,29.739999771118164,28.950000762939453,29.25,29.280000686645508,1567500,29.280000686645508
2017-09-01,29.69499969482422,28.799999237060547,29.350000381469727,28.959999084472656,1225700,28.959999084472656
2017-09-05,29.43000030517578,28.43000030517578,28.780000686645508,29.350000381469727,1455000,29.350000381469727
2017-09-06,30.194000244140625,29.170000076293945,29.260000228881836,29.8799991607666,1696200,29.8799991607666
2017-09-07,30.280000686645508,29.5,29.90999984741211,29.729999542236328,1175300,29.729999542236328
2017-09-08,30.280000686645508,29.523000717163086,29.639999389648438,29.770000457763672,994500,29.770000457763672
2017-09-11,30.75,30.027000427246094,30.059999465942383,30.649999618530273,1303200,30.649999618530273
2017-09-12,31.040000915527344,30.09000015258789,30.719999313354492,30.229999542236328,1415200,30.229999542236328
2017-09-13,31.110000610351562,30.290000915527344,30.290000915527344,30.6200008392334,1206800,30.6200008392334
2017-09-14,31.280000686645508,30.530000686645508,30.579999923706055,31.040000915527344,949500,31.040000915527344
2017-09-15,31.6299991607666,30.530000686645508,30.940000534057617,30.8799991607666,3360300,30.8799991607666
2017-09-18,31.65999984741211,30.850000381469727,30.8700008392334,31.139999389648438,1357300,31.139999389648438
2017-09-19,31.54199981689453,30.950000762939453,31.469999313354492,31.040000915527344,564400,31.040000915527344
2017-09-20,30.97100067138672,30.315000534057617,30.969999313354492,30.510000228881836,915700,30.510000228881836
2017-09-21,30.969999313354492,30.049999237060547,30.579999923706055,30.5,911900,30.5
2017-09-22,31.15999984741211,30.25,30.25,30.829999923706055,897900,30.829999923706055
2017-09-25,30.889999389648438,29.059999465942383,30.889999389648438,29.469999313354492,1707700,29.469999313354492
2017-09-26,29.899999618530273,26.860000610351562,29.6299991607666,27.520000457763672,4276200,27.520000457763672
2017-09-27,30.3799991607666,28.760000228881836,30.030000686645508,29.139999389648438,4743100,29.139999389648438
2017-09-28,29.700000762939453,28.600000381469727,29.030000686645508,29.68000030517578,1162100,29.68000030517578
2017-09-29,30.0,29.520000457763672,29.600000381469727,29.850000381469727,904200,29.850000381469727
2017-10-02,30.989999771118164,29.850000381469727,29.8700008392334,30.8700008392334,1486200,30.8700008392334
2017-10-03,31.760000228881836,30.8700008392334,31.020000457763672,31.56999969482422,1296500,31.56999969482422
2017-10-04,31.969999313354492,31.26099967956543,31.6299991607666,31.3700008392334,1109500,31.3700008392334
2017-10-05,32.220001220703125,31.610000610351562,31.670000076293945,32.15999984741211,1359000,32.15999984741211
2017-10-06,32.849998474121094,31.731000900268555,31.889999389648438,32.349998474121094,1221900,32.349998474121094
2017-10-09,32.95000076293945,32.20000076293945,32.349998474121094,32.22999954223633,813500,32.22999954223633
2017-10-10,32.880001068115234,31.790000915527344,32.470001220703125,32.130001068115234,1018600,32.130001068115234
2017-10-11,32.75,31.90999984741211,32.130001068115234,32.66999816894531,1138700,32.66999816894531
2017-10-12,32.869998931884766,31.979999542236328,32.66999816894531,32.119998931884766,678900,32.119998931884766
2017-10-13,32.68000030517578,31.850000381469727,32.209999084472656,32.58000183105469,834700,32.58000183105469
2017-10-16,32.779998779296875,31.8799991607666,32.599998474121094,31.940000534057617,872300,31.940000534057617
2017-10-17,32.119998931884766,31.6299991607666,31.8700008392334,31.739999771118164,620800,31.739999771118164
2017-10-18,31.899999618530273,31.170000076293945,31.899999618530273,31.610000610351562,891800,31.610000610351562
2017-10-19,31.797000885009766,30.729999542236328,31.200000762939453,31.440000534057617,995000,31.440000534057617
2017-10-20,33.069000244140625,31.469999313354492,31.860000610351562,32.619998931884766,3086600,32.619998931884766
2017-10-23,33.060001373291016,31.829999923706055,32.619998931884766,31.850000381469727,1310300,31.850000381469727
2017-10-24,32.20000076293945,31.75,32.16999816894531,31.899999618530273,1057700,31.899999618530273
2017-10-25,32.09000015258789,31.219999313354492,31.75,31.270000457763672,1579200,31.270000457763672
2017-10-26,31.770000457763672,31.1299991607666,31.440000534057617,31.389999389648438,924600,31.389999389648438
2017-10-27,32.099998474121094,31.290000915527344,31.760000228881836,31.989999771118164,1212800,31.989999771118164
2017-10-30,32.47999954223633,31.700000762939453,31.899999618530273,31.8799991607666,1001800,31.8799991607666
2017-10-31,32.24800109863281,31.790000915527344,32.0,31.950000762939453,998500,31.950000762939453
2017-11-01,32.19900131225586,31.420000076293945,32.08000183105469,31.510000228881836,1148000,31.510000228881836
2017-11-02,31.510000228881836,29.81999969482422,31.510000228881836,30.34000015258789,2231100,30.34000015258789
2017-11-03,30.739999771118164,29.6299991607666,30.350000381469727,30.239999771118164,1716400,30.239999771118164
2017-11-06,30.420000076293945,29.7549991607666,30.1299991607666,29.8799991607666,1123600,29.8799991607666
2017-11-07,29.889999389648438,28.049999237060547,29.799999237060547,28.3799991607666,2736800,28.3799991607666
2017-11-08,28.469999313354492,27.15999984741211,28.3799991607666,27.829999923706055,6177400,27.829999923706055
2017-11-09,28.5,25.520000457763672,28.5,25.93000030517578,7546100,25.93000030517578
2017-11-10,26.25,25.15999984741211,25.84000015258789,25.549999237060547,3418400,25.549999237060547
2017-11-13,26.399999618530273,25.209999084472656,25.299999237060547,26.399999618530273,2608200,26.399999618530273
2017-11-14,26.249000549316406,25.360000610351562,26.18000030517578,25.81999969482422,2692400,25.81999969482422
2017-11-15,25.75,25.229999542236328,25.290000915527344,25.290000915527344,1774100,25.290000915527344
2017-11-16,26.200000762939453,25.3799991607666,25.56999969482422,26.110000610351562,1811300,26.110000610351562
2017-11-17,26.3799991607666,25.600000381469727,26.09000015258789,25.68000030517578,1722900,25.68000030517578
2017-11-20,26.200000762939453,25.531999588012695,25.68000030517578,26.06999969482422,1693000,26.06999969482422
2017-11-21,26.260000228881836,25.75,26.06999969482422,25.90999984741211,1790900,25.90999984741211
2017-11-22,26.200000762939453,25.770000457763672,25.84000015258789,26.1299991607666,1229200,26.1299991607666
2017-11-24,26.610000610351562,26.09000015258789,26.260000228881836,26.290000915527344,859000,26.290000915527344
2017-11-27,26.56999969482422,25.799999237060547,26.170000076293945,25.81999969482422,1489500,25.81999969482422
2017-11-28,26.44499969482422,25.0,25.850000381469727,26.420000076293945,1982000,26.420000076293945
2017-11-29,26.549999237060547,25.399999618530273,26.450000762939453,26.229999542236328,1926200,26.229999542236328
2017-11-30,27.18000030517578,26.149999618530273,26.260000228881836,26.65999984741211,2120600,26.65999984741211
2017-12-01,26.979999542236328,25.979999542236328,26.68000030517578,26.06999969482422,2367000,26.06999969482422
2017-12-04,26.746000289916992,25.420000076293945,26.31999969482422,25.709999084472656,2943800,25.709999084472656
2017-12-05,25.937000274658203,24.94499969482422,25.899999618530273,24.989999771118164,1642500,24.989999771118164
2017-12-06,25.134000778198242,23.540000915527344,24.264999389648438,24.06999969482422,4788500,24.06999969482422
2017-12-07,25.0049991607666,24.06999969482422,24.799999237060547,24.799999237060547,2213500,24.799999237060547
2017-12-08,25.249000549316406,24.59000015258789,25.1200008392334,24.739999771118164,1399800,24.739999771118164
2017-12-11,25.280000686645508,24.799999237060547,24.799999237060547,24.81999969482422,1320900,24.81999969482422
2017-12-12,25.43000030517578,24.65999984741211,24.940000534057617,25.139999389648438,1776900,25.139999389648438
2017-12-13,25.579999923706055,25.139999389648438,25.260000228881836,25.329999923706055,1060500,25.329999923706055
2017-12-14,25.549999237060547,25.15999984741211,25.31999969482422,25.170000076293945,1084500,25.170000076293945
2017-12-15,25.479999542236328,25.020000457763672,25.270000457763672,25.3799991607666,1424100,25.3799991607666
2017-12-18,25.729999542236328,25.31999969482422,25.610000610351562,25.399999618530273,1399200,25.399999618530273
2017-12-19,25.540000915527344,24.729999542236328,25.399999618530273,25.010000228881836,1298900,25.010000228881836
2017-12-20,25.290000915527344,24.65999984741211,24.959999084472656,25.09000015258789,885100,25.09000015258789
2017-12-21,25.170000076293945,24.25,25.100000381469727,24.329999923706055,1938700,24.329999923706055
2017-12-22,24.979999542236328,24.260000228881836,24.40999984741211,24.809999465942383,1470800,24.809999465942383
2017-12-26,25.030000686645508,24.559999465942383,24.799999237060547,24.719999313354492,994800,24.719999313354492
2017-12-27,24.860000610351562,24.360000610351562,24.649999618530273,24.510000228881836,1238300,24.510000228881836
2017-12-28,24.8700008392334,24.260000228881836,24.610000610351562,24.3799991607666,1502500,24.3799991607666
2017-12-29,24.600000381469727,23.600000381469727,24.40999984741211,23.600000381469727,2726700,23.600000381469727
2018-01-02,25.260000228881836,24.100000381469727,24.1299991607666,25.100000381469727,1942400,25.100000381469727
2018-01-03,25.920000076293945,25.049999237060547,25.18000030517578,25.690000534057617,1632000,25.690000534057617
2018-01-04,26.299999237060547,25.549999237060547,25.950000762939453,25.68000030517578,1260800,25.68000030517578
2018-01-05,25.979999542236328,25.584999084472656,25.81999969482422,25.760000228881836,1023800,25.760000228881836
2018-01-08,26.25,25.579999923706055,25.760000228881836,26.170000076293945,1533800,26.170000076293945
2018-01-09,26.829999923706055,25.709999084472656,26.31999969482422,25.75,1595000,25.75
2018-01-10,25.950000762939453,25.520000457763672,25.709999084472656,25.639999389648438,749700,25.639999389648438
2018-01-11,26.17799949645996,25.709999084472656,25.760000228881836,26.030000686645508,1192100,26.030000686645508
2018-01-12,26.200000762939453,25.700000762939453,26.06999969482422,26.15999984741211,906000,26.15999984741211
2018-01-16,26.860000610351562,25.15999984741211,26.469999313354492,25.329999923706055,1791800,25.329999923706055
2018-01-17,25.690000534057617,25.100000381469727,25.690000534057617,25.399999618530273,1121300,25.399999618530273
2018-01-18,25.8700008392334,25.209999084472656,25.389999389648438,25.68000030517578,890500,25.68000030517578
2018-01-19,25.899999618530273,25.378999710083008,25.68000030517578,25.709999084472656,1031100,25.709999084472656
2018-01-22,26.239999771118164,25.59000015258789,25.719999313354492,26.239999771118164,931600,26.239999771118164
2018-01-23,26.7549991607666,26.010000228881836,26.290000915527344,26.6299991607666,1050000,26.6299991607666
2018-01-24,27.459999084472656,26.299999237060547,26.780000686645508,26.90999984741211,1921100,26.90999984741211
2018-01-25,27.139999389648438,26.270000457763672,27.049999237060547,26.520000457763672,1122300,26.520000457763672
2018-01-26,26.979999542236328,26.31999969482422,26.68000030517578,26.530000686645508,1161500,26.530000686645508
2018-01-29,26.780000686645508,26.260000228881836,26.540000915527344,26.389999389648438,1012700,26.389999389648438
2018-01-30,26.34000015258789,25.77899932861328,26.030000686645508,26.100000381469727,889700,26.100000381469727
2018-01-31,26.729999542236328,26.079999923706055,26.280000686645508,26.239999771118164,914400,26.239999771118164
2018-02-01,26.329999923706055,25.770000457763672,26.0,26.059999465942383,1024600,26.059999465942383
2018-02-02,26.010000228881836,25.399999618530273,25.950000762939453,25.549999237060547,2105500,25.549999237060547
2018-02-05,25.56999969482422,24.31999969482422,25.200000762939453,24.440000534057617,1847600,24.440000534057617
2018-02-06,24.829999923706055,23.440000534057617,23.719999313354492,24.639999389648438,1807900,24.639999389648438
2018-02-07,24.969999313354492,24.25,24.600000381469727,24.360000610351562,1463400,24.360000610351562
2018-02-08,24.81999969482422,23.899999618530273,24.809999465942383,23.90999984741211,1730800,23.90999984741211
2018-02-09,24.700000762939453,23.25,24.149999618530273,24.520000457763672,2534600,24.520000457763672
2018-02-12,25.8799991607666,24.6299991607666,24.729999542236328,25.790000915527344,2383100,25.790000915527344
2018-02-13,26.704999923706055,25.540000915527344,25.829999923706055,26.440000534057617,4118400,26.440000534057617
2018-02-14,32.0,28.59000015258789,29.09000015258789,30.719999313354492,13300000,30.719999313354492
2018-02-15,32.58000183105469,30.700000762939453,30.799999237060547,32.130001068115234,5213600,32.130001068115234
2018-02-16,33.45000076293945,30.889999389648438,31.549999237060547,33.09000015258789,4795000,33.09000015258789
2018-02-20,33.880001068115234,32.650001525878906,32.86000061035156,33.0099983215332,2404100,33.0099983215332
2018-02-21,33.779998779296875,32.59000015258789,33.0,33.060001373291016,1825400,33.060001373291016
2018-02-22,33.56999969482422,32.25,33.33000183105469,32.439998626708984,1692100,32.439998626708984
2018-02-23,33.540000915527344,32.63999938964844,32.68000030517578,33.52000045776367,1352400,33.52000045776367
2018-02-26,34.279998779296875,32.7599983215332,33.5,33.880001068115234,1960600,33.880001068115234
2018-02-27,34.68000030517578,33.34000015258789,33.599998474121094,34.439998626708984,2062200,34.439998626708984
2018-02-28,35.45000076293945,34.09000015258789,34.560001373291016,34.15999984741211,2316900,34.15999984741211
2018-03-01,35.29999923706055,34.22999954223633,34.79999923706055,34.959999084472656,2133500,34.959999084472656
2018-03-02,37.630001068115234,34.310001373291016,34.689998626708984,37.33000183105469,7319200,37.33000183105469
2018-03-05,38.9900016784668,36.72999954223633,37.150001525878906,38.22999954223633,4382800,38.22999954223633
2018-03-06,38.58000183105469,36.86000061035156,38.22999954223633,38.31999969482422,2607900,38.31999969482422
2018-03-07,39.650001525878906,37.255001068115234,37.400001525878906,39.22999954223633,2899700,39.22999954223633
2018-03-08,39.5,38.65999984741211,39.43000030517578,38.849998474121094,2305100,38.849998474121094
2018-03-09,39.93000030517578,38.84000015258789,39.40999984741211,39.5099983215332,2218400,39.5099983215332
2018-03-12,41.380001068115234,39.650001525878906,39.66999816894531,41.0099983215332,2900600,41.0099983215332
2018-03-13,41.939998626708984,38.95000076293945,41.08000183105469,39.56999969482422,3175500,39.56999969482422
2018-03-14,40.88999938964844,39.349998474121094,40.0,40.790000915527344,1815900,40.790000915527344
2018-03-15,41.20000076293945,39.93000030517578,41.0,40.779998779296875,1340800,40.779998779296875
2018-03-16,41.380001068115234,40.400001525878906,40.66999816894531,41.02000045776367,1351300,41.02000045776367
2018-03-19,41.290000915527344,39.525001525878906,40.560001373291016,40.310001373291016,2515700,40.310001373291016
2018-03-20,41.220001220703125,39.900001525878906,40.34000015258789,40.88999938964844,1431500,40.88999938964844
2018-03-21,42.22999954223633,40.520999908447266,40.88999938964844,41.29999923706055,1665100,41.29999923706055
2018-03-22,42.40999984741211,40.30099868774414,40.72999954223633,41.650001525878906,2405400,41.650001525878906
2018-03-23,41.72999954223633,39.93000030517578,41.72999954223633,39.93000030517578,2024000,39.93000030517578
2018-03-26,42.13999938964844,39.939998626708984,40.58000183105469,42.060001373291016,1890200,42.060001373291016
2018-03-27,42.53900146484375,35.88999938964844,42.369998931884766,38.72999954223633,2962900,38.72999954223633
2018-03-28,38.970001220703125,36.7599983215332,38.61000061035156,37.43000030517578,3370600,37.43000030517578
2018-03-29,38.66999816894531,37.0099983215332,37.63999938964844,38.18000030517578,1776600,38.18000030517578
2018-04-02,38.5099983215332,36.45000076293945,37.849998474121094,36.650001525878906,1441500,36.650001525878906
2018-04-03,37.560001373291016,36.33000183105469,37.130001068115234,37.31999969482422,1328000,37.31999969482422
2018-04-04,38.470001220703125,36.06999969482422,36.2400016784668,38.290000915527344,1533300,38.290000915527344
2018-04-05,39.09000015258789,37.65999984741211,38.79999923706055,38.09000015258789,1477200,38.09000015258789
2018-04-06,38.36600112915039,36.68000030517578,37.630001068115234,37.040000915527344,1298000,37.040000915527344
2018-04-09,38.38999938964844,36.779998779296875,37.47999954223633,36.869998931884766,1280200,36.869998931884766
2018-04-10,38.83000183105469,37.125,38.0,38.209999084472656,1721200,38.209999084472656
2018-04-11,40.150001525878906,38.0,38.2400016784668,38.970001220703125,1779700,38.970001220703125
2018-04-12,39.790000915527344,38.650001525878906,39.5,39.70000076293945,1727400,39.70000076293945
2018-04-13,40.18000030517578,38.650001525878906,39.880001068115234,39.209999084472656,1088500,39.209999084472656
2018-04-16,39.7599983215332,38.81999969482422,39.36000061035156,39.5099983215332,887300,39.5099983215332
2018-04-17,41.354000091552734,39.81999969482422,39.880001068115234,41.16999816894531,1635300,41.16999816894531
2018-04-18,42.505001068115234,40.959999084472656,41.40999984741211,42.34000015258789,1884400,42.34000015258789
2018-04-19,42.310001373291016,41.61000061035156,42.25,42.11000061035156,1792300,42.11000061035156
2018-04-20,42.38999938964844,41.0,41.79999923706055,41.220001220703125,1669100,41.220001220703125
2018-04-23,41.79899978637695,40.87099838256836,41.40999984741211,41.400001525878906,972400,41.400001525878906
2018-04-24,41.970001220703125,39.73500061035156,41.65999984741211,40.619998931884766,1570600,40.619998931884766
2018-04-25,41.36000061035156,39.59000015258789,40.540000915527344,41.279998779296875,1324100,41.279998779296875
2018-04-26,42.650001525878906,41.119998931884766,41.52000045776367,42.38999938964844,1491700,42.38999938964844
2018-04-27,42.880001068115234,41.130001068115234,42.7400016784668,41.650001525878906,1367800,41.650001525878906
2018-04-30,42.369998931884766,41.40999984741211,41.810001373291016,42.209999084472656,2122800,42.209999084472656
2018-05-01,42.96500015258789,41.68000030517578,41.93000030517578,42.54999923706055,1964700,42.54999923706055
2018-05-02,44.7400016784668,42.63999938964844,42.63999938964844,43.220001220703125,3107400,43.220001220703125
2018-05-03,43.849998474121094,41.43000030517578,43.0,43.709999084472656,1632200,43.709999084472656
2018-05-04,44.619998931884766,43.0,43.5,43.5,1890600,43.5
2018-05-07,44.5099983215332,43.25,43.81999969482422,44.09000015258789,2171200,44.09000015258789
2018-05-08,44.689998626708984,43.63999938964844,44.04999923706055,44.349998474121094,3159100,44.349998474121094
2018-05-09,53.54999923706055,48.150001525878906,48.150001525878906,52.40999984741211,9272700,52.40999984741211
2018-05-10,55.20000076293945,51.65999984741211,52.439998626708984,54.90999984741211,4159700,54.90999984741211
2018-05-11,54.939998626708984,53.130001068115234,53.939998626708984,53.58000183105469,3011700,53.58000183105469
2018-05-14,56.0,52.18000030517578,53.38999938964844,52.52000045776367,5312100,52.52000045776367
2018-05-15,53.45000076293945,50.56999969482422,51.290000915527344,53.130001068115234,5109400,53.130001068115234
2018-05-16,54.470001220703125,52.58000183105469,52.880001068115234,53.720001220703125,2541700,53.720001220703125
2018-05-17,54.47999954223633,53.34000015258789,53.75,53.72999954223633,1805500,53.72999954223633
2018-05-18,55.790000915527344,53.56999969482422,53.56999969482422,55.13999938964844,2479300,55.13999938964844
2018-05-21,56.65999984741211,54.54999923706055,55.68000030517578,55.2400016784668,3383000,55.2400016784668
2018-05-22,55.91899871826172,53.86000061035156,55.900001525878906,53.93000030517578,1599100,53.93000030517578
2018-05-23,53.20000076293945,51.880001068115234,53.15999984741211,52.540000915527344,2802400,52.540000915527344
2018-05-24,53.34000015258789,51.81999969482422,52.5,53.220001220703125,2590000,53.220001220703125
2018-05-25,53.58000183105469,52.790000915527344,53.029998779296875,53.25,1323100,53.25
2018-05-29,54.46500015258789,52.849998474121094,52.88999938964844,53.970001220703125,1672000,53.970001220703125
2018-05-30,54.39899826049805,53.54999923706055,54.0,54.029998779296875,1351600,54.029998779296875
2018-05-31,55.0,53.810001373291016,54.209999084472656,53.970001220703125,1242600,53.970001220703125
2018-06-01,57.709999084472656,54.345001220703125,54.54999923706055,57.47999954223633,3092700,57.47999954223633
2018-06-04,57.69900131225586,55.83000183105469,57.380001068115234,57.470001220703125,1636200,57.470001220703125
2018-06-05,58.40999984741211,56.86000061035156,57.7599983215332,57.47999954223633,2323700,57.47999954223633
2018-06-06,58.79499816894531,57.349998474121094,57.54999923706055,58.720001220703125,1428300,58.720001220703125
2018-06-07,59.0,55.090999603271484,58.86000061035156,56.400001525878906,2856800,56.400001525878906
2018-06-08,58.29999923706055,56.029998779296875,56.150001525878906,58.060001373291016,1746600,58.060001373291016
2018-06-11,58.54399871826172,57.16999816894531,58.189998626708984,58.119998931884766,1053800,58.119998931884766
2018-06-12,60.13999938964844,58.34000015258789,58.34000015258789,59.970001220703125,1565600,59.970001220703125
2018-06-13,60.349998474121094,58.880001068115234,60.15999984741211,59.560001373291016,1709200,59.560001373291016
2018-06-14,60.2400016784668,58.81999969482422,59.7400016784668,59.0,2274400,59.0
2018-06-15,60.0,58.040000915527344,58.61000061035156,59.95000076293945,1540300,59.95000076293945
2018-06-18,62.34000015258789,58.400001525878906,59.119998931884766,61.61000061035156,3628100,61.61000061035156
2018-06-19,61.27899932861328,57.08000183105469,60.27000045776367,59.79999923706055,3075500,59.79999923706055
2018-06-20,61.130001068115234,59.349998474121094,60.029998779296875,59.52000045776367,2103100,59.52000045776367
2018-06-21,59.900001525878906,56.400001525878906,59.900001525878906,56.959999084472656,3098600,56.959999084472656
2018-06-22,57.54999923706055,53.88999938964844,57.529998779296875,55.25,6460700,55.25
2018-06-25,56.150001525878906,53.16999816894531,55.25,54.470001220703125,2605200,54.470001220703125
2018-06-26,57.310001373291016,54.15999984741211,55.0,57.29999923706055,2388600,57.29999923706055
2018-06-27,59.97999954223633,54.220001220703125,58.5,54.29999923706055,2768800,54.29999923706055
2018-06-28,56.19200134277344,53.369998931884766,55.0,55.84000015258789,2483700,55.84000015258789
2018-06-29,56.83000183105469,55.36000061035156,56.43000030517578,56.02000045776367,1635100,56.02000045776367
2018-07-02,56.849998474121094,54.500999450683594,55.25,56.849998474121094,1040300,56.849998474121094
2018-07-03,57.27000045776367,55.72999954223633,56.93000030517578,56.16999816894531,724800,56.16999816894531
2018-07-05,57.470001220703125,56.4900016784668,56.61000061035156,57.0,1990700,57.0
2018-07-06,58.58000183105469,56.439998626708984,56.869998931884766,58.470001220703125,1021300,58.470001220703125
2018-07-09,59.470001220703125,57.39099884033203,59.470001220703125,58.790000915527344,1326500,58.790000915527344
2018-07-10,59.77000045776367,58.27000045776367,59.349998474121094,58.689998626708984,1062500,58.689998626708984
2018-07-11,59.415000915527344,58.279998779296875,58.5099983215332,58.72999954223633,915500,58.72999954223633
2018-07-12,61.689998626708984,59.029998779296875,59.31999969482422,61.400001525878906,1523600,61.400001525878906
2018-07-13,62.38999938964844,60.11000061035156,61.599998474121094,61.13999938964844,1299300,61.13999938964844
2018-07-16,61.779998779296875,60.79999923706055,61.119998931884766,61.13999938964844,1086000,61.13999938964844
2018-07-17,65.01000213623047,60.33000183105469,60.5099983215332,65.0,4037400,65.0
2018-07-18,65.37000274658203,63.439998626708984,65.0,63.959999084472656,1906400,63.959999084472656
2018-07-19,64.19999694824219,62.619998931884766,64.0,62.880001068115234,1206000,62.880001068115234
2018-07-20,63.2400016784668,62.20000076293945,62.939998626708984,62.65999984741211,721300,62.65999984741211
2018-07-23,64.19000244140625,61.880001068115234,62.65999984741211,63.90999984741211,1296200,63.90999984741211
2018-07-24,64.75,61.060001373291016,64.5,62.060001373291016,1917000,62.060001373291016
2018-07-25,64.51599884033203,61.7599983215332,62.09000015258789,64.13999938964844,877400,64.13999938964844
2018-07-26,64.47000122070312,62.22999954223633,63.20000076293945,64.02999877929688,1272200,64.02999877929688
2018-07-27,64.8499984741211,59.34000015258789,64.08000183105469,60.709999084472656,1910400,60.709999084472656
2018-07-30,60.97999954223633,56.130001068115234,60.40999984741211,58.0,2330600,58.0
2018-07-31,58.689998626708984,55.58000183105469,57.779998779296875,57.88999938964844,2434800,57.88999938964844
2018-08-01,59.41999816894531,57.310001373291016,57.900001525878906,59.29999923706055,2682200,59.29999923706055
2018-08-02,62.494998931884766,58.5099983215332,58.880001068115234,62.25,2233800,62.25
2018-08-03,62.88999938964844,60.79999923706055,62.5,62.0,2208400,62.0
2018-08-06,63.58700180053711,62.0099983215332,62.04999923706055,63.27000045776367,4132200,63.27000045776367
2018-08-07,77.30999755859375,72.23999786376953,74.75,75.0999984741211,12199900,75.0999984741211
2018-08-08,76.97000122070312,73.08100128173828,74.05999755859375,73.87000274658203,3642900,73.87000274658203
2018-08-09,79.19999694824219,74.0,74.5,77.91999816894531,3927800,77.91999816894531
2018-08-10,79.47000122070312,76.5999984741211,77.06999969482422,77.48999786376953,1955100,77.48999786376953
2018-08-13,78.08999633789062,73.76000213623047,77.4000015258789,74.16999816894531,3175200,74.16999816894531
2018-08-14,76.98999786376953,74.0999984741211,74.8499984741211,76.75,2774800,76.75
2018-08-15,75.87999725341797,73.11000061035156,73.13999938964844,74.62999725341797,2348700,74.62999725341797
2018-08-16,76.7300033569336,75.28800201416016,75.93000030517578,75.69999694824219,1658200,75.69999694824219
2018-08-17,77.6500015258789,74.5199966430664,75.69999694824219,77.48999786376953,1625300,77.48999786376953
2018-08-20,78.94000244140625,76.62999725341797,77.5999984741211,78.05000305175781,2064000,78.05000305175781
2018-08-21,78.0,75.5,78.0,75.79000091552734,2041400,75.79000091552734
2018-08-22,76.69000244140625,75.20999908447266,75.88999938964844,76.44000244140625,1697300,76.44000244140625
2018-08-23,81.43000030517578,76.66500091552734,77.12999725341797,80.55000305175781,4340900,80.55000305175781
2018-08-24,82.77999877929688,80.13999938964844,81.77999877929688,81.16000366210938,2743900,81.16000366210938
2018-08-27,81.9800033569336,79.83799743652344,81.5,80.30999755859375,2374100,80.30999755859375
2018-08-28,81.54000091552734,79.81999969482422,80.80000305175781,80.22000122070312,1558900,80.22000122070312
2018-08-29,81.7300033569336,79.88999938964844,80.16999816894531,80.98999786376953,1090900,80.98999786376953
2018-08-30,81.55999755859375,79.66999816894531,80.80000305175781,79.98999786376953,1237400,79.98999786376953
2018-08-31,81.19999694824219,79.51000213623047,79.51000213623047,80.66000366210938,927200,80.66000366210938
2018-09-04,87.91000366210938,81.04000091552734,82.2699966430664,87.11000061035156,3705400,87.11000061035156
2018-09-05,86.9000015258789,79.68000030517578,86.70999908447266,81.70999908447266,3697300,81.70999908447266
2018-09-06,82.48999786376953,78.91999816894531,82.0,80.5,2019200,80.5
2018-09-07,84.83000183105469,79.70999908447266,80.0,82.31999969482422,1816300,82.31999969482422
2018-09-10,84.68000030517578,81.7300033569336,82.51000213623047,84.30999755859375,1596700,84.30999755859375
2018-09-11,87.22000122070312,83.51100158691406,83.80999755859375,85.29000091552734,2296900,85.29000091552734
2018-09-12,86.21199798583984,81.5,85.9000015258789,85.01000213623047,2234800,85.01000213623047
2018-09-13,86.81999969482422,84.0,85.22000122070312,85.30999755859375,2312700,85.30999755859375
2018-09-14,87.5,85.58000183105469,85.7699966430664,87.27999877929688,1786700,87.27999877929688
2018-09-17,87.23999786376953,83.01000213623047,87.01000213623047,84.41000366210938,2230400,84.41000366210938
2018-09-18,86.80000305175781,84.31999969482422,84.3499984741211,85.37999725341797,2159300,85.37999725341797
2018-09-19,86.4800033569336,81.30000305175781,85.30999755859375,82.87000274658203,1857500,82.87000274658203
2018-09-20,85.16000366210938,81.18000030517578,83.30000305175781,84.83000183105469,2203400,84.83000183105469
2018-09-21,86.23899841308594,83.2699966430664,85.30999755859375,83.7300033569336,1462700,83.7300033569336
2018-09-24,84.38999938964844,80.7699966430664,82.3499984741211,83.36000061035156,1808200,83.36000061035156
2018-09-25,87.97000122070312,83.68000030517578,83.87000274658203,87.69999694824219,2658800,87.69999694824219
2018-09-26,88.87999725341797,84.55000305175781,88.08999633789062,84.79000091552734,1800900,84.79000091552734
2018-09-27,86.86000061035156,84.80000305175781,85.01000213623047,85.72000122070312,1211000,85.72000122070312
2018-09-28,87.87000274658203,85.5,85.5,86.27999877929688,1843800,86.27999877929688
2018-10-01,87.55000305175781,83.197998046875,87.0,83.75,2150800,83.75
2018-10-02,83.62999725341797,78.58999633789062,83.0,79.56999969482422,2844600,79.56999969482422
2018-10-03,81.81999969482422,79.62999725341797,80.3499984741211,80.9000015258789,2026800,80.9000015258789
2018-10-04,80.49500274658203,76.09300231933594,80.16000366210938,78.08999633789062,2458700,78.08999633789062
2018-10-05,79.98999786376953,74.5999984741211,78.1500015258789,76.62000274658203,2516700,76.62000274658203
2018-10-08,75.88999938964844,71.45999908447266,75.5199966430664,74.08999633789062,2975100,74.08999633789062
2018-10-09,76.8499984741211,73.81700134277344,74.69000244140625,74.33000183105469,2924900,74.33000183105469
2018-10-10,74.20999908447266,67.69599914550781,73.6500015258789,68.0199966430664,4593200,68.0199966430664
2018-10-11,72.98999786376953,67.08000183105469,67.3499984741211,69.29000091552734,4777600,69.29000091552734
2018-10-12,76.5,72.37000274658203,76.0199966430664,75.0,3636400,75.0
2018-10-15,77.13999938964844,73.0,74.62999725341797,76.12999725341797,3099100,76.12999725341797
2018-10-16,76.23999786376953,66.73999786376953,70.94999694824219,75.91999816894531,21867800,75.91999816894531
2018-10-17,76.58000183105469,71.31999969482422,76.0199966430664,74.01000213623047,5734700,74.01000213623047
2018-10-18,73.51000213623047,69.80999755859375,72.61000061035156,71.7300033569336,3997300,71.7300033569336
2018-10-19,73.70999908447266,66.33000183105469,72.61000061035156,66.41000366210938,4909000,66.41000366210938
2018-10-22,69.87999725341797,65.65399932861328,67.76000213623047,69.2300033569336,3481200,69.2300033569336
2018-10-23,70.0,66.75599670410156,66.98999786376953,69.68000030517578,2916500,69.68000030517578
2018-10-24,70.52999877929688,63.900001525878906,70.19999694824219,63.97999954223633,3188500,63.97999954223633
2018-10-25,67.75,64.32599639892578,64.5,67.3499984741211,3504000,67.3499984741211
2018-10-26,66.81999969482422,62.43000030517578,64.5,65.8499984741211,2865700,65.8499984741211
2018-10-29,68.70999908447266,64.5999984741211,67.37999725341797,65.9800033569336,3363900,65.9800033569336
2018-10-30,70.13999938964844,64.19000244140625,65.08999633789062,69.83999633789062,3887000,69.83999633789062
2018-10-31,76.1500015258789,71.66999816894531,72.37000274658203,75.22000122070312,4859700,75.22000122070312
2018-11-01,76.9000015258789,73.25,75.29000091552734,76.62999725341797,3073700,76.62999725341797
2018-11-02,77.94999694824219,73.31999969482422,76.48999786376953,74.31999969482422,2474100,74.31999969482422
2018-11-05,74.31999969482422,70.18000030517578,74.31999969482422,71.7699966430664,3426300,71.7699966430664
2018-11-06,74.56700134277344,69.95999908447266,72.47000122070312,71.0199966430664,5630200,71.0199966430664
2018-11-07,96.97000122070312,80.69999694824219,82.25,96.19000244140625,25260900,96.19000244140625
2018-11-08,98.88999938964844,91.66000366210938,94.6500015258789,91.94999694824219,9755100,91.94999694824219
2018-11-09,95.88999938964844,89.87000274658203,90.5,92.2300033569336,8338100,92.2300033569336
2018-11-12,92.08000183105469,81.77999877929688,91.66000366210938,83.33999633789062,9714800,83.33999633789062
2018-11-13,87.79000091552734,83.69000244140625,84.12999725341797,85.0999984741211,4623600,85.0999984741211
2018-11-14,87.44999694824219,82.5999984741211,86.7300033569336,83.95999908447266,4511300,83.95999908447266
2018-11-15,91.66999816894531,82.22000122070312,82.54000091552734,89.77999877929688,7371000,89.77999877929688
2018-11-16,90.43000030517578,87.01000213623047,87.9800033569336,89.16999816894531,3829300,89.16999816894531
2018-11-19,90.0,76.33999633789062,89.0,76.9000015258789,9198600,76.9000015258789
2018-11-20,78.63999938964844,71.55500030517578,71.61000061035156,75.88999938964844,5957900,75.88999938964844
2018-11-21,78.70999908447266,75.33999633789062,78.5,76.95999908447266,3926600,76.95999908447266
2018-11-23,81.41000366210938,75.06099700927734,75.5,80.62000274658203,2582700,80.62000274658203
2018-11-26,88.87999725341797,82.19000244140625,82.2699966430664,87.41000366210938,7072400,87.41000366210938
2018-11-27,87.19999694824219,84.5,86.23999786376953,86.5199966430664,4676700,86.5199966430664
2018-11-28,92.19000244140625,85.61000061035156,89.0,91.80999755859375,6637700,91.80999755859375
2018-11-29,93.54000091552734,90.36000061035156,90.5999984741211,92.4800033569336,4336400,92.4800033569336
2018-11-30,94.93000030517578,91.95999908447266,92.44000244140625,94.48999786376953,3985600,94.48999786376953
2018-12-03,97.55000305175781,92.59200286865234,97.31999969482422,95.62000274658203,5702400,95.62000274658203
2018-12-04,96.77999877929688,89.36000061035156,93.77999877929688,89.69999694824219,5551800,89.69999694824219
2018-12-06,96.44999694824219,85.68099975585938,87.25,96.19000244140625,6160800,96.19000244140625
2018-12-07,96.37100219726562,87.76000213623047,95.26000213623047,89.33000183105469,4400600,89.33000183105469
2018-12-10,92.25,87.72000122070312,88.26000213623047,91.83999633789062,3908800,91.83999633789062
2018-12-11,94.24299621582031,90.91999816894531,94.08999633789062,92.72000122070312,3182800,92.72000122070312
2018-12-12,100.47000122070312,93.65899658203125,94.48999786376953,96.66999816894531,7784300,96.66999816894531
2018-12-13,98.9000015258789,93.0199966430664,97.1500015258789,95.97000122070312,3779300,95.97000122070312
2018-12-14,95.02999877929688,90.69999694824219,93.7300033569336,91.62000274658203,5062800,91.62000274658203
2018-12-17,91.19000244140625,86.70999908447266,90.55000305175781,87.44999694824219,4565100,87.44999694824219
2018-12-18,89.81800079345703,82.79000091552734,89.23999786376953,85.29000091552734,5954900,85.29000091552734
2018-12-19,89.91000366210938,84.05000305175781,85.61000061035156,85.69999694824219,4200100,85.69999694824219
2018-12-20,86.6500015258789,76.0199966430664,84.48999786376953,80.4800033569336,7151900,80.4800033569336
2018-12-21,81.0,75.08999633789062,80.29000091552734,76.1500015258789,5181900,76.1500015258789
2018-12-24,77.56999969482422,73.1500015258789,74.0,75.58999633789062,1736900,75.58999633789062
2018-12-26,85.5999984741211,76.56999969482422,76.56999969482422,85.38999938964844,5374600,85.38999938964844
2018-12-27,87.91000366210938,81.1500015258789,83.83000183105469,87.37999725341797,4095500,87.37999725341797
2018-12-28,88.0999984741211,83.7300033569336,88.0,86.0199966430664,4093100,86.0199966430664
2018-12-31,91.0999984741211,86.37000274658203,87.08000183105469,89.30000305175781,4252700,89.30000305175781
2019-01-02,88.95999908447266,84.0999984741211,87.44999694824219,86.97000122070312,3818500,86.97000122070312
2019-01-03,86.4800033569336,80.12999725341797,85.05999755859375,81.25,4784200,81.25
2019-01-04,89.4000015258789,83.19999694824219,84.22000122070312,88.55000305175781,3718600,88.55000305175781
2019-01-07,99.4000015258789,91.25,91.30999755859375,96.9800033569336,8586000,96.9800033569336
2019-01-08,100.94999694824219,92.58000183105469,98.63999938964844,97.5999984741211,5503300,97.5999984741211
2019-01-09,98.05999755859375,94.75,97.5,96.41000366210938,2535500,96.41000366210938
2019-01-10,97.8499984741211,93.56999969482422,94.87000274658203,96.19999694824219,2227600,96.19999694824219
2019-01-11,101.69999694824219,95.63800048828125,96.0,96.83000183105469,6437300,96.83000183105469
2019-01-14,98.80000305175781,94.02999877929688,95.12000274658203,97.76000213623047,3685900,97.76000213623047
2019-01-15,101.82499694824219,97.36100006103516,98.5199966430664,100.44999694824219,3474100,100.44999694824219
2019-01-16,103.75,97.58999633789062,102.0,99.97000122070312,4707500,99.97000122070312
2019-01-17,104.12000274658203,99.2300033569336,100.11000061035156,102.11000061035156,4631600,102.11000061035156
2019-01-18,106.0,101.36000061035156,103.9800033569336,105.31999969482422,4084300,105.31999969482422
2019-01-22,104.05000305175781,98.3949966430664,104.0199966430664,99.5199966430664,3935400,99.5199966430664
2019-01-23,103.25,99.05999755859375,101.33000183105469,100.4000015258789,2954600,100.4000015258789
2019-01-24,102.43000030517578,100.24199676513672,100.41000366210938,101.55000305175781,2313500,101.55000305175781
2019-01-25,105.48999786376953,101.87999725341797,102.0999984741211,104.18000030517578,2606900,104.18000030517578
2019-01-28,103.33000183105469,99.9000015258789,102.9000015258789,102.16000366210938,2317100,102.16000366210938
2019-01-29,103.05999755859375,99.12000274658203,102.87999725341797,99.30000305175781,2295400,99.30000305175781
2019-01-30,104.02999877929688,99.79000091552734,101.08000183105469,103.81999969482422,2568000,103.81999969482422
2019-01-31,113.32499694824219,103.80000305175781,103.80000305175781,111.31999969482422,7323200,111.31999969482422
2019-02-01,113.5,110.26399993896484,111.30999755859375,112.87999725341797,4419100,112.87999725341797
2019-02-04,114.66000366210938,112.4000015258789,113.13999938964844,113.37999725341797,3008400,113.37999725341797
2019-02-05,116.54000091552734,113.01000213623047,113.81999969482422,113.88999938964844,3850700,113.88999938964844
2019-02-06,114.98999786376953,109.4000015258789,114.12000274658203,113.33999633789062,2603800,113.33999633789062
2019-02-07,111.53800201416016,108.26000213623047,111.5,110.12000274658203,3291300,110.12000274658203
2019-02-08,114.91600036621094,108.80000305175781,108.87999725341797,114.77999877929688,3163500,114.77999877929688
2019-02-11,119.0,113.70999908447266,118.5,115.75,6263700,115.75
2019-02-12,116.66999816894531,114.45999908447266,115.75,115.29000091552734,6914400,115.29000091552734
2019-02-13,116.88999938964844,105.5999984741211,114.19000244140625,106.87000274658203,19247600,106.87000274658203
2019-02-14,108.55000305175781,103.25,105.47000122070312,107.2699966430664,9540200,107.2699966430664
2019-02-15,107.65799713134766,104.25,106.19999694824219,106.8499984741211,5239300,106.8499984741211
2019-02-19,112.8499984741211,106.08000183105469,106.08999633789062,112.56999969482422,7687900,112.56999969482422
2019-02-20,119.25,112.75,113.0,116.30000305175781,8181100,116.30000305175781
2019-02-21,116.50900268554688,111.72000122070312,116.44000244140625,113.16000366210938,4667400,113.16000366210938
2019-02-22,116.61000061035156,113.62999725341797,114.0999984741211,116.55000305175781,3173000,116.55000305175781
2019-02-25,121.0999984741211,116.32599639892578,118.56999969482422,118.2699966430664,4416600,118.2699966430664
2019-02-26,118.95999908447266,116.25,117.0999984741211,116.91999816894531,2456800,116.91999816894531
2019-02-27,119.47000122070312,116.3499984741211,116.41000366210938,119.45999908447266,3262600,119.45999908447266
2019-02-28,122.37000274658203,118.33000183105469,118.8499984741211,121.69000244140625,4219200,121.69000244140625
2019-03-01,123.9000015258789,121.2699966430664,123.25,123.52999877929688,3026100,123.52999877929688
2019-03-04,124.8499984741211,112.25299835205078,124.70999908447266,116.0999984741211,6576900,116.0999984741211
2019-03-05,115.23999786376953,110.5999984741211,115.0,115.18000030517578,4731500,115.18000030517578
2019-03-06,116.4800033569336,113.11000061035156,115.0,114.62999725341797,3212500,114.62999725341797
2019-03-07,117.56999969482422,113.70999908447266,114.73999786376953,115.5,4130700,115.5
2019-03-08,117.0,111.5199966430664,113.22000122070312,116.80000305175781,2833900,116.80000305175781
2019-03-11,123.0,117.33000183105469,117.4000015258789,122.08999633789062,4003100,122.08999633789062
2019-03-12,126.95999908447266,121.33999633789062,122.87000274658203,125.69999694824219,4188400,125.69999694824219
2019-03-13,129.42999267578125,125.91000366210938,126.66000366210938,126.77999877929688,4109900,126.77999877929688
2019-03-14,131.36000061035156,126.41200256347656,127.01000213623047,130.0,3826800,130.0
2019-03-15,130.72000122070312,127.44000244140625,129.19000244140625,129.41000366210938,3593000,129.41000366210938
2019-03-18,133.32000732421875,127.16000366210938,131.3000030517578,129.35000610351562,3785400,129.35000610351562
2019-03-19,131.75999450683594,128.57000732421875,130.1199951171875,130.3800048828125,3247100,130.3800048828125
2019-03-20,132.38999938964844,127.68000030517578,130.10000610351562,130.64999389648438,2772600,130.64999389648438
2019-03-21,136.0,130.02000427246094,130.17999267578125,135.66000366210938,3838400,135.66000366210938
2019-03-22,135.78700256347656,128.66000366210938,135.0,129.52999877929688,4193900,129.52999877929688
2019-03-25,132.88999938964844,127.2699966430664,129.52000427246094,131.5500030517578,4336900,131.5500030517578
2019-03-26,134.85000610351562,130.47000122070312,133.50999450683594,131.8699951171875,2608100,131.8699951171875
2019-03-27,132.57699584960938,124.62000274658203,132.39999389648438,126.4800033569336,4030000,126.4800033569336
2019-03-28,128.3699951171875,124.12000274658203,127.6500015258789,125.7300033569336,3610300,125.7300033569336
2019-03-29,130.72000122070312,126.13999938964844,127.1500015258789,129.17999267578125,3286400,129.17999267578125
2019-04-01,131.9499969482422,125.31999969482422,131.5800018310547,127.66999816894531,3895900,127.66999816894531
2019-04-02,130.0,125.87999725341797,127.01000213623047,129.7899932861328,2379800,129.7899932861328
2019-04-03,131.64999389648438,128.60000610351562,130.52000427246094,129.3800048828125,1833700,129.3800048828125
2019-04-04,130.22999572753906,118.4800033569336,129.9199981689453,122.37000274658203,7238300,122.37000274658203
2019-04-05,123.91000366210938,120.54000091552734,123.1500015258789,122.41999816894531,4574200,122.41999816894531
2019-04-08,122.4000015258789,119.0999984741211,121.66999816894531,122.12000274658203,2707100,122.12000274658203
2019-04-09,124.93000030517578,121.58499908447266,122.2300033569336,122.69999694824219,2842100,122.69999694824219
2019-04-10,125.79000091552734,122.43000030517578,123.44000244140625,125.22000122070312,2188800,125.22000122070312
2019-04-11,126.47000122070312,123.0999984741211,125.80000305175781,125.69999694824219,1875900,125.69999694824219
2019-04-12,126.75,123.59700012207031,126.26000213623047,125.72000122070312,2454900,125.72000122070312
2019-04-15,127.77999877929688,123.80999755859375,125.30000305175781,127.19000244140625,2375100,127.19000244140625
2019-04-16,130.14999389648438,125.95999908447266,126.75,126.55999755859375,2843500,126.55999755859375
2019-04-17,127.3499984741211,121.5999984741211,127.19999694824219,123.08000183105469,2732500,123.08000183105469
2019-04-18,123.0,118.55999755859375,122.30000305175781,122.12999725341797,4225500,122.12999725341797
2019-04-22,128.3000030517578,121.52999877929688,122.0,127.95999908447266,2723700,127.95999908447266
2019-04-23,130.30999755859375,126.94000244140625,129.16000366210938,129.27000427246094,2988100,129.27000427246094
2019-04-24,131.1999969482422,128.6750030517578,130.10000610351562,129.99000549316406,2192400,129.99000549316406
2019-04-25,134.3699951171875,129.52999877929688,131.22999572753906,132.25,2893000,132.25
2019-04-26,135.19000244140625,131.00999450683594,133.0,134.9199981689453,2846200,134.9199981689453
2019-04-29,137.39999389648438,134.33999633789062,135.89999389648438,135.99000549316406,3666500,135.99000549316406
2019-04-30,137.19000244140625,132.00999450683594,134.10000610351562,137.13999938964844,5250300,137.13999938964844
2019-05-01,142.1999969482422,128.2100067138672,142.1999969482422,128.57000732421875,14128200,128.57000732421875
2019-05-02,134.3800048828125,126.75,127.77999877929688,131.94000244140625,5990300,131.94000244140625
2019-05-03,132.25999450683594,129.02000427246094,131.94000244140625,130.8699951171875,3793800,130.8699951171875
2019-05-06,132.27999877929688,126.80000305175781,127.04000091552734,131.8000030517578,4062800,131.8000030517578
2019-05-07,132.94000244140625,127.54000091552734,132.33999633789062,129.5800018310547,4567900,129.5800018310547
2019-05-08,132.9459991455078,128.37899780273438,129.0,131.66000366210938,2982700,131.66000366210938
2019-05-09,133.25,126.81999969482422,130.67999267578125,133.1300048828125,3957800,133.1300048828125
2019-05-10,136.33999633789062,130.14300537109375,132.60000610351562,134.27999877929688,4840100,134.27999877929688
2019-05-13,131.99000549316406,122.55999755859375,130.89999389648438,123.38999938964844,7305200,123.38999938964844
2019-05-14,131.15199279785156,124.21800231933594,126.0,131.0800018310547,5825700,131.0800018310547
2019-05-15,135.5,127.81999969482422,127.81999969482422,135.4499969482422,5056000,135.4499969482422
2019-05-16,144.6199951171875,136.0,136.02999877929688,142.3699951171875,7630900,142.3699951171875
2019-05-17,143.0500030517578,137.89999389648438,140.63999938964844,140.49000549316406,5268000,140.49000549316406
2019-05-20,140.46800231933594,136.13999938964844,137.5,137.66000366210938,3715300,137.66000366210938
2019-05-21,141.3800048828125,137.6300048828125,139.0,137.7100067138672,3340100,137.7100067138672
2019-05-22,141.16000366210938,136.7429962158203,136.94000244140625,137.83999633789062,2631600,137.83999633789062
2019-05-23,136.60000610351562,130.85000610351562,136.47999572753906,132.9600067138672,3492800,132.9600067138672
2019-05-24,136.80999755859375,133.10000610351562,134.6999969482422,133.89999389648438,3394600,133.89999389648438
