Date,High,Low,Open,Close,Volume,Adj Close
2015-01-02,15.770000457763672,15.770000457763672,15.770000457763672,15.770000457763672,0.0,15.770000457763672
2015-01-05,15.649999618530273,15.649999618530273,15.649999618530273,15.649999618530273,0.0,15.649999618530273
2015-01-06,12.6899995803833,12.6899995803833,12.6899995803833,12.6899995803833,0.0,12.6899995803833
2015-01-07,15.4399995803833,15.4399995803833,15.4399995803833,15.4399995803833,600.0,15.4399995803833
2015-01-08,15.4399995803833,15.4399995803833,15.4399995803833,15.4399995803833,0.0,15.4399995803833
2015-01-09,15.510000228881836,15.510000228881836,15.510000228881836,15.510000228881836,0.0,15.510000228881836
2015-01-12,14.390000343322754,14.390000343322754,14.390000343322754,14.390000343322754,0.0,14.390000343322754
2015-01-13,14.9399995803833,14.710000038146973,14.9399995803833,14.720000267028809,6400.0,14.720000267028809
2015-01-14,14.380000114440918,14.350000381469727,14.359999656677246,14.380000114440918,71900.0,14.380000114440918
2015-01-15,14.649999618530273,14.649999618530273,14.649999618530273,14.649999618530273,400.0,14.649999618530273
2015-01-16,15.050000190734863,14.930000305175781,14.949999809265137,15.050000190734863,1200.0,15.050000190734863
2015-01-20,15.050000190734863,15.050000190734863,15.050000190734863,15.050000190734863,0.0,15.050000190734863
2015-01-21,15.119999885559082,15.119999885559082,15.119999885559082,15.119999885559082,300.0,15.119999885559082
2015-01-22,14.979999542236328,14.890000343322754,14.970000267028809,14.979999542236328,600.0,14.979999542236328
2015-01-23,14.979999542236328,14.979999542236328,14.979999542236328,14.979999542236328,0.0,14.979999542236328
2015-01-26,14.949999809265137,14.819999694824219,14.850000381469727,14.949999809265137,700.0,14.949999809265137
2015-01-27,14.949999809265137,14.949999809265137,14.949999809265137,14.949999809265137,0.0,14.949999809265137
2015-01-28,14.5600004196167,14.550000190734863,14.550000190734863,14.550000190734863,30300.0,14.550000190734863
2015-01-29,14.470000267028809,14.470000267028809,14.470000267028809,14.470000267028809,200.0,14.470000267028809
2015-01-30,14.760000228881836,14.670000076293945,14.670000076293945,14.75,48000.0,14.75
2015-02-02,14.829999923706055,14.739999771118164,14.800000190734863,14.760000228881836,34800.0,14.760000228881836
2015-02-03,15.199999809265137,14.979999542236328,15.050000190734863,15.109999656677246,35100.0,15.109999656677246
2015-02-04,15.109999656677246,14.979999542236328,15.0,15.069999694824219,33400.0,15.069999694824219
2015-02-05,15.130000114440918,14.9399995803833,14.970000267028809,15.069999694824219,23700.0,15.069999694824219
2015-02-06,15.079999923706055,14.859999656677246,15.079999923706055,14.930000305175781,500.0,14.930000305175781
2015-02-09,15.300000190734863,14.979999542236328,15.300000190734863,15.050000190734863,800.0,15.050000190734863
2015-02-10,15.050000190734863,15.050000190734863,15.050000190734863,15.050000190734863,0.0,15.050000190734863
2015-02-11,14.229999542236328,14.229999542236328,14.229999542236328,14.229999542236328,0.0,14.229999542236328
2015-02-12,14.970000267028809,14.75,14.930000305175781,14.75,600.0,14.75
2015-02-13,14.75,14.75,14.75,14.75,0.0,14.75
2015-02-17,14.84000015258789,14.0,14.0,14.829999923706055,9500.0,14.829999923706055
2015-02-18,14.920000076293945,14.90999984741211,14.920000076293945,14.90999984741211,1000.0,14.90999984741211
2015-02-19,14.800000190734863,14.789999961853027,14.800000190734863,14.800000190734863,2800.0,14.800000190734863
2015-02-20,14.800000190734863,14.800000190734863,14.800000190734863,14.800000190734863,0.0,14.800000190734863
2015-02-23,14.670000076293945,14.649999618530273,14.649999618530273,14.670000076293945,300.0,14.670000076293945
2015-02-24,14.960000038146973,14.800000190734863,14.800000190734863,14.90999984741211,800.0,14.90999984741211
2015-02-25,14.90999984741211,14.90999984741211,14.90999984741211,14.90999984741211,0.0,14.90999984741211
2015-02-26,15.029999732971191,15.020000457763672,15.029999732971191,15.020000457763672,300.0,15.020000457763672
2015-02-27,14.979999542236328,14.930000305175781,14.930000305175781,14.979999542236328,300.0,14.979999542236328
2015-03-02,14.979999542236328,14.979999542236328,14.979999542236328,14.979999542236328,0.0,14.979999542236328
2015-03-03,12.270000457763672,12.270000457763672,12.270000457763672,12.270000457763672,0.0,12.270000457763672
2015-03-04,14.789999961853027,14.789999961853027,14.789999961853027,14.789999961853027,0.0,14.789999961853027
2015-03-05,10.710000038146973,10.710000038146973,10.710000038146973,10.710000038146973,0.0,10.710000038146973
2015-03-06,12.170000076293945,12.170000076293945,12.170000076293945,12.170000076293945,0.0,12.170000076293945
2015-03-09,14.710000038146973,14.710000038146973,14.710000038146973,14.710000038146973,0.0,14.710000038146973
2015-03-10,12.229999542236328,12.229999542236328,12.229999542236328,12.229999542236328,0.0,12.229999542236328
2015-03-11,12.050000190734863,12.050000190734863,12.050000190734863,12.050000190734863,0.0,12.050000190734863
2015-03-12,14.819999694824219,14.770000457763672,14.770000457763672,14.819999694824219,800.0,14.819999694824219
2015-03-13,14.819999694824219,14.819999694824219,14.819999694824219,14.819999694824219,0.0,14.819999694824219
2015-03-16,12.15999984741211,12.15999984741211,12.15999984741211,12.15999984741211,0.0,12.15999984741211
2015-03-17,14.710000038146973,14.699999809265137,14.699999809265137,14.710000038146973,400.0,14.710000038146973
2015-03-18,14.579999923706055,14.550000190734863,14.550000190734863,14.569999694824219,35100.0,14.569999694824219
2015-03-19,14.569999694824219,14.569999694824219,14.569999694824219,14.569999694824219,0.0,14.569999694824219
2015-03-20,13.789999961853027,13.789999961853027,13.789999961853027,13.789999961853027,0.0,13.789999961853027
2015-03-23,16.299999237060547,15.40999984741211,15.40999984741211,15.960000038146973,53900.0,15.960000038146973
2015-03-24,15.329999923706055,15.260000228881836,15.329999923706055,15.260000228881836,700.0,15.260000228881836
2015-03-25,15.949999809265137,15.229999542236328,15.949999809265137,15.239999771118164,4500.0,15.239999771118164
2015-03-26,15.380000114440918,15.380000114440918,15.380000114440918,15.380000114440918,500.0,15.380000114440918
2015-03-27,15.279999732971191,15.100000381469727,15.279999732971191,15.149999618530273,2800.0,15.149999618530273
2015-03-30,15.149999618530273,15.149999618530273,15.149999618530273,15.149999618530273,0.0,15.149999618530273
2015-03-31,15.149999618530273,15.149999618530273,15.149999618530273,15.149999618530273,0.0,15.149999618530273
2015-04-01,15.149999618530273,15.149999618530273,15.149999618530273,15.149999618530273,0.0,15.149999618530273
2015-04-02,15.149999618530273,15.149999618530273,15.149999618530273,15.149999618530273,0.0,15.149999618530273
2015-04-06,15.020000457763672,14.460000038146973,15.020000457763672,15.010000228881836,37700.0,15.010000228881836
2015-04-07,15.010000228881836,15.010000228881836,15.010000228881836,15.010000228881836,0.0,15.010000228881836
2015-04-08,15.010000228881836,15.010000228881836,15.010000228881836,15.010000228881836,0.0,15.010000228881836
2015-04-09,15.010000228881836,15.010000228881836,15.010000228881836,15.010000228881836,0.0,15.010000228881836
2015-04-10,15.010000228881836,15.010000228881836,15.010000228881836,15.010000228881836,0.0,15.010000228881836
2015-04-13,15.010000228881836,15.010000228881836,15.010000228881836,15.010000228881836,0.0,15.010000228881836
2015-04-14,15.010000228881836,15.010000228881836,15.010000228881836,15.010000228881836,0.0,15.010000228881836
2015-04-15,15.010000228881836,15.010000228881836,15.010000228881836,15.010000228881836,0.0,15.010000228881836
2015-04-16,15.359999656677246,14.819999694824219,15.359999656677246,15.359999656677246,1600.0,15.359999656677246
2015-04-17,15.390000343322754,15.359999656677246,15.359999656677246,15.390000343322754,55700.0,15.390000343322754
2015-04-20,15.390000343322754,15.390000343322754,15.390000343322754,15.390000343322754,0.0,15.390000343322754
2015-04-21,15.199999809265137,15.199999809265137,15.199999809265137,15.199999809265137,100.0,15.199999809265137
2015-04-22,15.199999809265137,15.199999809265137,15.199999809265137,15.199999809265137,0.0,15.199999809265137
2015-04-23,15.050000190734863,15.050000190734863,15.050000190734863,15.050000190734863,100.0,15.050000190734863
2015-04-24,15.050000190734863,15.050000190734863,15.050000190734863,15.050000190734863,0.0,15.050000190734863
2015-04-27,15.050000190734863,15.050000190734863,15.050000190734863,15.050000190734863,0.0,15.050000190734863
2015-04-28,15.6899995803833,15.6899995803833,15.6899995803833,15.6899995803833,1100.0,15.6899995803833
2015-04-29,15.720000267028809,15.710000038146973,15.720000267028809,15.710000038146973,32400.0,15.710000038146973
2015-04-30,15.710000038146973,15.710000038146973,15.710000038146973,15.710000038146973,0.0,15.710000038146973
2015-05-01,15.710000038146973,15.710000038146973,15.710000038146973,15.710000038146973,0.0,15.710000038146973
2015-05-04,16.229999542236328,16.229999542236328,16.229999542236328,16.229999542236328,700.0,16.229999542236328
2015-05-05,16.479999542236328,16.479999542236328,16.479999542236328,16.479999542236328,100.0,16.479999542236328
2015-05-06,16.479999542236328,16.479999542236328,16.479999542236328,16.479999542236328,0.0,16.479999542236328
2015-05-07,15.210000038146973,15.210000038146973,15.210000038146973,15.210000038146973,0.0,15.210000038146973
2015-05-08,15.210000038146973,15.210000038146973,15.210000038146973,15.210000038146973,0.0,15.210000038146973
2015-05-11,15.210000038146973,15.210000038146973,15.210000038146973,15.210000038146973,0.0,15.210000038146973
2015-05-12,15.210000038146973,15.210000038146973,15.210000038146973,15.210000038146973,0.0,15.210000038146973
2015-05-13,15.210000038146973,15.210000038146973,15.210000038146973,15.210000038146973,0.0,15.210000038146973
2015-05-14,15.210000038146973,15.210000038146973,15.210000038146973,15.210000038146973,0.0,15.210000038146973
2015-05-15,15.210000038146973,15.210000038146973,15.210000038146973,15.210000038146973,0.0,15.210000038146973
2015-05-18,15.210000038146973,15.210000038146973,15.210000038146973,15.210000038146973,0.0,15.210000038146973
2015-05-19,15.210000038146973,15.210000038146973,15.210000038146973,15.210000038146973,0.0,15.210000038146973
2015-05-20,15.5,15.5,15.5,15.5,100.0,15.5
2015-05-21,15.5,15.5,15.5,15.5,0.0,15.5
2015-05-22,15.300000190734863,14.739999771118164,15.300000190734863,15.289999961853027,15000.0,15.289999961853027
2015-05-26,15.289999961853027,15.289999961853027,15.289999961853027,15.289999961853027,0.0,15.289999961853027
2015-05-27,15.289999961853027,15.289999961853027,15.289999961853027,15.289999961853027,0.0,15.289999961853027
2015-05-28,15.25,15.010000228881836,15.25,15.109999656677246,500.0,15.109999656677246
2015-05-29,15.109999656677246,15.109999656677246,15.109999656677246,15.109999656677246,0.0,15.109999656677246
2015-06-01,15.029999732971191,15.029999732971191,15.029999732971191,15.029999732971191,100.0,15.029999732971191
2015-06-02,15.029999732971191,15.029999732971191,15.029999732971191,15.029999732971191,0.0,15.029999732971191
2015-06-03,15.029999732971191,15.029999732971191,15.029999732971191,15.029999732971191,0.0,15.029999732971191
2015-06-04,15.0,14.9399995803833,15.0,14.9399995803833,500.0,14.9399995803833
2015-06-05,15.100000381469727,15.100000381469727,15.100000381469727,15.100000381469727,200.0,15.100000381469727
2015-06-08,15.100000381469727,15.100000381469727,15.100000381469727,15.100000381469727,0.0,15.100000381469727
2015-06-09,15.100000381469727,15.100000381469727,15.100000381469727,15.100000381469727,0.0,15.100000381469727
2015-06-10,15.100000381469727,15.100000381469727,15.100000381469727,15.100000381469727,0.0,15.100000381469727
2015-06-11,15.100000381469727,15.100000381469727,15.100000381469727,15.100000381469727,0.0,15.100000381469727
2015-06-12,15.100000381469727,15.100000381469727,15.100000381469727,15.100000381469727,0.0,15.100000381469727
2015-06-15,15.100000381469727,15.100000381469727,15.100000381469727,15.100000381469727,0.0,15.100000381469727
2015-06-16,15.100000381469727,15.100000381469727,15.100000381469727,15.100000381469727,0.0,15.100000381469727
2015-06-17,14.529999732971191,14.510000228881836,14.510000228881836,14.520000457763672,35100.0,14.520000457763672
2015-06-18,14.520000457763672,14.520000457763672,14.520000457763672,14.520000457763672,0.0,14.520000457763672
2015-06-19,14.520000457763672,14.520000457763672,14.520000457763672,14.520000457763672,0.0,14.520000457763672
2015-06-22,14.520000457763672,14.520000457763672,14.520000457763672,14.520000457763672,0.0,14.520000457763672
2015-06-23,14.520000457763672,14.520000457763672,14.520000457763672,14.520000457763672,0.0,14.520000457763672
2015-06-24,14.520000457763672,14.520000457763672,14.520000457763672,14.520000457763672,0.0,14.520000457763672
2015-06-25,14.479999542236328,14.420000076293945,14.460000038146973,14.479999542236328,1200.0,14.479999542236328
2015-06-26,14.479999542236328,14.479999542236328,14.479999542236328,14.479999542236328,0.0,14.479999542236328
2015-06-29,14.479999542236328,14.479999542236328,14.479999542236328,14.479999542236328,0.0,14.479999542236328
2015-06-30,14.479999542236328,14.479999542236328,14.479999542236328,14.479999542236328,0.0,14.479999542236328
2015-07-01,14.479999542236328,14.479999542236328,14.479999542236328,14.479999542236328,0.0,14.479999542236328
2015-07-02,14.479999542236328,14.479999542236328,14.479999542236328,14.479999542236328,0.0,14.479999542236328
2015-07-06,13.789999961853027,13.789999961853027,13.789999961853027,13.789999961853027,0.0,13.789999961853027
2015-07-07,13.5600004196167,13.539999961853027,13.539999961853027,13.5600004196167,4900.0,13.5600004196167
2015-07-08,13.720000267028809,13.600000381469727,13.600000381469727,13.630000114440918,1600.0,13.630000114440918
2015-07-09,13.630000114440918,13.630000114440918,13.630000114440918,13.630000114440918,0.0,13.630000114440918
2015-07-10,13.630000114440918,13.630000114440918,13.630000114440918,13.630000114440918,0.0,13.630000114440918
2015-07-13,13.630000114440918,13.630000114440918,13.630000114440918,13.630000114440918,0.0,13.630000114440918
2015-07-14,14.079999923706055,14.079999923706055,14.079999923706055,14.079999923706055,400.0,14.079999923706055
2015-07-15,14.020000457763672,13.8100004196167,14.020000457763672,14.0,6300.0,14.0
2015-07-16,14.0,14.0,14.0,14.0,0.0,14.0
2015-07-17,14.0,14.0,14.0,14.0,0.0,14.0
2015-07-20,14.0,14.0,14.0,14.0,0.0,14.0
2015-07-21,14.0,14.0,14.0,14.0,0.0,14.0
2015-07-22,13.550000190734863,12.65999984741211,13.550000190734863,13.539999961853027,3100.0,13.539999961853027
2015-07-23,13.319999694824219,13.300000190734863,13.319999694824219,13.319999694824219,12100.0,13.319999694824219
2015-07-24,13.319999694824219,13.319999694824219,13.319999694824219,13.319999694824219,100.0,13.319999694824219
2015-07-27,13.210000038146973,13.180000305175781,13.180000305175781,13.210000038146973,800.0,13.210000038146973
2015-07-28,13.210000038146973,13.210000038146973,13.210000038146973,13.210000038146973,0.0,13.210000038146973
2015-07-29,13.430000305175781,13.069999694824219,13.069999694824219,13.430000305175781,900.0,13.430000305175781
2015-07-30,13.260000228881836,13.260000228881836,13.260000228881836,13.260000228881836,100.0,13.260000228881836
2015-07-31,13.260000228881836,13.260000228881836,13.260000228881836,13.260000228881836,0.0,13.260000228881836
2015-08-03,13.039999961853027,13.039999961853027,13.039999961853027,13.039999961853027,200.0,13.039999961853027
2015-08-04,13.039999961853027,13.039999961853027,13.039999961853027,13.039999961853027,0.0,13.039999961853027
2015-08-05,13.0,13.0,13.0,13.0,200.0,13.0
2015-08-06,12.960000038146973,12.5600004196167,12.960000038146973,12.5600004196167,300.0,12.5600004196167
2015-08-07,12.5600004196167,12.5600004196167,12.5600004196167,12.5600004196167,0.0,12.5600004196167
2015-08-10,12.5600004196167,12.5600004196167,12.5600004196167,12.5600004196167,0.0,12.5600004196167
2015-08-11,12.5600004196167,12.5600004196167,12.5600004196167,12.5600004196167,0.0,12.5600004196167
2015-08-12,12.5600004196167,12.5600004196167,12.5600004196167,12.5600004196167,0.0,12.5600004196167
2015-08-13,12.5600004196167,12.5600004196167,12.5600004196167,12.5600004196167,0.0,12.5600004196167
2015-08-14,12.5600004196167,12.5600004196167,12.5600004196167,12.5600004196167,0.0,12.5600004196167
2015-08-17,12.5600004196167,12.5600004196167,12.5600004196167,12.5600004196167,0.0,12.5600004196167
2015-08-18,12.5600004196167,12.5600004196167,12.5600004196167,12.5600004196167,0.0,12.5600004196167
2015-08-19,12.5600004196167,12.5600004196167,12.5600004196167,12.5600004196167,0.0,12.5600004196167
2015-08-20,12.5600004196167,12.5600004196167,12.5600004196167,12.5600004196167,0.0,12.5600004196167
2015-08-21,12.5600004196167,12.5600004196167,12.5600004196167,12.5600004196167,0.0,12.5600004196167
2015-08-24,12.5600004196167,12.5600004196167,12.5600004196167,12.5600004196167,0.0,12.5600004196167
2015-08-25,12.5600004196167,12.5600004196167,12.5600004196167,12.5600004196167,0.0,12.5600004196167
2015-08-26,12.199999809265137,12.199999809265137,12.199999809265137,12.199999809265137,800.0,12.199999809265137
2015-08-27,12.199999809265137,12.199999809265137,12.199999809265137,12.199999809265137,0.0,12.199999809265137
2015-08-28,12.199999809265137,12.199999809265137,12.199999809265137,12.199999809265137,0.0,12.199999809265137
2015-08-31,12.65999984741211,12.649999618530273,12.65999984741211,12.649999618530273,25100.0,12.649999618530273
2015-09-01,12.649999618530273,12.649999618530273,12.649999618530273,12.649999618530273,0.0,12.649999618530273
2015-09-02,12.649999618530273,12.649999618530273,12.649999618530273,12.649999618530273,0.0,12.649999618530273
2015-09-03,12.890000343322754,12.890000343322754,12.890000343322754,12.890000343322754,200.0,12.890000343322754
2015-09-04,12.890000343322754,12.890000343322754,12.890000343322754,12.890000343322754,0.0,12.890000343322754
2015-09-08,12.890000343322754,12.890000343322754,12.890000343322754,12.890000343322754,0.0,12.890000343322754
2015-09-09,12.890000343322754,12.890000343322754,12.890000343322754,12.890000343322754,0.0,12.890000343322754
2015-09-10,12.890000343322754,12.890000343322754,12.890000343322754,12.890000343322754,0.0,12.890000343322754
2015-09-11,12.890000343322754,12.890000343322754,12.890000343322754,12.890000343322754,0.0,12.890000343322754
2015-09-14,12.890000343322754,12.890000343322754,12.890000343322754,12.890000343322754,0.0,12.890000343322754
2015-09-15,12.890000343322754,12.890000343322754,12.890000343322754,12.890000343322754,0.0,12.890000343322754
2015-09-16,12.890000343322754,12.890000343322754,12.890000343322754,12.890000343322754,0.0,12.890000343322754
2015-09-17,13.1899995803833,13.180000305175781,13.180000305175781,13.180000305175781,4100.0,13.180000305175781
2015-09-18,12.850000381469727,12.850000381469727,12.850000381469727,12.850000381469727,200.0,12.850000381469727
2015-09-21,12.850000381469727,12.850000381469727,12.850000381469727,12.850000381469727,0.0,12.850000381469727
2015-09-22,12.850000381469727,12.850000381469727,12.850000381469727,12.850000381469727,0.0,12.850000381469727
2015-09-23,12.850000381469727,12.850000381469727,12.850000381469727,12.850000381469727,0.0,12.850000381469727
2015-09-24,12.850000381469727,12.850000381469727,12.850000381469727,12.850000381469727,0.0,12.850000381469727
2015-09-25,12.390000343322754,12.319999694824219,12.319999694824219,12.369999885559082,500.0,12.369999885559082
2015-09-28,12.369999885559082,12.369999885559082,12.369999885559082,12.369999885559082,0.0,12.369999885559082
2015-09-29,12.319999694824219,12.25,12.25,12.260000228881836,500.0,12.260000228881836
2015-09-30,12.260000228881836,12.260000228881836,12.260000228881836,12.260000228881836,0.0,12.260000228881836
2015-10-01,12.260000228881836,12.260000228881836,12.260000228881836,12.260000228881836,0.0,12.260000228881836
2015-10-02,12.260000228881836,12.260000228881836,12.260000228881836,12.260000228881836,0.0,12.260000228881836
2015-10-05,12.260000228881836,12.260000228881836,12.260000228881836,12.260000228881836,0.0,12.260000228881836
2015-10-06,12.260000228881836,12.260000228881836,12.260000228881836,12.260000228881836,0.0,12.260000228881836
2015-10-07,12.260000228881836,12.260000228881836,12.260000228881836,12.260000228881836,0.0,12.260000228881836
2015-10-08,12.260000228881836,12.260000228881836,12.260000228881836,12.260000228881836,0.0,12.260000228881836
2015-10-09,12.260000228881836,12.260000228881836,12.260000228881836,12.260000228881836,0.0,12.260000228881836
2015-10-12,13.100000381469727,13.010000228881836,13.010000228881836,13.100000381469727,200.0,13.100000381469727
2015-10-13,13.199999809265137,12.869999885559082,13.199999809265137,12.9399995803833,900.0,12.9399995803833
2015-10-14,12.9399995803833,12.9399995803833,12.9399995803833,12.9399995803833,0.0,12.9399995803833
2015-10-15,12.9399995803833,12.9399995803833,12.9399995803833,12.9399995803833,0.0,12.9399995803833
2015-10-16,12.989999771118164,12.899999618530273,12.899999618530273,12.949999809265137,3900.0,12.949999809265137
2015-10-19,12.949999809265137,12.949999809265137,12.949999809265137,12.949999809265137,0.0,12.949999809265137
2015-10-20,12.949999809265137,12.949999809265137,12.949999809265137,12.949999809265137,0.0,12.949999809265137
2015-10-21,12.949999809265137,12.949999809265137,12.949999809265137,12.949999809265137,0.0,12.949999809265137
2015-10-22,12.949999809265137,12.949999809265137,12.949999809265137,12.949999809265137,0.0,12.949999809265137
2015-10-23,12.949999809265137,12.949999809265137,12.949999809265137,12.949999809265137,0.0,12.949999809265137
2015-10-26,12.949999809265137,12.949999809265137,12.949999809265137,12.949999809265137,0.0,12.949999809265137
2015-10-27,12.760000228881836,12.760000228881836,12.760000228881836,12.760000228881836,400.0,12.760000228881836
2015-10-28,12.760000228881836,12.760000228881836,12.760000228881836,12.760000228881836,0.0,12.760000228881836
2015-10-29,12.760000228881836,12.760000228881836,12.760000228881836,12.760000228881836,0.0,12.760000228881836
2015-10-30,12.359999656677246,12.25,12.25,12.359999656677246,1200.0,12.359999656677246
2015-11-02,12.359999656677246,12.359999656677246,12.359999656677246,12.359999656677246,0.0,12.359999656677246
2015-11-03,12.359999656677246,12.359999656677246,12.359999656677246,12.359999656677246,0.0,12.359999656677246
2015-11-04,12.359999656677246,12.359999656677246,12.359999656677246,12.359999656677246,0.0,12.359999656677246
2015-11-05,12.359999656677246,12.359999656677246,12.359999656677246,12.359999656677246,0.0,12.359999656677246
2015-11-06,12.359999656677246,12.359999656677246,12.359999656677246,12.359999656677246,0.0,12.359999656677246
2015-11-09,12.100000381469727,12.100000381469727,12.100000381469727,12.100000381469727,100.0,12.100000381469727
2015-11-10,12.100000381469727,12.100000381469727,12.100000381469727,12.100000381469727,0.0,12.100000381469727
2015-11-11,12.100000381469727,12.100000381469727,12.100000381469727,12.100000381469727,0.0,12.100000381469727
2015-11-12,12.100000381469727,12.100000381469727,12.100000381469727,12.100000381469727,0.0,12.100000381469727
2015-11-13,12.100000381469727,12.100000381469727,12.100000381469727,12.100000381469727,0.0,12.100000381469727
2015-11-16,12.100000381469727,12.100000381469727,12.100000381469727,12.100000381469727,0.0,12.100000381469727
2015-11-17,12.100000381469727,12.100000381469727,12.100000381469727,12.100000381469727,0.0,12.100000381469727
2015-11-18,12.100000381469727,12.100000381469727,12.100000381469727,12.100000381469727,0.0,12.100000381469727
2015-11-19,12.100000381469727,12.100000381469727,12.100000381469727,12.100000381469727,0.0,12.100000381469727
2015-11-20,12.100000381469727,12.100000381469727,12.100000381469727,12.100000381469727,0.0,12.100000381469727
2015-11-23,12.100000381469727,12.100000381469727,12.100000381469727,12.100000381469727,0.0,12.100000381469727
2015-11-24,12.100000381469727,12.100000381469727,12.100000381469727,12.100000381469727,0.0,12.100000381469727
2015-11-25,12.100000381469727,12.100000381469727,12.100000381469727,12.100000381469727,0.0,12.100000381469727
2015-11-27,11.119999885559082,11.119999885559082,11.119999885559082,11.119999885559082,0.0,11.119999885559082
2015-11-30,11.119999885559082,11.119999885559082,11.119999885559082,11.119999885559082,0.0,11.119999885559082
2015-12-01,11.119999885559082,11.119999885559082,11.119999885559082,11.119999885559082,0.0,11.119999885559082
2015-12-02,11.350000381469727,11.25,11.350000381469727,11.260000228881836,1200.0,11.260000228881836
2015-12-03,11.260000228881836,11.260000228881836,11.260000228881836,11.260000228881836,0.0,11.260000228881836
2015-12-04,11.260000228881836,11.260000228881836,11.260000228881836,11.260000228881836,0.0,11.260000228881836
2015-12-07,12.0,11.300000190734863,12.0,11.300000190734863,1400.0,11.300000190734863
2015-12-08,12.0,12.0,12.0,12.0,500.0,12.0
2015-12-09,11.350000381469727,11.180000305175781,11.180000305175781,11.350000381469727,200.0,11.350000381469727
2015-12-10,11.270000457763672,11.210000038146973,11.210000038146973,11.229999542236328,500.0,11.229999542236328
2015-12-11,11.4399995803833,11.399999618530273,11.4399995803833,11.399999618530273,2000.0,11.399999618530273
2015-12-14,11.510000228881836,11.4399995803833,11.510000228881836,11.449999809265137,400.0,11.449999809265137
2015-12-15,11.449999809265137,11.449999809265137,11.449999809265137,11.449999809265137,0.0,11.449999809265137
2015-12-16,11.449999809265137,11.449999809265137,11.449999809265137,11.449999809265137,0.0,11.449999809265137
2015-12-17,11.449999809265137,11.449999809265137,11.449999809265137,11.449999809265137,0.0,11.449999809265137
2015-12-18,11.489999771118164,11.390000343322754,11.479999542236328,11.390000343322754,1500.0,11.390000343322754
2015-12-21,11.390000343322754,11.390000343322754,11.390000343322754,11.390000343322754,0.0,11.390000343322754
2015-12-22,11.460000038146973,11.460000038146973,11.460000038146973,11.460000038146973,500.0,11.460000038146973
2015-12-23,11.460000038146973,11.460000038146973,11.460000038146973,11.460000038146973,0.0,11.460000038146973
2015-12-24,11.460000038146973,11.460000038146973,11.460000038146973,11.460000038146973,0.0,11.460000038146973
2015-12-28,11.489999771118164,11.380000114440918,11.489999771118164,11.380000114440918,18000.0,11.380000114440918
2015-12-29,11.380000114440918,11.380000114440918,11.380000114440918,11.380000114440918,0.0,11.380000114440918
2015-12-30,11.380000114440918,11.380000114440918,11.380000114440918,11.380000114440918,0.0,11.380000114440918
2015-12-31,11.680000305175781,11.640000343322754,11.640000343322754,11.680000305175781,10000.0,11.680000305175781
2016-01-04,11.949999809265137,11.470000267028809,11.949999809265137,11.470000267028809,1000.0,11.470000267028809
2016-01-05,11.470000267028809,11.470000267028809,11.470000267028809,11.470000267028809,0.0,11.470000267028809
2016-01-06,11.350000381469727,11.239999771118164,11.350000381469727,11.239999771118164,400.0,11.239999771118164
2016-01-07,11.239999771118164,11.239999771118164,11.239999771118164,11.239999771118164,0.0,11.239999771118164
2016-01-08,11.239999771118164,11.239999771118164,11.239999771118164,11.239999771118164,0.0,11.239999771118164
2016-01-11,11.239999771118164,11.239999771118164,11.239999771118164,11.239999771118164,0.0,11.239999771118164
2016-01-12,11.239999771118164,11.239999771118164,11.239999771118164,11.239999771118164,0.0,11.239999771118164
2016-01-13,11.239999771118164,11.239999771118164,11.239999771118164,11.239999771118164,0.0,11.239999771118164
2016-01-14,11.0,10.859999656677246,11.0,10.859999656677246,300.0,10.859999656677246
2016-01-15,10.859999656677246,10.859999656677246,10.859999656677246,10.859999656677246,0.0,10.859999656677246
2016-01-19,10.859999656677246,10.859999656677246,10.859999656677246,10.859999656677246,0.0,10.859999656677246
2016-01-20,10.859999656677246,10.859999656677246,10.859999656677246,10.859999656677246,0.0,10.859999656677246
2016-01-21,10.859999656677246,10.859999656677246,10.859999656677246,10.859999656677246,0.0,10.859999656677246
2016-01-22,10.859999656677246,10.859999656677246,10.859999656677246,10.859999656677246,0.0,10.859999656677246
2016-01-25,10.859999656677246,10.859999656677246,10.859999656677246,10.859999656677246,0.0,10.859999656677246
2016-01-26,10.859999656677246,10.859999656677246,10.859999656677246,10.859999656677246,0.0,10.859999656677246
2016-01-27,11.399999618530273,11.270000457763672,11.350000381469727,11.359999656677246,2500.0,11.359999656677246
2016-01-28,11.359999656677246,11.359999656677246,11.359999656677246,11.359999656677246,0.0,11.359999656677246
2016-01-29,11.359999656677246,11.359999656677246,11.359999656677246,11.359999656677246,0.0,11.359999656677246
2016-02-01,11.359999656677246,11.359999656677246,11.359999656677246,11.359999656677246,0.0,11.359999656677246
2016-02-02,11.359999656677246,11.359999656677246,11.359999656677246,11.359999656677246,0.0,11.359999656677246
2016-02-03,11.359999656677246,11.359999656677246,11.359999656677246,11.359999656677246,0.0,11.359999656677246
2016-02-04,11.359999656677246,11.359999656677246,11.359999656677246,11.359999656677246,0.0,11.359999656677246
2016-02-05,11.359999656677246,11.359999656677246,11.359999656677246,11.359999656677246,0.0,11.359999656677246
2016-02-08,11.359999656677246,11.359999656677246,11.359999656677246,11.359999656677246,0.0,11.359999656677246
2016-02-09,11.359999656677246,11.359999656677246,11.359999656677246,11.359999656677246,0.0,11.359999656677246
2016-02-10,11.359999656677246,11.359999656677246,11.359999656677246,11.359999656677246,0.0,11.359999656677246
2016-02-11,11.359999656677246,11.359999656677246,11.359999656677246,11.359999656677246,0.0,11.359999656677246
2016-02-12,11.359999656677246,11.359999656677246,11.359999656677246,11.359999656677246,0.0,11.359999656677246
2016-02-16,11.359999656677246,11.359999656677246,11.359999656677246,11.359999656677246,0.0,11.359999656677246
2016-02-17,11.359999656677246,11.359999656677246,11.359999656677246,11.359999656677246,0.0,11.359999656677246
2016-02-18,11.359999656677246,11.359999656677246,11.359999656677246,11.359999656677246,0.0,11.359999656677246
2016-02-19,11.359999656677246,11.359999656677246,11.359999656677246,11.359999656677246,0.0,11.359999656677246
2016-02-22,11.359999656677246,11.359999656677246,11.359999656677246,11.359999656677246,0.0,11.359999656677246
2016-02-23,11.359999656677246,11.359999656677246,11.359999656677246,11.359999656677246,0.0,11.359999656677246
2016-02-24,11.359999656677246,11.359999656677246,11.359999656677246,11.359999656677246,0.0,11.359999656677246
2016-02-25,11.359999656677246,11.359999656677246,11.359999656677246,11.359999656677246,0.0,11.359999656677246
2016-02-26,11.359999656677246,11.359999656677246,11.359999656677246,11.359999656677246,0.0,11.359999656677246
2016-02-29,11.359999656677246,11.359999656677246,11.359999656677246,11.359999656677246,0.0,11.359999656677246
2016-03-01,11.359999656677246,11.359999656677246,11.359999656677246,11.359999656677246,100.0,11.359999656677246
2016-03-02,12.050000190734863,12.050000190734863,12.050000190734863,12.050000190734863,6300.0,12.050000190734863
2016-03-03,12.050000190734863,12.050000190734863,12.050000190734863,12.050000190734863,0.0,12.050000190734863
2016-03-04,12.050000190734863,12.050000190734863,12.050000190734863,12.050000190734863,0.0,12.050000190734863
2016-03-07,12.050000190734863,12.050000190734863,12.050000190734863,12.050000190734863,0.0,12.050000190734863
2016-03-08,11.989999771118164,11.989999771118164,11.989999771118164,11.989999771118164,200.0,11.989999771118164
2016-03-09,12.130000114440918,12.130000114440918,12.130000114440918,12.130000114440918,400.0,12.130000114440918
2016-03-10,12.130000114440918,12.130000114440918,12.130000114440918,12.130000114440918,0.0,12.130000114440918
2016-03-11,12.130000114440918,12.130000114440918,12.130000114440918,12.130000114440918,0.0,12.130000114440918
2016-03-14,12.130000114440918,12.130000114440918,12.130000114440918,12.130000114440918,0.0,12.130000114440918
2016-03-15,12.130000114440918,12.130000114440918,12.130000114440918,12.130000114440918,0.0,12.130000114440918
2016-03-16,12.130000114440918,12.130000114440918,12.130000114440918,12.130000114440918,0.0,12.130000114440918
2016-03-17,12.130000114440918,12.130000114440918,12.130000114440918,12.130000114440918,0.0,12.130000114440918
2016-03-18,12.130000114440918,12.130000114440918,12.130000114440918,12.130000114440918,0.0,12.130000114440918
2016-03-21,12.130000114440918,12.130000114440918,12.130000114440918,12.130000114440918,0.0,12.130000114440918
2016-03-22,12.25,12.25,12.25,12.25,200.0,12.25
2016-03-23,12.25,12.25,12.25,12.25,0.0,12.25
2016-03-24,12.25,12.25,12.25,12.25,0.0,12.25
2016-03-28,11.9399995803833,11.40999984741211,11.40999984741211,11.9399995803833,500.0,11.9399995803833
2016-03-29,11.9399995803833,11.9399995803833,11.9399995803833,11.9399995803833,0.0,11.9399995803833
2016-03-30,11.9399995803833,11.9399995803833,11.9399995803833,11.9399995803833,0.0,11.9399995803833
2016-03-31,11.9399995803833,11.9399995803833,11.9399995803833,11.9399995803833,0.0,11.9399995803833
2016-04-01,11.9399995803833,11.9399995803833,11.9399995803833,11.9399995803833,0.0,11.9399995803833
2016-04-04,11.9399995803833,11.9399995803833,11.9399995803833,11.9399995803833,0.0,11.9399995803833
2016-04-05,11.9399995803833,11.9399995803833,11.9399995803833,11.9399995803833,0.0,11.9399995803833
2016-04-06,11.9399995803833,11.9399995803833,11.9399995803833,11.9399995803833,0.0,11.9399995803833
2016-04-07,11.9399995803833,11.9399995803833,11.9399995803833,11.9399995803833,0.0,11.9399995803833
2016-04-08,11.9399995803833,11.9399995803833,11.9399995803833,11.9399995803833,0.0,11.9399995803833
2016-04-11,11.9399995803833,11.9399995803833,11.9399995803833,11.9399995803833,0.0,11.9399995803833
2016-04-12,11.9399995803833,11.9399995803833,11.9399995803833,11.9399995803833,0.0,11.9399995803833
2016-04-13,11.9399995803833,11.9399995803833,11.9399995803833,11.9399995803833,0.0,11.9399995803833
2016-04-14,11.9399995803833,11.9399995803833,11.9399995803833,11.9399995803833,0.0,11.9399995803833
2016-04-15,11.9399995803833,11.9399995803833,11.9399995803833,11.9399995803833,0.0,11.9399995803833
2016-04-18,11.9399995803833,11.9399995803833,11.9399995803833,11.9399995803833,0.0,11.9399995803833
2016-04-19,11.9399995803833,11.9399995803833,11.9399995803833,11.9399995803833,0.0,11.9399995803833
2016-04-20,11.9399995803833,11.9399995803833,11.9399995803833,11.9399995803833,0.0,11.9399995803833
2016-04-21,11.9399995803833,11.9399995803833,11.9399995803833,11.9399995803833,0.0,11.9399995803833
2016-04-22,11.9399995803833,11.9399995803833,11.9399995803833,11.9399995803833,0.0,11.9399995803833
2016-04-25,11.9399995803833,11.9399995803833,11.9399995803833,11.9399995803833,0.0,11.9399995803833
2016-04-26,11.9399995803833,11.9399995803833,11.9399995803833,11.9399995803833,0.0,11.9399995803833
2016-04-27,11.9399995803833,11.9399995803833,11.9399995803833,11.9399995803833,0.0,11.9399995803833
2016-04-28,11.9399995803833,11.9399995803833,11.9399995803833,11.9399995803833,0.0,11.9399995803833
2016-04-29,12.720000267028809,12.699999809265137,12.720000267028809,12.699999809265137,200.0,12.699999809265137
2016-05-02,12.699999809265137,12.699999809265137,12.699999809265137,12.699999809265137,0.0,12.699999809265137
2016-05-03,12.699999809265137,12.699999809265137,12.699999809265137,12.699999809265137,0.0,12.699999809265137
2016-05-04,12.699999809265137,12.699999809265137,12.699999809265137,12.699999809265137,0.0,12.699999809265137
2016-05-05,12.699999809265137,12.699999809265137,12.699999809265137,12.699999809265137,0.0,12.699999809265137
2016-05-06,12.699999809265137,12.699999809265137,12.699999809265137,12.699999809265137,0.0,12.699999809265137
2016-05-09,12.699999809265137,12.699999809265137,12.699999809265137,12.699999809265137,0.0,12.699999809265137
2016-05-10,12.699999809265137,12.699999809265137,12.699999809265137,12.699999809265137,0.0,12.699999809265137
2016-05-11,12.699999809265137,12.699999809265137,12.699999809265137,12.699999809265137,0.0,12.699999809265137
2016-05-12,12.699999809265137,12.699999809265137,12.699999809265137,12.699999809265137,0.0,12.699999809265137
2016-05-13,12.699999809265137,12.699999809265137,12.699999809265137,12.699999809265137,0.0,12.699999809265137
2016-05-16,12.699999809265137,12.699999809265137,12.699999809265137,12.699999809265137,0.0,12.699999809265137
2016-05-17,12.699999809265137,12.699999809265137,12.699999809265137,12.699999809265137,0.0,12.699999809265137
2016-05-18,11.609999656677246,11.609999656677246,11.609999656677246,11.609999656677246,15000.0,11.609999656677246
2016-05-19,11.609999656677246,11.609999656677246,11.609999656677246,11.609999656677246,0.0,11.609999656677246
2016-05-20,11.609999656677246,11.609999656677246,11.609999656677246,11.609999656677246,0.0,11.609999656677246
2016-05-23,11.609999656677246,11.609999656677246,11.609999656677246,11.609999656677246,0.0,11.609999656677246
2016-05-24,11.609999656677246,11.609999656677246,11.609999656677246,11.609999656677246,0.0,11.609999656677246
2016-05-25,11.609999656677246,11.609999656677246,11.609999656677246,11.609999656677246,0.0,11.609999656677246
2016-05-26,11.609999656677246,11.609999656677246,11.609999656677246,11.609999656677246,0.0,11.609999656677246
2016-05-27,11.609999656677246,11.609999656677246,11.609999656677246,11.609999656677246,0.0,11.609999656677246
2016-05-31,11.640000343322754,11.630000114440918,11.630000114440918,11.630000114440918,4600.0,11.630000114440918
2016-06-01,11.630000114440918,11.630000114440918,11.630000114440918,11.630000114440918,0.0,11.630000114440918
2016-06-02,11.630000114440918,11.630000114440918,11.630000114440918,11.630000114440918,0.0,11.630000114440918
2016-06-03,11.630000114440918,11.630000114440918,11.630000114440918,11.630000114440918,0.0,11.630000114440918
2016-06-06,11.630000114440918,11.630000114440918,11.630000114440918,11.630000114440918,0.0,11.630000114440918
2016-06-07,11.630000114440918,11.630000114440918,11.630000114440918,11.630000114440918,0.0,11.630000114440918
2016-06-08,11.630000114440918,11.630000114440918,11.630000114440918,11.630000114440918,0.0,11.630000114440918
2016-06-09,11.630000114440918,11.630000114440918,11.630000114440918,11.630000114440918,0.0,11.630000114440918
2016-06-10,11.819999694824219,11.819999694824219,11.819999694824219,11.819999694824219,300.0,11.819999694824219
2016-06-13,11.829999923706055,11.789999961853027,11.829999923706055,11.789999961853027,400.0,11.789999961853027
2016-06-14,11.789999961853027,11.789999961853027,11.789999961853027,11.789999961853027,0.0,11.789999961853027
2016-06-15,11.789999961853027,11.789999961853027,11.789999961853027,11.789999961853027,0.0,11.789999961853027
2016-06-16,11.789999961853027,11.789999961853027,11.789999961853027,11.789999961853027,0.0,11.789999961853027
2016-06-17,11.789999961853027,11.789999961853027,11.789999961853027,11.789999961853027,0.0,11.789999961853027
2016-06-20,11.789999961853027,11.789999961853027,11.789999961853027,11.789999961853027,0.0,11.789999961853027
2016-06-21,11.789999961853027,11.789999961853027,11.789999961853027,11.789999961853027,0.0,11.789999961853027
2016-06-22,11.789999961853027,11.789999961853027,11.789999961853027,11.789999961853027,0.0,11.789999961853027
2016-06-23,11.789999961853027,11.789999961853027,11.789999961853027,11.789999961853027,0.0,11.789999961853027
2016-06-24,11.789999961853027,11.789999961853027,11.789999961853027,11.789999961853027,0.0,11.789999961853027
2016-06-27,11.789999961853027,11.789999961853027,11.789999961853027,11.789999961853027,0.0,11.789999961853027
2016-06-28,11.789999961853027,11.789999961853027,11.789999961853027,11.789999961853027,0.0,11.789999961853027
2016-06-29,11.789999961853027,11.789999961853027,11.789999961853027,11.789999961853027,0.0,11.789999961853027
2016-06-30,11.789999961853027,11.789999961853027,11.789999961853027,11.789999961853027,0.0,11.789999961853027
2016-07-01,11.789999961853027,11.789999961853027,11.789999961853027,11.789999961853027,0.0,11.789999961853027
2016-07-05,11.789999961853027,11.789999961853027,11.789999961853027,11.789999961853027,0.0,11.789999961853027
2016-07-06,11.789999961853027,11.789999961853027,11.789999961853027,11.789999961853027,0.0,11.789999961853027
2016-07-07,11.789999961853027,11.789999961853027,11.789999961853027,11.789999961853027,0.0,11.789999961853027
2016-07-08,11.789999961853027,11.789999961853027,11.789999961853027,11.789999961853027,0.0,11.789999961853027
2016-07-11,11.789999961853027,11.789999961853027,11.789999961853027,11.789999961853027,0.0,11.789999961853027
2016-07-12,11.789999961853027,11.789999961853027,11.789999961853027,11.789999961853027,0.0,11.789999961853027
2016-07-13,12.9399995803833,11.789999961853027,11.789999961853027,12.9399995803833,1200.0,12.9399995803833
2016-07-14,12.9399995803833,12.9399995803833,12.9399995803833,12.9399995803833,0.0,12.9399995803833
2016-07-15,12.9399995803833,12.9399995803833,12.9399995803833,12.9399995803833,0.0,12.9399995803833
2016-07-18,12.9399995803833,12.9399995803833,12.9399995803833,12.9399995803833,0.0,12.9399995803833
2016-07-19,12.9399995803833,12.9399995803833,12.9399995803833,12.9399995803833,0.0,12.9399995803833
2016-07-20,12.9399995803833,12.9399995803833,12.9399995803833,12.9399995803833,0.0,12.9399995803833
2016-07-21,12.9399995803833,12.9399995803833,12.9399995803833,12.9399995803833,0.0,12.9399995803833
2016-07-22,12.9399995803833,12.9399995803833,12.9399995803833,12.9399995803833,0.0,12.9399995803833
2016-07-25,12.9399995803833,12.9399995803833,12.9399995803833,12.9399995803833,0.0,12.9399995803833
2016-07-26,12.649999618530273,12.619999885559082,12.649999618530273,12.640000343322754,1700.0,12.640000343322754
2016-07-27,12.520000457763672,12.460000038146973,12.460000038146973,12.520000457763672,300.0,12.520000457763672
2016-07-28,12.520000457763672,12.520000457763672,12.520000457763672,12.520000457763672,0.0,12.520000457763672
2016-07-29,12.520000457763672,12.520000457763672,12.520000457763672,12.520000457763672,0.0,12.520000457763672
2016-08-01,12.520000457763672,12.520000457763672,12.520000457763672,12.520000457763672,0.0,12.520000457763672
2016-08-02,12.520000457763672,12.520000457763672,12.520000457763672,12.520000457763672,0.0,12.520000457763672
2016-08-03,12.520000457763672,12.520000457763672,12.520000457763672,12.520000457763672,0.0,12.520000457763672
2016-08-04,12.529999732971191,12.029999732971191,12.529999732971191,12.029999732971191,1700.0,12.029999732971191
2016-08-05,12.029999732971191,12.029999732971191,12.029999732971191,12.029999732971191,0.0,12.029999732971191
2016-08-08,12.029999732971191,12.029999732971191,12.029999732971191,12.029999732971191,0.0,12.029999732971191
2016-08-09,12.029999732971191,12.029999732971191,12.029999732971191,12.029999732971191,0.0,12.029999732971191
2016-08-10,12.029999732971191,12.029999732971191,12.029999732971191,12.029999732971191,0.0,12.029999732971191
2016-08-11,12.029999732971191,12.029999732971191,12.029999732971191,12.029999732971191,0.0,12.029999732971191
2016-08-12,12.029999732971191,12.029999732971191,12.029999732971191,12.029999732971191,0.0,12.029999732971191
2016-08-15,12.029999732971191,12.029999732971191,12.029999732971191,12.029999732971191,0.0,12.029999732971191
2016-08-16,12.029999732971191,12.029999732971191,12.029999732971191,12.029999732971191,0.0,12.029999732971191
2016-08-17,12.029999732971191,12.029999732971191,12.029999732971191,12.029999732971191,0.0,12.029999732971191
2016-08-18,12.029999732971191,12.029999732971191,12.029999732971191,12.029999732971191,0.0,12.029999732971191
2016-08-19,12.029999732971191,12.029999732971191,12.029999732971191,12.029999732971191,0.0,12.029999732971191
2016-08-22,12.029999732971191,12.029999732971191,12.029999732971191,12.029999732971191,0.0,12.029999732971191
2016-08-23,12.029999732971191,12.029999732971191,12.029999732971191,12.029999732971191,0.0,12.029999732971191
2016-08-24,12.4399995803833,12.4399995803833,12.4399995803833,12.4399995803833,200.0,12.4399995803833
2016-08-25,12.4399995803833,12.4399995803833,12.4399995803833,12.4399995803833,0.0,12.4399995803833
2016-08-26,12.300000190734863,12.300000190734863,12.300000190734863,12.300000190734863,200.0,12.300000190734863
2016-08-29,12.300000190734863,12.300000190734863,12.300000190734863,12.300000190734863,0.0,12.300000190734863
2016-08-30,12.300000190734863,12.300000190734863,12.300000190734863,12.300000190734863,0.0,12.300000190734863
2016-08-31,12.300000190734863,12.300000190734863,12.300000190734863,12.300000190734863,0.0,12.300000190734863
2016-09-01,12.300000190734863,12.300000190734863,12.300000190734863,12.300000190734863,0.0,12.300000190734863
2016-09-02,12.289999961853027,12.289999961853027,12.289999961853027,12.289999961853027,100.0,12.289999961853027
2016-09-06,12.289999961853027,12.289999961853027,12.289999961853027,12.289999961853027,0.0,12.289999961853027
2016-09-07,12.390000343322754,12.390000343322754,12.390000343322754,12.390000343322754,100.0,12.390000343322754
2016-09-08,12.390000343322754,12.390000343322754,12.390000343322754,12.390000343322754,0.0,12.390000343322754
2016-09-09,12.390000343322754,12.390000343322754,12.390000343322754,12.390000343322754,0.0,12.390000343322754
2016-09-12,12.25,12.25,12.25,12.25,500.0,12.25
2016-09-13,12.25,12.25,12.25,12.25,0.0,12.25
2016-09-14,12.25,12.25,12.25,12.25,0.0,12.25
2016-09-15,12.25,12.25,12.25,12.25,0.0,12.25
2016-09-16,12.430000305175781,12.380000114440918,12.430000305175781,12.380000114440918,1600.0,12.380000114440918
2016-09-19,12.380000114440918,12.380000114440918,12.380000114440918,12.380000114440918,0.0,12.380000114440918
2016-09-20,12.380000114440918,12.380000114440918,12.380000114440918,12.380000114440918,0.0,12.380000114440918
2016-09-21,12.5600004196167,12.5600004196167,12.5600004196167,12.5600004196167,500.0,12.5600004196167
2016-09-22,12.5600004196167,12.5600004196167,12.5600004196167,12.5600004196167,0.0,12.5600004196167
2016-09-23,12.5600004196167,12.5600004196167,12.5600004196167,12.5600004196167,0.0,12.5600004196167
2016-09-26,12.819999694824219,12.819999694824219,12.819999694824219,12.819999694824219,100.0,12.819999694824219
2016-09-27,12.819999694824219,12.819999694824219,12.819999694824219,12.819999694824219,0.0,12.819999694824219
2016-09-28,12.949999809265137,12.9399995803833,12.949999809265137,12.949999809265137,4100.0,12.949999809265137
2016-09-29,12.949999809265137,12.949999809265137,12.949999809265137,12.949999809265137,0.0,12.949999809265137
2016-09-30,12.949999809265137,12.949999809265137,12.949999809265137,12.949999809265137,0.0,12.949999809265137
2016-10-03,12.859999656677246,12.829999923706055,12.859999656677246,12.829999923706055,400.0,12.829999923706055
2016-10-04,12.829999923706055,12.829999923706055,12.829999923706055,12.829999923706055,0.0,12.829999923706055
2016-10-05,12.829999923706055,12.829999923706055,12.829999923706055,12.829999923706055,0.0,12.829999923706055
2016-10-06,12.710000038146973,12.529999732971191,12.529999732971191,12.699999809265137,1000.0,12.699999809265137
2016-10-07,12.699999809265137,12.699999809265137,12.699999809265137,12.699999809265137,0.0,12.699999809265137
2016-10-10,12.699999809265137,12.699999809265137,12.699999809265137,12.699999809265137,0.0,12.699999809265137
2016-10-11,12.699999809265137,12.699999809265137,12.699999809265137,12.699999809265137,0.0,12.699999809265137
2016-10-12,12.699999809265137,12.699999809265137,12.699999809265137,12.699999809265137,0.0,12.699999809265137
2016-10-13,12.699999809265137,12.699999809265137,12.699999809265137,12.699999809265137,0.0,12.699999809265137
2016-10-14,12.699999809265137,12.699999809265137,12.699999809265137,12.699999809265137,0.0,12.699999809265137
2016-10-17,12.699999809265137,12.699999809265137,12.699999809265137,12.699999809265137,0.0,12.699999809265137
2016-10-18,12.699999809265137,12.699999809265137,12.699999809265137,12.699999809265137,0.0,12.699999809265137
2016-10-19,12.699999809265137,12.699999809265137,12.699999809265137,12.699999809265137,0.0,12.699999809265137
2016-10-20,12.699999809265137,12.699999809265137,12.699999809265137,12.699999809265137,0.0,12.699999809265137
2016-10-21,12.699999809265137,12.699999809265137,12.699999809265137,12.699999809265137,0.0,12.699999809265137
2016-10-24,12.699999809265137,12.699999809265137,12.699999809265137,12.699999809265137,0.0,12.699999809265137
2016-10-25,12.699999809265137,12.699999809265137,12.699999809265137,12.699999809265137,0.0,12.699999809265137
2016-10-26,12.699999809265137,12.699999809265137,12.699999809265137,12.699999809265137,0.0,12.699999809265137
2016-10-27,12.829999923706055,12.789999961853027,12.800000190734863,12.829999923706055,3900.0,12.829999923706055
2016-10-28,12.829999923706055,12.829999923706055,12.829999923706055,12.829999923706055,0.0,12.829999923706055
2016-10-31,12.829999923706055,12.829999923706055,12.829999923706055,12.829999923706055,0.0,12.829999923706055
2016-11-01,12.829999923706055,12.829999923706055,12.829999923706055,12.829999923706055,0.0,12.829999923706055
2016-11-02,13.130000114440918,13.130000114440918,13.130000114440918,13.130000114440918,15900.0,13.130000114440918
2016-11-03,13.130000114440918,13.130000114440918,13.130000114440918,13.130000114440918,0.0,13.130000114440918
2016-11-04,13.300000190734863,13.300000190734863,13.300000190734863,13.300000190734863,1000.0,13.300000190734863
2016-11-07,13.300000190734863,13.300000190734863,13.300000190734863,13.300000190734863,0.0,13.300000190734863
2016-11-08,13.300000190734863,13.300000190734863,13.300000190734863,13.300000190734863,0.0,13.300000190734863
2016-11-09,14.140000343322754,14.09000015258789,14.09000015258789,14.140000343322754,1800.0,14.140000343322754
2016-11-10,14.140000343322754,14.140000343322754,14.140000343322754,14.140000343322754,0.0,14.140000343322754
2016-11-11,14.5,14.079999923706055,14.5,14.079999923706055,1200.0,14.079999923706055
2016-11-14,14.079999923706055,14.079999923706055,14.079999923706055,14.079999923706055,0.0,14.079999923706055
2016-11-15,14.079999923706055,14.079999923706055,14.079999923706055,14.079999923706055,0.0,14.079999923706055
2016-11-16,14.079999923706055,14.079999923706055,14.079999923706055,14.079999923706055,0.0,14.079999923706055
2016-11-17,14.079999923706055,14.079999923706055,14.079999923706055,14.079999923706055,0.0,14.079999923706055
2016-11-18,14.079999923706055,14.079999923706055,14.079999923706055,14.079999923706055,0.0,14.079999923706055
2016-11-21,14.079999923706055,14.079999923706055,14.079999923706055,14.079999923706055,0.0,14.079999923706055
2016-11-22,14.079999923706055,14.079999923706055,14.079999923706055,14.079999923706055,0.0,14.079999923706055
2016-11-23,14.6899995803833,14.199999809265137,14.199999809265137,14.649999618530273,500.0,14.649999618530273
2016-11-25,15.09000015258789,14.989999771118164,14.989999771118164,15.09000015258789,400.0,15.09000015258789
2016-11-28,15.260000228881836,15.260000228881836,15.260000228881836,15.260000228881836,100.0,15.260000228881836
2016-11-29,14.680000305175781,14.680000305175781,14.680000305175781,14.680000305175781,200.0,14.680000305175781
2016-11-30,14.75,14.739999771118164,14.739999771118164,14.75,2200.0,14.75
2016-12-01,14.75,14.75,14.75,14.75,0.0,14.75
2016-12-02,14.75,14.75,14.75,14.75,1100.0,14.75
2016-12-05,14.75,14.75,14.75,14.75,100.0,14.75
2016-12-06,14.850000381469727,14.850000381469727,14.850000381469727,14.850000381469727,300.0,14.850000381469727
2016-12-07,14.850000381469727,14.850000381469727,14.850000381469727,14.850000381469727,0.0,14.850000381469727
2016-12-08,14.850000381469727,14.850000381469727,14.850000381469727,14.850000381469727,0.0,14.850000381469727
2016-12-09,14.850000381469727,14.850000381469727,14.850000381469727,14.850000381469727,0.0,14.850000381469727
2016-12-12,14.850000381469727,14.850000381469727,14.850000381469727,14.850000381469727,0.0,14.850000381469727
2016-12-13,14.5,14.460000038146973,14.460000038146973,14.479999542236328,300.0,14.479999542236328
2016-12-14,14.479999542236328,14.479999542236328,14.479999542236328,14.479999542236328,0.0,14.479999542236328
2016-12-15,14.479999542236328,14.479999542236328,14.479999542236328,14.479999542236328,0.0,14.479999542236328
2016-12-16,14.479999542236328,14.479999542236328,14.479999542236328,14.479999542236328,0.0,14.479999542236328
2016-12-19,14.479999542236328,14.479999542236328,14.479999542236328,14.479999542236328,0.0,14.479999542236328
2016-12-20,14.479999542236328,14.479999542236328,14.479999542236328,14.479999542236328,0.0,14.479999542236328
2016-12-21,14.479999542236328,14.479999542236328,14.479999542236328,14.479999542236328,0.0,14.479999542236328
2016-12-22,14.479999542236328,14.479999542236328,14.479999542236328,14.479999542236328,0.0,14.479999542236328
2016-12-23,14.479999542236328,14.479999542236328,14.479999542236328,14.479999542236328,0.0,14.479999542236328
2016-12-27,14.479999542236328,14.479999542236328,14.479999542236328,14.479999542236328,0.0,14.479999542236328
2016-12-28,14.479999542236328,14.479999542236328,14.479999542236328,14.479999542236328,0.0,14.479999542236328
2016-12-29,14.479999542236328,14.479999542236328,14.479999542236328,14.479999542236328,0.0,14.479999542236328
2016-12-30,14.479999542236328,14.479999542236328,14.479999542236328,14.479999542236328,0.0,14.479999542236328
2017-01-03,14.479999542236328,14.479999542236328,14.479999542236328,14.479999542236328,0.0,14.479999542236328
2017-01-04,14.479999542236328,14.479999542236328,14.479999542236328,14.479999542236328,100.0,14.479999542236328
2017-01-05,14.479999542236328,14.479999542236328,14.479999542236328,14.479999542236328,0.0,14.479999542236328
2017-01-06,14.479999542236328,14.479999542236328,14.479999542236328,14.479999542236328,0.0,14.479999542236328
2017-01-09,14.479999542236328,14.479999542236328,14.479999542236328,14.479999542236328,0.0,14.479999542236328
2017-01-10,14.479999542236328,14.479999542236328,14.479999542236328,14.479999542236328,0.0,14.479999542236328
2017-01-11,14.479999542236328,14.479999542236328,14.479999542236328,14.479999542236328,0.0,14.479999542236328
2017-01-12,14.479999542236328,14.479999542236328,14.479999542236328,14.479999542236328,0.0,14.479999542236328
2017-01-13,14.479999542236328,14.479999542236328,14.479999542236328,14.479999542236328,0.0,14.479999542236328
2017-01-17,14.479999542236328,14.479999542236328,14.479999542236328,14.479999542236328,0.0,14.479999542236328
2017-01-18,14.479999542236328,14.479999542236328,14.479999542236328,14.479999542236328,0.0,14.479999542236328
2017-01-19,14.479999542236328,14.479999542236328,14.479999542236328,14.479999542236328,0.0,14.479999542236328
2017-01-20,14.479999542236328,14.479999542236328,14.479999542236328,14.479999542236328,0.0,14.479999542236328
2017-01-23,14.65999984741211,14.649999618530273,14.649999618530273,14.65999984741211,200.0,14.65999984741211
2017-01-24,14.65999984741211,14.65999984741211,14.65999984741211,14.65999984741211,0.0,14.65999984741211
2017-01-25,14.65999984741211,14.65999984741211,14.65999984741211,14.65999984741211,0.0,14.65999984741211
2017-01-26,14.65999984741211,14.65999984741211,14.65999984741211,14.65999984741211,0.0,14.65999984741211
2017-01-27,14.65999984741211,14.65999984741211,14.65999984741211,14.65999984741211,0.0,14.65999984741211
2017-01-30,14.65999984741211,14.65999984741211,14.65999984741211,14.65999984741211,0.0,14.65999984741211
2017-01-31,14.65999984741211,14.65999984741211,14.65999984741211,14.65999984741211,0.0,14.65999984741211
2017-02-01,14.65999984741211,14.65999984741211,14.65999984741211,14.65999984741211,0.0,14.65999984741211
2017-02-02,14.65999984741211,14.65999984741211,14.65999984741211,14.65999984741211,0.0,14.65999984741211
2017-02-03,14.65999984741211,14.65999984741211,14.65999984741211,14.65999984741211,0.0,14.65999984741211
2017-02-06,14.65999984741211,14.65999984741211,14.65999984741211,14.65999984741211,0.0,14.65999984741211
2017-02-07,14.65999984741211,14.65999984741211,14.65999984741211,14.65999984741211,0.0,14.65999984741211
2017-02-08,14.65999984741211,14.65999984741211,14.65999984741211,14.65999984741211,0.0,14.65999984741211
2017-02-09,14.65999984741211,14.65999984741211,14.65999984741211,14.65999984741211,0.0,14.65999984741211
2017-02-10,15.050000190734863,14.75,14.75,15.050000190734863,500.0,15.050000190734863
2017-02-13,15.050000190734863,15.050000190734863,15.050000190734863,15.050000190734863,0.0,15.050000190734863
2017-02-14,15.050000190734863,15.050000190734863,15.050000190734863,15.050000190734863,0.0,15.050000190734863
2017-02-15,15.050000190734863,15.050000190734863,15.050000190734863,15.050000190734863,0.0,15.050000190734863
2017-02-16,15.050000190734863,15.050000190734863,15.050000190734863,15.050000190734863,0.0,15.050000190734863
2017-02-17,15.050000190734863,15.050000190734863,15.050000190734863,15.050000190734863,0.0,15.050000190734863
2017-02-21,15.529999732971191,15.529999732971191,15.529999732971191,15.529999732971191,500.0,15.529999732971191
2017-02-22,15.579999923706055,15.399999618530273,15.579999923706055,15.399999618530273,200.0,15.399999618530273
2017-02-23,15.399999618530273,15.399999618530273,15.399999618530273,15.399999618530273,0.0,15.399999618530273
2017-02-24,15.399999618530273,15.399999618530273,15.399999618530273,15.399999618530273,0.0,15.399999618530273
2017-02-27,15.220000267028809,15.220000267028809,15.220000267028809,15.220000267028809,100.0,15.220000267028809
2017-02-28,15.220000267028809,15.220000267028809,15.220000267028809,15.220000267028809,0.0,15.220000267028809
2017-03-01,15.220000267028809,15.220000267028809,15.220000267028809,15.220000267028809,0.0,15.220000267028809
2017-03-02,15.220000267028809,15.220000267028809,15.220000267028809,15.220000267028809,0.0,15.220000267028809
2017-03-03,15.039999961853027,15.039999961853027,15.039999961853027,15.039999961853027,200.0,15.039999961853027
2017-03-06,15.039999961853027,15.039999961853027,15.039999961853027,15.039999961853027,0.0,15.039999961853027
2017-03-07,15.039999961853027,15.039999961853027,15.039999961853027,15.039999961853027,0.0,15.039999961853027
2017-03-08,15.039999961853027,15.039999961853027,15.039999961853027,15.039999961853027,0.0,15.039999961853027
2017-03-09,15.039999961853027,15.039999961853027,15.039999961853027,15.039999961853027,0.0,15.039999961853027
2017-03-10,15.039999961853027,15.039999961853027,15.039999961853027,15.039999961853027,0.0,15.039999961853027
2017-03-13,15.039999961853027,15.039999961853027,15.039999961853027,15.039999961853027,0.0,15.039999961853027
2017-03-14,15.039999961853027,15.039999961853027,15.039999961853027,15.039999961853027,0.0,15.039999961853027
2017-03-15,15.039999961853027,15.039999961853027,15.039999961853027,15.039999961853027,0.0,15.039999961853027
2017-03-16,15.050000190734863,15.050000190734863,15.050000190734863,15.050000190734863,400.0,15.050000190734863
2017-03-17,15.050000190734863,15.050000190734863,15.050000190734863,15.050000190734863,0.0,15.050000190734863
2017-03-20,15.050000190734863,15.050000190734863,15.050000190734863,15.050000190734863,0.0,15.050000190734863
2017-03-21,15.050000190734863,15.050000190734863,15.050000190734863,15.050000190734863,800.0,15.050000190734863
2017-03-22,15.050000190734863,15.050000190734863,15.050000190734863,15.050000190734863,0.0,15.050000190734863
2017-03-23,15.050000190734863,15.050000190734863,15.050000190734863,15.050000190734863,0.0,15.050000190734863
2017-03-24,15.050000190734863,15.050000190734863,15.050000190734863,15.050000190734863,0.0,15.050000190734863
2017-03-27,15.050000190734863,15.050000190734863,15.050000190734863,15.050000190734863,0.0,15.050000190734863
2017-03-28,15.050000190734863,15.050000190734863,15.050000190734863,15.050000190734863,0.0,15.050000190734863
2017-03-29,15.050000190734863,15.050000190734863,15.050000190734863,15.050000190734863,0.0,15.050000190734863
2017-03-30,15.050000190734863,15.050000190734863,15.050000190734863,15.050000190734863,0.0,15.050000190734863
2017-03-31,15.050000190734863,15.050000190734863,15.050000190734863,15.050000190734863,0.0,15.050000190734863
2017-04-03,15.050000190734863,15.050000190734863,15.050000190734863,15.050000190734863,0.0,15.050000190734863
2017-04-04,15.050000190734863,15.050000190734863,15.050000190734863,15.050000190734863,0.0,15.050000190734863
2017-04-05,15.050000190734863,15.050000190734863,15.050000190734863,15.050000190734863,0.0,15.050000190734863
2017-04-06,14.880000114440918,14.859999656677246,14.880000114440918,14.859999656677246,3600.0,14.859999656677246
2017-04-07,14.859999656677246,14.859999656677246,14.859999656677246,14.859999656677246,0.0,14.859999656677246
2017-04-10,14.859999656677246,14.800000190734863,14.800000190734863,14.859999656677246,200.0,14.859999656677246
2017-04-11,14.859999656677246,14.859999656677246,14.859999656677246,14.859999656677246,0.0,14.859999656677246
2017-04-12,14.859999656677246,14.859999656677246,14.859999656677246,14.859999656677246,0.0,14.859999656677246
2017-04-13,14.859999656677246,14.859999656677246,14.859999656677246,14.859999656677246,0.0,14.859999656677246
2017-04-17,14.720000267028809,14.720000267028809,14.720000267028809,14.720000267028809,3000.0,14.720000267028809
2017-04-18,14.720000267028809,14.720000267028809,14.720000267028809,14.720000267028809,0.0,14.720000267028809
2017-04-19,14.720000267028809,14.720000267028809,14.720000267028809,14.720000267028809,0.0,14.720000267028809
2017-04-20,14.720000267028809,14.720000267028809,14.720000267028809,14.720000267028809,0.0,14.720000267028809
2017-04-21,14.720000267028809,14.720000267028809,14.720000267028809,14.720000267028809,0.0,14.720000267028809
2017-04-24,14.720000267028809,14.720000267028809,14.720000267028809,14.720000267028809,0.0,14.720000267028809
2017-04-25,14.529999732971191,14.329999923706055,14.329999923706055,14.529999732971191,200.0,14.529999732971191
2017-04-26,14.529999732971191,14.529999732971191,14.529999732971191,14.529999732971191,0.0,14.529999732971191
2017-04-27,14.529999732971191,14.529999732971191,14.529999732971191,14.529999732971191,0.0,14.529999732971191
2017-04-28,14.529999732971191,14.529999732971191,14.529999732971191,14.529999732971191,0.0,14.529999732971191
2017-05-01,14.829999923706055,14.829999923706055,14.829999923706055,14.829999923706055,3000.0,14.829999923706055
2017-05-02,14.829999923706055,14.829999923706055,14.829999923706055,14.829999923706055,0.0,14.829999923706055
2017-05-03,14.829999923706055,14.829999923706055,14.829999923706055,14.829999923706055,0.0,14.829999923706055
2017-05-04,14.829999923706055,14.829999923706055,14.829999923706055,14.829999923706055,0.0,14.829999923706055
2017-05-05,14.829999923706055,14.829999923706055,14.829999923706055,14.829999923706055,0.0,14.829999923706055
2017-05-08,14.829999923706055,14.829999923706055,14.829999923706055,14.829999923706055,0.0,14.829999923706055
2017-05-09,14.829999923706055,14.829999923706055,14.829999923706055,14.829999923706055,0.0,14.829999923706055
2017-05-10,14.829999923706055,14.829999923706055,14.829999923706055,14.829999923706055,0.0,14.829999923706055
2017-05-11,14.100000381469727,14.100000381469727,14.100000381469727,14.100000381469727,400.0,14.100000381469727
2017-05-12,14.15999984741211,14.149999618530273,14.149999618530273,14.15999984741211,1100.0,14.15999984741211
2017-05-15,14.15999984741211,14.15999984741211,14.15999984741211,14.15999984741211,0.0,14.15999984741211
2017-05-16,14.15999984741211,14.15999984741211,14.15999984741211,14.15999984741211,0.0,14.15999984741211
2017-05-17,14.15999984741211,14.15999984741211,14.15999984741211,14.15999984741211,0.0,14.15999984741211
2017-05-18,14.329999923706055,14.329999923706055,14.329999923706055,14.329999923706055,400.0,14.329999923706055
2017-05-19,14.329999923706055,14.329999923706055,14.329999923706055,14.329999923706055,0.0,14.329999923706055
2017-05-22,14.510000228881836,14.5,14.5,14.510000228881836,200.0,14.510000228881836
2017-05-23,14.510000228881836,14.510000228881836,14.510000228881836,14.510000228881836,0.0,14.510000228881836
2017-05-24,14.510000228881836,14.510000228881836,14.510000228881836,14.510000228881836,0.0,14.510000228881836
2017-05-25,14.600000381469727,14.600000381469727,14.600000381469727,14.600000381469727,500.0,14.600000381469727
2017-05-26,14.600000381469727,14.600000381469727,14.600000381469727,14.600000381469727,0.0,14.600000381469727
2017-05-30,14.600000381469727,14.600000381469727,14.600000381469727,14.600000381469727,0.0,14.600000381469727
2017-05-31,14.600000381469727,14.600000381469727,14.600000381469727,14.600000381469727,0.0,14.600000381469727
2017-06-01,14.600000381469727,14.600000381469727,14.600000381469727,14.600000381469727,0.0,14.600000381469727
2017-06-02,14.600000381469727,14.600000381469727,14.600000381469727,14.600000381469727,0.0,14.600000381469727
2017-06-05,14.600000381469727,14.600000381469727,14.600000381469727,14.600000381469727,0.0,14.600000381469727
2017-06-06,14.600000381469727,14.600000381469727,14.600000381469727,14.600000381469727,0.0,14.600000381469727
2017-06-07,14.109999656677246,14.0,14.010000228881836,14.109999656677246,700.0,14.109999656677246
2017-06-08,14.109999656677246,14.109999656677246,14.109999656677246,14.109999656677246,0.0,14.109999656677246
2017-06-09,14.109999656677246,14.109999656677246,14.109999656677246,14.109999656677246,0.0,14.109999656677246
2017-06-12,14.109999656677246,14.109999656677246,14.109999656677246,14.109999656677246,0.0,14.109999656677246
2017-06-13,14.109999656677246,14.109999656677246,14.109999656677246,14.109999656677246,0.0,14.109999656677246
2017-06-14,14.109999656677246,14.109999656677246,14.109999656677246,14.109999656677246,0.0,14.109999656677246
2017-06-15,14.109999656677246,14.109999656677246,14.109999656677246,14.109999656677246,0.0,14.109999656677246
2017-06-16,14.109999656677246,14.109999656677246,14.109999656677246,14.109999656677246,0.0,14.109999656677246
2017-06-19,14.109999656677246,14.109999656677246,14.109999656677246,14.109999656677246,0.0,14.109999656677246
2017-06-20,14.109999656677246,14.109999656677246,14.109999656677246,14.109999656677246,0.0,14.109999656677246
2017-06-21,14.109999656677246,14.109999656677246,14.109999656677246,14.109999656677246,0.0,14.109999656677246
2017-06-22,14.109999656677246,14.109999656677246,14.109999656677246,14.109999656677246,0.0,14.109999656677246
2017-06-23,14.109999656677246,14.109999656677246,14.109999656677246,14.109999656677246,0.0,14.109999656677246
2017-06-26,14.109999656677246,14.109999656677246,14.109999656677246,14.109999656677246,0.0,14.109999656677246
2017-06-27,14.109999656677246,14.109999656677246,14.109999656677246,14.109999656677246,0.0,14.109999656677246
2017-06-28,14.109999656677246,14.109999656677246,14.109999656677246,14.109999656677246,0.0,14.109999656677246
2017-06-29,14.109999656677246,14.109999656677246,14.109999656677246,14.109999656677246,0.0,14.109999656677246
2017-06-30,14.109999656677246,14.109999656677246,14.109999656677246,14.109999656677246,0.0,14.109999656677246
2017-07-03,14.109999656677246,14.109999656677246,14.109999656677246,14.109999656677246,0.0,14.109999656677246
2017-07-05,14.109999656677246,14.109999656677246,14.109999656677246,14.109999656677246,0.0,14.109999656677246
2017-07-06,14.109999656677246,14.109999656677246,14.109999656677246,14.109999656677246,0.0,14.109999656677246
2017-07-07,14.109999656677246,14.109999656677246,14.109999656677246,14.109999656677246,0.0,14.109999656677246
2017-07-10,14.109999656677246,14.109999656677246,14.109999656677246,14.109999656677246,0.0,14.109999656677246
2017-07-11,14.109999656677246,14.109999656677246,14.109999656677246,14.109999656677246,0.0,14.109999656677246
2017-07-12,14.890000343322754,14.359999656677246,14.359999656677246,14.890000343322754,400.0,14.890000343322754
2017-07-13,14.890000343322754,14.890000343322754,14.890000343322754,14.890000343322754,0.0,14.890000343322754
2017-07-14,14.859999656677246,14.859999656677246,14.859999656677246,14.859999656677246,200.0,14.859999656677246
2017-07-17,15.180000305175781,15.039999961853027,15.180000305175781,15.100000381469727,5200.0,15.100000381469727
2017-07-18,15.0,14.979999542236328,14.989999771118164,14.979999542236328,700.0,14.979999542236328
2017-07-19,14.979999542236328,14.979999542236328,14.979999542236328,14.979999542236328,0.0,14.979999542236328
2017-07-20,14.9399995803833,14.9399995803833,14.9399995803833,14.9399995803833,300.0,14.9399995803833
2017-07-21,14.9399995803833,14.9399995803833,14.9399995803833,14.9399995803833,0.0,14.9399995803833
2017-07-24,14.9399995803833,14.9399995803833,14.9399995803833,14.9399995803833,0.0,14.9399995803833
2017-07-25,14.9399995803833,14.9399995803833,14.9399995803833,14.9399995803833,0.0,14.9399995803833
2017-07-26,14.9399995803833,14.9399995803833,14.9399995803833,14.9399995803833,0.0,14.9399995803833
2017-07-27,14.9399995803833,14.9399995803833,14.9399995803833,14.9399995803833,0.0,14.9399995803833
2017-07-28,14.9399995803833,14.9399995803833,14.9399995803833,14.9399995803833,0.0,14.9399995803833
2017-07-31,14.9399995803833,14.9399995803833,14.9399995803833,14.9399995803833,0.0,14.9399995803833
2017-08-01,15.550000190734863,14.9399995803833,14.9399995803833,15.550000190734863,1400.0,15.550000190734863
2017-08-02,15.989999771118164,14.390000343322754,15.989999771118164,14.390000343322754,300.0,14.390000343322754
2017-08-03,14.390000343322754,14.390000343322754,14.390000343322754,14.390000343322754,0.0,14.390000343322754
2017-08-04,14.390000343322754,14.390000343322754,14.390000343322754,14.390000343322754,0.0,14.390000343322754
2017-08-07,15.75,15.75,15.75,15.75,100.0,15.75
2017-08-08,16.549999237060547,16.5,16.549999237060547,16.5,500.0,16.5
2017-08-09,16.5,16.5,16.5,16.5,100.0,16.5
2017-08-10,16.049999237060547,14.859999656677246,14.859999656677246,15.0600004196167,800.0,15.0600004196167
2017-08-11,15.0600004196167,15.0600004196167,15.0600004196167,15.0600004196167,0.0,15.0600004196167
2017-08-14,15.0600004196167,15.0600004196167,15.0600004196167,15.0600004196167,0.0,15.0600004196167
2017-08-15,13.550000190734863,13.550000190734863,13.550000190734863,13.550000190734863,200.0,13.550000190734863
2017-08-16,16.510000228881836,16.15999984741211,16.15999984741211,16.510000228881836,16500.0,16.510000228881836
2017-08-17,16.510000228881836,16.510000228881836,16.510000228881836,16.510000228881836,0.0,16.510000228881836
2017-08-18,16.459999084472656,15.119999885559082,15.119999885559082,16.459999084472656,300.0,16.459999084472656
2017-08-21,16.459999084472656,16.459999084472656,16.459999084472656,16.459999084472656,0.0,16.459999084472656
2017-08-22,16.459999084472656,16.459999084472656,16.459999084472656,16.459999084472656,0.0,16.459999084472656
2017-08-23,16.459999084472656,16.459999084472656,16.459999084472656,16.459999084472656,0.0,16.459999084472656
2017-08-24,16.459999084472656,16.459999084472656,16.459999084472656,16.459999084472656,0.0,16.459999084472656
2017-08-25,16.459999084472656,16.459999084472656,16.459999084472656,16.459999084472656,0.0,16.459999084472656
2017-08-28,16.459999084472656,16.459999084472656,16.459999084472656,16.459999084472656,0.0,16.459999084472656
2017-08-29,16.459999084472656,16.459999084472656,16.459999084472656,16.459999084472656,0.0,16.459999084472656
2017-08-30,16.459999084472656,16.459999084472656,16.459999084472656,16.459999084472656,0.0,16.459999084472656
2017-08-31,16.459999084472656,16.459999084472656,16.459999084472656,16.459999084472656,0.0,16.459999084472656
2017-09-01,16.459999084472656,16.459999084472656,16.459999084472656,16.459999084472656,0.0,16.459999084472656
2017-09-05,16.459999084472656,16.459999084472656,16.459999084472656,16.459999084472656,0.0,16.459999084472656
2017-09-06,16.459999084472656,16.459999084472656,16.459999084472656,16.459999084472656,100.0,16.459999084472656
2017-09-07,16.459999084472656,16.459999084472656,16.459999084472656,16.459999084472656,0.0,16.459999084472656
2017-09-08,16.459999084472656,16.459999084472656,16.459999084472656,16.459999084472656,0.0,16.459999084472656
2017-09-11,16.459999084472656,16.459999084472656,16.459999084472656,16.459999084472656,0.0,16.459999084472656
2017-09-12,16.459999084472656,16.459999084472656,16.459999084472656,16.459999084472656,0.0,16.459999084472656
2017-09-13,16.579999923706055,15.5,15.5,16.579999923706055,500.0,16.579999923706055
2017-09-14,16.579999923706055,16.579999923706055,16.579999923706055,16.579999923706055,0.0,16.579999923706055
2017-09-15,16.579999923706055,16.579999923706055,16.579999923706055,16.579999923706055,0.0,16.579999923706055
2017-09-18,16.579999923706055,16.579999923706055,16.579999923706055,16.579999923706055,0.0,16.579999923706055
2017-09-19,16.579999923706055,16.579999923706055,16.579999923706055,16.579999923706055,0.0,16.579999923706055
2017-09-20,16.579999923706055,16.579999923706055,16.579999923706055,16.579999923706055,0.0,16.579999923706055
2017-09-21,16.579999923706055,16.579999923706055,16.579999923706055,16.579999923706055,0.0,16.579999923706055
2017-09-22,16.579999923706055,16.579999923706055,16.579999923706055,16.579999923706055,0.0,16.579999923706055
2017-09-25,16.579999923706055,16.579999923706055,16.579999923706055,16.579999923706055,0.0,16.579999923706055
2017-09-26,16.579999923706055,16.579999923706055,16.579999923706055,16.579999923706055,0.0,16.579999923706055
2017-09-27,16.579999923706055,16.579999923706055,16.579999923706055,16.579999923706055,0.0,16.579999923706055
2017-09-28,16.579999923706055,16.579999923706055,16.579999923706055,16.579999923706055,0.0,16.579999923706055
2017-09-29,16.579999923706055,16.579999923706055,16.579999923706055,16.579999923706055,0.0,16.579999923706055
2017-10-02,16.579999923706055,16.579999923706055,16.579999923706055,16.579999923706055,0.0,16.579999923706055
2017-10-03,16.579999923706055,16.579999923706055,16.579999923706055,16.579999923706055,0.0,16.579999923706055
2017-10-04,16.579999923706055,16.579999923706055,16.579999923706055,16.579999923706055,0.0,16.579999923706055
2017-10-05,16.579999923706055,16.579999923706055,16.579999923706055,16.579999923706055,0.0,16.579999923706055
2017-10-06,16.579999923706055,16.579999923706055,16.579999923706055,16.579999923706055,0.0,16.579999923706055
2017-10-09,16.579999923706055,16.579999923706055,16.579999923706055,16.579999923706055,0.0,16.579999923706055
2017-10-10,16.579999923706055,16.579999923706055,16.579999923706055,16.579999923706055,0.0,16.579999923706055
2017-10-11,17.200000762939453,16.040000915527344,16.040000915527344,17.200000762939453,500.0,17.200000762939453
2017-10-12,17.200000762939453,17.200000762939453,17.200000762939453,17.200000762939453,0.0,17.200000762939453
2017-10-13,17.200000762939453,17.200000762939453,17.200000762939453,17.200000762939453,0.0,17.200000762939453
2017-10-16,17.200000762939453,17.200000762939453,17.200000762939453,17.200000762939453,0.0,17.200000762939453
2017-10-17,17.200000762939453,17.200000762939453,17.200000762939453,17.200000762939453,0.0,17.200000762939453
2017-10-18,16.479999542236328,16.479999542236328,16.479999542236328,16.479999542236328,100.0,16.479999542236328
2017-10-19,16.479999542236328,16.479999542236328,16.479999542236328,16.479999542236328,0.0,16.479999542236328
2017-10-20,16.479999542236328,16.479999542236328,16.479999542236328,16.479999542236328,0.0,16.479999542236328
2017-10-23,16.479999542236328,16.479999542236328,16.479999542236328,16.479999542236328,0.0,16.479999542236328
2017-10-24,16.479999542236328,16.479999542236328,16.479999542236328,16.479999542236328,0.0,16.479999542236328
2017-10-25,17.850000381469727,16.799999237060547,16.799999237060547,17.850000381469727,1900.0,17.850000381469727
2017-10-26,17.850000381469727,17.850000381469727,17.850000381469727,17.850000381469727,0.0,17.850000381469727
2017-10-27,17.3700008392334,17.3700008392334,17.3700008392334,17.3700008392334,100.0,17.3700008392334
2017-10-30,17.3700008392334,17.3700008392334,17.3700008392334,17.3700008392334,0.0,17.3700008392334
2017-10-31,17.5,17.459999084472656,17.459999084472656,17.5,6200.0,17.5
2017-11-01,17.84000015258789,17.729999542236328,17.84000015258789,17.729999542236328,300.0,17.729999542236328
2017-11-02,17.729999542236328,17.729999542236328,17.729999542236328,17.729999542236328,0.0,17.729999542236328
2017-11-03,17.729999542236328,17.729999542236328,17.729999542236328,17.729999542236328,0.0,17.729999542236328
2017-11-06,17.729999542236328,17.729999542236328,17.729999542236328,17.729999542236328,0.0,17.729999542236328
2017-11-07,17.440000534057617,17.239999771118164,17.239999771118164,17.440000534057617,1100.0,17.440000534057617
2017-11-08,17.440000534057617,17.440000534057617,17.440000534057617,17.440000534057617,0.0,17.440000534057617
2017-11-09,17.440000534057617,17.440000534057617,17.440000534057617,17.440000534057617,0.0,17.440000534057617
2017-11-10,17.280000686645508,17.100000381469727,17.100000381469727,17.280000686645508,300.0,17.280000686645508
2017-11-13,17.329999923706055,17.309999465942383,17.329999923706055,17.309999465942383,500.0,17.309999465942383
2017-11-14,17.309999465942383,17.290000915527344,17.290000915527344,17.309999465942383,6300.0,17.309999465942383
2017-11-15,17.329999923706055,17.1299991607666,17.329999923706055,17.1299991607666,3100.0,17.1299991607666
2017-11-16,17.020000457763672,17.010000228881836,17.010000228881836,17.020000457763672,200.0,17.020000457763672
2017-11-17,17.290000915527344,17.0,17.0,17.290000915527344,500.0,17.290000915527344
2017-11-20,17.290000915527344,17.290000915527344,17.290000915527344,17.290000915527344,0.0,17.290000915527344
2017-11-21,17.290000915527344,17.290000915527344,17.290000915527344,17.290000915527344,0.0,17.290000915527344
2017-11-22,17.65999984741211,17.239999771118164,17.639999389648438,17.639999389648438,1900.0,17.639999389648438
2017-11-24,17.639999389648438,17.639999389648438,17.639999389648438,17.639999389648438,0.0,17.639999389648438
2017-11-27,17.639999389648438,17.639999389648438,17.639999389648438,17.639999389648438,0.0,17.639999389648438
2017-11-28,17.639999389648438,17.639999389648438,17.639999389648438,17.639999389648438,0.0,17.639999389648438
2017-11-29,16.920000076293945,16.799999237060547,16.920000076293945,16.799999237060547,300.0,16.799999237060547
2017-11-30,16.799999237060547,16.799999237060547,16.799999237060547,16.799999237060547,0.0,16.799999237060547
2017-12-01,17.100000381469727,16.540000915527344,16.700000762939453,17.049999237060547,800.0,17.049999237060547
2017-12-04,17.049999237060547,17.049999237060547,17.049999237060547,17.049999237060547,0.0,17.049999237060547
2017-12-05,16.809999465942383,16.600000381469727,16.809999465942383,16.600000381469727,200.0,16.600000381469727
2017-12-06,16.540000915527344,16.530000686645508,16.540000915527344,16.530000686645508,500.0,16.530000686645508
2017-12-07,16.530000686645508,16.530000686645508,16.530000686645508,16.530000686645508,0.0,16.530000686645508
2017-12-08,16.479999542236328,16.479999542236328,16.479999542236328,16.479999542236328,600.0,16.479999542236328
2017-12-11,16.479999542236328,16.479999542236328,16.479999542236328,16.479999542236328,0.0,16.479999542236328
2017-12-12,16.479999542236328,16.479999542236328,16.479999542236328,16.479999542236328,0.0,16.479999542236328
2017-12-13,16.479999542236328,16.479999542236328,16.479999542236328,16.479999542236328,0.0,16.479999542236328
2017-12-14,17.059999465942383,16.969999313354492,16.969999313354492,17.059999465942383,200.0,17.059999465942383
2017-12-15,17.059999465942383,17.059999465942383,17.059999465942383,17.059999465942383,0.0,17.059999465942383
2017-12-18,17.059999465942383,17.059999465942383,17.059999465942383,17.059999465942383,0.0,17.059999465942383
2017-12-19,17.059999465942383,17.059999465942383,17.059999465942383,17.059999465942383,0.0,17.059999465942383
2017-12-20,17.059999465942383,17.059999465942383,17.059999465942383,17.059999465942383,0.0,17.059999465942383
2017-12-21,17.059999465942383,17.059999465942383,17.059999465942383,17.059999465942383,0.0,17.059999465942383
2017-12-22,17.059999465942383,17.059999465942383,17.059999465942383,17.059999465942383,0.0,17.059999465942383
2017-12-26,17.059999465942383,17.059999465942383,17.059999465942383,17.059999465942383,0.0,17.059999465942383
2017-12-27,17.059999465942383,17.059999465942383,17.059999465942383,17.059999465942383,0.0,17.059999465942383
2017-12-28,17.059999465942383,17.059999465942383,17.059999465942383,17.059999465942383,0.0,17.059999465942383
2017-12-29,17.059999465942383,17.059999465942383,17.059999465942383,17.059999465942383,0.0,17.059999465942383
2018-01-02,17.059999465942383,17.059999465942383,17.059999465942383,17.059999465942383,0.0,17.059999465942383
2018-01-03,20.469999313354492,18.979999542236328,20.469999313354492,18.979999542236328,200.0,18.979999542236328
2018-01-04,22.540000915527344,22.540000915527344,22.540000915527344,22.540000915527344,100.0,22.540000915527344
2018-01-05,18.270000457763672,18.030000686645508,18.270000457763672,18.030000686645508,600.0,18.030000686645508
2018-01-08,18.030000686645508,18.030000686645508,18.030000686645508,18.030000686645508,0.0,18.030000686645508
2018-01-09,18.0,17.90999984741211,18.0,17.90999984741211,600.0,17.90999984741211
2018-01-10,17.90999984741211,17.90999984741211,17.90999984741211,17.90999984741211,0.0,17.90999984741211
2018-01-11,18.34000015258789,18.15999984741211,18.34000015258789,18.15999984741211,700.0,18.15999984741211
2018-01-12,19.06999969482422,17.950000762939453,19.06999969482422,18.309999465942383,1200.0,18.309999465942383
2018-01-16,18.059999465942383,17.989999771118164,18.059999465942383,17.989999771118164,600.0,17.989999771118164
2018-01-17,17.950000762939453,17.950000762939453,17.950000762939453,17.950000762939453,100.0,17.950000762939453
2018-01-18,17.899999618530273,17.899999618530273,17.899999618530273,17.899999618530273,100.0,17.899999618530273
2018-01-19,17.899999618530273,17.899999618530273,17.899999618530273,17.899999618530273,0.0,17.899999618530273
2018-01-22,17.899999618530273,17.899999618530273,17.899999618530273,17.899999618530273,0.0,17.899999618530273
2018-01-23,18.170000076293945,18.149999618530273,18.170000076293945,18.149999618530273,500.0,18.149999618530273
2018-01-24,18.149999618530273,18.149999618530273,18.149999618530273,18.149999618530273,0.0,18.149999618530273
2018-01-25,18.149999618530273,18.149999618530273,18.149999618530273,18.149999618530273,0.0,18.149999618530273
2018-01-26,18.389999389648438,18.149999618530273,18.149999618530273,18.389999389648438,400.0,18.389999389648438
2018-01-29,18.25,18.25,18.25,18.25,100.0,18.25
2018-01-30,18.459999084472656,18.459999084472656,18.459999084472656,18.459999084472656,200.0,18.459999084472656
2018-01-31,18.459999084472656,18.459999084472656,18.459999084472656,18.459999084472656,0.0,18.459999084472656
2018-02-01,18.459999084472656,18.459999084472656,18.459999084472656,18.459999084472656,0.0,18.459999084472656
2018-02-02,18.459999084472656,18.459999084472656,18.459999084472656,18.459999084472656,0.0,18.459999084472656
2018-02-05,18.979999542236328,18.690000534057617,18.979999542236328,18.690000534057617,600.0,18.690000534057617
2018-02-06,18.389999389648438,17.75,17.75,18.389999389648438,700.0,18.389999389648438
2018-02-07,18.389999389648438,18.389999389648438,18.389999389648438,18.389999389648438,0.0,18.389999389648438
2018-02-08,18.389999389648438,18.389999389648438,18.389999389648438,18.389999389648438,0.0,18.389999389648438
2018-02-09,18.389999389648438,18.389999389648438,18.389999389648438,18.389999389648438,0.0,18.389999389648438
2018-02-12,17.760000228881836,17.760000228881836,17.760000228881836,17.760000228881836,200.0,17.760000228881836
2018-02-13,17.760000228881836,17.760000228881836,17.760000228881836,17.760000228881836,0.0,17.760000228881836
2018-02-14,18.299999237060547,18.299999237060547,18.299999237060547,18.299999237060547,200.0,18.299999237060547
2018-02-15,18.670000076293945,18.5,18.5,18.670000076293945,400.0,18.670000076293945
2018-02-16,18.670000076293945,18.670000076293945,18.670000076293945,18.670000076293945,0.0,18.670000076293945
2018-02-20,18.489999771118164,18.489999771118164,18.489999771118164,18.489999771118164,200.0,18.489999771118164
2018-02-21,18.489999771118164,18.489999771118164,18.489999771118164,18.489999771118164,0.0,18.489999771118164
2018-02-22,18.489999771118164,18.489999771118164,18.489999771118164,18.489999771118164,400.0,18.489999771118164
2018-02-23,18.40999984741211,18.030000686645508,18.40999984741211,18.030000686645508,500.0,18.030000686645508
2018-02-26,18.030000686645508,18.030000686645508,18.030000686645508,18.030000686645508,0.0,18.030000686645508
2018-02-27,18.40999984741211,17.979999542236328,18.40999984741211,17.979999542236328,600.0,17.979999542236328
2018-02-28,18.399999618530273,18.100000381469727,18.399999618530273,18.100000381469727,200.0,18.100000381469727
2018-03-01,17.6200008392334,17.6200008392334,17.6200008392334,17.6200008392334,100.0,17.6200008392334
2018-03-02,17.799999237060547,17.780000686645508,17.780000686645508,17.799999237060547,300.0,17.799999237060547
2018-03-05,17.799999237060547,17.799999237060547,17.799999237060547,17.799999237060547,0.0,17.799999237060547
2018-03-06,17.799999237060547,17.799999237060547,17.799999237060547,17.799999237060547,0.0,17.799999237060547
2018-03-07,17.799999237060547,17.799999237060547,17.799999237060547,17.799999237060547,0.0,17.799999237060547
2018-03-08,17.540000915527344,17.540000915527344,17.540000915527344,17.540000915527344,100.0,17.540000915527344
2018-03-09,17.540000915527344,17.540000915527344,17.540000915527344,17.540000915527344,0.0,17.540000915527344
2018-03-12,17.579999923706055,17.559999465942383,17.559999465942383,17.579999923706055,600.0,17.579999923706055
2018-03-13,17.579999923706055,17.579999923706055,17.579999923706055,17.579999923706055,0.0,17.579999923706055
2018-03-14,17.579999923706055,17.579999923706055,17.579999923706055,17.579999923706055,0.0,17.579999923706055
2018-03-15,17.600000381469727,17.600000381469727,17.600000381469727,17.600000381469727,300.0,17.600000381469727
2018-03-16,17.600000381469727,17.600000381469727,17.600000381469727,17.600000381469727,0.0,17.600000381469727
2018-03-19,17.600000381469727,17.600000381469727,17.600000381469727,17.600000381469727,0.0,17.600000381469727
2018-03-20,17.600000381469727,17.600000381469727,17.600000381469727,17.600000381469727,0.0,17.600000381469727
2018-03-21,17.600000381469727,17.600000381469727,17.600000381469727,17.600000381469727,0.0,17.600000381469727
2018-03-22,17.1299991607666,17.1299991607666,17.1299991607666,17.1299991607666,100.0,17.1299991607666
2018-03-23,17.1299991607666,17.1299991607666,17.1299991607666,17.1299991607666,0.0,17.1299991607666
2018-03-26,17.1299991607666,17.1299991607666,17.1299991607666,17.1299991607666,0.0,17.1299991607666
2018-03-27,17.1299991607666,17.1299991607666,17.1299991607666,17.1299991607666,0.0,17.1299991607666
2018-03-28,17.1299991607666,17.1299991607666,17.1299991607666,17.1299991607666,0.0,17.1299991607666
2018-03-29,17.06999969482422,17.06999969482422,17.06999969482422,17.06999969482422,100.0,17.06999969482422
2018-04-02,17.06999969482422,17.06999969482422,17.06999969482422,17.06999969482422,0.0,17.06999969482422
2018-04-03,17.110000610351562,17.110000610351562,17.110000610351562,17.110000610351562,100.0,17.110000610351562
2018-04-04,16.8799991607666,16.8799991607666,16.8799991607666,16.8799991607666,100.0,16.8799991607666
2018-04-05,16.8799991607666,16.8799991607666,16.8799991607666,16.8799991607666,0.0,16.8799991607666
2018-04-06,16.8799991607666,16.8799991607666,16.8799991607666,16.8799991607666,0.0,16.8799991607666
2018-04-09,16.8799991607666,16.8799991607666,16.8799991607666,16.8799991607666,0.0,16.8799991607666
2018-04-10,16.8799991607666,16.8799991607666,16.8799991607666,16.8799991607666,0.0,16.8799991607666
2018-04-11,17.969999313354492,17.969999313354492,17.969999313354492,17.969999313354492,200.0,17.969999313354492
2018-04-12,17.969999313354492,17.969999313354492,17.969999313354492,17.969999313354492,0.0,17.969999313354492
2018-04-13,17.969999313354492,17.969999313354492,17.969999313354492,17.969999313354492,0.0,17.969999313354492
2018-04-16,17.969999313354492,17.969999313354492,17.969999313354492,17.969999313354492,0.0,17.969999313354492
2018-04-17,17.969999313354492,17.969999313354492,17.969999313354492,17.969999313354492,0.0,17.969999313354492
2018-04-18,18.8799991607666,18.8799991607666,18.8799991607666,18.8799991607666,100.0,18.8799991607666
2018-04-19,18.399999618530273,18.399999618530273,18.399999618530273,18.399999618530273,100.0,18.399999618530273
2018-04-20,18.399999618530273,18.399999618530273,18.399999618530273,18.399999618530273,0.0,18.399999618530273
2018-04-23,18.399999618530273,18.399999618530273,18.399999618530273,18.399999618530273,0.0,18.399999618530273
2018-04-24,18.399999618530273,18.399999618530273,18.399999618530273,18.399999618530273,0.0,18.399999618530273
2018-04-25,18.09000015258789,18.030000686645508,18.09000015258789,18.030000686645508,500.0,18.030000686645508
2018-04-26,18.030000686645508,18.030000686645508,18.030000686645508,18.030000686645508,0.0,18.030000686645508
2018-04-27,18.030000686645508,18.030000686645508,18.030000686645508,18.030000686645508,0.0,18.030000686645508
2018-04-30,18.030000686645508,18.030000686645508,18.030000686645508,18.030000686645508,0.0,18.030000686645508
2018-05-01,17.329999923706055,17.329999923706055,17.329999923706055,17.329999923706055,600.0,17.329999923706055
2018-05-02,17.329999923706055,17.329999923706055,17.329999923706055,17.329999923706055,0.0,17.329999923706055
2018-05-03,17.329999923706055,17.329999923706055,17.329999923706055,17.329999923706055,0.0,17.329999923706055
2018-05-04,17.329999923706055,17.329999923706055,17.329999923706055,17.329999923706055,0.0,17.329999923706055
2018-05-07,17.329999923706055,17.329999923706055,17.329999923706055,17.329999923706055,0.0,17.329999923706055
2018-05-08,17.329999923706055,17.329999923706055,17.329999923706055,17.329999923706055,0.0,17.329999923706055
2018-05-09,17.329999923706055,17.329999923706055,17.329999923706055,17.329999923706055,0.0,17.329999923706055
2018-05-10,18.0,18.0,18.0,18.0,1000.0,18.0
2018-05-11,17.860000610351562,17.600000381469727,17.600000381469727,17.75,600.0,17.75
2018-05-14,17.75,17.75,17.75,17.75,0.0,17.75
2018-05-15,17.75,17.75,17.75,17.75,0.0,17.75
2018-05-16,17.75,17.75,17.75,17.75,0.0,17.75
2018-05-17,17.75,17.75,17.75,17.75,0.0,17.75
2018-05-18,17.790000915527344,17.65999984741211,17.670000076293945,17.790000915527344,1600.0,17.790000915527344
2018-05-21,17.790000915527344,17.790000915527344,17.790000915527344,17.790000915527344,0.0,17.790000915527344
2018-05-22,17.790000915527344,17.790000915527344,17.790000915527344,17.790000915527344,0.0,17.790000915527344
2018-05-23,17.780000686645508,17.780000686645508,17.780000686645508,17.780000686645508,200.0,17.780000686645508
2018-05-24,17.780000686645508,17.780000686645508,17.780000686645508,17.780000686645508,0.0,17.780000686645508
2018-05-25,17.84000015258789,17.84000015258789,17.84000015258789,17.84000015258789,100.0,17.84000015258789
2018-05-29,17.84000015258789,17.84000015258789,17.84000015258789,17.84000015258789,0.0,17.84000015258789
2018-05-30,17.84000015258789,17.84000015258789,17.84000015258789,17.84000015258789,0.0,17.84000015258789
2018-05-31,17.84000015258789,17.84000015258789,17.84000015258789,17.84000015258789,0.0,17.84000015258789
2018-06-01,17.84000015258789,17.84000015258789,17.84000015258789,17.84000015258789,0.0,17.84000015258789
2018-06-04,17.84000015258789,17.84000015258789,17.84000015258789,17.84000015258789,0.0,17.84000015258789
2018-06-05,18.780000686645508,18.739999771118164,18.739999771118164,18.780000686645508,1900.0,18.780000686645508
2018-06-06,18.780000686645508,18.780000686645508,18.780000686645508,18.780000686645508,0.0,18.780000686645508
2018-06-07,18.780000686645508,18.780000686645508,18.780000686645508,18.780000686645508,0.0,18.780000686645508
2018-06-08,18.780000686645508,18.780000686645508,18.780000686645508,18.780000686645508,0.0,18.780000686645508
2018-06-11,18.780000686645508,18.780000686645508,18.780000686645508,18.780000686645508,0.0,18.780000686645508
2018-06-12,18.780000686645508,18.780000686645508,18.780000686645508,18.780000686645508,0.0,18.780000686645508
2018-06-13,18.780000686645508,18.780000686645508,18.780000686645508,18.780000686645508,0.0,18.780000686645508
2018-06-14,18.780000686645508,18.780000686645508,18.780000686645508,18.780000686645508,0.0,18.780000686645508
2018-06-15,18.200000762939453,18.200000762939453,18.200000762939453,18.200000762939453,100.0,18.200000762939453
2018-06-18,18.200000762939453,18.200000762939453,18.200000762939453,18.200000762939453,0.0,18.200000762939453
2018-06-19,18.200000762939453,18.200000762939453,18.200000762939453,18.200000762939453,0.0,18.200000762939453
2018-06-20,17.5,17.5,17.5,17.5,1000.0,17.5
2018-06-21,17.5,17.5,17.5,17.5,0.0,17.5
2018-06-22,17.549999237060547,17.540000915527344,17.549999237060547,17.540000915527344,600.0,17.540000915527344
2018-06-25,17.540000915527344,17.540000915527344,17.540000915527344,17.540000915527344,0.0,17.540000915527344
2018-06-26,17.540000915527344,17.540000915527344,17.540000915527344,17.540000915527344,0.0,17.540000915527344
2018-06-27,17.540000915527344,17.540000915527344,17.540000915527344,17.540000915527344,0.0,17.540000915527344
2018-06-28,17.540000915527344,17.540000915527344,17.540000915527344,17.540000915527344,0.0,17.540000915527344
2018-06-29,17.540000915527344,17.540000915527344,17.540000915527344,17.540000915527344,0.0,17.540000915527344
2018-07-02,17.540000915527344,17.540000915527344,17.540000915527344,17.540000915527344,0.0,17.540000915527344
2018-07-03,17.540000915527344,17.540000915527344,17.540000915527344,17.540000915527344,0.0,17.540000915527344
2018-08-20,0.7200000286102295,0.7099999785423279,0.7200000286102295,0.7099999785423279,140000.0,0.7099999785423279
2018-08-21,0.8799999952316284,0.7200000286102295,0.7200000286102295,0.800000011920929,245550.0,0.800000011920929
2018-08-22,0.8199999928474426,0.7699999809265137,0.7699999809265137,0.8199999928474426,258500.0,0.8199999928474426
2018-08-23,0.8799999952316284,0.8199999928474426,0.8199999928474426,0.8799999952316284,227500.0,0.8799999952316284
2018-08-24,0.949999988079071,0.8700000047683716,0.8700000047683716,0.8799999952316284,67000.0,0.8799999952316284
