Date,High,Low,Open,Close,Volume,Adj Close
2015-10-09,20.979999542236328,14.100000381469727,20.979999542236328,14.100000381469727,500,14.100000381469727
2015-10-12,13.859999656677246,13.859999656677246,13.859999656677246,13.859999656677246,600,13.859999656677246
2015-10-13,13.819999694824219,13.819999694824219,13.819999694824219,13.819999694824219,600,13.819999694824219
2015-10-14,13.819999694824219,13.819999694824219,13.819999694824219,13.819999694824219,0,13.819999694824219
2015-10-15,13.819999694824219,13.819999694824219,13.819999694824219,13.819999694824219,0,13.819999694824219
2015-10-16,13.819999694824219,13.819999694824219,13.819999694824219,13.819999694824219,0,13.819999694824219
2015-10-19,13.569999694824219,13.569999694824219,13.569999694824219,13.569999694824219,1000,13.569999694824219
2015-10-20,13.550000190734863,13.550000190734863,13.550000190734863,13.550000190734863,2000,13.550000190734863
2015-10-21,13.550000190734863,13.550000190734863,13.550000190734863,13.550000190734863,0,13.550000190734863
2015-10-22,13.550000190734863,13.550000190734863,13.550000190734863,13.550000190734863,0,13.550000190734863
2015-10-23,13.390000343322754,13.390000343322754,13.390000343322754,13.390000343322754,1000,13.390000343322754
2015-10-26,13.390000343322754,13.390000343322754,13.390000343322754,13.390000343322754,0,13.390000343322754
2015-10-27,13.3100004196167,13.3100004196167,13.3100004196167,13.3100004196167,1000,13.3100004196167
2015-10-28,13.529999732971191,13.319999694824219,13.319999694824219,13.529999732971191,4000,13.529999732971191
2015-10-29,13.449999809265137,13.449999809265137,13.449999809265137,13.449999809265137,1000,13.449999809265137
2015-10-30,13.449999809265137,13.449999809265137,13.449999809265137,13.449999809265137,0,13.449999809265137
2015-11-02,13.420000076293945,13.420000076293945,13.420000076293945,13.420000076293945,1000,13.420000076293945
2015-11-03,13.609999656677246,13.529999732971191,13.529999732971191,13.609999656677246,3000,13.609999656677246
2015-11-04,13.5600004196167,13.449999809265137,13.550000190734863,13.449999809265137,4000,13.449999809265137
2015-11-05,13.369999885559082,13.369999885559082,13.369999885559082,13.369999885559082,1000,13.369999885559082
2015-11-06,13.15999984741211,13.140000343322754,13.140000343322754,13.15999984741211,2000,13.15999984741211
2015-11-09,13.15999984741211,13.15999984741211,13.15999984741211,13.15999984741211,0,13.15999984741211
2015-11-10,13.079999923706055,13.039999961853027,13.039999961853027,13.079999923706055,3000,13.079999923706055
2015-11-11,13.079999923706055,13.079999923706055,13.079999923706055,13.079999923706055,0,13.079999923706055
2015-11-12,12.890000343322754,12.890000343322754,12.890000343322754,12.890000343322754,600,12.890000343322754
2015-11-13,12.710000038146973,12.710000038146973,12.710000038146973,12.710000038146973,600,12.710000038146973
2015-11-16,12.710000038146973,12.710000038146973,12.710000038146973,12.710000038146973,0,12.710000038146973
2015-11-17,12.5600004196167,12.5600004196167,12.5600004196167,12.5600004196167,1000,12.5600004196167
2015-11-18,12.5,12.479999542236328,12.5,12.479999542236328,1400,12.479999542236328
2015-11-19,12.579999923706055,12.579999923706055,12.579999923706055,12.579999923706055,600,12.579999923706055
2015-11-20,12.539999961853027,12.539999961853027,12.539999961853027,12.539999961853027,1500,12.539999961853027
2015-11-23,12.539999961853027,12.539999961853027,12.539999961853027,12.539999961853027,0,12.539999961853027
2015-11-24,12.6899995803833,12.6899995803833,12.6899995803833,12.6899995803833,600,12.6899995803833
2015-11-25,12.710000038146973,12.619999885559082,12.619999885559082,12.710000038146973,2000,12.710000038146973
2015-11-27,12.600000381469727,12.600000381469727,12.600000381469727,12.600000381469727,600,12.600000381469727
2015-11-30,12.600000381469727,12.600000381469727,12.600000381469727,12.600000381469727,0,12.600000381469727
2015-12-01,12.600000381469727,12.600000381469727,12.600000381469727,12.600000381469727,0,12.600000381469727
2015-12-02,12.600000381469727,12.550000190734863,12.579999923706055,12.5600004196167,400,12.5600004196167
2015-12-03,12.5600004196167,12.5600004196167,12.5600004196167,12.5600004196167,0,12.5600004196167
2015-12-04,12.609999656677246,12.59000015258789,12.59000015258789,12.609999656677246,1200,12.609999656677246
2015-12-07,12.609999656677246,12.609999656677246,12.609999656677246,12.609999656677246,0,12.609999656677246
2015-12-08,12.270000457763672,12.220000267028809,12.270000457763672,12.229999542236328,400,12.229999542236328
2015-12-09,12.399999618530273,12.270000457763672,12.359999656677246,12.270000457763672,2800,12.270000457763672
2015-12-10,12.229999542236328,12.229999542236328,12.229999542236328,12.229999542236328,600,12.229999542236328
2015-12-11,12.229999542236328,12.119999885559082,12.229999542236328,12.119999885559082,4200,12.119999885559082
2015-12-14,14.399999618530273,12.039999961853027,14.399999618530273,12.079999923706055,6900,12.079999923706055
2015-12-15,12.079999923706055,12.079999923706055,12.079999923706055,12.079999923706055,0,12.079999923706055
2015-12-16,11.960000038146973,11.920000076293945,11.9399995803833,11.930000305175781,4400,11.930000305175781
2015-12-17,11.890000343322754,11.859999656677246,11.890000343322754,11.859999656677246,200,11.859999656677246
2015-12-18,12.109999656677246,12.0600004196167,12.079999923706055,12.100000381469727,4300,12.100000381469727
2015-12-21,12.100000381469727,12.100000381469727,12.100000381469727,12.100000381469727,0,12.100000381469727
2015-12-22,12.100000381469727,12.100000381469727,12.100000381469727,12.100000381469727,0,12.100000381469727
2015-12-23,12.100000381469727,12.100000381469727,12.100000381469727,12.100000381469727,0,12.100000381469727
2015-12-24,12.100000381469727,12.100000381469727,12.100000381469727,12.100000381469727,0,12.100000381469727
2015-12-28,12.020000457763672,11.979999542236328,12.020000457763672,11.989999771118164,18000,11.989999771118164
2015-12-29,11.989999771118164,11.989999771118164,11.989999771118164,11.989999771118164,0,11.989999771118164
2015-12-30,11.989999771118164,11.989999771118164,11.989999771118164,11.989999771118164,0,11.989999771118164
2015-12-31,12.1899995803833,12.09000015258789,12.09000015258789,12.1899995803833,4000,12.1899995803833
2016-01-04,12.149999618530273,12.109999656677246,12.119999885559082,12.109999656677246,2300,12.109999656677246
2016-01-05,11.930000305175781,11.930000305175781,11.930000305175781,11.930000305175781,500,11.930000305175781
2016-01-06,11.710000038146973,11.699999809265137,11.699999809265137,11.710000038146973,2000,11.710000038146973
2016-01-07,11.729999542236328,11.670000076293945,11.729999542236328,11.6899995803833,400,11.6899995803833
2016-01-08,11.6899995803833,11.6899995803833,11.6899995803833,11.6899995803833,0,11.6899995803833
2016-01-11,11.6899995803833,11.6899995803833,11.6899995803833,11.6899995803833,0,11.6899995803833
2016-01-12,11.470000267028809,11.270000457763672,11.350000381469727,11.470000267028809,300,11.470000267028809
2016-01-13,11.300000190734863,11.180000305175781,11.300000190734863,11.180000305175781,3000,11.180000305175781
2016-01-14,11.180000305175781,11.180000305175781,11.180000305175781,11.180000305175781,0,11.180000305175781
2016-01-15,11.119999885559082,11.119999885559082,11.119999885559082,11.119999885559082,100,11.119999885559082
2016-01-19,11.100000381469727,11.100000381469727,11.100000381469727,11.100000381469727,1000,11.100000381469727
2016-01-20,11.100000381469727,11.100000381469727,11.100000381469727,11.100000381469727,0,11.100000381469727
2016-01-21,11.069999694824219,11.069999694824219,11.069999694824219,11.069999694824219,2500,11.069999694824219
2016-01-22,11.069999694824219,11.069999694824219,11.069999694824219,11.069999694824219,0,11.069999694824219
2016-01-25,11.069999694824219,11.069999694824219,11.069999694824219,11.069999694824219,0,11.069999694824219
2016-01-26,11.069999694824219,11.069999694824219,11.069999694824219,11.069999694824219,0,11.069999694824219
2016-01-27,11.069999694824219,11.069999694824219,11.069999694824219,11.069999694824219,0,11.069999694824219
2016-01-28,11.069999694824219,11.069999694824219,11.069999694824219,11.069999694824219,0,11.069999694824219
2016-01-29,11.069999694824219,11.069999694824219,11.069999694824219,11.069999694824219,0,11.069999694824219
2016-02-01,11.069999694824219,11.069999694824219,11.069999694824219,11.069999694824219,0,11.069999694824219
2016-02-02,11.069999694824219,11.069999694824219,11.069999694824219,11.069999694824219,0,11.069999694824219
2016-02-03,11.390000343322754,11.390000343322754,11.390000343322754,11.390000343322754,2500,11.390000343322754
2016-02-04,11.680000305175781,11.680000305175781,11.680000305175781,11.680000305175781,2400,11.680000305175781
2016-02-05,11.680000305175781,11.680000305175781,11.680000305175781,11.680000305175781,0,11.680000305175781
2016-02-08,11.680000305175781,11.680000305175781,11.680000305175781,11.680000305175781,0,11.680000305175781
2016-02-09,11.680000305175781,11.680000305175781,11.680000305175781,11.680000305175781,0,11.680000305175781
2016-02-10,11.680000305175781,11.680000305175781,11.680000305175781,11.680000305175781,0,11.680000305175781
2016-02-11,11.680000305175781,11.680000305175781,11.680000305175781,11.680000305175781,0,11.680000305175781
2016-02-12,11.680000305175781,11.680000305175781,11.680000305175781,11.680000305175781,0,11.680000305175781
2016-02-16,11.680000305175781,11.680000305175781,11.680000305175781,11.680000305175781,0,11.680000305175781
2016-02-17,11.680000305175781,11.680000305175781,11.680000305175781,11.680000305175781,0,11.680000305175781
2016-02-18,11.680000305175781,11.680000305175781,11.680000305175781,11.680000305175781,0,11.680000305175781
2016-02-19,11.680000305175781,11.680000305175781,11.680000305175781,11.680000305175781,0,11.680000305175781
2016-02-22,11.680000305175781,11.680000305175781,11.680000305175781,11.680000305175781,0,11.680000305175781
2016-02-23,11.680000305175781,11.680000305175781,11.680000305175781,11.680000305175781,0,11.680000305175781
2016-02-24,11.34000015258789,11.34000015258789,11.34000015258789,11.34000015258789,2500,11.34000015258789
2016-02-25,11.539999961853027,11.479999542236328,11.479999542236328,11.529999732971191,5600,11.529999732971191
2016-02-26,11.529999732971191,11.529999732971191,11.529999732971191,11.529999732971191,0,11.529999732971191
2016-02-29,11.619999885559082,11.619999885559082,11.619999885559082,11.619999885559082,2500,11.619999885559082
2016-03-01,11.65999984741211,11.649999618530273,11.65999984741211,11.649999618530273,200,11.649999618530273
2016-03-02,11.649999618530273,11.649999618530273,11.649999618530273,11.649999618530273,0,11.649999618530273
2016-03-03,11.850000381469727,11.789999961853027,11.789999961853027,11.850000381469727,200,11.850000381469727
2016-03-04,11.850000381469727,11.850000381469727,11.850000381469727,11.850000381469727,0,11.850000381469727
2016-03-07,11.850000381469727,11.850000381469727,11.850000381469727,11.850000381469727,0,11.850000381469727
2016-03-08,11.850000381469727,11.850000381469727,11.850000381469727,11.850000381469727,0,11.850000381469727
2016-03-09,11.850000381469727,11.850000381469727,11.850000381469727,11.850000381469727,0,11.850000381469727
2016-03-10,11.850000381469727,11.850000381469727,11.850000381469727,11.850000381469727,0,11.850000381469727
2016-03-11,12.303999900817871,12.303999900817871,12.303999900817871,12.303999900817871,600,12.303999900817871
2016-03-14,12.119999885559082,12.109999656677246,12.109999656677246,12.119999885559082,2000,12.119999885559082
2016-03-15,12.119999885559082,12.119999885559082,12.119999885559082,12.119999885559082,0,12.119999885559082
2016-03-16,12.119999885559082,12.119999885559082,12.119999885559082,12.119999885559082,0,12.119999885559082
2016-03-17,12.119999885559082,12.119999885559082,12.119999885559082,12.119999885559082,0,12.119999885559082
2016-03-18,12.119999885559082,12.119999885559082,12.119999885559082,12.119999885559082,0,12.119999885559082
2016-03-21,12.510000228881836,12.460000038146973,12.510000228881836,12.5,600,12.5
2016-03-22,12.5,12.5,12.5,12.5,0,12.5
2016-03-23,12.5,12.5,12.5,12.5,0,12.5
2016-03-24,12.5,12.5,12.5,12.5,0,12.5
2016-03-28,12.5,12.5,12.5,12.5,0,12.5
2016-03-29,12.25,12.25,12.25,12.25,400,12.25
2016-03-30,12.25,12.25,12.25,12.25,0,12.25
2016-03-31,12.25,12.25,12.25,12.25,0,12.25
2016-04-01,12.25,12.25,12.25,12.25,0,12.25
2016-04-04,12.25,12.25,12.25,12.25,0,12.25
2016-04-05,12.25,12.25,12.25,12.25,0,12.25
2016-04-06,12.25,12.25,12.25,12.25,0,12.25
2016-04-07,12.25,12.25,12.25,12.25,0,12.25
2016-04-08,12.25,12.25,12.25,12.25,0,12.25
2016-04-11,12.25,12.25,12.25,12.25,0,12.25
2016-04-12,12.25,12.25,12.25,12.25,0,12.25
2016-04-13,12.25,12.25,12.25,12.25,0,12.25
2016-04-14,12.25,12.25,12.25,12.25,0,12.25
2016-04-15,12.25,12.25,12.25,12.25,0,12.25
2016-04-18,12.25,12.25,12.25,12.25,0,12.25
2016-04-19,12.25,12.25,12.25,12.25,0,12.25
2016-04-20,12.25,12.25,12.25,12.25,0,12.25
2016-04-21,12.25,12.25,12.25,12.25,0,12.25
2016-04-22,12.25,12.25,12.25,12.25,0,12.25
2016-04-25,12.25,12.25,12.25,12.25,0,12.25
2016-04-26,12.25,12.25,12.25,12.25,0,12.25
2016-04-27,12.25,12.25,12.25,12.25,0,12.25
2016-04-28,12.25,12.25,12.25,12.25,0,12.25
2016-04-29,12.25,12.25,12.25,12.25,0,12.25
2016-05-02,12.25,12.25,12.25,12.25,0,12.25
2016-05-03,12.25,12.25,12.25,12.25,0,12.25
2016-05-04,12.25,12.25,12.25,12.25,0,12.25
2016-05-05,12.779999732971191,12.710000038146973,12.75,12.710000038146973,14700,12.710000038146973
2016-05-06,12.710000038146973,12.710000038146973,12.710000038146973,12.710000038146973,0,12.710000038146973
2016-05-09,12.710000038146973,12.710000038146973,12.710000038146973,12.710000038146973,0,12.710000038146973
2016-05-10,12.710000038146973,12.710000038146973,12.710000038146973,12.710000038146973,0,12.710000038146973
2016-05-11,12.710000038146973,12.710000038146973,12.710000038146973,12.710000038146973,0,12.710000038146973
2016-05-12,12.710000038146973,12.710000038146973,12.710000038146973,12.710000038146973,0,12.710000038146973
2016-05-13,12.710000038146973,12.710000038146973,12.710000038146973,12.710000038146973,0,12.710000038146973
2016-05-16,12.710000038146973,12.710000038146973,12.710000038146973,12.710000038146973,0,12.710000038146973
2016-05-17,12.710000038146973,12.710000038146973,12.710000038146973,12.710000038146973,0,12.710000038146973
2016-05-18,12.710000038146973,12.710000038146973,12.710000038146973,12.710000038146973,0,12.710000038146973
2016-05-19,12.710000038146973,12.710000038146973,12.710000038146973,12.710000038146973,0,12.710000038146973
2016-05-20,12.710000038146973,12.710000038146973,12.710000038146973,12.710000038146973,0,12.710000038146973
2016-05-23,12.710000038146973,12.710000038146973,12.710000038146973,12.710000038146973,0,12.710000038146973
2016-05-24,12.710000038146973,12.710000038146973,12.710000038146973,12.710000038146973,0,12.710000038146973
2016-05-25,12.710000038146973,12.710000038146973,12.710000038146973,12.710000038146973,0,12.710000038146973
2016-05-26,12.710000038146973,12.710000038146973,12.710000038146973,12.710000038146973,0,12.710000038146973
2016-05-27,12.710000038146973,12.710000038146973,12.710000038146973,12.710000038146973,0,12.710000038146973
2016-05-31,12.710000038146973,12.710000038146973,12.710000038146973,12.710000038146973,0,12.710000038146973
2016-06-01,12.710000038146973,12.710000038146973,12.710000038146973,12.710000038146973,0,12.710000038146973
2016-06-02,12.710000038146973,12.710000038146973,12.710000038146973,12.710000038146973,0,12.710000038146973
2016-06-03,12.710000038146973,12.710000038146973,12.710000038146973,12.710000038146973,0,12.710000038146973
2016-06-06,12.710000038146973,12.710000038146973,12.710000038146973,12.710000038146973,0,12.710000038146973
2016-06-07,12.710000038146973,12.710000038146973,12.710000038146973,12.710000038146973,0,12.710000038146973
2016-06-08,12.710000038146973,12.710000038146973,12.710000038146973,12.710000038146973,0,12.710000038146973
2016-06-09,12.710000038146973,12.710000038146973,12.710000038146973,12.710000038146973,0,12.710000038146973
2016-06-10,12.710000038146973,12.710000038146973,12.710000038146973,12.710000038146973,0,12.710000038146973
2016-06-13,12.710000038146973,12.710000038146973,12.710000038146973,12.710000038146973,0,12.710000038146973
2016-06-14,12.710000038146973,12.710000038146973,12.710000038146973,12.710000038146973,0,12.710000038146973
2016-06-15,12.710000038146973,12.710000038146973,12.710000038146973,12.710000038146973,0,12.710000038146973
2016-06-16,12.710000038146973,12.710000038146973,12.710000038146973,12.710000038146973,0,12.710000038146973
2016-06-17,12.710000038146973,12.710000038146973,12.710000038146973,12.710000038146973,0,12.710000038146973
2016-06-20,12.710000038146973,12.710000038146973,12.710000038146973,12.710000038146973,0,12.710000038146973
2016-06-21,12.710000038146973,12.710000038146973,12.710000038146973,12.710000038146973,0,12.710000038146973
2016-06-22,12.710000038146973,12.710000038146973,12.710000038146973,12.710000038146973,0,12.710000038146973
2016-06-23,12.710000038146973,12.710000038146973,12.710000038146973,12.710000038146973,0,12.710000038146973
2016-06-24,12.710000038146973,12.710000038146973,12.710000038146973,12.710000038146973,0,12.710000038146973
2016-06-27,12.710000038146973,12.710000038146973,12.710000038146973,12.710000038146973,0,12.710000038146973
2016-06-28,12.710000038146973,12.710000038146973,12.710000038146973,12.710000038146973,0,12.710000038146973
2016-06-29,12.710000038146973,12.710000038146973,12.710000038146973,12.710000038146973,0,12.710000038146973
2016-06-30,12.710000038146973,12.710000038146973,12.710000038146973,12.710000038146973,0,12.710000038146973
2016-07-01,12.710000038146973,12.710000038146973,12.710000038146973,12.710000038146973,0,12.710000038146973
2016-07-05,12.710000038146973,12.710000038146973,12.710000038146973,12.710000038146973,0,12.710000038146973
2016-07-06,12.710000038146973,12.710000038146973,12.710000038146973,12.710000038146973,0,12.710000038146973
2016-07-07,12.710000038146973,12.710000038146973,12.710000038146973,12.710000038146973,0,12.710000038146973
2016-07-08,12.710000038146973,12.710000038146973,12.710000038146973,12.710000038146973,0,12.710000038146973
2016-07-11,12.710000038146973,12.710000038146973,12.710000038146973,12.710000038146973,0,12.710000038146973
2016-07-12,12.710000038146973,12.710000038146973,12.710000038146973,12.710000038146973,0,12.710000038146973
2016-07-13,12.710000038146973,12.710000038146973,12.710000038146973,12.710000038146973,0,12.710000038146973
2016-07-14,12.710000038146973,12.710000038146973,12.710000038146973,12.710000038146973,0,12.710000038146973
2016-07-15,12.710000038146973,12.710000038146973,12.710000038146973,12.710000038146973,0,12.710000038146973
2016-07-18,12.710000038146973,12.710000038146973,12.710000038146973,12.710000038146973,0,12.710000038146973
2016-07-19,12.710000038146973,12.710000038146973,12.710000038146973,12.710000038146973,0,12.710000038146973
2016-07-20,12.710000038146973,12.710000038146973,12.710000038146973,12.710000038146973,0,12.710000038146973
2016-07-21,12.710000038146973,12.710000038146973,12.710000038146973,12.710000038146973,0,12.710000038146973
2016-07-22,12.710000038146973,12.710000038146973,12.710000038146973,12.710000038146973,0,12.710000038146973
2016-07-25,12.710000038146973,12.710000038146973,12.710000038146973,12.710000038146973,0,12.710000038146973
2016-07-26,12.710000038146973,12.710000038146973,12.710000038146973,12.710000038146973,0,12.710000038146973
2016-07-27,12.710000038146973,12.710000038146973,12.710000038146973,12.710000038146973,0,12.710000038146973
2016-07-28,12.710000038146973,12.710000038146973,12.710000038146973,12.710000038146973,0,12.710000038146973
2016-07-29,12.710000038146973,12.710000038146973,12.710000038146973,12.710000038146973,0,12.710000038146973
2016-08-01,12.710000038146973,12.710000038146973,12.710000038146973,12.710000038146973,0,12.710000038146973
2016-08-02,12.751999855041504,12.751999855041504,12.751999855041504,12.751999855041504,2300,12.751999855041504
2016-08-03,12.751999855041504,12.751999855041504,12.751999855041504,12.751999855041504,0,12.751999855041504
2016-08-04,12.751999855041504,12.751999855041504,12.751999855041504,12.751999855041504,0,12.751999855041504
2016-08-05,12.751999855041504,12.751999855041504,12.751999855041504,12.751999855041504,0,12.751999855041504
2016-08-08,12.751999855041504,12.751999855041504,12.751999855041504,12.751999855041504,0,12.751999855041504
2016-08-09,12.751999855041504,12.751999855041504,12.751999855041504,12.751999855041504,0,12.751999855041504
2016-08-10,13.229999542236328,12.989999771118164,13.210000038146973,12.989999771118164,2300,12.989999771118164
2016-08-11,12.989999771118164,12.989999771118164,12.989999771118164,12.989999771118164,0,12.989999771118164
2016-08-12,12.989999771118164,12.989999771118164,12.989999771118164,12.989999771118164,0,12.989999771118164
2016-08-15,12.989999771118164,12.989999771118164,12.989999771118164,12.989999771118164,0,12.989999771118164
2016-08-16,12.989999771118164,12.989999771118164,12.989999771118164,12.989999771118164,0,12.989999771118164
2016-08-17,13.5600004196167,13.510000228881836,13.510000228881836,13.550000190734863,1200,13.550000190734863
2016-08-18,13.550000190734863,13.550000190734863,13.550000190734863,13.550000190734863,0,13.550000190734863
2016-08-19,13.550000190734863,13.550000190734863,13.550000190734863,13.550000190734863,0,13.550000190734863
2016-08-22,13.550000190734863,13.550000190734863,13.550000190734863,13.550000190734863,0,13.550000190734863
2016-08-23,13.550000190734863,13.550000190734863,13.550000190734863,13.550000190734863,0,13.550000190734863
2016-08-24,13.550000190734863,13.550000190734863,13.550000190734863,13.550000190734863,0,13.550000190734863
2016-08-25,13.550000190734863,13.550000190734863,13.550000190734863,13.550000190734863,0,13.550000190734863
2016-08-26,13.550000190734863,13.550000190734863,13.550000190734863,13.550000190734863,0,13.550000190734863
2016-08-29,13.550000190734863,13.550000190734863,13.550000190734863,13.550000190734863,0,13.550000190734863
2016-08-30,13.550000190734863,13.550000190734863,13.550000190734863,13.550000190734863,0,13.550000190734863
2016-08-31,13.550000190734863,13.550000190734863,13.550000190734863,13.550000190734863,0,13.550000190734863
2016-09-01,13.550000190734863,13.550000190734863,13.550000190734863,13.550000190734863,0,13.550000190734863
2016-09-02,13.550000190734863,13.550000190734863,13.550000190734863,13.550000190734863,0,13.550000190734863
2016-09-06,13.550000190734863,13.550000190734863,13.550000190734863,13.550000190734863,0,13.550000190734863
2016-09-07,13.550000190734863,13.550000190734863,13.550000190734863,13.550000190734863,0,13.550000190734863
2016-09-08,13.550000190734863,13.550000190734863,13.550000190734863,13.550000190734863,0,13.550000190734863
2016-09-09,13.550000190734863,13.550000190734863,13.550000190734863,13.550000190734863,0,13.550000190734863
2016-09-12,13.550000190734863,13.550000190734863,13.550000190734863,13.550000190734863,0,13.550000190734863
2016-09-13,13.550000190734863,13.550000190734863,13.550000190734863,13.550000190734863,0,13.550000190734863
2016-09-14,13.550000190734863,13.550000190734863,13.550000190734863,13.550000190734863,0,13.550000190734863
2016-09-15,13.550000190734863,13.550000190734863,13.550000190734863,13.550000190734863,0,13.550000190734863
2016-09-16,13.550000190734863,13.550000190734863,13.550000190734863,13.550000190734863,0,13.550000190734863
2016-09-19,13.550000190734863,13.550000190734863,13.550000190734863,13.550000190734863,0,13.550000190734863
2016-09-20,13.550000190734863,13.550000190734863,13.550000190734863,13.550000190734863,0,13.550000190734863
2016-09-21,13.550000190734863,13.550000190734863,13.550000190734863,13.550000190734863,0,13.550000190734863
2016-09-22,13.550000190734863,13.550000190734863,13.550000190734863,13.550000190734863,0,13.550000190734863
2016-09-23,13.550000190734863,13.550000190734863,13.550000190734863,13.550000190734863,0,13.550000190734863
2016-09-26,13.550000190734863,13.550000190734863,13.550000190734863,13.550000190734863,0,13.550000190734863
2016-09-27,13.550000190734863,13.550000190734863,13.550000190734863,13.550000190734863,0,13.550000190734863
2016-09-28,13.550000190734863,13.550000190734863,13.550000190734863,13.550000190734863,0,13.550000190734863
2016-09-29,13.550000190734863,13.550000190734863,13.550000190734863,13.550000190734863,0,13.550000190734863
2016-09-30,13.5,13.5,13.5,13.5,200,13.5
2016-10-03,13.5,13.5,13.5,13.5,0,13.5
2016-10-04,13.5,13.5,13.5,13.5,0,13.5
2016-10-05,13.5,13.5,13.5,13.5,0,13.5
2016-10-06,13.5,13.5,13.5,13.5,0,13.5
2016-10-07,13.5,13.5,13.5,13.5,0,13.5
2016-10-10,13.5,13.5,13.5,13.5,0,13.5
2016-10-11,13.5,13.5,13.5,13.5,0,13.5
2016-10-12,13.5,13.5,13.5,13.5,0,13.5
2016-10-13,13.5,13.5,13.5,13.5,0,13.5
2016-10-14,13.5,13.5,13.5,13.5,0,13.5
2016-10-17,13.5,13.5,13.5,13.5,0,13.5
2016-10-18,13.5,13.5,13.5,13.5,0,13.5
2016-10-19,13.5,13.5,13.5,13.5,0,13.5
2016-10-20,13.5,13.5,13.5,13.5,0,13.5
2016-10-21,13.5,13.5,13.5,13.5,0,13.5
2016-10-24,13.5,13.5,13.5,13.5,0,13.5
2016-10-25,13.5,13.5,13.5,13.5,0,13.5
2016-10-26,13.5,13.5,13.5,13.5,0,13.5
2016-10-27,13.5,13.5,13.5,13.5,0,13.5
2016-10-28,13.5,13.5,13.5,13.5,0,13.5
2016-10-31,13.5,13.5,13.5,13.5,0,13.5
2016-11-01,13.5,13.5,13.5,13.5,0,13.5
2016-11-02,13.5,13.5,13.5,13.5,0,13.5
2016-11-03,13.5,13.5,13.5,13.5,0,13.5
2016-11-04,13.5,13.5,13.5,13.5,0,13.5
2016-11-07,13.5,13.5,13.5,13.5,0,13.5
2016-11-08,13.5,13.5,13.5,13.5,0,13.5
2016-11-09,13.5,13.5,13.5,13.5,0,13.5
2016-11-10,13.5,13.5,13.5,13.5,0,13.5
2016-11-11,13.5,13.5,13.5,13.5,0,13.5
2016-11-14,13.5,13.5,13.5,13.5,0,13.5
2016-11-15,13.5,13.5,13.5,13.5,0,13.5
2016-11-16,13.5,13.5,13.5,13.5,0,13.5
2016-11-17,13.5,13.5,13.5,13.5,0,13.5
2016-11-18,13.5,13.5,13.5,13.5,0,13.5
2016-11-21,13.5,13.5,13.5,13.5,0,13.5
2016-11-22,13.5,13.5,13.5,13.5,0,13.5
2016-11-23,13.5,13.5,13.5,13.5,0,13.5
2016-11-25,13.5,13.5,13.5,13.5,0,13.5
2016-11-28,13.5,13.5,13.5,13.5,0,13.5
2016-11-29,13.5,13.5,13.5,13.5,0,13.5
2016-11-30,13.5,13.5,13.5,13.5,0,13.5
2016-12-01,13.5,13.5,13.5,13.5,0,13.5
2016-12-02,13.5,13.5,13.5,13.5,0,13.5
2016-12-05,13.5,13.5,13.5,13.5,0,13.5
2016-12-06,13.5,13.5,13.5,13.5,0,13.5
2016-12-07,14.239999771118164,14.239999771118164,14.239999771118164,14.239999771118164,100,14.239999771118164
2016-12-08,14.239999771118164,14.239999771118164,14.239999771118164,14.239999771118164,0,14.239999771118164
2016-12-09,14.239999771118164,14.239999771118164,14.239999771118164,14.239999771118164,0,14.239999771118164
2016-12-12,14.239999771118164,14.239999771118164,14.239999771118164,14.239999771118164,0,14.239999771118164
2016-12-13,14.300000190734863,14.300000190734863,14.300000190734863,14.300000190734863,100,14.300000190734863
2016-12-14,14.300000190734863,14.300000190734863,14.300000190734863,14.300000190734863,0,14.300000190734863
2016-12-15,14.300000190734863,14.300000190734863,14.300000190734863,14.300000190734863,0,14.300000190734863
2016-12-16,14.300000190734863,14.300000190734863,14.300000190734863,14.300000190734863,0,14.300000190734863
2016-12-19,14.300000190734863,14.300000190734863,14.300000190734863,14.300000190734863,0,14.300000190734863
2016-12-20,14.100000381469727,14.100000381469727,14.100000381469727,14.100000381469727,100,14.100000381469727
2016-12-21,14.100000381469727,14.100000381469727,14.100000381469727,14.100000381469727,0,14.100000381469727
2016-12-22,14.100000381469727,14.100000381469727,14.100000381469727,14.100000381469727,0,14.100000381469727
2016-12-23,14.100000381469727,14.100000381469727,14.100000381469727,14.100000381469727,0,14.100000381469727
2016-12-27,14.25,14.199999809265137,14.199999809265137,14.199999809265137,2500,14.199999809265137
2016-12-28,14.199999809265137,14.199999809265137,14.199999809265137,14.199999809265137,0,14.199999809265137
2016-12-29,14.175999641418457,14.175999641418457,14.175999641418457,14.175999641418457,2300,14.175999641418457
2016-12-30,14.175999641418457,14.175999641418457,14.175999641418457,14.175999641418457,0,14.175999641418457
2017-01-03,14.175999641418457,14.175999641418457,14.175999641418457,14.175999641418457,0,14.175999641418457
2017-01-04,14.175999641418457,14.175999641418457,14.175999641418457,14.175999641418457,0,14.175999641418457
2017-01-05,14.175999641418457,14.175999641418457,14.175999641418457,14.175999641418457,0,14.175999641418457
2017-01-06,14.175999641418457,14.175999641418457,14.175999641418457,14.175999641418457,0,14.175999641418457
2017-01-09,14.175999641418457,14.175999641418457,14.175999641418457,14.175999641418457,0,14.175999641418457
2017-01-10,14.175999641418457,14.175999641418457,14.175999641418457,14.175999641418457,0,14.175999641418457
2017-01-11,14.175999641418457,14.175999641418457,14.175999641418457,14.175999641418457,0,14.175999641418457
2017-01-12,14.614999771118164,14.487000465393066,14.529999732971191,14.609999656677246,10100,14.609999656677246
2017-01-13,16.0,15.850000381469727,16.0,15.850000381469727,3000,15.850000381469727
2017-01-17,14.8100004196167,14.760000228881836,14.760000228881836,14.8100004196167,2000,14.8100004196167
2017-01-18,14.8100004196167,14.8100004196167,14.8100004196167,14.8100004196167,0,14.8100004196167
2017-01-19,14.579999923706055,14.579999923706055,14.579999923706055,14.579999923706055,100,14.579999923706055
2017-01-20,14.65999984741211,14.609999656677246,14.630000114440918,14.619999885559082,2500,14.619999885559082
2017-01-23,14.670000076293945,14.59000015258789,14.59000015258789,14.65999984741211,2300,14.65999984741211
2017-01-24,14.75,14.75,14.75,14.75,700,14.75
2017-01-25,14.75,14.75,14.75,14.75,0,14.75
2017-01-26,14.6899995803833,14.6899995803833,14.6899995803833,14.6899995803833,1100,14.6899995803833
2017-01-27,14.59000015258789,14.550000190734863,14.59000015258789,14.550000190734863,800,14.550000190734863
2017-01-30,14.449999809265137,14.430000305175781,14.430000305175781,14.4399995803833,1400,14.4399995803833
2017-01-31,14.5600004196167,14.5600004196167,14.5600004196167,14.5600004196167,400,14.5600004196167
2017-02-01,14.720000267028809,14.720000267028809,14.720000267028809,14.720000267028809,400,14.720000267028809
2017-02-02,14.680000305175781,14.680000305175781,14.680000305175781,14.680000305175781,500,14.680000305175781
2017-02-03,14.619999885559082,14.619999885559082,14.619999885559082,14.619999885559082,1500,14.619999885559082
2017-02-06,14.619999885559082,14.619999885559082,14.619999885559082,14.619999885559082,0,14.619999885559082
2017-02-07,14.539999961853027,14.460000038146973,14.539999961853027,14.539999961853027,1100,14.539999961853027
2017-02-08,14.539999961853027,14.539999961853027,14.539999961853027,14.539999961853027,0,14.539999961853027
2017-02-09,14.539999961853027,14.539999961853027,14.539999961853027,14.539999961853027,0,14.539999961853027
2017-02-10,14.539999961853027,14.539999961853027,14.539999961853027,14.539999961853027,0,14.539999961853027
2017-02-13,14.789999961853027,14.789999961853027,14.789999961853027,14.789999961853027,200,14.789999961853027
2017-02-14,14.800000190734863,14.74899959564209,14.800000190734863,14.789999961853027,1400,14.789999961853027
2017-02-15,14.789999961853027,14.789999961853027,14.789999961853027,14.789999961853027,0,14.789999961853027
2017-02-16,14.789999961853027,14.789999961853027,14.789999961853027,14.789999961853027,0,14.789999961853027
2017-02-17,14.789999961853027,14.789999961853027,14.789999961853027,14.789999961853027,0,14.789999961853027
2017-02-21,14.789999961853027,14.789999961853027,14.789999961853027,14.789999961853027,0,14.789999961853027
2017-02-22,14.640000343322754,14.640000343322754,14.640000343322754,14.640000343322754,1000,14.640000343322754
2017-02-23,14.59000015258789,14.59000015258789,14.59000015258789,14.59000015258789,300,14.59000015258789
2017-02-24,14.59000015258789,14.59000015258789,14.59000015258789,14.59000015258789,0,14.59000015258789
2017-02-27,14.59000015258789,14.59000015258789,14.59000015258789,14.59000015258789,0,14.59000015258789
2017-02-28,14.59000015258789,14.40999984741211,14.40999984741211,14.59000015258789,4100,14.59000015258789
2017-03-01,14.59000015258789,14.59000015258789,14.59000015258789,14.59000015258789,0,14.59000015258789
2017-03-02,14.59000015258789,14.59000015258789,14.59000015258789,14.59000015258789,0,14.59000015258789
2017-03-03,14.59000015258789,14.59000015258789,14.59000015258789,14.59000015258789,0,14.59000015258789
2017-03-06,14.496000289916992,14.496000289916992,14.496000289916992,14.496000289916992,200,14.496000289916992
2017-03-07,14.373000144958496,14.373000144958496,14.373000144958496,14.373000144958496,300,14.373000144958496
2017-03-08,14.279999732971191,14.229999542236328,14.279999732971191,14.229999542236328,4200,14.229999542236328
2017-03-09,14.229999542236328,14.229999542236328,14.229999542236328,14.229999542236328,0,14.229999542236328
2017-03-10,14.229999542236328,14.229999542236328,14.229999542236328,14.229999542236328,0,14.229999542236328
2017-03-13,13.960000038146973,13.932999610900879,13.949000358581543,13.932999610900879,700,13.932999610900879
2017-03-14,13.899999618530273,13.876999855041504,13.899999618530273,13.880000114440918,1400,13.880000114440918
2017-03-15,13.880000114440918,13.880000114440918,13.880000114440918,13.880000114440918,0,13.880000114440918
2017-03-16,14.039999961853027,14.039999961853027,14.039999961853027,14.039999961853027,800,14.039999961853027
2017-03-17,14.069999694824219,14.069999694824219,14.069999694824219,14.069999694824219,200,14.069999694824219
2017-03-20,14.050000190734863,14.039999961853027,14.050000190734863,14.039999961853027,500,14.039999961853027
2017-03-21,14.029999732971191,13.9399995803833,14.029999732971191,13.9399995803833,300,13.9399995803833
2017-03-22,13.9399995803833,13.9399995803833,13.9399995803833,13.9399995803833,0,13.9399995803833
2017-03-23,13.9399995803833,13.9399995803833,13.9399995803833,13.9399995803833,0,13.9399995803833
2017-03-24,13.9399995803833,13.9399995803833,13.9399995803833,13.9399995803833,0,13.9399995803833
2017-03-27,13.869999885559082,13.8100004196167,13.829000473022461,13.824000358581543,3800,13.824000358581543
2017-03-28,13.824000358581543,13.824000358581543,13.824000358581543,13.824000358581543,0,13.824000358581543
2017-03-29,13.824000358581543,13.824000358581543,13.824000358581543,13.824000358581543,0,13.824000358581543
2017-03-30,13.824000358581543,13.824000358581543,13.824000358581543,13.824000358581543,0,13.824000358581543
2017-03-31,13.824000358581543,13.824000358581543,13.824000358581543,13.824000358581543,0,13.824000358581543
2017-04-03,14.0600004196167,13.970000267028809,14.0600004196167,13.970000267028809,300,13.970000267028809
2017-04-04,13.970000267028809,13.970000267028809,13.970000267028809,13.970000267028809,0,13.970000267028809
2017-04-05,13.970000267028809,13.970000267028809,13.970000267028809,13.970000267028809,0,13.970000267028809
2017-04-06,14.149999618530273,14.100000381469727,14.149999618530273,14.100000381469727,300,14.100000381469727
2017-04-07,14.100000381469727,14.100000381469727,14.100000381469727,14.100000381469727,0,14.100000381469727
2017-04-10,14.100000381469727,14.100000381469727,14.100000381469727,14.100000381469727,0,14.100000381469727
2017-04-11,14.100000381469727,14.100000381469727,14.100000381469727,14.100000381469727,0,14.100000381469727
2017-04-12,14.100000381469727,14.100000381469727,14.100000381469727,14.100000381469727,0,14.100000381469727
2017-04-13,14.100000381469727,14.100000381469727,14.100000381469727,14.100000381469727,0,14.100000381469727
2017-04-17,14.100000381469727,14.100000381469727,14.100000381469727,14.100000381469727,0,14.100000381469727
2017-04-18,14.100000381469727,14.100000381469727,14.100000381469727,14.100000381469727,0,14.100000381469727
2017-04-19,14.100000381469727,14.100000381469727,14.100000381469727,14.100000381469727,0,14.100000381469727
2017-04-20,14.100000381469727,14.100000381469727,14.100000381469727,14.100000381469727,0,14.100000381469727
2017-04-21,14.100000381469727,14.100000381469727,14.100000381469727,14.100000381469727,0,14.100000381469727
2017-04-24,14.100000381469727,14.100000381469727,14.100000381469727,14.100000381469727,0,14.100000381469727
2017-04-25,14.100000381469727,14.100000381469727,14.100000381469727,14.100000381469727,0,14.100000381469727
2017-04-26,14.100000381469727,14.100000381469727,14.100000381469727,14.100000381469727,0,14.100000381469727
2017-04-27,14.100000381469727,14.100000381469727,14.100000381469727,14.100000381469727,0,14.100000381469727
2017-04-28,14.100000381469727,14.100000381469727,14.100000381469727,14.100000381469727,0,14.100000381469727
2017-05-01,13.829999923706055,13.829999923706055,13.829999923706055,13.829999923706055,4000,13.829999923706055
2017-05-02,13.84000015258789,13.79699993133545,13.84000015258789,13.79699993133545,500,13.79699993133545
2017-05-03,13.79699993133545,13.79699993133545,13.79699993133545,13.79699993133545,0,13.79699993133545
2017-05-04,13.79699993133545,13.79699993133545,13.79699993133545,13.79699993133545,0,13.79699993133545
2017-05-05,13.79699993133545,13.79699993133545,13.79699993133545,13.79699993133545,0,13.79699993133545
2017-05-08,13.79699993133545,13.79699993133545,13.79699993133545,13.79699993133545,0,13.79699993133545
2017-05-09,13.4399995803833,13.40999984741211,13.4399995803833,13.430000305175781,400,13.430000305175781
2017-05-10,13.430000305175781,13.430000305175781,13.430000305175781,13.430000305175781,0,13.430000305175781
2017-05-11,13.430000305175781,13.430000305175781,13.430000305175781,13.430000305175781,0,13.430000305175781
2017-05-12,13.430000305175781,13.430000305175781,13.430000305175781,13.430000305175781,0,13.430000305175781
2017-05-15,13.430000305175781,13.430000305175781,13.430000305175781,13.430000305175781,0,13.430000305175781
2017-05-16,13.430000305175781,13.430000305175781,13.430000305175781,13.430000305175781,0,13.430000305175781
2017-05-17,13.430000305175781,13.430000305175781,13.430000305175781,13.430000305175781,0,13.430000305175781
2017-05-18,13.430000305175781,13.430000305175781,13.430000305175781,13.430000305175781,0,13.430000305175781
2017-05-19,13.430000305175781,13.430000305175781,13.430000305175781,13.430000305175781,0,13.430000305175781
2017-05-22,13.430000305175781,13.430000305175781,13.430000305175781,13.430000305175781,0,13.430000305175781
2017-05-23,13.430000305175781,13.430000305175781,13.430000305175781,13.430000305175781,0,13.430000305175781
2017-05-24,13.430000305175781,13.430000305175781,13.430000305175781,13.430000305175781,0,13.430000305175781
2017-05-25,13.430000305175781,13.430000305175781,13.430000305175781,13.430000305175781,0,13.430000305175781
2017-05-26,13.430000305175781,13.430000305175781,13.430000305175781,13.430000305175781,0,13.430000305175781
2017-05-30,13.430000305175781,13.430000305175781,13.430000305175781,13.430000305175781,0,13.430000305175781
2017-05-31,13.4350004196167,13.420000076293945,13.430000305175781,13.4350004196167,1000,13.4350004196167
2017-06-01,13.4350004196167,13.4350004196167,13.4350004196167,13.4350004196167,0,13.4350004196167
2017-06-02,13.4350004196167,13.4350004196167,13.4350004196167,13.4350004196167,0,13.4350004196167
2017-06-05,13.4350004196167,13.4350004196167,13.4350004196167,13.4350004196167,0,13.4350004196167
2017-06-06,13.4350004196167,13.4350004196167,13.4350004196167,13.4350004196167,0,13.4350004196167
2017-06-07,13.4350004196167,13.4350004196167,13.4350004196167,13.4350004196167,0,13.4350004196167
2017-06-08,13.4350004196167,13.4350004196167,13.4350004196167,13.4350004196167,0,13.4350004196167
2017-06-09,13.4350004196167,13.4350004196167,13.4350004196167,13.4350004196167,0,13.4350004196167
2017-06-12,13.4350004196167,13.4350004196167,13.4350004196167,13.4350004196167,0,13.4350004196167
2017-06-13,13.4350004196167,13.4350004196167,13.4350004196167,13.4350004196167,0,13.4350004196167
2017-06-14,13.4350004196167,13.4350004196167,13.4350004196167,13.4350004196167,0,13.4350004196167
2017-06-15,13.4350004196167,13.4350004196167,13.4350004196167,13.4350004196167,0,13.4350004196167
2017-06-16,13.4350004196167,13.4350004196167,13.4350004196167,13.4350004196167,0,13.4350004196167
2017-06-19,13.21399974822998,13.208999633789062,13.21399974822998,13.208999633789062,300,13.208999633789062
2017-06-20,13.208999633789062,13.208999633789062,13.208999633789062,13.208999633789062,0,13.208999633789062
2017-06-21,13.208999633789062,13.208999633789062,13.208999633789062,13.208999633789062,0,13.208999633789062
2017-06-22,13.208999633789062,13.208999633789062,13.208999633789062,13.208999633789062,0,13.208999633789062
2017-06-23,13.208999633789062,13.208999633789062,13.208999633789062,13.208999633789062,0,13.208999633789062
2017-06-26,13.015999794006348,13.015999794006348,13.015999794006348,13.015999794006348,100,13.015999794006348
2017-06-27,13.015999794006348,13.015999794006348,13.015999794006348,13.015999794006348,0,13.015999794006348
2017-06-28,13.015999794006348,13.015999794006348,13.015999794006348,13.015999794006348,0,13.015999794006348
2017-06-29,13.015999794006348,13.015999794006348,13.015999794006348,13.015999794006348,0,13.015999794006348
2017-06-30,13.015999794006348,13.015999794006348,13.015999794006348,13.015999794006348,0,13.015999794006348
2017-07-03,13.015999794006348,13.015999794006348,13.015999794006348,13.015999794006348,0,13.015999794006348
2017-07-05,13.015999794006348,13.015999794006348,13.015999794006348,13.015999794006348,0,13.015999794006348
2017-07-06,13.015999794006348,13.015999794006348,13.015999794006348,13.015999794006348,0,13.015999794006348
2017-07-07,13.015999794006348,13.015999794006348,13.015999794006348,13.015999794006348,0,13.015999794006348
2017-07-10,13.015999794006348,13.015999794006348,13.015999794006348,13.015999794006348,0,13.015999794006348
2017-07-11,13.015999794006348,13.015999794006348,13.015999794006348,13.015999794006348,0,13.015999794006348
2017-07-12,13.015999794006348,13.015999794006348,13.015999794006348,13.015999794006348,0,13.015999794006348
2017-07-13,13.015999794006348,13.015999794006348,13.015999794006348,13.015999794006348,0,13.015999794006348
2017-07-14,12.479999542236328,12.0,12.0,12.479999542236328,2300,12.479999542236328
2017-07-17,12.479999542236328,12.479999542236328,12.479999542236328,12.479999542236328,0,12.479999542236328
2017-07-18,12.479999542236328,12.479999542236328,12.479999542236328,12.479999542236328,0,12.479999542236328
2017-07-19,11.40999984741211,11.229999542236328,11.40999984741211,11.229999542236328,1600,11.229999542236328
2017-07-20,13.470000267028809,10.100000381469727,10.109999656677246,13.470000267028809,5500,13.470000267028809
2017-07-21,13.470000267028809,13.470000267028809,13.470000267028809,13.470000267028809,0,13.470000267028809
2017-07-24,14.010000228881836,14.010000228881836,14.010000228881836,14.010000228881836,500,14.010000228881836
2017-07-25,14.010000228881836,14.010000228881836,14.010000228881836,14.010000228881836,0,14.010000228881836
2017-07-26,14.010000228881836,14.010000228881836,14.010000228881836,14.010000228881836,0,14.010000228881836
2017-07-27,14.010000228881836,14.010000228881836,14.010000228881836,14.010000228881836,0,14.010000228881836
2017-07-28,14.010000228881836,14.010000228881836,14.010000228881836,14.010000228881836,0,14.010000228881836
2017-07-31,14.100000381469727,14.100000381469727,14.100000381469727,14.100000381469727,1000,14.100000381469727
2017-08-01,14.100000381469727,14.100000381469727,14.100000381469727,14.100000381469727,0,14.100000381469727
2017-08-02,14.100000381469727,14.100000381469727,14.100000381469727,14.100000381469727,0,14.100000381469727
2017-08-03,14.100000381469727,14.100000381469727,14.100000381469727,14.100000381469727,0,14.100000381469727
2017-08-04,14.100000381469727,14.100000381469727,14.100000381469727,14.100000381469727,0,14.100000381469727
2017-08-07,14.100000381469727,14.100000381469727,14.100000381469727,14.100000381469727,0,14.100000381469727
2017-08-08,14.100000381469727,14.100000381469727,14.100000381469727,14.100000381469727,0,14.100000381469727
2017-08-09,14.100000381469727,14.100000381469727,14.100000381469727,14.100000381469727,0,14.100000381469727
2017-08-10,14.100000381469727,14.100000381469727,14.100000381469727,14.100000381469727,0,14.100000381469727
2017-08-11,14.100000381469727,14.100000381469727,14.100000381469727,14.100000381469727,0,14.100000381469727
2017-08-14,14.100000381469727,14.100000381469727,14.100000381469727,14.100000381469727,0,14.100000381469727
2017-08-15,14.100000381469727,14.100000381469727,14.100000381469727,14.100000381469727,0,14.100000381469727
2017-08-16,14.100000381469727,14.100000381469727,14.100000381469727,14.100000381469727,0,14.100000381469727
2017-08-17,14.100000381469727,14.100000381469727,14.100000381469727,14.100000381469727,0,14.100000381469727
2017-08-18,14.100000381469727,14.100000381469727,14.100000381469727,14.100000381469727,0,14.100000381469727
2017-08-21,14.100000381469727,14.100000381469727,14.100000381469727,14.100000381469727,0,14.100000381469727
2017-08-22,14.100000381469727,14.100000381469727,14.100000381469727,14.100000381469727,0,14.100000381469727
2017-08-23,14.100000381469727,14.100000381469727,14.100000381469727,14.100000381469727,0,14.100000381469727
2017-08-24,14.100000381469727,14.100000381469727,14.100000381469727,14.100000381469727,0,14.100000381469727
2017-08-25,14.100000381469727,14.100000381469727,14.100000381469727,14.100000381469727,0,14.100000381469727
2017-08-28,14.100000381469727,14.100000381469727,14.100000381469727,14.100000381469727,0,14.100000381469727
2017-08-29,14.100000381469727,14.100000381469727,14.100000381469727,14.100000381469727,0,14.100000381469727
2017-08-30,14.100000381469727,14.100000381469727,14.100000381469727,14.100000381469727,0,14.100000381469727
2017-08-31,14.100000381469727,14.100000381469727,14.100000381469727,14.100000381469727,0,14.100000381469727
2017-09-01,14.100000381469727,14.100000381469727,14.100000381469727,14.100000381469727,0,14.100000381469727
2017-09-05,14.100000381469727,14.100000381469727,14.100000381469727,14.100000381469727,0,14.100000381469727
2017-09-06,14.100000381469727,14.100000381469727,14.100000381469727,14.100000381469727,0,14.100000381469727
2017-09-07,14.100000381469727,14.100000381469727,14.100000381469727,14.100000381469727,0,14.100000381469727
2017-09-08,14.100000381469727,14.100000381469727,14.100000381469727,14.100000381469727,0,14.100000381469727
2017-09-11,14.100000381469727,14.100000381469727,14.100000381469727,14.100000381469727,0,14.100000381469727
2017-09-12,14.100000381469727,14.100000381469727,14.100000381469727,14.100000381469727,0,14.100000381469727
2017-09-13,14.100000381469727,14.100000381469727,14.100000381469727,14.100000381469727,0,14.100000381469727
2017-09-14,14.100000381469727,14.100000381469727,14.100000381469727,14.100000381469727,0,14.100000381469727
2017-09-15,14.100000381469727,14.100000381469727,14.100000381469727,14.100000381469727,0,14.100000381469727
2017-09-18,14.100000381469727,14.100000381469727,14.100000381469727,14.100000381469727,0,14.100000381469727
2017-09-19,14.100000381469727,14.100000381469727,14.100000381469727,14.100000381469727,0,14.100000381469727
2017-09-20,14.100000381469727,14.100000381469727,14.100000381469727,14.100000381469727,0,14.100000381469727
2017-09-21,14.100000381469727,14.100000381469727,14.100000381469727,14.100000381469727,0,14.100000381469727
2017-09-22,14.100000381469727,14.100000381469727,14.100000381469727,14.100000381469727,0,14.100000381469727
2017-09-25,14.100000381469727,14.100000381469727,14.100000381469727,14.100000381469727,0,14.100000381469727
2017-09-26,14.100000381469727,14.100000381469727,14.100000381469727,14.100000381469727,0,14.100000381469727
2017-09-27,14.100000381469727,14.100000381469727,14.100000381469727,14.100000381469727,0,14.100000381469727
2017-09-28,14.100000381469727,14.100000381469727,14.100000381469727,14.100000381469727,0,14.100000381469727
2017-09-29,14.100000381469727,14.100000381469727,14.100000381469727,14.100000381469727,0,14.100000381469727
2017-10-02,14.100000381469727,14.100000381469727,14.100000381469727,14.100000381469727,0,14.100000381469727
2017-10-03,14.100000381469727,14.100000381469727,14.100000381469727,14.100000381469727,0,14.100000381469727
2017-10-04,14.100000381469727,14.100000381469727,14.100000381469727,14.100000381469727,0,14.100000381469727
2017-10-05,14.100000381469727,14.100000381469727,14.100000381469727,14.100000381469727,0,14.100000381469727
2017-10-06,14.100000381469727,14.100000381469727,14.100000381469727,14.100000381469727,0,14.100000381469727
2017-10-09,14.100000381469727,14.100000381469727,14.100000381469727,14.100000381469727,0,14.100000381469727
2017-10-10,14.100000381469727,14.100000381469727,14.100000381469727,14.100000381469727,0,14.100000381469727
2017-10-11,14.100000381469727,14.100000381469727,14.100000381469727,14.100000381469727,0,14.100000381469727
2017-10-12,14.100000381469727,14.100000381469727,14.100000381469727,14.100000381469727,0,14.100000381469727
2017-10-13,14.100000381469727,14.100000381469727,14.100000381469727,14.100000381469727,0,14.100000381469727
2017-10-16,14.100000381469727,14.100000381469727,14.100000381469727,14.100000381469727,0,14.100000381469727
2017-10-17,14.100000381469727,14.100000381469727,14.100000381469727,14.100000381469727,0,14.100000381469727
2017-10-18,14.100000381469727,14.100000381469727,14.100000381469727,14.100000381469727,0,14.100000381469727
2017-10-19,14.100000381469727,14.100000381469727,14.100000381469727,14.100000381469727,0,14.100000381469727
2017-10-20,14.100000381469727,14.100000381469727,14.100000381469727,14.100000381469727,0,14.100000381469727
2017-10-23,14.100000381469727,14.100000381469727,14.100000381469727,14.100000381469727,0,14.100000381469727
2017-10-24,14.100000381469727,14.100000381469727,14.100000381469727,14.100000381469727,0,14.100000381469727
2017-10-25,14.100000381469727,14.100000381469727,14.100000381469727,14.100000381469727,0,14.100000381469727
2017-10-26,14.100000381469727,14.100000381469727,14.100000381469727,14.100000381469727,0,14.100000381469727
2017-10-27,14.100000381469727,14.100000381469727,14.100000381469727,14.100000381469727,0,14.100000381469727
2017-10-30,14.100000381469727,14.100000381469727,14.100000381469727,14.100000381469727,0,14.100000381469727
2017-10-31,14.100000381469727,14.100000381469727,14.100000381469727,14.100000381469727,0,14.100000381469727
2017-11-01,14.100000381469727,14.100000381469727,14.100000381469727,14.100000381469727,0,14.100000381469727
2017-11-02,14.907999992370605,14.907999992370605,14.907999992370605,14.907999992370605,100,14.907999992370605
2017-11-03,14.907999992370605,14.907999992370605,14.907999992370605,14.907999992370605,0,14.907999992370605
2017-11-06,14.907999992370605,14.907999992370605,14.907999992370605,14.907999992370605,0,14.907999992370605
2017-11-07,14.907999992370605,14.907999992370605,14.907999992370605,14.907999992370605,0,14.907999992370605
2017-11-08,14.907999992370605,14.907999992370605,14.907999992370605,14.907999992370605,0,14.907999992370605
2017-11-09,14.907999992370605,14.907999992370605,14.907999992370605,14.907999992370605,0,14.907999992370605
2017-11-10,14.907999992370605,14.907999992370605,14.907999992370605,14.907999992370605,0,14.907999992370605
2017-11-13,14.907999992370605,14.907999992370605,14.907999992370605,14.907999992370605,0,14.907999992370605
2017-11-14,14.907999992370605,14.907999992370605,14.907999992370605,14.907999992370605,0,14.907999992370605
2017-11-15,14.907999992370605,14.907999992370605,14.907999992370605,14.907999992370605,0,14.907999992370605
2017-11-16,14.907999992370605,14.907999992370605,14.907999992370605,14.907999992370605,0,14.907999992370605
2017-11-17,14.907999992370605,14.907999992370605,14.907999992370605,14.907999992370605,0,14.907999992370605
2017-11-20,14.76200008392334,14.76200008392334,14.76200008392334,14.76200008392334,200,14.76200008392334
2017-11-21,14.76200008392334,14.76200008392334,14.76200008392334,14.76200008392334,0,14.76200008392334
2017-11-22,14.76200008392334,14.76200008392334,14.76200008392334,14.76200008392334,0,14.76200008392334
2017-11-24,14.76200008392334,14.76200008392334,14.76200008392334,14.76200008392334,0,14.76200008392334
2017-11-27,15.109999656677246,15.109999656677246,15.109999656677246,15.109999656677246,100,15.109999656677246
2017-11-28,15.109999656677246,15.109999656677246,15.109999656677246,15.109999656677246,0,15.109999656677246
2017-11-29,15.109999656677246,15.109999656677246,15.109999656677246,15.109999656677246,0,15.109999656677246
2017-11-30,15.109999656677246,15.109999656677246,15.109999656677246,15.109999656677246,0,15.109999656677246
2017-12-01,15.109999656677246,15.109999656677246,15.109999656677246,15.109999656677246,0,15.109999656677246
2017-12-04,14.939000129699707,14.90999984741211,14.939000129699707,14.90999984741211,500,14.90999984741211
2017-12-05,14.90999984741211,14.90999984741211,14.90999984741211,14.90999984741211,0,14.90999984741211
2017-12-06,14.90999984741211,14.90999984741211,14.90999984741211,14.90999984741211,0,14.90999984741211
2017-12-07,14.90999984741211,14.90999984741211,14.90999984741211,14.90999984741211,0,14.90999984741211
2017-12-08,14.90999984741211,14.90999984741211,14.90999984741211,14.90999984741211,0,14.90999984741211
2017-12-11,14.545000076293945,14.545000076293945,14.545000076293945,14.545000076293945,100,14.545000076293945
2017-12-12,14.545000076293945,14.545000076293945,14.545000076293945,14.545000076293945,0,14.545000076293945
2017-12-13,14.550000190734863,14.550000190734863,14.550000190734863,14.550000190734863,1000,14.550000190734863
2017-12-14,14.550000190734863,14.550000190734863,14.550000190734863,14.550000190734863,0,14.550000190734863
2017-12-15,14.550000190734863,14.550000190734863,14.550000190734863,14.550000190734863,0,14.550000190734863
2017-12-18,14.739999771118164,14.739999771118164,14.739999771118164,14.739999771118164,500,14.739999771118164
2017-12-19,14.739999771118164,14.739999771118164,14.739999771118164,14.739999771118164,0,14.739999771118164
2017-12-20,14.739999771118164,14.739999771118164,14.739999771118164,14.739999771118164,0,14.739999771118164
2017-12-21,14.739999771118164,14.739999771118164,14.739999771118164,14.739999771118164,0,14.739999771118164
2017-12-22,14.739999771118164,14.739999771118164,14.739999771118164,14.739999771118164,0,14.739999771118164
2017-12-26,15.005999565124512,15.005999565124512,15.005999565124512,15.005999565124512,100,15.005999565124512
2017-12-27,15.005999565124512,15.005999565124512,15.005999565124512,15.005999565124512,0,15.005999565124512
2017-12-28,15.005999565124512,15.005999565124512,15.005999565124512,15.005999565124512,0,15.005999565124512
2017-12-29,15.005999565124512,15.005999565124512,15.005999565124512,15.005999565124512,0,15.005999565124512
2018-01-02,15.005999565124512,15.005999565124512,15.005999565124512,15.005999565124512,0,15.005999565124512
2018-01-03,15.005999565124512,15.005999565124512,15.005999565124512,15.005999565124512,0,15.005999565124512
2018-01-04,15.005999565124512,15.005999565124512,15.005999565124512,15.005999565124512,0,15.005999565124512
2018-01-05,15.005999565124512,15.005999565124512,15.005999565124512,15.005999565124512,0,15.005999565124512
2018-01-08,15.005999565124512,15.005999565124512,15.005999565124512,15.005999565124512,0,15.005999565124512
2018-01-09,15.005999565124512,15.005999565124512,15.005999565124512,15.005999565124512,0,15.005999565124512
2018-01-10,15.005999565124512,15.005999565124512,15.005999565124512,15.005999565124512,0,15.005999565124512
2018-01-11,15.321000099182129,15.321000099182129,15.321000099182129,15.321000099182129,200,15.321000099182129
2018-01-12,15.520000457763672,15.520000457763672,15.520000457763672,15.520000457763672,100,15.520000457763672
2018-01-16,15.350000381469727,15.350000381469727,15.350000381469727,15.350000381469727,100,15.350000381469727
2018-01-17,15.449999809265137,15.449999809265137,15.449999809265137,15.449999809265137,200,15.449999809265137
2018-01-18,15.449999809265137,15.449999809265137,15.449999809265137,15.449999809265137,0,15.449999809265137
2018-01-19,15.449999809265137,15.449999809265137,15.449999809265137,15.449999809265137,0,15.449999809265137
2018-01-22,15.449999809265137,15.449999809265137,15.449999809265137,15.449999809265137,0,15.449999809265137
2018-01-23,15.449999809265137,15.449999809265137,15.449999809265137,15.449999809265137,0,15.449999809265137
2018-01-24,15.449999809265137,15.449999809265137,15.449999809265137,15.449999809265137,0,15.449999809265137
2018-01-25,15.449999809265137,15.449999809265137,15.449999809265137,15.449999809265137,0,15.449999809265137
2018-01-26,15.449999809265137,15.449999809265137,15.449999809265137,15.449999809265137,0,15.449999809265137
2018-01-29,15.449999809265137,15.449999809265137,15.449999809265137,15.449999809265137,0,15.449999809265137
2018-01-30,15.449999809265137,15.449999809265137,15.449999809265137,15.449999809265137,0,15.449999809265137
2018-01-31,15.449999809265137,15.449999809265137,15.449999809265137,15.449999809265137,0,15.449999809265137
2018-02-01,15.449999809265137,15.449999809265137,15.449999809265137,15.449999809265137,0,15.449999809265137
2018-02-02,15.449999809265137,15.449999809265137,15.449999809265137,15.449999809265137,0,15.449999809265137
2018-02-05,15.449999809265137,15.449999809265137,15.449999809265137,15.449999809265137,0,15.449999809265137
2018-02-06,15.449999809265137,15.449999809265137,15.449999809265137,15.449999809265137,0,15.449999809265137
2018-02-07,15.449999809265137,15.449999809265137,15.449999809265137,15.449999809265137,0,15.449999809265137
2018-02-08,15.449999809265137,15.449999809265137,15.449999809265137,15.449999809265137,0,15.449999809265137
2018-02-09,15.449999809265137,15.449999809265137,15.449999809265137,15.449999809265137,0,15.449999809265137
2018-02-12,15.449999809265137,15.449999809265137,15.449999809265137,15.449999809265137,0,15.449999809265137
2018-02-13,15.449999809265137,15.449999809265137,15.449999809265137,15.449999809265137,0,15.449999809265137
2018-02-14,15.449999809265137,15.449999809265137,15.449999809265137,15.449999809265137,0,15.449999809265137
2018-02-15,15.449999809265137,15.449999809265137,15.449999809265137,15.449999809265137,0,15.449999809265137
2018-02-16,15.449999809265137,15.449999809265137,15.449999809265137,15.449999809265137,0,15.449999809265137
2018-02-20,15.449999809265137,15.449999809265137,15.449999809265137,15.449999809265137,0,15.449999809265137
2018-02-21,15.449999809265137,15.449999809265137,15.449999809265137,15.449999809265137,0,15.449999809265137
2018-02-22,15.449999809265137,15.449999809265137,15.449999809265137,15.449999809265137,0,15.449999809265137
2018-02-23,15.449999809265137,15.449999809265137,15.449999809265137,15.449999809265137,0,15.449999809265137
2018-02-26,15.449999809265137,15.449999809265137,15.449999809265137,15.449999809265137,0,15.449999809265137
2018-02-27,15.449999809265137,15.449999809265137,15.449999809265137,15.449999809265137,0,15.449999809265137
2018-02-28,15.449999809265137,15.449999809265137,15.449999809265137,15.449999809265137,0,15.449999809265137
2018-03-01,15.449999809265137,15.449999809265137,15.449999809265137,15.449999809265137,0,15.449999809265137
2018-03-02,15.449999809265137,15.449999809265137,15.449999809265137,15.449999809265137,0,15.449999809265137
2018-03-05,15.449999809265137,15.449999809265137,15.449999809265137,15.449999809265137,0,15.449999809265137
2018-03-06,15.449999809265137,15.449999809265137,15.449999809265137,15.449999809265137,0,15.449999809265137
2018-03-07,15.449999809265137,15.449999809265137,15.449999809265137,15.449999809265137,0,15.449999809265137
2018-03-08,15.449999809265137,15.449999809265137,15.449999809265137,15.449999809265137,0,15.449999809265137
2018-03-09,15.449999809265137,15.449999809265137,15.449999809265137,15.449999809265137,0,15.449999809265137
2018-03-12,15.449999809265137,15.449999809265137,15.449999809265137,15.449999809265137,0,15.449999809265137
2018-03-13,15.449999809265137,15.449999809265137,15.449999809265137,15.449999809265137,0,15.449999809265137
2018-03-14,15.449999809265137,15.449999809265137,15.449999809265137,15.449999809265137,0,15.449999809265137
2018-03-15,15.449999809265137,15.449999809265137,15.449999809265137,15.449999809265137,0,15.449999809265137
2018-03-16,15.449999809265137,15.449999809265137,15.449999809265137,15.449999809265137,0,15.449999809265137
2018-03-19,15.449999809265137,15.449999809265137,15.449999809265137,15.449999809265137,0,15.449999809265137
2018-03-20,15.449999809265137,15.449999809265137,15.449999809265137,15.449999809265137,0,15.449999809265137
2018-03-21,15.449999809265137,15.449999809265137,15.449999809265137,15.449999809265137,0,15.449999809265137
2018-03-22,15.449999809265137,15.449999809265137,15.449999809265137,15.449999809265137,0,15.449999809265137
2018-03-23,15.449999809265137,15.449999809265137,15.449999809265137,15.449999809265137,0,15.449999809265137
2018-03-26,15.449999809265137,15.449999809265137,15.449999809265137,15.449999809265137,0,15.449999809265137
2018-03-27,15.449999809265137,15.449999809265137,15.449999809265137,15.449999809265137,0,15.449999809265137
2018-03-28,15.449999809265137,15.449999809265137,15.449999809265137,15.449999809265137,0,15.449999809265137
2018-03-29,15.449999809265137,15.449999809265137,15.449999809265137,15.449999809265137,0,15.449999809265137
2018-04-02,15.449999809265137,15.449999809265137,15.449999809265137,15.449999809265137,0,15.449999809265137
2018-04-03,15.449999809265137,15.449999809265137,15.449999809265137,15.449999809265137,0,15.449999809265137
2018-04-04,15.449999809265137,15.449999809265137,15.449999809265137,15.449999809265137,0,15.449999809265137
2018-04-05,15.449999809265137,15.449999809265137,15.449999809265137,15.449999809265137,0,15.449999809265137
2018-04-06,15.449999809265137,15.449999809265137,15.449999809265137,15.449999809265137,0,15.449999809265137
2018-04-09,15.449999809265137,15.449999809265137,15.449999809265137,15.449999809265137,0,15.449999809265137
2018-04-10,15.449999809265137,15.449999809265137,15.449999809265137,15.449999809265137,0,15.449999809265137
2018-04-11,15.449999809265137,15.449999809265137,15.449999809265137,15.449999809265137,0,15.449999809265137
2018-04-12,15.449999809265137,15.449999809265137,15.449999809265137,15.449999809265137,0,15.449999809265137
2018-04-13,15.449999809265137,15.449999809265137,15.449999809265137,15.449999809265137,0,15.449999809265137
2018-04-16,15.449999809265137,15.449999809265137,15.449999809265137,15.449999809265137,0,15.449999809265137
2018-04-17,15.449999809265137,15.449999809265137,15.449999809265137,15.449999809265137,0,15.449999809265137
2018-04-18,15.449999809265137,15.449999809265137,15.449999809265137,15.449999809265137,0,15.449999809265137
2018-04-19,15.449999809265137,15.449999809265137,15.449999809265137,15.449999809265137,0,15.449999809265137
2018-04-20,15.449999809265137,15.449999809265137,15.449999809265137,15.449999809265137,0,15.449999809265137
2018-04-23,15.449999809265137,15.449999809265137,15.449999809265137,15.449999809265137,0,15.449999809265137
2018-04-24,15.449999809265137,15.449999809265137,15.449999809265137,15.449999809265137,0,15.449999809265137
2018-04-25,15.449999809265137,15.449999809265137,15.449999809265137,15.449999809265137,0,15.449999809265137
2018-04-26,15.449999809265137,15.449999809265137,15.449999809265137,15.449999809265137,0,15.449999809265137
2018-04-27,15.449999809265137,15.449999809265137,15.449999809265137,15.449999809265137,0,15.449999809265137
2018-04-30,15.449999809265137,15.449999809265137,15.449999809265137,15.449999809265137,0,15.449999809265137
2018-05-01,15.449999809265137,15.449999809265137,15.449999809265137,15.449999809265137,0,15.449999809265137
2018-05-02,15.449999809265137,15.449999809265137,15.449999809265137,15.449999809265137,0,15.449999809265137
2018-05-03,15.449999809265137,15.449999809265137,15.449999809265137,15.449999809265137,0,15.449999809265137
2018-05-04,15.449999809265137,15.449999809265137,15.449999809265137,15.449999809265137,0,15.449999809265137
2018-05-07,15.449999809265137,15.449999809265137,15.449999809265137,15.449999809265137,0,15.449999809265137
2018-05-08,15.880000114440918,15.880000114440918,15.880000114440918,15.880000114440918,2000,15.880000114440918
2018-05-09,15.880000114440918,15.880000114440918,15.880000114440918,15.880000114440918,0,15.880000114440918
2018-05-10,15.880000114440918,15.880000114440918,15.880000114440918,15.880000114440918,0,15.880000114440918
2018-05-11,15.880000114440918,15.880000114440918,15.880000114440918,15.880000114440918,0,15.880000114440918
2018-05-14,15.880000114440918,15.880000114440918,15.880000114440918,15.880000114440918,0,15.880000114440918
2018-05-15,15.880000114440918,15.880000114440918,15.880000114440918,15.880000114440918,0,15.880000114440918
2018-05-16,15.880000114440918,15.880000114440918,15.880000114440918,15.880000114440918,0,15.880000114440918
2018-05-17,15.880000114440918,15.880000114440918,15.880000114440918,15.880000114440918,0,15.880000114440918
2018-05-18,16.0,15.989999771118164,16.0,15.989999771118164,600,15.989999771118164
2018-05-21,15.989999771118164,15.989999771118164,15.989999771118164,15.989999771118164,0,15.989999771118164
2018-05-22,15.989999771118164,15.989999771118164,15.989999771118164,15.989999771118164,0,15.989999771118164
2018-05-23,16.20599937438965,16.190000534057617,16.190000534057617,16.20599937438965,400,16.20599937438965
2018-05-24,16.20599937438965,16.20599937438965,16.20599937438965,16.20599937438965,0,16.20599937438965
2018-05-25,16.20599937438965,16.20599937438965,16.20599937438965,16.20599937438965,0,16.20599937438965
2018-05-29,16.20599937438965,16.20599937438965,16.20599937438965,16.20599937438965,0,16.20599937438965
2018-05-30,16.20599937438965,16.20599937438965,16.20599937438965,16.20599937438965,0,16.20599937438965
2018-05-31,16.20599937438965,16.20599937438965,16.20599937438965,16.20599937438965,0,16.20599937438965
2018-06-01,16.20599937438965,16.20599937438965,16.20599937438965,16.20599937438965,0,16.20599937438965
2018-06-04,16.20599937438965,16.20599937438965,16.20599937438965,16.20599937438965,0,16.20599937438965
2018-06-05,16.20599937438965,16.20599937438965,16.20599937438965,16.20599937438965,0,16.20599937438965
2018-06-06,16.20599937438965,16.20599937438965,16.20599937438965,16.20599937438965,0,16.20599937438965
2018-06-07,16.20599937438965,16.20599937438965,16.20599937438965,16.20599937438965,0,16.20599937438965
2018-06-08,16.20599937438965,16.20599937438965,16.20599937438965,16.20599937438965,0,16.20599937438965
2018-06-11,16.20599937438965,16.20599937438965,16.20599937438965,16.20599937438965,0,16.20599937438965
2018-06-12,16.20599937438965,16.20599937438965,16.20599937438965,16.20599937438965,0,16.20599937438965
2018-06-13,16.20599937438965,16.20599937438965,16.20599937438965,16.20599937438965,0,16.20599937438965
2018-06-14,16.20599937438965,16.20599937438965,16.20599937438965,16.20599937438965,0,16.20599937438965
2018-06-15,16.20599937438965,16.20599937438965,16.20599937438965,16.20599937438965,0,16.20599937438965
2018-06-18,16.20599937438965,16.20599937438965,16.20599937438965,16.20599937438965,0,16.20599937438965
2018-06-19,15.479999542236328,15.479999542236328,15.479999542236328,15.479999542236328,100,15.479999542236328
2018-06-20,15.479999542236328,15.479999542236328,15.479999542236328,15.479999542236328,0,15.479999542236328
2018-06-21,15.479999542236328,15.479999542236328,15.479999542236328,15.479999542236328,0,15.479999542236328
2018-06-22,15.479999542236328,15.479999542236328,15.479999542236328,15.479999542236328,0,15.479999542236328
2018-06-25,15.479999542236328,15.479999542236328,15.479999542236328,15.479999542236328,0,15.479999542236328
2018-06-26,15.479999542236328,15.479999542236328,15.479999542236328,15.479999542236328,0,15.479999542236328
2018-06-27,15.479999542236328,15.479999542236328,15.479999542236328,15.479999542236328,0,15.479999542236328
2018-06-28,15.479999542236328,15.479999542236328,15.479999542236328,15.479999542236328,0,15.479999542236328
2018-06-29,15.479999542236328,15.479999542236328,15.479999542236328,15.479999542236328,0,15.479999542236328
2018-07-02,15.479999542236328,15.479999542236328,15.479999542236328,15.479999542236328,0,15.479999542236328
2018-07-03,15.479999542236328,15.479999542236328,15.479999542236328,15.479999542236328,0,15.479999542236328
2018-07-05,15.479999542236328,15.479999542236328,15.479999542236328,15.479999542236328,0,15.479999542236328
2018-07-06,15.479999542236328,15.479999542236328,15.479999542236328,15.479999542236328,0,15.479999542236328
2018-07-09,15.479999542236328,15.479999542236328,15.479999542236328,15.479999542236328,0,15.479999542236328
2018-07-10,15.479999542236328,15.479999542236328,15.479999542236328,15.479999542236328,0,15.479999542236328
2018-07-11,15.479999542236328,15.479999542236328,15.479999542236328,15.479999542236328,0,15.479999542236328
2018-07-12,15.479999542236328,15.479999542236328,15.479999542236328,15.479999542236328,0,15.479999542236328
2018-07-13,15.479999542236328,15.479999542236328,15.479999542236328,15.479999542236328,0,15.479999542236328
2018-07-16,15.479999542236328,15.479999542236328,15.479999542236328,15.479999542236328,0,15.479999542236328
2018-07-17,15.479999542236328,15.479999542236328,15.479999542236328,15.479999542236328,0,15.479999542236328
2018-07-18,14.840999603271484,14.840999603271484,14.840999603271484,14.840999603271484,700,14.840999603271484
2018-07-19,14.840999603271484,14.840999603271484,14.840999603271484,14.840999603271484,0,14.840999603271484
2018-07-20,14.840999603271484,14.840999603271484,14.840999603271484,14.840999603271484,0,14.840999603271484
2018-07-23,14.840999603271484,14.840999603271484,14.840999603271484,14.840999603271484,0,14.840999603271484
2018-07-24,15.119999885559082,15.109999656677246,15.109999656677246,15.119999885559082,600,15.119999885559082
2018-07-25,15.119999885559082,15.119999885559082,15.119999885559082,15.119999885559082,0,15.119999885559082
2018-07-26,15.119999885559082,15.119999885559082,15.119999885559082,15.119999885559082,0,15.119999885559082
2018-07-27,15.119999885559082,15.119999885559082,15.119999885559082,15.119999885559082,0,15.119999885559082
2018-07-30,15.119999885559082,15.119999885559082,15.119999885559082,15.119999885559082,0,15.119999885559082
2018-07-31,15.119999885559082,15.119999885559082,15.119999885559082,15.119999885559082,0,15.119999885559082
2018-08-01,15.119999885559082,15.119999885559082,15.119999885559082,15.119999885559082,0,15.119999885559082
2018-08-02,15.119999885559082,15.119999885559082,15.119999885559082,15.119999885559082,0,15.119999885559082
2018-08-03,15.119999885559082,15.119999885559082,15.119999885559082,15.119999885559082,0,15.119999885559082
2018-08-06,14.949999809265137,14.829999923706055,14.949999809265137,14.829999923706055,700,14.829999923706055
2018-08-07,14.829999923706055,14.829999923706055,14.829999923706055,14.829999923706055,0,14.829999923706055
2018-08-08,14.829999923706055,14.829999923706055,14.829999923706055,14.829999923706055,0,14.829999923706055
2018-08-09,14.829999923706055,14.829999923706055,14.829999923706055,14.829999923706055,0,14.829999923706055
2018-08-10,14.829999923706055,14.829999923706055,14.829999923706055,14.829999923706055,0,14.829999923706055
2018-08-13,14.829999923706055,14.829999923706055,14.829999923706055,14.829999923706055,0,14.829999923706055
2018-08-14,14.829999923706055,14.829999923706055,14.829999923706055,14.829999923706055,0,14.829999923706055
2018-08-15,14.829999923706055,14.829999923706055,14.829999923706055,14.829999923706055,0,14.829999923706055
2018-08-16,14.829999923706055,14.829999923706055,14.829999923706055,14.829999923706055,0,14.829999923706055
2018-08-17,14.829999923706055,14.829999923706055,14.829999923706055,14.829999923706055,0,14.829999923706055
2018-08-20,14.829999923706055,14.829999923706055,14.829999923706055,14.829999923706055,0,14.829999923706055
2018-08-21,14.829999923706055,14.829999923706055,14.829999923706055,14.829999923706055,0,14.829999923706055
2018-08-22,14.829999923706055,14.829999923706055,14.829999923706055,14.829999923706055,0,14.829999923706055
2018-08-23,14.829999923706055,14.829999923706055,14.829999923706055,14.829999923706055,0,14.829999923706055
2018-08-24,14.829999923706055,14.829999923706055,14.829999923706055,14.829999923706055,0,14.829999923706055
2018-08-27,14.829999923706055,14.829999923706055,14.829999923706055,14.829999923706055,0,14.829999923706055
2018-08-28,14.829999923706055,14.829999923706055,14.829999923706055,14.829999923706055,0,14.829999923706055
2018-08-29,14.829999923706055,14.829999923706055,14.829999923706055,14.829999923706055,0,14.829999923706055
2018-08-30,15.0600004196167,15.019000053405762,15.0600004196167,15.019000053405762,1000,15.019000053405762
2018-08-31,15.019000053405762,15.019000053405762,15.019000053405762,15.019000053405762,0,15.019000053405762
2018-09-04,15.019000053405762,15.019000053405762,15.019000053405762,15.019000053405762,0,15.019000053405762
2018-09-05,15.019000053405762,15.019000053405762,15.019000053405762,15.019000053405762,0,15.019000053405762
2018-09-06,15.019000053405762,15.019000053405762,15.019000053405762,15.019000053405762,0,15.019000053405762
2018-09-07,15.019000053405762,15.019000053405762,15.019000053405762,15.019000053405762,0,15.019000053405762
2018-09-10,15.019000053405762,15.019000053405762,15.019000053405762,15.019000053405762,0,15.019000053405762
2018-09-11,15.019000053405762,15.019000053405762,15.019000053405762,15.019000053405762,0,15.019000053405762
2018-09-12,15.019000053405762,15.019000053405762,15.019000053405762,15.019000053405762,0,15.019000053405762
2018-09-13,15.019000053405762,15.019000053405762,15.019000053405762,15.019000053405762,0,15.019000053405762
2018-09-14,15.019000053405762,15.019000053405762,15.019000053405762,15.019000053405762,0,15.019000053405762
2018-09-17,15.019000053405762,15.019000053405762,15.019000053405762,15.019000053405762,0,15.019000053405762
2018-09-18,15.019000053405762,15.019000053405762,15.019000053405762,15.019000053405762,0,15.019000053405762
2018-09-19,15.019000053405762,15.019000053405762,15.019000053405762,15.019000053405762,0,15.019000053405762
2018-09-20,15.019000053405762,15.019000053405762,15.019000053405762,15.019000053405762,0,15.019000053405762
2018-09-21,15.019000053405762,15.019000053405762,15.019000053405762,15.019000053405762,0,15.019000053405762
2018-09-24,15.019000053405762,15.019000053405762,15.019000053405762,15.019000053405762,0,15.019000053405762
2018-09-25,15.019000053405762,15.019000053405762,15.019000053405762,15.019000053405762,0,15.019000053405762
2018-09-26,15.019000053405762,15.019000053405762,15.019000053405762,15.019000053405762,0,15.019000053405762
2018-09-27,15.019000053405762,15.019000053405762,15.019000053405762,15.019000053405762,0,15.019000053405762
2018-09-28,15.019000053405762,15.019000053405762,15.019000053405762,15.019000053405762,0,15.019000053405762
2018-10-01,15.019000053405762,15.019000053405762,15.019000053405762,15.019000053405762,0,15.019000053405762
2018-10-02,15.019000053405762,15.019000053405762,15.019000053405762,15.019000053405762,0,15.019000053405762
2018-10-03,15.019000053405762,15.019000053405762,15.019000053405762,15.019000053405762,0,15.019000053405762
2018-10-04,15.019000053405762,15.019000053405762,15.019000053405762,15.019000053405762,0,15.019000053405762
2018-10-05,15.019000053405762,15.019000053405762,15.019000053405762,15.019000053405762,0,15.019000053405762
2018-10-08,15.019000053405762,15.019000053405762,15.019000053405762,15.019000053405762,0,15.019000053405762
2018-10-09,15.019000053405762,15.019000053405762,15.019000053405762,15.019000053405762,0,15.019000053405762
2018-10-10,15.019000053405762,15.019000053405762,15.019000053405762,15.019000053405762,0,15.019000053405762
2018-10-11,15.019000053405762,15.019000053405762,15.019000053405762,15.019000053405762,0,15.019000053405762
2018-10-12,15.019000053405762,15.019000053405762,15.019000053405762,15.019000053405762,0,15.019000053405762
2018-10-15,15.019000053405762,15.019000053405762,15.019000053405762,15.019000053405762,0,15.019000053405762
2018-10-16,15.019000053405762,15.019000053405762,15.019000053405762,15.019000053405762,0,15.019000053405762
2018-10-17,15.019000053405762,15.019000053405762,15.019000053405762,15.019000053405762,0,15.019000053405762
2018-10-18,15.019000053405762,15.019000053405762,15.019000053405762,15.019000053405762,0,15.019000053405762
2018-10-19,15.019000053405762,15.019000053405762,15.019000053405762,15.019000053405762,0,15.019000053405762
2018-10-22,15.019000053405762,15.019000053405762,15.019000053405762,15.019000053405762,0,15.019000053405762
2018-10-23,15.019000053405762,15.019000053405762,15.019000053405762,15.019000053405762,0,15.019000053405762
2018-10-24,15.019000053405762,15.019000053405762,15.019000053405762,15.019000053405762,0,15.019000053405762
2018-10-25,15.019000053405762,15.019000053405762,15.019000053405762,15.019000053405762,0,15.019000053405762
2018-10-26,15.019000053405762,15.019000053405762,15.019000053405762,15.019000053405762,0,15.019000053405762
2018-10-29,15.019000053405762,15.019000053405762,15.019000053405762,15.019000053405762,0,15.019000053405762
2018-10-30,15.019000053405762,15.019000053405762,15.019000053405762,15.019000053405762,0,15.019000053405762
2018-10-31,15.019000053405762,15.019000053405762,15.019000053405762,15.019000053405762,0,15.019000053405762
2018-11-01,15.019000053405762,15.019000053405762,15.019000053405762,15.019000053405762,0,15.019000053405762
2018-11-02,15.019000053405762,15.019000053405762,15.019000053405762,15.019000053405762,0,15.019000053405762
2018-11-05,15.019000053405762,15.019000053405762,15.019000053405762,15.019000053405762,0,15.019000053405762
2018-11-06,15.019000053405762,15.019000053405762,15.019000053405762,15.019000053405762,0,15.019000053405762
2018-11-07,15.019000053405762,15.019000053405762,15.019000053405762,15.019000053405762,0,15.019000053405762
2018-11-08,15.019000053405762,15.019000053405762,15.019000053405762,15.019000053405762,0,15.019000053405762
2018-11-09,15.019000053405762,15.019000053405762,15.019000053405762,15.019000053405762,0,15.019000053405762
2018-11-12,15.019000053405762,15.019000053405762,15.019000053405762,15.019000053405762,0,15.019000053405762
2018-11-13,15.019000053405762,15.019000053405762,15.019000053405762,15.019000053405762,0,15.019000053405762
2018-11-14,15.019000053405762,15.019000053405762,15.019000053405762,15.019000053405762,0,15.019000053405762
2018-11-15,15.019000053405762,15.019000053405762,15.019000053405762,15.019000053405762,0,15.019000053405762
2018-11-16,15.019000053405762,15.019000053405762,15.019000053405762,15.019000053405762,0,15.019000053405762
2018-11-19,15.019000053405762,15.019000053405762,15.019000053405762,15.019000053405762,0,15.019000053405762
2018-11-20,15.019000053405762,15.019000053405762,15.019000053405762,15.019000053405762,0,15.019000053405762
2018-11-21,15.019000053405762,15.019000053405762,15.019000053405762,15.019000053405762,0,15.019000053405762
2018-11-23,15.019000053405762,15.019000053405762,15.019000053405762,15.019000053405762,0,15.019000053405762
2018-11-26,15.019000053405762,15.019000053405762,15.019000053405762,15.019000053405762,0,15.019000053405762
2018-11-27,15.019000053405762,15.019000053405762,15.019000053405762,15.019000053405762,0,15.019000053405762
2018-11-28,15.019000053405762,15.019000053405762,15.019000053405762,15.019000053405762,0,15.019000053405762
2018-11-29,15.019000053405762,15.019000053405762,15.019000053405762,15.019000053405762,0,15.019000053405762
2018-11-30,15.019000053405762,15.019000053405762,15.019000053405762,15.019000053405762,0,15.019000053405762
2018-12-03,15.019000053405762,15.019000053405762,15.019000053405762,15.019000053405762,0,15.019000053405762
2018-12-04,15.019000053405762,15.019000053405762,15.019000053405762,15.019000053405762,0,15.019000053405762
2018-12-06,15.019000053405762,15.019000053405762,15.019000053405762,15.019000053405762,0,15.019000053405762
2018-12-07,15.019000053405762,15.019000053405762,15.019000053405762,15.019000053405762,0,15.019000053405762
2018-12-10,15.019000053405762,15.019000053405762,15.019000053405762,15.019000053405762,0,15.019000053405762
2018-12-11,15.019000053405762,15.019000053405762,15.019000053405762,15.019000053405762,0,15.019000053405762
2018-12-12,15.019000053405762,15.019000053405762,15.019000053405762,15.019000053405762,0,15.019000053405762
2018-12-13,15.019000053405762,15.019000053405762,15.019000053405762,15.019000053405762,0,15.019000053405762
2018-12-14,15.019000053405762,15.019000053405762,15.019000053405762,15.019000053405762,0,15.019000053405762
2018-12-17,15.019000053405762,15.019000053405762,15.019000053405762,15.019000053405762,0,15.019000053405762
2018-12-18,15.019000053405762,15.019000053405762,15.019000053405762,15.019000053405762,0,15.019000053405762
2018-12-19,15.019000053405762,15.019000053405762,15.019000053405762,15.019000053405762,0,15.019000053405762
2018-12-20,15.019000053405762,15.019000053405762,15.019000053405762,15.019000053405762,0,15.019000053405762
2018-12-21,15.019000053405762,15.019000053405762,15.019000053405762,15.019000053405762,0,15.019000053405762
2018-12-24,15.019000053405762,15.019000053405762,15.019000053405762,15.019000053405762,0,15.019000053405762
2018-12-26,15.019000053405762,15.019000053405762,15.019000053405762,15.019000053405762,0,15.019000053405762
2018-12-27,15.019000053405762,15.019000053405762,15.019000053405762,15.019000053405762,0,15.019000053405762
2018-12-28,15.019000053405762,15.019000053405762,15.019000053405762,15.019000053405762,0,15.019000053405762
2018-12-31,15.019000053405762,15.019000053405762,15.019000053405762,15.019000053405762,0,15.019000053405762
2019-01-02,15.019000053405762,15.019000053405762,15.019000053405762,15.019000053405762,0,15.019000053405762
2019-01-03,13.647000312805176,13.59000015258789,13.59000015258789,13.647000312805176,100,13.647000312805176
2019-01-04,13.647000312805176,13.647000312805176,13.647000312805176,13.647000312805176,0,13.647000312805176
2019-01-07,13.647000312805176,13.647000312805176,13.647000312805176,13.647000312805176,0,13.647000312805176
2019-01-08,13.647000312805176,13.647000312805176,13.647000312805176,13.647000312805176,0,13.647000312805176
2019-01-09,13.647000312805176,13.647000312805176,13.647000312805176,13.647000312805176,0,13.647000312805176
2019-01-10,13.647000312805176,13.647000312805176,13.647000312805176,13.647000312805176,0,13.647000312805176
2019-01-11,13.647000312805176,13.647000312805176,13.647000312805176,13.647000312805176,0,13.647000312805176
2019-01-14,13.647000312805176,13.647000312805176,13.647000312805176,13.647000312805176,0,13.647000312805176
2019-01-15,13.647000312805176,13.647000312805176,13.647000312805176,13.647000312805176,0,13.647000312805176
2019-01-16,13.647000312805176,13.647000312805176,13.647000312805176,13.647000312805176,0,13.647000312805176
2019-01-17,13.647000312805176,13.647000312805176,13.647000312805176,13.647000312805176,0,13.647000312805176
2019-01-18,13.647000312805176,13.647000312805176,13.647000312805176,13.647000312805176,0,13.647000312805176
2019-01-22,13.647000312805176,13.647000312805176,13.647000312805176,13.647000312805176,0,13.647000312805176
2019-01-23,13.647000312805176,13.647000312805176,13.647000312805176,13.647000312805176,0,13.647000312805176
2019-01-24,13.647000312805176,13.647000312805176,13.647000312805176,13.647000312805176,0,13.647000312805176
2019-01-25,14.465999603271484,14.399999618530273,14.399999618530273,14.465999603271484,600,14.465999603271484
2019-01-28,14.465999603271484,14.465999603271484,14.465999603271484,14.465999603271484,0,14.465999603271484
2019-01-29,14.444999694824219,14.444999694824219,14.444999694824219,14.444999694824219,0,14.444999694824219
2019-01-30,14.54699993133545,14.54699993133545,14.54699993133545,14.54699993133545,0,14.54699993133545
2019-01-31,14.508999824523926,14.508999824523926,14.508999824523926,14.508999824523926,0,14.508999824523926
2019-02-01,14.574999809265137,14.574999809265137,14.574999809265137,14.574999809265137,0,14.574999809265137
2019-02-04,14.656999588012695,14.656999588012695,14.656999588012695,14.656999588012695,0,14.656999588012695
2019-02-05,14.628999710083008,14.628999710083008,14.628999710083008,14.628999710083008,0,14.628999710083008
2019-02-06,14.64900016784668,14.64900016784668,14.64900016784668,14.64900016784668,0,14.64900016784668
2019-02-07,14.503000259399414,14.503000259399414,14.503000259399414,14.503000259399414,0,14.503000259399414
2019-02-08,14.472999572753906,14.472999572753906,14.472999572753906,14.472999572753906,0,14.472999572753906
2019-02-11,14.388999938964844,14.388999938964844,14.388999938964844,14.388999938964844,0,14.388999938964844
2019-02-12,14.458999633789062,14.458999633789062,14.458999633789062,14.458999633789062,0,14.458999633789062
2019-02-13,14.51099967956543,14.51099967956543,14.51099967956543,14.51099967956543,0,14.51099967956543
2019-02-14,14.506999969482422,14.506999969482422,14.506999969482422,14.506999969482422,0,14.506999969482422
2019-02-15,14.737000465393066,14.737000465393066,14.737000465393066,14.737000465393066,0,14.737000465393066
2019-02-19,14.890000343322754,14.810999870300293,14.890000343322754,14.810999870300293,2700,14.810999870300293
2019-02-20,14.928999900817871,14.928999900817871,14.928999900817871,14.928999900817871,0,14.928999900817871
2019-02-21,14.946999549865723,14.946999549865723,14.946999549865723,14.946999549865723,0,14.946999549865723
2019-02-22,15.031000137329102,15.031000137329102,15.031000137329102,15.031000137329102,0,15.031000137329102
2019-02-25,14.989999771118164,14.83899974822998,14.979999542236328,14.83899974822998,1300,14.83899974822998
2019-02-26,14.836999893188477,14.836999893188477,14.836999893188477,14.836999893188477,0,14.836999893188477
2019-02-27,14.958999633789062,14.958999633789062,14.958999633789062,14.958999633789062,0,14.958999633789062
2019-02-28,14.914999961853027,14.914999961853027,14.914999961853027,14.914999961853027,0,14.914999961853027
2019-03-01,14.914999961853027,14.914999961853027,14.914999961853027,14.914999961853027,0,14.914999961853027
2019-03-04,14.781000137329102,14.781000137329102,14.781000137329102,14.781000137329102,100,14.781000137329102
2019-03-05,14.781000137329102,14.781000137329102,14.781000137329102,14.781000137329102,0,14.781000137329102
2019-03-06,14.781000137329102,14.781000137329102,14.781000137329102,14.781000137329102,0,14.781000137329102
2019-03-07,14.781000137329102,14.781000137329102,14.781000137329102,14.781000137329102,0,14.781000137329102
2019-03-08,14.781000137329102,14.781000137329102,14.781000137329102,14.781000137329102,0,14.781000137329102
2019-03-11,14.704999923706055,14.704999923706055,14.704999923706055,14.704999923706055,0,14.704999923706055
2019-03-12,14.704999923706055,14.704999923706055,14.704999923706055,14.704999923706055,0,14.704999923706055
2019-03-13,14.704999923706055,14.704999923706055,14.704999923706055,14.704999923706055,0,14.704999923706055
2019-03-14,14.704999923706055,14.704999923706055,14.704999923706055,14.704999923706055,0,14.704999923706055
2019-03-15,14.704999923706055,14.704999923706055,14.704999923706055,14.704999923706055,0,14.704999923706055
2019-03-18,14.984999656677246,14.984999656677246,14.984999656677246,14.984999656677246,0,14.984999656677246
2019-03-19,14.984999656677246,14.984999656677246,14.984999656677246,14.984999656677246,0,14.984999656677246
2019-03-20,14.984999656677246,14.984999656677246,14.984999656677246,14.984999656677246,0,14.984999656677246
2019-03-21,15.050000190734863,15.050000190734863,15.050000190734863,15.050000190734863,100,15.050000190734863
2019-03-22,15.050000190734863,15.050000190734863,15.050000190734863,15.050000190734863,0,15.050000190734863
2019-03-25,14.954999923706055,14.954999923706055,14.954999923706055,14.954999923706055,0,14.954999923706055
2019-03-26,14.954999923706055,14.954999923706055,14.954999923706055,14.954999923706055,0,14.954999923706055
2019-03-27,14.954999923706055,14.954999923706055,14.954999923706055,14.954999923706055,0,14.954999923706055
2019-03-28,14.954999923706055,14.954999923706055,14.954999923706055,14.954999923706055,0,14.954999923706055
2019-03-29,14.954999923706055,14.954999923706055,14.954999923706055,14.954999923706055,0,14.954999923706055
2019-04-01,15.005000114440918,15.005000114440918,15.005000114440918,15.005000114440918,0,15.005000114440918
2019-04-02,15.020000457763672,15.020000457763672,15.020000457763672,15.020000457763672,0,15.020000457763672
2019-04-03,15.020000457763672,15.020000457763672,15.020000457763672,15.020000457763672,0,15.020000457763672
2019-04-04,15.140000343322754,15.140000343322754,15.140000343322754,15.140000343322754,0,15.140000343322754
2019-04-05,15.145000457763672,15.145000457763672,15.145000457763672,15.145000457763672,0,15.145000457763672
2019-04-08,15.1850004196167,15.1850004196167,15.1850004196167,15.1850004196167,0,15.1850004196167
2019-04-09,15.21500015258789,15.21500015258789,15.21500015258789,15.21500015258789,0,15.21500015258789
2019-04-10,15.21500015258789,15.21500015258789,15.21500015258789,15.21500015258789,0,15.21500015258789
2019-04-11,15.21500015258789,15.21500015258789,15.21500015258789,15.21500015258789,0,15.21500015258789
2019-04-12,15.21500015258789,15.21500015258789,15.21500015258789,15.21500015258789,0,15.21500015258789
2019-04-15,15.21500015258789,15.21500015258789,15.21500015258789,15.21500015258789,0,15.21500015258789
2019-04-16,15.109999656677246,15.109999656677246,15.109999656677246,15.109999656677246,100,15.109999656677246
2019-04-17,15.100000381469727,15.100000381469727,15.100000381469727,15.100000381469727,0,15.100000381469727
2019-04-18,15.100000381469727,15.100000381469727,15.100000381469727,15.100000381469727,0,15.100000381469727
2019-04-22,15.14900016784668,15.14900016784668,15.14900016784668,15.14900016784668,0,15.14900016784668
2019-04-23,15.14900016784668,15.14900016784668,15.14900016784668,15.14900016784668,0,15.14900016784668
2019-04-24,15.104999542236328,15.104999542236328,15.104999542236328,15.104999542236328,0,15.104999542236328
2019-04-25,15.104999542236328,15.104999542236328,15.104999542236328,15.104999542236328,0,15.104999542236328
2019-04-26,15.104999542236328,15.104999542236328,15.104999542236328,15.104999542236328,0,15.104999542236328
2019-04-29,15.104999542236328,15.104999542236328,15.104999542236328,15.104999542236328,0,15.104999542236328
2019-04-30,15.104999542236328,15.104999542236328,15.104999542236328,15.104999542236328,0,15.104999542236328
2019-05-01,15.104999542236328,15.104999542236328,15.104999542236328,15.104999542236328,0,15.104999542236328
2019-05-02,15.104999542236328,15.104999542236328,15.104999542236328,15.104999542236328,0,15.104999542236328
2019-05-03,15.104999542236328,15.104999542236328,15.104999542236328,15.104999542236328,0,15.104999542236328
2019-05-06,15.104999542236328,15.104999542236328,15.104999542236328,15.104999542236328,0,15.104999542236328
2019-05-07,15.104999542236328,15.104999542236328,15.104999542236328,15.104999542236328,0,15.104999542236328
2019-05-08,15.104999542236328,15.104999542236328,15.104999542236328,15.104999542236328,0,15.104999542236328
2019-05-09,14.40999984741211,14.40999984741211,14.40999984741211,14.40999984741211,0,14.40999984741211
2019-05-10,14.40999984741211,14.40999984741211,14.40999984741211,14.40999984741211,0,14.40999984741211
2019-05-13,14.40999984741211,14.40999984741211,14.40999984741211,14.40999984741211,0,14.40999984741211
2019-05-14,14.40999984741211,14.40999984741211,14.40999984741211,14.40999984741211,0,14.40999984741211
2019-05-15,14.40999984741211,14.40999984741211,14.40999984741211,14.40999984741211,0,14.40999984741211
2019-05-16,14.40999984741211,14.40999984741211,14.40999984741211,14.40999984741211,0,14.40999984741211
2019-05-17,14.40999984741211,14.40999984741211,14.40999984741211,14.40999984741211,0,14.40999984741211
2019-05-20,14.600000381469727,14.600000381469727,14.600000381469727,14.600000381469727,600,14.600000381469727
2019-05-21,14.585000038146973,14.585000038146973,14.585000038146973,14.585000038146973,100,14.585000038146973
2019-05-22,14.585000038146973,14.585000038146973,14.585000038146973,14.585000038146973,0,14.585000038146973
2019-05-23,14.585000038146973,14.585000038146973,14.585000038146973,14.585000038146973,0,14.585000038146973
2019-05-24,14.585000038146973,14.585000038146973,14.585000038146973,14.585000038146973,0,14.585000038146973
