Date,High,Low,Open,Close,Volume,Adj Close
2015-07-21,25.020000457763672,24.93000030517578,24.93000030517578,24.93000030517578,300.0,24.293228149414062
2015-07-22,24.93000030517578,24.93000030517578,24.93000030517578,24.93000030517578,0.0,24.293228149414062
2015-07-23,24.93000030517578,24.93000030517578,24.93000030517578,24.93000030517578,0.0,24.293228149414062
2015-07-24,24.93000030517578,24.93000030517578,24.93000030517578,24.93000030517578,0.0,24.293228149414062
2015-07-27,24.93000030517578,24.93000030517578,24.93000030517578,24.93000030517578,200.0,24.293228149414062
2015-07-28,24.520000457763672,24.520000457763672,24.520000457763672,24.520000457763672,100.0,23.893699645996094
2015-07-29,24.520000457763672,24.520000457763672,24.520000457763672,24.520000457763672,0.0,23.893699645996094
2015-07-30,24.799999237060547,24.799999237060547,24.799999237060547,24.799999237060547,100.0,24.166547775268555
2015-07-31,24.8700008392334,24.8700008392334,24.8700008392334,24.8700008392334,200.0,24.234760284423828
2015-08-03,24.8700008392334,24.8700008392334,24.8700008392334,24.8700008392334,0.0,24.234760284423828
2015-08-04,24.8700008392334,24.8700008392334,24.8700008392334,24.8700008392334,0.0,24.234760284423828
2015-08-05,24.969999313354492,24.969999313354492,24.969999313354492,24.969999313354492,1100.0,24.332204818725586
2015-08-06,24.969999313354492,24.969999313354492,24.969999313354492,24.969999313354492,0.0,24.332204818725586
2015-08-07,24.969999313354492,24.969999313354492,24.969999313354492,24.969999313354492,0.0,24.332204818725586
2015-08-10,24.969999313354492,24.969999313354492,24.969999313354492,24.969999313354492,0.0,24.332204818725586
2015-08-11,24.510000228881836,24.510000228881836,24.510000228881836,24.510000228881836,100.0,23.883956909179688
2015-08-12,24.549999237060547,24.40999984741211,24.40999984741211,24.549999237060547,700.0,23.922931671142578
2015-08-13,24.549999237060547,24.549999237060547,24.549999237060547,24.549999237060547,0.0,23.922931671142578
2015-08-14,24.549999237060547,24.549999237060547,24.549999237060547,24.549999237060547,0.0,23.922931671142578
2015-08-17,24.549999237060547,24.549999237060547,24.549999237060547,24.549999237060547,0.0,23.922931671142578
2015-08-18,24.549999237060547,24.549999237060547,24.549999237060547,24.549999237060547,0.0,23.922931671142578
2015-08-19,24.549999237060547,24.549999237060547,24.549999237060547,24.549999237060547,0.0,23.922931671142578
2015-08-20,24.0,24.0,24.0,24.0,200.0,23.386981964111328
2015-08-21,24.0,24.0,24.0,24.0,0.0,23.386981964111328
2015-08-24,24.0,24.0,24.0,24.0,0.0,23.386981964111328
2015-08-25,24.0,24.0,24.0,24.0,0.0,23.386981964111328
2015-08-26,24.0,24.0,24.0,24.0,0.0,23.386981964111328
2015-08-27,22.952999114990234,22.93000030517578,22.952999114990234,22.93000030517578,2000.0,22.344310760498047
2015-08-28,22.93000030517578,22.93000030517578,22.93000030517578,22.93000030517578,0.0,22.344310760498047
2015-08-31,22.93000030517578,22.93000030517578,22.93000030517578,22.93000030517578,0.0,22.344310760498047
2015-09-01,22.93000030517578,22.93000030517578,22.93000030517578,22.93000030517578,0.0,22.344310760498047
2015-09-02,22.93000030517578,22.93000030517578,22.93000030517578,22.93000030517578,0.0,22.344310760498047
2015-09-03,22.93000030517578,22.93000030517578,22.93000030517578,22.93000030517578,0.0,22.344310760498047
2015-09-04,22.760000228881836,22.746999740600586,22.746999740600586,22.760000228881836,1000.0,22.178653717041016
2015-09-08,22.760000228881836,22.760000228881836,22.760000228881836,22.760000228881836,0.0,22.178653717041016
2015-09-09,23.280000686645508,23.280000686645508,23.280000686645508,23.280000686645508,700.0,22.68537139892578
2015-09-10,23.280000686645508,23.280000686645508,23.280000686645508,23.280000686645508,0.0,22.68537139892578
2015-09-11,23.280000686645508,23.280000686645508,23.280000686645508,23.280000686645508,0.0,22.68537139892578
2015-09-14,22.979999542236328,22.979999542236328,22.979999542236328,22.979999542236328,600.0,22.39303207397461
2015-09-15,22.979999542236328,22.979999542236328,22.979999542236328,22.979999542236328,0.0,22.39303207397461
2015-09-16,23.420000076293945,23.420000076293945,23.420000076293945,23.420000076293945,900.0,22.821796417236328
2015-09-17,23.600000381469727,23.510000228881836,23.600000381469727,23.510000228881836,300.0,22.90949821472168
2015-09-18,23.510000228881836,23.510000228881836,23.510000228881836,23.510000228881836,0.0,22.90949821472168
2015-09-21,23.510000228881836,23.510000228881836,23.510000228881836,23.510000228881836,0.0,22.958324432373047
2015-09-22,23.510000228881836,23.510000228881836,23.510000228881836,23.510000228881836,0.0,22.958324432373047
2015-09-23,23.510000228881836,23.510000228881836,23.510000228881836,23.510000228881836,0.0,22.958324432373047
2015-09-24,23.510000228881836,23.510000228881836,23.510000228881836,23.510000228881836,0.0,22.958324432373047
2015-09-25,23.510000228881836,23.510000228881836,23.510000228881836,23.510000228881836,0.0,22.958324432373047
2015-09-28,21.850000381469727,21.850000381469727,21.850000381469727,21.850000381469727,100.0,21.337278366088867
2015-09-29,21.850000381469727,21.850000381469727,21.850000381469727,21.850000381469727,0.0,21.337278366088867
2015-09-30,21.850000381469727,21.850000381469727,21.850000381469727,21.850000381469727,0.0,21.337278366088867
2015-10-01,21.850000381469727,21.850000381469727,21.850000381469727,21.850000381469727,0.0,21.337278366088867
2015-10-02,23.030000686645508,22.049999237060547,23.030000686645508,22.049999237060547,500.0,21.53258514404297
2015-10-05,22.049999237060547,22.049999237060547,22.049999237060547,22.049999237060547,0.0,21.53258514404297
2015-10-06,22.049999237060547,22.049999237060547,22.049999237060547,22.049999237060547,0.0,21.53258514404297
2015-10-07,22.049999237060547,22.049999237060547,22.049999237060547,22.049999237060547,0.0,21.53258514404297
2015-10-08,22.049999237060547,22.049999237060547,22.049999237060547,22.049999237060547,0.0,21.53258514404297
2015-10-09,22.049999237060547,22.049999237060547,22.049999237060547,22.049999237060547,0.0,21.53258514404297
2015-10-12,22.049999237060547,22.049999237060547,22.049999237060547,22.049999237060547,0.0,21.53258514404297
2015-10-13,22.049999237060547,22.049999237060547,22.049999237060547,22.049999237060547,0.0,21.53258514404297
2015-10-14,22.049999237060547,22.049999237060547,22.049999237060547,22.049999237060547,0.0,21.53258514404297
2015-10-15,22.049999237060547,22.049999237060547,22.049999237060547,22.049999237060547,0.0,21.53258514404297
2015-10-16,22.049999237060547,22.049999237060547,22.049999237060547,22.049999237060547,0.0,21.53258514404297
2015-10-19,22.049999237060547,22.049999237060547,22.049999237060547,22.049999237060547,0.0,21.53258514404297
2015-10-20,22.049999237060547,22.049999237060547,22.049999237060547,22.049999237060547,0.0,21.53258514404297
2015-10-21,22.049999237060547,22.049999237060547,22.049999237060547,22.049999237060547,0.0,21.53258514404297
2015-10-22,22.049999237060547,22.049999237060547,22.049999237060547,22.049999237060547,0.0,21.53258514404297
2015-10-23,22.049999237060547,22.049999237060547,22.049999237060547,22.049999237060547,0.0,21.53258514404297
2015-10-26,22.049999237060547,22.049999237060547,22.049999237060547,22.049999237060547,0.0,21.53258514404297
2015-10-27,22.049999237060547,22.049999237060547,22.049999237060547,22.049999237060547,0.0,21.53258514404297
2015-10-28,22.049999237060547,22.049999237060547,22.049999237060547,22.049999237060547,0.0,21.53258514404297
2015-10-29,22.049999237060547,22.049999237060547,22.049999237060547,22.049999237060547,0.0,21.53258514404297
2015-10-30,22.049999237060547,22.049999237060547,22.049999237060547,22.049999237060547,0.0,21.53258514404297
2015-11-02,22.049999237060547,22.049999237060547,22.049999237060547,22.049999237060547,0.0,21.53258514404297
2015-11-03,22.049999237060547,22.049999237060547,22.049999237060547,22.049999237060547,0.0,21.53258514404297
2015-11-04,22.049999237060547,22.049999237060547,22.049999237060547,22.049999237060547,0.0,21.53258514404297
2015-11-05,22.049999237060547,22.049999237060547,22.049999237060547,22.049999237060547,0.0,21.53258514404297
2015-11-06,22.049999237060547,22.049999237060547,22.049999237060547,22.049999237060547,0.0,21.53258514404297
2015-11-09,22.049999237060547,22.049999237060547,22.049999237060547,22.049999237060547,0.0,21.53258514404297
2015-11-10,22.049999237060547,22.049999237060547,22.049999237060547,22.049999237060547,0.0,21.53258514404297
2015-11-11,22.049999237060547,22.049999237060547,22.049999237060547,22.049999237060547,0.0,21.53258514404297
2015-11-12,22.049999237060547,22.049999237060547,22.049999237060547,22.049999237060547,0.0,21.53258514404297
2015-11-13,22.049999237060547,22.049999237060547,22.049999237060547,22.049999237060547,0.0,21.53258514404297
2015-11-16,22.049999237060547,22.049999237060547,22.049999237060547,22.049999237060547,0.0,21.53258514404297
2015-11-17,22.049999237060547,22.049999237060547,22.049999237060547,22.049999237060547,0.0,21.53258514404297
2015-11-18,22.049999237060547,22.049999237060547,22.049999237060547,22.049999237060547,0.0,21.53258514404297
2015-11-19,24.299999237060547,24.299999237060547,24.299999237060547,24.299999237060547,200.0,23.72978401184082
2015-11-20,24.299999237060547,24.299999237060547,24.299999237060547,24.299999237060547,0.0,23.72978401184082
2015-11-23,24.299999237060547,24.299999237060547,24.299999237060547,24.299999237060547,0.0,23.72978401184082
2015-11-24,24.299999237060547,24.299999237060547,24.299999237060547,24.299999237060547,0.0,23.72978401184082
2015-11-25,24.299999237060547,24.299999237060547,24.299999237060547,24.299999237060547,0.0,23.72978401184082
2015-11-27,23.84000015258789,23.84000015258789,23.84000015258789,23.84000015258789,0.0,23.280580520629883
2015-11-30,24.450000762939453,24.450000762939453,24.450000762939453,24.450000762939453,400.0,23.87626838684082
2015-12-01,24.450000762939453,24.450000762939453,24.450000762939453,24.450000762939453,0.0,23.87626838684082
2015-12-02,24.450000762939453,24.450000762939453,24.450000762939453,24.450000762939453,0.0,23.87626838684082
2015-12-03,24.197999954223633,24.18000030517578,24.18000030517578,24.197999954223633,200.0,23.63018035888672
2015-12-04,24.197999954223633,24.197999954223633,24.197999954223633,24.197999954223633,0.0,23.63018035888672
2015-12-07,24.197999954223633,24.197999954223633,24.197999954223633,24.197999954223633,0.0,23.63018035888672
2015-12-08,24.197999954223633,24.197999954223633,24.197999954223633,24.197999954223633,0.0,23.63018035888672
2015-12-09,24.197999954223633,24.197999954223633,24.197999954223633,24.197999954223633,0.0,23.63018035888672
2015-12-10,24.197999954223633,24.197999954223633,24.197999954223633,24.197999954223633,0.0,23.63018035888672
2015-12-11,23.549999237060547,23.5,23.549999237060547,23.514999389648438,600.0,22.963207244873047
2015-12-14,23.514999389648438,23.514999389648438,23.514999389648438,23.514999389648438,0.0,22.963207244873047
2015-12-15,23.514999389648438,23.514999389648438,23.514999389648438,23.514999389648438,0.0,22.963207244873047
2015-12-16,23.514999389648438,23.514999389648438,23.514999389648438,23.514999389648438,0.0,22.963207244873047
2015-12-17,23.514999389648438,23.514999389648438,23.514999389648438,23.514999389648438,0.0,22.963207244873047
2015-12-18,23.514999389648438,23.514999389648438,23.514999389648438,23.514999389648438,0.0,22.963207244873047
2015-12-21,23.514999389648438,23.514999389648438,23.514999389648438,23.514999389648438,0.0,23.131418228149414
2015-12-22,23.360000610351562,23.360000610351562,23.360000610351562,23.360000610351562,300.0,22.978946685791016
2015-12-23,23.360000610351562,23.360000610351562,23.360000610351562,23.360000610351562,0.0,22.978946685791016
2015-12-24,23.360000610351562,23.360000610351562,23.360000610351562,23.360000610351562,0.0,22.978946685791016
2015-12-28,23.360000610351562,23.360000610351562,23.360000610351562,23.360000610351562,0.0,22.978946685791016
2015-12-29,23.360000610351562,23.360000610351562,23.360000610351562,23.360000610351562,0.0,22.978946685791016
2015-12-30,23.360000610351562,23.360000610351562,23.360000610351562,23.360000610351562,0.0,22.978946685791016
2015-12-31,23.360000610351562,23.360000610351562,23.360000610351562,23.360000610351562,0.0,22.978946685791016
2016-01-04,23.360000610351562,23.360000610351562,23.360000610351562,23.360000610351562,0.0,22.978946685791016
2016-01-05,23.360000610351562,23.360000610351562,23.360000610351562,23.360000610351562,0.0,22.978946685791016
2016-01-06,23.360000610351562,23.360000610351562,23.360000610351562,23.360000610351562,0.0,22.978946685791016
2016-01-07,22.350000381469727,22.309999465942383,22.309999465942383,22.350000381469727,300.0,21.985422134399414
2016-01-08,22.350000381469727,22.350000381469727,22.350000381469727,22.350000381469727,0.0,21.985422134399414
2016-01-11,22.350000381469727,22.350000381469727,22.350000381469727,22.350000381469727,0.0,21.985422134399414
2016-01-12,22.350000381469727,22.350000381469727,22.350000381469727,22.350000381469727,0.0,21.985422134399414
2016-01-13,22.350000381469727,22.350000381469727,22.350000381469727,22.350000381469727,0.0,21.985422134399414
2016-01-14,22.350000381469727,22.350000381469727,22.350000381469727,22.350000381469727,0.0,21.985422134399414
2016-01-15,22.350000381469727,22.350000381469727,22.350000381469727,22.350000381469727,0.0,21.985422134399414
2016-01-19,21.350000381469727,21.350000381469727,21.350000381469727,21.350000381469727,100.0,21.001733779907227
2016-01-20,21.350000381469727,21.350000381469727,21.350000381469727,21.350000381469727,0.0,21.001733779907227
2016-01-21,21.350000381469727,21.350000381469727,21.350000381469727,21.350000381469727,0.0,21.001733779907227
2016-01-22,21.350000381469727,21.350000381469727,21.350000381469727,21.350000381469727,0.0,21.001733779907227
2016-01-25,21.350000381469727,21.350000381469727,21.350000381469727,21.350000381469727,0.0,21.001733779907227
2016-01-26,21.350000381469727,21.350000381469727,21.350000381469727,21.350000381469727,0.0,21.001733779907227
2016-01-27,21.350000381469727,21.350000381469727,21.350000381469727,21.350000381469727,0.0,21.001733779907227
2016-01-28,21.350000381469727,21.350000381469727,21.350000381469727,21.350000381469727,0.0,21.001733779907227
2016-01-29,21.350000381469727,21.350000381469727,21.350000381469727,21.350000381469727,0.0,21.001733779907227
2016-02-01,21.350000381469727,21.350000381469727,21.350000381469727,21.350000381469727,0.0,21.001733779907227
2016-02-02,21.350000381469727,21.350000381469727,21.350000381469727,21.350000381469727,0.0,21.001733779907227
2016-02-03,21.350000381469727,21.350000381469727,21.350000381469727,21.350000381469727,0.0,21.001733779907227
2016-02-04,21.350000381469727,21.350000381469727,21.350000381469727,21.350000381469727,0.0,21.001733779907227
2016-02-05,21.350000381469727,21.350000381469727,21.350000381469727,21.350000381469727,0.0,21.001733779907227
2016-02-08,21.350000381469727,21.350000381469727,21.350000381469727,21.350000381469727,0.0,21.001733779907227
2016-02-09,21.350000381469727,21.350000381469727,21.350000381469727,21.350000381469727,0.0,21.001733779907227
2016-02-10,21.350000381469727,21.350000381469727,21.350000381469727,21.350000381469727,0.0,21.001733779907227
2016-02-11,21.350000381469727,21.350000381469727,21.350000381469727,21.350000381469727,0.0,21.001733779907227
2016-02-12,21.350000381469727,21.350000381469727,21.350000381469727,21.350000381469727,0.0,21.001733779907227
2016-02-16,21.350000381469727,21.350000381469727,21.350000381469727,21.350000381469727,0.0,21.001733779907227
2016-02-17,21.350000381469727,21.350000381469727,21.350000381469727,21.350000381469727,0.0,21.001733779907227
2016-02-18,21.350000381469727,21.350000381469727,21.350000381469727,21.350000381469727,0.0,21.001733779907227
2016-02-19,21.350000381469727,21.350000381469727,21.350000381469727,21.350000381469727,0.0,21.001733779907227
2016-02-22,21.350000381469727,21.350000381469727,21.350000381469727,21.350000381469727,0.0,21.001733779907227
2016-02-23,21.350000381469727,21.350000381469727,21.350000381469727,21.350000381469727,0.0,21.001733779907227
2016-02-24,21.350000381469727,21.350000381469727,21.350000381469727,21.350000381469727,0.0,21.001733779907227
2016-02-25,21.350000381469727,21.350000381469727,21.350000381469727,21.350000381469727,0.0,21.001733779907227
2016-02-26,21.350000381469727,21.350000381469727,21.350000381469727,21.350000381469727,0.0,21.001733779907227
2016-02-29,21.350000381469727,21.350000381469727,21.350000381469727,21.350000381469727,0.0,21.001733779907227
2016-03-01,21.350000381469727,21.350000381469727,21.350000381469727,21.350000381469727,0.0,21.001733779907227
2016-03-02,21.350000381469727,21.350000381469727,21.350000381469727,21.350000381469727,0.0,21.001733779907227
2016-03-03,21.350000381469727,21.350000381469727,21.350000381469727,21.350000381469727,0.0,21.001733779907227
2016-03-04,21.350000381469727,21.350000381469727,21.350000381469727,21.350000381469727,0.0,21.001733779907227
2016-03-07,21.350000381469727,21.350000381469727,21.350000381469727,21.350000381469727,0.0,21.001733779907227
2016-03-08,21.350000381469727,21.350000381469727,21.350000381469727,21.350000381469727,0.0,21.001733779907227
2016-03-09,21.350000381469727,21.350000381469727,21.350000381469727,21.350000381469727,0.0,21.001733779907227
2016-03-10,21.350000381469727,21.350000381469727,21.350000381469727,21.350000381469727,0.0,21.001733779907227
2016-03-11,21.350000381469727,21.350000381469727,21.350000381469727,21.350000381469727,0.0,21.001733779907227
2016-03-14,21.350000381469727,21.350000381469727,21.350000381469727,21.350000381469727,0.0,21.001733779907227
2016-03-15,21.350000381469727,21.350000381469727,21.350000381469727,21.350000381469727,0.0,21.001733779907227
2016-03-16,21.350000381469727,21.350000381469727,21.350000381469727,21.350000381469727,0.0,21.001733779907227
2016-03-17,21.350000381469727,21.350000381469727,21.350000381469727,21.350000381469727,0.0,21.001733779907227
2016-03-18,21.350000381469727,21.350000381469727,21.350000381469727,21.350000381469727,0.0,21.001733779907227
2016-03-21,21.350000381469727,21.350000381469727,21.350000381469727,21.350000381469727,0.0,21.001733779907227
2016-03-22,21.350000381469727,21.350000381469727,21.350000381469727,21.350000381469727,0.0,21.001733779907227
2016-03-23,21.350000381469727,21.350000381469727,21.350000381469727,21.350000381469727,0.0,21.001733779907227
2016-03-24,21.350000381469727,21.350000381469727,21.350000381469727,21.350000381469727,0.0,21.001733779907227
2016-03-28,21.350000381469727,21.350000381469727,21.350000381469727,21.350000381469727,0.0,21.001733779907227
2016-03-29,21.350000381469727,21.350000381469727,21.350000381469727,21.350000381469727,0.0,21.001733779907227
2016-03-30,21.350000381469727,21.350000381469727,21.350000381469727,21.350000381469727,0.0,21.001733779907227
2016-03-31,21.350000381469727,21.350000381469727,21.350000381469727,21.350000381469727,0.0,21.001733779907227
2016-04-01,21.350000381469727,21.350000381469727,21.350000381469727,21.350000381469727,0.0,21.001733779907227
2016-04-04,21.350000381469727,21.350000381469727,21.350000381469727,21.350000381469727,0.0,21.001733779907227
2016-04-05,21.350000381469727,21.350000381469727,21.350000381469727,21.350000381469727,0.0,21.001733779907227
2016-04-06,21.350000381469727,21.350000381469727,21.350000381469727,21.350000381469727,0.0,21.001733779907227
2016-04-07,21.350000381469727,21.350000381469727,21.350000381469727,21.350000381469727,0.0,21.001733779907227
2016-04-08,21.350000381469727,21.350000381469727,21.350000381469727,21.350000381469727,0.0,21.001733779907227
2016-04-11,23.5,23.0,23.360000610351562,23.049999237060547,2500.0,22.673999786376953
2016-04-12,23.049999237060547,23.049999237060547,23.049999237060547,23.049999237060547,0.0,22.673999786376953
2016-04-13,23.709999084472656,23.0,23.0,23.3799991607666,2200.0,22.99861717224121
2016-04-14,23.739999771118164,23.25,23.25,23.559999465942383,1600.0,23.175683975219727
2016-04-15,23.770000457763672,23.343000411987305,23.360000610351562,23.389999389648438,2200.0,23.008455276489258
2016-04-18,24.052000045776367,23.350000381469727,23.5,23.5,4200.0,23.116662979125977
2016-04-19,24.111000061035156,23.777000427246094,23.799999237060547,23.899999618530273,4600.0,23.5101375579834
2016-04-20,24.06399917602539,23.700000762939453,23.700000762939453,23.979999542236328,5800.0,23.588830947875977
2016-04-21,24.200000762939453,23.844999313354492,23.850000381469727,23.899999618530273,15200.0,23.5101375579834
2016-04-22,23.8700008392334,23.579999923706055,23.760000228881836,23.6299991607666,4100.0,23.244539260864258
2016-04-25,24.08799934387207,23.209999084472656,23.68000030517578,23.93000030517578,3500.0,23.539649963378906
2016-04-26,24.25,23.739999771118164,23.739999771118164,24.0,17000.0,23.608505249023438
2016-04-27,23.989999771118164,23.940000534057617,23.940000534057617,23.989999771118164,200.0,23.598669052124023
2016-04-28,23.989999771118164,23.989999771118164,23.989999771118164,23.989999771118164,0.0,23.598669052124023
2016-04-29,24.1200008392334,23.43000030517578,24.1200008392334,23.719999313354492,1500.0,23.333072662353516
2016-05-02,23.719999313354492,23.719999313354492,23.719999313354492,23.719999313354492,0.0,23.333072662353516
2016-05-03,23.670000076293945,23.399999618530273,23.399999618530273,23.649999618530273,16500.0,23.26421546936035
2016-05-04,23.760000228881836,23.719999313354492,23.760000228881836,23.719999313354492,900.0,23.333072662353516
2016-05-05,23.719999313354492,23.719999313354492,23.719999313354492,23.719999313354492,0.0,23.333072662353516
2016-05-06,23.719999313354492,23.719999313354492,23.719999313354492,23.719999313354492,0.0,23.333072662353516
2016-05-09,23.719999313354492,23.719999313354492,23.719999313354492,23.719999313354492,0.0,23.333072662353516
2016-05-10,23.75,23.540000915527344,23.540000915527344,23.719999313354492,2600.0,23.333072662353516
2016-05-11,23.719999313354492,23.719999313354492,23.719999313354492,23.719999313354492,0.0,23.333072662353516
2016-05-12,23.719999313354492,23.719999313354492,23.719999313354492,23.719999313354492,0.0,23.333072662353516
2016-05-13,23.719999313354492,23.719999313354492,23.719999313354492,23.719999313354492,0.0,23.333072662353516
2016-05-16,23.719999313354492,23.719999313354492,23.719999313354492,23.719999313354492,0.0,23.333072662353516
2016-05-17,23.719999313354492,23.719999313354492,23.719999313354492,23.719999313354492,0.0,23.333072662353516
2016-05-18,23.719999313354492,23.719999313354492,23.719999313354492,23.719999313354492,0.0,23.333072662353516
2016-05-19,23.719999313354492,23.719999313354492,23.719999313354492,23.719999313354492,0.0,23.333072662353516
2016-05-20,23.940000534057617,23.937000274658203,23.940000534057617,23.93899917602539,800.0,23.548498153686523
2016-05-23,23.889999389648438,23.799999237060547,23.889999389648438,23.809999465942383,4200.0,23.42160415649414
2016-05-24,24.040000915527344,24.020000457763672,24.030000686645508,24.030000686645508,900.0,23.638019561767578
2016-05-25,24.354999542236328,24.354999542236328,24.354999542236328,24.354999542236328,200.0,23.957714080810547
2016-05-26,24.354999542236328,24.354999542236328,24.354999542236328,24.354999542236328,0.0,23.957714080810547
2016-05-27,24.354999542236328,24.354999542236328,24.354999542236328,24.354999542236328,0.0,23.957714080810547
2016-05-31,24.354999542236328,24.354999542236328,24.354999542236328,24.354999542236328,0.0,23.957714080810547
2016-06-01,24.354999542236328,24.354999542236328,24.354999542236328,24.354999542236328,0.0,23.957714080810547
2016-06-02,24.420000076293945,24.350000381469727,24.399999618530273,24.40999984741211,3100.0,24.011817932128906
2016-06-03,24.389999389648438,24.309999465942383,24.309999465942383,24.3700008392334,1200.0,23.972469329833984
2016-06-06,24.649999618530273,24.59000015258789,24.610000610351562,24.6299991607666,1400.0,24.228225708007812
2016-06-07,24.6299991607666,24.6299991607666,24.6299991607666,24.6299991607666,0.0,24.228225708007812
2016-06-08,24.6299991607666,24.6299991607666,24.6299991607666,24.6299991607666,0.0,24.228225708007812
2016-06-09,24.6299991607666,24.6299991607666,24.6299991607666,24.6299991607666,0.0,24.228225708007812
2016-06-10,24.059999465942383,24.059999465942383,24.059999465942383,24.059999465942383,700.0,23.667526245117188
2016-06-13,24.260000228881836,24.170000076293945,24.260000228881836,24.239999771118164,300.0,23.844589233398438
2016-06-14,24.239999771118164,24.239999771118164,24.239999771118164,24.239999771118164,0.0,23.844589233398438
2016-06-15,24.239999771118164,24.239999771118164,24.239999771118164,24.239999771118164,0.0,23.844589233398438
2016-06-16,24.239999771118164,24.239999771118164,24.239999771118164,24.239999771118164,0.0,23.844589233398438
2016-06-17,24.239999771118164,24.239999771118164,24.239999771118164,24.239999771118164,0.0,23.844589233398438
2016-06-20,24.239999771118164,24.239999771118164,24.239999771118164,24.239999771118164,0.0,23.923545837402344
2016-06-21,24.239999771118164,24.239999771118164,24.239999771118164,24.239999771118164,0.0,23.923545837402344
2016-06-22,24.360000610351562,24.309999465942383,24.360000610351562,24.309999465942383,1000.0,23.992631912231445
2016-06-23,24.309999465942383,24.309999465942383,24.309999465942383,24.309999465942383,0.0,23.992631912231445
2016-06-24,24.309999465942383,24.309999465942383,24.309999465942383,24.309999465942383,0.0,23.992631912231445
2016-06-27,24.309999465942383,24.309999465942383,24.309999465942383,24.309999465942383,0.0,23.992631912231445
2016-06-28,24.309999465942383,24.309999465942383,24.309999465942383,24.309999465942383,0.0,23.992631912231445
2016-06-29,24.309999465942383,24.309999465942383,24.309999465942383,24.309999465942383,0.0,23.992631912231445
2016-06-30,24.309999465942383,24.309999465942383,24.309999465942383,24.309999465942383,0.0,23.992631912231445
2016-07-01,24.309999465942383,24.309999465942383,24.309999465942383,24.309999465942383,0.0,23.992631912231445
2016-07-05,24.309999465942383,24.309999465942383,24.309999465942383,24.309999465942383,0.0,23.992631912231445
2016-07-06,24.309999465942383,24.309999465942383,24.309999465942383,24.309999465942383,0.0,23.992631912231445
2016-07-07,24.309999465942383,24.309999465942383,24.309999465942383,24.309999465942383,0.0,23.992631912231445
2016-07-08,24.309999465942383,24.309999465942383,24.309999465942383,24.309999465942383,0.0,23.992631912231445
2016-07-11,24.309999465942383,24.309999465942383,24.309999465942383,24.309999465942383,0.0,23.992631912231445
2016-07-12,24.309999465942383,24.309999465942383,24.309999465942383,24.309999465942383,0.0,23.992631912231445
2016-07-13,24.309999465942383,24.309999465942383,24.309999465942383,24.309999465942383,0.0,23.992631912231445
2016-07-14,24.309999465942383,24.309999465942383,24.309999465942383,24.309999465942383,0.0,23.992631912231445
2016-07-15,24.309999465942383,24.309999465942383,24.309999465942383,24.309999465942383,0.0,23.992631912231445
2016-07-18,24.309999465942383,24.309999465942383,24.309999465942383,24.309999465942383,0.0,23.992631912231445
2016-07-19,24.309999465942383,24.309999465942383,24.309999465942383,24.309999465942383,0.0,23.992631912231445
2016-07-20,25.229999542236328,25.229999542236328,25.229999542236328,25.229999542236328,100.0,24.900619506835938
2016-07-21,25.229999542236328,25.229999542236328,25.229999542236328,25.229999542236328,0.0,24.900619506835938
2016-07-22,25.229999542236328,25.229999542236328,25.229999542236328,25.229999542236328,0.0,24.900619506835938
2016-07-25,25.229999542236328,25.229999542236328,25.229999542236328,25.229999542236328,0.0,24.900619506835938
2016-07-26,25.229999542236328,25.229999542236328,25.229999542236328,25.229999542236328,0.0,24.900619506835938
2016-07-27,25.200000762939453,25.200000762939453,25.200000762939453,25.200000762939453,200.0,24.871013641357422
2016-07-28,25.200000762939453,25.200000762939453,25.200000762939453,25.200000762939453,0.0,24.871013641357422
2016-07-29,25.200000762939453,25.200000762939453,25.200000762939453,25.200000762939453,0.0,24.871013641357422
2016-08-01,25.200000762939453,25.200000762939453,25.200000762939453,25.200000762939453,0.0,24.871013641357422
2016-08-02,25.200000762939453,25.200000762939453,25.200000762939453,25.200000762939453,0.0,24.871013641357422
2016-08-03,25.200000762939453,25.200000762939453,25.200000762939453,25.200000762939453,0.0,24.871013641357422
2016-08-04,25.200000762939453,25.200000762939453,25.200000762939453,25.200000762939453,0.0,24.871013641357422
2016-08-05,25.200000762939453,25.200000762939453,25.200000762939453,25.200000762939453,0.0,24.871013641357422
2016-08-08,25.200000762939453,25.200000762939453,25.200000762939453,25.200000762939453,0.0,24.871013641357422
2016-08-09,25.200000762939453,25.200000762939453,25.200000762939453,25.200000762939453,0.0,24.871013641357422
2016-08-10,25.200000762939453,25.200000762939453,25.200000762939453,25.200000762939453,0.0,24.871013641357422
2016-08-11,25.200000762939453,25.200000762939453,25.200000762939453,25.200000762939453,0.0,24.871013641357422
2016-08-12,25.200000762939453,25.200000762939453,25.200000762939453,25.200000762939453,0.0,24.871013641357422
2016-08-15,25.200000762939453,25.200000762939453,25.200000762939453,25.200000762939453,0.0,24.871013641357422
2016-08-16,25.200000762939453,25.200000762939453,25.200000762939453,25.200000762939453,0.0,24.871013641357422
2016-08-17,25.200000762939453,25.200000762939453,25.200000762939453,25.200000762939453,0.0,24.871013641357422
2016-08-18,25.200000762939453,25.200000762939453,25.200000762939453,25.200000762939453,0.0,24.871013641357422
2016-08-19,25.200000762939453,25.200000762939453,25.200000762939453,25.200000762939453,0.0,24.871013641357422
2016-08-22,25.200000762939453,25.200000762939453,25.200000762939453,25.200000762939453,0.0,24.871013641357422
2016-08-23,25.200000762939453,25.200000762939453,25.200000762939453,25.200000762939453,0.0,24.871013641357422
2016-08-24,25.200000762939453,25.200000762939453,25.200000762939453,25.200000762939453,0.0,24.871013641357422
2016-08-25,25.200000762939453,25.200000762939453,25.200000762939453,25.200000762939453,0.0,24.871013641357422
2016-08-26,25.200000762939453,25.200000762939453,25.200000762939453,25.200000762939453,0.0,24.871013641357422
2016-08-29,25.200000762939453,25.200000762939453,25.200000762939453,25.200000762939453,0.0,24.871013641357422
2016-08-30,25.200000762939453,25.200000762939453,25.200000762939453,25.200000762939453,0.0,24.871013641357422
2016-08-31,25.200000762939453,25.200000762939453,25.200000762939453,25.200000762939453,0.0,24.871013641357422
2016-09-01,25.200000762939453,25.200000762939453,25.200000762939453,25.200000762939453,0.0,24.871013641357422
2016-09-02,25.899999618530273,25.899999618530273,25.899999618530273,25.899999618530273,500.0,25.561872482299805
2016-09-06,26.100000381469727,26.100000381469727,26.100000381469727,26.100000381469727,100.0,25.75926399230957
2016-09-07,26.100000381469727,26.100000381469727,26.100000381469727,26.100000381469727,0.0,25.75926399230957
2016-09-08,26.100000381469727,26.100000381469727,26.100000381469727,26.100000381469727,0.0,25.75926399230957
2016-09-09,25.709999084472656,25.709999084472656,25.709999084472656,25.709999084472656,100.0,25.37435531616211
2016-09-12,25.6299991607666,25.6299991607666,25.6299991607666,25.6299991607666,500.0,25.295398712158203
2016-09-13,25.6299991607666,25.6299991607666,25.6299991607666,25.6299991607666,0.0,25.295398712158203
2016-09-14,25.6299991607666,25.6299991607666,25.6299991607666,25.6299991607666,0.0,25.295398712158203
2016-09-15,25.6299991607666,25.6299991607666,25.6299991607666,25.6299991607666,0.0,25.295398712158203
2016-09-16,25.6299991607666,25.6299991607666,25.6299991607666,25.6299991607666,0.0,25.295398712158203
2016-09-19,25.6299991607666,25.6299991607666,25.6299991607666,25.6299991607666,0.0,25.295398712158203
2016-09-20,25.399999618530273,25.399999618530273,25.399999618530273,25.399999618530273,100.0,25.068403244018555
2016-09-21,25.399999618530273,25.399999618530273,25.399999618530273,25.399999618530273,0.0,25.068403244018555
2016-09-22,25.399999618530273,25.399999618530273,25.399999618530273,25.399999618530273,0.0,25.068403244018555
2016-09-23,25.399999618530273,25.399999618530273,25.399999618530273,25.399999618530273,0.0,25.068403244018555
2016-09-26,25.399999618530273,25.399999618530273,25.399999618530273,25.399999618530273,0.0,25.187397003173828
2016-09-27,25.399999618530273,25.399999618530273,25.399999618530273,25.399999618530273,0.0,25.187397003173828
2016-09-28,25.399999618530273,25.399999618530273,25.399999618530273,25.399999618530273,0.0,25.187397003173828
2016-09-29,25.399999618530273,25.399999618530273,25.399999618530273,25.399999618530273,0.0,25.187397003173828
2016-09-30,25.399999618530273,25.399999618530273,25.399999618530273,25.399999618530273,0.0,25.187397003173828
2016-10-03,25.399999618530273,25.399999618530273,25.399999618530273,25.399999618530273,0.0,25.187397003173828
2016-10-04,25.399999618530273,25.399999618530273,25.399999618530273,25.399999618530273,0.0,25.187397003173828
2016-10-05,25.399999618530273,25.399999618530273,25.399999618530273,25.399999618530273,0.0,25.187397003173828
2016-10-06,25.399999618530273,25.399999618530273,25.399999618530273,25.399999618530273,0.0,25.187397003173828
2016-10-07,25.399999618530273,25.399999618530273,25.399999618530273,25.399999618530273,0.0,25.187397003173828
2016-10-10,25.399999618530273,25.399999618530273,25.399999618530273,25.399999618530273,0.0,25.187397003173828
2016-10-11,25.399999618530273,25.399999618530273,25.399999618530273,25.399999618530273,0.0,25.187397003173828
2016-10-12,25.399999618530273,25.399999618530273,25.399999618530273,25.399999618530273,0.0,25.187397003173828
2016-10-13,25.399999618530273,25.399999618530273,25.399999618530273,25.399999618530273,0.0,25.187397003173828
2016-10-14,25.399999618530273,25.399999618530273,25.399999618530273,25.399999618530273,0.0,25.187397003173828
2016-10-17,25.399999618530273,25.399999618530273,25.399999618530273,25.399999618530273,0.0,25.187397003173828
2016-10-18,25.399999618530273,25.399999618530273,25.399999618530273,25.399999618530273,0.0,25.187397003173828
2016-10-19,25.399999618530273,25.399999618530273,25.399999618530273,25.399999618530273,0.0,25.187397003173828
2016-10-20,25.399999618530273,25.399999618530273,25.399999618530273,25.399999618530273,0.0,25.187397003173828
2016-10-21,25.399999618530273,25.399999618530273,25.399999618530273,25.399999618530273,0.0,25.187397003173828
2016-10-24,25.399999618530273,25.399999618530273,25.399999618530273,25.399999618530273,0.0,25.187397003173828
2016-10-25,25.399999618530273,25.399999618530273,25.399999618530273,25.399999618530273,0.0,25.187397003173828
2016-10-26,25.399999618530273,25.399999618530273,25.399999618530273,25.399999618530273,0.0,25.187397003173828
2016-10-27,25.670000076293945,25.190000534057617,25.670000076293945,25.190000534057617,600.0,24.979154586791992
2016-10-28,25.190000534057617,25.190000534057617,25.190000534057617,25.190000534057617,0.0,24.979154586791992
2016-10-31,25.190000534057617,25.190000534057617,25.190000534057617,25.190000534057617,0.0,24.979154586791992
2016-11-01,25.190000534057617,25.190000534057617,25.190000534057617,25.190000534057617,0.0,24.979154586791992
2016-11-02,25.190000534057617,25.190000534057617,25.190000534057617,25.190000534057617,0.0,24.979154586791992
2016-11-03,25.190000534057617,25.190000534057617,25.190000534057617,25.190000534057617,0.0,24.979154586791992
2016-11-04,25.190000534057617,25.190000534057617,25.190000534057617,25.190000534057617,0.0,24.979154586791992
2016-11-07,25.190000534057617,25.190000534057617,25.190000534057617,25.190000534057617,0.0,24.979154586791992
2016-11-08,25.190000534057617,25.190000534057617,25.190000534057617,25.190000534057617,0.0,24.979154586791992
2016-11-09,25.190000534057617,25.190000534057617,25.190000534057617,25.190000534057617,0.0,24.979154586791992
2016-11-10,25.190000534057617,25.190000534057617,25.190000534057617,25.190000534057617,0.0,24.979154586791992
2016-11-11,25.444000244140625,25.444000244140625,25.444000244140625,25.444000244140625,300.0,25.231029510498047
2016-11-14,25.444000244140625,25.444000244140625,25.444000244140625,25.444000244140625,0.0,25.231029510498047
2016-11-15,25.444000244140625,25.444000244140625,25.444000244140625,25.444000244140625,0.0,25.231029510498047
2016-11-16,25.444000244140625,25.444000244140625,25.444000244140625,25.444000244140625,0.0,25.231029510498047
2016-11-17,25.444000244140625,25.444000244140625,25.444000244140625,25.444000244140625,0.0,25.231029510498047
2016-11-18,25.444000244140625,25.444000244140625,25.444000244140625,25.444000244140625,0.0,25.231029510498047
2016-11-21,26.040000915527344,25.950000762939453,26.040000915527344,25.961999893188477,400.0,25.744693756103516
2016-11-22,25.961999893188477,25.961999893188477,25.961999893188477,25.961999893188477,0.0,25.744693756103516
2016-11-23,25.961999893188477,25.961999893188477,25.961999893188477,25.961999893188477,0.0,25.744693756103516
2016-11-25,25.961999893188477,25.961999893188477,25.961999893188477,25.961999893188477,0.0,25.744693756103516
2016-11-28,25.961999893188477,25.961999893188477,25.961999893188477,25.961999893188477,0.0,25.744693756103516
2016-11-29,25.961999893188477,25.961999893188477,25.961999893188477,25.961999893188477,0.0,25.744693756103516
2016-11-30,25.961999893188477,25.961999893188477,25.961999893188477,25.961999893188477,0.0,25.744693756103516
2016-12-01,25.961999893188477,25.961999893188477,25.961999893188477,25.961999893188477,0.0,25.744693756103516
2016-12-02,25.961999893188477,25.961999893188477,25.961999893188477,25.961999893188477,0.0,25.744693756103516
2016-12-05,25.961999893188477,25.961999893188477,25.961999893188477,25.961999893188477,100.0,25.744693756103516
2016-12-06,26.101999282836914,26.101999282836914,26.101999282836914,26.101999282836914,200.0,25.883520126342773
2016-12-07,26.43000030517578,26.43000030517578,26.43000030517578,26.43000030517578,800.0,26.208776473999023
2016-12-08,26.719999313354492,26.719999313354492,26.719999313354492,26.719999313354492,1000.0,26.496347427368164
2016-12-09,26.719999313354492,26.719999313354492,26.719999313354492,26.719999313354492,0.0,26.496347427368164
2016-12-12,26.719999313354492,26.719999313354492,26.719999313354492,26.719999313354492,0.0,26.496347427368164
2016-12-13,26.719999313354492,26.719999313354492,26.719999313354492,26.719999313354492,0.0,26.496347427368164
2016-12-14,26.719999313354492,26.719999313354492,26.719999313354492,26.719999313354492,0.0,26.496347427368164
2016-12-15,26.81999969482422,26.81999969482422,26.81999969482422,26.81999969482422,600.0,26.59551239013672
2016-12-16,26.81999969482422,26.81999969482422,26.81999969482422,26.81999969482422,0.0,26.59551239013672
2016-12-19,26.81999969482422,26.81999969482422,26.81999969482422,26.81999969482422,0.0,26.59551239013672
2016-12-20,26.81999969482422,26.81999969482422,26.81999969482422,26.81999969482422,0.0,26.59551239013672
2016-12-21,26.81999969482422,26.81999969482422,26.81999969482422,26.81999969482422,0.0,26.59551239013672
2016-12-22,26.81999969482422,26.81999969482422,26.81999969482422,26.81999969482422,0.0,26.59551239013672
2016-12-23,26.81999969482422,26.81999969482422,26.81999969482422,26.81999969482422,0.0,26.713041305541992
2016-12-27,26.81999969482422,26.81999969482422,26.81999969482422,26.81999969482422,0.0,26.713041305541992
2016-12-28,26.81999969482422,26.81999969482422,26.81999969482422,26.81999969482422,0.0,26.713041305541992
2016-12-29,26.81999969482422,26.81999969482422,26.81999969482422,26.81999969482422,0.0,26.713041305541992
2016-12-30,26.81999969482422,26.81999969482422,26.81999969482422,26.81999969482422,0.0,26.713041305541992
2017-01-03,26.81999969482422,26.81999969482422,26.81999969482422,26.81999969482422,0.0,26.713041305541992
2017-01-04,26.81999969482422,26.81999969482422,26.81999969482422,26.81999969482422,0.0,26.713041305541992
2017-01-05,26.81999969482422,26.81999969482422,26.81999969482422,26.81999969482422,0.0,26.713041305541992
2017-01-06,26.81999969482422,26.81999969482422,26.81999969482422,26.81999969482422,0.0,26.713041305541992
2017-01-09,26.81999969482422,26.81999969482422,26.81999969482422,26.81999969482422,0.0,26.713041305541992
2017-01-10,26.81999969482422,26.81999969482422,26.81999969482422,26.81999969482422,0.0,26.713041305541992
2017-01-11,26.81999969482422,26.81999969482422,26.81999969482422,26.81999969482422,0.0,26.713041305541992
2017-01-12,26.81999969482422,26.81999969482422,26.81999969482422,26.81999969482422,0.0,26.713041305541992
2017-01-13,26.81999969482422,26.81999969482422,26.81999969482422,26.81999969482422,0.0,26.713041305541992
2017-01-17,26.81999969482422,26.81999969482422,26.81999969482422,26.81999969482422,0.0,26.713041305541992
2017-01-18,26.81999969482422,26.81999969482422,26.81999969482422,26.81999969482422,0.0,26.713041305541992
2017-01-19,26.81999969482422,26.81999969482422,26.81999969482422,26.81999969482422,0.0,26.713041305541992
2017-01-20,26.81999969482422,26.81999969482422,26.81999969482422,26.81999969482422,0.0,26.713041305541992
2017-01-23,27.0,26.8799991607666,26.8799991607666,26.889999389648438,600.0,26.782760620117188
2017-01-24,26.889999389648438,26.889999389648438,26.889999389648438,26.889999389648438,0.0,26.782760620117188
2017-01-25,26.889999389648438,26.889999389648438,26.889999389648438,26.889999389648438,0.0,26.782760620117188
2017-01-26,26.889999389648438,26.889999389648438,26.889999389648438,26.889999389648438,0.0,26.782760620117188
2017-01-27,26.889999389648438,26.889999389648438,26.889999389648438,26.889999389648438,0.0,26.782760620117188
2017-01-30,26.889999389648438,26.889999389648438,26.889999389648438,26.889999389648438,0.0,26.782760620117188
2017-01-31,26.889999389648438,26.889999389648438,26.889999389648438,26.889999389648438,0.0,26.782760620117188
2017-02-01,26.889999389648438,26.889999389648438,26.889999389648438,26.889999389648438,0.0,26.782760620117188
2017-02-02,26.889999389648438,26.889999389648438,26.889999389648438,26.889999389648438,0.0,26.782760620117188
2017-02-03,26.889999389648438,26.889999389648438,26.889999389648438,26.889999389648438,0.0,26.782760620117188
2017-02-06,26.889999389648438,26.889999389648438,26.889999389648438,26.889999389648438,0.0,26.782760620117188
2017-02-07,26.889999389648438,26.889999389648438,26.889999389648438,26.889999389648438,0.0,26.782760620117188
2017-02-08,26.889999389648438,26.889999389648438,26.889999389648438,26.889999389648438,0.0,26.782760620117188
2017-02-09,26.889999389648438,26.889999389648438,26.889999389648438,26.889999389648438,0.0,26.782760620117188
2017-02-10,26.889999389648438,26.889999389648438,26.889999389648438,26.889999389648438,0.0,26.782760620117188
2017-02-13,26.889999389648438,26.889999389648438,26.889999389648438,26.889999389648438,0.0,26.782760620117188
2017-02-14,26.889999389648438,26.889999389648438,26.889999389648438,26.889999389648438,0.0,26.782760620117188
2017-02-15,26.889999389648438,26.889999389648438,26.889999389648438,26.889999389648438,0.0,26.782760620117188
2017-02-16,26.889999389648438,26.889999389648438,26.889999389648438,26.889999389648438,0.0,26.782760620117188
2017-02-17,26.889999389648438,26.889999389648438,26.889999389648438,26.889999389648438,0.0,26.782760620117188
2017-02-21,26.889999389648438,26.889999389648438,26.889999389648438,26.889999389648438,0.0,26.782760620117188
2017-02-22,26.889999389648438,26.889999389648438,26.889999389648438,26.889999389648438,0.0,26.782760620117188
2017-02-23,26.889999389648438,26.889999389648438,26.889999389648438,26.889999389648438,0.0,26.782760620117188
2017-02-24,26.889999389648438,26.889999389648438,26.889999389648438,26.889999389648438,0.0,26.782760620117188
2017-02-27,28.0,27.90999984741211,27.93000030517578,28.0,900.0,27.888336181640625
2017-02-28,28.0,28.0,28.0,28.0,0.0,27.888336181640625
2017-03-01,28.0,28.0,28.0,28.0,0.0,27.888336181640625
2017-03-02,28.1200008392334,28.059999465942383,28.1200008392334,28.059999465942383,1200.0,27.948095321655273
2017-03-03,28.04400062561035,28.04400062561035,28.04400062561035,28.04400062561035,100.0,27.932161331176758
2017-03-06,27.899999618530273,27.8700008392334,27.899999618530273,27.8700008392334,1000.0,27.758853912353516
2017-03-07,27.8700008392334,27.8700008392334,27.8700008392334,27.8700008392334,0.0,27.758853912353516
2017-03-08,27.8700008392334,27.8700008392334,27.8700008392334,27.8700008392334,0.0,27.758853912353516
2017-03-09,27.8700008392334,27.8700008392334,27.8700008392334,27.8700008392334,0.0,27.758853912353516
2017-03-10,27.8700008392334,27.8700008392334,27.8700008392334,27.8700008392334,0.0,27.758853912353516
2017-03-13,27.8700008392334,27.8700008392334,27.8700008392334,27.8700008392334,0.0,27.758853912353516
2017-03-14,27.8700008392334,27.8700008392334,27.8700008392334,27.8700008392334,0.0,27.758853912353516
2017-03-15,28.06999969482422,28.06999969482422,28.06999969482422,28.06999969482422,100.0,27.95805549621582
2017-03-16,28.06999969482422,28.06999969482422,28.06999969482422,28.06999969482422,0.0,27.95805549621582
2017-09-11,29.5,29.5,29.5,29.5,0.0,29.382352828979492
2017-09-12,30.347999572753906,30.347999572753906,30.347999572753906,30.347999572753906,200.0,30.226970672607422
2017-09-13,30.4950008392334,30.4950008392334,30.4950008392334,30.4950008392334,100.0,30.37338638305664
2017-09-14,30.09000015258789,30.079999923706055,30.079999923706055,30.09000015258789,400.0,29.970001220703125
2017-09-15,30.09000015258789,30.09000015258789,30.09000015258789,30.09000015258789,0.0,29.970001220703125
2017-09-18,30.09000015258789,30.09000015258789,30.09000015258789,30.09000015258789,0.0,29.970001220703125
2017-09-19,30.09000015258789,30.09000015258789,30.09000015258789,30.09000015258789,0.0,29.970001220703125
2017-09-20,30.09000015258789,30.09000015258789,30.09000015258789,30.09000015258789,0.0,29.970001220703125
2017-09-21,30.09000015258789,30.09000015258789,30.09000015258789,30.09000015258789,0.0,29.970001220703125
2017-09-22,30.09000015258789,30.09000015258789,30.09000015258789,30.09000015258789,0.0,29.970001220703125
2017-09-25,30.09000015258789,30.09000015258789,30.09000015258789,30.09000015258789,0.0,29.970001220703125
2017-09-26,30.09000015258789,30.09000015258789,30.09000015258789,30.09000015258789,0.0,30.09000015258789
2017-09-27,30.09000015258789,30.09000015258789,30.09000015258789,30.09000015258789,0.0,30.09000015258789
2017-09-28,30.09000015258789,30.09000015258789,30.09000015258789,30.09000015258789,0.0,30.09000015258789
2017-09-29,30.09000015258789,30.09000015258789,30.09000015258789,30.09000015258789,0.0,30.09000015258789
2017-10-02,30.09000015258789,30.09000015258789,30.09000015258789,30.09000015258789,0.0,30.09000015258789
2017-10-03,30.09000015258789,30.09000015258789,30.09000015258789,30.09000015258789,0.0,30.09000015258789
2017-10-04,30.09000015258789,30.09000015258789,30.09000015258789,30.09000015258789,0.0,30.09000015258789
2017-10-05,30.09000015258789,30.09000015258789,30.09000015258789,30.09000015258789,0.0,30.09000015258789
2017-10-06,30.09000015258789,30.09000015258789,30.09000015258789,30.09000015258789,0.0,30.09000015258789
2017-10-09,30.09000015258789,30.09000015258789,30.09000015258789,30.09000015258789,0.0,30.09000015258789
2017-10-10,30.09000015258789,30.09000015258789,30.09000015258789,30.09000015258789,0.0,30.09000015258789
2017-10-11,30.09000015258789,30.09000015258789,30.09000015258789,30.09000015258789,0.0,30.09000015258789
2017-10-12,30.09000015258789,30.09000015258789,30.09000015258789,30.09000015258789,0.0,30.09000015258789
2017-10-13,30.09000015258789,30.09000015258789,30.09000015258789,30.09000015258789,0.0,30.09000015258789
