Date,High,Low,Open,Close,Volume,Adj Close
2018-02-08,12.479999542236328,11.600000381469727,12.25,11.600000381469727,3771800,11.600000381469727
2018-02-09,12.5,11.029999732971191,12.0,12.390000343322754,1351300,12.390000343322754
2018-02-12,12.699999809265137,11.880000114440918,12.300000190734863,12.399999618530273,307700,12.399999618530273
2018-02-13,12.84000015258789,11.920000076293945,12.109999656677246,12.789999961853027,309700,12.789999961853027
2018-02-14,12.880000114440918,12.199999809265137,12.550000190734863,12.800000190734863,257700,12.800000190734863
2018-02-15,13.0600004196167,12.414999961853027,13.0,13.050000190734863,348000,13.050000190734863
2018-02-16,13.130000114440918,12.649999618530273,12.789999961853027,13.050000190734863,224000,13.050000190734863
2018-02-20,13.0600004196167,12.510000228881836,12.649999618530273,12.989999771118164,107200,12.989999771118164
2018-02-21,13.109999656677246,12.550000190734863,12.8100004196167,12.930000305175781,171700,12.930000305175781
2018-02-22,13.029999732971191,12.579999923706055,12.699999809265137,13.0,189500,13.0
2018-02-23,13.029999732971191,12.760000228881836,12.979999542236328,13.0,87600,13.0
2018-02-26,13.489999771118164,12.819999694824219,12.970000267028809,13.260000228881836,395500,13.260000228881836
2018-02-27,13.5,12.649999618530273,13.119999885559082,13.0,170500,13.0
2018-02-28,13.0,12.729999542236328,12.869999885559082,12.949999809265137,101600,12.949999809265137
2018-03-01,13.25,12.5,12.859999656677246,13.079999923706055,381700,13.079999923706055
2018-03-02,13.40999984741211,12.850000381469727,12.979999542236328,13.300000190734863,138300,13.300000190734863
2018-03-05,13.210000038146973,12.600000381469727,13.140000343322754,12.789999961853027,152300,12.789999961853027
2018-03-06,12.949999809265137,12.579999923706055,12.789999961853027,12.850000381469727,75200,12.850000381469727
2018-03-07,13.029999732971191,12.609999656677246,12.680000305175781,13.0,169200,13.0
2018-03-08,13.149999618530273,12.899999618530273,12.920000076293945,13.0,100500,13.0
2018-03-09,13.119999885559082,12.680000305175781,13.029999732971191,13.0,194600,13.0
2018-03-12,13.130000114440918,12.609999656677246,12.949999809265137,12.65999984741211,117900,12.65999984741211
2018-03-13,13.130000114440918,12.420000076293945,12.949999809265137,12.420000076293945,160500,12.420000076293945
2018-03-14,12.585000038146973,11.90999984741211,12.25,12.329999923706055,212500,12.329999923706055
2018-03-15,12.640000343322754,11.899999618530273,12.289999961853027,12.010000228881836,66300,12.010000228881836
2018-03-16,12.229999542236328,11.850000381469727,12.0,11.9399995803833,459700,11.9399995803833
2018-03-19,12.199999809265137,11.699999809265137,11.960000038146973,11.869999885559082,61800,11.869999885559082
2018-03-20,12.144000053405762,11.199999809265137,11.890000343322754,11.680000305175781,159900,11.680000305175781
2018-03-21,12.09000015258789,11.600000381469727,11.600000381469727,11.829999923706055,94600,11.829999923706055
2018-03-22,12.149999618530273,11.649999618530273,11.729999542236328,12.0,57000,12.0
2018-03-23,12.130000114440918,11.8100004196167,11.920000076293945,11.920000076293945,33000,11.920000076293945
2018-03-26,12.369999885559082,11.65999984741211,12.119999885559082,12.270000457763672,87500,12.270000457763672
2018-03-27,12.739999771118164,11.8100004196167,12.279999732971191,12.420000076293945,91200,12.420000076293945
2018-03-28,12.380000114440918,12.100000381469727,12.300000190734863,12.34000015258789,88600,12.34000015258789
2018-03-29,12.479999542236328,12.15999984741211,12.3100004196167,12.300000190734863,48100,12.300000190734863
2018-04-02,12.859999656677246,11.670000076293945,12.25,11.989999771118164,204400,11.989999771118164
2018-04-03,12.300000190734863,11.430000305175781,12.09000015258789,11.529999732971191,210800,11.529999732971191
2018-04-04,11.789999961853027,10.65999984741211,11.34000015258789,11.199999809265137,130100,11.199999809265137
2018-04-05,11.529000282287598,10.850000381469727,11.300000190734863,11.239999771118164,124100,11.239999771118164
2018-04-06,11.510000228881836,10.755000114440918,11.149999618530273,10.84000015258789,120000,10.84000015258789
2018-04-09,11.170000076293945,10.520000457763672,10.890000343322754,10.649999618530273,146900,10.649999618530273
2018-04-10,11.0,10.569999694824219,10.600000381469727,10.880000114440918,96700,10.880000114440918
2018-04-11,10.930000305175781,10.529999732971191,10.640000343322754,10.6899995803833,58600,10.6899995803833
2018-04-12,10.989999771118164,10.390000343322754,10.619999885559082,10.65999984741211,60400,10.65999984741211
2018-04-13,11.09000015258789,10.449999809265137,10.600000381469727,10.739999771118164,58900,10.739999771118164
2018-04-16,11.0,10.390000343322754,10.6899995803833,10.729999542236328,70100,10.729999542236328
2018-04-17,10.979999542236328,10.550000190734863,10.710000038146973,10.890000343322754,72700,10.890000343322754
2018-04-18,10.850000381469727,10.5,10.800000190734863,10.569999694824219,99300,10.569999694824219
2018-04-19,10.699999809265137,10.5,10.539999961853027,10.600000381469727,24200,10.600000381469727
2018-04-20,11.039999961853027,10.460000038146973,10.520000457763672,10.460000038146973,76800,10.460000038146973
2018-04-23,10.640000343322754,10.394000053405762,10.449999809265137,10.59000015258789,32200,10.59000015258789
2018-04-24,10.640000343322754,10.359999656677246,10.640000343322754,10.600000381469727,356800,10.600000381469727
2018-04-25,10.824999809265137,10.300000190734863,10.640000343322754,10.609999656677246,251500,10.609999656677246
2018-04-26,10.739999771118164,10.050000190734863,10.619999885559082,10.5,45300,10.5
2018-04-27,10.630000114440918,10.220000267028809,10.420000076293945,10.510000228881836,104500,10.510000228881836
2018-04-30,11.489999771118164,10.531999588012695,10.59000015258789,11.0600004196167,50900,11.0600004196167
2018-05-01,11.289999961853027,10.720000267028809,10.979999542236328,11.0600004196167,56800,11.0600004196167
2018-05-02,11.300000190734863,10.760000228881836,10.979999542236328,10.84000015258789,39700,10.84000015258789
2018-05-03,11.130000114440918,10.6899995803833,10.850000381469727,10.859999656677246,108400,10.859999656677246
2018-05-04,11.119999885559082,10.805999755859375,10.930000305175781,11.0,11300,11.0
2018-05-07,11.100000381469727,10.663999557495117,11.09000015258789,10.850000381469727,24400,10.850000381469727
2018-05-08,10.824999809265137,10.0,10.75,10.529999732971191,314500,10.529999732971191
2018-05-09,10.84000015258789,10.430000305175781,10.430000305175781,10.779999732971191,137600,10.779999732971191
2018-05-10,10.779999732971191,10.210000038146973,10.779999732971191,10.609999656677246,82600,10.609999656677246
2018-05-11,10.630000114440918,10.359999656677246,10.539999961853027,10.359999656677246,145600,10.359999656677246
2018-05-14,10.449999809265137,10.079999923706055,10.430000305175781,10.220000267028809,104500,10.220000267028809
2018-05-15,10.649999618530273,10.050000190734863,10.210000038146973,10.180000305175781,41600,10.180000305175781
2018-05-16,10.350000381469727,9.850000381469727,10.119999885559082,10.0600004196167,220500,10.0600004196167
2018-05-17,10.350000381469727,10.0,10.0,10.109999656677246,71500,10.109999656677246
2018-05-18,10.640000343322754,9.960000038146973,10.260000228881836,10.09000015258789,268300,10.09000015258789
2018-05-21,10.489999771118164,9.720000267028809,10.100000381469727,10.3100004196167,102900,10.3100004196167
2018-05-22,10.479999542236328,10.050000190734863,10.390000343322754,10.399999618530273,162100,10.399999618530273
2018-05-23,10.75,10.489999771118164,10.489999771118164,10.649999618530273,126300,10.649999618530273
2018-05-24,11.09000015258789,10.649999618530273,10.649999618530273,11.010000228881836,72700,11.010000228881836
2018-05-25,10.989999771118164,10.760000228881836,10.9399995803833,10.84000015258789,11400,10.84000015258789
2018-05-29,10.90999984741211,10.635000228881836,10.90999984741211,10.649999618530273,24700,10.649999618530273
2018-05-30,11.300000190734863,10.649999618530273,10.649999618530273,11.09000015258789,123400,11.09000015258789
2018-05-31,11.6899995803833,10.90999984741211,11.220000267028809,11.199999809265137,71600,11.199999809265137
2018-06-01,11.800000190734863,11.220000267028809,11.300000190734863,11.65999984741211,112700,11.65999984741211
2018-06-04,12.550000190734863,11.65999984741211,11.65999984741211,11.729999542236328,87100,11.729999542236328
2018-06-05,12.029999732971191,11.069999694824219,11.729999542236328,11.4399995803833,93800,11.4399995803833
2018-06-06,11.6899995803833,10.850000381469727,11.449999809265137,11.039999961853027,93000,11.039999961853027
2018-06-07,11.25,10.899999618530273,11.029999732971191,11.09000015258789,74300,11.09000015258789
2018-06-08,11.449999809265137,11.039999961853027,11.039999961853027,11.380000114440918,60300,11.380000114440918
2018-06-11,11.3100004196167,10.774999618530273,11.260000228881836,11.229999542236328,202100,11.229999542236328
2018-06-12,11.4399995803833,11.0,11.149999618530273,11.229999542236328,62400,11.229999542236328
2018-06-13,11.350000381469727,10.550000190734863,11.319999694824219,10.609999656677246,135700,10.609999656677246
2018-06-14,11.079999923706055,10.649999618530273,10.649999618530273,10.850000381469727,123300,10.850000381469727
2018-06-15,11.039999961853027,10.130000114440918,10.760000228881836,10.420000076293945,188000,10.420000076293945
2018-06-18,11.0600004196167,10.199999809265137,10.329999923706055,10.529999732971191,152500,10.529999732971191
2018-06-19,11.199999809265137,10.279999732971191,10.399999618530273,10.800000190734863,155400,10.800000190734863
2018-06-20,11.119999885559082,10.319999694824219,10.800000190734863,10.729999542236328,164000,10.729999542236328
2018-06-21,11.140000343322754,10.640000343322754,10.640000343322754,10.869999885559082,121300,10.869999885559082
2018-06-22,10.869999885559082,10.619999885559082,10.8100004196167,10.720000267028809,105500,10.720000267028809
2018-06-25,11.0,10.520000457763672,10.699999809265137,10.739999771118164,76700,10.739999771118164
2018-06-26,10.770000457763672,10.119999885559082,10.710000038146973,10.300000190734863,210300,10.300000190734863
2018-06-27,10.59000015258789,9.899999618530273,10.220000267028809,10.069999694824219,63300,10.069999694824219
2018-06-28,10.34000015258789,9.949999809265137,10.039999961853027,10.100000381469727,25000,10.100000381469727
2018-06-29,10.640000343322754,10.109999656677246,10.180000305175781,10.579999923706055,73500,10.579999923706055
2018-07-02,10.949999809265137,10.220000267028809,10.579999923706055,10.489999771118164,51900,10.489999771118164
2018-07-03,10.744999885559082,10.239999771118164,10.579999923706055,10.739999771118164,5200,10.739999771118164
2018-07-05,10.779999732971191,10.210000038146973,10.75,10.399999618530273,20700,10.399999618530273
2018-07-06,10.729999542236328,9.9399995803833,10.420000076293945,10.109999656677246,52600,10.109999656677246
2018-07-09,10.420000076293945,9.9399995803833,10.050000190734863,10.010000228881836,61100,10.010000228881836
2018-07-10,10.279999732971191,9.199999809265137,10.079999923706055,10.149999618530273,41400,10.149999618530273
2018-07-11,10.319999694824219,9.880000114440918,10.199999809265137,9.930000305175781,15700,9.930000305175781
2018-07-12,10.069999694824219,9.649999618530273,10.029999732971191,9.979999542236328,34800,9.979999542236328
2018-07-13,10.130000114440918,9.90999984741211,9.90999984741211,10.130000114440918,20500,10.130000114440918
2018-07-16,10.479999542236328,10.130000114440918,10.130000114440918,10.40999984741211,57700,10.40999984741211
2018-07-17,10.529999732971191,10.079999923706055,10.449999809265137,10.520000457763672,36200,10.520000457763672
2018-07-18,10.6899995803833,10.100000381469727,10.449999809265137,10.40999984741211,49700,10.40999984741211
2018-07-19,10.470000267028809,10.050000190734863,10.470000267028809,10.1899995803833,34400,10.1899995803833
2018-07-20,10.175000190734863,9.970000267028809,10.149999618530273,10.109999656677246,48500,10.109999656677246
2018-07-23,10.300000190734863,9.680000305175781,10.029999732971191,10.300000190734863,37300,10.300000190734863
2018-07-24,10.350000381469727,9.979999542236328,10.350000381469727,10.210000038146973,19000,10.210000038146973
2018-07-25,10.390000343322754,10.069999694824219,10.300000190734863,10.25,65000,10.25
2018-07-26,10.59000015258789,10.109999656677246,10.180000305175781,10.25,99600,10.25
2018-07-27,10.539999961853027,9.989999771118164,10.319999694824219,10.130000114440918,102800,10.130000114440918
2018-07-30,10.300000190734863,9.979999542236328,10.239999771118164,10.149999618530273,101100,10.149999618530273
2018-07-31,10.600000381469727,10.010000228881836,10.130000114440918,10.350000381469727,49600,10.350000381469727
2018-08-01,10.6899995803833,9.819999694824219,10.609999656677246,9.90999984741211,186000,9.90999984741211
2018-08-02,9.899999618530273,8.909000396728516,9.84000015258789,9.180000305175781,443600,9.180000305175781
2018-08-03,9.899999618530273,9.25,9.559000015258789,9.765000343322754,104600,9.765000343322754
2018-08-06,10.319999694824219,9.859999656677246,10.170000076293945,10.109999656677246,102700,10.109999656677246
2018-08-07,10.5,9.649999618530273,10.5,9.760000228881836,75100,9.760000228881836
2018-08-08,10.369999885559082,9.649999618530273,9.75,9.930000305175781,202700,9.930000305175781
2018-08-09,9.989999771118164,9.729999542236328,9.979999542236328,9.880000114440918,47600,9.880000114440918
2018-08-10,10.119999885559082,9.600000381469727,9.850000381469727,10.0600004196167,62600,10.0600004196167
2018-08-13,10.279999732971191,9.875,10.050000190734863,10.0,210300,10.0
2018-08-14,10.210000038146973,9.850000381469727,10.100000381469727,10.0,168500,10.0
2018-08-15,10.100000381469727,9.899999618530273,9.949999809265137,9.949999809265137,67800,9.949999809265137
2018-08-16,10.09000015258789,9.850000381469727,9.949999809265137,9.989999771118164,83700,9.989999771118164
2018-08-17,10.100000381469727,9.899999618530273,10.020000457763672,9.979999542236328,132800,9.979999542236328
2018-08-20,10.079999923706055,9.949999809265137,9.979999542236328,10.0,75900,10.0
2018-08-21,10.199999809265137,9.869999885559082,10.0,9.90999984741211,86000,9.90999984741211
2018-08-22,10.0,9.609999656677246,9.899999618530273,9.859999656677246,64800,9.859999656677246
2018-08-23,9.899999618530273,9.449999809265137,9.899999618530273,9.640000343322754,468000,9.640000343322754
2018-08-24,9.850000381469727,9.446000099182129,9.579999923706055,9.5,65900,9.5
2018-08-27,10.010000228881836,9.520000457763672,9.600000381469727,9.630000114440918,192300,9.630000114440918
2018-08-28,9.989999771118164,9.630000114440918,9.729999542236328,9.640000343322754,102600,9.640000343322754
2018-08-29,10.0,9.619999885559082,9.630000114440918,9.989999771118164,42400,9.989999771118164
2018-08-30,10.0600004196167,9.5,9.989999771118164,9.59000015258789,64100,9.59000015258789
2018-08-31,10.050000190734863,9.520000457763672,9.520000457763672,9.880000114440918,76900,9.880000114440918
2018-09-04,9.949999809265137,9.520000457763672,9.789999961853027,9.859999656677246,52600,9.859999656677246
2018-09-05,9.920000076293945,9.579999923706055,9.890000343322754,9.699999809265137,48400,9.699999809265137
2018-09-06,9.920000076293945,9.600000381469727,9.770000457763672,9.600000381469727,41900,9.600000381469727
2018-09-07,9.75,9.380000114440918,9.600000381469727,9.4399995803833,56500,9.4399995803833
2018-09-10,9.529999732971191,9.260000228881836,9.510000228881836,9.380000114440918,40900,9.380000114440918
2018-09-11,9.59000015258789,9.380000114440918,9.59000015258789,9.399999618530273,26400,9.399999618530273
2018-09-12,9.550000190734863,9.25,9.4399995803833,9.520000457763672,81700,9.520000457763672
2018-09-13,9.600000381469727,9.289999961853027,9.600000381469727,9.4399995803833,71900,9.4399995803833
2018-09-14,9.630000114440918,9.199999809265137,9.380000114440918,9.229999542236328,73400,9.229999542236328
2018-09-17,9.520000457763672,9.140000343322754,9.140000343322754,9.449999809265137,43200,9.449999809265137
2018-09-18,9.520000457763672,9.130000114440918,9.40999984741211,9.25,34300,9.25
2018-09-19,9.25,8.869999885559082,9.25,9.020000457763672,152900,9.020000457763672
2018-09-20,9.239999771118164,8.270000457763672,9.050000190734863,8.75,114000,8.75
2018-09-21,9.300000190734863,8.819999694824219,8.819999694824219,9.09000015258789,65600,9.09000015258789
2018-09-24,10.220000267028809,9.180000305175781,9.649999618530273,9.460000038146973,489900,9.460000038146973
2018-09-25,10.199999809265137,9.449999809265137,10.039999961853027,9.449999809265137,124400,9.449999809265137
2018-09-26,10.015000343322754,9.289999961853027,9.4399995803833,9.5,246000,9.5
2018-09-27,10.0,9.350000381469727,9.529999732971191,9.529999732971191,62200,9.529999732971191
2018-09-28,9.859999656677246,9.5,9.529999732971191,9.539999961853027,72600,9.539999961853027
2018-10-01,9.89900016784668,9.539999961853027,9.5600004196167,9.550000190734863,32600,9.550000190734863
2018-10-02,9.699999809265137,9.220000267028809,9.619999885559082,9.319999694824219,60100,9.319999694824219
2018-10-03,9.484999656677246,9.0,9.187000274658203,9.199999809265137,30700,9.199999809265137
2018-10-04,9.390000343322754,8.850000381469727,9.119999885559082,8.970000267028809,72700,8.970000267028809
2018-10-05,9.40999984741211,8.949999809265137,8.949999809265137,9.119999885559082,32500,9.119999885559082
2018-10-08,9.239999771118164,8.760000228881836,8.970000267028809,8.890000343322754,93000,8.890000343322754
2018-10-09,9.069999694824219,8.760000228881836,8.760000228881836,8.979999542236328,38900,8.979999542236328
2018-10-10,9.055000305175781,8.609999656677246,8.949999809265137,8.739999771118164,99300,8.739999771118164
2018-10-11,9.1899995803833,8.1899995803833,8.579999923706055,8.369999885559082,272600,8.369999885559082
2018-10-12,8.40999984741211,7.800000190734863,8.40999984741211,7.909999847412109,223600,7.909999847412109
2018-10-15,8.479999542236328,7.849999904632568,7.989999771118164,7.880000114440918,76700,7.880000114440918
2018-10-16,8.329999923706055,7.840000152587891,7.940000057220459,8.0,194500,8.0
2018-10-17,8.069999694824219,7.934999942779541,8.0,7.96999979019165,46100,7.96999979019165
2018-10-18,8.369999885559082,7.949999809265137,8.369999885559082,8.0,35600,8.0
2018-10-19,8.300000190734863,7.869999885559082,8.050000190734863,8.029999732971191,52300,8.029999732971191
2018-10-22,8.329999923706055,7.889999866485596,8.0,7.920000076293945,56700,7.920000076293945
2018-10-23,8.09000015258789,7.800000190734863,7.869999885559082,7.840000152587891,50600,7.840000152587891
2018-10-24,8.154999732971191,7.679999828338623,7.800000190734863,7.75,155600,7.75
2018-10-25,8.109999656677246,7.559999942779541,7.710000038146973,7.690000057220459,81500,7.690000057220459
2018-10-26,7.829999923706055,7.269999980926514,7.690000057220459,7.5,149600,7.5
2018-10-29,7.880000114440918,7.389999866485596,7.5,7.5,109000,7.5
2018-10-30,7.820000171661377,7.445000171661377,7.5,7.619999885559082,168900,7.619999885559082
2018-10-31,8.220000267028809,7.539999961853027,7.619999885559082,7.800000190734863,196200,7.800000190734863
2018-11-01,9.109999656677246,7.769999980926514,7.769999980926514,8.0,126400,8.0
2018-11-02,8.6899995803833,7.679999828338623,8.0600004196167,7.920000076293945,78400,7.920000076293945
2018-11-05,8.289999961853027,7.889999866485596,7.940000057220459,7.989999771118164,70100,7.989999771118164
2018-11-06,8.229999542236328,7.934999942779541,7.960000038146973,8.149999618530273,40400,8.149999618530273
2018-11-07,10.15999984741211,8.6899995803833,9.399999618530273,9.779999732971191,1214500,9.779999732971191
2018-11-08,10.460000038146973,9.819999694824219,10.039999961853027,10.300000190734863,953100,10.300000190734863
2018-11-09,11.479999542236328,10.109999656677246,10.109999656677246,11.180000305175781,499200,11.180000305175781
2018-11-12,12.170000076293945,10.869999885559082,11.270000457763672,11.850000381469727,435700,11.850000381469727
2018-11-13,12.050000190734863,11.420000076293945,11.829999923706055,11.770000457763672,259200,11.770000457763672
2018-11-14,12.0,11.680000305175781,11.800000190734863,11.779999732971191,153200,11.779999732971191
2018-11-15,12.140000343322754,11.399999618530273,11.8100004196167,11.989999771118164,263100,11.989999771118164
2018-11-16,12.489999771118164,11.569999694824219,12.029999732971191,12.0,102800,12.0
2018-11-19,12.390000343322754,11.8100004196167,11.880000114440918,12.069999694824219,398300,12.069999694824219
2018-11-20,11.979999542236328,11.4399995803833,11.979999542236328,11.59000015258789,333200,11.59000015258789
2018-11-21,12.34000015258789,11.529999732971191,11.699999809265137,12.0,641400,12.0
2018-11-23,12.220000267028809,11.930000305175781,11.930000305175781,12.140000343322754,44900,12.140000343322754
2018-11-26,12.380000114440918,11.859999656677246,12.079999923706055,12.319999694824219,262200,12.319999694824219
2018-11-27,12.649999618530273,12.09000015258789,12.319999694824219,12.270000457763672,118700,12.270000457763672
2018-11-28,12.350000381469727,11.920000076293945,12.199999809265137,12.279999732971191,174600,12.279999732971191
2018-11-29,12.34000015258789,12.031999588012695,12.1899995803833,12.079999923706055,118700,12.079999923706055
2018-11-30,12.329999923706055,11.90999984741211,12.170000076293945,12.25,178800,12.25
2018-12-03,12.4399995803833,12.109999656677246,12.319999694824219,12.130000114440918,103800,12.130000114440918
2018-12-04,12.180000305175781,11.609999656677246,12.130000114440918,11.619999885559082,94300,11.619999885559082
2018-12-06,11.520000457763672,11.010000228881836,11.5,11.079999923706055,92900,11.079999923706055
2018-12-07,11.479999542236328,11.09000015258789,11.15999984741211,11.15999984741211,181600,11.15999984741211
2018-12-10,11.425000190734863,10.859999656677246,11.020000457763672,11.300000190734863,238400,11.300000190734863
2018-12-11,11.539999961853027,10.300000190734863,11.420000076293945,11.289999961853027,171100,11.289999961853027
2018-12-12,12.489999771118164,10.710000038146973,11.300000190734863,10.970000267028809,157600,10.970000267028809
2018-12-13,11.0,10.449999809265137,10.899999618530273,10.640000343322754,139500,10.640000343322754
2018-12-14,10.8100004196167,10.010000228881836,10.649999618530273,10.069999694824219,77800,10.069999694824219
2018-12-17,10.350000381469727,9.489999771118164,10.079999923706055,9.649999618530273,171600,9.649999618530273
2018-12-18,9.729999542236328,9.130000114440918,9.680000305175781,9.369999885559082,305200,9.369999885559082
2018-12-19,9.399999618530273,8.920000076293945,9.279999732971191,9.010000228881836,513400,9.010000228881836
2018-12-20,9.100000381469727,8.65999984741211,9.029999732971191,8.850000381469727,312400,8.850000381469727
2018-12-21,9.239999771118164,8.819999694824219,8.960000038146973,9.050000190734863,285500,9.050000190734863
2018-12-24,9.390000343322754,8.880000114440918,9.020000457763672,9.010000228881836,86000,9.010000228881836
2018-12-26,9.3100004196167,8.90999984741211,9.0,9.1899995803833,355200,9.1899995803833
2018-12-27,9.279999732971191,9.039999961853027,9.050000190734863,9.130000114440918,231900,9.130000114440918
2018-12-28,9.510000228881836,9.119999885559082,9.119999885559082,9.300000190734863,342900,9.300000190734863
2018-12-31,10.289999961853027,9.260000228881836,9.260000228881836,10.220000267028809,213900,10.220000267028809
2019-01-02,10.600000381469727,9.699999809265137,10.069999694824219,10.479999542236328,162200,10.479999542236328
2019-01-03,10.630000114440918,10.289999961853027,10.430000305175781,10.489999771118164,101000,10.489999771118164
2019-01-04,10.970000267028809,10.149999618530273,10.630000114440918,10.859999656677246,124700,10.859999656677246
2019-01-07,11.21500015258789,10.729999542236328,10.800000190734863,11.0,91600,11.0
2019-01-08,11.220000267028809,10.90999984741211,11.100000381469727,11.010000228881836,76800,11.010000228881836
2019-01-09,11.180000305175781,10.90999984741211,11.010000228881836,10.970000267028809,53200,10.970000267028809
2019-01-10,11.09000015258789,10.729999542236328,10.90999984741211,11.0,87700,11.0
2019-01-11,11.100000381469727,10.90999984741211,11.100000381469727,11.029999732971191,111000,11.029999732971191
2019-01-14,11.0600004196167,10.180000305175781,10.960000038146973,10.880000114440918,159800,10.880000114440918
2019-01-15,10.920000076293945,10.649999618530273,10.90999984741211,10.75,62300,10.75
2019-01-16,10.850000381469727,9.520000457763672,10.680000305175781,10.710000038146973,156300,10.710000038146973
2019-01-17,11.029999732971191,10.569999694824219,10.649999618530273,11.010000228881836,92000,11.010000228881836
2019-01-18,11.100000381469727,10.890000343322754,11.0,10.970000267028809,222100,10.970000267028809
2019-01-22,11.079999923706055,10.630000114440918,10.920000076293945,10.859999656677246,78700,10.859999656677246
2019-01-23,10.890000343322754,10.539999961853027,10.819999694824219,10.710000038146973,41100,10.710000038146973
2019-01-24,10.789999961853027,10.470000267028809,10.789999961853027,10.529999732971191,28900,10.529999732971191
2019-01-25,10.619999885559082,10.119999885559082,10.529999732971191,10.520000457763672,73600,10.520000457763672
2019-01-28,10.729999542236328,10.484999656677246,10.489999771118164,10.600000381469727,46800,10.600000381469727
2019-01-29,10.699999809265137,10.520000457763672,10.680000305175781,10.649999618530273,43700,10.649999618530273
2019-01-30,10.720000267028809,10.5,10.609999656677246,10.579999923706055,105300,10.579999923706055
2019-01-31,10.899999618530273,10.550000190734863,10.569999694824219,10.899999618530273,105100,10.899999618530273
2019-02-01,11.489999771118164,10.630000114440918,10.8100004196167,11.029999732971191,92100,11.029999732971191
2019-02-04,11.5,11.010000228881836,11.140000343322754,11.449999809265137,89200,11.449999809265137
2019-02-05,11.5,10.9399995803833,11.470000267028809,10.949999809265137,66400,10.949999809265137
2019-02-06,11.119999885559082,10.550000190734863,10.680000305175781,10.8100004196167,55900,10.8100004196167
2019-02-07,11.145000457763672,10.6899995803833,10.890000343322754,10.6899995803833,51500,10.6899995803833
2019-02-08,11.020000457763672,10.260000228881836,10.699999809265137,10.84000015258789,120700,10.84000015258789
2019-02-11,11.25,10.760000228881836,10.789999961853027,11.130000114440918,68600,11.130000114440918
2019-02-12,11.399999618530273,11.0600004196167,11.34000015258789,11.25,108700,11.25
2019-02-13,11.600000381469727,11.279999732971191,11.479999542236328,11.5600004196167,98300,11.5600004196167
2019-02-14,12.0,11.510000228881836,11.510000228881836,11.850000381469727,85200,11.850000381469727
2019-02-15,12.489999771118164,11.84000015258789,11.949999809265137,12.279999732971191,105600,12.279999732971191
2019-02-19,12.609999656677246,12.0,12.149999618530273,12.380000114440918,132200,12.380000114440918
2019-02-20,12.880000114440918,12.380000114440918,12.640000343322754,12.699999809265137,187800,12.699999809265137
2019-02-21,12.770000457763672,12.350000381469727,12.680000305175781,12.369999885559082,316100,12.369999885559082
2019-02-22,13.029999732971191,12.489999771118164,12.489999771118164,13.0,123200,13.0
2019-02-25,13.239999771118164,12.899999618530273,13.130000114440918,12.949999809265137,62900,12.949999809265137
2019-02-26,13.100000381469727,12.8100004196167,12.859999656677246,13.050000190734863,171500,13.050000190734863
2019-02-27,13.140000343322754,12.59000015258789,13.020000457763672,12.869999885559082,71700,12.869999885559082
2019-02-28,12.979999542236328,12.369999885559082,12.829999923706055,12.59000015258789,73700,12.59000015258789
2019-03-01,13.300000190734863,12.819999694824219,12.899999618530273,12.960000038146973,120700,12.960000038146973
2019-03-04,13.335000038146973,12.850000381469727,13.09000015258789,13.010000228881836,72500,13.010000228881836
2019-03-05,13.204999923706055,12.920000076293945,13.010000228881836,13.0,75600,13.0
2019-03-06,13.199999809265137,12.569999694824219,13.010000228881836,12.6899995803833,60400,12.6899995803833
2019-03-07,12.930000305175781,12.229999542236328,12.649999618530273,12.40999984741211,60800,12.40999984741211
2019-03-08,13.369999885559082,12.17300033569336,12.279999732971191,12.880000114440918,97700,12.880000114440918
2019-03-11,13.84000015258789,13.0600004196167,13.0600004196167,13.300000190734863,124100,13.300000190734863
2019-03-12,13.529999732971191,13.09000015258789,13.300000190734863,13.1899995803833,53600,13.1899995803833
2019-03-13,13.220000267028809,12.979999542236328,13.220000267028809,13.130000114440918,65100,13.130000114440918
2019-03-14,13.479999542236328,13.079999923706055,13.140000343322754,13.350000381469727,100800,13.350000381469727
2019-03-15,14.319999694824219,13.680000305175781,13.680000305175781,14.180000305175781,293600,14.180000305175781
2019-03-18,14.420000076293945,13.699999809265137,14.380000114440918,14.100000381469727,57600,14.100000381469727
2019-03-19,14.847999572753906,14.038999557495117,14.25,14.5600004196167,116700,14.5600004196167
2019-03-20,14.949999809265137,14.34000015258789,14.59000015258789,14.829999923706055,133200,14.829999923706055
2019-03-21,15.90999984741211,14.729000091552734,14.75,15.300000190734863,291500,15.300000190734863
2019-03-22,15.34000015258789,14.220000267028809,15.3100004196167,14.760000228881836,117600,14.760000228881836
2019-03-25,14.800000190734863,14.180000305175781,14.619999885559082,14.680000305175781,59700,14.680000305175781
2019-03-26,15.130000114440918,14.270000457763672,15.130000114440918,14.550000190734863,69100,14.550000190734863
2019-03-27,15.244999885559082,14.335000038146973,14.789999961853027,14.5600004196167,38400,14.5600004196167
2019-03-28,14.899999618530273,14.5,14.600000381469727,14.899999618530273,38300,14.899999618530273
2019-03-29,15.34000015258789,14.819999694824219,15.050000190734863,15.020000457763672,87900,15.020000457763672
2019-04-01,15.569999694824219,14.9399995803833,15.029999732971191,15.449999809265137,59800,15.449999809265137
2019-04-02,16.020000457763672,15.25,15.59000015258789,15.800000190734863,330500,15.800000190734863
2019-04-03,16.010000228881836,15.350000381469727,16.010000228881836,15.84000015258789,173300,15.84000015258789
2019-04-04,16.350000381469727,15.906999588012695,15.960000038146973,16.049999237060547,152100,16.049999237060547
2019-04-05,16.469999313354492,16.010000228881836,16.010000228881836,16.239999771118164,118600,16.239999771118164
2019-04-08,16.450000762939453,15.489999771118164,16.31999969482422,15.890000343322754,83300,15.890000343322754
2019-04-09,16.049999237060547,15.729999542236328,15.819999694824219,15.8100004196167,71200,15.8100004196167
2019-04-10,16.280000686645508,15.505000114440918,15.84000015258789,15.760000228881836,61500,15.760000228881836
2019-04-11,15.5,13.699999809265137,15.180000305175781,14.890000343322754,202200,14.890000343322754
2019-04-12,15.369999885559082,14.88700008392334,14.979999542236328,15.149999618530273,26500,15.149999618530273
2019-04-15,15.510000228881836,14.940999984741211,15.140000343322754,15.34000015258789,39200,15.34000015258789
2019-04-16,15.970000267028809,15.319999694824219,15.319999694824219,15.760000228881836,62700,15.760000228881836
2019-04-17,15.8100004196167,15.279999732971191,15.8100004196167,15.369999885559082,26800,15.369999885559082
2019-04-18,15.65999984741211,14.90999984741211,15.34000015258789,15.039999961853027,153800,15.039999961853027
2019-04-22,15.40999984741211,14.925000190734863,15.050000190734863,15.239999771118164,56100,15.239999771118164
2019-04-23,15.350000381469727,14.42199993133545,15.239999771118164,15.199999809265137,75800,15.199999809265137
2019-04-24,16.040000915527344,15.130000114440918,15.359999656677246,16.0,101700,16.0
2019-04-25,16.149999618530273,15.369999885559082,15.979999542236328,15.75,45500,15.75
2019-04-26,16.260000228881836,15.75,15.75,16.100000381469727,44200,16.100000381469727
2019-04-29,16.989999771118164,16.1299991607666,16.1299991607666,16.540000915527344,135800,16.540000915527344
2019-04-30,16.9950008392334,16.290000915527344,16.81999969482422,16.489999771118164,72000,16.489999771118164
2019-05-01,16.690000534057617,16.290000915527344,16.5,16.440000534057617,55200,16.440000534057617
2019-05-02,16.5,16.389999389648438,16.399999618530273,16.40999984741211,63200,16.40999984741211
2019-05-03,16.959999084472656,16.420000076293945,16.459999084472656,16.420000076293945,55700,16.420000076293945
2019-05-06,16.760000228881836,15.1899995803833,16.15999984741211,16.5,54900,16.5
2019-05-07,16.579999923706055,15.800000190734863,16.329999923706055,15.899999618530273,65900,15.899999618530273
2019-05-08,16.360000610351562,15.84000015258789,15.859999656677246,15.920000076293945,38200,15.920000076293945
2019-05-09,16.420000076293945,15.5649995803833,15.760000228881836,15.970000267028809,105100,15.970000267028809
2019-05-10,16.280000686645508,15.40999984741211,15.880000114440918,16.020000457763672,39200,16.020000457763672
2019-05-13,16.229999542236328,15.180000305175781,15.75,15.350000381469727,54100,15.350000381469727
2019-05-14,15.859999656677246,15.289999961853027,15.369999885559082,15.550000190734863,72700,15.550000190734863
2019-05-15,16.434999465942383,15.420000076293945,15.420000076293945,16.239999771118164,105700,16.239999771118164
2019-05-16,17.280000686645508,16.170000076293945,16.780000686645508,17.06999969482422,114100,17.06999969482422
2019-05-17,18.799999237060547,17.049999237060547,17.049999237060547,17.950000762939453,181300,17.950000762939453
2019-05-20,18.110000610351562,17.540000915527344,17.850000381469727,17.760000228881836,108400,17.760000228881836
2019-05-21,18.260000228881836,17.719999313354492,17.920000076293945,18.100000381469727,98600,18.100000381469727
2019-05-22,18.489999771118164,17.8700008392334,17.979999542236328,17.940000534057617,77400,17.940000534057617
2019-05-23,17.899999618530273,16.829999923706055,17.799999237060547,17.850000381469727,81500,17.850000381469727
2019-05-24,17.940000534057617,17.280000686645508,17.889999389648438,17.610000610351562,84900,17.610000610351562
