Date,High,Low,Open,Close,Volume,Adj Close
2017-01-27,101.75,99.0,100.09500122070312,100.09500122070312,850200.0,83.10044860839844
2017-01-30,100.375,99.4000015258789,100.0,100.2760009765625,89700.0,83.25071716308594
2017-01-31,100.69200134277344,98.01499938964844,100.69200134277344,99.87999725341797,241600.0,82.92195892333984
2017-02-01,100.19999694824219,99.5,99.9000015258789,100.0,15300.0,83.02157592773438
2017-02-02,100.25,100.25,100.25,100.25,10200.0,83.22913360595703
2017-02-03,100.25,100.0,100.25,100.0,10100.0,83.02157592773438
2017-02-06,98.62999725341797,98.62999725341797,98.62999725341797,98.62999725341797,100.0,81.8841781616211
2017-02-07,99.5,99.0,99.0,99.0,300.0,82.19136810302734
2017-02-08,98.75,98.75,98.75,98.75,500.0,81.98380279541016
2017-02-09,100.1500015258789,99.87999725341797,99.87999725341797,100.1500015258789,4600.0,83.14610290527344
2017-02-10,100.75,99.75,100.5,100.3499984741211,2600.0,83.3121566772461
2017-02-13,100.0,99.19000244140625,100.0,99.23999786376953,90400.0,82.39061737060547
2017-02-14,99.23999786376953,99.23999786376953,99.23999786376953,99.23999786376953,0.0,82.39061737060547
2017-02-15,101.5199966430664,100.0,100.0,101.5199966430664,2900.0,84.28350830078125
2017-02-16,101.62999725341797,100.76000213623047,101.0,101.5,4600.0,84.26690673828125
2017-02-17,101.83000183105469,101.06999969482422,101.06999969482422,101.83000183105469,1300.0,84.54087829589844
2017-02-21,101.30000305175781,100.0,101.30000305175781,100.0,34200.0,83.02157592773438
2017-02-22,100.97599792480469,100.0,100.0,100.8280029296875,2400.0,83.70899200439453
2017-02-23,102.19000244140625,100.0,100.0,101.75700378417969,3000.0,84.48027801513672
2017-02-24,101.0,100.0,101.0,100.62999725341797,12100.0,83.54462432861328
2017-02-27,104.50499725341797,100.69999694824219,104.50499725341797,101.87999725341797,2300.0,84.5823745727539
2017-02-28,101.63999938964844,100.62999725341797,101.63999938964844,100.87000274658203,2900.0,83.74386596679688
2017-03-01,101.88999938964844,101.44000244140625,101.88999938964844,101.44000244140625,45700.0,84.21708679199219
2017-03-02,102.26000213623047,99.91500091552734,101.01000213623047,101.93000030517578,48000.0,84.62389373779297
2017-03-03,101.87000274658203,100.0,100.9800033569336,101.12000274658203,8300.0,83.95142364501953
2017-03-06,101.5999984741211,100.30000305175781,100.5199966430664,100.83000183105469,3800.0,83.71066284179688
2017-03-07,101.7699966430664,100.12000274658203,101.26000213623047,100.77999877929688,3700.0,83.66914367675781
2017-03-08,101.70999908447266,99.98999786376953,99.98999786376953,101.08999633789062,27300.0,83.92650604248047
2017-03-09,99.98999786376953,99.06999969482422,99.98999786376953,99.06999969482422,1500.0,82.24948120117188
2017-03-10,99.80999755859375,98.0999984741211,99.80999755859375,98.0999984741211,15400.0,81.44416809082031
2017-03-13,98.12999725341797,97.86000061035156,98.06700134277344,98.08300018310547,900.0,81.43006134033203
2017-03-14,97.47799682617188,97.0,97.11000061035156,97.47799682617188,800.0,80.92776489257812
2017-03-15,100.16999816894531,99.08999633789062,99.08999633789062,100.0,80500.0,83.02157592773438
2017-03-16,100.62999725341797,100.5,100.5,100.62999725341797,700.0,83.54462432861328
2017-03-17,99.9000015258789,99.55999755859375,99.86000061035156,99.80000305175781,1700.0,82.85554504394531
2017-03-20,99.70999908447266,98.54000091552734,99.70999908447266,98.54000091552734,4800.0,81.80945587158203
2017-03-21,97.31199645996094,96.23999786376953,96.322998046875,96.23999786376953,63500.0,79.89997100830078
2017-03-22,95.63999938964844,94.76000213623047,95.63999938964844,95.18000030517578,7400.0,79.01992797851562
2017-03-23,95.5999984741211,94.56999969482422,95.26000213623047,95.02999877929688,9000.0,78.89539337158203
2017-03-24,95.68000030517578,94.24099731445312,95.33000183105469,94.43000030517578,22100.0,78.39726257324219
2017-03-27,95.4000015258789,93.73999786376953,93.73999786376953,95.05999755859375,1300.0,78.9203109741211
2017-03-28,96.94000244140625,95.63999938964844,95.63999938964844,96.80000305175781,42100.0,80.36489868164062
2017-03-29,96.9000015258789,96.18000030517578,96.39900207519531,96.43000030517578,23400.0,80.0577163696289
2017-03-30,97.58999633789062,97.13999938964844,97.55999755859375,97.5199966430664,4300.0,80.96263122558594
2017-03-31,98.25,97.36000061035156,97.36000061035156,97.96299743652344,25400.0,81.33042907714844
2017-04-03,98.75,97.25,98.75,97.5,15600.0,80.946044921875
2017-04-04,98.38999938964844,96.61000061035156,97.48999786376953,97.21099853515625,5800.0,80.70610809326172
2017-04-05,98.0,95.27999877929688,98.0,95.27999877929688,9600.0,79.10295867919922
2017-04-06,97.94000244140625,95.47000122070312,95.47000122070312,97.94000244140625,15500.0,81.31134796142578
2017-04-07,98.77999877929688,97.6500015258789,97.6500015258789,98.77999877929688,10200.0,82.00872039794922
2017-04-10,100.62999725341797,99.30999755859375,99.30999755859375,99.94999694824219,10700.0,82.98005676269531
2017-04-11,99.62000274658203,97.32499694824219,97.69999694824219,98.14800262451172,7200.0,82.98893737792969
2017-04-12,98.8499984741211,97.6500015258789,97.6500015258789,98.68000030517578,43200.0,83.43878173828125
2017-04-13,97.94000244140625,97.02999877929688,97.94000244140625,97.58000183105469,6500.0,82.50868225097656
2017-04-17,98.6500015258789,97.66999816894531,98.05000305175781,98.6500015258789,23900.0,83.41340637207031
2017-04-18,99.97000122070312,98.47000122070312,99.01000213623047,99.56099700927734,6700.0,84.18370056152344
2017-04-19,100.58000183105469,99.26799774169922,99.6510009765625,100.52999877929688,29000.0,85.00303649902344
2017-04-20,101.30999755859375,100.06999969482422,100.68000030517578,100.97000122070312,12900.0,85.37508392333984
2017-04-21,101.56999969482422,100.1500015258789,101.0,101.0,188100.0,85.40045166015625
2017-04-24,100.91000366210938,100.16000366210938,100.75,100.3499984741211,3800.0,84.85083770751953
2017-04-25,100.86000061035156,100.5999984741211,100.69100189208984,100.5999984741211,2100.0,85.06222534179688
2017-04-26,101.94599914550781,101.31999969482422,101.55999755859375,101.7699966430664,10900.0,86.05152893066406
2017-04-27,101.56999969482422,100.69000244140625,100.69000244140625,100.80999755859375,82000.0,85.23979187011719
2017-04-28,100.8499984741211,97.6259994506836,100.0,98.0,10100.0,82.86380767822266
2017-05-01,97.69999694824219,96.44999694824219,96.51000213623047,97.69999694824219,3800.0,82.61014556884766
2017-05-02,95.38999938964844,94.81999969482422,95.1500015258789,95.38999938964844,2800.0,80.65691375732422
2017-05-03,98.44000244140625,95.0,95.01000213623047,98.44000244140625,1700.0,83.23584747314453
2017-05-04,94.9800033569336,94.3499984741211,94.9800033569336,94.75,4200.0,80.11576843261719
2017-05-05,94.87999725341797,94.37200164794922,94.52999877929688,94.87999725341797,2400.0,80.2256851196289
2017-05-08,95.30999755859375,94.05999755859375,94.70899963378906,95.30999755859375,2200.0,80.58927917480469
2017-05-09,95.22000122070312,94.7300033569336,95.16999816894531,95.16999816894531,3400.0,80.47090148925781
2017-05-10,95.72000122070312,95.08999633789062,95.08999633789062,95.14900207519531,4900.0,80.4531478881836
2017-05-11,94.08000183105469,92.9800033569336,94.08000183105469,92.9800033569336,2900.0,78.61915588378906
2017-05-12,92.21900177001953,91.55999755859375,91.55999755859375,91.8499984741211,10500.0,77.66368103027344
2017-05-15,93.83000183105469,92.61799621582031,92.61799621582031,93.69000244140625,2000.0,79.219482421875
2017-05-16,95.23999786376953,93.12000274658203,93.12000274658203,95.0199966430664,2700.0,80.34406280517578
2017-05-17,94.31999969482422,92.7300033569336,94.31999969482422,93.19000244140625,2000.0,78.79672241210938
2017-05-18,94.04000091552734,93.41000366210938,93.41000366210938,94.04000091552734,1200.0,79.51543426513672
2017-05-19,98.37999725341797,95.06999969482422,95.29000091552734,97.58499908447266,1300.0,82.51290893554688
2017-05-22,96.61000061035156,95.7300033569336,95.80999755859375,96.54000091552734,900.0,81.62931060791016
2017-05-23,96.22000122070312,95.44000244140625,95.44000244140625,95.6500015258789,3800.0,80.87676239013672
2017-05-24,94.77999877929688,93.55999755859375,94.49199676513672,93.55999755859375,13700.0,79.10956573486328
2017-05-25,97.62999725341797,92.86000061035156,93.5,95.31999969482422,6100.0,80.59774017333984
2017-05-26,95.13999938964844,93.51000213623047,94.9000015258789,95.13999938964844,2200.0,80.4455337524414
2017-05-30,94.93000030517578,92.54000091552734,94.93000030517578,92.75,3100.0,78.42467498779297
2017-05-31,93.86000061035156,92.51000213623047,92.51000213623047,93.5999984741211,3400.0,79.14339447021484
2017-06-01,95.2300033569336,94.64099884033203,94.64099884033203,95.05999755859375,1300.0,80.37788391113281
2017-06-02,94.56999969482422,92.0,94.56999969482422,93.77999877929688,2600.0,79.29558563232422
2017-06-05,94.43000030517578,94.30999755859375,94.43000030517578,94.30999755859375,1300.0,79.74372100830078
2017-06-06,93.7300033569336,93.51000213623047,93.51000213623047,93.7300033569336,500.0,79.2533187866211
2017-06-07,95.44000244140625,94.56300354003906,94.69999694824219,95.38999938964844,1400.0,80.65691375732422
2017-06-08,98.0,96.72000122070312,96.72000122070312,97.62000274658203,1800.0,82.54249572753906
2017-06-09,99.63999938964844,97.06999969482422,97.08999633789062,99.55999755859375,4600.0,84.182861328125
2017-06-12,100.01000213623047,97.80999755859375,99.23999786376953,100.01000213623047,1400.0,84.56336975097656
2017-06-13,100.05599975585938,99.20999908447266,100.05599975585938,99.20999908447266,1000.0,83.88692474365234
2017-06-14,99.83000183105469,98.81999969482422,99.2699966430664,99.83000183105469,1700.0,84.41116333007812
2017-06-15,99.66000366210938,98.48999786376953,98.48999786376953,99.05000305175781,1100.0,83.75163269042969
2017-06-16,99.77999877929688,99.23500061035156,99.63999938964844,99.77999877929688,1200.0,84.36888122558594
2017-06-19,100.68000030517578,99.30000305175781,99.30000305175781,100.68000030517578,1100.0,85.12987518310547
2017-06-20,100.81900024414062,100.7699966430664,100.81900024414062,100.7699966430664,300.0,85.20597076416016
2017-06-21,100.80000305175781,100.80000305175781,100.80000305175781,100.80000305175781,800.0,85.2313461303711
2017-06-22,101.0,98.73999786376953,101.0,100.43000030517578,1500.0,84.91848754882812
2017-06-23,104.25,100.05999755859375,104.25,100.05999755859375,1200.0,84.60562896728516
2017-06-26,101.18000030517578,100.9000015258789,100.9000015258789,101.18000030517578,600.0,85.55265808105469
2017-06-27,101.66999816894531,100.88999938964844,101.66999816894531,100.88999938964844,1500.0,85.30743408203125
2017-06-28,101.97000122070312,100.88999938964844,100.94000244140625,101.11000061035156,1200.0,85.49346160888672
2017-06-29,103.0199966430664,100.0,101.75,100.0,2700.0,84.5549087524414
2017-06-30,102.30000305175781,101.9000015258789,101.9000015258789,102.30000305175781,8400.0,86.49966430664062
2017-07-03,101.8499984741211,101.75,101.75,101.8499984741211,800.0,86.1191635131836
2017-07-05,101.44000244140625,101.33899688720703,101.44000244140625,101.33899688720703,600.0,85.68708038330078
2017-07-06,100.75,100.51000213623047,100.55000305175781,100.75,1100.0,85.1890640258789
2017-07-07,102.5,102.16999816894531,102.5,102.16999816894531,600.0,86.38973999023438
2017-07-10,102.41000366210938,101.62999725341797,102.41000366210938,102.16699981689453,2200.0,86.38720703125
2017-07-11,100.63999938964844,100.63999938964844,100.63999938964844,100.63999938964844,200.0,85.09606170654297
2017-07-12,101.38999938964844,100.30000305175781,100.30000305175781,101.38999938964844,900.0,87.3025131225586
2017-07-13,106.38999938964844,104.0,104.36000061035156,104.53600311279297,12700.0,90.01140594482422
2017-07-14,106.98999786376953,103.76000213623047,106.98999786376953,103.94000244140625,11200.0,89.49820709228516
2017-07-17,102.5999984741211,101.19999694824219,102.5999984741211,101.33999633789062,1200.0,87.25945281982422
2017-07-18,101.33999633789062,101.33999633789062,101.33999633789062,101.33999633789062,0.0,87.25945281982422
2017-07-19,102.30999755859375,102.30999755859375,102.30999755859375,102.30999755859375,400.0,88.09468841552734
2017-07-20,103.66999816894531,103.51300048828125,103.51300048828125,103.51300048828125,1100.0,89.13053131103516
2017-07-21,102.47000122070312,100.51000213623047,100.83000183105469,102.47000122070312,1400.0,88.23245239257812
2017-07-24,103.20999908447266,101.86000061035156,101.86000061035156,103.20999908447266,500.0,88.86962890625
2017-07-25,104.69000244140625,103.79000091552734,104.69000244140625,103.79000091552734,500.0,89.36904907226562
2017-07-26,103.98999786376953,103.01200103759766,103.01200103759766,103.9000015258789,500.0,89.46376037597656
2017-07-27,104.45999908447266,104.45999908447266,104.45999908447266,104.45999908447266,18600.0,89.94596099853516
2017-07-28,102.27999877929688,100.56999969482422,102.27999877929688,102.05999755859375,800.0,87.8794174194336
2017-07-31,105.63999938964844,104.06999969482422,104.97000122070312,104.5199966430664,1800.0,89.99760437011719
2017-08-01,104.76699829101562,104.75,104.76699829101562,104.75,500.0,90.19566345214844
2017-08-02,103.27999877929688,103.01000213623047,103.27999877929688,103.01000213623047,600.0,88.69741821289062
2017-08-03,103.0,103.0,103.0,103.0,300.0,88.68881225585938
2017-08-04,103.73999786376953,103.5,103.73999786376953,103.5,900.0,89.11933135986328
2017-08-07,103.0,102.86000061035156,103.0,102.86000061035156,500.0,88.5682601928711
2017-08-08,103.75199890136719,101.9800033569336,103.75199890136719,101.9800033569336,500.0,87.81053924560547
2017-08-09,102.9000015258789,102.72000122070312,102.72000122070312,102.9000015258789,200.0,88.60270690917969
2017-08-10,101.7300033569336,100.51000213623047,101.7300033569336,100.51000213623047,800.0,86.5447769165039
2017-08-11,100.51000213623047,100.25,100.51000213623047,100.25,700.0,86.3208999633789
2017-08-14,101.2699966430664,100.46099853515625,100.46099853515625,101.01000213623047,1100.0,86.97531127929688
2017-08-15,102.2699966430664,101.19000244140625,101.19000244140625,102.0,13600.0,87.82775115966797
2017-08-16,101.62000274658203,99.29000091552734,101.62000274658203,99.29000091552734,1600.0,85.49429321289062
2017-08-17,100.0,97.66999816894531,99.36000061035156,97.76000213623047,4800.0,84.17687225341797
2017-08-18,97.9000015258789,97.21700286865234,97.41000366210938,97.2699966430664,1700.0,83.75495147705078
2017-08-21,97.55999755859375,97.17500305175781,97.23999786376953,97.2249984741211,1200.0,83.7162094116211
2017-08-22,97.95999908447266,97.80000305175781,97.81300354003906,97.80000305175781,1100.0,84.21131134033203
2017-08-23,97.08999633789062,96.77100372314453,97.08999633789062,96.77100372314453,2200.0,83.3252944946289
2017-08-24,98.80500030517578,97.0,98.80500030517578,97.09600067138672,3500.0,83.60513305664062
2017-08-25,98.87000274658203,96.44999694824219,98.87000274658203,97.15799713134766,1000.0,83.65851593017578
2017-08-28,97.12000274658203,96.18000030517578,96.5999984741211,96.8499984741211,1600.0,83.39331817626953
2017-08-29,96.79000091552734,96.72000122070312,96.79000091552734,96.72000122070312,600.0,83.28137969970703
2017-08-30,96.80999755859375,96.12999725341797,96.80999755859375,96.4000015258789,6800.0,83.00584411621094
2017-08-31,97.04100036621094,97.04100036621094,97.04100036621094,97.04100036621094,200.0,83.55778503417969
2017-09-01,98.34400177001953,97.83999633789062,98.34400177001953,97.93000030517578,1300.0,84.32325744628906
2017-09-05,96.66999816894531,96.1500015258789,96.62999725341797,96.1500015258789,3100.0,82.79058074951172
2017-09-06,96.91999816894531,96.33799743652344,96.61000061035156,96.91999816894531,2900.0,83.45357513427734
2017-09-07,96.8499984741211,96.8499984741211,96.8499984741211,96.8499984741211,400.0,83.39331817626953
2017-09-08,96.7699966430664,96.7699966430664,96.7699966430664,96.7699966430664,200.0,83.32443237304688
2017-09-11,96.7699966430664,96.7699966430664,96.7699966430664,96.7699966430664,0.0,83.32443237304688
2017-09-12,99.26000213623047,99.01100158691406,99.26000213623047,99.01100158691406,500.0,85.25404357910156
2017-09-13,99.01100158691406,99.01100158691406,99.01100158691406,99.01100158691406,3100.0,85.25404357910156
2017-09-14,100.5,100.08799743652344,100.5,100.08799743652344,1200.0,86.1814193725586
2017-09-15,101.13999938964844,101.05999755859375,101.13999938964844,101.05999755859375,400.0,87.01834869384766
2017-09-18,102.52999877929688,101.98799896240234,102.1729965209961,101.98799896240234,2400.0,87.81742095947266
2017-09-19,102.44000244140625,101.69000244140625,102.44000244140625,101.69000244140625,300.0,87.56083679199219
2017-09-20,101.4000015258789,101.4000015258789,101.4000015258789,101.4000015258789,200.0,87.31111907958984
2017-09-21,101.0,101.0,101.0,101.0,300.0,86.9666976928711
2017-09-22,103.0,101.86000061035156,101.86000061035156,103.0,400.0,88.68881225585938
2017-09-25,103.0,103.0,103.0,103.0,0.0,88.68881225585938
2017-09-26,104.0,103.51000213623047,103.51000213623047,103.61000061035156,2100.0,89.21405029296875
2017-09-27,103.61000061035156,103.61000061035156,103.61000061035156,103.61000061035156,112100.0,89.21405029296875
2017-09-28,103.81099700927734,103.44000244140625,103.81099700927734,103.5199966430664,1900.0,89.13655090332031
2017-09-29,103.93499755859375,103.4000015258789,103.51000213623047,103.47000122070312,2000.0,89.093505859375
2017-10-02,103.47000122070312,103.47000122070312,103.47000122070312,103.47000122070312,0.0,89.093505859375
2017-10-03,103.76000213623047,103.76000213623047,103.76000213623047,103.76000213623047,400.0,89.34321594238281
2017-10-04,106.25599670410156,105.30699920654297,105.30699920654297,106.25599670410156,700.0,91.49240112304688
2017-10-05,107.11399841308594,105.80999755859375,106.79000091552734,106.34200286865234,3800.0,91.56647491455078
2017-10-06,107.29900360107422,106.4000015258789,107.29900360107422,106.45999908447266,6300.0,91.6680679321289
2017-10-09,108.03500366210938,107.0,107.0,107.68599700927734,8700.0,92.72371673583984
2017-10-10,108.5,107.4800033569336,107.4800033569336,107.9800033569336,5700.0,92.97686767578125
2017-10-11,108.11000061035156,107.08999633789062,108.11000061035156,107.08999633789062,3400.0,92.21054077148438
2017-10-12,105.97000122070312,105.75,105.97000122070312,105.75,3900.0,92.6243896484375
2017-10-13,105.75,105.75,105.75,105.75,0.0,92.6243896484375
2017-10-16,106.12000274658203,105.1500015258789,105.1500015258789,105.90899658203125,800.0,92.76365661621094
2017-10-17,107.16000366210938,106.0,106.7699966430664,106.0260009765625,1800.0,92.86612701416016
2017-10-18,106.43000030517578,105.62999725341797,106.43000030517578,106.24299621582031,2200.0,93.05618286132812
2017-10-19,106.052001953125,105.01000213623047,105.0199966430664,106.052001953125,2700.0,92.88890075683594
2017-10-20,107.6500015258789,106.30000305175781,106.30000305175781,107.6500015258789,3600.0,94.28856658935547
2017-10-23,109.20999908447266,104.9800033569336,109.20999908447266,104.9800033569336,1200.0,91.94995880126953
2017-10-24,105.30999755859375,105.0999984741211,105.30000305175781,105.0999984741211,500.0,92.05506134033203
2017-10-25,105.0999984741211,105.0999984741211,105.0999984741211,105.0999984741211,0.0,92.05506134033203
2017-10-26,105.18000030517578,104.36000061035156,105.18000030517578,104.58100128173828,5700.0,91.60047912597656
2017-10-27,105.08000183105469,104.87300109863281,105.08000183105469,104.87300109863281,200.0,91.85624694824219
2017-10-30,103.23999786376953,102.54299926757812,102.54299926757812,102.99600219726562,1000.0,90.21220397949219
2017-10-31,102.37000274658203,102.16899871826172,102.37000274658203,102.16899871826172,700.0,89.48785400390625
2017-11-01,104.08000183105469,101.8740005493164,104.08000183105469,102.0,3500.0,89.33982849121094
2017-11-02,103.44000244140625,103.44000244140625,103.44000244140625,103.44000244140625,400.0,90.60111236572266
2017-11-03,103.44000244140625,103.44000244140625,103.44000244140625,103.44000244140625,0.0,90.60111236572266
2017-11-06,102.0,101.95800018310547,102.0,101.95800018310547,1500.0,89.30304718017578
2017-11-07,102.0,99.02300262451172,102.0,99.02300262451172,8400.0,86.73233795166016
2017-11-08,104.8499984741211,98.11000061035156,100.69999694824219,98.93000030517578,6800.0,86.65087890625
2017-11-09,98.83899688720703,98.0,98.81999969482422,98.70999908447266,2400.0,86.45818328857422
2017-11-10,100.37999725341797,99.0,99.0,100.26000213623047,3800.0,87.81581115722656
2017-11-13,100.88999938964844,98.70999908447266,100.0199966430664,99.13999938964844,6300.0,86.83482360839844
2017-11-14,99.9800033569336,99.58000183105469,99.9800033569336,99.77999877929688,7600.0,87.39537811279297
2017-11-15,100.6500015258789,99.94200134277344,100.6500015258789,99.94200134277344,1200.0,87.53726959228516
2017-11-16,102.0999984741211,100.5,101.5719985961914,101.81800079345703,2200.0,89.180419921875
2017-11-17,101.93000030517578,101.9010009765625,101.93000030517578,101.9010009765625,600.0,89.25312042236328
2017-11-20,102.9000015258789,102.73999786376953,102.73999786376953,102.77999877929688,900.0,90.02301788330078
2017-11-21,104.08000183105469,103.28600311279297,103.98999786376953,103.61000061035156,5400.0,90.75
2017-11-22,103.41000366210938,103.18000030517578,103.41000366210938,103.18000030517578,700.0,90.37336730957031
2017-11-24,102.44000244140625,102.43499755859375,102.44000244140625,102.44000244140625,300.0,89.7252197265625
2017-11-27,103.54000091552734,103.2699966430664,103.51000213623047,103.2699966430664,1600.0,90.45220184326172
2017-11-28,101.56999969482422,101.56999969482422,101.56999969482422,101.56999969482422,400.0,88.96321105957031
2017-11-29,104.73200225830078,103.9000015258789,104.54000091552734,103.9000015258789,3400.0,91.0040054321289
2017-11-30,103.9000015258789,103.9000015258789,103.9000015258789,103.9000015258789,0.0,91.0040054321289
2017-12-01,103.9000015258789,103.9000015258789,103.9000015258789,103.9000015258789,0.0,91.0040054321289
2017-12-04,103.9000015258789,103.9000015258789,103.9000015258789,103.9000015258789,0.0,91.0040054321289
2017-12-05,105.302001953125,104.90899658203125,105.28199768066406,105.302001953125,5400.0,92.23198699951172
2017-12-06,105.30000305175781,105.30000305175781,105.30000305175781,105.30000305175781,700.0,92.2302474975586
2017-12-07,105.45600128173828,104.7699966430664,105.45600128173828,104.7699966430664,3100.0,91.76602172851562
2017-12-08,104.7699966430664,103.5,104.7699966430664,103.80999755859375,4100.0,90.92517852783203
2017-12-11,105.01000213623047,103.76000213623047,105.01000213623047,103.76000213623047,1000.0,90.88138580322266
2017-12-12,104.37000274658203,103.5,104.08000183105469,103.5,1700.0,90.65364837646484
2017-12-13,103.5,103.5,103.5,103.5,0.0,90.65364837646484
2017-12-14,104.48999786376953,103.5999984741211,103.5999984741211,104.48999786376953,900.0,91.52076721191406
2017-12-15,104.48999786376953,103.5199966430664,104.48999786376953,103.5199966430664,500.0,90.6711654663086
2017-12-18,105.5,104.4280014038086,105.5,104.55899810791016,11000.0,91.58121490478516
2017-12-19,104.18000030517578,103.7300033569336,104.18000030517578,103.7300033569336,700.0,90.85511016845703
2017-12-20,104.0739974975586,102.54000091552734,103.7300033569336,102.54000091552734,1200.0,89.81281280517578
2017-12-21,103.37899780273438,103.23999786376953,103.23999786376953,103.37899780273438,700.0,90.54767608642578
2017-12-22,103.37899780273438,103.37899780273438,103.37899780273438,103.37899780273438,0.0,90.54767608642578
2017-12-26,102.5999984741211,102.33000183105469,102.5999984741211,102.33000183105469,1200.0,89.6288833618164
2017-12-27,100.94999694824219,100.94000244140625,100.94999694824219,100.94000244140625,600.0,88.4113998413086
2017-12-28,100.94000244140625,100.19000244140625,100.3499984741211,100.94000244140625,3800.0,88.4113998413086
2017-12-29,100.94000244140625,100.94000244140625,100.94000244140625,100.94000244140625,0.0,88.4113998413086
2018-01-02,100.94000244140625,100.94000244140625,100.94000244140625,100.94000244140625,0.0,88.4113998413086
2018-01-03,104.37999725341797,104.30500030517578,104.37999725341797,104.30500030517578,700.0,91.35873413085938
2018-01-04,106.04199981689453,106.01000213623047,106.01000213623047,106.04199981689453,700.0,92.88013458251953
2018-01-05,107.30999755859375,106.32499694824219,106.69999694824219,107.02999877929688,5300.0,93.74551391601562
2018-01-08,108.83000183105469,106.98999786376953,107.02999877929688,108.7300033569336,9600.0,95.23451232910156
2018-01-09,110.19000244140625,108.88999938964844,108.9800033569336,109.80000305175781,7000.0,96.17171478271484
2018-01-10,110.37899780273438,109.30000305175781,110.08999633789062,110.01000213623047,2300.0,96.35564422607422
2018-01-11,110.10199737548828,108.44999694824219,108.56999969482422,109.86000061035156,12800.0,97.836181640625
2018-01-12,111.91000366210938,109.70899963378906,111.91000366210938,110.93199920654297,5300.0,98.79085540771484
2018-01-16,112.41500091552734,98.62999725341797,98.62999725341797,109.62000274658203,5600.0,97.62245178222656
2018-01-17,111.49500274658203,110.24099731445312,110.24099731445312,110.77999877929688,2100.0,98.65548706054688
2018-01-18,110.9219970703125,109.91999816894531,110.38999938964844,110.08000183105469,6300.0,98.03211212158203
2018-01-19,110.91899871826172,110.38099670410156,110.38999938964844,110.4800033569336,3800.0,98.38833618164062
2018-01-22,110.63999938964844,109.91000366210938,110.5199966430664,110.61299896240234,3600.0,98.50676727294922
2018-01-23,110.8219985961914,109.9000015258789,110.08000183105469,110.8219985961914,3500.0,98.6928939819336
2018-01-24,110.80999755859375,110.08100128173828,110.33000183105469,110.61900329589844,1900.0,98.51211547851562
2018-01-25,110.50900268554688,109.87000274658203,110.18000030517578,110.11000061035156,1300.0,98.05882263183594
2018-01-26,110.99600219726562,109.47000122070312,110.0999984741211,110.80000305175781,2400.0,98.67330932617188
2018-01-29,110.17500305175781,109.58000183105469,110.05999755859375,110.16000366210938,1300.0,98.10335540771484
2018-01-30,109.55999755859375,108.8499984741211,109.04000091552734,109.55999755859375,1200.0,97.56902313232422
2018-01-31,109.37699890136719,108.81999969482422,108.9990005493164,109.0,2300.0,97.0703125
2018-02-01,110.33100128173828,108.92500305175781,108.92500305175781,110.33100128173828,4100.0,98.25563049316406
2018-02-02,111.83999633789062,109.72100067138672,111.83999633789062,110.57499694824219,3100.0,98.47293853759766
2018-02-05,111.7699966430664,108.9000015258789,109.0,108.91000366210938,3600.0,96.99015808105469
2018-02-06,110.61900329589844,106.5,110.41400146484375,106.5,1100.0,94.84392547607422
2018-02-07,109.47000122070312,107.69999694824219,108.83000183105469,108.44599914550781,2300.0,96.57694244384766
2018-02-08,107.76000213623047,104.02999877929688,107.76000213623047,105.16999816894531,1100.0,93.65949249267578
2018-02-09,104.60900115966797,102.79000091552734,103.48999786376953,104.44000244140625,2600.0,93.00938415527344
2018-02-12,106.33000183105469,103.27999877929688,103.28099822998047,105.93000030517578,2200.0,94.3363037109375
2018-02-13,106.47000122070312,106.4000015258789,106.47000122070312,106.4000015258789,300.0,94.75487518310547
2018-02-14,108.00199890136719,106.5,106.5,107.71499633789062,2800.0,95.92594146728516
2018-02-15,107.07499694824219,107.07499694824219,107.07499694824219,107.07499694824219,400.0,95.35599517822266
2018-02-16,107.91000366210938,107.91000366210938,107.91000366210938,107.91000366210938,500.0,96.09960174560547
2018-02-20,107.51000213623047,106.5,107.51000213623047,106.5,1500.0,94.84392547607422
2018-02-21,107.0,105.68199920654297,105.68199920654297,106.98600006103516,1700.0,95.27674102783203
2018-02-22,106.98600006103516,106.98600006103516,106.98600006103516,106.98600006103516,0.0,95.27674102783203
2018-02-23,105.55999755859375,105.55999755859375,105.55999755859375,105.55999755859375,50100.0,94.00680541992188
2018-02-26,106.94999694824219,106.54000091552734,106.94999694824219,106.55999755859375,1100.0,94.89735412597656
2018-02-27,107.66000366210938,106.19000244140625,106.7300033569336,107.19999694824219,7100.0,95.4673080444336
2018-02-28,107.5,107.44999694824219,107.45999908447266,107.45999908447266,1300.0,95.69886016845703
2018-03-01,106.45899963378906,106.45899963378906,106.45899963378906,106.45899963378906,300.0,94.80741119384766
2018-03-02,105.06300354003906,105.06300354003906,105.06300354003906,105.06300354003906,300.0,93.564208984375
2018-03-05,105.06300354003906,105.06300354003906,105.06300354003906,105.06300354003906,0.0,93.564208984375
2018-03-06,108.25299835205078,108.25299835205078,108.25299835205078,108.25299835205078,200.0,96.40505981445312
2018-03-07,108.6500015258789,108.08999633789062,108.6500015258789,108.08999633789062,700.0,96.25989532470703
2018-03-08,109.25800323486328,108.66000366210938,108.83499908447266,109.0999984741211,2700.0,97.15936279296875
2018-03-09,113.5250015258789,111.06999969482422,111.06999969482422,113.30999755859375,92300.0,100.90858459472656
2018-03-12,113.5199966430664,112.66999816894531,113.30999755859375,113.5199966430664,2000.0,101.09561157226562
2018-03-13,113.11499786376953,112.1500015258789,112.94000244140625,112.1500015258789,400.0,99.87555694580078
2018-03-14,112.22000122070312,112.16600036621094,112.19000244140625,112.16600036621094,700.0,99.88980102539062
2018-03-15,111.36000061035156,111.34400177001953,111.34400177001953,111.36000061035156,200.0,99.17201232910156
2018-03-16,113.52999877929688,111.98999786376953,113.52999877929688,112.0,900.0,99.74197387695312
2018-03-19,110.33999633789062,103.9000015258789,103.9000015258789,110.33999633789062,1700.0,98.2636489868164
2018-03-20,110.36000061035156,104.12000274658203,104.12000274658203,110.36000061035156,700.0,98.28146362304688
2018-03-21,111.0199966430664,108.56999969482422,108.56999969482422,110.6500015258789,6500.0,98.53972625732422
2018-03-22,110.17400360107422,109.38999938964844,110.17400360107422,109.41000366210938,1300.0,97.4354476928711
2018-03-23,113.50499725341797,109.38999938964844,110.17400360107422,109.68000030517578,1000.0,97.6758804321289
2018-03-26,107.0,106.7699966430664,107.0,106.7699966430664,800.0,95.0843734741211
2018-03-27,106.5,106.5,106.5,106.5,200.0,94.84392547607422
2018-03-28,106.05000305175781,105.71600341796875,106.05000305175781,105.91000366210938,500.0,94.31851196289062
2018-03-29,107.0,106.1050033569336,107.0,106.1050033569336,40600.0,94.49217224121094
2018-04-02,105.55000305175781,104.0999984741211,105.55000305175781,104.0999984741211,500.0,92.70660400390625
2018-04-03,106.94999694824219,105.54000091552734,105.54000091552734,106.94999694824219,600.0,95.24467468261719
2018-04-04,110.12999725341797,106.91999816894531,106.91999816894531,110.12999725341797,40300.0,98.0766372680664
2018-04-05,108.49299621582031,107.38999938964844,107.94999694824219,108.49299621582031,1600.0,96.61878967285156
2018-04-06,108.08000183105469,106.98999786376953,107.84600067138672,107.83999633789062,2300.0,96.03726959228516
2018-04-09,107.66000366210938,105.23999786376953,106.43000030517578,105.56999969482422,40500.0,94.01571655273438
2018-04-10,106.88999938964844,104.33999633789062,105.02999877929688,104.80000305175781,6800.0,93.32998657226562
2018-04-11,103.76000213623047,101.69999694824219,102.52999877929688,102.72000122070312,7700.0,91.47764587402344
2018-04-12,105.9000015258789,101.61000061035156,105.9000015258789,102.0,8400.0,90.83643341064453
2018-04-13,100.48999786376953,99.29000091552734,100.48999786376953,99.6500015258789,7600.0,90.34911346435547
2018-04-16,100.73999786376953,99.08999633789062,99.3499984741211,100.73999786376953,1700.0,91.33737182617188
2018-04-17,103.6500015258789,100.45999908447266,101.0199966430664,103.6500015258789,4900.0,93.97575378417969
2018-04-18,102.7699966430664,99.94999694824219,100.69999694824219,101.23999786376953,75300.0,91.79069519042969
2018-04-19,102.55000305175781,100.44999694824219,102.55000305175781,100.9000015258789,14100.0,91.48243713378906
2018-04-20,100.81999969482422,99.41999816894531,100.5,99.4800033569336,117600.0,90.19497680664062
2018-04-23,99.9000015258789,99.05000305175781,99.61000061035156,99.18000030517578,31900.0,89.9229736328125
2018-04-24,100.23999786376953,98.41000366210938,99.87000274658203,99.23999786376953,8800.0,89.97737121582031
2018-04-25,99.70999908447266,99.0,99.70999908447266,99.58000183105469,4800.0,90.28563690185547
2018-04-26,99.4800033569336,98.0,98.83999633789062,98.25,7900.0,89.07977294921875
2018-04-27,99.88999938964844,98.25,98.25,99.25,36100.0,89.98643493652344
2018-04-30,100.20999908447266,99.19999694824219,99.5199966430664,99.70999908447266,10300.0,90.40350341796875
2018-05-01,99.01000213623047,98.80000305175781,98.80000305175781,99.01000213623047,1100.0,89.76884460449219
2018-05-02,99.7699966430664,98.4000015258789,99.4800033569336,98.86000061035156,5000.0,89.63284301757812
2018-05-03,99.87000274658203,98.4000015258789,99.87000274658203,99.20999908447266,3600.0,89.95016479492188
2018-05-04,100.56999969482422,98.22000122070312,100.56999969482422,99.41999816894531,1800.0,90.14057922363281
2018-05-07,101.31999969482422,98.5,98.5,100.80999755859375,4000.0,91.40083312988281
2018-05-08,103.44999694824219,100.80999755859375,100.80999755859375,103.43000030517578,3700.0,93.77630615234375
2018-05-09,103.95999908447266,103.5999984741211,103.73999786376953,103.5999984741211,2700.0,93.93043518066406
2018-05-10,104.29000091552734,98.08000183105469,98.08000183105469,103.9000015258789,4300.0,94.20243072509766
2018-05-11,105.4800033569336,104.47000122070312,105.05999755859375,105.47000122070312,15600.0,95.62590026855469
2018-05-14,105.47000122070312,105.47000122070312,105.47000122070312,105.47000122070312,4200.0,95.62590026855469
2018-05-15,106.70999908447266,106.62000274658203,106.62000274658203,106.69999694824219,5000.0,96.74109649658203
2018-05-16,107.83000183105469,106.51000213623047,106.51000213623047,107.33000183105469,17500.0,97.31228637695312
2018-05-17,109.18800354003906,108.37999725341797,109.0,108.70999908447266,23700.0,98.56348419189453
2018-05-18,109.26300048828125,108.08000183105469,109.1500015258789,108.31999969482422,2600.0,98.20989227294922
2018-05-21,108.96199798583984,108.01000213623047,108.96199798583984,108.01000213623047,400.0,97.92881774902344
2018-05-22,108.0,107.55999755859375,107.95999908447266,107.56999969482422,1400.0,97.52989196777344
2018-05-23,107.56999969482422,107.56999969482422,107.56999969482422,107.56999969482422,0.0,97.52989196777344
2018-05-24,106.32499694824219,106.32499694824219,106.32499694824219,106.32499694824219,56400.0,96.40109252929688
2018-05-25,105.72000122070312,105.72000122070312,105.72000122070312,105.72000122070312,600.0,95.85255432128906
2018-05-29,105.87999725341797,105.0,105.87999725341797,105.45999908447266,700.0,95.6168212890625
2018-05-30,105.45999908447266,105.45999908447266,105.45999908447266,105.45999908447266,0.0,95.6168212890625
2018-05-31,105.45999908447266,105.45999908447266,105.45999908447266,105.45999908447266,0.0,95.6168212890625
2018-06-01,107.36000061035156,107.36000061035156,107.36000061035156,107.36000061035156,100.0,97.33949279785156
2018-06-04,109.58999633789062,108.83999633789062,108.91000366210938,109.58999633789062,61800.0,99.36134338378906
2018-06-05,109.78600311279297,108.98999786376953,109.1500015258789,109.0,3800.0,98.826416015625
2018-06-06,108.68599700927734,108.41999816894531,108.48999786376953,108.41999816894531,1000.0,98.3005599975586
2018-06-07,108.41999816894531,108.41999816894531,108.41999816894531,108.41999816894531,0.0,98.3005599975586
2018-06-08,108.0,107.33000183105469,108.0,107.33000183105469,300.0,97.31228637695312
2018-06-11,109.22200012207031,108.75,108.75,109.22200012207031,300.0,99.02770233154297
2018-06-12,109.22200012207031,109.22200012207031,109.22200012207031,109.22200012207031,0.0,99.02770233154297
2018-06-13,108.08000183105469,107.61000061035156,107.61000061035156,108.08000183105469,1400.0,97.9922866821289
2018-06-14,108.08000183105469,108.08000183105469,108.08000183105469,108.08000183105469,0.0,97.9922866821289
2018-06-15,110.62999725341797,109.12999725341797,110.58999633789062,109.12999725341797,1100.0,98.94429016113281
2018-06-18,112.2969970703125,109.68000030517578,112.2969970703125,111.06999969482422,17400.0,100.70321655273438
2018-06-19,112.04000091552734,109.72000122070312,110.37999725341797,111.88600158691406,32000.0,101.44305419921875
2018-06-20,113.64700317382812,110.0,111.44999694824219,113.64700317382812,31800.0,103.03968811035156
2018-06-21,111.72000122070312,109.52999877929688,109.52999877929688,111.58300018310547,2900.0,101.16832733154297
2018-06-22,114.05999755859375,111.47000122070312,113.0,113.25,3800.0,102.67974853515625
2018-06-25,113.80999755859375,111.0,113.80999755859375,111.94300079345703,3000.0,101.49473571777344
2018-06-26,111.94300079345703,111.94300079345703,111.94300079345703,111.94300079345703,0.0,101.49473571777344
2018-06-27,108.69000244140625,108.69000244140625,108.69000244140625,108.69000244140625,400.0,98.54535675048828
2018-06-28,108.58000183105469,108.58000183105469,108.58000183105469,108.58000183105469,100.0,98.44561767578125
2018-06-29,109.83100128173828,109.55000305175781,109.83100128173828,109.55000305175781,1200.0,99.32508850097656
2018-07-02,109.55000305175781,109.55000305175781,109.55000305175781,109.55000305175781,0.0,99.32508850097656
2018-07-03,109.0,109.0,109.0,109.0,300.0,98.826416015625
2018-07-05,109.11000061035156,109.11000061035156,109.11000061035156,109.11000061035156,200.0,98.92615509033203
2018-07-06,110.30500030517578,110.0999984741211,110.0999984741211,110.30500030517578,300.0,100.00961303710938
2018-07-09,110.30500030517578,110.30500030517578,110.30500030517578,110.30500030517578,0.0,100.00961303710938
2018-07-10,110.83000183105469,110.54000091552734,110.83000183105469,110.54000091552734,86600.0,100.2226791381836
2018-07-11,110.54000091552734,110.54000091552734,110.54000091552734,110.54000091552734,40100.0,100.2226791381836
2018-07-12,109.33999633789062,109.11000061035156,109.33999633789062,109.11000061035156,1000.0,98.92615509033203
2018-07-13,109.11000061035156,109.11000061035156,109.11000061035156,109.11000061035156,0.0,100.59771728515625
2018-07-16,109.54000091552734,109.54000091552734,109.54000091552734,109.54000091552734,10000.0,100.99417114257812
2018-07-17,107.26000213623047,100.69000244140625,100.69000244140625,107.26000213623047,400.0,98.89204406738281
2018-07-18,107.26000213623047,107.26000213623047,107.26000213623047,107.26000213623047,0.0,98.89204406738281
2018-07-19,107.72799682617188,106.80000305175781,107.72799682617188,106.80000305175781,10600.0,98.46794128417969
2018-07-20,106.55000305175781,106.55000305175781,106.55000305175781,106.55000305175781,100.0,98.23743438720703
2018-07-23,107.70999908447266,107.70999908447266,107.70999908447266,107.70999908447266,21400.0,99.30693817138672
2018-07-24,107.70999908447266,107.70999908447266,107.70999908447266,107.70999908447266,0.0,99.30693817138672
2018-07-25,107.11000061035156,105.97000122070312,105.97000122070312,107.11000061035156,1200.0,98.75373840332031
2018-07-26,107.11000061035156,107.11000061035156,107.11000061035156,107.11000061035156,0.0,98.75373840332031
2018-07-27,107.11000061035156,107.11000061035156,107.11000061035156,107.11000061035156,0.0,98.75373840332031
2018-07-30,107.11000061035156,107.11000061035156,107.11000061035156,107.11000061035156,0.0,98.75373840332031
2018-07-31,107.11000061035156,107.11000061035156,107.11000061035156,107.11000061035156,0.0,98.75373840332031
2018-08-01,112.2699966430664,107.7979965209961,112.2699966430664,107.7979965209961,500.0,99.3880615234375
2018-08-02,107.7979965209961,107.7979965209961,107.7979965209961,107.7979965209961,0.0,99.3880615234375
2018-08-03,105.55000305175781,104.66999816894531,104.66999816894531,105.55000305175781,300.0,97.3154525756836
2018-08-06,108.94999694824219,107.43000030517578,107.43000030517578,108.94999694824219,1200.0,100.45018768310547
2018-08-07,110.30999755859375,107.2300033569336,107.2300033569336,109.9800033569336,1600.0,101.39984893798828
2018-08-08,108.4800033569336,108.4800033569336,108.4800033569336,108.4800033569336,200.0,100.01686096191406
2018-08-09,108.4800033569336,108.4800033569336,108.4800033569336,108.4800033569336,0.0,100.01686096191406
2018-08-10,109.33000183105469,108.22000122070312,109.33000183105469,108.9000015258789,10600.0,100.40409088134766
2018-08-13,109.56900024414062,109.56900024414062,109.56900024414062,109.56900024414062,200.0,101.02090454101562
2018-08-14,110.0,109.55599975585938,109.55599975585938,109.94000244140625,20400.0,101.36296081542969
2018-08-15,108.2229995727539,108.20999908447266,108.20999908447266,108.2229995727539,400.0,99.77991485595703
2018-08-16,108.2229995727539,108.2229995727539,108.2229995727539,108.2229995727539,0.0,99.77991485595703
2018-08-17,111.11000061035156,110.56900024414062,111.11000061035156,110.56900024414062,300.0,101.94288635253906
2018-08-20,110.56900024414062,110.56900024414062,110.56900024414062,110.56900024414062,0.0,101.94288635253906
2018-08-21,110.56900024414062,110.56900024414062,110.56900024414062,110.56900024414062,0.0,101.94288635253906
2018-08-22,110.56900024414062,110.56900024414062,110.56900024414062,110.56900024414062,0.0,101.94288635253906
2018-08-23,110.56900024414062,110.56900024414062,110.56900024414062,110.56900024414062,0.0,101.94288635253906
2018-08-24,109.16999816894531,109.16999816894531,109.16999816894531,109.16999816894531,100.0,100.65303039550781
2018-08-27,109.62000274658203,109.2959976196289,109.62000274658203,109.2959976196289,300.0,100.76920318603516
2018-08-28,109.2959976196289,109.2959976196289,109.2959976196289,109.2959976196289,0.0,100.76920318603516
2018-08-29,109.2959976196289,109.2959976196289,109.2959976196289,109.2959976196289,0.0,100.76920318603516
2018-08-30,109.2959976196289,109.2959976196289,109.2959976196289,109.2959976196289,0.0,100.76920318603516
2018-08-31,109.2959976196289,109.2959976196289,109.2959976196289,109.2959976196289,0.0,100.76920318603516
2018-09-04,109.66000366210938,107.74700164794922,109.66000366210938,107.74700164794922,300.0,99.34104919433594
2018-09-05,108.98999786376953,105.69999694824219,108.98999786376953,105.69999694824219,800.0,97.45374298095703
2018-09-06,103.65499877929688,103.02999877929688,103.65499877929688,103.02999877929688,400.0,94.9920425415039
2018-09-07,103.25,102.5,103.25,102.5,600.0,94.5033950805664
2018-09-10,103.0,103.0,103.0,103.0,300.0,94.96438598632812
2018-09-11,103.0,103.0,103.0,103.0,0.0,94.96438598632812
2018-09-12,103.0,103.0,103.0,103.0,0.0,94.96438598632812
2018-09-13,104.78700256347656,104.78700256347656,104.78700256347656,104.78700256347656,200.0,96.61197662353516
2018-09-14,104.78700256347656,104.78700256347656,104.78700256347656,104.78700256347656,0.0,96.61197662353516
2018-09-17,101.29000091552734,101.26000213623047,101.29000091552734,101.26000213623047,400.0,93.36014556884766
2018-09-18,103.98999786376953,102.14800262451172,102.25,102.25,21700.0,94.27290344238281
2018-09-19,102.25,102.25,102.25,102.25,10100.0,94.27290344238281
2018-09-20,102.25,102.25,102.25,102.25,0.0,94.27290344238281
2018-09-21,102.25,102.25,102.25,102.25,0.0,94.27290344238281
2018-09-24,103.01000213623047,103.0,103.01000213623047,103.0,500.0,94.96438598632812
2018-09-25,103.0,103.0,103.0,103.0,0.0,94.96438598632812
2018-09-26,102.0,99.13999938964844,102.0,99.13999938964844,18200.0,91.40552520751953
2018-09-27,101.52999877929688,99.02999877929688,101.52999877929688,100.41999816894531,3000.0,92.58566284179688
2018-09-28,100.7699966430664,99.27999877929688,100.0,99.27999877929688,7200.0,91.53460693359375
2018-10-01,100.51000213623047,99.80999755859375,99.80999755859375,100.26200103759766,16700.0,92.44000244140625
2018-10-02,101.01000213623047,99.32499694824219,101.01000213623047,99.89099884033203,6200.0,92.09793853759766
2018-10-03,99.89099884033203,99.89099884033203,99.89099884033203,99.89099884033203,0.0,92.09793853759766
2018-10-04,101.58000183105469,99.5199966430664,101.58000183105469,99.5199966430664,10500.0,91.75587463378906
2018-10-05,100.55999755859375,99.0999984741211,100.36000061035156,100.55999755859375,42900.0,92.7147445678711
2018-10-08,100.37000274658203,98.56999969482422,100.1719970703125,100.29000091552734,27400.0,92.46581268310547
2018-10-09,100.76000213623047,99.23999786376953,100.76000213623047,100.00199890136719,6100.0,92.20027923583984
2018-10-10,100.30000305175781,99.07499694824219,100.08000183105469,99.07499694824219,7400.0,91.34559631347656
2018-10-11,102.79000091552734,98.2040023803711,102.79000091552734,98.36000061035156,3600.0,90.6863784790039
2018-10-12,99.0,97.0,99.0,98.0,8400.0,90.3544692993164
2018-10-15,97.97000122070312,95.39900207519531,96.01000213623047,97.71900177001953,12500.0,91.79356384277344
2018-10-16,97.73999786376953,96.16100311279297,96.16100311279297,97.73899841308594,2500.0,91.8123550415039
2018-10-17,97.75,97.06600189208984,97.75,97.36000061035156,26600.0,91.45633697509766
2018-10-18,96.91600036621094,95.80999755859375,96.44599914550781,95.80999755859375,22200.0,90.00032043457031
2018-10-19,96.72000122070312,93.69499969482422,96.72000122070312,95.51599884033203,2800.0,89.72415161132812
2018-10-22,96.51000213623047,95.0,96.05999755859375,96.23999786376953,2700.0,90.40424346923828
2018-10-23,94.62999725341797,93.41999816894531,94.5,94.0,4600.0,88.3000717163086
2018-10-24,93.75,91.05000305175781,93.75,91.19999694824219,1600.0,85.66986083984375
2018-10-25,92.95999908447266,91.11000061035156,92.08999633789062,91.88999938964844,5300.0,86.31802368164062
2018-10-26,93.29000091552734,92.0,92.66000366210938,92.04000091552734,5900.0,86.45893096923828
2018-10-29,91.41999816894531,89.2300033569336,91.41999816894531,89.2300033569336,3900.0,83.81932830810547
2018-10-30,90.0,89.0,89.0,89.8239974975586,2800.0,86.12676239013672
2018-10-31,92.61100006103516,91.33000183105469,92.05999755859375,92.61100006103516,600.0,88.7990493774414
2018-11-01,91.86000061035156,91.44000244140625,91.86000061035156,91.44000244140625,1000.0,87.67625427246094
2018-11-02,91.4000015258789,89.0,89.0,90.91999816894531,3500.0,87.17765045166016
2018-11-05,92.0199966430664,91.31099700927734,91.48999786376953,91.61000061035156,1100.0,87.8392562866211
2018-11-06,92.54000091552734,91.66799926757812,92.15699768066406,92.05000305175781,3800.0,88.26113891601562
2018-11-07,93.12999725341797,92.55799865722656,92.77999877929688,92.85700225830078,2900.0,89.03491973876953
2018-11-08,95.66999816894531,93.0,95.66999816894531,93.5250015258789,3300.0,89.67542266845703
2018-11-09,93.69999694824219,93.31500244140625,93.69999694824219,93.31500244140625,1600.0,89.47407531738281
2018-11-12,93.83999633789062,93.14900207519531,93.83999633789062,93.14900207519531,1100.0,89.31491088867188
2018-11-13,93.5,92.19999694824219,93.5,93.02799987792969,1700.0,89.19888305664062
2018-11-14,92.75,92.5479965209961,92.75,92.7300033569336,1100.0,88.91315460205078
2018-11-15,93.31900024414062,92.94999694824219,93.0,92.94999694824219,600.0,89.12409210205078
2018-11-16,92.98999786376953,92.80699920654297,92.98999786376953,92.98999786376953,400.0,89.16244506835938
2018-11-19,93.2300033569336,92.22000122070312,93.2300033569336,92.22000122070312,1100.0,88.42414093017578
2018-11-20,92.4800033569336,88.0469970703125,92.4800033569336,88.0999984741211,3800.0,84.47372436523438
2018-11-21,89.45700073242188,88.0,89.45700073242188,88.0,1800.0,84.37783813476562
2018-11-23,88.0,88.0,88.0,88.0,300.0,84.37783813476562
2018-11-26,96.0,87.43000030517578,96.0,87.56999969482422,1100.0,83.96554565429688
2018-11-27,88.43299865722656,86.6709976196289,88.43299865722656,86.6709976196289,2100.0,83.1035385131836
2018-11-28,88.9000015258789,86.01100158691406,86.80000305175781,88.14399719238281,1800.0,84.51590728759766
2018-11-29,88.95999908447266,88.16000366210938,88.95999908447266,88.16000366210938,1800.0,84.53125762939453
2018-11-30,92.69999694824219,87.0,92.69999694824219,88.0,27100.0,84.37783813476562
2018-12-03,88.5,87.8499984741211,87.8499984741211,88.33000183105469,76300.0,84.69425964355469
2018-12-04,86.69000244140625,85.0,86.0,86.31999969482422,1400.0,82.7669906616211
2018-12-06,84.29900360107422,80.33999633789062,84.29900360107422,80.33999633789062,69900.0,77.03313446044922
2018-12-07,81.0,76.30999755859375,80.79000091552734,76.30999755859375,900.0,73.16900634765625
2018-12-10,79.23999786376953,76.4000015258789,76.4000015258789,79.16000366210938,2100.0,75.90170288085938
2018-12-11,79.16000366210938,79.16000366210938,79.16000366210938,79.16000366210938,100.0,75.90170288085938
2018-12-12,83.02999877929688,80.19000244140625,80.19000244140625,81.33999633789062,700.0,77.9919662475586
2018-12-13,80.4000015258789,78.16000366210938,80.4000015258789,78.22000122070312,1800.0,75.00039672851562
2018-12-14,77.90599822998047,75.56999969482422,76.0,77.0,1800.0,73.83061218261719
2018-12-17,77.73799896240234,75.44999694824219,77.73799896240234,75.44999694824219,400.0,72.34441375732422
2018-12-18,75.8499984741211,73.05999755859375,75.8499984741211,74.19000244140625,4600.0,71.13627624511719
2018-12-19,74.8499984741211,74.06999969482422,74.06999969482422,74.6500015258789,800.0,71.57733917236328
2018-12-20,73.80000305175781,72.80599975585938,73.54499816894531,73.05999755859375,1600.0,70.05278015136719
2018-12-21,72.72000122070312,66.63300323486328,72.48799896240234,70.08999633789062,21100.0,67.20502471923828
2018-12-24,70.55000305175781,70.21199798583984,70.55000305175781,70.21199798583984,200.0,67.32200622558594
2018-12-26,71.20999908447266,69.0,69.86000061035156,70.68800354003906,2700.0,67.77842712402344
2018-12-27,71.80000305175781,71.69000244140625,71.80000305175781,71.69000244140625,600.0,68.73918151855469
2018-12-28,77.70600128173828,72.12999725341797,72.16000366210938,76.44999694824219,12200.0,73.3032455444336
2018-12-31,76.5199966430664,74.33100128173828,74.33100128173828,75.88999938964844,6900.0,72.76629638671875
2019-01-02,77.7699966430664,74.5999984741211,74.95999908447266,77.0,3400.0,73.83061218261719
2019-01-03,80.11000061035156,77.0,77.0,80.11000061035156,1800.0,76.81260681152344
2019-01-04,79.12999725341797,77.43000030517578,78.51000213623047,79.12999725341797,1800.0,75.87293243408203
2019-01-07,83.5,77.5999984741211,83.5,78.80000305175781,2100.0,75.55652618408203
2019-01-08,78.87000274658203,78.68000030517578,78.7699966430664,78.87000274658203,2100.0,75.62364959716797
2019-01-09,80.20999908447266,79.09500122070312,79.4800033569336,79.25199890136719,1800.0,75.98991394042969
2019-01-10,84.23200225830078,78.37999725341797,79.1500015258789,78.58999633789062,2200.0,75.35516357421875
2019-01-11,77.81999969482422,74.83699798583984,77.0199966430664,77.66699981689453,2000.0,74.47015380859375
2019-01-14,75.38999938964844,74.53299713134766,74.69999694824219,74.6500015258789,3200.0,73.28812408447266
2019-01-15,79.94000244140625,74.80000305175781,74.80000305175781,79.94000244140625,3000.0,78.48162078857422
2019-01-16,81.55999755859375,79.69999694824219,80.0,80.83000183105469,35800.0,79.35537719726562
2019-01-17,81.5999984741211,80.83999633789062,81.13999938964844,81.5999984741211,1500.0,80.111328125
2019-01-18,86.83000183105469,84.25499725341797,84.25499725341797,85.88999938964844,41800.0,84.32306671142578
2019-01-22,84.11000061035156,81.69000244140625,84.11000061035156,82.27999877929688,1100.0,80.77892303466797
2019-01-23,83.0,80.04900360107422,82.29000091552734,80.04900360107422,1400.0,78.58863067626953
2019-01-24,80.66000366210938,80.04000091552734,80.66000366210938,80.04000091552734,500.0,78.57978820800781
2019-01-25,82.05000305175781,81.0,81.0,82.05000305175781,1800.0,80.5531234741211
2019-01-28,82.62000274658203,79.68000030517578,79.68000030517578,82.51000213623047,4400.0,81.00473022460938
2019-01-29,82.4000015258789,80.30000305175781,82.13500213623047,82.16999816894531,2600.0,80.67092895507812
2019-01-30,81.20999908447266,76.94999694824219,81.20999908447266,80.74099731445312,4900.0,79.26799774169922
2019-01-31,83.22000122070312,80.5199966430664,81.44100189208984,83.22000122070312,13100.0,81.70177459716797
2019-02-01,83.48999786376953,81.2300033569336,82.83000183105469,83.1500015258789,3900.0,81.633056640625
2019-02-04,82.86000061035156,81.2699966430664,82.75,82.86000061035156,4100.0,81.34834289550781
2019-02-05,84.94999694824219,82.83999633789062,84.94999694824219,84.44999694824219,1500.0,82.90933227539062
2019-02-06,85.0,84.4800033569336,84.4800033569336,85.0,2600.0,83.44930267333984
2019-02-07,85.25399780273438,84.0270004272461,84.87100219726562,85.25399780273438,1800.0,83.69866943359375
2019-02-08,84.75,84.25,84.70999908447266,84.5,1600.0,82.95842742919922
2019-02-11,85.18000030517578,82.9800033569336,85.18000030517578,84.30999755859375,3800.0,82.77188873291016
2019-02-12,84.30999755859375,84.30999755859375,84.30999755859375,84.30999755859375,0.0,82.77188873291016
2019-02-13,84.54000091552734,84.54000091552734,84.54000091552734,84.54000091552734,400.0,82.99769592285156
2019-02-14,88.33000183105469,85.37000274658203,86.62999725341797,88.31999969482422,5100.0,86.70873260498047
2019-02-15,88.93900299072266,88.0,88.0,88.93900299072266,53100.0,87.31644439697266
2019-02-19,88.93900299072266,88.93900299072266,88.93900299072266,88.93900299072266,200.0,87.31644439697266
2019-02-20,91.25,89.83999633789062,90.0999984741211,90.38999938964844,3500.0,88.740966796875
2019-02-21,91.77999877929688,90.98999786376953,90.98999786376953,91.66600036621094,3200.0,89.99369049072266
2019-02-22,91.06500244140625,91.06500244140625,91.06500244140625,91.06500244140625,600.0,89.40365600585938
2019-02-25,94.0,92.5,92.5,93.2969970703125,3900.0,91.59493255615234
2019-02-26,94.56900024414062,93.05000305175781,94.30000305175781,94.01799774169922,3500.0,92.30278015136719
2019-02-27,95.5,92.0999984741211,95.5,93.5199966430664,4600.0,91.8138656616211
2019-02-28,95.19999694824219,90.0,95.19999694824219,91.45999908447266,13400.0,89.79145050048828
2019-03-01,92.37999725341797,90.66999816894531,92.37000274658203,92.22000122070312,3400.0,90.53759002685547
2019-03-04,92.80999755859375,91.0999984741211,92.72000122070312,91.12000274658203,900.0,89.45765686035156
2019-03-05,91.08000183105469,89.06900024414062,90.87999725341797,90.94000244140625,1100.0,89.28093719482422
2019-03-06,90.5,89.48999786376953,90.5,89.5,2000.0,87.8672103881836
2019-03-07,88.87999725341797,87.0,88.87999725341797,88.19999694824219,6300.0,86.5909194946289
2019-03-08,88.19999694824219,86.69999694824219,88.19999694824219,86.7770004272461,500.0,85.19388580322266
2019-03-11,89.45999908447266,87.77999877929688,88.54000091552734,89.45999908447266,2100.0,87.82793426513672
2019-03-12,89.4000015258789,88.90799713134766,88.90799713134766,89.4000015258789,800.0,87.76903533935547
2019-03-13,90.22000122070312,89.83000183105469,90.22000122070312,89.96399688720703,600.0,88.32273864746094
2019-03-14,90.5999984741211,90.5999984741211,90.5999984741211,90.5999984741211,300.0,88.94713592529297
2019-03-15,91.27999877929688,91.27999877929688,91.27999877929688,91.27999877929688,100.0,89.61473083496094
2019-03-18,91.4000015258789,89.9000015258789,91.4000015258789,90.7699966430664,2100.0,89.1140365600586
2019-03-19,92.66999816894531,90.75,92.66999816894531,90.75,800.0,89.09440612792969
2019-03-20,89.40799713134766,89.40799713134766,89.40799713134766,89.40799713134766,400.0,87.77688598632812
2019-03-21,90.0,89.38999938964844,89.38999938964844,90.0,10300.0,88.35808563232422
2019-03-22,87.88999938964844,86.02999877929688,87.88999938964844,86.45999908447266,700.0,84.8826675415039
2019-03-25,86.87000274658203,86.20999908447266,86.2770004272461,86.30000305175781,1100.0,84.7255859375
2019-03-26,88.5999984741211,86.54000091552734,88.5999984741211,88.5999984741211,2100.0,86.98362731933594
2019-03-27,89.33499908447266,88.66000366210938,89.33499908447266,88.9800033569336,1600.0,87.35669708251953
2019-03-28,89.05000305175781,87.45899963378906,89.05000305175781,89.02999877929688,1300.0,87.40577697753906
2019-03-29,89.02999877929688,88.3499984741211,88.3499984741211,89.02999877929688,11600.0,87.40577697753906
2019-04-01,91.37999725341797,89.44999694824219,89.91999816894531,91.37999725341797,1700.0,89.71290588378906
2019-04-02,92.22000122070312,91.2300033569336,91.2300033569336,92.22000122070312,1000.0,90.53759002685547
2019-04-03,93.76000213623047,93.0,93.0,93.76000213623047,1800.0,92.04949188232422
2019-04-04,93.25,93.25,93.25,93.25,600.0,91.54879760742188
2019-04-05,95.23400115966797,93.83999633789062,93.83999633789062,94.91999816894531,9100.0,93.18832397460938
2019-04-08,96.5,94.55999755859375,95.16999816894531,96.5,1800.0,94.739501953125
2019-04-09,96.4000015258789,96.18000030517578,96.4000015258789,96.18000030517578,1400.0,94.42533874511719
2019-04-10,97.10099792480469,95.58000183105469,96.0,96.94999694824219,28100.0,95.18128967285156
2019-04-11,100.27999877929688,98.03099822998047,98.03099822998047,99.37799835205078,21700.0,97.56499481201172
2019-04-12,99.30999755859375,97.48999786376953,98.9800033569336,97.69000244140625,5100.0,97.69000244140625
2019-04-15,99.45999908447266,98.39900207519531,98.75,99.45899963378906,13800.0,99.45899963378906
2019-04-16,101.76100158691406,99.2699966430664,99.2699966430664,100.86000061035156,16700.0,100.86000061035156
2019-04-17,100.62000274658203,99.2699966430664,99.44000244140625,100.62000274658203,2400.0,100.62000274658203
2019-04-18,99.24400329589844,98.33999633789062,99.13999938964844,99.24400329589844,2500.0,99.24400329589844
2019-04-22,101.0999984741211,99.52999877929688,100.25,101.0999984741211,1600.0,101.0999984741211
2019-04-23,101.16000366210938,99.91999816894531,100.12000274658203,100.73999786376953,1100.0,100.73999786376953
2019-04-24,100.94999694824219,99.80999755859375,100.81999969482422,100.94999694824219,800.0,100.94999694824219
2019-04-25,102.25,99.95999908447266,99.95999908447266,102.20999908447266,2000.0,102.20999908447266
2019-04-26,103.41000366210938,99.98999786376953,100.0,102.56400299072266,3500.0,102.56400299072266
2019-04-29,105.56999969482422,102.68000030517578,102.70999908447266,103.68000030517578,12900.0,103.68000030517578
2019-04-30,103.29000091552734,102.2030029296875,103.29000091552734,103.20999908447266,10900.0,103.20999908447266
2019-05-01,104.33000183105469,102.0,102.5,104.33000183105469,1500.0,104.33000183105469
2019-05-02,102.0199966430664,101.58999633789062,102.0,101.83300018310547,1500.0,101.83300018310547
2019-05-03,102.5250015258789,101.62999725341797,102.0,102.5250015258789,1200.0,102.5250015258789
2019-05-06,101.68000030517578,101.5199966430664,101.5199966430664,101.68000030517578,400.0,101.68000030517578
2019-05-07,101.81999969482422,100.0,101.6500015258789,101.19999694824219,5000.0,101.19999694824219
2019-05-08,101.63300323486328,100.38999938964844,101.63300323486328,100.69000244140625,6500.0,100.69000244140625
2019-05-09,100.9000015258789,98.83999633789062,98.83999633789062,100.9000015258789,1600.0,100.9000015258789
2019-05-10,102.75,99.83000183105469,99.83000183105469,102.75,1900.0,102.75
2019-05-13,98.7699966430664,98.5999984741211,98.7699966430664,98.5999984741211,300.0,98.5999984741211
2019-05-14,99.51000213623047,97.72000122070312,99.0999984741211,99.51000213623047,1900.0,99.51000213623047
2019-05-15,100.45999908447266,100.45999908447266,100.45999908447266,100.45999908447266,300.0,100.45999908447266
2019-05-16,99.8499984741211,99.33999633789062,99.7300033569336,99.33999633789062,900.0,99.33999633789062
2019-05-17,98.2699966430664,98.2699966430664,98.2699966430664,98.2699966430664,300.0,98.2699966430664
2019-05-20,97.52999877929688,97.37999725341797,97.52999877929688,97.37999725341797,400.0,97.37999725341797
2019-05-21,97.72000122070312,97.72000122070312,97.72000122070312,97.72000122070312,300.0,97.72000122070312
2019-05-22,96.87000274658203,96.44999694824219,96.87000274658203,96.44999694824219,600.0,96.44999694824219
2019-05-23,94.94999694824219,94.5,94.5,94.9000015258789,221100.0,94.9000015258789
2019-05-24,97.30999755859375,96.93000030517578,96.93000030517578,97.30999755859375,800.0,97.30999755859375
