Date,High,Low,Open,Close,Volume,Adj Close
2016-09-23,24.510000228881836,23.100000381469727,24.100000381469727,23.100000381469727,35297100.0,22.277265548706055
2016-09-26,24.010000228881836,23.06999969482422,23.09000015258789,23.979999542236328,3002900.0,23.125925064086914
2016-09-27,24.479999542236328,23.649999618530273,24.0,23.68000030517578,3980500.0,22.836606979370117
2016-09-28,24.075000762939453,23.40999984741211,23.600000381469727,23.850000381469727,1805500.0,23.00055694580078
2016-09-29,23.989999771118164,23.0,23.850000381469727,23.5,2887200.0,22.66301918029785
2016-09-30,23.850000381469727,23.469999313354492,23.739999771118164,23.489999771118164,1686500.0,22.653377532958984
2016-10-03,23.68000030517578,23.0,23.549999237060547,23.209999084472656,1265200.0,22.383346557617188
2016-10-04,23.540000915527344,23.059999465942383,23.190000534057617,23.1299991607666,740500.0,22.30620002746582
2016-10-05,23.290000915527344,23.0,23.25,23.0,852700.0,22.180828094482422
2016-10-06,23.200000762939453,22.6200008392334,22.6200008392334,23.06999969482422,2167300.0,22.24833106994629
2016-10-07,23.049999237060547,22.600000381469727,22.850000381469727,22.75,2351500.0,21.939733505249023
2016-10-10,23.200000762939453,22.770000457763672,22.899999618530273,23.09000015258789,966300.0,22.267621994018555
2016-10-11,23.1299991607666,22.690000534057617,22.950000762939453,22.979999542236328,1364100.0,22.16153907775879
2016-10-12,23.31999969482422,22.790000915527344,22.860000610351562,23.200000762939453,841800.0,22.373706817626953
2016-10-13,23.350000381469727,23.0,23.15999984741211,23.149999618530273,736800.0,22.325483322143555
2016-10-14,23.56999969482422,23.0,23.399999618530273,23.280000686645508,429900.0,22.450857162475586
2016-10-17,23.389999389648438,23.0,23.1299991607666,23.110000610351562,222800.0,22.286911010742188
2016-10-18,23.18000030517578,22.729999542236328,23.170000076293945,22.780000686645508,1200600.0,21.96866226196289
2016-10-19,23.18000030517578,22.139999389648438,22.979999542236328,22.299999237060547,1730700.0,21.50575828552246
2016-10-20,22.309999465942383,21.90999984741211,22.309999465942383,22.100000381469727,1171200.0,21.31287956237793
2016-10-21,22.0,21.420000076293945,22.0,21.56999969482422,1839800.0,20.8017578125
2016-10-24,21.610000610351562,21.100000381469727,21.469999313354492,21.350000381469727,1446800.0,20.5895938873291
2016-10-25,21.290000915527344,20.610000610351562,21.280000686645508,21.06999969482422,2001400.0,20.319564819335938
2016-10-26,21.049999237060547,20.540000915527344,20.899999618530273,20.709999084472656,1743100.0,19.97238540649414
2016-10-27,20.799999237060547,20.1200008392334,20.75,20.399999618530273,1279200.0,19.673429489135742
2016-10-28,20.940000534057617,19.920000076293945,20.299999237060547,20.59000015258789,1206600.0,19.856660842895508
2016-10-31,20.690000534057617,20.170000076293945,20.459999084472656,20.399999618530273,604100.0,19.673429489135742
2016-11-01,20.559999465942383,19.799999237060547,20.290000915527344,20.059999465942383,912500.0,19.345539093017578
2016-11-02,20.450000762939453,19.899999618530273,19.950000762939453,20.100000381469727,830100.0,19.38411521911621
2016-11-03,20.399999618530273,20.100000381469727,20.18000030517578,20.329999923706055,501300.0,19.605924606323242
2016-11-04,21.18000030517578,20.18000030517578,20.18000030517578,20.68000030517578,460000.0,19.943458557128906
2016-11-07,21.121999740600586,20.71500015258789,20.780000686645508,20.790000915527344,277300.0,20.049541473388672
2016-11-08,21.139999389648438,20.520000457763672,20.860000610351562,21.030000686645508,674100.0,20.280996322631836
2016-11-09,20.75,18.299999237060547,20.610000610351562,19.799999237060547,4751100.0,19.094797134399414
2016-11-10,20.018999099731445,18.649999618530273,19.829999923706055,18.93000030517578,2410700.0,18.25578498840332
2016-11-11,19.610000610351562,18.309999465942383,18.90999984741211,18.899999618530273,1634000.0,18.226856231689453
2016-11-14,19.65999984741211,18.719999313354492,19.010000228881836,19.610000610351562,1932400.0,18.911563873291016
2016-11-15,20.09000015258789,19.309999465942383,19.770000457763672,19.84000015258789,759500.0,19.13337516784668
2016-11-16,20.299999237060547,19.5,19.920000076293945,20.280000686645508,1379600.0,19.55770492553711
2016-11-17,21.25,20.299999237060547,20.309999465942383,20.93000030517578,957700.0,20.184555053710938
2016-11-18,21.59000015258789,20.899999618530273,20.899999618530273,21.489999771118164,791700.0,20.724611282348633
2016-11-21,21.709999084472656,21.350000381469727,21.399999618530273,21.5,684600.0,20.734254837036133
2016-11-22,21.5,20.799999237060547,21.459999084472656,21.0,506700.0,20.252058029174805
2016-11-23,21.1299991607666,20.600000381469727,20.989999771118164,21.0,500000.0,20.252058029174805
2016-11-25,21.239999771118164,20.860000610351562,20.959999084472656,21.09000015258789,102700.0,20.338855743408203
2016-11-28,21.360000610351562,20.979999542236328,21.049999237060547,21.139999389648438,551800.0,20.387073516845703
2016-11-29,21.43000030517578,20.829999923706055,21.200000762939453,21.219999313354492,781800.0,20.464223861694336
2016-11-30,21.437000274658203,20.729999542236328,21.100000381469727,20.989999771118164,1039000.0,20.242416381835938
2016-12-01,20.90999984741211,20.0,20.860000610351562,20.280000686645508,1218000.0,19.60346794128418
2016-12-02,21.09000015258789,19.639999389648438,20.84000015258789,19.979999542236328,1572400.0,19.313474655151367
2016-12-05,20.290000915527344,19.65999984741211,20.040000915527344,19.90999984741211,1027600.0,19.24580955505371
2016-12-06,20.1200008392334,19.56999969482422,19.84000015258789,19.799999237060547,650500.0,19.139480590820312
2016-12-07,20.549999237060547,19.799999237060547,19.799999237060547,20.239999771118164,630700.0,19.56479835510254
2016-12-08,20.3799991607666,19.854999542236328,20.200000762939453,19.959999084472656,1040000.0,19.29414176940918
2016-12-09,20.729999542236328,19.969999313354492,20.06999969482422,20.540000915527344,1515500.0,19.85478973388672
2016-12-12,21.209999084472656,20.219999313354492,20.65999984741211,20.889999389648438,1994700.0,20.193117141723633
2016-12-13,21.260000228881836,20.68000030517578,20.90999984741211,21.190000534057617,975200.0,20.483112335205078
2016-12-14,21.31999969482422,20.5,21.15999984741211,20.559999465942383,1479200.0,19.87412452697754
2016-12-15,20.920000076293945,20.399999618530273,20.489999771118164,20.729999542236328,703400.0,20.038455963134766
2016-12-16,21.25,20.420000076293945,20.56999969482422,20.600000381469727,4321600.0,19.91279411315918
2016-12-19,20.790000915527344,20.5,20.649999618530273,20.719999313354492,873500.0,20.02878761291504
2016-12-20,20.899999618530273,20.600000381469727,20.75,20.809999465942383,1683500.0,20.115785598754883
2016-12-21,21.325000762939453,20.719999313354492,20.850000381469727,21.190000534057617,1495500.0,20.483112335205078
2016-12-22,21.60300064086914,20.979999542236328,21.1299991607666,21.299999237060547,1099000.0,20.589439392089844
2016-12-23,21.799999237060547,21.18000030517578,21.34000015258789,21.59000015258789,1767400.0,20.869766235351562
2016-12-27,22.079999923706055,21.559999465942383,21.579999923706055,21.920000076293945,929500.0,21.188756942749023
2016-12-28,22.170000076293945,21.520000457763672,21.860000610351562,21.610000610351562,2109600.0,20.88909912109375
2016-12-29,21.940000534057617,21.290000915527344,21.610000610351562,21.5,540400.0,20.782766342163086
2016-12-30,21.65999984741211,21.139999389648438,21.610000610351562,21.5,444500.0,20.782766342163086
2017-01-03,21.790000915527344,21.0,21.670000076293945,21.489999771118164,775200.0,20.773103713989258
2017-01-04,21.6299991607666,21.030000686645508,21.6200008392334,21.170000076293945,750500.0,20.463775634765625
2017-01-05,21.639999389648438,21.149999618530273,21.34000015258789,21.600000381469727,818300.0,20.879430770874023
2017-01-06,21.599000930786133,21.280000686645508,21.479999542236328,21.469999313354492,264200.0,20.753765106201172
2017-01-09,21.760000228881836,21.2549991607666,21.68000030517578,21.670000076293945,251600.0,20.947099685668945
2017-01-10,22.0,21.43000030517578,21.889999389648438,21.950000762939453,380600.0,21.217756271362305
2017-01-11,22.0049991607666,21.59000015258789,21.81999969482422,21.920000076293945,334100.0,21.188756942749023
2017-01-12,22.329999923706055,21.860000610351562,21.860000610351562,21.989999771118164,711600.0,21.256423950195312
2017-01-13,22.389999389648438,21.969999313354492,22.079999923706055,22.360000610351562,907600.0,21.614076614379883
2017-01-17,22.399999618530273,22.0,22.360000610351562,22.360000610351562,300500.0,21.614076614379883
2017-01-18,22.530000686645508,22.15999984741211,22.420000076293945,22.290000915527344,849200.0,21.54641342163086
2017-01-19,22.459999084472656,21.649999618530273,22.15999984741211,21.940000534057617,571500.0,21.208087921142578
2017-01-20,22.170000076293945,21.809999465942383,21.920000076293945,22.059999465942383,436100.0,21.324085235595703
2017-01-23,22.1299991607666,21.84000015258789,22.09000015258789,21.889999389648438,355500.0,21.159759521484375
2017-01-24,22.299999237060547,21.829999923706055,21.829999923706055,22.18000030517578,867800.0,21.440080642700195
2017-01-25,22.420000076293945,22.059999465942383,22.229999542236328,22.399999618530273,1506700.0,21.652746200561523
2017-01-26,22.530000686645508,22.025999069213867,22.229999542236328,22.489999771118164,650600.0,21.739744186401367
2017-01-27,24.979999542236328,23.299999237060547,23.489999771118164,23.65999984741211,1494200.0,22.870708465576172
2017-01-30,23.84000015258789,23.0,23.739999771118164,23.649999618530273,1132800.0,22.861047744750977
2017-01-31,23.600000381469727,22.729999542236328,23.0,23.149999618530273,1296800.0,22.377723693847656
2017-02-01,23.299999237060547,22.729999542236328,23.06999969482422,22.760000228881836,935100.0,22.000734329223633
2017-02-02,22.93000030517578,22.469999313354492,22.65999984741211,22.6299991607666,411800.0,21.875072479248047
2017-02-03,23.190000534057617,22.469999313354492,22.65999984741211,23.059999465942383,290200.0,22.290725708007812
2017-02-06,23.399999618530273,22.75,23.110000610351562,23.3799991607666,835500.0,22.60004997253418
2017-02-07,23.709999084472656,23.18000030517578,23.31999969482422,23.209999084472656,351700.0,22.435720443725586
2017-02-08,23.399999618530273,23.1299991607666,23.290000915527344,23.34000015258789,382100.0,22.561386108398438
2017-02-09,23.579999923706055,23.209999084472656,23.219999313354492,23.25,594800.0,22.47438621520996
2017-02-10,23.56999969482422,23.260000228881836,23.350000381469727,23.399999618530273,558000.0,22.619384765625
2017-02-13,24.0,23.0,23.540000915527344,23.850000381469727,555800.0,23.054370880126953
2017-02-14,23.952999114990234,23.5,23.81999969482422,23.8700008392334,360500.0,23.073707580566406
2017-02-15,23.790000915527344,23.360000610351562,23.739999771118164,23.719999313354492,346400.0,22.928709030151367
2017-02-16,24.06999969482422,23.540000915527344,23.75,23.739999771118164,228500.0,22.948040008544922
2017-02-17,23.75,23.200000762939453,23.6200008392334,23.360000610351562,415300.0,22.580720901489258
2017-02-21,23.540000915527344,23.079999923706055,23.360000610351562,23.229999542236328,504100.0,22.45505714416504
2017-02-22,23.389999389648438,22.850000381469727,23.229999542236328,22.8799991607666,1348000.0,22.11673355102539
2017-02-23,23.049999237060547,22.6200008392334,22.829999923706055,22.799999237060547,874200.0,22.039400100708008
2017-02-24,22.860000610351562,22.530000686645508,22.579999923706055,22.700000762939453,598300.0,21.942731857299805
2017-02-27,22.760000228881836,22.474000930786133,22.520000457763672,22.600000381469727,1166300.0,21.893333435058594
2017-02-28,23.1299991607666,22.3700008392334,22.520000457763672,22.420000076293945,450300.0,21.71895980834961
2017-03-01,23.283000946044922,22.350000381469727,22.3799991607666,23.139999389648438,442500.0,22.41644287109375
2017-03-02,23.1200008392334,22.719999313354492,23.049999237060547,22.8700008392334,962800.0,22.154890060424805
2017-03-03,23.040000915527344,22.65999984741211,22.829999923706055,22.8799991607666,1026100.0,22.16457748413086
2017-03-06,23.170000076293945,22.280000686645508,22.770000457763672,22.389999389648438,908900.0,21.68989372253418
2017-03-07,22.6200008392334,22.180999755859375,22.450000762939453,22.450000762939453,617400.0,21.748022079467773
2017-03-08,22.6299991607666,22.200000762939453,22.40999984741211,22.309999465942383,520700.0,21.612398147583008
2017-03-09,22.5,22.219999313354492,22.260000228881836,22.239999771118164,398900.0,21.544586181640625
2017-03-10,22.540000915527344,22.190000534057617,22.350000381469727,22.31999969482422,270200.0,21.622085571289062
2017-03-13,22.90999984741211,22.34000015258789,22.3700008392334,22.809999465942383,365800.0,22.096763610839844
2017-03-14,22.8799991607666,22.31999969482422,22.709999084472656,22.600000381469727,430900.0,21.893333435058594
2017-03-15,22.940000534057617,22.450000762939453,22.65999984741211,22.829999923706055,731500.0,22.116140365600586
2017-03-16,23.059999465942383,22.690000534057617,22.81999969482422,22.969999313354492,714900.0,22.251758575439453
2017-03-17,24.309999465942383,22.924999237060547,22.969999313354492,24.030000686645508,999400.0,23.27861785888672
2017-03-20,24.15999984741211,23.610000610351562,23.68000030517578,23.700000762939453,1046900.0,22.958932876586914
2017-03-21,23.90999984741211,23.25,23.90999984741211,23.360000610351562,789800.0,22.629568099975586
2017-03-22,23.790000915527344,23.209999084472656,23.360000610351562,23.75,1545400.0,23.00737190246582
2017-03-23,24.5,23.389999389648438,23.979999542236328,23.760000228881836,955700.0,23.017061233520508
2017-03-24,23.899999618530273,23.670000076293945,23.670000076293945,23.84000015258789,705500.0,23.094560623168945
2017-03-27,24.020000457763672,23.559999465942383,23.729999542236328,23.93000030517578,974800.0,23.181745529174805
2017-03-28,24.100000381469727,23.709999084472656,23.790000915527344,24.020000457763672,1087000.0,23.2689266204834
2017-03-29,24.149999618530273,23.899999618530273,24.09000015258789,24.040000915527344,659200.0,23.28830337524414
2017-03-30,24.450000762939453,24.020000457763672,24.110000610351562,24.40999984741211,362800.0,23.6467342376709
2017-03-31,24.75,24.239999771118164,24.31999969482422,24.549999237060547,456000.0,23.782358169555664
2017-04-03,24.834999084472656,24.225000381469727,24.610000610351562,24.65999984741211,1465300.0,23.888916015625
2017-04-04,24.84000015258789,23.950000762939453,24.790000915527344,24.020000457763672,788400.0,23.2689266204834
2017-04-05,24.440000534057617,24.020000457763672,24.020000457763672,24.139999389648438,580000.0,23.385175704956055
2017-04-06,24.139999389648438,23.969999313354492,24.079999923706055,24.030000686645508,1194000.0,23.27861785888672
2017-04-07,24.139999389648438,23.889999389648438,24.030000686645508,23.940000534057617,269300.0,23.191431045532227
2017-04-10,24.040000915527344,23.75,24.020000457763672,23.75,389500.0,23.00737190246582
2017-04-11,24.020000457763672,23.719999313354492,23.790000915527344,23.829999923706055,915500.0,23.084871292114258
2017-04-12,23.90999984741211,23.420000076293945,23.719999313354492,23.799999237060547,688000.0,23.05580711364746
2017-04-13,24.520000457763672,23.450000762939453,24.5,23.479999542236328,493300.0,22.74581527709961
2017-04-17,23.610000610351562,23.3799991607666,23.610000610351562,23.600000381469727,1224000.0,22.862064361572266
2017-04-18,23.760000228881836,23.40999984741211,23.440000534057617,23.600000381469727,838300.0,22.862064361572266
2017-04-19,23.75,23.34000015258789,23.700000762939453,23.559999465942383,562600.0,22.823312759399414
2017-04-20,23.631000518798828,23.229999542236328,23.540000915527344,23.239999771118164,1232700.0,22.513320922851562
2017-04-21,23.229999542236328,22.540000915527344,23.170000076293945,22.610000610351562,818300.0,21.903017044067383
2017-04-24,23.030000686645508,22.579999923706055,22.780000686645508,22.81999969482422,875300.0,22.1064510345459
2017-04-25,23.34000015258789,22.670000076293945,22.690000534057617,23.280000686645508,1256200.0,22.55206871032715
2017-04-26,23.239999771118164,22.200000762939453,23.239999771118164,22.75,2142500.0,22.03864288330078
2017-04-27,22.82200050354004,22.25,22.690000534057617,22.280000686645508,982300.0,21.58333969116211
2017-04-28,22.3700008392334,22.239999771118164,22.239999771118164,22.25,620700.0,21.55427360534668
2017-05-01,22.68000030517578,22.25,22.260000228881836,22.299999237060547,1098100.0,21.602710723876953
2017-05-02,22.78499984741211,22.15999984741211,22.15999984741211,22.719999313354492,1772200.0,22.009578704833984
2017-05-03,22.8700008392334,22.389999389648438,22.59000015258789,22.43000030517578,1137800.0,21.728649139404297
2017-05-04,22.600000381469727,22.239999771118164,22.3700008392334,22.450000762939453,1009600.0,21.748022079467773
2017-05-05,23.25,22.43000030517578,22.440000534057617,23.030000686645508,1287900.0,22.309886932373047
2017-05-08,23.420000076293945,22.899999618530273,23.059999465942383,23.239999771118164,1051900.0,22.513320922851562
2017-05-09,24.0,23.219999313354492,24.0,23.3799991607666,1577700.0,22.64893913269043
2017-05-10,23.80500030517578,23.139999389648438,23.479999542236328,23.610000610351562,2195300.0,22.871749877929688
2017-05-11,23.790000915527344,22.850000381469727,23.790000915527344,23.020000457763672,918900.0,22.300199508666992
2017-05-12,22.985000610351562,22.59000015258789,22.81999969482422,22.649999618530273,1182200.0,21.9417667388916
2017-05-15,23.049999237060547,22.25,23.010000228881836,22.959999084472656,15571000.0,22.2420711517334
2017-05-16,23.6299991607666,22.649999618530273,23.030000686645508,23.510000228881836,7350100.0,22.77487564086914
2017-05-17,23.559999465942383,22.989999771118164,23.510000228881836,23.110000610351562,4618300.0,22.38738441467285
2017-05-18,23.489999771118164,22.809999465942383,23.0,22.950000762939453,3685500.0,22.23238754272461
2017-05-19,23.030000686645508,22.440000534057617,22.790000915527344,22.610000610351562,8985600.0,21.903017044067383
2017-05-22,22.649999618530273,22.280000686645508,22.479999542236328,22.309999465942383,3236000.0,21.612398147583008
2017-05-23,22.524999618530273,22.100000381469727,22.25,22.43000030517578,2842700.0,21.728649139404297
2017-05-24,22.5,22.18000030517578,22.440000534057617,22.260000228881836,2716900.0,21.563966751098633
2017-05-25,22.389999389648438,22.065000534057617,22.270000457763672,22.139999389648438,1816100.0,21.44771385192871
2017-05-26,22.30500030517578,22.09000015258789,22.1200008392334,22.229999542236328,975200.0,21.534900665283203
2017-05-30,22.200000762939453,21.905000686645508,22.149999618530273,22.059999465942383,4022100.0,21.41742706298828
2017-05-31,22.5,21.920000076293945,22.09000015258789,22.3700008392334,3222800.0,21.71839714050293
2017-06-01,22.690000534057617,22.18000030517578,22.440000534057617,22.65999984741211,3004900.0,21.999950408935547
2017-06-02,22.709999084472656,22.3799991607666,22.56999969482422,22.40999984741211,1670800.0,21.757230758666992
2017-06-05,22.469999313354492,22.149999618530273,22.399999618530273,22.149999618530273,3488000.0,21.504804611206055
2017-06-06,22.260000228881836,22.1200008392334,22.1200008392334,22.15999984741211,2998000.0,21.51451301574707
2017-06-07,23.0,22.399999618530273,22.979999542236328,22.65999984741211,2641200.0,21.999950408935547
2017-06-08,22.770000457763672,22.489999771118164,22.6299991607666,22.760000228881836,1583700.0,22.097034454345703
2017-06-09,23.3700008392334,22.760000228881836,22.760000228881836,23.149999618530273,1803800.0,22.47567367553711
2017-06-12,23.729999542236328,23.1200008392334,23.200000762939453,23.6299991607666,2558900.0,22.94169044494629
2017-06-13,23.799999237060547,23.600000381469727,23.649999618530273,23.760000228881836,1452300.0,23.06790542602539
2017-06-14,23.8700008392334,23.610000610351562,23.700000762939453,23.850000381469727,1370300.0,23.155284881591797
2017-06-15,23.780000686645508,23.540000915527344,23.68000030517578,23.56999969482422,1326100.0,22.883438110351562
2017-06-16,23.829999923706055,23.229999542236328,23.559999465942383,23.65999984741211,6062000.0,22.9708194732666
2017-06-19,23.80500030517578,23.375,23.68000030517578,23.559999465942383,1295600.0,22.873733520507812
2017-06-20,23.440000534057617,23.229999542236328,23.440000534057617,23.360000610351562,1240600.0,22.6795597076416
2017-06-21,23.59000015258789,23.020000457763672,23.25,23.540000915527344,1217700.0,22.85431480407715
2017-06-22,23.889999389648438,23.290000915527344,23.549999237060547,23.84000015258789,1377600.0,23.145578384399414
2017-06-23,23.979999542236328,23.690000534057617,23.950000762939453,23.899999618530273,2385300.0,23.203828811645508
2017-06-26,24.260000228881836,23.790000915527344,23.899999618530273,24.18000030517578,1870400.0,23.475671768188477
2017-06-27,24.280000686645508,23.780000686645508,24.149999618530273,23.790000915527344,1556200.0,23.097034454345703
2017-06-28,24.209999084472656,23.809999465942383,23.90999984741211,24.010000228881836,1130200.0,23.310626983642578
2017-06-29,24.0,23.479999542236328,24.0,23.59000015258789,988300.0,22.902856826782227
2017-06-30,24.0,23.6200008392334,23.65999984741211,23.719999313354492,1510800.0,23.029069900512695
2017-07-03,23.8700008392334,23.420000076293945,23.809999465942383,23.43000030517578,1009600.0,22.74751853942871
2017-07-05,23.479999542236328,23.149999618530273,23.309999465942383,23.200000762939453,1542400.0,22.524221420288086
2017-07-06,23.270000457763672,22.875,23.139999389648438,22.969999313354492,1907400.0,22.30091667175293
2017-07-07,23.200000762939453,22.670000076293945,23.09000015258789,22.770000457763672,2168900.0,22.10674476623535
2017-07-10,22.799999237060547,22.565000534057617,22.739999771118164,22.700000762939453,991600.0,22.038782119750977
2017-07-11,22.940000534057617,22.5,22.709999084472656,22.90999984741211,2443900.0,22.242666244506836
2017-07-12,23.25,23.010000228881836,23.059999465942383,23.1299991607666,938800.0,22.456256866455078
2017-07-13,23.170000076293945,22.75,23.15999984741211,23.020000457763672,741300.0,22.349464416503906
2017-07-14,23.030000686645508,22.760000228881836,22.979999542236328,22.8799991607666,938000.0,22.21354103088379
2017-07-17,22.8799991607666,22.514999389648438,22.8799991607666,22.56999969482422,1296300.0,21.912569046020508
2017-07-18,22.6200008392334,22.375,22.549999237060547,22.600000381469727,1018000.0,21.941696166992188
2017-07-19,23.010000228881836,22.479999542236328,22.700000762939453,23.010000228881836,2000000.0,22.339754104614258
2017-07-20,23.459999084472656,23.049999237060547,23.100000381469727,23.149999618530273,1235300.0,22.47567367553711
2017-07-21,23.325000762939453,22.969999313354492,23.200000762939453,23.149999618530273,670700.0,22.47567367553711
2017-07-24,23.139999389648438,22.940000534057617,23.010000228881836,22.979999542236328,1031900.0,22.310626983642578
2017-07-25,23.399999618530273,23.139999389648438,23.170000076293945,23.200000762939453,1364100.0,22.524221420288086
2017-07-26,23.299999237060547,22.889999389648438,23.170000076293945,22.950000762939453,946700.0,22.2814998626709
2017-07-27,22.979999542236328,22.540000915527344,22.979999542236328,22.729999542236328,818100.0,22.067907333374023
2017-07-28,22.780000686645508,22.610000610351562,22.719999313354492,22.709999084472656,950400.0,22.048492431640625
2017-07-31,22.790000915527344,22.59000015258789,22.780000686645508,22.670000076293945,877600.0,22.00965690612793
2017-08-01,22.940000534057617,22.610000610351562,22.84000015258789,22.719999313354492,1928300.0,22.05820083618164
2017-08-02,22.90999984741211,22.110000610351562,22.84000015258789,22.799999237060547,4037400.0,22.1358699798584
2017-08-03,22.825000762939453,22.25,22.690000534057617,22.329999923706055,1654800.0,21.67955780029297
2017-08-04,22.399999618530273,22.239999771118164,22.299999237060547,22.31999969482422,1398000.0,21.66985321044922
2017-08-07,22.43000030517578,22.200000762939453,22.31999969482422,22.309999465942383,772400.0,21.66014289855957
2017-08-08,22.440000534057617,22.149999618530273,22.170000076293945,22.309999465942383,1025900.0,21.66014289855957
2017-08-09,22.385000228881836,22.18000030517578,22.239999771118164,22.31999969482422,1123100.0,21.66985321044922
2017-08-10,22.31999969482422,22.1200008392334,22.219999313354492,22.139999389648438,897100.0,21.495094299316406
2017-08-11,22.290000915527344,21.959999084472656,22.010000228881836,22.1299991607666,790400.0,21.485383987426758
2017-08-14,22.399999618530273,22.15999984741211,22.299999237060547,22.290000915527344,585800.0,21.64072608947754
2017-08-15,22.260000228881836,21.959999084472656,22.260000228881836,22.020000457763672,805200.0,21.378591537475586
2017-08-16,22.170000076293945,21.979999542236328,22.110000610351562,22.139999389648438,1147100.0,21.495094299316406
2017-08-17,22.09000015258789,21.850000381469727,22.020000457763672,21.850000381469727,1320400.0,21.213542938232422
2017-08-18,21.90999984741211,21.459999084472656,21.90999984741211,21.549999237060547,1209000.0,20.922283172607422
2017-08-21,21.510000228881836,21.139999389648438,21.5,21.350000381469727,2032200.0,20.72810935974121
2017-08-22,21.600000381469727,21.3700008392334,21.399999618530273,21.579999923706055,1248000.0,20.951406478881836
2017-08-23,21.56999969482422,21.219999313354492,21.389999389648438,21.43000030517578,768900.0,20.805776596069336
2017-08-24,21.530000686645508,21.219999313354492,21.530000686645508,21.25,881900.0,20.631019592285156
2017-08-25,21.540000915527344,21.229999542236328,21.290000915527344,21.3799991607666,961100.0,20.757232666015625
2017-08-28,21.59600067138672,21.360000610351562,21.360000610351562,21.450000762939453,764300.0,20.825193405151367
2017-08-29,21.399999618530273,21.219999313354492,21.389999389648438,21.299999237060547,332200.0,20.6795597076416
2017-08-30,21.420000076293945,21.18000030517578,21.239999771118164,21.350000381469727,587900.0,20.775903701782227
2017-08-31,21.479999542236328,21.149999618530273,21.469999313354492,21.290000915527344,886700.0,20.717514038085938
2017-09-01,21.475000381469727,20.989999771118164,21.350000381469727,21.40999984741211,597700.0,20.834287643432617
2017-09-05,21.40999984741211,21.125,21.399999618530273,21.170000076293945,974800.0,20.600740432739258
2017-09-06,21.30500030517578,21.0,21.100000381469727,21.239999771118164,1302800.0,20.668855667114258
2017-09-07,21.920000076293945,21.15999984741211,21.31999969482422,21.860000610351562,2312700.0,21.27219009399414
2017-09-08,22.079999923706055,21.6299991607666,21.84000015258789,22.049999237060547,1199600.0,21.457075119018555
2017-09-11,22.389999389648438,22.0,22.18000030517578,22.219999313354492,1503800.0,21.62250518798828
2017-09-12,22.40999984741211,21.93000030517578,21.93000030517578,22.329999923706055,1059400.0,21.72954559326172
2017-09-13,22.559999465942383,22.25,22.25,22.299999237060547,1526400.0,21.700353622436523
2017-09-14,22.75,22.190000534057617,22.260000228881836,22.690000534057617,1152700.0,22.079866409301758
2017-09-15,22.600000381469727,22.375,22.600000381469727,22.489999771118164,2305900.0,21.885244369506836
2017-09-18,22.764999389648438,22.40999984741211,22.489999771118164,22.729999542236328,1027900.0,22.118791580200195
2017-09-19,23.149999618530273,22.690000534057617,22.850000381469727,23.1200008392334,1815300.0,22.49830436706543
2017-09-20,23.190000534057617,22.6299991607666,23.15999984741211,22.860000610351562,2043400.0,22.245296478271484
2017-09-21,23.09000015258789,22.7549991607666,22.809999465942383,22.90999984741211,1140400.0,22.29395294189453
2017-09-22,23.235000610351562,22.854999542236328,22.899999618530273,23.200000762939453,1207400.0,22.576154708862305
2017-09-25,23.34000015258789,23.110000610351562,23.190000534057617,23.270000457763672,1236500.0,22.644269943237305
2017-09-26,23.709999084472656,23.25,23.34000015258789,23.389999389648438,759300.0,22.761043548583984
2017-09-27,23.559999465942383,23.1200008392334,23.450000762939453,23.399999618530273,1447100.0,22.770776748657227
2017-09-28,23.6299991607666,23.290000915527344,23.360000610351562,23.59000015258789,692200.0,22.955665588378906
2017-09-29,23.670000076293945,23.389999389648438,23.59000015258789,23.450000762939453,738200.0,22.819429397583008
2017-10-02,23.700000762939453,23.3700008392334,23.440000534057617,23.700000762939453,648100.0,23.06270980834961
2017-10-03,23.979999542236328,23.650999069213867,23.670000076293945,23.860000610351562,759200.0,23.218406677246094
2017-10-04,24.149999618530273,23.790000915527344,23.920000076293945,23.899999618530273,817200.0,23.2573299407959
2017-10-05,24.170000076293945,23.959999084472656,24.010000228881836,24.139999389648438,1182800.0,23.490875244140625
2017-10-06,24.15999984741211,24.0,24.09000015258789,24.139999389648438,863400.0,23.490875244140625
2017-10-09,24.229999542236328,24.030000686645508,24.110000610351562,24.149999618530273,1040500.0,23.500608444213867
2017-10-10,24.260000228881836,24.09000015258789,24.200000762939453,24.15999984741211,503000.0,23.510339736938477
2017-10-11,24.31999969482422,24.079999923706055,24.149999618530273,24.100000381469727,1280100.0,23.451953887939453
2017-10-12,24.309999465942383,23.834999084472656,24.06999969482422,23.93000030517578,1174900.0,23.286527633666992
2017-10-13,24.170000076293945,23.825000762939453,24.059999465942383,24.06999969482422,1629500.0,23.422760009765625
2017-10-16,24.239999771118164,23.940000534057617,24.149999618530273,24.030000686645508,513800.0,23.38383674621582
2017-10-17,24.15999984741211,23.889999389648438,24.0,24.049999237060547,402200.0,23.403295516967773
2017-10-18,24.225000381469727,23.84000015258789,24.200000762939453,23.8700008392334,1630200.0,23.228139877319336
2017-10-19,24.139999389648438,23.799999237060547,23.799999237060547,24.0,797200.0,23.35464096069336
2017-10-20,24.174999237060547,23.979999542236328,24.149999618530273,24.030000686645508,771600.0,23.38383674621582
2017-10-23,24.200000762939453,23.979999542236328,24.030000686645508,24.0,559000.0,23.35464096069336
2017-10-24,24.450000762939453,24.010000228881836,24.010000228881836,24.239999771118164,1343100.0,23.58818817138672
2017-10-25,24.260000228881836,24.020000457763672,24.139999389648438,24.149999618530273,1144800.0,23.500608444213867
2017-10-26,24.239999771118164,24.040000915527344,24.15999984741211,24.040000915527344,541000.0,23.393566131591797
2017-10-27,24.079999923706055,23.790000915527344,24.0,24.0,647000.0,23.35464096069336
2017-10-30,24.010000228881836,23.670000076293945,24.010000228881836,23.700000762939453,377900.0,23.06270980834961
2017-10-31,24.030000686645508,23.68000030517578,23.770000457763672,24.020000457763672,1036600.0,23.374101638793945
2017-11-01,24.219999313354492,23.770000457763672,24.219999313354492,23.8700008392334,931700.0,23.228139877319336
2017-11-02,23.950000762939453,23.399999618530273,23.8700008392334,23.809999465942383,1890900.0,23.16975212097168
2017-11-03,23.969999313354492,23.690000534057617,23.719999313354492,23.84000015258789,1231400.0,23.198945999145508
2017-11-06,24.170000076293945,23.84000015258789,23.84000015258789,23.90999984741211,922500.0,23.267061233520508
2017-11-07,23.959999084472656,23.670000076293945,23.8700008392334,23.790000915527344,1160100.0,23.15028953552246
2017-11-08,23.81999969482422,23.479999542236328,23.719999313354492,23.639999389648438,1261300.0,23.004322052001953
2017-11-09,23.719999313354492,23.0,23.399999618530273,23.700000762939453,3046800.0,23.06270980834961
2017-11-10,23.6299991607666,22.540000915527344,23.549999237060547,23.040000915527344,2651700.0,22.420455932617188
2017-11-13,23.18000030517578,22.829999923706055,22.899999618530273,23.079999923706055,1682800.0,22.459381103515625
2017-11-14,23.290000915527344,22.8799991607666,22.90999984741211,23.260000228881836,1702800.0,22.63454246520996
2017-11-15,23.895000457763672,23.190000534057617,23.5,23.799999237060547,2758800.0,23.160018920898438
2017-11-16,25.06999969482422,23.850000381469727,23.940000534057617,24.8700008392334,3733400.0,24.201248168945312
2017-11-17,24.899999618530273,24.420000076293945,24.760000228881836,24.469999313354492,2092900.0,23.81200408935547
2017-11-20,24.55500030517578,24.165000915527344,24.549999237060547,24.3700008392334,2261500.0,23.714693069458008
2017-11-21,24.760000228881836,24.3799991607666,24.489999771118164,24.420000076293945,1185500.0,23.763347625732422
2017-11-22,24.600000381469727,23.889999389648438,24.0,24.510000228881836,1498900.0,23.850929260253906
2017-11-24,24.59000015258789,24.1200008392334,24.489999771118164,24.1200008392334,559300.0,23.471416473388672
2017-11-27,24.219999313354492,23.760000228881836,24.059999465942383,23.829999923706055,2163000.0,23.189212799072266
2017-11-28,24.200000762939453,23.809999465942383,23.829999923706055,24.15999984741211,1068200.0,23.510339736938477
2017-11-29,24.350000381469727,24.059999465942383,24.25,24.350000381469727,857600.0,23.695232391357422
2017-11-30,24.770000457763672,24.299999237060547,24.360000610351562,24.65999984741211,1525800.0,24.070539474487305
2017-12-01,24.81999969482422,24.190000534057617,24.610000610351562,24.579999923706055,1914200.0,23.99245262145996
2017-12-04,24.899999618530273,24.3799991607666,24.739999771118164,24.43000030517578,2480600.0,23.846038818359375
2017-12-05,24.764999389648438,24.09000015258789,24.229999542236328,24.149999618530273,3040400.0,23.572731018066406
2017-12-06,24.6299991607666,24.059999465942383,24.09000015258789,24.459999084472656,1372000.0,23.875320434570312
2017-12-07,24.59000015258789,24.3700008392334,24.540000915527344,24.530000686645508,1149400.0,23.943647384643555
2017-12-08,24.780000686645508,24.520000457763672,24.540000915527344,24.56999969482422,1277200.0,23.98269271850586
2017-12-11,24.719999313354492,24.360000610351562,24.40999984741211,24.520000457763672,1713200.0,23.933887481689453
2017-12-12,24.674999237060547,24.420000076293945,24.6200008392334,24.520000457763672,1521500.0,23.933887481689453
2017-12-13,24.649999618530273,24.440000534057617,24.600000381469727,24.510000228881836,1203000.0,23.92412567138672
2017-12-14,24.719999313354492,24.450000762939453,24.479999542236328,24.510000228881836,1475100.0,23.92412567138672
2017-12-15,24.625,24.43000030517578,24.520000457763672,24.479999542236328,2774500.0,23.89484214782715
2017-12-18,24.690000534057617,24.469999313354492,24.670000076293945,24.530000686645508,1639000.0,23.943647384643555
2017-12-19,24.59000015258789,24.399999618530273,24.530000686645508,24.530000686645508,1057300.0,23.943647384643555
2017-12-20,24.600000381469727,24.079999923706055,24.600000381469727,24.100000381469727,2078900.0,23.52392578125
2017-12-21,24.559999465942383,24.079999923706055,24.229999542236328,24.489999771118164,2001800.0,23.904603958129883
2017-12-22,24.649999618530273,24.489999771118164,24.639999389648438,24.540000915527344,1360800.0,23.953411102294922
2017-12-26,24.739999771118164,24.399999618530273,24.549999237060547,24.530000686645508,820500.0,23.943647384643555
2017-12-27,24.795000076293945,24.43000030517578,24.59000015258789,24.600000381469727,1082300.0,24.011974334716797
2017-12-28,24.790000915527344,24.56999969482422,24.639999389648438,24.75,576100.0,24.158390045166016
2017-12-29,25.280000686645508,24.829999923706055,24.8799991607666,25.059999465942383,1472200.0,24.46097755432129
2018-01-02,25.309999465942383,25.010000228881836,25.110000610351562,25.25,1175200.0,24.64643669128418
2018-01-03,25.375,25.110000610351562,25.260000228881836,25.229999542236328,1281000.0,24.626914978027344
2018-01-04,25.6299991607666,25.25,25.3799991607666,25.399999618530273,1701400.0,24.792850494384766
2018-01-05,25.549999237060547,24.875,25.5,24.93000030517578,1535300.0,24.334087371826172
2018-01-08,25.084999084472656,24.80500030517578,24.889999389648438,25.049999237060547,1375500.0,24.451217651367188
2018-01-09,25.049999237060547,24.690000534057617,25.049999237060547,24.709999084472656,1139700.0,24.11934471130371
2018-01-10,25.0,24.440000534057617,24.709999084472656,25.0,1122000.0,24.402414321899414
2018-01-11,25.25,24.829999923706055,24.940000534057617,25.229999542236328,1384900.0,24.626914978027344
2018-01-12,25.270000457763672,24.8700008392334,25.229999542236328,24.940000534057617,606000.0,24.34384536743164
2018-01-16,25.229999542236328,24.84000015258789,24.969999313354492,24.950000762939453,1327300.0,24.35361099243164
2018-01-17,25.09000015258789,24.84000015258789,24.979999542236328,25.020000457763672,1178300.0,24.42193603515625
2018-01-18,25.040000915527344,24.729999542236328,24.899999618530273,24.829999923706055,782300.0,24.23647689819336
2018-01-19,25.030000686645508,24.709999084472656,24.8700008392334,24.989999771118164,650300.0,24.392650604248047
2018-01-22,25.010000228881836,24.780000686645508,24.889999389648438,25.0,1125000.0,24.402414321899414
2018-01-23,25.010000228881836,24.799999237060547,24.920000076293945,24.989999771118164,757200.0,24.392650604248047
2018-01-24,25.139999389648438,24.799999237060547,25.0,24.8799991607666,1848600.0,24.2852783203125
2018-01-25,25.010000228881836,24.76099967956543,24.969999313354492,24.959999084472656,1521900.0,24.363367080688477
2018-01-26,25.030000686645508,24.799999237060547,24.90999984741211,24.989999771118164,1044000.0,24.392650604248047
2018-01-29,25.059999465942383,24.799999237060547,24.889999389648438,24.940000534057617,1010900.0,24.34384536743164
2018-01-30,25.020000457763672,24.698999404907227,24.799999237060547,24.799999237060547,1693400.0,24.20719337463379
2018-01-31,24.93000030517578,24.6299991607666,24.93000030517578,24.649999618530273,1422000.0,24.06077766418457
2018-02-01,24.860000610351562,24.5,24.600000381469727,24.670000076293945,1418600.0,24.08030128479004
2018-02-02,24.610000610351562,24.139999389648438,24.579999923706055,24.149999618530273,1824000.0,23.572731018066406
2018-02-05,24.200000762939453,23.68000030517578,23.950000762939453,23.719999313354492,2256600.0,23.15300750732422
2018-02-06,23.760000228881836,23.020000457763672,23.43000030517578,23.6200008392334,2206600.0,23.055400848388672
2018-02-07,23.84000015258789,23.489999771118164,23.549999237060547,23.600000381469727,2664600.0,23.035877227783203
2018-02-08,24.200000762939453,22.959999084472656,23.670000076293945,22.959999084472656,3913000.0,22.411174774169922
2018-02-09,23.459999084472656,22.829999923706055,23.170000076293945,23.18000030517578,3249400.0,22.625917434692383
2018-02-12,23.610000610351562,23.239999771118164,23.299999237060547,23.440000534057617,2968700.0,22.879701614379883
2018-02-13,23.6299991607666,23.31999969482422,23.420000076293945,23.389999389648438,2240700.0,22.83089828491211
2018-02-14,23.719999313354492,23.239999771118164,23.239999771118164,23.6200008392334,2073700.0,23.055400848388672
2018-02-15,23.790000915527344,23.5049991607666,23.790000915527344,23.530000686645508,1310600.0,22.967552185058594
2018-02-16,23.690000534057617,23.3700008392334,23.469999313354492,23.3700008392334,1943000.0,22.811376571655273
2018-02-20,23.625,23.270000457763672,23.270000457763672,23.450000762939453,1500900.0,22.889461517333984
2018-02-21,23.670000076293945,23.280000686645508,23.5,23.280000686645508,1114400.0,22.723527908325195
2018-02-22,23.459999084472656,23.209999084472656,23.40999984741211,23.25,1122400.0,22.694242477416992
2018-02-23,23.3799991607666,23.040000915527344,23.239999771118164,23.360000610351562,944400.0,22.801616668701172
2018-02-26,23.510000228881836,23.200000762939453,23.350000381469727,23.5,939400.0,22.938268661499023
2018-02-27,23.579999923706055,23.200000762939453,23.450000762939453,23.200000762939453,1513000.0,22.64544105529785
2018-02-28,23.469999313354492,22.90999984741211,23.260000228881836,22.90999984741211,1968800.0,22.43441390991211
2018-03-01,23.06999969482422,22.559999465942383,22.889999389648438,22.670000076293945,1110400.0,22.19939422607422
2018-03-02,22.940000534057617,22.520000457763672,22.520000457763672,22.899999618530273,1291300.0,22.424617767333984
2018-03-05,23.06999969482422,22.655000686645508,22.780000686645508,22.989999771118164,1491300.0,22.512752532958984
2018-03-06,23.420000076293945,22.739999771118164,23.010000228881836,23.309999465942383,1397500.0,22.826107025146484
2018-03-07,23.8700008392334,23.209999084472656,23.209999084472656,23.56999969482422,1655000.0,23.08070945739746
2018-03-08,23.6299991607666,23.149999618530273,23.6299991607666,23.360000610351562,2010900.0,22.875072479248047
2018-03-09,23.760000228881836,23.5,23.510000228881836,23.739999771118164,960100.0,23.247180938720703
2018-03-12,24.18000030517578,23.68000030517578,23.850000381469727,23.989999771118164,987100.0,23.491992950439453
2018-03-13,24.1299991607666,23.924999237060547,24.09000015258789,23.979999542236328,1108900.0,23.482200622558594
2018-03-14,24.125,23.549999237060547,24.09000015258789,23.59000015258789,840600.0,23.100296020507812
2018-03-15,23.649999618530273,23.239999771118164,23.56999969482422,23.270000457763672,780100.0,22.786937713623047
2018-03-16,23.190000534057617,22.84000015258789,23.09000015258789,23.020000457763672,2473600.0,22.542131423950195
2018-03-19,22.889999389648438,22.420000076293945,22.860000610351562,22.5,1699300.0,22.032922744750977
2018-03-20,22.6299991607666,22.290000915527344,22.479999542236328,22.31999969482422,1268300.0,21.856658935546875
2018-03-21,23.06999969482422,22.290000915527344,22.290000915527344,22.950000762939453,2227400.0,22.473581314086914
2018-03-22,22.979999542236328,22.479999542236328,22.790000915527344,22.479999542236328,1842300.0,22.013338088989258
2018-03-23,22.43000030517578,21.979999542236328,22.43000030517578,22.030000686645508,1753800.0,21.57267951965332
2018-03-26,22.25,21.729999542236328,22.239999771118164,21.969999313354492,1517000.0,21.513927459716797
2018-03-27,22.079999923706055,21.674999237060547,21.950000762939453,21.760000228881836,1645200.0,21.308284759521484
2018-03-28,22.030000686645508,21.68000030517578,21.809999465942383,21.84000015258789,1045400.0,21.38662338256836
2018-03-29,22.368999481201172,21.979999542236328,21.979999542236328,22.1299991607666,2865500.0,21.670602798461914
2018-04-02,22.5,21.75,22.1200008392334,21.760000228881836,1867200.0,21.308284759521484
2018-04-03,22.299999237060547,21.56999969482422,21.829999923706055,22.219999313354492,1914600.0,21.75873374938965
2018-04-04,22.450000762939453,21.610000610351562,21.940000534057617,22.350000381469727,1814400.0,21.886037826538086
2018-04-05,22.530000686645508,22.209999084472656,22.489999771118164,22.229999542236328,1781300.0,21.768526077270508
2018-04-06,22.360000610351562,21.959999084472656,22.059999465942383,22.09000015258789,1635800.0,21.63143539428711
2018-04-09,22.280000686645508,21.920000076293945,22.25,21.950000762939453,2003100.0,21.494342803955078
2018-04-10,22.219999313354492,21.739999771118164,22.18000030517578,21.93000030517578,2584400.0,21.474756240844727
2018-04-11,21.93000030517578,21.579999923706055,21.84000015258789,21.899999618530273,2552300.0,21.44537925720215
2018-04-12,22.31999969482422,21.940000534057617,22.0,21.950000762939453,2221300.0,21.494342803955078
2018-04-13,21.93000030517578,21.559999465942383,21.809999465942383,21.690000534057617,1797900.0,21.2397403717041
2018-04-16,21.985000610351562,21.68000030517578,21.780000686645508,21.93000030517578,801900.0,21.474756240844727
2018-04-17,22.31999969482422,21.899999618530273,22.06999969482422,22.239999771118164,1312700.0,21.778318405151367
2018-04-18,22.350000381469727,22.09000015258789,22.350000381469727,22.110000610351562,929100.0,21.651020050048828
2018-04-19,21.979999542236328,20.93000030517578,21.889999389648438,21.18000030517578,2886600.0,20.740327835083008
2018-04-20,21.3700008392334,20.770000457763672,21.190000534057617,20.850000381469727,3925300.0,20.41717529296875
2018-04-23,21.325000762939453,20.84000015258789,20.850000381469727,21.0,7071200.0,20.56406021118164
2018-04-24,21.450000762939453,20.690000534057617,21.1200008392334,20.729999542236328,2738800.0,20.29966926574707
2018-04-25,20.829999923706055,20.632999420166016,20.690000534057617,20.780000686645508,1221200.0,20.3486270904541
2018-04-26,20.940000534057617,20.690000534057617,20.84000015258789,20.700000762939453,1086300.0,20.27029037475586
2018-04-27,20.739999771118164,20.399999618530273,20.690000534057617,20.530000686645508,1630200.0,20.10382080078125
2018-04-30,20.610000610351562,20.270000457763672,20.530000686645508,20.280000686645508,2021900.0,19.859010696411133
2018-05-01,20.309999465942383,20.024999618530273,20.229999542236328,20.260000228881836,1462600.0,19.83942413330078
2018-05-02,20.329999923706055,19.969999313354492,20.290000915527344,20.020000457763672,1812500.0,19.604406356811523
2018-05-03,21.149999618530273,19.860000610351562,19.920000076293945,20.950000762939453,2281400.0,20.515100479125977
2018-05-04,21.8799991607666,21.020000457763672,21.100000381469727,21.530000686645508,2295000.0,21.08306121826172
2018-05-07,21.979999542236328,21.475000381469727,21.65999984741211,21.549999237060547,1448300.0,21.102643966674805
2018-05-08,21.700000762939453,21.059999465942383,21.459999084472656,21.299999237060547,1531800.0,20.857833862304688
2018-05-09,21.40999984741211,20.875,21.329999923706055,21.170000076293945,1645900.0,20.730531692504883
2018-05-10,21.25,20.979999542236328,21.15999984741211,21.010000228881836,1728700.0,20.573854446411133
2018-05-11,21.079999923706055,20.8700008392334,20.979999542236328,20.889999389648438,944400.0,20.45634651184082
2018-05-14,21.020000457763672,20.860000610351562,20.93000030517578,20.93000030517578,782500.0,20.495515823364258
2018-05-15,20.8799991607666,20.600000381469727,20.8799991607666,20.75,1154200.0,20.319252014160156
2018-05-16,20.969999313354492,20.719999313354492,20.719999313354492,20.940000534057617,852500.0,20.505308151245117
2018-05-17,21.360000610351562,20.940000534057617,20.940000534057617,21.309999465942383,1602000.0,20.867624282836914
2018-05-18,21.479999542236328,21.200000762939453,21.3700008392334,21.360000610351562,1405700.0,20.916589736938477
2018-05-21,21.3700008392334,21.079999923706055,21.350000381469727,21.139999389648438,763700.0,20.701154708862305
2018-05-22,21.299999237060547,21.079999923706055,21.15999984741211,21.190000534057617,1162600.0,20.750118255615234
2018-05-23,21.260000228881836,20.600000381469727,21.139999389648438,20.760000228881836,2231600.0,20.32904624938965
2018-05-24,21.0,20.719999313354492,20.729999542236328,20.799999237060547,1614300.0,20.36821174621582
2018-05-25,21.0,20.709999084472656,20.799999237060547,20.790000915527344,790500.0,20.358421325683594
2018-05-29,20.854999542236328,20.610000610351562,20.6299991607666,20.670000076293945,1635900.0,20.24091148376465
2018-05-30,20.770000457763672,20.610000610351562,20.75,20.68000030517578,1653700.0,20.25070571899414
2018-05-31,20.719999313354492,20.420000076293945,20.649999618530273,20.440000534057617,1780500.0,20.088054656982422
2018-06-01,20.7549991607666,20.5,20.559999465942383,20.65999984741211,1139300.0,20.30426597595215
2018-06-04,20.959999084472656,20.600000381469727,20.780000686645508,20.84000015258789,1173900.0,20.48116683959961
2018-06-05,20.979999542236328,20.670000076293945,20.799999237060547,20.979999542236328,1017500.0,20.618755340576172
2018-06-06,21.040000915527344,20.68000030517578,21.030000686645508,20.959999084472656,1472400.0,20.599098205566406
2018-06-07,21.200000762939453,20.8799991607666,20.969999313354492,20.90999984741211,831400.0,20.54996109008789
2018-06-08,20.985000610351562,20.7549991607666,20.90999984741211,20.899999618530273,1457300.0,20.54013442993164
2018-06-11,21.139999389648438,20.770000457763672,20.93000030517578,20.979999542236328,988000.0,20.618755340576172
2018-06-12,21.049999237060547,20.790000915527344,21.030000686645508,20.93000030517578,1491900.0,20.569618225097656
2018-06-13,21.010000228881836,20.84000015258789,20.940000534057617,20.84000015258789,1418900.0,20.48116683959961
2018-06-14,20.940000534057617,20.719999313354492,20.889999389648438,20.899999618530273,670000.0,20.54013442993164
2018-06-15,20.909000396728516,20.540000915527344,20.8799991607666,20.559999465942383,1855000.0,20.20598793029785
2018-06-18,20.739999771118164,20.420000076293945,20.510000228881836,20.56999969482422,973300.0,20.215816497802734
2018-06-19,20.670000076293945,20.440000534057617,20.5,20.530000686645508,1553800.0,20.17650604248047
2018-06-20,21.31999969482422,20.489999771118164,20.579999923706055,21.270000457763672,2835100.0,20.903762817382812
2018-06-21,21.299999237060547,20.889999389648438,21.299999237060547,21.020000457763672,989200.0,20.65806770324707
2018-06-22,21.354999542236328,21.059999465942383,21.059999465942383,21.299999237060547,1602400.0,20.933246612548828
2018-06-25,21.31999969482422,20.84000015258789,21.290000915527344,20.899999618530273,1304000.0,20.54013442993164
2018-06-26,21.264999389648438,20.80500030517578,20.979999542236328,21.1200008392334,901200.0,20.756345748901367
2018-06-27,21.420000076293945,21.110000610351562,21.1200008392334,21.219999313354492,978000.0,20.854623794555664
2018-06-28,21.40999984741211,21.1299991607666,21.190000534057617,21.280000686645508,966100.0,20.913591384887695
2018-06-29,21.760000228881836,21.31999969482422,21.350000381469727,21.56999969482422,1720200.0,21.198596954345703
2018-07-02,21.489999771118164,21.045000076293945,21.489999771118164,21.1200008392334,929900.0,20.756345748901367
2018-07-03,21.375,21.09000015258789,21.15999984741211,21.190000534057617,427100.0,20.82514190673828
2018-07-05,21.610000610351562,21.200000762939453,21.360000610351562,21.600000381469727,958400.0,21.228078842163086
2018-07-06,21.885000228881836,21.510000228881836,21.56999969482422,21.56999969482422,806700.0,21.198596954345703
2018-07-09,21.829999923706055,21.645000457763672,21.649999618530273,21.790000915527344,1035900.0,21.414810180664062
2018-07-10,21.950000762939453,21.3700008392334,21.719999313354492,21.920000076293945,1813800.0,21.542570114135742
2018-07-11,21.8799991607666,21.579999923706055,21.709999084472656,21.68000030517578,1330400.0,21.30670166015625
2018-07-12,21.729999542236328,21.5,21.729999542236328,21.520000457763672,605700.0,21.149459838867188
2018-07-13,21.940000534057617,21.510000228881836,21.510000228881836,21.860000610351562,633100.0,21.483604431152344
2018-07-16,21.829999923706055,21.514999389648438,21.799999237060547,21.729999542236328,1259500.0,21.35584259033203
2018-07-17,22.010000228881836,21.59000015258789,21.59000015258789,21.940000534057617,1158300.0,21.562227249145508
2018-07-18,22.06999969482422,21.829999923706055,21.899999618530273,21.950000762939453,943200.0,21.57205581665039
2018-07-19,22.360000610351562,21.780000686645508,21.899999618530273,22.329999923706055,1124100.0,21.945510864257812
2018-07-20,22.479999542236328,22.190000534057617,22.299999237060547,22.3799991607666,1050900.0,21.99464988708496
2018-07-23,22.3700008392334,22.040000915527344,22.3700008392334,22.149999618530273,720300.0,21.76861000061035
2018-07-24,22.399999618530273,22.139999389648438,22.290000915527344,22.25,764100.0,21.86688804626465
2018-07-25,22.274999618530273,22.030000686645508,22.219999313354492,22.25,527200.0,21.86688804626465
2018-07-26,22.604999542236328,22.270000457763672,22.270000457763672,22.540000915527344,706500.0,22.15189552307129
2018-07-27,22.649999618530273,22.34000015258789,22.6299991607666,22.510000228881836,706000.0,22.122411727905273
2018-07-30,22.760000228881836,22.360000610351562,22.540000915527344,22.3700008392334,887000.0,22.05782699584961
2018-07-31,22.719999313354492,22.31999969482422,22.420000076293945,22.59000015258789,828700.0,22.274755477905273
2018-08-01,22.649999618530273,22.350000381469727,22.6200008392334,22.43000030517578,1055700.0,22.11699104309082
2018-08-02,21.489999771118164,20.25,21.139999389648438,21.0,4642100.0,20.70694351196289
2018-08-03,21.364999771118164,20.530000686645508,20.799999237060547,21.229999542236328,2876200.0,20.933734893798828
2018-08-06,21.915000915527344,21.209999084472656,21.350000381469727,21.540000915527344,1423000.0,21.239410400390625
2018-08-07,21.549999237060547,21.09000015258789,21.479999542236328,21.110000610351562,2043500.0,20.815410614013672
2018-08-08,21.399999618530273,21.100000381469727,21.1299991607666,21.360000610351562,963700.0,21.061922073364258
2018-08-09,21.6200008392334,21.139999389648438,21.3799991607666,21.200000762939453,928300.0,20.90415382385254
2018-08-10,21.299999237060547,21.059999465942383,21.1200008392334,21.100000381469727,778000.0,20.80554962158203
2018-08-13,21.31999969482422,20.974000930786133,21.1299991607666,21.010000228881836,728400.0,20.716806411743164
2018-08-14,21.309999465942383,21.0,21.06999969482422,21.280000686645508,1587700.0,20.9830379486084
2018-08-15,21.46500015258789,21.110000610351562,21.18000030517578,21.43000030517578,890300.0,21.130943298339844
2018-08-16,22.15999984741211,21.530000686645508,21.540000915527344,21.93000030517578,1471600.0,21.623966217041016
2018-08-17,22.030000686645508,21.729999542236328,21.8799991607666,21.940000534057617,1231100.0,21.633827209472656
2018-08-20,22.139999389648438,21.899999618530273,21.899999618530273,21.959999084472656,973000.0,21.653547286987305
2018-08-21,22.09000015258789,21.899999618530273,22.010000228881836,21.989999771118164,979500.0,21.683128356933594
2018-08-22,22.049999237060547,21.825000762939453,21.959999084472656,21.8700008392334,625300.0,21.564804077148438
2018-08-23,22.0,21.579999923706055,21.829999923706055,21.59000015258789,662100.0,21.288711547851562
2018-08-24,21.93000030517578,21.510000228881836,21.6299991607666,21.6299991607666,1001500.0,21.328149795532227
2018-08-27,21.979999542236328,21.649999618530273,21.709999084472656,21.780000686645508,932900.0,21.47606086730957
2018-08-28,21.889999389648438,21.549999237060547,21.809999465942383,21.56999969482422,1473300.0,21.26898956298828
2018-08-29,21.690000534057617,21.450000762939453,21.56999969482422,21.65999984741211,916700.0,21.357736587524414
2018-08-30,21.670000076293945,21.299999237060547,21.59000015258789,21.440000534057617,816200.0,21.21377182006836
2018-08-31,21.610000610351562,21.3700008392334,21.3700008392334,21.520000457763672,656400.0,21.292926788330078
2018-09-04,21.604999542236328,21.25,21.489999771118164,21.459999084472656,815000.0,21.233556747436523
2018-09-05,21.75,21.389999389648438,21.420000076293945,21.549999237060547,1070800.0,21.322608947753906
2018-09-06,21.959999084472656,21.3799991607666,21.6299991607666,21.889999389648438,1736600.0,21.659021377563477
2018-09-07,22.010000228881836,21.770000457763672,21.809999465942383,21.860000610351562,858100.0,21.62933921813965
2018-09-10,22.059999465942383,21.850000381469727,21.860000610351562,21.989999771118164,879100.0,21.757966995239258
2018-09-11,22.0,21.770000457763672,21.950000762939453,22.0,671300.0,21.76786231994629
2018-09-12,22.209999084472656,21.899999618530273,22.010000228881836,22.18000030517578,1048600.0,21.94596290588379
2018-09-13,22.479999542236328,22.184999465942383,22.280000686645508,22.329999923706055,712100.0,22.094379425048828
2018-09-14,21.170000076293945,20.0,20.610000610351562,20.719999313354492,6281800.0,20.501365661621094
2018-09-17,21.549999237060547,20.93000030517578,21.200000762939453,21.40999984741211,3184800.0,21.1840877532959
2018-09-18,21.639999389648438,21.15999984741211,21.5,21.489999771118164,1864500.0,21.263242721557617
2018-09-19,21.735000610351562,21.31100082397461,21.450000762939453,21.469999313354492,1488800.0,21.243453979492188
2018-09-20,21.760000228881836,21.450000762939453,21.549999237060547,21.75,1018900.0,21.52050018310547
2018-09-21,21.924999237060547,21.6299991607666,21.729999542236328,21.68000030517578,2475300.0,21.45123863220215
2018-09-24,21.69499969482422,21.31999969482422,21.690000534057617,21.469999313354492,836000.0,21.243453979492188
2018-09-25,21.639999389648438,21.469999313354492,21.469999313354492,21.59000015258789,1000700.0,21.3621883392334
2018-09-26,21.739999771118164,21.420000076293945,21.6299991607666,21.59000015258789,1043300.0,21.3621883392334
2018-09-27,21.709999084472656,21.489999771118164,21.56999969482422,21.6200008392334,1221300.0,21.39187240600586
2018-09-28,21.71500015258789,21.450000762939453,21.549999237060547,21.510000228881836,895500.0,21.283031463623047
2018-10-01,21.649999618530273,20.780000686645508,21.6200008392334,20.799999237060547,1557700.0,20.580522537231445
2018-10-02,21.299999237060547,20.75,20.780000686645508,20.93000030517578,1333000.0,20.709152221679688
2018-10-03,21.31999969482422,20.920000076293945,21.149999618530273,21.010000228881836,1514800.0,20.78830909729004
2018-10-04,21.020000457763672,20.69499969482422,20.969999313354492,20.790000915527344,1627400.0,20.57063102722168
2018-10-05,20.860000610351562,20.579999923706055,20.729999542236328,20.579999923706055,1152900.0,20.362844467163086
2018-10-08,20.68000030517578,20.40999984741211,20.549999237060547,20.56999969482422,1451700.0,20.352951049804688
2018-10-09,20.56999969482422,20.06999969482422,20.56999969482422,20.100000381469727,1809800.0,19.887908935546875
2018-10-10,20.139999389648438,19.56999969482422,20.059999465942383,19.579999923706055,2292300.0,19.373395919799805
2018-10-11,19.899999618530273,19.510000228881836,19.600000381469727,19.649999618530273,1763600.0,19.442659378051758
2018-10-12,19.860000610351562,19.40999984741211,19.860000610351562,19.639999389648438,1400500.0,19.432762145996094
2018-10-15,20.020000457763672,19.610000610351562,19.649999618530273,19.829999923706055,1043600.0,19.620758056640625
2018-10-16,20.079999923706055,19.690000534057617,19.950000762939453,20.049999237060547,1646400.0,19.838438034057617
2018-10-17,20.299999237060547,20.010000228881836,20.020000457763672,20.15999984741211,1184300.0,19.947277069091797
2018-10-18,20.260000228881836,19.84000015258789,20.149999618530273,19.920000076293945,1489300.0,19.709808349609375
2018-10-19,20.200000762939453,19.950000762939453,20.010000228881836,20.079999923706055,749000.0,19.868122100830078
2018-10-22,20.209999084472656,19.829999923706055,20.09000015258789,19.950000762939453,677200.0,19.739492416381836
2018-10-23,19.850000381469727,19.510000228881836,19.729999542236328,19.559999465942383,1366900.0,19.353607177734375
2018-10-24,19.698999404907227,19.079999923706055,19.5,19.149999618530273,1497000.0,18.947933197021484
2018-10-25,19.6200008392334,19.1299991607666,19.299999237060547,19.510000228881836,1381100.0,19.304136276245117
2018-10-26,19.920000076293945,19.170000076293945,19.31999969482422,19.6200008392334,1400400.0,19.412975311279297
2018-10-29,20.075000762939453,19.55500030517578,19.850000381469727,19.739999771118164,1114400.0,19.531709671020508
2018-10-30,20.31999969482422,19.649999618530273,19.709999084472656,20.1299991607666,1483300.0,19.917591094970703
2018-10-31,20.350000381469727,19.899999618530273,20.309999465942383,19.920000076293945,1429300.0,19.709808349609375
2018-11-01,20.520000457763672,19.940000534057617,20.09000015258789,20.40999984741211,1187200.0,20.194637298583984
2018-11-02,20.610000610351562,20.34000015258789,20.540000915527344,20.399999618530273,1356100.0,20.184743881225586
2018-11-05,20.850000381469727,20.420000076293945,20.469999313354492,20.790000915527344,1798300.0,20.57063102722168
2018-11-06,19.1299991607666,17.489999771118164,18.1299991607666,19.049999237060547,4917600.0,18.848987579345703
2018-11-07,20.1299991607666,19.100000381469727,19.1200008392334,20.020000457763672,2851400.0,19.80875587463379
2018-11-08,20.8700008392334,19.81999969482422,19.81999969482422,20.760000228881836,2273400.0,20.54094696044922
2018-11-09,20.809999465942383,20.1200008392334,20.649999618530273,20.1200008392334,1848500.0,19.907699584960938
2018-11-12,20.040000915527344,19.56999969482422,20.0,19.600000381469727,1634900.0,19.393186569213867
2018-11-13,19.84000015258789,19.270000457763672,19.549999237060547,19.729999542236328,2057200.0,19.521812438964844
2018-11-14,20.270000457763672,19.780000686645508,19.90999984741211,19.809999465942383,1817400.0,19.600969314575195
2018-11-15,20.579999923706055,19.700000762939453,19.700000762939453,20.200000762939453,2045100.0,19.986854553222656
2018-11-16,20.790000915527344,20.1200008392334,20.1200008392334,20.40999984741211,2543000.0,20.194637298583984
2018-11-19,21.084999084472656,20.270000457763672,20.31999969482422,20.3700008392334,2504200.0,20.155061721801758
2018-11-20,20.610000610351562,20.110000610351562,20.31999969482422,20.290000915527344,2066300.0,20.075904846191406
2018-11-21,20.44499969482422,20.139999389648438,20.389999389648438,20.139999389648438,1171000.0,19.927488327026367
2018-11-23,20.59000015258789,20.030000686645508,20.030000686645508,20.329999923706055,681100.0,20.1154842376709
2018-11-26,20.8700008392334,20.517000198364258,20.530000686645508,20.56999969482422,1651000.0,20.352951049804688
2018-11-27,20.540000915527344,20.1200008392334,20.440000534057617,20.31999969482422,978000.0,20.105587005615234
2018-11-28,20.889999389648438,20.309999465942383,20.309999465942383,20.719999313354492,1343300.0,20.501365661621094
2018-11-29,20.700000762939453,20.385000228881836,20.59000015258789,20.389999389648438,1438500.0,20.27859115600586
2018-11-30,21.1200008392334,20.270000457763672,20.389999389648438,21.09000015258789,1463600.0,20.97476577758789
2018-12-03,21.489999771118164,20.780000686645508,21.290000915527344,21.139999389648438,1286500.0,21.024492263793945
2018-12-04,21.200000762939453,20.549999237060547,21.149999618530273,20.6200008392334,866500.0,20.507335662841797
2018-12-06,20.889999389648438,20.06999969482422,20.34000015258789,20.84000015258789,2061900.0,20.726133346557617
2018-12-07,21.1200008392334,20.450000762939453,20.790000915527344,20.469999313354492,1720800.0,20.358152389526367
2018-12-10,20.739999771118164,20.1299991607666,20.40999984741211,20.149999618530273,1440100.0,20.039901733398438
2018-12-11,20.729999542236328,20.31999969482422,20.399999618530273,20.450000762939453,876200.0,20.33826446533203
2018-12-12,21.0,20.18000030517578,20.770000457763672,20.18000030517578,1131300.0,20.069738388061523
2018-12-13,20.450000762939453,19.780000686645508,20.299999237060547,19.799999237060547,1332400.0,19.691814422607422
2018-12-14,19.899999618530273,19.290000915527344,19.639999389648438,19.299999237060547,1313800.0,19.19454574584961
2018-12-17,19.3700008392334,18.729999542236328,19.219999313354492,18.790000915527344,1511700.0,18.687334060668945
2018-12-18,19.09000015258789,18.81999969482422,18.90999984741211,18.959999084472656,967400.0,18.856403350830078
2018-12-19,19.200000762939453,18.514999389648438,18.899999618530273,18.639999389648438,1098600.0,18.53815269470215
2018-12-20,18.709999084472656,18.1299991607666,18.610000610351562,18.6200008392334,1557000.0,18.51826286315918
2018-12-21,19.06999969482422,18.469999313354492,18.639999389648438,18.860000610351562,3300300.0,18.7569522857666
2018-12-24,19.09000015258789,18.65999984741211,18.729999542236328,18.850000381469727,1105100.0,18.747005462646484
2018-12-26,19.020000457763672,18.5,18.889999389648438,19.020000457763672,1025800.0,18.91607666015625
2018-12-27,19.190000534057617,18.649999618530273,18.770000457763672,19.18000030517578,847900.0,19.07520294189453
2018-12-28,19.31999969482422,19.0,19.219999313354492,19.1299991607666,966200.0,19.025474548339844
2018-12-31,19.389999389648438,19.059999465942383,19.190000534057617,19.350000381469727,957300.0,19.244274139404297
2019-01-02,19.770000457763672,18.940000534057617,19.110000610351562,19.59000015258789,1212400.0,19.482961654663086
2019-01-03,19.59000015258789,19.049999237060547,19.5,19.059999465942383,1024000.0,18.95585823059082
2019-01-04,19.920000076293945,19.270000457763672,19.299999237060547,19.790000915527344,961000.0,19.681869506835938
2019-01-07,19.989999771118164,19.489999771118164,19.709999084472656,19.799999237060547,738900.0,19.691814422607422
2019-01-08,20.229999542236328,19.889999389648438,20.049999237060547,20.190000534057617,1062300.0,20.07968521118164
2019-01-09,20.709999084472656,20.260000228881836,20.329999923706055,20.56999969482422,774300.0,20.45760726928711
2019-01-10,20.739999771118164,20.420000076293945,20.479999542236328,20.739999771118164,514700.0,20.626678466796875
2019-01-11,20.80500030517578,20.549999237060547,20.700000762939453,20.729999542236328,674000.0,20.61673355102539
2019-01-14,20.899999618530273,20.614999771118164,20.649999618530273,20.700000762939453,558900.0,20.586898803710938
2019-01-15,20.84000015258789,20.3700008392334,20.690000534057617,20.610000610351562,572600.0,20.49738883972168
2019-01-16,21.420000076293945,20.670000076293945,20.790000915527344,21.329999923706055,1210300.0,21.213455200195312
2019-01-17,21.770000457763672,21.18000030517578,21.260000228881836,21.690000534057617,3102600.0,21.571489334106445
2019-01-18,22.1299991607666,21.774999618530273,21.850000381469727,21.899999618530273,1172400.0,21.78034019470215
2019-01-22,21.84000015258789,21.5,21.829999923706055,21.709999084472656,671200.0,21.59137725830078
2019-01-23,21.969999313354492,21.649999618530273,21.760000228881836,21.920000076293945,846200.0,21.80023193359375
2019-01-24,22.040000915527344,21.625,21.829999923706055,21.649999618530273,654200.0,21.531705856323242
2019-01-25,22.184999465942383,21.770000457763672,21.770000457763672,22.110000610351562,881500.0,21.989192962646484
2019-01-28,22.309999465942383,21.854999542236328,21.920000076293945,22.219999313354492,804600.0,22.098590850830078
2019-01-29,22.40999984741211,22.15999984741211,22.209999084472656,22.229999542236328,1288000.0,22.108537673950195
2019-01-30,22.540000915527344,22.204999923706055,22.239999771118164,22.43000030517578,902800.0,22.307445526123047
2019-01-31,22.5,22.045000076293945,22.280000686645508,22.110000610351562,1924200.0,21.989192962646484
2019-02-01,22.575000762939453,22.100000381469727,22.139999389648438,22.469999313354492,1648500.0,22.347225189208984
2019-02-04,22.760000228881836,22.235000610351562,22.469999313354492,22.719999313354492,1083400.0,22.59585952758789
2019-02-05,23.020000457763672,22.700000762939453,22.700000762939453,22.959999084472656,1325500.0,22.83454704284668
2019-02-06,23.15999984741211,22.704999923706055,22.889999389648438,22.8700008392334,1623800.0,22.745040893554688
2019-02-07,20.540000915527344,17.56999969482422,20.43000030517578,18.100000381469727,8654700.0,18.0011043548584
2019-02-08,18.389999389648438,17.989999771118164,18.059999465942383,18.239999771118164,4132900.0,18.140338897705078
2019-02-11,18.920000076293945,18.19700050354004,18.229999542236328,18.829999923706055,2709800.0,18.727115631103516
2019-02-12,19.1299991607666,18.680999755859375,18.989999771118164,19.079999923706055,2501300.0,18.97574806213379
2019-02-13,19.209999084472656,18.799999237060547,19.15999984741211,18.93000030517578,1484200.0,18.826568603515625
2019-02-14,19.165000915527344,18.75,18.81999969482422,19.06999969482422,1302000.0,18.965803146362305
2019-02-15,19.334999084472656,19.06999969482422,19.239999771118164,19.09000015258789,2851100.0,18.985694885253906
2019-02-19,19.450000762939453,18.979999542236328,18.979999542236328,19.34000015258789,1488000.0,19.234329223632812
2019-02-20,19.954999923706055,19.280000686645508,19.299999237060547,19.860000610351562,1258100.0,19.751487731933594
2019-02-21,19.959999084472656,19.299999237060547,19.829999923706055,19.34000015258789,828600.0,19.234329223632812
2019-02-22,19.670000076293945,19.329999923706055,19.5,19.40999984741211,949000.0,19.303945541381836
2019-02-25,19.5,19.18000030517578,19.440000534057617,19.219999313354492,847900.0,19.11498260498047
2019-02-26,19.3700008392334,19.125,19.280000686645508,19.290000915527344,684200.0,19.184602737426758
2019-02-27,19.600000381469727,19.19499969482422,19.219999313354492,19.399999618530273,1228600.0,19.29400062561035
2019-02-28,19.299999237060547,18.770000457763672,19.290000915527344,18.790000915527344,1551600.0,18.790000915527344
2019-03-01,19.25,18.780000686645508,18.889999389648438,19.18000030517578,1327700.0,19.18000030517578
2019-03-04,19.34000015258789,18.889999389648438,19.219999313354492,19.049999237060547,1196900.0,19.049999237060547
2019-03-05,19.5,18.969999313354492,19.049999237060547,19.18000030517578,1303900.0,19.18000030517578
2019-03-06,19.229999542236328,18.780000686645508,19.229999542236328,18.780000686645508,677500.0,18.780000686645508
2019-03-07,19.0,18.59000015258789,18.75,18.889999389648438,2033500.0,18.889999389648438
2019-03-08,18.850000381469727,18.610000610351562,18.790000915527344,18.68000030517578,1537100.0,18.68000030517578
2019-03-11,18.8700008392334,18.56999969482422,18.719999313354492,18.719999313354492,891900.0,18.719999313354492
2019-03-12,18.81999969482422,18.309999465942383,18.809999465942383,18.31999969482422,1119500.0,18.31999969482422
2019-03-13,18.450000762939453,18.065000534057617,18.389999389648438,18.100000381469727,1911900.0,18.100000381469727
2019-03-14,18.204999923706055,17.84000015258789,18.110000610351562,17.950000762939453,1429900.0,17.950000762939453
2019-03-15,18.200000762939453,17.8700008392334,18.030000686645508,17.940000534057617,1658400.0,17.940000534057617
2019-03-18,18.600000381469727,17.920000076293945,17.979999542236328,18.549999237060547,1336300.0,18.549999237060547
2019-03-19,18.829999923706055,18.350000381469727,18.56999969482422,18.459999084472656,862500.0,18.459999084472656
2019-03-20,18.559999465942383,18.149999618530273,18.43000030517578,18.309999465942383,792200.0,18.309999465942383
2019-03-21,18.709999084472656,18.209999084472656,18.209999084472656,18.489999771118164,758700.0,18.489999771118164
2019-03-22,18.350000381469727,17.770000457763672,18.329999923706055,17.799999237060547,1116400.0,17.799999237060547
2019-03-25,17.934999465942383,17.610000610351562,17.81999969482422,17.850000381469727,1988000.0,17.850000381469727
2019-03-26,18.139999389648438,17.8799991607666,18.1299991607666,18.1200008392334,755600.0,18.1200008392334
2019-03-27,18.584999084472656,18.09000015258789,18.09000015258789,18.459999084472656,1718200.0,18.459999084472656
2019-03-28,18.655000686645508,18.3700008392334,18.479999542236328,18.540000915527344,677300.0,18.540000915527344
2019-03-29,18.649999618530273,18.200000762939453,18.59000015258789,18.559999465942383,1124600.0,18.559999465942383
2019-04-01,18.940000534057617,18.579999923706055,18.65999984741211,18.8799991607666,1621200.0,18.8799991607666
2019-04-02,19.010000228881836,18.670000076293945,18.950000762939453,18.770000457763672,1226800.0,18.770000457763672
2019-04-03,19.0,18.549999237060547,18.8799991607666,18.610000610351562,1334600.0,18.610000610351562
2019-04-04,18.983999252319336,18.6200008392334,18.649999618530273,18.860000610351562,1061500.0,18.860000610351562
2019-04-05,19.163999557495117,18.860000610351562,18.889999389648438,18.950000762939453,1224300.0,18.950000762939453
2019-04-08,19.09000015258789,18.809999465942383,18.959999084472656,18.860000610351562,1313300.0,18.860000610351562
2019-04-09,18.799999237060547,18.524999618530273,18.799999237060547,18.65999984741211,999800.0,18.65999984741211
2019-04-10,18.719999313354492,18.43000030517578,18.709999084472656,18.600000381469727,2062600.0,18.600000381469727
2019-04-11,18.81999969482422,18.540000915527344,18.649999618530273,18.639999389648438,1034700.0,18.639999389648438
2019-04-12,18.940000534057617,18.645000457763672,18.889999389648438,18.690000534057617,1232100.0,18.690000534057617
2019-04-15,18.84000015258789,18.389999389648438,18.709999084472656,18.520000457763672,1097600.0,18.520000457763672
2019-04-16,18.81999969482422,18.520000457763672,18.520000457763672,18.809999465942383,934100.0,18.809999465942383
2019-04-17,19.09000015258789,18.75,19.06999969482422,18.8799991607666,928200.0,18.8799991607666
2019-04-18,18.889999389648438,18.600000381469727,18.84000015258789,18.84000015258789,1046800.0,18.84000015258789
2019-04-22,18.915000915527344,18.479999542236328,18.850000381469727,18.540000915527344,890500.0,18.540000915527344
2019-04-23,19.1299991607666,18.559999465942383,18.59000015258789,18.889999389648438,2631000.0,18.889999389648438
2019-04-24,19.059999465942383,18.739999771118164,18.8799991607666,18.770000457763672,1323900.0,18.770000457763672
2019-04-25,18.709999084472656,18.149999618530273,18.709999084472656,18.280000686645508,1222500.0,18.280000686645508
2019-04-26,18.639999389648438,18.139999389648438,18.309999465942383,18.440000534057617,984700.0,18.440000534057617
2019-04-29,18.479999542236328,18.280000686645508,18.399999618530273,18.360000610351562,1887400.0,18.360000610351562
2019-04-30,18.559999465942383,18.280000686645508,18.450000762939453,18.5,3636800.0,18.5
2019-05-01,18.579999923706055,17.760000228881836,18.459999084472656,17.829999923706055,2264100.0,17.829999923706055
2019-05-02,18.190000534057617,16.899999618530273,17.770000457763672,17.219999313354492,2929500.0,17.219999313354492
2019-05-03,18.100000381469727,17.229999542236328,17.280000686645508,18.0,1798100.0,18.0
2019-05-06,18.270000457763672,17.6299991607666,17.6299991607666,18.0,1651900.0,18.0
2019-05-07,18.229999542236328,17.780000686645508,17.780000686645508,18.059999465942383,1609400.0,18.059999465942383
2019-05-08,18.264999389648438,17.959999084472656,18.09000015258789,18.260000228881836,1059100.0,18.260000228881836
2019-05-09,18.299999237060547,17.93000030517578,18.170000076293945,18.149999618530273,1005400.0,18.149999618530273
2019-05-10,18.270000457763672,17.809999465942383,18.149999618530273,18.1299991607666,1241900.0,18.1299991607666
2019-05-13,18.030000686645508,17.65999984741211,17.93000030517578,17.850000381469727,1422200.0,17.850000381469727
2019-05-14,18.059999465942383,17.71500015258789,17.959999084472656,17.899999618530273,1302500.0,17.899999618530273
2019-05-15,17.934999465942383,17.690000534057617,17.719999313354492,17.84000015258789,634300.0,17.84000015258789
2019-05-16,18.03499984741211,17.809999465942383,17.889999389648438,17.860000610351562,826900.0,17.860000610351562
2019-05-17,17.969999313354492,17.639999389648438,17.700000762939453,17.790000915527344,741500.0,17.790000915527344
2019-05-20,17.829999923706055,17.649999618530273,17.68000030517578,17.700000762939453,608800.0,17.700000762939453
2019-05-21,18.020000457763672,17.799999237060547,17.920000076293945,17.959999084472656,723500.0,17.959999084472656
2019-05-22,17.920000076293945,17.729999542236328,17.8799991607666,17.780000686645508,681800.0,17.780000686645508
2019-05-23,17.709999084472656,17.530000686645508,17.579999923706055,17.540000915527344,923700.0,17.540000915527344
2019-05-24,17.7450008392334,17.3799991607666,17.719999313354492,17.690000534057617,461000.0,17.690000534057617
