Date,High,Low,Open,Close,Volume,Adj Close
2018-02-08,21.84000015258789,19.860000610351562,21.100000381469727,20.25,14956100,20.25
2018-02-09,21.100000381469727,19.18000030517578,20.360000610351562,20.399999618530273,1350600,20.399999618530273
2018-02-12,21.479999542236328,20.420000076293945,20.420000076293945,20.899999618530273,529500,20.899999618530273
2018-02-13,22.579999923706055,20.5,20.5,21.43000030517578,717800,21.43000030517578
2018-02-14,23.739999771118164,20.6200008392334,20.6299991607666,22.0,1418000,22.0
2018-02-15,23.610000610351562,21.917999267578125,22.020000457763672,23.40999984741211,568300,23.40999984741211
2018-02-16,24.790000915527344,23.02400016784668,23.3700008392334,24.56999969482422,566800,24.56999969482422
2018-02-20,25.0,24.510000228881836,24.56999969482422,24.84000015258789,637700,24.84000015258789
2018-02-21,25.75,24.174999237060547,24.790000915527344,24.68000030517578,592900,24.68000030517578
2018-02-22,25.200000762939453,23.790000915527344,24.270000457763672,25.190000534057617,607000,25.190000534057617
2018-02-23,25.25,24.709999084472656,25.190000534057617,25.200000762939453,461900,25.200000762939453
2018-02-26,25.5,24.690000534057617,25.0,25.219999313354492,446600,25.219999313354492
2018-02-27,25.43000030517578,24.780000686645508,25.030000686645508,25.239999771118164,248000,25.239999771118164
2018-02-28,25.399999618530273,23.600000381469727,25.25,24.610000610351562,537100,24.610000610351562
2018-03-01,24.579999923706055,23.760000228881836,24.549999237060547,24.540000915527344,580100,24.540000915527344
2018-03-02,24.719999313354492,23.690000534057617,24.59000015258789,24.65999984741211,323500,24.65999984741211
2018-03-05,25.219999313354492,23.809999465942383,24.610000610351562,24.93000030517578,749000,24.93000030517578
2018-03-06,26.270000457763672,25.0,25.139999389648438,25.610000610351562,553900,25.610000610351562
2018-03-07,25.940000534057617,24.84000015258789,25.469999313354492,25.479999542236328,340900,25.479999542236328
2018-03-08,26.030000686645508,25.170000076293945,25.530000686645508,26.030000686645508,264500,26.030000686645508
2018-03-09,26.993999481201172,25.510000228881836,26.239999771118164,26.329999923706055,375700,26.329999923706055
2018-03-12,27.489999771118164,26.160999298095703,26.3799991607666,26.850000381469727,319600,26.850000381469727
2018-03-13,27.790000915527344,26.6299991607666,27.139999389648438,26.68000030517578,434000,26.68000030517578
2018-03-14,27.770000457763672,26.0,26.760000228881836,27.309999465942383,376900,27.309999465942383
2018-03-15,27.959999084472656,25.954999923706055,27.25,26.270000457763672,417300,26.270000457763672
2018-03-16,26.5,25.649999618530273,26.290000915527344,26.43000030517578,3311300,26.43000030517578
2018-03-19,27.200000762939453,26.354999542236328,26.530000686645508,27.15999984741211,281600,27.15999984741211
2018-03-20,27.309999465942383,26.65999984741211,27.299999237060547,27.190000534057617,158200,27.190000534057617
2018-03-21,27.469999313354492,27.09000015258789,27.239999771118164,27.3700008392334,98700,27.3700008392334
2018-03-22,27.3700008392334,26.79199981689453,27.200000762939453,27.100000381469727,93500,27.100000381469727
2018-03-23,27.3700008392334,26.610000610351562,27.25,26.6200008392334,297400,26.6200008392334
2018-03-26,27.479999542236328,26.7450008392334,26.84000015258789,27.200000762939453,630000,27.200000762939453
2018-03-27,27.489999771118164,26.149999618530273,27.290000915527344,26.389999389648438,146600,26.389999389648438
2018-03-28,26.709999084472656,25.770000457763672,26.329999923706055,26.559999465942383,278700,26.559999465942383
2018-03-29,27.0,26.559999465942383,26.68000030517578,26.93000030517578,393700,26.93000030517578
2018-04-02,27.499000549316406,26.18000030517578,26.899999618530273,26.34000015258789,267100,26.34000015258789
2018-04-03,26.541000366210938,25.600000381469727,26.479999542236328,26.059999465942383,294300,26.059999465942383
2018-04-04,26.899999618530273,25.579999923706055,25.790000915527344,26.65999984741211,125900,26.65999984741211
2018-04-05,27.5,26.399999618530273,26.760000228881836,27.149999618530273,419600,27.149999618530273
2018-04-06,27.75,25.649999618530273,27.229999542236328,26.049999237060547,399400,26.049999237060547
2018-04-09,26.940000534057617,25.614999771118164,26.1200008392334,26.65999984741211,307000,26.65999984741211
2018-04-10,27.599000930786133,26.711000442504883,26.81999969482422,27.360000610351562,249500,27.360000610351562
2018-04-11,28.799999237060547,27.350000381469727,27.350000381469727,27.799999237060547,726100,27.799999237060547
2018-04-12,28.780000686645508,26.990999221801758,27.920000076293945,27.139999389648438,274000,27.139999389648438
2018-04-13,27.729999542236328,25.3700008392334,27.270000457763672,26.920000076293945,417200,26.920000076293945
2018-04-16,28.110000610351562,27.0,27.010000228881836,27.389999389648438,322600,27.389999389648438
2018-04-17,28.0,26.899999618530273,27.489999771118164,27.899999618530273,369600,27.899999618530273
2018-04-18,29.1299991607666,28.059999465942383,28.059999465942383,28.709999084472656,390500,28.709999084472656
2018-04-19,29.850000381469727,27.579999923706055,28.760000228881836,28.1200008392334,356100,28.1200008392334
2018-04-20,29.219999313354492,27.729999542236328,28.040000915527344,29.190000534057617,133000,29.190000534057617
2018-04-23,29.959999084472656,28.83300018310547,29.18000030517578,29.799999237060547,289700,29.799999237060547
2018-04-24,29.809999465942383,28.440000534057617,29.780000686645508,28.510000228881836,172900,28.510000228881836
2018-04-25,28.729999542236328,27.399999618530273,28.420000076293945,27.850000381469727,260800,27.850000381469727
2018-04-26,29.139999389648438,27.350000381469727,27.860000610351562,28.399999618530273,171600,28.399999618530273
2018-04-27,29.020000457763672,27.549999237060547,28.399999618530273,28.959999084472656,298900,28.959999084472656
2018-04-30,29.450000762939453,28.3799991607666,28.899999618530273,28.709999084472656,166200,28.709999084472656
2018-05-01,28.809999465942383,27.229999542236328,28.56999969482422,28.639999389648438,181500,28.639999389648438
2018-05-02,29.209999084472656,28.3700008392334,28.5,28.639999389648438,95000,28.639999389648438
2018-05-03,29.010000228881836,27.854999542236328,28.520000457763672,28.420000076293945,129800,28.420000076293945
2018-05-04,29.350000381469727,28.229999542236328,28.399999618530273,29.110000610351562,93300,29.110000610351562
2018-05-07,30.190000534057617,29.020000457763672,29.209999084472656,29.229999542236328,303600,29.229999542236328
2018-05-08,29.670000076293945,28.510000228881836,29.190000534057617,29.329999923706055,182800,29.329999923706055
2018-05-09,30.719999313354492,29.280000686645508,29.459999084472656,29.799999237060547,163900,29.799999237060547
2018-05-10,31.809999465942383,29.559999465942383,31.729999542236328,31.100000381469727,687400,31.100000381469727
2018-05-11,32.459999084472656,31.309999465942383,31.329999923706055,31.989999771118164,246000,31.989999771118164
2018-05-14,33.529998779296875,32.0,32.43000030517578,32.9900016784668,358500,32.9900016784668
2018-05-15,35.22999954223633,33.310001373291016,33.349998474121094,34.310001373291016,524300,34.310001373291016
2018-05-16,36.38999938964844,34.2599983215332,34.47999954223633,34.459999084472656,819600,34.459999084472656
2018-05-17,36.0,34.5099983215332,34.5099983215332,35.279998779296875,548700,35.279998779296875
2018-05-18,36.005001068115234,35.02000045776367,35.38999938964844,35.88999938964844,680500,35.88999938964844
2018-05-21,36.11000061035156,34.56999969482422,35.97999954223633,35.959999084472656,470600,35.959999084472656
2018-05-22,37.499000549316406,35.915000915527344,36.0,36.16999816894531,339100,36.16999816894531
2018-05-23,36.16999816894531,34.04999923706055,36.150001525878906,35.2400016784668,480600,35.2400016784668
2018-05-24,35.689998626708984,34.5,35.279998779296875,34.83000183105469,170400,34.83000183105469
2018-05-25,34.540000915527344,33.09000015258789,34.540000915527344,33.529998779296875,230700,33.529998779296875
2018-05-29,33.599998474121094,32.2400016784668,33.2400016784668,32.88999938964844,283900,32.88999938964844
2018-05-30,33.79100036621094,32.84000015258789,33.189998626708984,33.25,292900,33.25
2018-05-31,34.18000030517578,32.540000915527344,33.130001068115234,33.720001220703125,465400,33.720001220703125
2018-06-01,34.58000183105469,31.520000457763672,33.939998626708984,31.90999984741211,374100,31.90999984741211
2018-06-04,32.25,29.68000030517578,32.060001373291016,30.649999618530273,546400,30.649999618530273
2018-06-05,30.860000610351562,29.020000457763672,30.610000610351562,30.43000030517578,709900,30.43000030517578
2018-06-06,32.56999969482422,30.364999771118164,30.420000076293945,32.47999954223633,472800,32.47999954223633
2018-06-07,33.540000915527344,32.32500076293945,32.5,33.27000045776367,175900,33.27000045776367
2018-06-08,33.61000061035156,32.80500030517578,33.18000030517578,33.0,192400,33.0
2018-06-11,33.4900016784668,32.040000915527344,33.130001068115234,32.52000045776367,256300,32.52000045776367
2018-06-12,33.52000045776367,32.380001068115234,32.689998626708984,32.65999984741211,212200,32.65999984741211
2018-06-13,33.43000030517578,32.099998474121094,32.810001373291016,32.40999984741211,257200,32.40999984741211
2018-06-14,33.130001068115234,31.299999237060547,32.43000030517578,32.08000183105469,226200,32.08000183105469
2018-06-15,32.650001525878906,30.65999984741211,31.920000076293945,31.450000762939453,885500,31.450000762939453
2018-06-18,32.08000183105469,30.5,31.290000915527344,31.6200008392334,252500,31.6200008392334
2018-06-19,31.545000076293945,30.0,31.389999389648438,30.979999542236328,162500,30.979999542236328
2018-06-20,31.780000686645508,30.530000686645508,31.059999465942383,31.559999465942383,141700,31.559999465942383
2018-06-21,33.380001068115234,31.2549991607666,31.649999618530273,32.349998474121094,537300,32.349998474121094
2018-06-22,34.560001373291016,33.0,33.13999938964844,34.0099983215332,1338400,34.0099983215332
2018-06-25,33.94599914550781,31.690000534057617,33.2599983215332,32.849998474121094,598100,32.849998474121094
2018-06-26,34.349998474121094,32.61000061035156,33.0,34.029998779296875,310700,34.029998779296875
2018-06-27,35.185001373291016,33.689998626708984,34.31999969482422,34.29999923706055,252900,34.29999923706055
2018-06-28,34.880001068115234,33.45000076293945,34.2400016784668,33.970001220703125,250500,33.970001220703125
2018-06-29,33.959999084472656,32.64799880981445,33.959999084472656,33.790000915527344,359400,33.790000915527344
2018-07-02,33.630001068115234,32.48500061035156,33.630001068115234,33.13999938964844,322400,33.13999938964844
2018-07-03,34.439998626708984,32.91999816894531,33.45000076293945,33.47999954223633,154100,33.47999954223633
2018-07-05,34.029998779296875,33.130001068115234,33.68000030517578,33.59000015258789,249000,33.59000015258789
2018-07-06,35.45000076293945,33.40999984741211,33.59000015258789,34.08000183105469,383500,34.08000183105469
2018-07-09,37.380001068115234,35.040000915527344,35.290000915527344,35.599998474121094,1074000,35.599998474121094
2018-07-10,36.47999954223633,32.61000061035156,34.22999954223633,33.689998626708984,2028100,33.689998626708984
2018-07-11,33.9900016784668,32.02000045776367,33.20000076293945,33.650001525878906,994300,33.650001525878906
2018-07-12,34.91999816894531,33.0,34.099998474121094,33.56999969482422,5774600,33.56999969482422
2018-07-13,34.18000030517578,33.099998474121094,33.56999969482422,33.66999816894531,1056800,33.66999816894531
2018-07-16,33.9900016784668,32.720001220703125,33.619998931884766,33.27000045776367,2482400,33.27000045776367
2018-07-17,34.779998779296875,32.86000061035156,33.130001068115234,33.790000915527344,1156100,33.790000915527344
2018-07-18,34.619998931884766,33.34000015258789,34.540000915527344,34.029998779296875,789800,34.029998779296875
2018-07-19,34.84000015258789,33.5099983215332,33.900001525878906,34.77000045776367,748000,34.77000045776367
2018-07-20,35.275001525878906,34.43000030517578,34.77000045776367,34.83000183105469,514300,34.83000183105469
2018-07-23,35.20000076293945,33.845001220703125,34.7599983215332,34.369998931884766,852000,34.369998931884766
2018-07-24,34.779998779296875,33.060001373291016,34.529998779296875,33.59000015258789,1195500,33.59000015258789
2018-07-25,33.689998626708984,31.59000015258789,33.689998626708984,32.25,991500,32.25
2018-07-26,33.20000076293945,32.08000183105469,32.25,32.7400016784668,599300,32.7400016784668
2018-07-27,32.70000076293945,31.649999618530273,32.70000076293945,32.06999969482422,326200,32.06999969482422
2018-07-30,32.880001068115234,31.360000610351562,32.08000183105469,32.150001525878906,688100,32.150001525878906
2018-07-31,33.22999954223633,32.224998474121094,32.560001373291016,32.720001220703125,1248000,32.720001220703125
2018-08-01,33.27000045776367,31.760000228881836,32.65999984741211,33.0,784500,33.0
2018-08-02,35.04999923706055,32.542999267578125,32.709999084472656,34.310001373291016,928600,34.310001373291016
2018-08-03,34.4900016784668,32.709999084472656,32.709999084472656,33.47999954223633,1313900,33.47999954223633
2018-08-06,34.810001373291016,33.529998779296875,33.709999084472656,34.63999938964844,708800,34.63999938964844
2018-08-07,35.66999816894531,34.0099983215332,35.0,34.08000183105469,505800,34.08000183105469
2018-08-08,34.61000061035156,33.599998474121094,34.06999969482422,34.560001373291016,290700,34.560001373291016
2018-08-09,34.70000076293945,33.40999984741211,34.599998474121094,34.15999984741211,336600,34.15999984741211
2018-08-10,35.349998474121094,33.959999084472656,34.290000915527344,34.20000076293945,321200,34.20000076293945
2018-08-13,34.64500045776367,32.90999984741211,34.099998474121094,33.77000045776367,562700,33.77000045776367
2018-08-14,34.5,33.560001373291016,34.0,33.810001373291016,306500,33.810001373291016
2018-08-15,33.56999969482422,31.40999984741211,33.56999969482422,31.729999542236328,545100,31.729999542236328
2018-08-16,32.47999954223633,31.510000228881836,32.0,32.400001525878906,457700,32.400001525878906
2018-08-17,32.849998474121094,31.889999389648438,32.34000015258789,32.810001373291016,345100,32.810001373291016
2018-08-20,33.41999816894531,32.400001525878906,32.810001373291016,33.0099983215332,385400,33.0099983215332
2018-08-21,33.709999084472656,32.88999938964844,33.25,33.06999969482422,359200,33.06999969482422
2018-08-22,33.79999923706055,33.15999984741211,33.189998626708984,33.45000076293945,349700,33.45000076293945
2018-08-23,33.650001525878906,33.1349983215332,33.45000076293945,33.38999938964844,313400,33.38999938964844
2018-08-24,33.83000183105469,33.25,33.630001068115234,33.470001220703125,387300,33.470001220703125
2018-08-27,34.08000183105469,33.27000045776367,33.54999923706055,33.75,377700,33.75
2018-08-28,34.2599983215332,33.310001373291016,33.900001525878906,33.689998626708984,379600,33.689998626708984
2018-08-29,34.22999954223633,33.61000061035156,33.779998779296875,34.13999938964844,370700,34.13999938964844
2018-08-30,35.40999984741211,34.34000015258789,34.72999954223633,34.93000030517578,475300,34.93000030517578
2018-08-31,34.91999816894531,33.72999954223633,34.91999816894531,34.18000030517578,381100,34.18000030517578
2018-09-04,36.47999954223633,34.220001220703125,34.220001220703125,35.5,694600,35.5
2018-09-05,35.470001220703125,33.845001220703125,35.470001220703125,34.16999816894531,524200,34.16999816894531
2018-09-06,34.16999816894531,32.40999984741211,34.15999984741211,33.310001373291016,847000,33.310001373291016
2018-09-07,33.84000015258789,32.779998779296875,32.970001220703125,33.779998779296875,327200,33.779998779296875
2018-09-10,35.18000030517578,33.80099868774414,33.97999954223633,35.099998474121094,497100,35.099998474121094
2018-09-11,35.619998931884766,34.4900016784668,35.060001373291016,35.38999938964844,265300,35.38999938964844
2018-09-12,36.439998626708984,34.560001373291016,35.5099983215332,34.709999084472656,437000,34.709999084472656
2018-09-13,35.345001220703125,34.34000015258789,34.83000183105469,34.70000076293945,232000,34.70000076293945
2018-09-14,35.619998931884766,34.58000183105469,35.029998779296875,35.54999923706055,227100,35.54999923706055
2018-09-17,36.32500076293945,33.90999984741211,35.529998779296875,34.68000030517578,536100,34.68000030517578
2018-09-18,36.189998626708984,34.15999984741211,34.88999938964844,35.91999816894531,410400,35.91999816894531
2018-09-19,38.84000015258789,36.31999969482422,36.400001525878906,37.06999969482422,729800,37.06999969482422
2018-09-20,37.79999923706055,35.709999084472656,37.2599983215332,36.279998779296875,466100,36.279998779296875
2018-09-21,36.91999816894531,36.02000045776367,36.27000045776367,36.70000076293945,794100,36.70000076293945
2018-09-24,38.15999984741211,36.81999969482422,37.0,37.29999923706055,590700,37.29999923706055
2018-09-25,38.72999954223633,36.41999816894531,37.63999938964844,36.58000183105469,596000,36.58000183105469
2018-09-26,36.849998474121094,35.68000030517578,36.58000183105469,36.470001220703125,634500,36.470001220703125
2018-09-27,37.599998474121094,35.25,36.650001525878906,37.189998626708984,483900,37.189998626708984
2018-09-28,38.66999816894531,36.470001220703125,37.0099983215332,38.279998779296875,789500,38.279998779296875
2018-10-01,39.13999938964844,37.599998474121094,38.56999969482422,38.5,600000,38.5
2018-10-02,39.380001068115234,37.810001373291016,38.529998779296875,38.18000030517578,405600,38.18000030517578
2018-10-03,39.709999084472656,37.060001373291016,38.5,38.77000045776367,530800,38.77000045776367
2018-10-04,40.45000076293945,38.34600067138672,38.43000030517578,39.7599983215332,508900,39.7599983215332
2018-10-05,40.23500061035156,39.0099983215332,39.75,40.150001525878906,373200,40.150001525878906
2018-10-08,40.71500015258789,39.09000015258789,39.90999984741211,40.45000076293945,270400,40.45000076293945
2018-10-09,40.970001220703125,39.79999923706055,40.540000915527344,40.5,536600,40.5
2018-10-10,40.95000076293945,37.9900016784668,40.5,38.75,898800,38.75
2018-10-11,38.900001525878906,36.93000030517578,38.279998779296875,37.150001525878906,445600,37.150001525878906
2018-10-12,38.18000030517578,36.65999984741211,37.849998474121094,37.16999816894531,319600,37.16999816894531
2018-10-15,37.79999923706055,36.39500045776367,37.349998474121094,37.47999954223633,330000,37.47999954223633
2018-10-16,39.189998626708984,37.349998474121094,37.63999938964844,38.90999984741211,485900,38.90999984741211
2018-10-17,39.43000030517578,37.560001373291016,38.75,38.060001373291016,357900,38.060001373291016
2018-10-18,38.099998474121094,36.66999816894531,37.61000061035156,36.72999954223633,343700,36.72999954223633
2018-10-19,37.744998931884766,36.4900016784668,36.83000183105469,36.75,358200,36.75
2018-10-22,37.099998474121094,35.599998474121094,36.779998779296875,36.349998474121094,279400,36.349998474121094
2018-10-23,35.290000915527344,34.08000183105469,35.290000915527344,34.47999954223633,465700,34.47999954223633
2018-10-24,34.744998931884766,32.86000061035156,34.68000030517578,32.90999984741211,670400,32.90999984741211
2018-10-25,34.77000045776367,32.9900016784668,33.349998474121094,33.0,637400,33.0
2018-10-26,34.529998779296875,32.13999938964844,32.43000030517578,33.599998474121094,607300,33.599998474121094
2018-10-29,34.18199920654297,31.989999771118164,34.0,32.439998626708984,433900,32.439998626708984
2018-10-30,33.79999923706055,32.02000045776367,32.290000915527344,33.5,319100,33.5
2018-10-31,34.51499938964844,33.18000030517578,33.95000076293945,33.459999084472656,785900,33.459999084472656
2018-11-01,35.665000915527344,31.43000030517578,34.119998931884766,35.06999969482422,1461400,35.06999969482422
2018-11-02,37.560001373291016,35.310001373291016,35.540000915527344,36.349998474121094,573100,36.349998474121094
2018-11-05,37.04999923706055,35.810001373291016,36.650001525878906,37.02000045776367,295500,37.02000045776367
2018-11-06,37.83000183105469,36.369998931884766,37.0,37.310001373291016,396400,37.310001373291016
2018-11-07,38.029998779296875,36.59000015258789,37.84000015258789,37.90999984741211,376800,37.90999984741211
2018-11-08,38.0,36.64400100708008,37.779998779296875,36.939998626708984,258000,36.939998626708984
2018-11-09,36.529998779296875,35.5,36.529998779296875,36.15999984741211,333500,36.15999984741211
2018-11-12,36.380001068115234,34.869998931884766,36.2400016784668,34.91999816894531,188300,34.91999816894531
2018-11-13,35.62200164794922,32.650001525878906,34.939998626708984,33.08000183105469,476200,33.08000183105469
2018-11-14,33.834999084472656,31.860000610351562,33.7599983215332,32.41999816894531,680900,32.41999816894531
2018-11-15,32.89500045776367,31.799999237060547,32.09000015258789,32.33000183105469,973000,32.33000183105469
2018-11-16,32.84000015258789,30.649999618530273,32.290000915527344,31.309999465942383,685300,31.309999465942383
2018-11-19,32.130001068115234,30.469999313354492,31.020000457763672,31.299999237060547,1489700,31.299999237060547
2018-11-20,31.049999237060547,27.920000076293945,30.56999969482422,29.299999237060547,1422500,29.299999237060547
2018-11-21,30.469999313354492,29.709999084472656,29.770000457763672,29.760000228881836,481800,29.760000228881836
2018-11-23,29.770000457763672,28.49799919128418,28.860000610351562,28.639999389648438,268700,28.639999389648438
2018-11-26,29.31999969482422,28.149999618530273,28.989999771118164,28.8700008392334,752700,28.8700008392334
2018-11-27,29.469999313354492,28.684999465942383,28.75,28.989999771118164,406300,28.989999771118164
2018-11-28,29.31999969482422,28.020000457763672,28.989999771118164,28.979999542236328,342700,28.979999542236328
2018-11-29,29.43000030517578,28.43000030517578,29.049999237060547,29.010000228881836,345400,29.010000228881836
2018-11-30,29.209999084472656,28.479999542236328,28.709999084472656,28.8799991607666,405400,28.8799991607666
2018-12-03,31.270000457763672,29.65999984741211,29.90999984741211,31.170000076293945,425000,31.170000076293945
2018-12-04,31.079999923706055,30.059999465942383,30.93000030517578,30.110000610351562,700200,30.110000610351562
2018-12-06,29.860000610351562,28.56999969482422,29.5,29.84000015258789,521600,29.84000015258789
2018-12-07,31.145000457763672,28.93000030517578,30.459999084472656,29.3700008392334,628000,29.3700008392334
2018-12-10,29.219999313354492,27.7450008392334,28.889999389648438,28.18000030517578,329500,28.18000030517578
2018-12-11,29.069000244140625,28.040000915527344,29.049999237060547,28.420000076293945,316400,28.420000076293945
2018-12-12,29.479999542236328,28.59000015258789,28.8700008392334,29.030000686645508,315800,29.030000686645508
2018-12-13,29.010000228881836,28.280000686645508,29.010000228881836,28.600000381469727,153800,28.600000381469727
2018-12-14,28.399999618530273,27.31999969482422,28.25,27.790000915527344,521600,27.790000915527344
2018-12-17,28.93000030517578,27.579999923706055,27.770000457763672,28.0,425900,28.0
2018-12-18,28.239999771118164,27.350000381469727,27.989999771118164,27.540000915527344,495900,27.540000915527344
2018-12-19,28.389999389648438,26.459999084472656,27.5,26.760000228881836,280200,26.760000228881836
2018-12-20,27.260000228881836,25.920000076293945,26.510000228881836,26.290000915527344,436900,26.290000915527344
2018-12-21,26.559999465942383,25.530000686645508,26.260000228881836,25.93000030517578,560800,25.93000030517578
2018-12-24,25.860000610351562,25.020000457763672,25.59000015258789,25.229999542236328,173500,25.229999542236328
2018-12-26,27.0,24.600000381469727,25.34000015258789,26.93000030517578,357000,26.93000030517578
2018-12-27,27.1299991607666,25.780000686645508,26.360000610351562,27.100000381469727,331800,27.100000381469727
2018-12-28,27.790000915527344,26.450000762939453,27.389999389648438,27.270000457763672,285600,27.270000457763672
2018-12-31,27.760000228881836,26.631000518798828,27.540000915527344,27.40999984741211,295500,27.40999984741211
2019-01-02,28.795000076293945,26.940000534057617,27.15999984741211,28.530000686645508,334700,28.530000686645508
2019-01-03,28.600000381469727,27.260000228881836,28.420000076293945,28.3799991607666,300900,28.3799991607666
2019-01-04,29.65999984741211,28.341999053955078,28.860000610351562,29.530000686645508,380100,29.530000686645508
2019-01-07,30.360000610351562,28.459999084472656,29.479999542236328,29.700000762939453,393200,29.700000762939453
2019-01-08,30.385000228881836,28.790000915527344,30.170000076293945,28.8799991607666,388800,28.8799991607666
2019-01-09,29.850000381469727,28.81100082397461,29.270000457763672,29.43000030517578,156000,29.43000030517578
2019-01-10,30.670000076293945,28.950000762939453,29.479999542236328,30.6200008392334,191700,30.6200008392334
2019-01-11,30.639999389648438,29.3799991607666,30.479999542236328,29.920000076293945,308400,29.920000076293945
2019-01-14,30.75,29.299999237060547,29.510000228881836,29.65999984741211,230000,29.65999984741211
2019-01-15,30.489999771118164,29.579999923706055,29.940000534057617,30.229999542236328,168000,30.229999542236328
2019-01-16,31.510000228881836,29.91699981689453,30.209999084472656,31.200000762939453,234600,31.200000762939453
2019-01-17,32.18000030517578,31.062999725341797,31.100000381469727,31.8700008392334,279800,31.8700008392334
2019-01-18,32.7599983215332,31.959999084472656,32.27000045776367,32.220001220703125,329600,32.220001220703125
2019-01-22,32.0,30.920000076293945,32.0,31.3799991607666,292800,31.3799991607666
2019-01-23,31.959999084472656,31.010000228881836,31.68000030517578,31.239999771118164,346500,31.239999771118164
2019-01-24,32.459999084472656,31.235000610351562,31.260000228881836,32.349998474121094,388700,32.349998474121094
2019-01-25,33.45000076293945,32.45000076293945,32.70000076293945,32.9900016784668,137400,32.9900016784668
2019-01-28,32.68000030517578,31.56999969482422,32.459999084472656,32.290000915527344,183100,32.290000915527344
2019-01-29,32.83000183105469,32.029998779296875,32.58000183105469,32.43000030517578,164200,32.43000030517578
2019-01-30,33.0,31.926000595092773,32.72999954223633,32.61000061035156,322000,32.61000061035156
2019-01-31,33.22999954223633,32.59000015258789,32.66999816894531,32.81999969482422,167500,32.81999969482422
2019-02-01,33.310001373291016,32.880001068115234,33.09000015258789,33.150001525878906,158000,33.150001525878906
2019-02-04,33.279998779296875,32.52000045776367,33.02000045776367,33.130001068115234,103900,33.130001068115234
2019-02-05,33.68000030517578,32.59000015258789,33.16999816894531,33.31999969482422,244500,33.31999969482422
2019-02-06,33.564998626708984,33.029998779296875,33.209999084472656,33.380001068115234,181400,33.380001068115234
2019-02-07,35.367000579833984,31.920000076293945,34.33000183105469,32.790000915527344,423800,32.790000915527344
2019-02-08,33.400001525878906,32.029998779296875,32.54999923706055,32.060001373291016,147800,32.060001373291016
2019-02-11,33.382999420166016,31.690000534057617,32.0,33.29999923706055,389000,33.29999923706055
2019-02-12,34.439998626708984,33.34000015258789,33.560001373291016,34.400001525878906,278800,34.400001525878906
2019-02-13,35.2599983215332,34.47999954223633,34.5,35.08000183105469,324400,35.08000183105469
2019-02-14,35.959999084472656,34.81999969482422,35.18000030517578,35.70000076293945,188900,35.70000076293945
2019-02-15,36.83000183105469,35.33000183105469,36.0,36.599998474121094,296000,36.599998474121094
2019-02-19,37.47999954223633,36.439998626708984,36.470001220703125,36.83000183105469,179200,36.83000183105469
2019-02-20,37.849998474121094,36.65999984741211,37.0,37.2599983215332,237200,37.2599983215332
2019-02-21,37.3489990234375,35.56999969482422,37.06999969482422,36.29999923706055,166100,36.29999923706055
2019-02-22,36.720001220703125,34.91999816894531,36.720001220703125,35.779998779296875,516500,35.779998779296875
2019-02-25,36.47999954223633,35.31999969482422,35.83000183105469,35.34000015258789,417700,35.34000015258789
2019-02-26,36.33000183105469,35.27000045776367,35.45000076293945,35.91999816894531,403900,35.91999816894531
2019-02-27,37.43000030517578,35.7599983215332,36.0,36.849998474121094,360600,36.849998474121094
2019-02-28,37.220001220703125,35.69499969482422,36.869998931884766,36.2599983215332,200900,36.2599983215332
2019-03-01,37.27000045776367,36.38999938964844,36.5,36.970001220703125,157200,36.970001220703125
2019-03-04,37.28499984741211,36.15999984741211,37.15999984741211,36.900001525878906,190100,36.900001525878906
2019-03-05,37.18199920654297,36.0,36.959999084472656,36.459999084472656,119300,36.459999084472656
2019-03-06,36.47999954223633,34.599998474121094,36.209999084472656,35.59000015258789,362900,35.59000015258789
2019-03-07,36.90999984741211,33.0,34.16999816894531,36.08000183105469,527500,36.08000183105469
2019-03-08,37.15999984741211,35.33000183105469,36.43000030517578,36.5099983215332,820800,36.5099983215332
2019-03-11,37.98899841308594,36.75,36.959999084472656,37.459999084472656,732800,37.459999084472656
2019-03-12,37.84000015258789,36.459999084472656,37.599998474121094,36.869998931884766,334000,36.869998931884766
2019-03-13,37.849998474121094,36.59000015258789,37.20000076293945,37.349998474121094,446200,37.349998474121094
2019-03-14,37.72999954223633,37.11000061035156,37.470001220703125,37.290000915527344,284300,37.290000915527344
2019-03-15,38.220001220703125,36.59000015258789,37.209999084472656,37.459999084472656,965700,37.459999084472656
2019-03-18,38.68000030517578,37.29999923706055,37.45000076293945,37.720001220703125,576700,37.720001220703125
2019-03-19,36.790000915527344,35.310001373291016,35.93000030517578,35.880001068115234,6849200,35.880001068115234
2019-03-20,37.130001068115234,35.31999969482422,35.90999984741211,36.790000915527344,1435400,36.790000915527344
2019-03-21,37.470001220703125,36.375,36.7400016784668,37.25,833000,37.25
2019-03-22,37.02000045776367,34.7599983215332,37.02000045776367,34.84000015258789,467000,34.84000015258789
2019-03-25,37.040000915527344,34.2599983215332,34.70000076293945,36.02000045776367,491900,36.02000045776367
2019-03-26,36.845001220703125,35.779998779296875,36.459999084472656,35.97999954223633,467900,35.97999954223633
2019-03-27,36.29499816894531,35.119998931884766,35.79999923706055,35.400001525878906,432900,35.400001525878906
2019-03-28,36.08000183105469,34.7400016784668,34.959999084472656,35.939998626708984,689400,35.939998626708984
2019-03-29,36.380001068115234,35.369998931884766,36.380001068115234,35.599998474121094,961300,35.599998474121094
2019-04-01,36.44499969482422,35.880001068115234,35.91999816894531,36.25,427900,36.25
2019-04-02,36.28499984741211,35.83000183105469,36.2400016784668,35.9900016784668,372700,35.9900016784668
2019-04-03,36.54999923706055,35.689998626708984,36.22999954223633,35.7599983215332,313000,35.7599983215332
2019-04-04,36.720001220703125,35.66999816894531,35.779998779296875,36.689998626708984,593000,36.689998626708984
2019-04-05,37.79999923706055,36.334999084472656,36.880001068115234,37.709999084472656,637000,37.709999084472656
2019-04-08,37.900001525878906,36.86000061035156,37.709999084472656,37.20000076293945,398200,37.20000076293945
2019-04-09,37.189998626708984,36.400001525878906,36.93000030517578,36.779998779296875,318200,36.779998779296875
2019-04-10,38.0099983215332,37.025001525878906,37.060001373291016,37.689998626708984,886000,37.689998626708984
2019-04-11,38.15800094604492,37.310001373291016,37.720001220703125,37.400001525878906,383000,37.400001525878906
2019-04-12,37.9900016784668,37.09000015258789,37.81999969482422,37.380001068115234,331600,37.380001068115234
2019-04-15,37.70000076293945,37.16999816894531,37.16999816894531,37.31999969482422,264600,37.31999969482422
2019-04-16,38.11000061035156,37.35499954223633,37.689998626708984,38.0,545000,38.0
2019-04-17,38.5,37.63999938964844,38.099998474121094,37.86000061035156,298500,37.86000061035156
2019-04-18,38.099998474121094,37.220001220703125,37.9900016784668,37.7400016784668,390300,37.7400016784668
2019-04-22,39.59000015258789,38.0,38.040000915527344,39.45000076293945,1131100,39.45000076293945
2019-04-23,40.68000030517578,38.75,39.81999969482422,39.040000915527344,594400,39.040000915527344
2019-04-24,39.40999984741211,38.029998779296875,39.09000015258789,38.29999923706055,286500,38.29999923706055
2019-04-25,38.66999816894531,37.20000076293945,38.150001525878906,37.619998931884766,604200,37.619998931884766
2019-04-26,37.720001220703125,35.68000030517578,37.58000183105469,36.56999969482422,628800,36.56999969482422
2019-04-29,36.939998626708984,36.15999984741211,36.56999969482422,36.619998931884766,589600,36.619998931884766
2019-04-30,37.2400016784668,35.61399841308594,37.0,36.29999923706055,1241300,36.29999923706055
2019-05-01,36.81999969482422,34.7599983215332,36.29999923706055,34.88999938964844,719400,34.88999938964844
2019-05-02,37.290000915527344,34.900001525878906,35.869998931884766,37.11000061035156,1150600,37.11000061035156
2019-05-03,37.957000732421875,36.790000915527344,37.45000076293945,37.0,778000,37.0
2019-05-06,37.6150016784668,36.119998931884766,36.470001220703125,37.599998474121094,468100,37.599998474121094
2019-05-07,37.810001373291016,36.290000915527344,37.209999084472656,36.779998779296875,795700,36.779998779296875
2019-05-08,37.36000061035156,35.400001525878906,36.630001068115234,36.13999938964844,926700,36.13999938964844
2019-05-09,36.349998474121094,35.400001525878906,35.7400016784668,36.060001373291016,723700,36.060001373291016
2019-05-10,36.400001525878906,35.27000045776367,35.810001373291016,36.349998474121094,519300,36.349998474121094
2019-05-13,36.22999954223633,34.130001068115234,35.709999084472656,34.599998474121094,811600,34.599998474121094
2019-05-14,35.630001068115234,34.369998931884766,34.70000076293945,35.2599983215332,550100,35.2599983215332
2019-05-15,36.189998626708984,34.54999923706055,34.88999938964844,36.02000045776367,316600,36.02000045776367
2019-05-16,36.59000015258789,35.900001525878906,36.16999816894531,36.25,531500,36.25
2019-05-17,36.0099983215332,34.349998474121094,35.7599983215332,34.599998474121094,419100,34.599998474121094
2019-05-20,34.54999923706055,33.834999084472656,34.220001220703125,34.08000183105469,351300,34.08000183105469
2019-05-21,35.29999923706055,34.220001220703125,34.220001220703125,35.18000030517578,326000,35.18000030517578
2019-05-22,35.099998474121094,33.90999984741211,34.90999984741211,34.369998931884766,668700,34.369998931884766
2019-05-23,34.09000015258789,32.02000045776367,33.56999969482422,32.779998779296875,945900,32.779998779296875
2019-05-24,33.41899871826172,32.40999984741211,33.20000076293945,32.97999954223633,935900,32.97999954223633
