Date,High,Low,Open,Close,Volume,Adj Close
2015-10-29,25.290000915527344,25.219999313354492,25.290000915527344,25.219999313354492,2700.0,24.296428680419922
2015-10-30,25.309999465942383,25.209999084472656,25.309999465942383,25.219999313354492,3300.0,24.296428680419922
2015-11-02,24.81999969482422,24.260000228881836,24.81999969482422,24.260000228881836,1400.0,23.371583938598633
2015-11-03,24.260000228881836,24.260000228881836,24.260000228881836,24.260000228881836,0.0,23.371583938598633
2015-11-04,26.059999465942383,25.690000534057617,26.059999465942383,25.770000457763672,20800.0,24.8262882232666
2015-11-05,26.299999237060547,26.110000610351562,26.1299991607666,26.209999084472656,8800.0,25.250171661376953
2015-11-06,26.670000076293945,26.43000030517578,26.5,26.639999389648438,4900.0,25.664424896240234
2015-11-09,26.81999969482422,26.469999313354492,26.81999969482422,26.469999313354492,7100.0,25.500652313232422
2015-11-10,26.899999618530273,26.829999923706055,26.899999618530273,26.860000610351562,14100.0,25.876373291015625
2015-11-11,27.239999771118164,27.09000015258789,27.239999771118164,27.09000015258789,8000.0,26.097951889038086
2015-11-12,26.780000686645508,26.719999313354492,26.780000686645508,26.719999313354492,4300.0,25.741497039794922
2015-11-13,26.06999969482422,25.770000457763672,26.06999969482422,25.770000457763672,11000.0,24.8262882232666
2015-11-16,26.770000457763672,26.760000228881836,26.770000457763672,26.770000457763672,2200.0,25.7896671295166
2015-11-17,26.809999465942383,26.611000061035156,26.611000061035156,26.760000228881836,1800.0,25.7800350189209
2015-11-18,26.649999618530273,26.354000091552734,26.3799991607666,26.649999618530273,600.0,25.674060821533203
2015-11-19,26.93000030517578,26.93000030517578,26.93000030517578,26.93000030517578,200.0,25.943805694580078
2015-11-20,27.469999313354492,27.219999313354492,27.239999771118164,27.219999313354492,10500.0,26.223188400268555
2015-11-23,26.940000534057617,26.90999984741211,26.940000534057617,26.93000030517578,900.0,25.943805694580078
2015-11-24,27.020000457763672,26.850000381469727,26.850000381469727,27.020000457763672,4100.0,26.030513763427734
2015-11-25,27.399999618530273,27.219999313354492,27.360000610351562,27.270000457763672,11100.0,26.2713565826416
2015-11-27,25.299999237060547,25.190000534057617,25.280000686645508,25.190000534057617,3100.0,24.267528533935547
2015-11-30,25.469999313354492,25.260000228881836,25.280000686645508,25.469999313354492,4100.0,24.537273406982422
2015-12-01,25.530000686645508,25.40999984741211,25.530000686645508,25.420000076293945,2700.0,24.489103317260742
2015-12-02,26.086999893188477,25.934999465942383,26.059999465942383,25.934999465942383,1200.0,24.985244750976562
2015-12-03,25.934999465942383,25.934999465942383,25.934999465942383,25.934999465942383,0.0,24.985244750976562
2015-12-04,26.200000762939453,26.200000762939453,26.200000762939453,26.200000762939453,100.0,25.240541458129883
2015-12-07,25.799999237060547,25.780000686645508,25.799999237060547,25.780000686645508,3800.0,24.835926055908203
2015-12-08,25.780000686645508,25.780000686645508,25.780000686645508,25.780000686645508,0.0,24.835926055908203
2015-12-09,25.510000228881836,25.270000457763672,25.450000762939453,25.360000610351562,700.0,24.43130111694336
2015-12-10,25.360000610351562,25.360000610351562,25.360000610351562,25.360000610351562,100.0,24.43130111694336
2015-12-11,25.360000610351562,25.360000610351562,25.360000610351562,25.360000610351562,0.0,24.43130111694336
2015-12-14,25.694000244140625,25.694000244140625,25.694000244140625,25.694000244140625,200.0,24.753070831298828
2015-12-15,26.030000686645508,26.010000228881836,26.030000686645508,26.010000228881836,600.0,25.057498931884766
2015-12-16,26.010000228881836,26.010000228881836,26.010000228881836,26.010000228881836,0.0,25.057498931884766
2015-12-17,26.010000228881836,26.010000228881836,26.010000228881836,26.010000228881836,0.0,25.057498931884766
2015-12-18,26.450000762939453,26.450000762939453,26.450000762939453,26.450000762939453,300.0,25.591585159301758
2015-12-21,26.450000762939453,26.450000762939453,26.450000762939453,26.450000762939453,0.0,25.591585159301758
2015-12-22,27.440000534057617,27.100000381469727,27.100000381469727,27.440000534057617,900.0,26.549453735351562
2015-12-23,27.049999237060547,26.847999572753906,26.950000762939453,26.847999572753906,2300.0,25.976667404174805
2015-12-24,26.750999450683594,26.750999450683594,26.750999450683594,26.750999450683594,100.0,25.882814407348633
2015-12-28,26.750999450683594,26.750999450683594,26.750999450683594,26.750999450683594,0.0,25.882814407348633
2015-12-29,26.229999542236328,26.229999542236328,26.229999542236328,26.229999542236328,300.0,25.37872314453125
2015-12-30,26.229999542236328,26.229999542236328,26.229999542236328,26.229999542236328,0.0,25.37872314453125
2015-12-31,26.229999542236328,26.229999542236328,26.229999542236328,26.229999542236328,0.0,25.37872314453125
2016-01-04,23.530000686645508,23.48900032043457,23.530000686645508,23.489999771118164,2600.0,22.72764778137207
2016-01-05,23.347999572753906,23.347999572753906,23.347999572753906,23.347999572753906,200.0,22.590255737304688
2016-01-06,23.347999572753906,23.347999572753906,23.347999572753906,23.347999572753906,0.0,22.590255737304688
2016-01-07,22.8700008392334,22.290000915527344,22.649999618530273,22.290000915527344,6600.0,21.56659507751465
2016-01-08,22.479999542236328,22.360000610351562,22.479999542236328,22.450000762939453,3300.0,21.72140121459961
2016-01-11,21.530000686645508,21.520000457763672,21.520000457763672,21.530000686645508,700.0,20.831260681152344
2016-01-12,21.530000686645508,21.530000686645508,21.530000686645508,21.530000686645508,0.0,20.831260681152344
2016-01-13,21.530000686645508,21.530000686645508,21.530000686645508,21.530000686645508,0.0,20.831260681152344
2016-01-14,21.530000686645508,21.530000686645508,21.530000686645508,21.530000686645508,0.0,20.831260681152344
2016-01-15,19.969999313354492,19.969999313354492,19.969999313354492,19.969999313354492,200.0,19.321887969970703
2016-01-19,20.920000076293945,20.920000076293945,20.920000076293945,20.920000076293945,500.0,20.241056442260742
2016-01-20,20.979999542236328,20.780000686645508,20.979999542236328,20.780000686645508,1000.0,20.10559844970703
2016-01-21,20.780000686645508,20.780000686645508,20.780000686645508,20.780000686645508,0.0,20.10559844970703
2016-01-22,20.780000686645508,20.780000686645508,20.780000686645508,20.780000686645508,0.0,20.10559844970703
2016-01-25,20.520000457763672,20.51799964904785,20.51799964904785,20.520000457763672,2600.0,19.85403823852539
2016-01-26,20.520000457763672,20.520000457763672,20.520000457763672,20.520000457763672,0.0,19.85403823852539
2016-01-27,18.8700008392334,18.790000915527344,18.860000610351562,18.8700008392334,1100.0,18.257587432861328
2016-01-28,18.8700008392334,18.8700008392334,18.8700008392334,18.8700008392334,0.0,18.257587432861328
2016-01-29,18.8700008392334,18.8700008392334,18.8700008392334,18.8700008392334,0.0,18.257587432861328
2016-02-01,18.8700008392334,18.8700008392334,18.8700008392334,18.8700008392334,0.0,18.257587432861328
2016-02-02,18.8700008392334,18.8700008392334,18.8700008392334,18.8700008392334,0.0,18.257587432861328
2016-02-03,18.8700008392334,18.8700008392334,18.8700008392334,18.8700008392334,0.0,18.257587432861328
2016-02-04,18.8700008392334,18.8700008392334,18.8700008392334,18.8700008392334,0.0,18.257587432861328
2016-02-05,18.8700008392334,18.8700008392334,18.8700008392334,18.8700008392334,0.0,18.257587432861328
2016-02-08,18.8700008392334,18.8700008392334,18.8700008392334,18.8700008392334,0.0,18.257587432861328
2016-02-09,18.8700008392334,18.8700008392334,18.8700008392334,18.8700008392334,0.0,18.257587432861328
2016-02-10,18.8700008392334,18.8700008392334,18.8700008392334,18.8700008392334,0.0,18.257587432861328
2016-02-11,18.8700008392334,18.8700008392334,18.8700008392334,18.8700008392334,0.0,18.257587432861328
2016-02-12,18.68000030517578,18.469999313354492,18.469999313354492,18.68000030517578,1900.0,18.07375144958496
2016-02-16,18.68000030517578,18.68000030517578,18.68000030517578,18.68000030517578,0.0,18.07375144958496
2016-02-17,20.639999389648438,20.639999389648438,20.639999389648438,20.639999389648438,300.0,19.970142364501953
2016-02-18,20.639999389648438,20.639999389648438,20.639999389648438,20.639999389648438,0.0,19.970142364501953
2016-02-19,20.610000610351562,20.610000610351562,20.610000610351562,20.610000610351562,300.0,19.941116333007812
2016-02-22,20.610000610351562,20.610000610351562,20.610000610351562,20.610000610351562,0.0,19.941116333007812
2016-02-23,20.610000610351562,20.610000610351562,20.610000610351562,20.610000610351562,0.0,19.941116333007812
2016-02-24,20.81999969482422,20.81999969482422,20.81999969482422,20.81999969482422,300.0,20.144302368164062
2016-02-25,19.510000228881836,19.420000076293945,19.469999313354492,19.510000228881836,5300.0,18.87681770324707
2016-02-26,19.510000228881836,19.510000228881836,19.510000228881836,19.510000228881836,0.0,18.87681770324707
2016-02-29,19.510000228881836,19.510000228881836,19.510000228881836,19.510000228881836,0.0,18.87681770324707
2016-03-01,19.510000228881836,19.510000228881836,19.510000228881836,19.510000228881836,0.0,18.87681770324707
2016-03-02,19.510000228881836,19.510000228881836,19.510000228881836,19.510000228881836,0.0,18.87681770324707
2016-03-03,20.209999084472656,20.209999084472656,20.209999084472656,20.209999084472656,1000.0,19.55409812927246
2016-03-04,20.540000915527344,20.540000915527344,20.540000915527344,20.540000915527344,100.0,19.873390197753906
2016-03-07,20.540000915527344,20.540000915527344,20.540000915527344,20.540000915527344,0.0,19.873390197753906
2016-03-08,20.540000915527344,20.540000915527344,20.540000915527344,20.540000915527344,0.0,19.873390197753906
2016-03-09,20.540000915527344,20.540000915527344,20.540000915527344,20.540000915527344,0.0,19.873390197753906
2016-03-10,20.540000915527344,20.540000915527344,20.540000915527344,20.540000915527344,0.0,19.873390197753906
2016-03-11,20.540000915527344,20.540000915527344,20.540000915527344,20.540000915527344,0.0,19.873390197753906
2016-03-14,20.540000915527344,20.540000915527344,20.540000915527344,20.540000915527344,0.0,19.873390197753906
2016-03-15,20.540000915527344,20.540000915527344,20.540000915527344,20.540000915527344,0.0,19.873390197753906
2016-03-16,20.540000915527344,20.540000915527344,20.540000915527344,20.540000915527344,0.0,19.873390197753906
2016-03-17,20.540000915527344,20.540000915527344,20.540000915527344,20.540000915527344,0.0,19.873390197753906
2016-03-18,21.190000534057617,21.190000534057617,21.190000534057617,21.190000534057617,500.0,20.50229263305664
2016-03-21,21.190000534057617,21.190000534057617,21.190000534057617,21.190000534057617,0.0,20.50229263305664
2016-03-22,21.190000534057617,21.190000534057617,21.190000534057617,21.190000534057617,0.0,20.50229263305664
2016-03-23,21.190000534057617,21.190000534057617,21.190000534057617,21.190000534057617,0.0,20.50229263305664
2016-03-24,21.190000534057617,21.190000534057617,21.190000534057617,21.190000534057617,0.0,20.50229263305664
2016-03-28,21.190000534057617,21.190000534057617,21.190000534057617,21.190000534057617,0.0,20.50229263305664
2016-03-29,21.190000534057617,21.190000534057617,21.190000534057617,21.190000534057617,0.0,20.50229263305664
2016-03-30,21.190000534057617,21.190000534057617,21.190000534057617,21.190000534057617,0.0,20.50229263305664
2016-03-31,21.190000534057617,21.190000534057617,21.190000534057617,21.190000534057617,0.0,20.50229263305664
2016-04-01,21.190000534057617,21.190000534057617,21.190000534057617,21.190000534057617,0.0,20.50229263305664
2016-04-04,21.260000228881836,21.200000762939453,21.200000762939453,21.219999313354492,2000.0,20.531320571899414
2016-04-05,21.860000610351562,21.860000610351562,21.860000610351562,21.860000610351562,1000.0,21.150548934936523
2016-04-06,21.860000610351562,21.860000610351562,21.860000610351562,21.860000610351562,0.0,21.150548934936523
2016-04-07,21.610000610351562,21.600000381469727,21.610000610351562,21.600000381469727,2500.0,20.898988723754883
2016-04-08,21.600000381469727,21.600000381469727,21.600000381469727,21.600000381469727,0.0,20.898988723754883
2016-04-11,21.600000381469727,21.600000381469727,21.600000381469727,21.600000381469727,0.0,20.898988723754883
2016-04-12,21.600000381469727,21.600000381469727,21.600000381469727,21.600000381469727,0.0,20.898988723754883
2016-04-13,22.31999969482422,22.31999969482422,22.31999969482422,22.31999969482422,500.0,21.59562110900879
2016-04-14,22.31999969482422,22.31999969482422,22.31999969482422,22.31999969482422,0.0,21.59562110900879
2016-04-15,22.31999969482422,22.31999969482422,22.31999969482422,22.31999969482422,0.0,21.59562110900879
2016-04-18,22.31999969482422,22.31999969482422,22.31999969482422,22.31999969482422,0.0,21.59562110900879
2016-04-19,22.31999969482422,22.31999969482422,22.31999969482422,22.31999969482422,0.0,21.59562110900879
2016-04-20,22.31999969482422,22.31999969482422,22.31999969482422,22.31999969482422,0.0,21.59562110900879
2016-04-21,21.058000564575195,21.058000564575195,21.058000564575195,21.058000564575195,300.0,20.37458038330078
2016-04-22,21.058000564575195,21.058000564575195,21.058000564575195,21.058000564575195,0.0,20.37458038330078
2016-04-25,21.058000564575195,21.058000564575195,21.058000564575195,21.058000564575195,0.0,20.37458038330078
2016-04-26,21.058000564575195,21.058000564575195,21.058000564575195,21.058000564575195,0.0,20.37458038330078
2016-04-27,21.489999771118164,21.489999771118164,21.489999771118164,21.489999771118164,300.0,20.79255485534668
2016-04-28,21.489999771118164,21.489999771118164,21.489999771118164,21.489999771118164,0.0,20.79255485534668
2016-04-29,21.219999313354492,21.18000030517578,21.219999313354492,21.18000030517578,300.0,20.49262046813965
2016-05-02,21.18000030517578,21.18000030517578,21.18000030517578,21.18000030517578,0.0,20.49262046813965
2016-05-03,21.18000030517578,21.18000030517578,21.18000030517578,21.18000030517578,0.0,20.49262046813965
2016-05-04,21.59000015258789,21.56999969482422,21.56999969482422,21.59000015258789,1500.0,20.889310836791992
2016-05-05,21.610000610351562,21.59000015258789,21.59000015258789,21.610000610351562,1500.0,20.908660888671875
2016-05-06,21.610000610351562,21.610000610351562,21.610000610351562,21.610000610351562,0.0,20.908660888671875
2016-05-09,20.110000610351562,20.110000610351562,20.110000610351562,20.110000610351562,500.0,19.45734405517578
2016-05-10,20.43000030517578,20.385000228881836,20.43000030517578,20.385000228881836,1000.0,19.723421096801758
2016-05-11,20.385000228881836,20.385000228881836,20.385000228881836,20.385000228881836,0.0,19.723421096801758
2016-05-12,20.34000015258789,20.34000015258789,20.34000015258789,20.34000015258789,500.0,19.679880142211914
2016-05-13,20.34000015258789,20.34000015258789,20.34000015258789,20.34000015258789,0.0,19.679880142211914
2016-05-16,20.34000015258789,20.34000015258789,20.34000015258789,20.34000015258789,0.0,19.679880142211914
2016-05-17,20.34000015258789,20.34000015258789,20.34000015258789,20.34000015258789,0.0,19.679880142211914
2016-05-18,20.079999923706055,20.040000915527344,20.049999237060547,20.079999923706055,5500.0,19.42831802368164
2016-05-19,20.079999923706055,20.079999923706055,20.079999923706055,20.079999923706055,0.0,19.42831802368164
2016-05-20,20.25,20.229999542236328,20.25,20.229999542236328,1000.0,19.573448181152344
2016-05-23,20.3799991607666,20.31999969482422,20.31999969482422,20.350000381469727,4000.0,19.68955421447754
2016-05-24,20.479999542236328,20.440000534057617,20.479999542236328,20.459999084472656,1400.0,19.795984268188477
2016-05-25,20.260000228881836,20.190000534057617,20.200000762939453,20.229999542236328,2100.0,19.573448181152344
2016-05-26,20.229999542236328,20.229999542236328,20.229999542236328,20.229999542236328,0.0,19.573448181152344
2016-05-27,20.176000595092773,20.176000595092773,20.176000595092773,20.176000595092773,500.0,19.521202087402344
2016-05-31,21.06999969482422,20.90999984741211,20.90999984741211,20.966999053955078,500.0,20.286527633666992
2016-06-01,20.966999053955078,20.966999053955078,20.966999053955078,20.966999053955078,0.0,20.286527633666992
2016-06-02,21.139999389648438,21.139999389648438,21.139999389648438,21.139999389648438,100.0,20.453914642333984
2016-06-03,21.139999389648438,21.139999389648438,21.139999389648438,21.139999389648438,0.0,20.453914642333984
2016-06-06,21.139999389648438,21.139999389648438,21.139999389648438,21.139999389648438,0.0,20.453914642333984
2016-06-07,21.309999465942383,21.2450008392334,21.2450008392334,21.309999465942383,3300.0,20.618396759033203
2016-06-08,21.309999465942383,21.309999465942383,21.309999465942383,21.309999465942383,0.0,20.618396759033203
2016-06-09,21.309999465942383,21.309999465942383,21.309999465942383,21.309999465942383,0.0,20.618396759033203
2016-06-10,21.309999465942383,21.309999465942383,21.309999465942383,21.309999465942383,0.0,20.618396759033203
2016-06-13,21.309999465942383,21.309999465942383,21.309999465942383,21.309999465942383,0.0,20.618396759033203
2016-06-14,20.290000915527344,20.207000732421875,20.260000228881836,20.290000915527344,2200.0,19.63150405883789
2016-06-15,20.823999404907227,20.823999404907227,20.823999404907227,20.823999404907227,300.0,20.148170471191406
2016-06-16,20.645000457763672,20.645000457763672,20.645000457763672,20.645000457763672,300.0,19.974979400634766
2016-06-17,21.190000534057617,20.5,21.190000534057617,20.5,9100.0,19.89346694946289
2016-06-20,20.5,20.5,20.5,20.5,0.0,19.89346694946289
2016-06-21,20.75,20.75,20.75,20.75,900.0,20.136070251464844
2016-06-22,20.75,20.75,20.75,20.75,0.0,20.136070251464844
2016-06-23,20.75,20.75,20.75,20.75,0.0,20.136070251464844
2016-06-24,20.75,20.75,20.75,20.75,0.0,20.136070251464844
2016-06-27,20.75,20.75,20.75,20.75,0.0,20.136070251464844
2016-06-28,20.75,20.75,20.75,20.75,0.0,20.136070251464844
2016-06-29,20.75,20.75,20.75,20.75,0.0,20.136070251464844
2016-06-30,21.09000015258789,20.989999771118164,20.989999771118164,21.09000015258789,200.0,20.46600914001465
2016-07-01,20.94499969482422,20.94499969482422,20.94499969482422,20.94499969482422,200.0,20.325300216674805
2016-07-05,20.94499969482422,20.94499969482422,20.94499969482422,20.94499969482422,0.0,20.325300216674805
2016-07-06,21.632999420166016,21.632999420166016,21.632999420166016,21.632999420166016,300.0,20.992944717407227
2016-07-07,21.632999420166016,21.632999420166016,21.632999420166016,21.632999420166016,0.0,20.992944717407227
2016-07-08,21.6299991607666,21.6299991607666,21.6299991607666,21.6299991607666,800.0,20.990032196044922
2016-07-11,21.375999450683594,21.375999450683594,21.375999450683594,21.375999450683594,300.0,20.743545532226562
2016-07-12,21.375999450683594,21.375999450683594,21.375999450683594,21.375999450683594,0.0,20.743545532226562
2016-07-13,22.139999389648438,21.959999084472656,22.139999389648438,21.959999084472656,600.0,21.31026840209961
2016-07-14,21.959999084472656,21.959999084472656,21.959999084472656,21.959999084472656,0.0,21.31026840209961
2016-07-15,21.989999771118164,21.969999313354492,21.969999313354492,21.989999771118164,800.0,21.339380264282227
2016-07-18,21.989999771118164,21.989999771118164,21.989999771118164,21.989999771118164,0.0,21.339380264282227
2016-07-19,21.75,21.709999084472656,21.709999084472656,21.75,300.0,21.106481552124023
2016-07-20,21.83099937438965,21.760000228881836,21.83099937438965,21.760000228881836,1500.0,21.116188049316406
2016-07-21,21.75,21.75,21.75,21.75,100.0,21.106481552124023
2016-07-22,21.75,21.75,21.75,21.75,0.0,21.106481552124023
2016-07-25,21.75,21.75,21.75,21.75,0.0,21.106481552124023
2016-07-26,22.100000381469727,22.06999969482422,22.06999969482422,22.100000381469727,900.0,21.446128845214844
2016-07-27,22.100000381469727,22.100000381469727,22.100000381469727,22.100000381469727,0.0,21.446128845214844
2016-07-28,22.100000381469727,22.100000381469727,22.100000381469727,22.100000381469727,0.0,21.446128845214844
2016-07-29,22.100000381469727,22.100000381469727,22.100000381469727,22.100000381469727,0.0,21.446128845214844
2016-08-01,22.100000381469727,22.100000381469727,22.100000381469727,22.100000381469727,0.0,21.446128845214844
2016-08-02,22.100000381469727,22.100000381469727,22.100000381469727,22.100000381469727,0.0,21.446128845214844
2016-08-03,22.100000381469727,22.100000381469727,22.100000381469727,22.100000381469727,0.0,21.446128845214844
2016-08-04,22.100000381469727,22.100000381469727,22.100000381469727,22.100000381469727,0.0,21.446128845214844
2016-08-05,22.100000381469727,22.100000381469727,22.100000381469727,22.100000381469727,0.0,21.446128845214844
2016-08-08,22.100000381469727,22.100000381469727,22.100000381469727,22.100000381469727,0.0,21.446128845214844
2016-08-09,22.100000381469727,22.100000381469727,22.100000381469727,22.100000381469727,0.0,21.446128845214844
2016-08-10,22.100000381469727,22.100000381469727,22.100000381469727,22.100000381469727,0.0,21.446128845214844
2016-08-11,21.540000915527344,21.540000915527344,21.540000915527344,21.540000915527344,200.0,20.90269660949707
2016-08-12,21.899999618530273,21.899999618530273,21.899999618530273,21.899999618530273,100.0,21.252042770385742
2016-08-15,21.899999618530273,21.899999618530273,21.899999618530273,21.899999618530273,0.0,21.252042770385742
2016-08-16,21.899999618530273,21.899999618530273,21.899999618530273,21.899999618530273,0.0,21.252042770385742
2016-08-17,22.309999465942383,22.299999237060547,22.309999465942383,22.299999237060547,1000.0,21.640209197998047
2016-08-18,22.959999084472656,22.395000457763672,22.395000457763672,22.395000457763672,1200.0,21.73240089416504
2016-08-19,22.395000457763672,22.395000457763672,22.395000457763672,22.395000457763672,0.0,21.73240089416504
2016-08-22,22.395000457763672,22.395000457763672,22.395000457763672,22.395000457763672,0.0,21.73240089416504
2016-08-23,22.395000457763672,22.395000457763672,22.395000457763672,22.395000457763672,0.0,21.73240089416504
2016-08-24,22.31999969482422,22.177000045776367,22.30699920654297,22.31999969482422,600.0,21.659618377685547
2016-08-25,22.1200008392334,22.100000381469727,22.110000610351562,22.100000381469727,1100.0,21.446128845214844
2016-08-26,22.100000381469727,22.100000381469727,22.100000381469727,22.100000381469727,0.0,21.446128845214844
2016-08-29,22.100000381469727,22.100000381469727,22.100000381469727,22.100000381469727,0.0,21.446128845214844
2016-08-30,22.100000381469727,22.100000381469727,22.100000381469727,22.100000381469727,100.0,21.446128845214844
2016-08-31,22.100000381469727,22.100000381469727,22.100000381469727,22.100000381469727,0.0,21.446128845214844
2016-09-01,22.100000381469727,22.100000381469727,22.100000381469727,22.100000381469727,0.0,21.446128845214844
2016-09-02,22.100000381469727,22.100000381469727,22.100000381469727,22.100000381469727,0.0,21.446128845214844
2016-09-06,22.100000381469727,22.100000381469727,22.100000381469727,22.100000381469727,0.0,21.446128845214844
2016-09-07,22.100000381469727,22.100000381469727,22.100000381469727,22.100000381469727,0.0,21.446128845214844
2016-09-08,22.100000381469727,22.100000381469727,22.100000381469727,22.100000381469727,0.0,21.446128845214844
2016-09-09,22.100000381469727,22.100000381469727,22.100000381469727,22.100000381469727,0.0,21.446128845214844
2016-09-12,21.51300048828125,21.0,21.0,21.51300048828125,4000.0,20.876495361328125
2016-09-13,21.51300048828125,21.51300048828125,21.51300048828125,21.51300048828125,0.0,20.876495361328125
2016-09-14,21.51300048828125,21.51300048828125,21.51300048828125,21.51300048828125,0.0,20.876495361328125
2016-09-15,21.51300048828125,21.51300048828125,21.51300048828125,21.51300048828125,0.0,20.876495361328125
2016-09-16,21.51300048828125,21.51300048828125,21.51300048828125,21.51300048828125,0.0,21.01422691345215
2016-09-19,21.655000686645508,21.655000686645508,21.655000686645508,21.655000686645508,300.0,21.152935028076172
2016-09-20,21.655000686645508,21.655000686645508,21.655000686645508,21.655000686645508,0.0,21.152935028076172
2016-09-21,21.655000686645508,21.655000686645508,21.655000686645508,21.655000686645508,0.0,21.152935028076172
2016-09-22,21.655000686645508,21.655000686645508,21.655000686645508,21.655000686645508,0.0,21.152935028076172
2016-09-23,21.655000686645508,21.655000686645508,21.655000686645508,21.655000686645508,0.0,21.152935028076172
2016-09-26,21.655000686645508,21.655000686645508,21.655000686645508,21.655000686645508,0.0,21.152935028076172
2016-09-27,21.655000686645508,21.655000686645508,21.655000686645508,21.655000686645508,0.0,21.152935028076172
2016-09-28,21.655000686645508,21.655000686645508,21.655000686645508,21.655000686645508,0.0,21.152935028076172
2016-09-29,21.655000686645508,21.655000686645508,21.655000686645508,21.655000686645508,0.0,21.152935028076172
2016-09-30,21.655000686645508,21.655000686645508,21.655000686645508,21.655000686645508,0.0,21.152935028076172
2016-10-03,21.655000686645508,21.655000686645508,21.655000686645508,21.655000686645508,0.0,21.152935028076172
2016-10-04,21.655000686645508,21.655000686645508,21.655000686645508,21.655000686645508,0.0,21.152935028076172
2016-10-05,21.479000091552734,21.479000091552734,21.479000091552734,21.479000091552734,200.0,20.981016159057617
2016-10-06,21.479000091552734,21.479000091552734,21.479000091552734,21.479000091552734,0.0,20.981016159057617
2016-10-07,21.459999084472656,21.364999771118164,21.44499969482422,21.364999771118164,6200.0,20.869657516479492
2016-10-10,21.364999771118164,21.364999771118164,21.364999771118164,21.364999771118164,0.0,20.869657516479492
2016-10-11,21.364999771118164,21.364999771118164,21.364999771118164,21.364999771118164,0.0,20.869657516479492
2016-10-12,21.364999771118164,21.364999771118164,21.364999771118164,21.364999771118164,0.0,20.869657516479492
2016-10-13,21.364999771118164,21.364999771118164,21.364999771118164,21.364999771118164,0.0,20.869657516479492
2016-10-14,21.364999771118164,21.364999771118164,21.364999771118164,21.364999771118164,0.0,20.869657516479492
2016-10-17,21.364999771118164,21.364999771118164,21.364999771118164,21.364999771118164,0.0,20.869657516479492
2016-10-18,22.010000228881836,21.989999771118164,21.989999771118164,22.010000228881836,1400.0,21.499704360961914
2016-10-19,22.010000228881836,22.010000228881836,22.010000228881836,22.010000228881836,0.0,21.499704360961914
2016-10-20,22.010000228881836,22.010000228881836,22.010000228881836,22.010000228881836,0.0,21.499704360961914
2016-10-21,21.875,21.875,21.875,21.875,300.0,21.36783218383789
2016-10-24,21.875,21.875,21.875,21.875,0.0,21.36783218383789
2016-10-25,21.875,21.875,21.875,21.875,0.0,21.36783218383789
2016-10-26,21.875,21.875,21.875,21.875,0.0,21.36783218383789
2016-10-27,21.875,21.875,21.875,21.875,0.0,21.36783218383789
2016-10-28,21.875,21.875,21.875,21.875,0.0,21.36783218383789
2016-10-31,21.875,21.875,21.875,21.875,0.0,21.36783218383789
2016-11-01,21.875,21.875,21.875,21.875,0.0,21.36783218383789
2016-11-02,21.875,21.875,21.875,21.875,0.0,21.36783218383789
2016-11-03,21.875,21.875,21.875,21.875,0.0,21.36783218383789
2016-11-04,21.875,21.875,21.875,21.875,0.0,21.36783218383789
2016-11-07,21.875,21.875,21.875,21.875,0.0,21.36783218383789
2016-11-08,21.875,21.875,21.875,21.875,0.0,21.36783218383789
2016-11-09,22.134000778198242,22.134000778198242,22.134000778198242,22.134000778198242,300.0,21.620830535888672
2016-11-10,22.134000778198242,22.134000778198242,22.134000778198242,22.134000778198242,0.0,21.620830535888672
2016-11-11,22.134000778198242,22.134000778198242,22.134000778198242,22.134000778198242,0.0,21.620830535888672
2016-11-14,22.134000778198242,22.134000778198242,22.134000778198242,22.134000778198242,0.0,21.620830535888672
2016-11-15,22.134000778198242,22.134000778198242,22.134000778198242,22.134000778198242,0.0,21.620830535888672
2016-11-16,22.134000778198242,22.134000778198242,22.134000778198242,22.134000778198242,0.0,21.620830535888672
2016-11-17,22.134000778198242,22.134000778198242,22.134000778198242,22.134000778198242,0.0,21.620830535888672
2016-11-18,22.134000778198242,22.134000778198242,22.134000778198242,22.134000778198242,0.0,21.620830535888672
2016-11-21,22.07699966430664,22.07699966430664,22.07699966430664,22.07699966430664,300.0,21.565147399902344
2016-11-22,22.07699966430664,22.07699966430664,22.07699966430664,22.07699966430664,0.0,21.565147399902344
2016-11-23,22.07699966430664,22.07699966430664,22.07699966430664,22.07699966430664,0.0,21.565147399902344
2016-11-25,22.07699966430664,22.07699966430664,22.07699966430664,22.07699966430664,0.0,21.565147399902344
2016-11-28,22.07699966430664,22.07699966430664,22.07699966430664,22.07699966430664,0.0,21.565147399902344
2016-11-29,22.07699966430664,22.07699966430664,22.07699966430664,22.07699966430664,0.0,21.565147399902344
2016-11-30,22.07699966430664,22.07699966430664,22.07699966430664,22.07699966430664,0.0,21.565147399902344
2016-12-01,22.07699966430664,22.07699966430664,22.07699966430664,22.07699966430664,0.0,21.565147399902344
2016-12-02,22.07699966430664,22.07699966430664,22.07699966430664,22.07699966430664,0.0,21.565147399902344
2016-12-05,21.829999923706055,21.81999969482422,21.81999969482422,21.829999923706055,300.0,21.323875427246094
2016-12-06,21.829999923706055,21.829999923706055,21.829999923706055,21.829999923706055,0.0,21.323875427246094
2016-12-07,21.829999923706055,21.829999923706055,21.829999923706055,21.829999923706055,0.0,21.323875427246094
2016-12-08,21.829999923706055,21.829999923706055,21.829999923706055,21.829999923706055,0.0,21.323875427246094
2016-12-09,21.993999481201172,21.993999481201172,21.993999481201172,21.993999481201172,500.0,21.484071731567383
2016-12-12,21.993999481201172,21.993999481201172,21.993999481201172,21.993999481201172,0.0,21.484071731567383
2016-12-13,21.993999481201172,21.993999481201172,21.993999481201172,21.993999481201172,0.0,21.484071731567383
2016-12-14,21.993999481201172,21.993999481201172,21.993999481201172,21.993999481201172,0.0,21.484071731567383
2016-12-15,21.993999481201172,21.993999481201172,21.993999481201172,21.993999481201172,0.0,21.484071731567383
2016-12-16,21.993999481201172,21.993999481201172,21.993999481201172,21.993999481201172,0.0,21.484071731567383
2016-12-19,21.993999481201172,21.993999481201172,21.993999481201172,21.993999481201172,0.0,21.484071731567383
2016-12-20,21.993999481201172,21.993999481201172,21.993999481201172,21.993999481201172,0.0,21.484071731567383
2016-12-21,21.993999481201172,21.993999481201172,21.993999481201172,21.993999481201172,0.0,21.484071731567383
2016-12-22,21.993999481201172,21.993999481201172,21.993999481201172,21.993999481201172,0.0,21.484071731567383
2016-12-23,21.993999481201172,21.993999481201172,21.993999481201172,21.993999481201172,0.0,21.484071731567383
2016-12-27,21.993999481201172,21.993999481201172,21.993999481201172,21.993999481201172,0.0,21.484071731567383
2016-12-28,21.993999481201172,21.993999481201172,21.993999481201172,21.993999481201172,0.0,21.484071731567383
2016-12-29,20.726999282836914,20.690000534057617,20.700000762939453,20.690000534057617,3200.0,20.21030616760254
2016-12-30,20.690000534057617,20.690000534057617,20.690000534057617,20.690000534057617,0.0,20.21030616760254
2017-01-03,20.690000534057617,20.690000534057617,20.690000534057617,20.690000534057617,0.0,20.21030616760254
2017-01-04,21.309999465942383,21.309999465942383,21.309999465942383,21.309999465942383,100.0,20.81593132019043
2017-01-05,21.309999465942383,21.309999465942383,21.309999465942383,21.309999465942383,0.0,20.81593132019043
2017-01-06,21.349000930786133,21.349000930786133,21.349000930786133,21.349000930786133,100.0,20.854028701782227
2017-01-09,21.349000930786133,21.349000930786133,21.349000930786133,21.349000930786133,0.0,20.854028701782227
2017-01-10,21.349000930786133,21.349000930786133,21.349000930786133,21.349000930786133,0.0,20.854028701782227
2017-01-11,21.349000930786133,21.349000930786133,21.349000930786133,21.349000930786133,0.0,20.854028701782227
2017-01-12,21.349000930786133,21.349000930786133,21.349000930786133,21.349000930786133,0.0,20.854028701782227
2017-01-13,21.038999557495117,21.038999557495117,21.038999557495117,21.038999557495117,200.0,20.55121421813965
2017-01-17,21.038999557495117,21.038999557495117,21.038999557495117,21.038999557495117,0.0,20.55121421813965
2017-01-18,21.038999557495117,21.038999557495117,21.038999557495117,21.038999557495117,0.0,20.55121421813965
2017-01-19,21.038999557495117,21.038999557495117,21.038999557495117,21.038999557495117,0.0,20.55121421813965
2017-01-20,21.038999557495117,21.038999557495117,21.038999557495117,21.038999557495117,0.0,20.55121421813965
2017-01-23,21.038999557495117,21.038999557495117,21.038999557495117,21.038999557495117,0.0,20.55121421813965
2017-01-24,21.038999557495117,21.038999557495117,21.038999557495117,21.038999557495117,0.0,20.55121421813965
2017-01-25,21.038999557495117,21.038999557495117,21.038999557495117,21.038999557495117,0.0,20.55121421813965
2017-01-26,21.038999557495117,21.038999557495117,21.038999557495117,21.038999557495117,0.0,20.55121421813965
2017-01-27,21.038999557495117,21.038999557495117,21.038999557495117,21.038999557495117,0.0,20.55121421813965
2017-01-30,21.038999557495117,21.038999557495117,21.038999557495117,21.038999557495117,0.0,20.55121421813965
2017-01-31,21.038999557495117,21.038999557495117,21.038999557495117,21.038999557495117,0.0,20.55121421813965
2017-02-01,21.038999557495117,21.038999557495117,21.038999557495117,21.038999557495117,0.0,20.55121421813965
2017-02-02,21.038999557495117,21.038999557495117,21.038999557495117,21.038999557495117,0.0,20.55121421813965
2017-02-03,21.038999557495117,21.038999557495117,21.038999557495117,21.038999557495117,0.0,20.55121421813965
2017-02-06,21.038999557495117,21.038999557495117,21.038999557495117,21.038999557495117,0.0,20.55121421813965
2017-02-07,21.038999557495117,21.038999557495117,21.038999557495117,21.038999557495117,0.0,20.55121421813965
2017-02-08,21.038999557495117,21.038999557495117,21.038999557495117,21.038999557495117,0.0,20.55121421813965
2017-02-09,21.038999557495117,21.038999557495117,21.038999557495117,21.038999557495117,0.0,20.55121421813965
2017-02-10,21.038999557495117,21.038999557495117,21.038999557495117,21.038999557495117,0.0,20.55121421813965
2017-02-13,21.038999557495117,21.038999557495117,21.038999557495117,21.038999557495117,0.0,20.55121421813965
2017-02-14,21.038999557495117,21.038999557495117,21.038999557495117,21.038999557495117,0.0,20.55121421813965
2017-02-15,21.038999557495117,21.038999557495117,21.038999557495117,21.038999557495117,0.0,20.55121421813965
2017-02-16,21.808000564575195,21.649999618530273,21.808000564575195,21.7189998626709,1500.0,21.2154483795166
2017-02-17,21.7189998626709,21.7189998626709,21.7189998626709,21.7189998626709,0.0,21.2154483795166
2017-02-21,21.7189998626709,21.7189998626709,21.7189998626709,21.7189998626709,0.0,21.2154483795166
2017-02-22,21.7189998626709,21.7189998626709,21.7189998626709,21.7189998626709,0.0,21.2154483795166
2017-02-23,21.7189998626709,21.7189998626709,21.7189998626709,21.7189998626709,0.0,21.2154483795166
2017-02-24,21.7189998626709,21.7189998626709,21.7189998626709,21.7189998626709,0.0,21.2154483795166
2017-02-27,21.7189998626709,21.7189998626709,21.7189998626709,21.7189998626709,0.0,21.2154483795166
2017-02-28,21.7189998626709,21.7189998626709,21.7189998626709,21.7189998626709,0.0,21.2154483795166
2017-03-01,21.7189998626709,21.7189998626709,21.7189998626709,21.7189998626709,0.0,21.2154483795166
2017-03-02,21.7189998626709,21.7189998626709,21.7189998626709,21.7189998626709,0.0,21.2154483795166
2017-03-03,21.7189998626709,21.7189998626709,21.7189998626709,21.7189998626709,0.0,21.2154483795166
2017-03-06,21.8799991607666,21.860000610351562,21.860000610351562,21.8799991607666,900.0,21.37271499633789
2017-03-07,21.8799991607666,21.8799991607666,21.8799991607666,21.8799991607666,0.0,21.37271499633789
2017-03-08,21.8799991607666,21.8799991607666,21.8799991607666,21.8799991607666,0.0,21.37271499633789
2017-03-09,21.8799991607666,21.8799991607666,21.8799991607666,21.8799991607666,0.0,21.37271499633789
2017-03-10,21.8799991607666,21.8799991607666,21.8799991607666,21.8799991607666,0.0,21.37271499633789
2017-03-13,21.899999618530273,21.799999237060547,21.799999237060547,21.899999618530273,700.0,21.392253875732422
2017-03-14,21.899999618530273,21.899999618530273,21.899999618530273,21.899999618530273,0.0,21.392253875732422
2017-03-15,21.899999618530273,21.899999618530273,21.899999618530273,21.899999618530273,0.0,21.392253875732422
2017-03-16,21.899999618530273,21.899999618530273,21.899999618530273,21.899999618530273,0.0,21.392253875732422
2017-03-17,21.90999984741211,21.90999984741211,21.90999984741211,21.90999984741211,100.0,21.402021408081055
2017-03-20,21.90999984741211,21.90999984741211,21.90999984741211,21.90999984741211,200.0,21.402021408081055
2017-03-21,21.899999618530273,21.899999618530273,21.899999618530273,21.899999618530273,300.0,21.392253875732422
2017-03-22,21.899999618530273,21.899999618530273,21.899999618530273,21.899999618530273,0.0,21.392253875732422
2017-03-23,21.899999618530273,21.899999618530273,21.899999618530273,21.899999618530273,0.0,21.392253875732422
2017-03-24,21.899999618530273,21.899999618530273,21.899999618530273,21.899999618530273,0.0,21.392253875732422
2017-03-27,21.899999618530273,21.899999618530273,21.899999618530273,21.899999618530273,0.0,21.392253875732422
2017-03-28,21.899999618530273,21.899999618530273,21.899999618530273,21.899999618530273,0.0,21.392253875732422
2017-03-29,21.899999618530273,21.899999618530273,21.899999618530273,21.899999618530273,0.0,21.392253875732422
2017-03-30,21.58799934387207,21.58799934387207,21.58799934387207,21.58799934387207,300.0,21.087488174438477
2017-03-31,21.58799934387207,21.58799934387207,21.58799934387207,21.58799934387207,0.0,21.087488174438477
2017-04-03,21.58799934387207,21.58799934387207,21.58799934387207,21.58799934387207,0.0,21.087488174438477
2017-04-04,21.889999389648438,21.860000610351562,21.860000610351562,21.889999389648438,2100.0,21.382484436035156
2017-04-05,21.889999389648438,21.889999389648438,21.889999389648438,21.889999389648438,0.0,21.382484436035156
2017-04-06,22.15999984741211,22.139999389648438,22.15999984741211,22.139999389648438,300.0,21.62668800354004
2017-04-07,22.139999389648438,22.139999389648438,22.139999389648438,22.139999389648438,0.0,21.62668800354004
2017-04-10,21.969999313354492,21.969999313354492,21.969999313354492,21.969999313354492,100.0,21.460628509521484
2017-04-11,22.239999771118164,22.049999237060547,22.049999237060547,22.239999771118164,1400.0,21.7243709564209
2017-04-12,22.239999771118164,22.239999771118164,22.239999771118164,22.239999771118164,0.0,21.7243709564209
2017-04-13,22.239999771118164,22.239999771118164,22.239999771118164,22.239999771118164,0.0,21.7243709564209
2017-04-17,21.899999618530273,21.899999618530273,21.899999618530273,21.899999618530273,100.0,21.392253875732422
2017-04-18,21.899999618530273,21.899999618530273,21.899999618530273,21.899999618530273,0.0,21.392253875732422
2017-04-19,21.899999618530273,21.899999618530273,21.899999618530273,21.899999618530273,0.0,21.392253875732422
2017-04-20,21.899999618530273,21.899999618530273,21.899999618530273,21.899999618530273,0.0,21.392253875732422
2017-04-21,21.899999618530273,21.899999618530273,21.899999618530273,21.899999618530273,0.0,21.392253875732422
2017-04-24,21.899999618530273,21.899999618530273,21.899999618530273,21.899999618530273,0.0,21.392253875732422
2017-04-25,21.899999618530273,21.899999618530273,21.899999618530273,21.899999618530273,0.0,21.392253875732422
2017-04-26,21.899999618530273,21.899999618530273,21.899999618530273,21.899999618530273,0.0,21.392253875732422
2017-04-27,21.899999618530273,21.899999618530273,21.899999618530273,21.899999618530273,0.0,21.392253875732422
2017-04-28,21.899999618530273,21.899999618530273,21.899999618530273,21.899999618530273,0.0,21.392253875732422
2017-05-01,21.159000396728516,21.159000396728516,21.159000396728516,21.159000396728516,200.0,20.668434143066406
2017-05-02,21.159000396728516,21.159000396728516,21.159000396728516,21.159000396728516,0.0,20.668434143066406
2017-05-03,21.159000396728516,21.159000396728516,21.159000396728516,21.159000396728516,0.0,20.668434143066406
2017-05-04,21.159000396728516,21.159000396728516,21.159000396728516,21.159000396728516,0.0,20.668434143066406
2017-05-05,20.6299991607666,20.6299991607666,20.6299991607666,20.6299991607666,200.0,20.151695251464844
2017-05-08,20.450000762939453,20.399999618530273,20.450000762939453,20.399999618530273,400.0,19.92702865600586
2017-05-09,20.399999618530273,20.399999618530273,20.399999618530273,20.399999618530273,0.0,19.92702865600586
2017-05-10,20.399999618530273,20.399999618530273,20.399999618530273,20.399999618530273,0.0,19.92702865600586
2017-05-11,20.260000228881836,20.260000228881836,20.260000228881836,20.260000228881836,300.0,19.79027557373047
2017-05-12,20.260000228881836,20.260000228881836,20.260000228881836,20.260000228881836,0.0,19.79027557373047
2017-05-15,20.378000259399414,20.378000259399414,20.378000259399414,20.378000259399414,200.0,19.905540466308594
2017-05-16,20.860000610351562,20.780000686645508,20.860000610351562,20.780000686645508,500.0,20.298221588134766
2017-05-17,20.780000686645508,20.780000686645508,20.780000686645508,20.780000686645508,0.0,20.298221588134766
2017-05-18,20.700000762939453,20.690000534057617,20.690000534057617,20.690000534057617,500.0,20.21030616760254
2017-05-19,20.690000534057617,20.690000534057617,20.690000534057617,20.690000534057617,0.0,20.21030616760254
2017-05-22,20.690000534057617,20.690000534057617,20.690000534057617,20.690000534057617,0.0,20.21030616760254
2017-05-23,20.489999771118164,20.389999389648438,20.479999542236328,20.389999389648438,1000.0,19.91726303100586
2017-05-24,20.389999389648438,20.389999389648438,20.389999389648438,20.389999389648438,0.0,19.91726303100586
2017-05-25,20.389999389648438,20.389999389648438,20.389999389648438,20.389999389648438,0.0,19.91726303100586
2017-05-26,20.389999389648438,20.389999389648438,20.389999389648438,20.389999389648438,0.0,19.91726303100586
2017-05-30,20.389999389648438,20.389999389648438,20.389999389648438,20.389999389648438,0.0,19.91726303100586
2017-05-31,20.389999389648438,20.389999389648438,20.389999389648438,20.389999389648438,0.0,19.91726303100586
2017-06-01,20.389999389648438,20.389999389648438,20.389999389648438,20.389999389648438,0.0,19.91726303100586
2017-06-02,20.738000869750977,20.649999618530273,20.670000076293945,20.738000869750977,1000.0,20.25719451904297
2017-06-05,20.738000869750977,20.738000869750977,20.738000869750977,20.738000869750977,0.0,20.25719451904297
2017-06-06,20.738000869750977,20.738000869750977,20.738000869750977,20.738000869750977,0.0,20.25719451904297
2017-06-07,20.738000869750977,20.738000869750977,20.738000869750977,20.738000869750977,0.0,20.25719451904297
2017-06-08,20.738000869750977,20.738000869750977,20.738000869750977,20.738000869750977,0.0,20.25719451904297
2017-06-09,20.738000869750977,20.738000869750977,20.738000869750977,20.738000869750977,0.0,20.25719451904297
2017-06-12,20.738000869750977,20.738000869750977,20.738000869750977,20.738000869750977,0.0,20.25719451904297
2017-06-13,20.738000869750977,20.738000869750977,20.738000869750977,20.738000869750977,0.0,20.25719451904297
2017-06-14,20.738000869750977,20.738000869750977,20.738000869750977,20.738000869750977,0.0,20.25719451904297
2017-06-15,20.738000869750977,20.738000869750977,20.738000869750977,20.738000869750977,0.0,20.25719451904297
2017-06-16,20.738000869750977,20.738000869750977,20.738000869750977,20.738000869750977,0.0,20.325803756713867
2017-06-19,20.738000869750977,20.738000869750977,20.738000869750977,20.738000869750977,0.0,20.325803756713867
2017-06-20,21.040000915527344,21.040000915527344,21.040000915527344,21.040000915527344,100.0,20.621801376342773
2017-06-21,21.040000915527344,21.040000915527344,21.040000915527344,21.040000915527344,0.0,20.621801376342773
2017-06-22,21.040000915527344,21.040000915527344,21.040000915527344,21.040000915527344,0.0,20.621801376342773
2017-06-23,21.040000915527344,21.040000915527344,21.040000915527344,21.040000915527344,0.0,20.621801376342773
2017-06-26,21.89699935913086,21.89699935913086,21.89699935913086,21.89699935913086,200.0,21.46176528930664
2017-06-27,22.010000228881836,21.98699951171875,22.010000228881836,21.98699951171875,600.0,21.549976348876953
2017-06-28,21.98699951171875,21.98699951171875,21.98699951171875,21.98699951171875,0.0,21.549976348876953
2017-06-29,21.98699951171875,21.98699951171875,21.98699951171875,21.98699951171875,0.0,21.549976348876953
2017-06-30,21.98699951171875,21.98699951171875,21.98699951171875,21.98699951171875,0.0,21.549976348876953
2017-07-03,21.979999542236328,21.979999542236328,21.979999542236328,21.979999542236328,100.0,21.54311752319336
2017-07-05,21.979999542236328,21.979999542236328,21.979999542236328,21.979999542236328,0.0,21.54311752319336
2017-07-06,21.979999542236328,21.979999542236328,21.979999542236328,21.979999542236328,0.0,21.54311752319336
2017-07-07,21.979999542236328,21.979999542236328,21.979999542236328,21.979999542236328,0.0,21.54311752319336
2017-07-10,21.979999542236328,21.979999542236328,21.979999542236328,21.979999542236328,0.0,21.54311752319336
2017-07-11,21.979999542236328,21.979999542236328,21.979999542236328,21.979999542236328,0.0,21.54311752319336
2017-07-12,22.100000381469727,22.100000381469727,22.100000381469727,22.100000381469727,200.0,21.66073226928711
2017-07-13,22.100000381469727,22.100000381469727,22.100000381469727,22.100000381469727,0.0,21.66073226928711
2017-07-14,22.239999771118164,22.239999771118164,22.239999771118164,22.239999771118164,300.0,21.797948837280273
2017-07-17,21.780000686645508,21.780000686645508,21.780000686645508,21.780000686645508,100.0,21.34709358215332
2017-07-18,21.780000686645508,21.780000686645508,21.780000686645508,21.780000686645508,0.0,21.34709358215332
2017-07-19,21.780000686645508,21.780000686645508,21.780000686645508,21.780000686645508,0.0,21.34709358215332
2017-07-20,21.780000686645508,21.780000686645508,21.780000686645508,21.780000686645508,0.0,21.34709358215332
2017-07-21,21.780000686645508,21.780000686645508,21.780000686645508,21.780000686645508,0.0,21.34709358215332
2017-07-24,21.780000686645508,21.780000686645508,21.780000686645508,21.780000686645508,0.0,21.34709358215332
2017-07-25,22.520000457763672,22.520000457763672,22.520000457763672,22.520000457763672,700.0,22.072383880615234
2017-07-26,22.520000457763672,22.520000457763672,22.520000457763672,22.520000457763672,0.0,22.072383880615234
2017-07-27,22.520000457763672,22.520000457763672,22.520000457763672,22.520000457763672,0.0,22.072383880615234
2017-07-28,22.520000457763672,22.520000457763672,22.520000457763672,22.520000457763672,0.0,22.072383880615234
2017-07-31,22.520000457763672,22.520000457763672,22.520000457763672,22.520000457763672,0.0,22.072383880615234
2017-08-01,22.520000457763672,22.520000457763672,22.520000457763672,22.520000457763672,0.0,22.072383880615234
2017-08-02,22.520000457763672,22.520000457763672,22.520000457763672,22.520000457763672,0.0,22.072383880615234
2017-08-03,22.520000457763672,22.520000457763672,22.520000457763672,22.520000457763672,0.0,22.072383880615234
2017-08-04,22.520000457763672,22.520000457763672,22.520000457763672,22.520000457763672,0.0,22.072383880615234
2017-08-07,22.520000457763672,22.520000457763672,22.520000457763672,22.520000457763672,0.0,22.072383880615234
2017-08-08,22.520000457763672,22.520000457763672,22.520000457763672,22.520000457763672,0.0,22.072383880615234
2017-08-09,22.520000457763672,22.520000457763672,22.520000457763672,22.520000457763672,0.0,22.072383880615234
2017-08-10,22.520000457763672,22.520000457763672,22.520000457763672,22.520000457763672,0.0,22.072383880615234
2017-08-11,22.520000457763672,22.520000457763672,22.520000457763672,22.520000457763672,0.0,22.072383880615234
2017-08-14,22.520000457763672,22.520000457763672,22.520000457763672,22.520000457763672,0.0,22.072383880615234
2017-08-15,22.520000457763672,22.520000457763672,22.520000457763672,22.520000457763672,0.0,22.072383880615234
2017-08-16,22.520000457763672,22.520000457763672,22.520000457763672,22.520000457763672,0.0,22.072383880615234
2017-08-17,22.520000457763672,22.520000457763672,22.520000457763672,22.520000457763672,0.0,22.072383880615234
2017-08-18,22.520000457763672,22.520000457763672,22.520000457763672,22.520000457763672,0.0,22.072383880615234
2017-08-21,22.520000457763672,22.520000457763672,22.520000457763672,22.520000457763672,0.0,22.072383880615234
2017-08-22,22.520000457763672,22.520000457763672,22.520000457763672,22.520000457763672,0.0,22.072383880615234
2017-08-23,22.520000457763672,22.520000457763672,22.520000457763672,22.520000457763672,0.0,22.072383880615234
2017-08-24,22.520000457763672,22.520000457763672,22.520000457763672,22.520000457763672,0.0,22.072383880615234
2017-08-25,22.520000457763672,22.520000457763672,22.520000457763672,22.520000457763672,0.0,22.072383880615234
2017-08-28,22.520000457763672,22.520000457763672,22.520000457763672,22.520000457763672,0.0,22.072383880615234
2017-08-29,22.520000457763672,22.520000457763672,22.520000457763672,22.520000457763672,0.0,22.072383880615234
2017-08-30,22.520000457763672,22.520000457763672,22.520000457763672,22.520000457763672,0.0,22.072383880615234
2017-08-31,22.520000457763672,22.520000457763672,22.520000457763672,22.520000457763672,0.0,22.072383880615234
2017-09-01,22.520000457763672,22.520000457763672,22.520000457763672,22.520000457763672,0.0,22.072383880615234
2017-09-05,22.520000457763672,22.520000457763672,22.520000457763672,22.520000457763672,0.0,22.072383880615234
2017-09-06,22.520000457763672,22.520000457763672,22.520000457763672,22.520000457763672,0.0,22.072383880615234
2017-09-07,22.520000457763672,22.520000457763672,22.520000457763672,22.520000457763672,0.0,22.072383880615234
2017-09-08,24.43000030517578,24.378000259399414,24.43000030517578,24.378000259399414,500.0,23.89345359802246
2017-09-11,24.298999786376953,24.298999786376953,24.298999786376953,24.298999786376953,400.0,23.816022872924805
2017-09-12,24.298999786376953,24.298999786376953,24.298999786376953,24.298999786376953,0.0,23.816022872924805
2017-09-13,24.299999237060547,24.299999237060547,24.299999237060547,24.299999237060547,100.0,23.81700325012207
2017-09-14,24.299999237060547,24.299999237060547,24.299999237060547,24.299999237060547,0.0,23.81700325012207
2017-09-15,24.09000015258789,24.09000015258789,24.09000015258789,24.09000015258789,400.0,23.74505043029785
2017-09-18,24.09000015258789,24.09000015258789,24.09000015258789,24.09000015258789,0.0,23.74505043029785
2017-09-19,24.09000015258789,24.09000015258789,24.09000015258789,24.09000015258789,0.0,23.74505043029785
2017-09-20,24.09000015258789,24.09000015258789,24.09000015258789,24.09000015258789,0.0,23.74505043029785
2017-09-21,24.09000015258789,24.09000015258789,24.09000015258789,24.09000015258789,0.0,23.74505043029785
2017-09-22,23.649999618530273,23.649999618530273,23.649999618530273,23.649999618530273,300.0,23.311349868774414
2017-09-25,23.649999618530273,23.649999618530273,23.649999618530273,23.649999618530273,0.0,23.311349868774414
2017-09-26,23.649999618530273,23.649999618530273,23.649999618530273,23.649999618530273,0.0,23.311349868774414
2017-09-27,23.649999618530273,23.649999618530273,23.649999618530273,23.649999618530273,0.0,23.311349868774414
2017-09-28,23.257999420166016,23.257999420166016,23.257999420166016,23.257999420166016,300.0,22.924962997436523
2017-09-29,23.257999420166016,23.257999420166016,23.257999420166016,23.257999420166016,0.0,22.924962997436523
2017-10-02,23.257999420166016,23.257999420166016,23.257999420166016,23.257999420166016,0.0,22.924962997436523
2017-10-03,23.257999420166016,23.257999420166016,23.257999420166016,23.257999420166016,0.0,22.924962997436523
2017-10-04,24.329999923706055,24.219999313354492,24.219999313354492,24.270000457763672,1400.0,23.92247200012207
2017-10-05,24.280000686645508,23.799999237060547,23.799999237060547,24.280000686645508,5400.0,23.932329177856445
2017-10-06,24.354999542236328,24.139999389648438,24.139999389648438,24.290000915527344,800.0,23.94218635559082
2017-10-09,24.209999084472656,24.1299991607666,24.209999084472656,24.1299991607666,2900.0,23.784475326538086
2017-10-10,24.25,24.211999893188477,24.239999771118164,24.25,1500.0,23.90275764465332
2017-10-11,24.299999237060547,24.100000381469727,24.299999237060547,24.290000915527344,900.0,23.94218635559082
2017-10-12,24.375999450683594,24.31999969482422,24.3700008392334,24.31999969482422,1500.0,23.971755981445312
2017-10-13,24.309999465942383,24.309999465942383,24.309999465942383,24.309999465942383,200.0,23.961898803710938
2017-10-16,24.3700008392334,24.229999542236328,24.31999969482422,24.229999542236328,3600.0,23.883045196533203
2017-10-17,23.959999084472656,23.950000762939453,23.950000762939453,23.959999084472656,300.0,23.616910934448242
2017-10-18,23.850000381469727,23.850000381469727,23.850000381469727,23.850000381469727,600.0,23.508485794067383
2017-10-19,23.690000534057617,23.68000030517578,23.68000030517578,23.690000534057617,600.0,23.350778579711914
2017-10-20,23.84000015258789,23.84000015258789,23.84000015258789,23.84000015258789,200.0,23.498628616333008
2017-10-23,23.709999084472656,23.709999084472656,23.709999084472656,23.709999084472656,200.0,23.3704891204834
2017-10-24,23.809999465942383,23.790000915527344,23.790000915527344,23.809999465942383,700.0,23.469058990478516
2017-10-25,23.979999542236328,23.940000534057617,23.940000534057617,23.979999542236328,500.0,23.63662338256836
2017-10-26,24.030000686645508,24.020000457763672,24.030000686645508,24.020000457763672,500.0,23.67605209350586
2017-10-27,24.290000915527344,24.239999771118164,24.290000915527344,24.239999771118164,700.0,23.892900466918945
2017-10-30,24.059999465942383,23.889999389648438,24.049999237060547,23.989999771118164,3200.0,23.646480560302734
2017-10-31,23.920000076293945,23.889999389648438,23.889999389648438,23.920000076293945,900.0,23.577484130859375
2017-11-01,24.06999969482422,24.0,24.045000076293945,24.0,10200.0,23.65633773803711
2017-11-02,24.059999465942383,24.059999465942383,24.059999465942383,24.059999465942383,300.0,23.715478897094727
2017-11-03,23.8700008392334,23.8700008392334,23.8700008392334,23.8700008392334,100.0,23.528200149536133
2017-11-06,23.8700008392334,23.8700008392334,23.8700008392334,23.8700008392334,0.0,23.528200149536133
2017-11-07,23.8700008392334,23.8700008392334,23.8700008392334,23.8700008392334,0.0,23.528200149536133
2017-11-08,24.1299991607666,24.059999465942383,24.1299991607666,24.06999969482422,4900.0,23.7253360748291
2017-11-09,24.18000030517578,24.18000030517578,24.18000030517578,24.18000030517578,200.0,23.83376121520996
2017-11-10,24.459999084472656,24.299999237060547,24.459999084472656,24.299999237060547,800.0,23.952041625976562
2017-11-13,24.54599952697754,24.489999771118164,24.54599952697754,24.489999771118164,800.0,24.13932228088379
2017-11-14,24.389999389648438,24.389999389648438,24.389999389648438,24.389999389648438,100.0,24.040752410888672
2017-11-15,24.389999389648438,24.389999389648438,24.389999389648438,24.389999389648438,0.0,24.040752410888672
2017-11-16,24.25,24.19700050354004,24.200000762939453,24.25,5400.0,23.90275764465332
2017-11-17,24.219999313354492,24.079999923706055,24.219999313354492,24.079999923706055,5000.0,23.735193252563477
2017-11-20,24.100000381469727,23.93000030517578,23.989999771118164,24.030000686645508,5300.0,23.685909271240234
2017-11-21,24.799999237060547,24.489999771118164,24.549999237060547,24.520000457763672,16100.0,24.16889190673828
2017-11-22,24.6299991607666,24.440000534057617,24.549999237060547,24.6299991607666,5900.0,24.27731704711914
2017-11-24,24.097999572753906,24.079999923706055,24.079999923706055,24.097999572753906,700.0,23.7529354095459
2017-11-27,23.739999771118164,23.68000030517578,23.739999771118164,23.68000030517578,700.0,23.34092140197754
2017-11-28,24.0,23.799999237060547,23.809999465942383,23.899999618530273,4100.0,23.557769775390625
2017-11-29,23.84000015258789,23.790000915527344,23.84000015258789,23.790000915527344,600.0,23.4493465423584
2017-11-30,23.760000228881836,23.75,23.760000228881836,23.75,400.0,23.4099178314209
2017-12-01,23.549999237060547,23.40999984741211,23.469999313354492,23.5,9300.0,23.163497924804688
2017-12-04,24.139999389648438,23.559999465942383,23.6200008392334,23.649999618530273,33200.0,23.311349868774414
2017-12-05,23.670000076293945,23.59000015258789,23.670000076293945,23.59000015258789,5600.0,23.252208709716797
2017-12-06,23.3700008392334,23.3700008392334,23.3700008392334,23.3700008392334,300.0,23.03536033630371
2017-12-07,23.200000762939453,22.981000900268555,23.06999969482422,23.170000076293945,4800.0,22.83822250366211
2017-12-08,23.809999465942383,23.31999969482422,23.809999465942383,23.530000686645508,6600.0,23.193069458007812
2017-12-11,24.049999237060547,23.8799991607666,23.959999084472656,23.950000762939453,7400.0,23.6070556640625
2017-12-12,23.649999618530273,23.649999618530273,23.649999618530273,23.649999618530273,200.0,23.311349868774414
2017-12-13,24.100000381469727,23.920000076293945,23.920000076293945,24.100000381469727,4300.0,23.754907608032227
2017-12-14,23.959999084472656,23.860000610351562,23.860000610351562,23.920000076293945,1300.0,23.577484130859375
2017-12-15,23.850000381469727,23.690000534057617,23.84000015258789,23.790000915527344,3600.0,23.4493465423584
2017-12-18,23.68000030517578,23.579999923706055,23.65999984741211,23.579999923706055,2900.0,23.242351531982422
2017-12-19,24.066999435424805,23.566999435424805,23.610000610351562,23.760000228881836,16700.0,23.419775009155273
2017-12-20,24.43000030517578,23.829999923706055,23.84000015258789,23.829999923706055,9300.0,23.488773345947266
2017-12-21,24.15999984741211,23.8799991607666,24.15999984741211,23.969999313354492,31900.0,23.626766204833984
2017-12-22,24.020000457763672,23.799999237060547,23.899999618530273,24.0,27200.0,23.65633773803711
2017-12-26,23.860000610351562,23.860000610351562,23.860000610351562,23.860000610351562,300.0,23.518342971801758
2017-12-27,23.860000610351562,23.75,23.860000610351562,23.75,3500.0,23.4099178314209
2017-12-28,23.790000915527344,23.68000030517578,23.68000030517578,23.760000228881836,11300.0,23.419775009155273
2017-12-29,23.920000076293945,23.8799991607666,23.90999984741211,23.920000076293945,4100.0,23.577484130859375
2018-01-02,24.56999969482422,24.420000076293945,24.420000076293945,24.56999969482422,400.0,24.218175888061523
2018-01-03,24.8700008392334,24.68000030517578,24.68000030517578,24.8700008392334,5500.0,24.51388168334961
2018-01-04,24.860000610351562,24.860000610351562,24.860000610351562,24.860000610351562,100.0,24.504024505615234
2018-01-05,24.959999084472656,24.860000610351562,24.950000762939453,24.91200065612793,2100.0,24.555278778076172
2018-01-08,25.009000778198242,24.969999313354492,25.009000778198242,24.969999313354492,500.0,24.61244773864746
2018-01-09,24.850000381469727,24.850000381469727,24.850000381469727,24.850000381469727,200.0,24.49416732788086
2018-01-10,25.139999389648438,24.850000381469727,25.139999389648438,24.850000381469727,500.0,24.49416732788086
2018-01-11,25.030000686645508,24.895000457763672,24.899999618530273,25.030000686645508,2700.0,24.67159080505371
2018-01-12,25.3700008392334,25.260000228881836,25.260000228881836,25.3700008392334,1000.0,25.00672149658203
2018-01-16,25.489999771118164,25.260000228881836,25.450000762939453,25.260000228881836,4400.0,24.898296356201172
2018-01-17,25.350000381469727,25.350000381469727,25.350000381469727,25.350000381469727,200.0,24.98700714111328
2018-01-18,25.34000015258789,25.079999923706055,25.309999465942383,25.329999923706055,17700.0,24.96729278564453
2018-01-19,25.530000686645508,25.31999969482422,25.420000076293945,25.510000228881836,26000.0,25.144716262817383
2018-01-22,25.690000534057617,25.690000534057617,25.690000534057617,25.690000534057617,300.0,25.322139739990234
2018-01-23,26.020000457763672,25.979000091552734,26.0,26.010000228881836,900.0,25.637556076049805
2018-01-24,26.1200008392334,26.09000015258789,26.09000015258789,26.1200008392334,300.0,25.745983123779297
2018-01-25,25.979999542236328,25.770000457763672,25.770000457763672,25.979999542236328,16300.0,25.607986450195312
2018-01-26,26.6200008392334,25.5,26.610000610351562,26.299999237060547,24800.0,25.923402786254883
2018-01-29,25.950000762939453,25.56999969482422,25.950000762939453,25.6200008392334,4300.0,25.253141403198242
2018-01-30,25.489999771118164,25.43000030517578,25.450000762939453,25.479999542236328,5400.0,25.115144729614258
2018-01-31,25.770000457763672,25.735000610351562,25.770000457763672,25.735000610351562,700.0,25.36649513244629
2018-02-01,25.280000686645508,25.18000030517578,25.280000686645508,25.190000534057617,3500.0,24.82929801940918
2018-02-02,24.920000076293945,24.854999542236328,24.90999984741211,24.860000610351562,2300.0,24.504024505615234
2018-02-05,24.860000610351562,24.860000610351562,24.860000610351562,24.860000610351562,0.0,24.504024505615234
2018-02-06,24.549999237060547,24.549999237060547,24.549999237060547,24.549999237060547,400.0,24.198461532592773
2018-02-07,23.850000381469727,23.559999465942383,23.760000228881836,23.559999465942383,9200.0,23.222639083862305
2018-02-08,23.170000076293945,23.170000076293945,23.170000076293945,23.170000076293945,200.0,22.83822250366211
2018-02-09,23.170000076293945,23.170000076293945,23.170000076293945,23.170000076293945,0.0,22.83822250366211
2018-02-12,23.1299991607666,22.799999237060547,22.899999618530273,23.1299991607666,2500.0,22.798795700073242
2018-02-13,23.399999618530273,23.299999237060547,23.349000930786133,23.399999618530273,800.0,23.064929962158203
2018-02-14,23.399999618530273,23.399999618530273,23.399999618530273,23.399999618530273,0.0,23.064929962158203
2018-02-15,23.399999618530273,23.399999618530273,23.399999618530273,23.399999618530273,0.0,23.064929962158203
2018-02-16,24.059999465942383,23.969999313354492,24.030000686645508,24.059999465942383,900.0,23.715478897094727
2018-02-20,23.690000534057617,23.690000534057617,23.690000534057617,23.690000534057617,200.0,23.350778579711914
2018-02-21,23.690000534057617,23.690000534057617,23.690000534057617,23.690000534057617,0.0,23.350778579711914
2018-02-22,24.100000381469727,23.989999771118164,24.100000381469727,23.989999771118164,700.0,23.646480560302734
2018-02-23,24.106000900268555,23.9950008392334,23.9950008392334,24.106000900268555,200.0,23.760820388793945
2018-02-26,24.719999313354492,24.440000534057617,24.440000534057617,24.719999313354492,400.0,24.36602783203125
2018-02-27,24.719999313354492,24.719999313354492,24.719999313354492,24.719999313354492,0.0,24.36602783203125
2018-02-28,24.719999313354492,24.719999313354492,24.719999313354492,24.719999313354492,0.0,24.36602783203125
2018-03-01,23.920000076293945,23.920000076293945,23.920000076293945,23.920000076293945,200.0,23.577484130859375
2018-03-02,23.920000076293945,23.920000076293945,23.920000076293945,23.920000076293945,0.0,23.577484130859375
2018-03-05,24.170000076293945,24.0,24.0,24.170000076293945,500.0,23.823904037475586
2018-03-06,24.510000228881836,24.510000228881836,24.510000228881836,24.510000228881836,100.0,24.159034729003906
2018-03-07,24.389999389648438,24.260000228881836,24.260000228881836,24.389999389648438,600.0,24.040752410888672
2018-03-08,24.389999389648438,24.389999389648438,24.389999389648438,24.389999389648438,0.0,24.040752410888672
2018-03-09,24.867000579833984,24.867000579833984,24.867000579833984,24.867000579833984,200.0,24.510923385620117
2018-03-12,24.8799991607666,24.770000457763672,24.770000457763672,24.8799991607666,200.0,24.52373695373535
2018-03-13,24.8799991607666,24.8799991607666,24.8799991607666,24.8799991607666,0.0,24.52373695373535
2018-03-14,24.8799991607666,24.8799991607666,24.8799991607666,24.8799991607666,0.0,24.52373695373535
2018-03-15,24.59000015258789,24.59000015258789,24.59000015258789,24.59000015258789,200.0,24.237890243530273
2018-03-16,24.5,24.489999771118164,24.489999771118164,24.5,400.0,24.149179458618164
2018-03-19,24.3799991607666,24.3799991607666,24.3799991607666,24.3799991607666,200.0,24.030895233154297
2018-03-20,24.3799991607666,24.3799991607666,24.3799991607666,24.3799991607666,0.0,24.030895233154297
2018-03-21,24.329999923706055,24.329999923706055,24.329999923706055,24.329999923706055,200.0,23.981613159179688
2018-03-22,23.83799934387207,23.83799934387207,23.83799934387207,23.83799934387207,300.0,23.49665641784668
2018-03-23,23.83799934387207,23.15999984741211,23.83799934387207,23.15999984741211,14000.0,22.828365325927734
2018-03-26,23.59000015258789,23.260000228881836,23.290000915527344,23.59000015258789,15600.0,23.252208709716797
2018-03-27,23.520000457763672,23.520000457763672,23.520000457763672,23.520000457763672,200.0,23.183212280273438
2018-03-28,23.290000915527344,23.290000915527344,23.290000915527344,23.290000915527344,200.0,22.956506729125977
2018-03-29,23.290000915527344,23.290000915527344,23.290000915527344,23.290000915527344,0.0,22.956506729125977
2018-04-02,23.290000915527344,23.290000915527344,23.290000915527344,23.290000915527344,0.0,22.956506729125977
2018-04-03,23.899999618530273,23.899999618530273,23.899999618530273,23.899999618530273,200.0,23.557769775390625
2018-04-04,23.899999618530273,23.808000564575195,23.808000564575195,23.899999618530273,300.0,23.557769775390625
2018-04-05,23.899999618530273,23.899999618530273,23.899999618530273,23.899999618530273,0.0,23.557769775390625
2018-04-06,23.459999084472656,23.459999084472656,23.459999084472656,23.459999084472656,200.0,23.124069213867188
2018-04-09,23.68000030517578,23.510000228881836,23.68000030517578,23.510000228881836,2600.0,23.173355102539062
2018-04-10,24.059999465942383,23.920000076293945,23.920000076293945,24.059999465942383,300.0,23.715478897094727
2018-04-11,24.059999465942383,24.059999465942383,24.059999465942383,24.059999465942383,0.0,23.715478897094727
2018-04-12,24.059999465942383,24.059999465942383,24.059999465942383,24.059999465942383,0.0,23.715478897094727
2018-04-13,24.059999465942383,24.059999465942383,24.059999465942383,24.059999465942383,0.0,23.715478897094727
2018-04-16,23.3799991607666,23.360000610351562,23.3799991607666,23.360000610351562,900.0,23.025503158569336
2018-04-17,23.42099952697754,23.420000076293945,23.42099952697754,23.420000076293945,300.0,23.084644317626953
2018-04-18,23.420000076293945,23.420000076293945,23.420000076293945,23.420000076293945,0.0,23.084644317626953
2018-04-19,23.309999465942383,23.309999465942383,23.309999465942383,23.309999465942383,200.0,22.97621726989746
2018-04-20,23.040000915527344,22.860000610351562,23.040000915527344,22.889999389648438,6800.0,22.562231063842773
2018-04-23,22.760000228881836,22.760000228881836,22.760000228881836,22.760000228881836,200.0,22.434093475341797
2018-04-24,23.190000534057617,23.110000610351562,23.1299991607666,23.190000534057617,400.0,22.85793685913086
2018-04-25,23.190000534057617,23.190000534057617,23.190000534057617,23.190000534057617,0.0,22.85793685913086
2018-04-26,23.190000534057617,23.190000534057617,23.190000534057617,23.190000534057617,0.0,22.85793685913086
2018-04-27,23.190000534057617,23.190000534057617,23.190000534057617,23.190000534057617,0.0,22.85793685913086
2018-04-30,22.829999923706055,22.829999923706055,22.829999923706055,22.829999923706055,200.0,22.50309181213379
2018-05-01,22.75,22.75,22.75,22.75,200.0,22.424238204956055
2018-05-02,22.549999237060547,22.549999237060547,22.549999237060547,22.549999237060547,100.0,22.227100372314453
2018-05-03,22.610000610351562,22.610000610351562,22.610000610351562,22.610000610351562,100.0,22.286243438720703
2018-05-04,22.850000381469727,22.760000228881836,22.774999618530273,22.829999923706055,1600.0,22.50309181213379
2018-05-07,23.110000610351562,23.073999404907227,23.09000015258789,23.110000610351562,500.0,22.779083251953125
2018-05-08,23.110000610351562,23.110000610351562,23.110000610351562,23.110000610351562,0.0,22.779083251953125
2018-05-09,23.110000610351562,23.110000610351562,23.110000610351562,23.110000610351562,0.0,22.779083251953125
2018-05-10,23.799999237060547,23.459999084472656,23.799999237060547,23.5,3000.0,23.163497924804688
2018-05-11,23.520000457763672,23.520000457763672,23.520000457763672,23.520000457763672,200.0,23.183212280273438
2018-05-14,23.729999542236328,23.729999542236328,23.729999542236328,23.729999542236328,200.0,23.39020347595215
2018-05-15,23.479999542236328,23.479999542236328,23.479999542236328,23.479999542236328,700.0,23.143783569335938
2018-05-16,23.6299991607666,23.6299991607666,23.6299991607666,23.6299991607666,100.0,23.291635513305664
2018-05-17,23.520000457763672,23.347000122070312,23.520000457763672,23.347000122070312,400.0,23.0126895904541
2018-05-18,23.347000122070312,23.347000122070312,23.347000122070312,23.347000122070312,0.0,23.0126895904541
2018-05-21,23.809999465942383,23.663000106811523,23.709999084472656,23.663000106811523,1300.0,23.32416343688965
2018-05-22,23.6200008392334,23.6200008392334,23.6200008392334,23.6200008392334,200.0,23.281780242919922
2018-05-23,23.283000946044922,23.283000946044922,23.283000946044922,23.283000946044922,500.0,22.94960594177246
2018-05-24,23.250999450683594,23.250999450683594,23.250999450683594,23.250999450683594,400.0,22.918062210083008
2018-05-25,23.250999450683594,23.250999450683594,23.250999450683594,23.250999450683594,0.0,22.918062210083008
2018-05-29,23.024999618530273,22.75,23.010000228881836,22.75,2800.0,22.424238204956055
2018-05-30,22.610000610351562,22.600000381469727,22.610000610351562,22.600000381469727,500.0,22.276386260986328
2018-05-31,22.850000381469727,22.700000762939453,22.729999542236328,22.850000381469727,3800.0,22.52280616760254
2018-06-01,22.8799991607666,22.729999542236328,22.8799991607666,22.750999450683594,1700.0,22.425222396850586
2018-06-04,22.790000915527344,22.790000915527344,22.790000915527344,22.790000915527344,400.0,22.463665008544922
2018-06-05,22.729999542236328,22.729999542236328,22.729999542236328,22.729999542236328,400.0,22.404523849487305
2018-06-06,23.09000015258789,23.09000015258789,23.09000015258789,23.09000015258789,300.0,22.759368896484375
2018-06-07,22.899999618530273,22.889999389648438,22.899999618530273,22.889999389648438,500.0,22.562231063842773
2018-06-08,22.719999313354492,22.6299991607666,22.719999313354492,22.6299991607666,400.0,22.305953979492188
2018-06-11,22.649999618530273,22.649999618530273,22.649999618530273,22.649999618530273,200.0,22.325668334960938
2018-06-12,22.649999618530273,22.649999618530273,22.649999618530273,22.649999618530273,1000.0,22.325668334960938
2018-06-13,22.59000015258789,22.540000915527344,22.59000015258789,22.540000915527344,400.0,22.21724510192871
2018-06-14,22.479999542236328,22.479999542236328,22.479999542236328,22.479999542236328,200.0,22.158103942871094
2018-06-15,22.170000076293945,22.079999923706055,22.170000076293945,22.149999618530273,2700.0,21.832828521728516
2018-06-18,21.71500015258789,21.71500015258789,21.71500015258789,21.71500015258789,300.0,21.4040584564209
2018-06-19,21.110000610351562,21.0,21.010000228881836,21.0,5800.0,20.699295043945312
2018-06-20,20.809999465942383,20.790000915527344,20.790000915527344,20.809999465942383,1300.0,20.51201629638672
2018-06-21,20.700000762939453,20.56999969482422,20.700000762939453,20.56999969482422,200.0,20.275453567504883
2018-06-22,20.84000015258789,20.645999908447266,20.65999984741211,20.84000015258789,21800.0,20.541587829589844
2018-06-25,20.5,20.280000686645508,20.280000686645508,20.420000076293945,800.0,20.127601623535156
2018-06-26,20.273000717163086,20.273000717163086,20.273000717163086,20.273000717163086,400.0,19.98270606994629
2018-06-27,19.719999313354492,19.690000534057617,19.719999313354492,19.690000534057617,600.0,19.40805435180664
2018-06-28,19.8799991607666,19.790000915527344,19.8799991607666,19.8799991607666,8900.0,19.595333099365234
2018-06-29,20.15999984741211,20.135000228881836,20.135000228881836,20.15999984741211,400.0,19.87132453918457
2018-07-02,19.513999938964844,19.513999938964844,19.513999938964844,19.513999938964844,300.0,19.234573364257812
2018-07-03,19.513999938964844,19.513999938964844,19.513999938964844,19.513999938964844,0.0,19.234573364257812
2018-07-05,19.520000457763672,19.350000381469727,19.520000457763672,19.350000381469727,700.0,19.07292366027832
2018-07-06,19.40999984741211,19.264999389648438,19.264999389648438,19.40999984741211,1400.0,19.132062911987305
2018-07-09,20.010000228881836,19.884000778198242,19.93600082397461,20.010000228881836,1500.0,19.723472595214844
2018-07-10,20.040000915527344,19.8799991607666,20.030000686645508,20.040000915527344,76500.0,19.75304412841797
2018-07-11,20.040000915527344,20.040000915527344,20.040000915527344,20.040000915527344,0.0,19.75304412841797
2018-07-12,20.020000457763672,20.010000228881836,20.010000228881836,20.020000457763672,300.0,19.73332977294922
2018-07-13,20.139999389648438,19.992000579833984,20.139999389648438,19.992000579833984,1000.0,19.705730438232422
2018-07-16,19.950000762939453,19.899999618530273,19.950000762939453,19.899999618530273,700.0,19.615047454833984
2018-07-17,19.80299949645996,19.80299949645996,19.80299949645996,19.80299949645996,500.0,19.51943588256836
2018-07-18,19.709999084472656,19.65999984741211,19.65999984741211,19.709999084472656,300.0,19.427766799926758
2018-07-19,19.489999771118164,19.469999313354492,19.469999313354492,19.489999771118164,500.0,19.210918426513672
2018-07-20,19.489999771118164,19.489999771118164,19.489999771118164,19.489999771118164,0.0,19.210918426513672
2018-07-23,19.489999771118164,19.489999771118164,19.489999771118164,19.489999771118164,0.0,19.210918426513672
2018-07-24,20.413000106811523,20.170000076293945,20.170000076293945,20.413000106811523,400.0,20.12070083618164
2018-07-25,20.43600082397461,20.43600082397461,20.43600082397461,20.43600082397461,100.0,20.143373489379883
2018-07-26,20.43600082397461,20.43600082397461,20.43600082397461,20.43600082397461,0.0,20.143373489379883
2018-07-27,20.09000015258789,20.0,20.079999923706055,20.0,2100.0,19.71361541748047
2018-07-30,19.959999084472656,19.670000076293945,19.670000076293945,19.90999984741211,2500.0,19.62490463256836
2018-07-31,19.90999984741211,19.90999984741211,19.90999984741211,19.90999984741211,0.0,19.62490463256836
2018-08-01,19.90999984741211,19.90999984741211,19.90999984741211,19.90999984741211,0.0,19.62490463256836
2018-08-02,19.030000686645508,18.948999404907227,19.010000228881836,19.024999618530273,6000.0,18.75257682800293
2018-08-03,18.760000228881836,18.760000228881836,18.760000228881836,18.760000228881836,200.0,18.491371154785156
2018-08-06,18.479999542236328,18.3799991607666,18.479999542236328,18.3799991607666,800.0,18.116811752319336
2018-08-07,19.020000457763672,18.979999542236328,18.979999542236328,19.020000457763672,300.0,18.747648239135742
2018-08-08,18.658000946044922,18.648000717163086,18.648000717163086,18.658000946044922,700.0,18.390832901000977
2018-08-09,19.1299991607666,19.1299991607666,19.1299991607666,19.1299991607666,100.0,18.85607147216797
2018-08-10,18.979999542236328,18.969999313354492,18.979999542236328,18.969999313354492,500.0,18.6983642578125
2018-08-13,19.0,19.0,19.0,19.0,200.0,18.727933883666992
2018-08-14,18.910999298095703,18.860000610351562,18.860000610351562,18.910999298095703,1300.0,18.640207290649414
2018-08-15,18.190000534057617,18.107999801635742,18.138999938964844,18.190000534057617,3500.0,17.929533004760742
2018-08-16,18.950000762939453,18.43000030517578,18.469999313354492,18.43000030517578,2900.0,18.16609764099121
2018-08-17,18.530000686645508,17.850000381469727,18.1200008392334,18.530000686645508,4000.0,18.264665603637695
2018-08-20,18.510000228881836,18.40999984741211,18.510000228881836,18.40999984741211,400.0,18.14638328552246
2018-08-21,18.690000534057617,18.690000534057617,18.690000534057617,18.690000534057617,100.0,18.422374725341797
2018-08-22,18.690000534057617,18.540000915527344,18.690000534057617,18.540000915527344,1700.0,18.27452278137207
2018-08-23,19.549999237060547,18.3700008392334,18.3700008392334,18.399999618530273,12900.0,18.136526107788086
2018-08-24,18.899999618530273,18.739999771118164,18.799999237060547,18.790000915527344,12500.0,18.52094268798828
2018-08-27,19.36199951171875,19.200000762939453,19.200000762939453,19.25,1600.0,18.974353790283203
2018-08-28,19.18000030517578,19.1200008392334,19.18000030517578,19.1200008392334,1200.0,18.846216201782227
2018-08-29,19.114999771118164,19.06999969482422,19.114999771118164,19.06999969482422,800.0,18.796932220458984
2018-08-30,18.709999084472656,18.56999969482422,18.709999084472656,18.56999969482422,500.0,18.30409049987793
2018-08-31,18.56999969482422,18.56999969482422,18.56999969482422,18.56999969482422,0.0,18.30409049987793
2018-09-04,18.64699935913086,18.59000015258789,18.618999481201172,18.59000015258789,1900.0,18.32380485534668
2018-09-05,18.59000015258789,18.59000015258789,18.59000015258789,18.59000015258789,0.0,18.32380485534668
2018-09-06,18.59000015258789,18.59000015258789,18.59000015258789,18.59000015258789,0.0,18.32380485534668
2018-09-07,18.36400032043457,18.149999618530273,18.36400032043457,18.149999618530273,400.0,17.890106201171875
2018-09-10,18.097000122070312,18.0,18.097000122070312,18.0,600.0,17.74225425720215
2018-09-11,17.799999237060547,17.73900032043457,17.799999237060547,17.73900032043457,600.0,17.4849910736084
2018-09-12,18.09000015258789,18.020000457763672,18.049999237060547,18.09000015258789,50900.0,17.830965042114258
2018-09-13,18.18400001525879,18.15999984741211,18.15999984741211,18.15999984741211,800.0,17.89996337890625
2018-09-14,18.059999465942383,17.860000610351562,18.059999465942383,17.860000610351562,1400.0,17.604259490966797
2018-09-17,17.760000228881836,17.760000228881836,17.760000228881836,17.760000228881836,300.0,17.50568962097168
2018-09-18,18.198999404907227,18.190000534057617,18.198999404907227,18.190000534057617,400.0,17.929533004760742
2018-09-19,18.56999969482422,18.469999313354492,18.520000457763672,18.469999313354492,6000.0,18.205522537231445
2018-09-20,18.639999389648438,18.489999771118164,18.639999389648438,18.56999969482422,3400.0,18.30409049987793
2018-09-21,18.889999389648438,18.850000381469727,18.8799991607666,18.850000381469727,6200.0,18.580081939697266
2018-09-24,18.600000381469727,18.600000381469727,18.600000381469727,18.600000381469727,100.0,18.333662033081055
2018-09-25,18.660999298095703,18.61400032043457,18.61400032043457,18.660999298095703,300.0,18.393787384033203
2018-09-26,18.959999084472656,18.920000076293945,18.959999084472656,18.920000076293945,400.0,18.649080276489258
2018-09-27,18.81999969482422,18.719999313354492,18.81999969482422,18.719999313354492,800.0,18.451942443847656
2018-09-28,18.719999313354492,18.719999313354492,18.719999313354492,18.719999313354492,0.0,18.451942443847656
2018-10-01,18.719999313354492,18.719999313354492,18.719999313354492,18.719999313354492,0.0,18.451942443847656
2018-10-02,18.719999313354492,18.719999313354492,18.719999313354492,18.719999313354492,0.0,18.451942443847656
2018-10-03,19.040000915527344,18.5,19.040000915527344,18.5,2800.0,18.23509407043457
2018-10-04,18.5,18.5,18.5,18.5,0.0,18.23509407043457
2018-10-05,18.1299991607666,18.090999603271484,18.1299991607666,18.099000930786133,1000.0,17.83983612060547
2018-10-08,18.099000930786133,18.099000930786133,18.099000930786133,18.099000930786133,0.0,17.83983612060547
2018-10-09,17.8799991607666,17.84000015258789,17.8799991607666,17.8799991607666,700.0,17.623971939086914
2018-10-10,17.760000228881836,17.530000686645508,17.59000015258789,17.530000686645508,11700.0,17.27898406982422
2018-10-11,17.219999313354492,17.209999084472656,17.219999313354492,17.209999084472656,700.0,16.963565826416016
2018-10-12,17.209999084472656,17.06399917602539,17.10300064086914,17.200000762939453,2000.0,16.953710556030273
2018-10-15,17.059999465942383,16.940000534057617,17.059999465942383,16.950000762939453,600.0,16.70728874206543
2018-10-16,16.96500015258789,16.90999984741211,16.90999984741211,16.93000030517578,800.0,16.687576293945312
2018-10-17,16.809999465942383,16.559999465942383,16.809999465942383,16.559999465942383,500.0,16.322872161865234
2018-10-18,16.281999588012695,16.1200008392334,16.25,16.1200008392334,1400.0,15.889174461364746
2018-10-19,16.780000686645508,16.56999969482422,16.729999542236328,16.56999969482422,1200.0,16.33272933959961
2018-10-22,17.43000030517578,17.360000610351562,17.399999618530273,17.43000030517578,3600.0,17.180416107177734
2018-10-23,17.1299991607666,17.1299991607666,17.1299991607666,17.1299991607666,200.0,16.88471031188965
2018-10-24,16.850000381469727,16.850000381469727,16.850000381469727,16.850000381469727,300.0,16.608720779418945
2018-10-25,17.3700008392334,17.139999389648438,17.25,17.3700008392334,7900.0,17.121274948120117
2018-10-26,17.229999542236328,17.030000686645508,17.200000762939453,17.100000381469727,3000.0,16.855140686035156
2018-10-29,16.809999465942383,16.5049991607666,16.809999465942383,16.5049991607666,300.0,16.268659591674805
2018-10-30,16.5049991607666,16.5049991607666,16.5049991607666,16.5049991607666,100.0,16.268659591674805
2018-10-31,17.139999389648438,17.139999389648438,17.139999389648438,17.139999389648438,100.0,16.894567489624023
2018-11-01,17.790000915527344,17.690000534057617,17.690000534057617,17.790000915527344,600.0,17.535261154174805
2018-11-02,17.790000915527344,17.790000915527344,17.790000915527344,17.790000915527344,0.0,17.535261154174805
2018-11-05,17.8700008392334,17.8700008392334,17.8700008392334,17.8700008392334,100.0,17.614116668701172
2018-11-06,17.8700008392334,17.8700008392334,17.8700008392334,17.8700008392334,0.0,17.614116668701172
2018-11-07,17.8700008392334,17.8700008392334,17.8700008392334,17.8700008392334,0.0,17.614116668701172
2018-11-08,17.8700008392334,17.8700008392334,17.8700008392334,17.8700008392334,0.0,17.614116668701172
2018-11-09,17.299999237060547,17.09000015258789,17.299999237060547,17.09000015258789,700.0,16.84528350830078
2018-11-12,17.219999313354492,17.170000076293945,17.219999313354492,17.170000076293945,600.0,16.92413902282715
2018-11-13,17.739999771118164,17.639999389648438,17.639999389648438,17.739999771118164,500.0,17.485977172851562
2018-11-14,17.59000015258789,17.59000015258789,17.59000015258789,17.59000015258789,300.0,17.338125228881836
2018-11-15,17.59000015258789,17.59000015258789,17.59000015258789,17.59000015258789,100.0,17.338125228881836
2018-11-16,18.156999588012695,18.049999237060547,18.049999237060547,18.1299991607666,400.0,17.870391845703125
2018-11-19,18.184999465942383,18.184999465942383,18.184999465942383,18.184999465942383,200.0,17.924604415893555
2018-11-20,18.184999465942383,18.184999465942383,18.184999465942383,18.184999465942383,0.0,17.924604415893555
2018-11-21,17.860000610351562,17.860000610351562,17.860000610351562,17.860000610351562,200.0,17.604259490966797
2018-11-23,17.350000381469727,17.299999237060547,17.350000381469727,17.299999237060547,300.0,17.052276611328125
2018-11-26,17.299999237060547,17.299999237060547,17.299999237060547,17.299999237060547,0.0,17.052276611328125
2018-11-27,17.270000457763672,17.270000457763672,17.270000457763672,17.270000457763672,200.0,17.022706985473633
2018-11-28,17.590999603271484,17.559999465942383,17.559999465942383,17.590999603271484,800.0,17.339109420776367
2018-11-29,17.590999603271484,17.590999603271484,17.590999603271484,17.590999603271484,100.0,17.339109420776367
2018-11-30,17.489999771118164,17.489999771118164,17.489999771118164,17.489999771118164,500.0,17.23955535888672
2018-12-03,18.09000015258789,18.059999465942383,18.06100082397461,18.09000015258789,400.0,17.830965042114258
2018-12-04,17.93000030517578,17.93000030517578,17.93000030517578,17.93000030517578,300.0,17.673255920410156
2018-12-06,17.93000030517578,17.93000030517578,17.93000030517578,17.93000030517578,100.0,17.673255920410156
2018-12-07,17.649999618530273,17.489999771118164,17.56999969482422,17.489999771118164,800.0,17.23955535888672
2018-12-10,17.450000762939453,17.290000915527344,17.450000762939453,17.399999618530273,900.0,17.15084457397461
2018-12-11,17.670000076293945,17.472000122070312,17.472000122070312,17.610000610351562,4400.0,17.357839584350586
2018-12-12,17.64900016784668,17.645999908447266,17.645999908447266,17.64900016784668,400.0,17.39628028869629
2018-12-13,17.834999084472656,17.719999313354492,17.729999542236328,17.834999084472656,700.0,17.579614639282227
2018-12-14,17.834999084472656,17.834999084472656,17.834999084472656,17.834999084472656,0.0,17.579614639282227
2018-12-17,17.290000915527344,17.290000915527344,17.290000915527344,17.290000915527344,200.0,17.042421340942383
2018-12-18,17.350000381469727,17.299999237060547,17.299999237060547,17.350000381469727,500.0,17.101560592651367
2018-12-19,17.011999130249023,17.0,17.0,17.011999130249023,100.0,16.768400192260742
2018-12-20,17.040000915527344,16.989999771118164,16.989999771118164,17.040000915527344,400.0,16.796001434326172
2018-12-21,16.75,16.549999237060547,16.75,16.549999237060547,1300.0,16.549999237060547
2018-12-24,16.6299991607666,16.489999771118164,16.489999771118164,16.527000427246094,1400.0,16.527000427246094
2018-12-26,16.709999084472656,16.709999084472656,16.709999084472656,16.709999084472656,200.0,16.709999084472656
2018-12-27,16.530000686645508,16.458999633789062,16.530000686645508,16.524999618530273,400.0,16.524999618530273
2018-12-28,16.670000076293945,16.600000381469727,16.600000381469727,16.621000289916992,2800.0,16.621000289916992
2018-12-31,16.604999542236328,16.54800033569336,16.604999542236328,16.54800033569336,300.0,16.54800033569336
2019-01-02,16.489999771118164,16.299999237060547,16.489999771118164,16.40999984741211,2000.0,16.40999984741211
2019-01-03,16.3700008392334,16.309999465942383,16.350000381469727,16.309999465942383,500.0,16.309999465942383
2019-01-04,17.253999710083008,16.799999237060547,16.799999237060547,16.959999084472656,6500.0,16.959999084472656
2019-01-07,17.030000686645508,16.969999313354492,16.969999313354492,17.030000686645508,500.0,17.030000686645508
2019-01-08,17.049999237060547,17.049999237060547,17.049999237060547,17.049999237060547,300.0,17.049999237060547
2019-01-09,17.34000015258789,17.2549991607666,17.34000015258789,17.309999465942383,2100.0,17.309999465942383
2019-01-10,17.329999923706055,17.270000457763672,17.270000457763672,17.329999923706055,1700.0,17.329999923706055
2019-01-11,17.422000885009766,17.30699920654297,17.30699920654297,17.42099952697754,1300.0,17.42099952697754
2019-01-14,17.290000915527344,17.25200080871582,17.25200080871582,17.290000915527344,200.0,17.290000915527344
2019-01-15,17.570999145507812,17.530000686645508,17.530000686645508,17.570999145507812,200.0,17.570999145507812
2019-01-16,17.667999267578125,17.667999267578125,17.667999267578125,17.667999267578125,100.0,17.667999267578125
2019-01-17,17.667999267578125,17.667999267578125,17.667999267578125,17.667999267578125,0.0,17.667999267578125
2019-01-18,17.79800033569336,17.795000076293945,17.795000076293945,17.79800033569336,200.0,17.79800033569336
2019-01-22,17.79800033569336,17.79800033569336,17.79800033569336,17.79800033569336,0.0,17.79800033569336
2019-01-23,17.739999771118164,17.520000457763672,17.739999771118164,17.579999923706055,1100.0,17.579999923706055
2019-01-24,17.69700050354004,17.690000534057617,17.690000534057617,17.690000534057617,52800.0,17.690000534057617
2019-01-25,17.979999542236328,17.95400047302246,17.95400047302246,17.979999542236328,4700.0,17.979999542236328
2019-01-28,17.725000381469727,17.725000381469727,17.725000381469727,17.725000381469727,100.0,17.725000381469727
2019-01-29,17.780000686645508,17.7450008392334,17.780000686645508,17.7450008392334,500.0,17.7450008392334
2019-01-30,17.854000091552734,17.809999465942383,17.809999465942383,17.839000701904297,3300.0,17.839000701904297
2019-01-31,17.989999771118164,17.924999237060547,17.924999237060547,17.989999771118164,1000.0,17.989999771118164
2019-02-01,18.040000915527344,18.0,18.0,18.0,600.0,18.0
2019-02-04,17.969999313354492,17.969999313354492,17.969999313354492,17.969999313354492,100.0,17.969999313354492
2019-02-05,18.920000076293945,18.110000610351562,18.1299991607666,18.15999984741211,5200.0,18.15999984741211
2019-02-06,18.0,18.0,18.0,18.0,600.0,18.0
2019-02-07,17.964000701904297,17.950000762939453,17.964000701904297,17.950000762939453,500.0,17.950000762939453
2019-02-08,17.950000762939453,17.780000686645508,17.950000762939453,17.780000686645508,400.0,17.780000686645508
2019-02-11,18.200000762939453,18.190000534057617,18.190000534057617,18.200000762939453,800.0,18.200000762939453
2019-02-12,18.347000122070312,18.347000122070312,18.347000122070312,18.347000122070312,100.0,18.347000122070312
2019-02-13,18.729999542236328,18.704999923706055,18.704999923706055,18.729999542236328,700.0,18.729999542236328
2019-02-14,18.770000457763672,18.674999237060547,18.770000457763672,18.729999542236328,1100.0,18.729999542236328
2019-02-15,18.66699981689453,18.6200008392334,18.6200008392334,18.649999618530273,800.0,18.649999618530273
2019-02-19,19.260000228881836,19.1200008392334,19.1200008392334,19.260000228881836,300.0,19.260000228881836
2019-02-20,19.3700008392334,19.18000030517578,19.18000030517578,19.343000411987305,500.0,19.343000411987305
2019-02-21,19.200000762939453,19.06999969482422,19.18000030517578,19.187999725341797,3000.0,19.187999725341797
2019-02-22,19.809999465942383,19.67099952697754,19.700000762939453,19.777999877929688,2200.0,19.777999877929688
2019-02-25,20.94499969482422,20.75,20.75,20.899999618530273,1900.0,20.899999618530273
2019-02-26,20.790000915527344,20.719999313354492,20.790000915527344,20.770000457763672,4300.0,20.770000457763672
2019-02-27,20.600000381469727,20.440000534057617,20.440000534057617,20.56999969482422,2800.0,20.56999969482422
2019-02-28,20.4950008392334,20.4950008392334,20.4950008392334,20.4950008392334,100.0,20.4950008392334
2019-03-01,21.030000686645508,20.6200008392334,20.6200008392334,20.950000762939453,3100.0,20.950000762939453
2019-03-04,21.22800064086914,21.115999221801758,21.22800064086914,21.149999618530273,1700.0,21.149999618530273
2019-03-05,21.520000457763672,21.260000228881836,21.260000228881836,21.3799991607666,2300.0,21.3799991607666
2019-03-06,21.829999923706055,21.520000457763672,21.829999923706055,21.565000534057617,2700.0,21.565000534057617
2019-03-07,21.35700035095215,21.18000030517578,21.329999923706055,21.35700035095215,17100.0,21.35700035095215
2019-03-08,20.600000381469727,20.280000686645508,20.280000686645508,20.593000411987305,9800.0,20.593000411987305
2019-03-11,21.530000686645508,21.39299964904785,21.39299964904785,21.510000228881836,900.0,21.510000228881836
2019-03-12,21.760000228881836,21.645999908447266,21.660999298095703,21.665000915527344,3100.0,21.665000915527344
2019-03-13,21.420000076293945,21.30299949645996,21.420000076293945,21.30299949645996,3800.0,21.30299949645996
2019-03-14,20.954999923706055,20.954999923706055,20.954999923706055,20.954999923706055,100.0,20.954999923706055
2019-03-15,21.295000076293945,21.059999465942383,21.059999465942383,21.295000076293945,300.0,21.295000076293945
2019-03-18,21.858999252319336,21.790000915527344,21.809999465942383,21.834999084472656,500.0,21.834999084472656
2019-03-19,21.969999313354492,21.804000854492188,21.950000762939453,21.804000854492188,1400.0,21.804000854492188
2019-03-20,21.864999771118164,21.864999771118164,21.864999771118164,21.864999771118164,0.0,21.864999771118164
2019-03-21,21.959999084472656,21.950000762939453,21.950000762939453,21.959999084472656,300.0,21.959999084472656
2019-03-22,21.81999969482422,21.59000015258789,21.68000030517578,21.67099952697754,4300.0,21.67099952697754
2019-03-25,21.57900047302246,21.549999237060547,21.549999237060547,21.57900047302246,400.0,21.57900047302246
2019-03-26,21.302000045776367,21.302000045776367,21.302000045776367,21.302000045776367,100.0,21.302000045776367
2019-03-27,21.229999542236328,21.15999984741211,21.184999465942383,21.229999542236328,600.0,21.229999542236328
2019-03-28,21.114999771118164,21.114999771118164,21.114999771118164,21.114999771118164,100.0,21.114999771118164
2019-03-29,22.309999465942383,21.863000869750977,22.309999465942383,21.863000869750977,1000.0,21.863000869750977
2019-04-01,22.739999771118164,22.711000442504883,22.711000442504883,22.739999771118164,700.0,22.739999771118164
2019-04-02,22.920000076293945,22.59000015258789,22.920000076293945,22.59000015258789,1800.0,22.59000015258789
2019-04-03,23.32200050354004,22.93000030517578,23.32200050354004,22.934999465942383,1300.0,22.934999465942383
2019-04-04,23.25,23.216999053955078,23.216999053955078,23.25,200.0,23.25
2019-04-05,23.474000930786133,23.239999771118164,23.239999771118164,23.469999313354492,7500.0,23.469999313354492
2019-04-08,23.280000686645508,23.249000549316406,23.264999389648438,23.270000457763672,700.0,23.270000457763672
2019-04-09,23.1200008392334,23.1200008392334,23.1200008392334,23.1200008392334,500.0,23.1200008392334
2019-04-10,23.128999710083008,23.1200008392334,23.128999710083008,23.1200008392334,200.0,23.1200008392334
2019-04-11,22.600000381469727,22.5,22.600000381469727,22.562999725341797,25400.0,22.562999725341797
2019-04-12,23.045000076293945,22.8700008392334,22.959999084472656,23.045000076293945,1100.0,23.045000076293945
2019-04-15,22.739999771118164,22.5,22.739999771118164,22.5,2300.0,22.5
2019-04-16,23.010000228881836,22.84000015258789,22.8700008392334,23.010000228881836,700.0,23.010000228881836
2019-04-17,23.420000076293945,23.200000762939453,23.420000076293945,23.25,3600.0,23.25
2019-04-18,23.25,23.059999465942383,23.25,23.059999465942383,900.0,23.059999465942383
2019-04-22,22.788000106811523,22.743000030517578,22.743000030517578,22.788000106811523,700.0,22.788000106811523
2019-04-23,22.565000534057617,22.565000534057617,22.565000534057617,22.565000534057617,100.0,22.565000534057617
2019-04-24,22.559999465942383,22.559999465942383,22.559999465942383,22.559999465942383,300.0,22.559999465942383
2019-04-25,22.09000015258789,21.82699966430664,22.09000015258789,21.836999893188477,1500.0,21.836999893188477
2019-04-26,21.90999984741211,21.829999923706055,21.829999923706055,21.90999984741211,500.0,21.90999984741211
2019-04-29,21.68000030517578,21.510000228881836,21.68000030517578,21.549999237060547,900.0,21.549999237060547
2019-04-30,21.700000762939453,21.700000762939453,21.700000762939453,21.700000762939453,100.0,21.700000762939453
2019-05-01,21.81399917602539,21.62299919128418,21.73200035095215,21.62299919128418,900.0,21.62299919128418
2019-05-02,21.56999969482422,21.520000457763672,21.56999969482422,21.520000457763672,400.0,21.520000457763672
2019-05-03,21.829999923706055,21.823999404907227,21.823999404907227,21.829999923706055,400.0,21.829999923706055
2019-05-06,20.510000228881836,20.30699920654297,20.31999969482422,20.510000228881836,2100.0,20.510000228881836
2019-05-07,20.452999114990234,19.940000534057617,20.450000762939453,19.985000610351562,7200.0,19.985000610351562
2019-05-08,20.03499984741211,20.03499984741211,20.03499984741211,20.03499984741211,200.0,20.03499984741211
2019-05-09,19.989999771118164,19.500999450683594,19.507999420166016,19.89900016784668,1300.0,19.89900016784668
2019-05-10,20.40999984741211,19.829999923706055,19.829999923706055,20.322999954223633,1500.0,20.322999954223633
2019-05-13,19.760000228881836,19.520000457763672,19.760000228881836,19.520000457763672,1500.0,19.520000457763672
2019-05-14,20.09000015258789,19.989999771118164,20.09000015258789,20.05500030517578,200.0,20.05500030517578
2019-05-15,20.320999145507812,20.100000381469727,20.100000381469727,20.320999145507812,700.0,20.320999145507812
2019-05-16,20.524999618530273,20.524999618530273,20.524999618530273,20.524999618530273,100.0,20.524999618530273
2019-05-17,19.799999237060547,19.489999771118164,19.489999771118164,19.729999542236328,1000.0,19.729999542236328
2019-05-20,19.68000030517578,19.514999389648438,19.68000030517578,19.514999389648438,600.0,19.514999389648438
2019-05-21,19.90999984741211,19.90999984741211,19.90999984741211,19.90999984741211,500.0,19.90999984741211
2019-05-22,19.780000686645508,19.75,19.75,19.780000686645508,3500.0,19.780000686645508
2019-05-23,19.52899932861328,19.43000030517578,19.510000228881836,19.52899932861328,2400.0,19.52899932861328
2019-05-24,19.472999572753906,19.371000289916992,19.459999084472656,19.42799949645996,600.0,19.42799949645996
