Date,High,Low,Open,Close,Volume,Adj Close
2016-01-14,49.91999816894531,49.91999816894531,49.91999816894531,49.91999816894531,100.0,47.42528533935547
2016-01-15,49.130001068115234,49.130001068115234,49.130001068115234,49.130001068115234,1300.0,46.674774169921875
2016-01-19,49.095001220703125,49.095001220703125,49.095001220703125,49.095001220703125,200.0,46.64152145385742
2016-01-20,47.75,47.75,47.75,47.75,200.0,45.363739013671875
2016-01-21,49.47999954223633,49.47999954223633,49.47999954223633,49.47999954223633,400.0,47.00727844238281
2016-01-22,49.77000045776367,49.65999984741211,49.65999984741211,49.77000045776367,1500.0,47.28278732299805
2016-01-25,49.5,49.5,49.5,49.5,300.0,47.026283264160156
2016-01-26,49.27899932861328,49.220001220703125,49.27899932861328,49.220001220703125,400.0,46.760276794433594
2016-01-27,49.06999969482422,48.849998474121094,49.06999969482422,48.849998474121094,500.0,46.40876007080078
2016-01-28,48.11000061035156,47.970001220703125,47.970001220703125,48.040000915527344,1400.0,45.63924026489258
2016-01-29,48.040000915527344,48.040000915527344,48.040000915527344,48.040000915527344,0.0,45.63924026489258
2016-02-01,49.61000061035156,49.61000061035156,49.61000061035156,49.61000061035156,100.0,47.13078689575195
2016-02-02,49.61000061035156,49.61000061035156,49.61000061035156,49.61000061035156,0.0,47.13078689575195
2016-02-03,48.400001525878906,47.61000061035156,47.93000030517578,48.400001525878906,1300.0,45.98125076293945
2016-02-04,48.81999969482422,48.68000030517578,48.68000030517578,48.81999969482422,200.0,46.38026428222656
2016-02-05,48.81999969482422,48.81999969482422,48.81999969482422,48.81999969482422,0.0,46.38026428222656
2016-02-08,48.81999969482422,48.81999969482422,48.81999969482422,48.81999969482422,0.0,46.38026428222656
2016-02-09,44.400001525878906,43.59000015258789,43.77000045776367,43.599998474121094,1100.0,41.42112350463867
2016-02-10,44.16999816894531,43.709999084472656,44.16999816894531,43.709999084472656,400.0,41.52562713623047
2016-02-11,43.630001068115234,43.630001068115234,43.630001068115234,43.630001068115234,100.0,41.44963073730469
2016-02-12,43.630001068115234,43.630001068115234,43.630001068115234,43.630001068115234,0.0,41.44963073730469
2016-02-16,46.38999938964844,45.38999938964844,45.38999938964844,46.38999938964844,800.0,44.07170486450195
2016-02-17,47.47999954223633,47.22999954223633,47.22999954223633,47.470001220703125,700.0,45.09773254394531
2016-02-18,48.220001220703125,48.220001220703125,48.220001220703125,48.220001220703125,200.0,45.81024932861328
2016-02-19,47.29999923706055,47.29999923706055,47.29999923706055,47.29999923706055,500.0,44.93622589111328
2016-02-22,48.59000015258789,48.459999084472656,48.459999084472656,48.59000015258789,700.0,46.1617546081543
2016-02-23,48.47999954223633,48.0099983215332,48.47999954223633,48.060001373291016,600.0,45.65824508666992
2016-02-24,47.75,47.75,47.75,47.75,300.0,45.363739013671875
2016-02-25,48.689998626708984,48.099998474121094,48.689998626708984,48.61000061035156,600.0,46.180763244628906
2016-02-26,48.61000061035156,48.61000061035156,48.61000061035156,48.61000061035156,200.0,46.180763244628906
2016-02-29,50.43000030517578,49.619998931884766,50.43000030517578,49.619998931884766,1000.0,47.14028549194336
2016-03-01,50.375999450683594,50.36000061035156,50.36000061035156,50.375999450683594,600.0,47.85850143432617
2016-03-02,50.7599983215332,50.25899887084961,50.72999954223633,50.72999954223633,1000.0,48.1948127746582
2016-03-03,51.27000045776367,51.27000045776367,51.27000045776367,51.27000045776367,200.0,48.707828521728516
2016-03-04,52.290000915527344,51.06999969482422,51.06999969482422,51.68000030517578,1600.0,49.09733581542969
2016-03-07,51.68000030517578,51.68000030517578,51.68000030517578,51.68000030517578,0.0,49.09733581542969
2016-03-08,51.2400016784668,50.779998779296875,51.2400016784668,50.779998779296875,400.0,48.2423095703125
2016-03-09,50.790000915527344,50.72999954223633,50.790000915527344,50.72999954223633,400.0,48.1948127746582
2016-03-10,51.54999923706055,49.790000915527344,51.54999923706055,50.209999084472656,2000.0,47.7007942199707
2016-03-11,50.65599822998047,50.65599822998047,50.65599822998047,50.65599822998047,200.0,48.124507904052734
2016-03-14,51.5099983215332,51.40999984741211,51.40999984741211,51.5099983215332,300.0,48.935829162597656
2016-03-15,50.75,50.75,50.75,50.75,100.0,48.21381378173828
2016-03-16,52.15999984741211,50.41999816894531,51.220001220703125,51.13999938964844,1300.0,48.58432388305664
2016-03-17,51.70000076293945,51.70000076293945,51.70000076293945,51.70000076293945,700.0,49.116336822509766
2016-03-18,52.470001220703125,52.02000045776367,52.02000045776367,52.30400085449219,1600.0,49.690155029296875
2016-03-21,52.30400085449219,52.30400085449219,52.30400085449219,52.30400085449219,0.0,49.690155029296875
2016-03-22,52.70000076293945,52.5099983215332,52.63999938964844,52.5099983215332,2000.0,49.88585662841797
2016-03-23,52.90999984741211,51.2599983215332,52.90999984741211,51.2599983215332,1400.0,48.69832229614258
2016-03-24,51.290000915527344,50.66999816894531,50.66999816894531,51.25,2400.0,48.68882369995117
2016-03-28,51.25,51.25,51.25,51.25,0.0,48.68882369995117
2016-03-29,52.36000061035156,51.380001068115234,52.150001525878906,52.36000061035156,2100.0,49.74335479736328
2016-03-30,52.779998779296875,52.72999954223633,52.7400016784668,52.779998779296875,1700.0,50.142364501953125
2016-03-31,53.04999923706055,52.720001220703125,53.04999923706055,52.83000183105469,1900.0,50.18986892700195
2016-04-01,52.790000915527344,52.790000915527344,52.790000915527344,52.790000915527344,600.0,50.1518669128418
2016-04-04,53.18000030517578,52.7859992980957,52.7859992980957,52.900001525878906,3700.0,50.256370544433594
2016-04-05,52.54999923706055,52.43000030517578,52.4900016784668,52.459999084472656,600.0,49.83835983276367
2016-04-06,53.40999984741211,52.68600082397461,52.68600082397461,53.40999984741211,2000.0,50.740882873535156
2016-04-07,52.9900016784668,52.540000915527344,52.9900016784668,52.65999984741211,1300.0,50.02836608886719
2016-04-08,53.09000015258789,52.47999954223633,53.09000015258789,52.619998931884766,1100.0,49.99036407470703
2016-04-11,52.810001373291016,52.36000061035156,52.810001373291016,52.36000061035156,1900.0,49.74335479736328
2016-04-12,52.47999954223633,52.15999984741211,52.20000076293945,52.380001068115234,2000.0,49.76235580444336
2016-04-13,53.75,53.56999969482422,53.56999969482422,53.689998626708984,500.0,51.00688552856445
2016-04-14,53.66999816894531,53.439998626708984,53.439998626708984,53.66999816894531,2500.0,50.98788833618164
2016-04-15,53.66999816894531,53.66999816894531,53.66999816894531,53.66999816894531,0.0,50.98788833618164
2016-04-18,53.9900016784668,53.810001373291016,53.810001373291016,53.9900016784668,300.0,51.291900634765625
2016-04-19,53.81999969482422,53.5,53.81999969482422,53.560001373291016,1200.0,50.88338851928711
2016-04-20,54.38999938964844,54.16999816894531,54.16999816894531,54.25,2400.0,51.538902282714844
2016-04-21,54.25,54.25,54.25,54.25,0.0,51.538902282714844
2016-04-22,54.11000061035156,54.11000061035156,54.11000061035156,54.11000061035156,300.0,51.40589904785156
2016-04-25,54.15999984741211,54.0,54.150001525878906,54.0,1400.0,51.30139923095703
2016-04-26,54.439998626708984,54.04999923706055,54.439998626708984,54.2599983215332,3200.0,51.54840087890625
2016-04-27,55.310001373291016,53.939998626708984,55.310001373291016,54.02000045776367,700.0,51.32040023803711
2016-04-28,54.02000045776367,54.02000045776367,54.02000045776367,54.02000045776367,0.0,51.32040023803711
2016-04-29,54.02000045776367,54.02000045776367,54.02000045776367,54.02000045776367,0.0,51.32040023803711
2016-05-02,53.86899948120117,53.40599822998047,53.40599822998047,53.86899948120117,900.0,51.176944732666016
2016-05-03,53.0,52.93000030517578,52.93000030517578,53.0,500.0,50.35136795043945
2016-05-04,52.68000030517578,52.68000030517578,52.68000030517578,52.68000030517578,400.0,50.047367095947266
2016-05-05,52.709999084472656,52.65999984741211,52.709999084472656,52.65999984741211,200.0,50.02836608886719
2016-05-06,51.970001220703125,51.31999969482422,51.689998626708984,51.970001220703125,1400.0,49.37284851074219
2016-05-09,51.95000076293945,51.95000076293945,51.95000076293945,51.95000076293945,600.0,49.353843688964844
2016-05-10,52.7599983215332,51.939998626708984,52.7599983215332,52.10499954223633,3000.0,49.5010986328125
2016-05-11,52.63999938964844,52.4900016784668,52.599998474121094,52.54999923706055,900.0,49.923858642578125
2016-05-12,52.54999923706055,52.54999923706055,52.54999923706055,52.54999923706055,0.0,49.923858642578125
2016-05-13,51.900001525878906,51.880001068115234,51.880001068115234,51.900001525878906,300.0,49.30634689331055
2016-05-16,52.36000061035156,52.349998474121094,52.349998474121094,52.36000061035156,1400.0,49.74335479736328
2016-05-17,52.529998779296875,52.45199966430664,52.45199966430664,52.529998779296875,600.0,49.90485763549805
2016-05-18,52.5,52.25,52.5,52.25,300.0,49.63885498046875
2016-05-19,51.69499969482422,51.59400177001953,51.630001068115234,51.630001068115234,4800.0,49.049835205078125
2016-05-20,51.630001068115234,51.630001068115234,51.630001068115234,51.630001068115234,100.0,49.049835205078125
2016-05-23,52.8849983215332,52.81999969482422,52.8849983215332,52.869998931884766,1500.0,50.22787094116211
2016-05-24,53.869998931884766,53.11000061035156,53.11000061035156,53.84000015258789,1700.0,51.149391174316406
2016-05-25,53.779998779296875,53.779998779296875,53.779998779296875,53.779998779296875,100.0,51.09239196777344
2016-05-26,53.72999954223633,53.492000579833984,53.492000579833984,53.72999954223633,700.0,51.044891357421875
2016-05-27,54.31100082397461,54.31100082397461,54.31100082397461,54.31100082397461,200.0,51.59685516357422
2016-05-31,55.119998931884766,55.11000061035156,55.119998931884766,55.11000061035156,1000.0,52.355926513671875
2016-06-01,55.86000061035156,55.189998626708984,55.189998626708984,55.856998443603516,3400.0,53.065589904785156
2016-06-02,56.20199966430664,56.20199966430664,56.20199966430664,56.20199966430664,200.0,53.39335632324219
2016-06-03,56.20199966430664,56.20199966430664,56.20199966430664,56.20199966430664,0.0,53.39335632324219
2016-06-06,56.560001373291016,56.54999923706055,56.54999923706055,56.560001373291016,900.0,53.73346710205078
2016-06-07,56.81999969482422,56.8120002746582,56.8120002746582,56.81999969482422,400.0,53.980472564697266
2016-06-08,57.0,56.79999923706055,56.939998626708984,57.0,900.0,54.1514778137207
2016-06-09,56.619998931884766,56.619998931884766,56.619998931884766,56.619998931884766,500.0,53.79046630859375
2016-06-10,55.459999084472656,55.42300033569336,55.44499969482422,55.459999084472656,500.0,52.68843460083008
2016-06-13,55.459999084472656,55.459999084472656,55.459999084472656,55.459999084472656,0.0,52.68843460083008
2016-06-14,55.369998931884766,55.130001068115234,55.369998931884766,55.130001068115234,700.0,52.37492752075195
2016-06-15,56.06999969482422,55.994998931884766,56.029998779296875,56.040000915527344,1100.0,53.23945236206055
2016-06-16,56.040000915527344,56.040000915527344,56.040000915527344,56.040000915527344,0.0,53.23945236206055
2016-06-17,55.13999938964844,55.13999938964844,55.13999938964844,55.13999938964844,500.0,52.38442611694336
2016-06-20,56.13999938964844,56.13999938964844,56.13999938964844,56.13999938964844,400.0,53.33445358276367
2016-06-21,56.150001525878906,55.9900016784668,56.08000183105469,56.084999084472656,3000.0,53.28219985961914
2016-06-22,56.77000045776367,56.77000045776367,56.77000045776367,56.77000045776367,100.0,53.9329719543457
2016-06-23,56.77000045776367,56.77000045776367,56.77000045776367,56.77000045776367,0.0,53.9329719543457
2016-06-24,56.77000045776367,56.77000045776367,56.77000045776367,56.77000045776367,0.0,53.9329719543457
2016-06-27,53.5,52.0,53.5,52.0,1600.0,49.40134811401367
2016-06-28,52.893001556396484,52.779998779296875,52.893001556396484,52.779998779296875,300.0,50.142364501953125
2016-06-29,54.09000015258789,54.09000015258789,54.09000015258789,54.09000015258789,100.0,51.38690185546875
2016-06-30,54.709999084472656,54.68000030517578,54.70000076293945,54.70899963378906,500.0,51.97496795654297
2016-07-01,55.18000030517578,54.88999938964844,55.18000030517578,55.029998779296875,700.0,52.27992630004883
2016-07-05,55.029998779296875,55.029998779296875,55.029998779296875,55.029998779296875,0.0,52.27992630004883
2016-07-06,55.029998779296875,55.029998779296875,55.029998779296875,55.029998779296875,0.0,52.27992630004883
2016-07-07,55.029998779296875,55.029998779296875,55.029998779296875,55.029998779296875,0.0,52.27992630004883
2016-07-08,56.75,56.540000915527344,56.540000915527344,56.75,500.0,53.91397476196289
2016-07-11,57.40999984741211,56.5,56.5,57.40999984741211,900.0,54.54098892211914
2016-07-12,57.92499923706055,57.92499923706055,57.92499923706055,57.92499923706055,300.0,55.03024673461914
2016-07-13,58.209999084472656,58.150001525878906,58.209999084472656,58.150001525878906,600.0,55.2440071105957
2016-07-14,58.01599884033203,57.81999969482422,57.86000061035156,57.93899917602539,1600.0,55.043548583984375
2016-07-15,57.650001525878906,57.650001525878906,57.650001525878906,57.650001525878906,200.0,54.76899337768555
2016-07-18,58.03499984741211,58.02000045776367,58.02000045776367,58.03499984741211,800.0,55.13475036621094
2016-07-19,57.928001403808594,57.90999984741211,57.90999984741211,57.928001403808594,300.0,55.033103942871094
2016-07-20,58.58000183105469,57.8650016784668,57.8650016784668,58.5099983215332,1400.0,55.58601379394531
2016-07-21,58.38999938964844,58.22100067138672,58.38999938964844,58.23500061035156,700.0,55.32475662231445
2016-07-22,58.23500061035156,58.23500061035156,58.23500061035156,58.23500061035156,0.0,55.32475662231445
2016-07-25,58.66999816894531,58.62099838256836,58.63999938964844,58.66999816894531,800.0,55.73801803588867
2016-07-26,58.66999816894531,58.66999816894531,58.66999816894531,58.66999816894531,0.0,55.73801803588867
2016-07-27,59.5099983215332,59.33000183105469,59.3390007019043,59.5099983215332,900.0,56.53603744506836
2016-07-28,59.5099983215332,59.5099983215332,59.5099983215332,59.5099983215332,0.0,56.53603744506836
2016-07-29,60.310001373291016,59.720001220703125,59.79999923706055,60.310001373291016,1300.0,57.29606246948242
2016-08-01,60.755001068115234,60.755001068115234,60.755001068115234,60.755001068115234,500.0,57.71882247924805
2016-08-02,60.0099983215332,59.66999816894531,60.0099983215332,59.7599983215332,1800.0,56.77354431152344
2016-08-03,59.43299865722656,59.43299865722656,59.43299865722656,59.43299865722656,100.0,56.462886810302734
2016-08-04,59.43299865722656,59.43299865722656,59.43299865722656,59.43299865722656,0.0,56.462886810302734
2016-08-05,59.43299865722656,59.43299865722656,59.43299865722656,59.43299865722656,0.0,56.462886810302734
2016-08-08,61.0,60.0,61.0,60.130001068115234,2400.0,57.12505340576172
2016-08-09,60.45000076293945,60.189998626708984,60.189998626708984,60.44599914550781,500.0,57.42526626586914
2016-08-10,60.44599914550781,60.44599914550781,60.44599914550781,60.44599914550781,0.0,57.42526626586914
2016-08-11,60.68000030517578,60.63999938964844,60.68000030517578,60.63999938964844,300.0,57.60956954956055
2016-08-12,61.0,60.970001220703125,60.970001220703125,61.0,1000.0,57.95158004760742
2016-08-15,61.63999938964844,61.380001068115234,61.380001068115234,61.529998779296875,1800.0,58.45509338378906
2016-08-16,61.09000015258789,61.0099983215332,61.09000015258789,61.0099983215332,600.0,57.96107482910156
2016-08-17,61.0099983215332,61.0099983215332,61.0099983215332,61.0099983215332,0.0,57.96107482910156
2016-08-18,60.88999938964844,60.81999969482422,60.88999938964844,60.81999969482422,400.0,57.78057098388672
2016-08-19,61.2400016784668,61.11000061035156,61.2400016784668,61.11000061035156,400.0,58.056087493896484
2016-08-22,62.2599983215332,61.16999816894531,62.2599983215332,61.16999816894531,400.0,58.11308288574219
2016-08-23,62.20000076293945,62.11000061035156,62.11000061035156,62.20000076293945,500.0,59.091609954833984
2016-08-24,62.099998474121094,62.04999923706055,62.099998474121094,62.04999923706055,400.0,58.94910430908203
2016-08-25,62.439998626708984,61.43000030517578,62.439998626708984,61.650001525878906,3600.0,58.56909942626953
2016-08-26,61.43000030517578,61.43000030517578,61.43000030517578,61.43000030517578,200.0,58.36008834838867
2016-08-29,62.22999954223633,62.19499969482422,62.22999954223633,62.19499969482422,200.0,59.08686447143555
2016-08-30,62.25,62.25,62.25,62.25,600.0,59.13911056518555
2016-08-31,62.25,62.25,62.25,62.25,100100.0,59.13911056518555
2016-09-01,62.25,62.25,62.25,62.25,0.0,59.13911056518555
2016-09-02,62.939998626708984,62.779998779296875,62.880001068115234,62.81999969482422,1000.0,59.68062973022461
2016-09-06,64.8499984741211,63.37799835205078,64.01000213623047,63.52000045776367,7900.0,60.345645904541016
2016-09-07,63.58000183105469,63.22999954223633,63.58000183105469,63.31999969482422,1000.0,60.155643463134766
2016-09-08,64.36000061035156,62.95899963378906,64.36000061035156,62.9900016784668,700.0,59.842132568359375
2016-09-09,62.369998931884766,61.4900016784668,62.369998931884766,61.58599853515625,20900.0,58.50829315185547
2016-09-12,61.970001220703125,60.5099983215332,60.83000183105469,61.88999938964844,15600.0,58.797096252441406
2016-09-13,61.54999923706055,60.529998779296875,61.5099983215332,60.75,7800.0,57.714073181152344
2016-09-14,61.209999084472656,60.970001220703125,61.209999084472656,61.0,500.0,57.95158004760742
2016-09-15,62.400001525878906,61.290000915527344,61.290000915527344,61.77000045776367,2100.0,58.683101654052734
2016-09-16,61.77000045776367,61.56999969482422,61.70000076293945,61.70000076293945,1200.0,58.64603042602539
2016-09-19,62.36000061035156,61.540000915527344,62.36000061035156,61.91999816894531,11100.0,58.855140686035156
2016-09-20,61.959999084472656,61.41999816894531,61.83000183105469,61.41999816894531,1900.0,58.379886627197266
2016-09-21,62.060001373291016,61.65999984741211,61.72999954223633,62.060001373291016,700.0,58.98821258544922
2016-09-22,63.0,62.986000061035156,62.986000061035156,63.0,300.0,59.881683349609375
2016-09-23,63.22999954223633,62.90999984741211,63.22999954223633,62.90999984741211,300.0,59.796138763427734
2016-09-26,62.369998931884766,62.08000183105469,62.08000183105469,62.209999084472656,1200.0,59.13078689575195
2016-09-27,62.84000015258789,62.59000015258789,62.59000015258789,62.84000015258789,2200.0,59.72960662841797
2016-09-28,63.349998474121094,62.86000061035156,63.349998474121094,62.88999938964844,800.0,59.777130126953125
2016-09-29,63.09000015258789,62.54999923706055,63.09000015258789,62.599998474121094,1900.0,59.50148010253906
2016-09-30,62.80500030517578,62.80500030517578,62.80500030517578,62.80500030517578,100.0,59.69633483886719
2016-10-03,62.80500030517578,62.80500030517578,62.80500030517578,62.80500030517578,0.0,59.69633483886719
2016-10-04,62.80500030517578,62.80500030517578,62.80500030517578,62.80500030517578,0.0,59.69633483886719
2016-10-05,63.683998107910156,63.683998107910156,63.683998107910156,63.683998107910156,100.0,60.53182601928711
2016-10-06,62.81999969482422,62.81999969482422,62.81999969482422,62.81999969482422,100.0,59.710594177246094
2016-10-07,63.34000015258789,62.189998626708984,63.34000015258789,62.29499816894531,400.0,59.211578369140625
2016-10-10,63.150001525878906,62.89400100708008,63.150001525878906,62.91999816894531,1600.0,59.80564498901367
2016-10-11,62.47999954223633,61.29999923706055,62.47999954223633,61.39899826049805,2500.0,58.359928131103516
2016-10-12,61.39899826049805,61.39899826049805,61.39899826049805,61.39899826049805,0.0,58.359928131103516
2016-10-13,60.22999954223633,59.88999938964844,60.0,60.22999954223633,800.0,57.2487907409668
2016-10-14,60.90999984741211,60.361000061035156,60.810001373291016,60.361000061035156,400.0,57.37330627441406
2016-10-17,60.47999954223633,60.31999969482422,60.459999084472656,60.349998474121094,700.0,57.362850189208984
2016-10-18,61.02000045776367,60.7599983215332,60.78499984741211,60.79999923706055,2000.0,57.79057693481445
2016-10-19,60.900001525878906,60.61000061035156,60.70000076293945,60.869998931884766,3200.0,57.85710906982422
2016-10-20,60.75,60.36000061035156,60.540000915527344,60.70000076293945,1100.0,57.69552993774414
2016-10-21,60.70000076293945,60.70000076293945,60.70000076293945,60.70000076293945,0.0,57.69552993774414
2016-10-24,61.7400016784668,61.2400016784668,61.2400016784668,61.54999923706055,2900.0,58.503456115722656
2016-10-25,62.18000030517578,61.095001220703125,61.650001525878906,61.095001220703125,5000.0,58.07097625732422
2016-10-26,60.9900016784668,60.5,60.90999984741211,60.56999969482422,3500.0,57.57196044921875
2016-10-27,60.56999969482422,60.56999969482422,60.56999969482422,60.56999969482422,0.0,57.57196044921875
2016-10-28,60.417999267578125,59.803001403808594,59.803001403808594,59.808998107910156,1300.0,56.848628997802734
2016-10-31,59.83000183105469,59.375,59.69900131225586,59.520999908447266,11000.0,56.574886322021484
2016-11-01,59.520999908447266,59.520999908447266,59.520999908447266,59.520999908447266,0.0,56.574886322021484
2016-11-02,58.220001220703125,58.220001220703125,58.220001220703125,58.220001220703125,300.0,55.33828353881836
2016-11-03,58.220001220703125,58.220001220703125,58.220001220703125,58.220001220703125,0.0,55.33828353881836
2016-11-04,58.630001068115234,58.04999923706055,58.130001068115234,58.04999923706055,1400.0,55.176692962646484
2016-11-07,58.04999923706055,58.04999923706055,58.04999923706055,58.04999923706055,0.0,55.176692962646484
2016-11-08,58.04999923706055,58.04999923706055,58.04999923706055,58.04999923706055,0.0,55.176692962646484
2016-11-09,59.599998474121094,57.25,57.25,59.599998474121094,2000.0,56.64997100830078
2016-11-10,59.599998474121094,59.599998474121094,59.599998474121094,59.599998474121094,0.0,56.64997100830078
2016-11-11,60.220001220703125,60.13999938964844,60.220001220703125,60.13999938964844,200.0,57.163246154785156
2016-11-14,59.70800018310547,59.5890007019043,59.70800018310547,59.5890007019043,1000.0,56.63951873779297
2016-11-15,59.5890007019043,59.5890007019043,59.5890007019043,59.5890007019043,0.0,56.63951873779297
2016-11-16,61.18000030517578,60.470001220703125,61.18000030517578,60.63399887084961,1000.0,57.63279342651367
2016-11-17,61.33000183105469,60.90999984741211,60.97999954223633,61.2400016784668,1700.0,58.208797454833984
2016-11-18,61.2400016784668,61.2400016784668,61.2400016784668,61.2400016784668,100.0,58.208797454833984
2016-11-21,61.79999923706055,61.54999923706055,61.79999923706055,61.63999938964844,1400.0,58.58899688720703
2016-11-22,62.09000015258789,61.91999816894531,61.91999816894531,62.04999923706055,500.0,58.978702545166016
2016-11-23,62.470001220703125,62.36000061035156,62.36000061035156,62.400001525878906,800.0,59.31138229370117
2016-11-25,62.400001525878906,62.400001525878906,62.400001525878906,62.400001525878906,0.0,59.31138229370117
2016-11-28,62.400001525878906,62.400001525878906,62.400001525878906,62.400001525878906,0.0,59.31138229370117
2016-11-29,62.36000061035156,62.2599983215332,62.2599983215332,62.34000015258789,700.0,59.25434875488281
2016-11-30,62.34000015258789,62.34000015258789,62.34000015258789,62.34000015258789,0.0,59.25434875488281
2016-12-01,59.349998474121094,59.29999923706055,59.349998474121094,59.29999923706055,200.0,56.36482238769531
2016-12-02,59.45000076293945,59.16999816894531,59.45000076293945,59.33000183105469,500.0,56.393341064453125
2016-12-05,60.540000915527344,59.7400016784668,59.7400016784668,60.4010009765625,3200.0,57.41132736206055
2016-12-06,61.29999923706055,60.20000076293945,61.29999923706055,60.650001525878906,3800.0,57.648006439208984
2016-12-07,60.650001525878906,60.650001525878906,60.650001525878906,60.650001525878906,0.0,57.648006439208984
2016-12-08,62.290000915527344,61.65999984741211,61.65999984741211,62.09000015258789,2300.0,59.016727447509766
2016-12-09,62.09000015258789,62.09000015258789,62.09000015258789,62.09000015258789,0.0,59.016727447509766
2016-12-12,61.15999984741211,60.709999084472656,61.15999984741211,60.959999084472656,1000.0,57.942657470703125
2016-12-13,61.45000076293945,61.400001525878906,61.45000076293945,61.400001525878906,300.0,58.36088180541992
2016-12-14,61.09000015258789,60.650001525878906,60.9900016784668,60.650001525878906,600.0,57.648006439208984
2016-12-15,61.029998779296875,60.84000015258789,60.869998931884766,61.01100158691406,1800.0,57.99113464355469
2016-12-16,59.220001220703125,59.220001220703125,59.220001220703125,59.220001220703125,200.0,57.2888069152832
2016-12-19,59.220001220703125,59.220001220703125,59.220001220703125,59.220001220703125,0.0,57.2888069152832
2016-12-20,60.0099983215332,59.68000030517578,59.959999084472656,59.790000915527344,2600.0,57.8402214050293
2016-12-21,60.849998474121094,59.75,60.849998474121094,59.75,900.0,57.8015251159668
2016-12-22,59.540000915527344,58.689998626708984,59.540000915527344,58.720001220703125,3100.0,56.805118560791016
2016-12-23,58.89099884033203,58.880001068115234,58.89099884033203,58.880001068115234,1600.0,56.95989990234375
2016-12-27,58.95000076293945,58.95000076293945,58.95000076293945,58.95000076293945,100.0,57.02761459350586
2016-12-28,59.439998626708984,59.220001220703125,59.41999816894531,59.220001220703125,26000.0,57.2888069152832
2016-12-29,58.79999923706055,58.4900016784668,58.79999923706055,58.70000076293945,2200.0,56.7857666015625
2016-12-30,58.709999084472656,58.34000015258789,58.709999084472656,58.41999816894531,11500.0,56.514896392822266
2017-01-03,58.41999816894531,58.41999816894531,58.41999816894531,58.41999816894531,0.0,56.514896392822266
2017-01-04,59.720001220703125,59.30699920654297,59.30699920654297,59.720001220703125,2700.0,57.77250289916992
2017-01-05,60.209999084472656,59.66999816894531,60.130001068115234,60.15999984741211,2100.0,58.19815444946289
2017-01-06,60.31999969482422,59.79999923706055,59.79999923706055,60.189998626708984,1100.0,58.227176666259766
2017-01-09,60.5,60.2400016784668,60.2400016784668,60.47999954223633,600.0,58.50771713256836
2017-01-10,60.95000076293945,60.54999923706055,60.599998474121094,60.939998626708984,1100.0,58.95271682739258
2017-01-11,60.939998626708984,60.939998626708984,60.939998626708984,60.939998626708984,0.0,58.95271682739258
2017-01-12,60.189998626708984,60.189998626708984,60.189998626708984,60.189998626708984,600.0,58.227176666259766
2017-01-13,60.189998626708984,60.189998626708984,60.189998626708984,60.189998626708984,0.0,58.227176666259766
2017-01-17,60.189998626708984,60.189998626708984,60.189998626708984,60.189998626708984,0.0,58.227176666259766
2017-01-18,60.667999267578125,60.667999267578125,60.667999267578125,60.667999267578125,200.0,58.6895866394043
2017-01-19,60.54899978637695,60.54899978637695,60.54899978637695,60.54899978637695,100.0,58.57447052001953
2017-01-20,60.779998779296875,60.58000183105469,60.779998779296875,60.63999938964844,4800.0,58.66250228881836
2017-01-23,60.5,60.18000030517578,60.5,60.18000030517578,1000.0,58.21750259399414
2017-01-24,61.400001525878906,60.43000030517578,60.43000030517578,61.38999938964844,11300.0,59.38804244995117
2017-01-25,61.95000076293945,61.650001525878906,61.81999969482422,61.83000183105469,4200.0,59.813697814941406
2017-01-26,61.779998779296875,61.400001525878906,61.779998779296875,61.400001525878906,2500.0,59.39772033691406
2017-01-27,61.15999984741211,61.15999984741211,61.15999984741211,61.15999984741211,300.0,59.16554641723633
2017-01-30,60.709999084472656,60.279998779296875,60.279998779296875,60.709999084472656,1600.0,58.730220794677734
2017-01-31,61.060001373291016,60.70000076293945,60.70000076293945,61.060001373291016,2800.0,59.068809509277344
2017-02-01,61.5,60.79999923706055,61.5,60.95000076293945,5700.0,58.96239471435547
2017-02-02,61.29999923706055,60.83000183105469,60.90999984741211,61.255001068115234,6000.0,59.2574462890625
2017-02-03,61.7599983215332,61.369998931884766,61.45000076293945,61.7599983215332,2400.0,59.74597930908203
2017-02-06,61.80799865722656,61.54999923706055,61.650001525878906,61.70000076293945,1600.0,59.68793487548828
2017-02-07,62.029998779296875,61.709999084472656,61.970001220703125,61.88999938964844,2600.0,59.87173843383789
2017-02-08,61.91999816894531,61.36000061035156,61.90999984741211,61.91999816894531,13500.0,59.900760650634766
2017-02-09,62.88999938964844,62.15999984741211,62.15999984741211,62.87699890136719,8600.0,60.8265495300293
2017-02-10,63.22999954223633,62.689998626708984,63.22999954223633,63.08000183105469,8900.0,61.02293395996094
2017-02-13,63.25,63.060001373291016,63.25,63.112998962402344,2000.0,61.05485534667969
2017-02-14,63.16999816894531,62.869998931884766,62.91999816894531,63.13999938964844,3300.0,61.08097457885742
2017-02-15,63.61000061035156,63.61000061035156,63.61000061035156,63.61000061035156,400.0,61.535648345947266
2017-02-16,63.79999923706055,63.38999938964844,63.79999923706055,63.38999938964844,700.0,61.32282257080078
2017-02-17,63.40999984741211,63.27000045776367,63.279998779296875,63.40999984741211,2100.0,61.34217071533203
2017-02-21,63.849998474121094,63.70000076293945,63.72999954223633,63.79999923706055,900.0,61.719451904296875
2017-02-22,63.91999816894531,63.7599983215332,63.91999816894531,63.83000183105469,2700.0,61.748477935791016
2017-02-23,63.939998626708984,63.209999084472656,63.939998626708984,63.25,4600.0,61.1873893737793
2017-02-24,63.20000076293945,62.54999923706055,62.560001373291016,63.20000076293945,7800.0,61.13901901245117
2017-02-27,63.50699996948242,63.060001373291016,63.119998931884766,63.36000061035156,1900.0,61.293800354003906
2017-02-28,63.209999084472656,62.599998474121094,63.209999084472656,62.599998474121094,6200.0,60.5585823059082
2017-03-01,63.54999923706055,63.06999969482422,63.099998474121094,63.54999923706055,3800.0,61.477603912353516
2017-03-02,63.09000015258789,63.09000015258789,63.09000015258789,63.09000015258789,100.0,61.03260803222656
2017-03-03,63.11000061035156,62.810001373291016,63.0,62.810001373291016,4800.0,60.76173782348633
2017-03-06,62.689998626708984,62.439998626708984,62.529998779296875,62.689998626708984,6600.0,60.64564895629883
2017-03-07,62.7599983215332,62.61000061035156,62.709999084472656,62.7599983215332,1600.0,60.71336364746094
2017-03-08,63.15999984741211,62.970001220703125,62.9900016784668,62.970001220703125,6100.0,60.91652297973633
2017-03-09,63.099998474121094,62.63999938964844,63.099998474121094,62.869998931884766,8900.0,60.81978225708008
2017-03-10,63.279998779296875,62.970001220703125,63.2599983215332,63.22999954223633,4300.0,61.16804122924805
2017-03-13,63.810001373291016,63.43000030517578,63.439998626708984,63.790000915527344,2500.0,61.709781646728516
2017-03-14,63.650001525878906,63.130001068115234,63.650001525878906,63.5,7000.0,61.429237365722656
2017-03-15,64.0199966430664,63.529998779296875,63.560001373291016,64.0199966430664,2300.0,61.932273864746094
2017-03-16,64.45999908447266,63.88999938964844,63.88999938964844,64.31999969482422,10900.0,62.222496032714844
2017-03-17,64.58000183105469,64.19999694824219,64.58000183105469,64.30000305175781,7600.0,62.20315170288086
2017-03-20,64.44000244140625,64.13999938964844,64.22000122070312,64.19999694824219,1600.0,62.106407165527344
2017-03-21,64.29000091552734,62.58000183105469,64.29000091552734,62.58000183105469,8300.0,60.539241790771484
2017-03-22,62.77000045776367,62.13999938964844,62.29999923706055,62.560001373291016,18800.0,60.519893646240234
2017-03-23,62.83000183105469,62.529998779296875,62.61000061035156,62.83000183105469,6600.0,60.78108596801758
2017-03-24,63.369998931884766,62.7400016784668,63.369998931884766,62.7400016784668,3400.0,60.69402313232422
2017-03-27,63.20000076293945,62.13999938964844,62.220001220703125,63.119998931884766,5900.0,61.06163024902344
2017-03-28,63.52000045776367,63.189998626708984,63.5,63.33000183105469,5200.0,61.2647819519043
2017-03-29,63.93000030517578,63.34000015258789,63.38999938964844,63.93000030517578,5000.0,61.84521484375
2017-03-30,64.19000244140625,63.86000061035156,64.13999938964844,63.90999984741211,5800.0,61.82586669921875
2017-03-31,63.93000030517578,63.65999984741211,63.65999984741211,63.93000030517578,2600.0,61.84521484375
2017-04-03,63.900001525878906,63.45000076293945,63.900001525878906,63.47999954223633,800.0,61.409889221191406
2017-04-04,63.560001373291016,63.2599983215332,63.27000045776367,63.2599983215332,5000.0,61.197059631347656
2017-04-05,63.79999923706055,63.0,63.41999816894531,63.0,4600.0,60.94554138183594
2017-04-06,63.25,62.88999938964844,63.13999938964844,63.25,4600.0,61.1873893737793
2017-04-07,63.435001373291016,63.04999923706055,63.04999923706055,63.33000183105469,3100.0,61.2647819519043
2017-04-10,63.810001373291016,63.56999969482422,63.56999969482422,63.72999954223633,1500.0,61.651737213134766
2017-04-11,63.88999938964844,63.27000045776367,63.84000015258789,63.58399963378906,4800.0,61.510498046875
2017-04-12,63.70000076293945,63.189998626708984,63.61000061035156,63.189998626708984,5300.0,61.12934494018555
2017-04-13,63.290000915527344,62.63999938964844,63.11000061035156,62.63999938964844,8700.0,60.5972785949707
2017-04-17,63.119998931884766,62.88999938964844,62.900001525878906,63.0,4600.0,60.94554138183594
2017-04-18,63.15999984741211,62.95000076293945,62.97999954223633,63.15999984741211,4100.0,61.10032272338867
2017-04-19,64.08999633789062,63.66999816894531,63.779998779296875,63.75,4800.0,61.671085357666016
2017-04-20,64.58999633789062,64.05999755859375,64.26000213623047,64.43000030517578,8100.0,62.32891082763672
2017-04-21,64.51000213623047,64.33000183105469,64.37999725341797,64.48999786376953,7900.0,62.3869514465332
2017-04-24,65.41000366210938,65.0,65.41000366210938,65.18000030517578,6400.0,63.0544548034668
2017-04-25,66.16999816894531,65.63999938964844,65.66000366210938,66.16999816894531,4600.0,64.01216125488281
2017-04-26,66.44999694824219,66.06999969482422,66.37999725341797,66.33999633789062,4600.0,64.17662048339844
2017-04-27,66.88999938964844,66.30000305175781,66.30000305175781,66.88999938964844,7100.0,64.70868682861328
2017-04-28,67.48999786376953,66.36000061035156,67.4800033569336,66.52999877929688,10700.0,64.36042785644531
2017-05-01,67.08999633789062,66.56999969482422,66.58999633789062,67.02999877929688,3600.0,64.8441162109375
2017-05-02,67.36000061035156,67.05999755859375,67.25,67.2699966430664,3500.0,65.0762939453125
2017-05-03,67.23999786376953,66.66999816894531,67.23999786376953,66.97000122070312,6600.0,64.78607940673828
2017-05-04,67.37000274658203,67.08999633789062,67.12000274658203,67.33000183105469,5000.0,65.13433837890625
2017-05-05,68.05999755859375,67.45999908447266,67.7699966430664,68.05999755859375,6100.0,65.84053039550781
2017-05-08,68.81999969482422,68.12000274658203,68.69999694824219,68.25,10500.0,66.02433776855469
2017-05-09,69.04000091552734,68.38999938964844,68.38999938964844,68.58000183105469,30000.0,66.34357452392578
2017-05-10,69.66000366210938,68.36000061035156,68.37999725341797,69.09200286865234,23100.0,66.83888244628906
2017-05-11,68.98999786376953,68.65399932861328,68.98999786376953,68.65399932861328,2000.0,66.41516876220703
2017-05-12,68.65399932861328,68.65399932861328,68.65399932861328,68.65399932861328,0.0,66.41516876220703
2017-05-15,69.61000061035156,68.91999816894531,68.91999816894531,69.33999633789062,4700.0,67.07878875732422
2017-05-16,70.15799713134766,69.66999816894531,69.66999816894531,70.15799713134766,900.0,67.87010955810547
2017-05-17,69.5,67.81999969482422,69.5,67.81999969482422,4500.0,65.60836029052734
2017-05-18,68.31900024414062,68.31900024414062,68.31900024414062,68.31900024414062,300.0,66.0910873413086
2017-05-19,69.28700256347656,68.70999908447266,68.70999908447266,69.28700256347656,2600.0,67.02752685546875
2017-05-22,70.04199981689453,69.31999969482422,69.33000183105469,70.04199981689453,1400.0,67.75789642333984
2017-05-23,70.22000122070312,69.61000061035156,70.19999694824219,69.61000061035156,1600.0,67.3399887084961
2017-05-24,69.78900146484375,69.63999938964844,69.66000366210938,69.78900146484375,1700.0,67.51315307617188
2017-05-25,70.19999694824219,70.05999755859375,70.06999969482422,70.17500305175781,700.0,67.88655853271484
2017-05-26,70.3499984741211,70.06999969482422,70.13999938964844,70.28900146484375,3800.0,67.9968490600586
2017-05-30,70.16999816894531,69.93599700927734,70.16999816894531,69.93599700927734,1400.0,67.65535736083984
2017-05-31,70.04000091552734,69.30000305175781,70.04000091552734,69.62100219726562,800.0,67.35062408447266
2017-06-01,70.45999908447266,69.66999816894531,69.66999816894531,70.45999908447266,800.0,68.16226959228516
2017-06-02,71.01000213623047,70.66000366210938,71.01000213623047,70.66000366210938,1200.0,68.35575103759766
2017-06-05,71.22000122070312,70.95999908447266,71.08999633789062,70.99199676513672,5200.0,68.67691802978516
2017-06-06,71.53600311279297,70.93000030517578,70.93000030517578,71.26000213623047,1500.0,68.9361801147461
2017-06-07,71.37000274658203,70.94000244140625,71.26000213623047,70.94000244140625,900.0,68.62661743164062
2017-06-08,71.3499984741211,71.20999908447266,71.33999633789062,71.3499984741211,900.0,69.02323913574219
2017-06-09,72.01000213623047,68.69999694824219,71.77999877929688,69.47899627685547,9900.0,67.21324920654297
2017-06-12,69.63999938964844,68.30000305175781,68.91999816894531,69.43000030517578,2200.0,67.16585540771484
2017-06-13,70.12999725341797,69.30000305175781,69.91000366210938,69.75,4300.0,67.47541809082031
2017-06-14,69.9000015258789,69.06999969482422,69.80999755859375,69.06999969482422,2500.0,66.81759643554688
2017-06-15,68.9000015258789,68.41000366210938,68.58000183105469,68.9000015258789,1100.0,66.65313720703125
2017-06-16,69.51000213623047,68.95999908447266,69.0,68.95999908447266,2700.0,66.711181640625
2017-06-19,69.97899627685547,69.70999908447266,69.70999908447266,69.7699966430664,1300.0,67.49476623535156
2017-06-20,70.30000305175781,69.86000061035156,70.23999786376953,69.9000015258789,2200.0,67.62052917480469
2017-06-21,69.88999938964844,69.83000183105469,69.83000183105469,69.8499984741211,500.0,67.57215881347656
2017-06-22,70.66100311279297,70.16999816894531,70.18000030517578,70.66100311279297,1200.0,68.35671997070312
2017-06-23,70.68000030517578,70.5999984741211,70.5999984741211,70.68000030517578,800.0,68.37509155273438
2017-06-26,71.8499984741211,70.94999694824219,71.8499984741211,70.94999694824219,1600.0,68.63628387451172
2017-06-27,70.63999938964844,70.22000122070312,70.55999755859375,70.22000122070312,1600.0,67.93009948730469
2017-06-28,70.52999877929688,69.58000183105469,69.9280014038086,70.52999877929688,2500.0,68.22998046875
2017-06-29,70.19000244140625,69.30000305175781,70.19000244140625,69.30000305175781,700.0,67.04009246826172
2017-06-30,69.7300033569336,69.7300033569336,69.7300033569336,69.7300033569336,300.0,67.4560775756836
2017-07-03,69.91000366210938,69.91000366210938,69.91000366210938,69.91000366210938,500.0,67.63021087646484
2017-07-05,69.79000091552734,69.41999816894531,69.79000091552734,69.69999694824219,1200.0,67.42704772949219
2017-07-06,69.51799774169922,69.37999725341797,69.37999725341797,69.51799774169922,400.0,67.25098419189453
2017-07-07,69.75,69.75,69.75,69.75,200.0,67.47541809082031
2017-07-10,70.19999694824219,70.08599853515625,70.08599853515625,70.19999694824219,700.0,67.9107437133789
2017-07-11,70.55000305175781,70.55000305175781,70.55000305175781,70.55000305175781,1200.0,68.24933624267578
2017-07-12,71.6500015258789,71.41999816894531,71.41999816894531,71.5999984741211,1100.0,69.26509094238281
2017-07-13,71.83000183105469,71.63999938964844,71.83000183105469,71.63999938964844,500.0,69.30378723144531
2017-07-14,72.41400146484375,72.08999633789062,72.08999633789062,72.3499984741211,600.0,69.99063110351562
2017-07-17,72.38999938964844,72.09200286865234,72.31999969482422,72.23999786376953,1300.0,69.88422393798828
2017-07-18,72.6520004272461,72.37999725341797,72.48999786376953,72.5999984741211,1100.0,70.23248291015625
2017-07-19,73.25,73.02999877929688,73.06999969482422,73.16999816894531,5900.0,70.78388977050781
2017-07-20,73.18000030517578,72.9209976196289,73.06999969482422,73.18000030517578,900.0,70.79357147216797
2017-07-21,72.91000366210938,72.77999877929688,72.77999877929688,72.91000366210938,600.0,70.53237915039062
2017-07-24,73.11900329589844,73.08000183105469,73.08000183105469,73.11900329589844,400.0,70.73455810546875
2017-07-25,73.77999877929688,73.25,73.75,73.77999877929688,2800.0,71.3740005493164
2017-07-26,73.7699966430664,73.57599639892578,73.72000122070312,73.65499877929688,1500.0,71.2530746459961
2017-07-27,73.94000244140625,72.01000213623047,73.8499984741211,72.69000244140625,3500.0,70.31954193115234
2017-07-28,73.20999908447266,72.80000305175781,72.80000305175781,73.01799774169922,1800.0,70.63684844970703
2017-07-31,73.05000305175781,71.49700164794922,73.05000305175781,72.75,2400.0,70.3775863647461
2017-08-01,72.75,72.75,72.75,72.75,100.0,70.3775863647461
2017-08-02,73.13999938964844,73.08000183105469,73.13999938964844,73.08000183105469,1000.0,70.69683074951172
2017-08-03,72.83000183105469,72.18000030517578,72.19999694824219,72.61000061035156,1300.0,70.24215698242188
2017-08-04,73.23999786376953,72.94000244140625,73.23999786376953,72.94000244140625,1400.0,70.56139373779297
2017-08-07,74.05999755859375,73.20999908447266,73.20999908447266,74.05000305175781,1500.0,71.63520050048828
2017-08-08,74.08799743652344,73.81999969482422,73.95999908447266,73.81999969482422,1400.0,71.4126968383789
2017-08-09,73.66999816894531,73.05000305175781,73.43000030517578,73.55999755859375,2400.0,71.16117858886719
2017-08-10,72.97000122070312,71.69999694824219,72.97000122070312,71.69999694824219,1600.0,69.36182403564453
2017-08-11,72.31099700927734,71.5,71.5,72.2699966430664,8500.0,69.91323852539062
2017-08-14,73.76000213623047,73.59600067138672,73.75,73.59600067138672,1700.0,71.19599914550781
2017-08-15,73.5999984741211,73.33999633789062,73.5999984741211,73.38500213623047,2300.0,70.99188995361328
2017-08-16,74.0,73.52999877929688,73.58000183105469,73.7699966430664,20700.0,71.36432647705078
2017-08-17,73.73999786376953,73.26000213623047,73.66999816894531,73.2699966430664,1700.0,70.88063049316406
2017-08-18,72.8499984741211,72.13999938964844,72.77999877929688,72.69100189208984,4000.0,70.32051086425781
2017-08-21,72.86000061035156,72.76399993896484,72.79000091552734,72.76399993896484,1100.0,70.3911361694336
2017-08-22,73.41000366210938,73.11000061035156,73.33000183105469,73.25399780273438,2100.0,70.86515045166016
2017-08-23,73.5999984741211,72.66000366210938,72.9000015258789,73.5999984741211,2400.0,71.19986724853516
2017-08-24,73.87999725341797,73.58999633789062,73.87999725341797,73.7699966430664,1500.0,71.36432647705078
2017-08-25,73.91000366210938,73.88999938964844,73.88999938964844,73.91000366210938,700.0,71.49977111816406
2017-08-28,73.37000274658203,72.83000183105469,73.37000274658203,72.83000183105469,1400.0,70.45498657226562
2017-08-29,73.29000091552734,72.31999969482422,72.31999969482422,73.29000091552734,1300.0,70.89997863769531
2017-08-30,73.97899627685547,73.30999755859375,73.30999755859375,73.97899627685547,1800.0,71.5665054321289
2017-08-31,75.02999877929688,74.37000274658203,74.37000274658203,74.97000122070312,1700.0,72.52519226074219
2017-09-01,75.0199966430664,74.70999908447266,75.0199966430664,74.70999908447266,900.0,72.27366638183594
2017-09-05,75.08999633789062,74.0250015258789,74.88999938964844,74.61000061035156,2900.0,72.17693328857422
2017-09-06,74.95999908447266,74.40799713134766,74.95999908447266,74.40799713134766,2300.0,71.98152160644531
2017-09-07,75.09500122070312,74.80999755859375,74.80999755859375,75.09500122070312,1100.0,72.6461181640625
2017-09-08,75.36000061035156,75.18000030517578,75.36000061035156,75.18000030517578,900.0,72.72834777832031
2017-09-11,76.36000061035156,75.62000274658203,75.62000274658203,76.36000061035156,2100.0,73.86986541748047
2017-09-12,76.94999694824219,76.94999694824219,76.94999694824219,76.94999694824219,300.0,74.44062805175781
2017-09-13,77.27899932861328,77.052001953125,77.27899932861328,77.052001953125,5700.0,74.53929901123047
2017-09-14,76.98999786376953,76.47000122070312,76.61000061035156,76.98999786376953,2300.0,74.47931671142578
2017-09-15,77.25,76.97000122070312,77.11000061035156,77.25,2600.0,74.73084259033203
2017-09-18,77.7699966430664,77.5,77.5,77.5,2000.0,74.97269439697266
2017-09-19,77.69999694824219,77.47000122070312,77.69999694824219,77.47000122070312,1100.0,74.94367218017578
2017-09-20,77.25,76.79000091552734,77.10199737548828,76.79000091552734,1200.0,74.28584289550781
2017-09-21,77.06999969482422,76.98999786376953,77.05999755859375,77.06999969482422,1300.0,74.55671691894531
2017-09-22,77.02999877929688,76.98999786376953,77.02999877929688,76.98999786376953,800.0,74.47931671142578
2017-09-25,77.1500015258789,75.41000366210938,77.1500015258789,75.41000366210938,2200.0,72.95084381103516
2017-09-26,76.41999816894531,75.71800231933594,75.98999786376953,76.05999755859375,3700.0,73.57964324951172
2017-09-27,77.33000183105469,76.75,76.75,77.33000183105469,1200.0,74.80823516845703
2017-09-28,77.12999725341797,76.68000030517578,77.05000305175781,77.05500030517578,2000.0,74.54219818115234
2017-09-29,77.54000091552734,77.36000061035156,77.36000061035156,77.4469985961914,1100.0,74.92141723632812
2017-10-02,77.87999725341797,77.69000244140625,77.69000244140625,77.87999725341797,700.0,75.34029388427734
2017-10-03,79.02999877929688,78.69999694824219,78.69999694824219,79.02999877929688,2100.0,76.45279693603516
2017-10-04,78.98999786376953,78.5,78.98999786376953,78.81800079345703,3700.0,76.24771118164062
2017-10-05,78.91000366210938,78.58999633789062,78.91000366210938,78.69999694824219,2300.0,76.13355255126953
2017-10-06,79.08499908447266,78.58999633789062,78.58999633789062,79.08499908447266,1600.0,76.5060043334961
2017-10-09,79.69999694824219,79.23699951171875,79.23699951171875,79.31999969482422,1400.0,76.73334503173828
2017-10-10,79.4800033569336,78.75,79.43000030517578,78.94999694824219,2200.0,76.37539672851562
2017-10-11,79.30000305175781,78.8499984741211,78.8499984741211,79.20999908447266,1100.0,76.62692260742188
2017-10-12,79.37000274658203,79.13999938964844,79.22000122070312,79.29000091552734,3000.0,76.7043228149414
2017-10-13,79.95999908447266,79.58000183105469,79.58000183105469,79.76000213623047,2100.0,77.15899658203125
2017-10-16,79.98999786376953,79.80000305175781,79.98999786376953,79.91999816894531,2700.0,77.31376647949219
2017-10-17,79.98999786376953,79.69999694824219,79.98999786376953,79.69999694824219,1700.0,77.10094451904297
2017-10-18,80.18000030517578,80.08000183105469,80.08000183105469,80.18000030517578,1500.0,77.56529235839844
2017-10-19,79.7699966430664,79.08999633789062,79.7699966430664,79.36000061035156,3300.0,76.77203369140625
2017-10-20,79.97000122070312,79.80999755859375,79.8499984741211,79.88099670410156,2100.0,77.27603912353516
2017-10-23,79.98999786376953,79.44999694824219,79.91999816894531,79.44999694824219,3700.0,76.85909271240234
2017-10-24,79.7300033569336,79.61000061035156,79.66999816894531,79.69999694824219,2300.0,77.10094451904297
2017-10-25,79.79000091552734,78.6500015258789,79.69000244140625,78.6500015258789,2800.0,76.08518981933594
2017-10-26,78.83000183105469,78.5199966430664,78.5199966430664,78.83000183105469,700.0,76.25931549072266
2017-10-27,78.93000030517578,78.75,78.75,78.93000030517578,1000.0,76.3560562133789
2017-10-30,79.19999694824219,78.61000061035156,79.19999694824219,78.91999816894531,2400.0,76.34638214111328
2017-10-31,79.75,79.11000061035156,79.16000366210938,79.75,3100.0,77.1493148803711
2017-11-01,80.06999969482422,78.90599822998047,80.06999969482422,79.30999755859375,2700.0,76.72366333007812
2017-11-02,79.13500213623047,79.05999755859375,79.05999755859375,79.13500213623047,600.0,76.55437469482422
2017-11-03,79.74700164794922,79.08000183105469,79.08000183105469,79.65799713134766,2000.0,77.06031036376953
2017-11-06,80.25,79.8499984741211,79.8499984741211,80.25,1300.0,77.63301086425781
2017-11-07,80.08999633789062,79.29000091552734,80.08999633789062,79.29000091552734,1800.0,76.7043228149414
2017-11-08,80.08999633789062,79.45999908447266,79.4800033569336,80.08999633789062,1600.0,77.47822570800781
2017-11-09,79.83999633789062,78.69000244140625,79.83999633789062,79.14299774169922,2900.0,76.5621109008789
2017-11-10,79.3010025024414,79.16000366210938,79.3010025024414,79.16000366210938,900.0,76.57855987548828
2017-11-13,79.72000122070312,78.94999694824219,79.1500015258789,79.66999816894531,1800.0,77.0719223022461
2017-11-14,79.4000015258789,79.16999816894531,79.4000015258789,79.34600067138672,1700.0,76.75849151611328
2017-11-15,79.47899627685547,78.5,78.9000015258789,79.26000213623047,2500.0,76.67530059814453
2017-11-16,80.55000305175781,80.0,80.02999877929688,80.55000305175781,1800.0,77.92323303222656
2017-11-17,80.48999786376953,80.44000244140625,80.44000244140625,80.48999786376953,900.0,77.86518859863281
2017-11-20,81.62899780273438,81.16999816894531,81.16999816894531,81.51899719238281,1200.0,78.86062622070312
2017-11-21,82.6500015258789,82.2300033569336,82.29000091552734,82.58000183105469,2900.0,79.88703155517578
2017-11-22,82.5999984741211,82.5,82.5999984741211,82.5999984741211,1600.0,79.9063720703125
2017-11-24,82.81999969482422,82.66000366210938,82.66000366210938,82.76599884033203,1200.0,80.06696319580078
2017-11-27,82.83000183105469,82.2979965209961,82.5999984741211,82.2979965209961,2500.0,79.61421966552734
2017-11-28,82.1500015258789,81.6500015258789,82.1500015258789,81.98999786376953,1600.0,79.3162612915039
2017-11-29,81.72000122070312,79.82599639892578,81.72000122070312,79.87000274658203,2200.0,77.2654037475586
2017-11-30,80.25,79.93499755859375,80.25,80.1500015258789,3200.0,77.53627014160156
2017-12-01,79.9000015258789,78.3499984741211,79.8499984741211,79.44999694824219,4500.0,76.85909271240234
2017-12-04,79.88999938964844,78.16000366210938,79.88999938964844,78.4000015258789,3200.0,75.84333801269531
2017-12-05,78.98999786376953,78.37300109863281,78.56999969482422,78.37300109863281,2600.0,75.81722259521484
2017-12-06,78.48999786376953,77.81999969482422,77.81999969482422,77.86399841308594,2000.0,75.32481384277344
2017-12-07,79.11000061035156,78.2300033569336,78.2300033569336,79.11000061035156,800.0,76.53018951416016
2017-12-08,79.81999969482422,79.12999725341797,79.79000091552734,79.19300079345703,3200.0,76.61048126220703
2017-12-11,79.62999725341797,79.4800033569336,79.5,79.57099914550781,1500.0,76.97615051269531
2017-12-12,79.47000122070312,79.19000244140625,79.44000244140625,79.3499984741211,4000.0,76.76235961914062
2017-12-13,79.69999694824219,79.44999694824219,79.44999694824219,79.69999694824219,1300.0,77.10094451904297
2017-12-14,79.7699966430664,79.4000015258789,79.54000091552734,79.4000015258789,1200.0,76.81072998046875
2017-12-15,78.66999816894531,77.76000213623047,77.91000366210938,78.58000183105469,3600.0,77.3392562866211
2017-12-18,79.54000091552734,79.20999908447266,79.30999755859375,79.41999816894531,3200.0,78.16598510742188
2017-12-19,79.56999969482422,79.0,79.37000274658203,79.0,3600.0,77.75261688232422
2017-12-20,79.08000183105469,78.6500015258789,79.08000183105469,78.97000122070312,1800.0,77.72309112548828
2017-12-21,79.20999908447266,78.76000213623047,79.11000061035156,78.76000213623047,2800.0,77.51641082763672
2017-12-22,78.73999786376953,78.33000183105469,78.73999786376953,78.33000183105469,800.0,77.09320068359375
2017-12-26,78.08000183105469,77.70999908447266,77.70999908447266,78.08000183105469,2000.0,76.8471450805664
2017-12-27,78.08000183105469,78.08000183105469,78.08000183105469,78.08000183105469,0.0,76.8471450805664
2017-12-28,78.58999633789062,78.16000366210938,78.58999633789062,78.22000122070312,2100.0,76.98493957519531
2017-12-29,78.33000183105469,78.08000183105469,78.33000183105469,78.0989990234375,3700.0,76.8658447265625
2018-01-02,79.27799987792969,78.45999908447266,78.45999908447266,79.25199890136719,2300.0,78.00064086914062
2018-01-03,80.35800170898438,80.2239990234375,80.2239990234375,80.27999877929688,700.0,79.01240539550781
2018-01-04,81.15899658203125,80.69000244140625,80.69000244140625,81.15899658203125,1900.0,79.87752532958984
2018-01-05,81.46600341796875,81.19999694824219,81.30000305175781,81.45999908447266,3600.0,80.17377471923828
2018-01-08,81.91000366210938,81.04000091552734,81.70999908447266,81.91000366210938,2700.0,80.6166763305664
2018-01-09,82.06999969482422,81.61000061035156,82.06999969482422,81.61000061035156,1300.0,80.3214111328125
2018-01-10,81.26000213623047,80.79000091552734,81.0199966430664,81.22000122070312,2200.0,79.93756866455078
2018-01-11,82.0999984741211,81.41999816894531,81.41999816894531,82.0999984741211,1100.0,80.80367279052734
2018-01-12,82.75,82.29000091552734,82.37999725341797,82.66000366210938,2200.0,81.3548355102539
2018-01-16,83.2699966430664,81.26499938964844,83.22000122070312,81.26499938964844,2300.0,79.98185729980469
2018-01-17,82.55999755859375,81.83999633789062,82.16000366210938,82.51000213623047,3100.0,81.20719909667969
2018-01-18,82.94999694824219,82.76000213623047,82.86000061035156,82.93000030517578,1700.0,81.62056732177734
2018-01-19,83.43000030517578,82.95999908447266,83.12999725341797,83.43000030517578,1700.0,82.1126708984375
2018-01-22,83.26000213623047,83.01000213623047,83.26000213623047,83.2300033569336,1800.0,81.91583251953125
2018-01-23,83.7699966430664,83.58999633789062,83.63600158691406,83.7699966430664,1200.0,82.44729614257812
2018-01-24,84.50499725341797,83.19000244140625,84.33000183105469,83.58999633789062,3300.0,82.2701416015625
2018-01-25,83.94999694824219,83.61000061035156,83.94999694824219,83.80999755859375,1400.0,82.4866714477539
2018-01-26,85.37000274658203,84.31999969482422,84.31999969482422,85.37000274658203,4400.0,84.02204132080078
2018-01-29,85.37999725341797,84.80000305175781,85.05999755859375,84.80000305175781,3000.0,83.46104431152344
2018-01-30,84.27999877929688,83.54000091552734,83.81999969482422,83.98999786376953,3100.0,82.66382598876953
2018-01-31,84.7699966430664,83.91999816894531,84.7699966430664,84.27999877929688,5100.0,82.94924926757812
2018-02-01,84.48999786376953,83.68000030517578,83.68000030517578,84.30000305175781,2300.0,82.96894073486328
2018-02-02,83.66000366210938,82.5999984741211,83.66000366210938,82.61000061035156,4800.0,81.30561828613281
2018-02-05,82.98999786376953,80.20999908447266,81.93000030517578,81.12999725341797,5600.0,79.84898376464844
2018-02-06,81.0,78.23999786376953,78.83000183105469,80.80000305175781,5900.0,79.52420043945312
2018-02-07,81.76499938964844,80.58000183105469,80.73999786376953,81.322998046875,2200.0,80.0389404296875
2018-02-08,81.04000091552734,79.0,81.04000091552734,79.0,5400.0,77.75261688232422
2018-02-09,79.62000274658203,76.67900085449219,79.05000305175781,79.54000091552734,5100.0,78.28409576416016
2018-02-12,80.97000122070312,79.33999633789062,79.94000244140625,80.80999755859375,5300.0,79.5340347290039
2018-02-13,81.5999984741211,80.62000274658203,80.62000274658203,81.5999984741211,900.0,80.31156158447266
2018-02-14,84.26499938964844,81.48999786376953,81.48999786376953,84.26499938964844,1100.0,82.93448638916016
2018-02-15,85.91000366210938,84.47000122070312,85.22799682617188,85.91000366210938,2900.0,84.55352020263672
2018-02-16,86.2300033569336,85.9000015258789,86.12000274658203,86.11000061035156,2800.0,84.75035858154297
2018-02-20,86.95999908447266,85.62000274658203,85.66000366210938,86.43000030517578,4800.0,85.06529998779297
2018-02-21,87.37999725341797,86.2699966430664,86.83000183105469,86.2699966430664,4600.0,84.90782928466797
2018-02-22,86.23999786376953,84.4800033569336,86.13999938964844,85.37000274658203,5500.0,84.02204132080078
2018-02-23,86.80000305175781,85.87000274658203,86.05000305175781,86.80000305175781,1700.0,85.4294662475586
2018-02-26,87.5999984741211,87.20999908447266,87.5999984741211,87.54000091552734,4500.0,86.15777587890625
2018-02-27,87.65499877929688,86.62000274658203,87.41000366210938,86.62200164794922,7700.0,85.2542724609375
2018-02-28,87.4000015258789,86.70999908447266,86.70999908447266,87.27999877929688,4200.0,85.9018783569336
2018-03-01,86.87000274658203,85.0,86.87000274658203,85.91999816894531,2800.0,84.5633544921875
2018-03-02,87.94999694824219,84.9800033569336,85.12000274658203,87.94999694824219,4800.0,86.5613021850586
2018-03-05,89.16999816894531,86.54499816894531,86.54499816894531,89.16999816894531,3900.0,87.76203918457031
2018-03-06,90.05000305175781,89.2300033569336,89.69999694824219,89.86000061035156,4100.0,88.44114685058594
2018-03-07,91.08999633789062,89.47000122070312,89.47000122070312,91.07499694824219,5100.0,89.63695526123047
2018-03-08,91.5,91.0,91.5,91.2699966430664,5500.0,89.8288803100586
2018-03-09,92.37000274658203,91.87999725341797,91.97000122070312,92.31900024414062,10800.0,90.86132049560547
2018-03-12,93.19999694824219,92.79000091552734,92.9800033569336,93.15599822998047,4300.0,91.68509674072266
2018-03-13,93.5999984741211,92.26000213623047,93.5999984741211,92.4000015258789,4000.0,90.9410400390625
2018-03-14,92.30400085449219,91.9000015258789,91.9000015258789,92.18000030517578,3500.0,90.7245101928711
2018-03-15,92.4800033569336,91.48500061035156,92.4800033569336,91.48500061035156,3900.0,90.04048919677734
2018-03-16,92.05000305175781,91.5999984741211,91.93000030517578,92.01000213623047,7800.0,90.55719757080078
2018-03-19,92.0199966430664,89.76000213623047,92.0199966430664,90.47000122070312,5600.0,89.04151153564453
2018-03-20,92.14900207519531,91.08000183105469,91.12000274658203,92.06800079345703,3100.0,90.6142807006836
2018-03-21,92.81999969482422,91.93000030517578,91.93000030517578,92.4800033569336,5100.0,91.019775390625
2018-03-22,91.70700073242188,90.21800231933594,91.4800033569336,90.21800231933594,5000.0,88.79349517822266
2018-03-23,91.33000183105469,87.63999938964844,91.33000183105469,87.63999938964844,6700.0,86.25619506835938
2018-03-26,90.30999755859375,88.02899932861328,89.48999786376953,90.30999755859375,6400.0,88.884033203125
2018-03-27,91.5,86.99500274658203,91.5,87.13999938964844,5300.0,85.76409149169922
2018-03-28,88.08000183105469,85.58999633789062,86.47000122070312,86.68000030517578,4900.0,85.31135559082031
2018-03-29,88.18000030517578,86.30000305175781,86.41000366210938,87.83999633789062,2700.0,86.45303344726562
2018-04-02,87.36000061035156,85.27999877929688,87.06999969482422,85.4800033569336,6300.0,84.13030242919922
2018-04-03,86.02999877929688,85.59400177001953,86.02999877929688,85.87999725341797,3100.0,84.52398681640625
2018-04-04,87.23999786376953,84.31999969482422,84.5,86.89399719238281,13200.0,85.52197265625
2018-04-05,87.30400085449219,86.65499877929688,86.94999694824219,86.65499877929688,2500.0,85.28675079345703
2018-04-06,86.3499984741211,85.29000091552734,86.3499984741211,85.29000091552734,500.0,83.94330596923828
2018-04-09,86.87999725341797,86.13999938964844,86.13999938964844,86.36000061035156,2100.0,84.99640655517578
2018-04-10,87.55999755859375,86.77999877929688,86.77999877929688,87.55000305175781,3900.0,86.16761779785156
2018-04-11,88.6240005493164,87.0,87.16999816894531,87.94000244140625,3000.0,86.55146026611328
2018-04-12,89.14800262451172,88.58999633789062,88.58999633789062,89.14800262451172,1900.0,87.74038696289062
2018-04-13,89.36000061035156,87.9000015258789,89.36000061035156,88.0199966430664,4100.0,86.63019561767578
2018-04-16,88.19999694824219,87.63999938964844,88.0,88.19999694824219,1400.0,86.8073501586914
2018-04-17,90.55000305175781,88.66999816894531,88.66999816894531,90.43000030517578,12200.0,89.00214385986328
2018-04-18,90.83999633789062,89.822998046875,90.5999984741211,90.5999984741211,14500.0,89.1694564819336
2018-04-19,90.29199981689453,89.63999938964844,90.19999694824219,89.63999938964844,2400.0,88.22461700439453
2018-04-20,89.73999786376953,89.09300231933594,89.73999786376953,89.13600158691406,2500.0,87.72857666015625
2018-04-23,89.43000030517578,88.76399993896484,89.26000213623047,88.84500122070312,2600.0,87.44216918945312
2018-04-24,89.48999786376953,87.04000091552734,89.41999816894531,87.45800018310547,8900.0,86.07707214355469
2018-04-25,87.20999908447266,86.01499938964844,87.12000274658203,86.33000183105469,8100.0,84.96688079833984
2018-04-26,88.38600158691406,86.9800033569336,87.0,88.37799835205078,8500.0,86.9825439453125
2018-04-27,88.6500015258789,87.15599822998047,88.6500015258789,87.16000366210938,4700.0,85.78378295898438
2018-04-30,88.04000091552734,87.40899658203125,87.43000030517578,87.56999969482422,4500.0,86.18730163574219
2018-05-01,87.56999969482422,87.56999969482422,87.56999969482422,87.56999969482422,1700.0,86.18730163574219
2018-05-02,88.62999725341797,88.05000305175781,88.05000305175781,88.31999969482422,3400.0,86.92546081542969
2018-05-03,88.11000061035156,86.88300323486328,87.48999786376953,88.11000061035156,2600.0,86.7187728881836
2018-05-04,89.58000183105469,87.75,87.75,89.5199966430664,3400.0,88.10650634765625
2018-05-07,91.94599914550781,89.7300033569336,89.7300033569336,91.16999816894531,9000.0,89.73046112060547
2018-05-08,92.19200134277344,91.20999908447266,91.76000213623047,92.18000030517578,7300.0,90.7245101928711
2018-05-09,93.27999877929688,92.30000305175781,92.5,93.1969985961914,8400.0,91.72545623779297
2018-05-10,94.8499984741211,93.8499984741211,93.8499984741211,94.5,10100.0,93.00788116455078
2018-05-11,94.52999877929688,93.5,94.52999877929688,93.86000061035156,8000.0,92.37798309326172
2018-05-14,94.83000183105469,93.05000305175781,94.55999755859375,93.05000305175781,8600.0,91.58078002929688
2018-05-15,92.48500061035156,90.61000061035156,92.38999938964844,92.23999786376953,6000.0,90.78356170654297
2018-05-16,93.61000061035156,92.69999694824219,92.69999694824219,93.36499786376953,3100.0,91.89080047607422
2018-05-17,94.33000183105469,93.2300033569336,93.29000091552734,93.76499938964844,5200.0,92.28448486328125
2018-05-18,95.75,93.81400299072266,93.91999816894531,94.27999877929688,5600.0,92.79135131835938
2018-05-21,95.52999877929688,93.9229965209961,95.29000091552734,94.13099670410156,9800.0,92.64470672607422
2018-05-22,94.13999938964844,93.69000244140625,94.13999938964844,93.69000244140625,8600.0,92.2106704711914
2018-05-23,93.5739974975586,92.70999908447266,92.70999908447266,93.5739974975586,2000.0,92.09649658203125
2018-05-24,94.37999725341797,93.80999755859375,94.13999938964844,94.37999725341797,5100.0,92.8897705078125
2018-05-25,94.72000122070312,94.4000015258789,94.4000015258789,94.48500061035156,13600.0,92.99311828613281
2018-05-29,94.76000213623047,94.05999755859375,94.05999755859375,94.76000213623047,4600.0,93.26377868652344
2018-05-30,97.05000305175781,95.1500015258789,95.1500015258789,95.98999786376953,11600.0,94.47434997558594
2018-05-31,96.54900360107422,95.7300033569336,96.48999786376953,96.05699920654297,2800.0,94.54029846191406
2018-06-01,97.48999786376953,96.36000061035156,96.36000061035156,97.3499984741211,15300.0,95.81288146972656
2018-06-04,98.21800231933594,97.12999725341797,97.88999938964844,98.05999755859375,9900.0,96.51166534423828
2018-06-05,99.25,98.44000244140625,98.44000244140625,99.20999908447266,18000.0,97.64350891113281
2018-06-06,99.80999755859375,99.01000213623047,99.66000366210938,99.5,14400.0,97.9289321899414
2018-06-07,99.80999755859375,97.3499984741211,99.80999755859375,98.01000213623047,22400.0,96.46246337890625
2018-06-08,99.90699768066406,97.51000213623047,97.51000213623047,98.62999725341797,14500.0,97.07266998291016
2018-06-11,99.68000030517578,98.33999633789062,98.33999633789062,99.30000305175781,27300.0,97.73209381103516
2018-06-12,100.93000030517578,99.52999877929688,99.52999877929688,100.62000274658203,40600.0,99.03125
2018-06-13,101.41999816894531,100.4000015258789,101.04000091552734,100.88700103759766,13600.0,99.29402923583984
2018-06-14,102.07499694824219,101.2699966430664,101.58999633789062,101.81500244140625,12700.0,100.20738220214844
2018-06-15,101.69599914550781,100.6500015258789,101.61000061035156,101.54000091552734,16700.0,99.93672180175781
2018-06-18,102.47000122070312,100.54000091552734,101.1500015258789,102.47000122070312,21200.0,100.85203552246094
2018-06-19,102.25,97.13999938964844,101.01000213623047,101.36000061035156,47500.0,99.75956726074219
2018-06-20,102.37999725341797,101.61000061035156,102.0999984741211,101.61000061035156,23000.0,100.005615234375
2018-06-21,107.0,96.16999816894531,102.05000305175781,99.4000015258789,15500.0,97.83051300048828
2018-06-22,100.73999786376953,98.52999877929688,100.73999786376953,98.73300170898438,13400.0,97.17404174804688
2018-06-25,98.16999816894531,94.76000213623047,98.16999816894531,95.58799743652344,26500.0,94.07869720458984
2018-06-26,96.83000183105469,95.63999938964844,95.63999938964844,96.33699798583984,29900.0,94.81587219238281
2018-06-27,97.0199966430664,93.66000366210938,96.9800033569336,93.66000366210938,17600.0,92.18114471435547
2018-06-28,96.30999755859375,93.3550033569336,93.5199966430664,95.23400115966797,12200.0,93.73029327392578
2018-06-29,96.40799713134766,95.25,96.0199966430664,95.55000305175781,23300.0,94.04130554199219
2018-07-02,96.70999908447266,92.5999984741211,94.87000274658203,96.70999908447266,13000.0,95.1829833984375
2018-07-03,97.58999633789062,96.33100128173828,97.58999633789062,96.33100128173828,13700.0,94.80996704101562
2018-07-05,97.66200256347656,96.16999816894531,97.4000015258789,97.12999725341797,17000.0,95.59635162353516
2018-07-06,99.36499786376953,97.69999694824219,98.51000213623047,98.4800033569336,13400.0,96.92504119873047
2018-07-09,99.80000305175781,98.58000183105469,99.70999908447266,99.22200012207031,9800.0,97.65531921386719
2018-07-10,100.05999755859375,98.83000183105469,100.05999755859375,99.16999816894531,10300.0,97.60414123535156
2018-07-11,99.16999816894531,98.13999938964844,98.58000183105469,98.84300231933594,13100.0,97.28231048583984
2018-07-12,101.37999725341797,99.7300033569336,99.94000244140625,101.37999725341797,17700.0,99.77924346923828
2018-07-13,101.83000183105469,100.31999969482422,101.83000183105469,100.45899963378906,18000.0,98.87278747558594
2018-07-16,100.80999755859375,100.14900207519531,100.2300033569336,100.2760009765625,9700.0,98.69268035888672
2018-07-17,103.41999816894531,99.86000061035156,103.41999816894531,101.41000366210938,12000.0,99.80877685546875
2018-07-18,102.12000274658203,100.76000213623047,102.12000274658203,101.44499969482422,10600.0,99.84322357177734
2018-07-19,102.16999816894531,100.98999786376953,102.16999816894531,101.19999694824219,6100.0,99.60208892822266
2018-07-20,102.0999984741211,100.58999633789062,102.0999984741211,100.58999633789062,7200.0,99.00171661376953
2018-07-23,100.9489974975586,100.0,100.0,100.9489974975586,8800.0,99.35504913330078
2018-07-24,102.2300033569336,96.76000213623047,102.2300033569336,98.92500305175781,11300.0,97.3630142211914
2018-07-25,101.69999694824219,96.0,99.30000305175781,100.77100372314453,17400.0,99.17987060546875
2018-07-26,101.0,99.8499984741211,100.94999694824219,100.73999786376953,18000.0,99.14935302734375
2018-07-27,101.73999786376953,96.86000061035156,101.73999786376953,97.29000091552734,10800.0,95.75382995605469
2018-07-30,97.8270034790039,93.44000244140625,97.0199966430664,94.16000366210938,24400.0,92.67325592041016
2018-07-31,97.69999694824219,93.04100036621094,97.69999694824219,94.12000274658203,13200.0,92.63388061523438
2018-08-01,98.08000183105469,94.7300033569336,98.08000183105469,94.87899780273438,6900.0,93.38089752197266
2018-08-02,102.22000122070312,94.68000030517578,94.68000030517578,96.7300033569336,58300.0,95.20267486572266
2018-08-03,96.9800033569336,95.23100280761719,96.58000183105469,95.65799713134766,8200.0,94.14759063720703
2018-08-06,97.24800109863281,95.93000030517578,96.5999984741211,97.13999938964844,7100.0,95.60619354248047
2018-08-07,98.23999786376953,96.79000091552734,96.79000091552734,98.0,11700.0,96.4526138305664
2018-08-08,98.38300323486328,97.4800033569336,98.0,97.83999633789062,11100.0,96.29513549804688
2018-08-09,99.47000122070312,98.3499984741211,98.37000274658203,99.12000274658203,16200.0,97.554931640625
2018-08-10,99.88999938964844,98.80000305175781,98.91000366210938,99.56999969482422,8700.0,97.9978256225586
2018-08-13,100.80000305175781,98.33000183105469,99.11000061035156,98.33000183105469,21400.0,96.77740478515625
2018-08-14,99.8499984741211,97.94000244140625,99.8499984741211,98.9000015258789,16900.0,97.33840942382812
2018-08-15,99.08000183105469,96.97799682617188,99.08000183105469,97.62000274658203,8900.0,96.07862091064453
2018-08-16,98.552001953125,97.6500015258789,97.6500015258789,98.33000183105469,5000.0,96.77740478515625
2018-08-17,98.94999694824219,97.37000274658203,98.94999694824219,98.19999694824219,10500.0,96.64945220947266
2018-08-20,99.48999786376953,96.81999969482422,99.48999786376953,98.79000091552734,37200.0,97.23014068603516
2018-08-21,100.11000061035156,99.13999938964844,99.44000244140625,99.5999984741211,13000.0,98.02735137939453
2018-08-22,101.66999816894531,99.87000274658203,99.98999786376953,100.81800079345703,34000.0,99.22611999511719
2018-08-23,102.91000366210938,100.66000366210938,100.66000366210938,101.61900329589844,10100.0,100.01448059082031
2018-08-24,103.29000091552734,102.36000061035156,102.36000061035156,103.25,11100.0,101.61972045898438
2018-08-27,104.8499984741211,103.8499984741211,104.12000274658203,104.05000305175781,13300.0,102.40708923339844
2018-08-28,105.44000244140625,103.88999938964844,105.44000244140625,104.22699737548828,8000.0,102.58129119873047
2018-08-29,105.3499984741211,104.48999786376953,104.5,105.12999725341797,27200.0,103.47003173828125
2018-08-30,105.69999694824219,104.55999755859375,105.47000122070312,104.5999984741211,28100.0,102.94840240478516
2018-08-31,105.30000305175781,104.33000183105469,104.33000183105469,105.18900299072266,6500.0,103.52810668945312
2018-09-04,105.4800033569336,104.43000030517578,105.19999694824219,105.36000061035156,11200.0,103.69640350341797
2018-09-05,105.83000183105469,101.52999877929688,105.83000183105469,102.63200378417969,26100.0,101.01148223876953
2018-09-06,103.10199737548828,101.7699966430664,102.5,102.37000274658203,6800.0,100.75361633300781
2018-09-07,104.4000015258789,101.94000244140625,102.47000122070312,103.02999877929688,14100.0,101.40319061279297
2018-09-10,105.36000061035156,102.51000213623047,103.71800231933594,103.4749984741211,11200.0,101.8411636352539
2018-09-11,104.52999877929688,103.0,103.0,104.25499725341797,6500.0,102.60884857177734
2018-09-12,104.44999694824219,102.43000030517578,103.56999969482422,104.19000244140625,9200.0,102.54488372802734
2018-09-13,106.05999755859375,104.83899688720703,105.1500015258789,105.30599975585938,24900.0,103.64325714111328
2018-09-14,105.97000122070312,105.27999877929688,105.8499984741211,105.41999816894531,24500.0,103.75545501708984
2018-09-17,104.04000091552734,103.12000274658203,104.04000091552734,103.22699737548828,5100.0,101.59708404541016
2018-09-18,104.45999908447266,103.97000122070312,103.97000122070312,104.1500015258789,7000.0,102.50550842285156
2018-09-19,103.33499908447266,102.60199737548828,103.27200317382812,102.94000244140625,4700.0,101.31462097167969
2018-09-20,104.18000030517578,103.48999786376953,104.13999938964844,104.02999877929688,8000.0,102.38740539550781
2018-09-21,104.62000274658203,102.83000183105469,104.62000274658203,103.22000122070312,7400.0,101.59019470214844
2018-09-24,103.18900299072266,101.16999816894531,102.19999694824219,102.93399810791016,13800.0,101.30870819091797
2018-09-25,104.45999908447266,103.27999877929688,104.45999908447266,104.0,10800.0,102.35787963867188
2018-09-26,104.94999694824219,103.38999938964844,104.94999694824219,103.42500305175781,15300.0,101.79196166992188
2018-09-27,104.91000366210938,103.4000015258789,104.91000366210938,103.45999908447266,31700.0,101.82640075683594
2018-09-28,104.37000274658203,103.38999938964844,103.87000274658203,103.69999694824219,9700.0,102.06261444091797
2018-10-01,104.93000030517578,102.31999969482422,104.93000030517578,102.31999969482422,5100.0,100.70440673828125
2018-10-02,102.26000213623047,99.70999908447266,102.26000213623047,99.8499984741211,19400.0,98.27340698242188
2018-10-03,101.2699966430664,100.16999816894531,100.7300033569336,100.94999694824219,26300.0,99.35603332519531
2018-10-04,100.72000122070312,97.9000015258789,100.72000122070312,98.33999633789062,19600.0,96.78724670410156
2018-10-05,99.2300033569336,96.27999877929688,99.2300033569336,97.51000213623047,13700.0,95.97035217285156
2018-10-08,97.05999755859375,94.0,97.05999755859375,94.91999816894531,13300.0,93.42124938964844
2018-10-09,95.59400177001953,94.0999984741211,94.76000213623047,94.16000366210938,16500.0,92.67325592041016
2018-10-10,93.89399719238281,90.18000030517578,93.89399719238281,90.63999938964844,17200.0,89.20882415771484
2018-10-11,91.31999969482422,88.91999816894531,90.05000305175781,89.66000366210938,27700.0,88.24430847167969
2018-10-12,92.79000091552734,90.44200134277344,90.81999969482422,91.66999816894531,20800.0,90.22256469726562
2018-10-15,92.1969985961914,90.36000061035156,91.75,91.4800033569336,17400.0,90.03556823730469
2018-10-16,94.83999633789062,92.11000061035156,92.1500015258789,94.83999633789062,14800.0,93.3425064086914
2018-10-17,95.5,93.70999908447266,95.5,94.37300109863281,10900.0,92.88288879394531
2018-10-18,94.54000091552734,91.88999938964844,94.54000091552734,92.20999908447266,11000.0,90.75403594970703
2018-10-19,93.26000213623047,89.83999633789062,92.68000030517578,89.83999633789062,8000.0,88.42145538330078
2018-10-22,91.58000183105469,90.0,90.44000244140625,91.4000015258789,16400.0,89.95683288574219
2018-10-23,91.05999755859375,88.58000183105469,90.08000183105469,90.88999938964844,14500.0,89.45487976074219
2018-10-24,91.36000061035156,86.06999969482422,91.36000061035156,86.06999969482422,18000.0,84.71098327636719
2018-10-25,88.96399688720703,86.94999694824219,87.86000061035156,88.53700256347656,23700.0,87.1390380859375
2018-10-26,88.0999984741211,84.83000183105469,87.63999938964844,86.58999633789062,43200.0,85.22277069091797
2018-10-29,88.26000213623047,83.69999694824219,87.41999816894531,84.87000274658203,5200.0,83.52993774414062
2018-10-30,86.81999969482422,84.55999755859375,86.0999984741211,86.58000183105469,23700.0,85.21293640136719
2018-10-31,90.37999725341797,88.5199966430664,88.54000091552734,90.12000274658203,21100.0,88.6970443725586
2018-11-01,92.91000366210938,89.76000213623047,90.62000274658203,92.72000122070312,30300.0,91.25598907470703
2018-11-02,93.43000030517578,91.33000183105469,93.43000030517578,91.81999969482422,12000.0,90.37019348144531
2018-11-05,92.30000305175781,89.73999786376953,91.7300033569336,91.05000305175781,32500.0,89.61235809326172
2018-11-06,91.81999969482422,90.62999725341797,90.66999816894531,90.83999633789062,19400.0,89.40567016601562
2018-11-07,94.62999725341797,92.0009994506836,92.0009994506836,94.62999725341797,25200.0,93.13582611083984
2018-11-08,94.77999877929688,93.0,94.66999816894531,93.6500015258789,17100.0,92.17130279541016
2018-11-09,92.5,90.37999725341797,92.5,91.2300033569336,9100.0,89.78951263427734
2018-11-12,90.44999694824219,86.87999725341797,90.44999694824219,87.63999938964844,24700.0,86.25619506835938
2018-11-13,89.36299896240234,87.61000061035156,88.6500015258789,88.0199966430664,18100.0,86.63019561767578
2018-11-14,89.41999816894531,87.57099914550781,88.97000122070312,88.08000183105469,18100.0,86.68925476074219
2018-11-15,90.40699768066406,88.05999755859375,88.20999908447266,90.18900299072266,15200.0,88.76495361328125
2018-11-16,90.02999877929688,88.66000366210938,89.02999877929688,89.8499984741211,15400.0,88.4312973022461
2018-11-19,89.29000091552734,84.37000274658203,89.29000091552734,84.37000274658203,27600.0,83.03783416748047
2018-11-20,84.47000122070312,81.54000091552734,82.5,83.03900146484375,23800.0,81.72784423828125
2018-11-21,85.62999725341797,84.02999877929688,84.02999877929688,85.43499755859375,9000.0,84.08601379394531
2018-11-23,85.70999908447266,84.86000061035156,84.86000061035156,85.2699966430664,5800.0,83.92361450195312
2018-11-26,87.61699676513672,86.3499984741211,86.75,87.51599884033203,9800.0,86.1341552734375
2018-11-27,87.39800262451172,86.38999938964844,86.94000244140625,86.74099731445312,34800.0,85.37139129638672
2018-11-28,90.05000305175781,87.08000183105469,87.08000183105469,90.04000091552734,42800.0,88.61830139160156
2018-11-29,91.01399993896484,89.16999816894531,89.9800033569336,90.4000015258789,17500.0,88.97261810302734
2018-11-30,91.58999633789062,90.0999984741211,90.0999984741211,91.58999633789062,11200.0,90.1438217163086
2018-12-03,95.13999938964844,92.28900146484375,95.13999938964844,93.29000091552734,18100.0,91.81698608398438
2018-12-04,93.08999633789062,89.68000030517578,92.55000305175781,89.68000030517578,16700.0,88.26398468017578
2018-12-06,90.75,87.16000366210938,87.68000030517578,90.75,18600.0,89.31709289550781
2018-12-07,91.18000030517578,87.08000183105469,90.2699966430664,87.73999786376953,23700.0,86.3546142578125
2018-12-10,89.16000366210938,87.19000244140625,87.19000244140625,88.95899963378906,18800.0,87.55436706542969
2018-12-11,90.7699966430664,88.38999938964844,89.30999755859375,89.11199951171875,32800.0,87.7049560546875
2018-12-12,91.94000244140625,89.52999877929688,89.52999877929688,90.68299865722656,18200.0,89.25114440917969
2018-12-13,91.47100067138672,89.41999816894531,91.47100067138672,89.70999908447266,8600.0,88.29351043701172
2018-12-14,89.55000305175781,87.86000061035156,89.1500015258789,88.09100341796875,10200.0,86.70008087158203
2018-12-17,87.3949966430664,84.06700134277344,87.33999633789062,84.2229995727539,12400.0,82.89315032958984
2018-12-18,85.6500015258789,84.44000244140625,84.44000244140625,85.41200256347656,32500.0,84.0633773803711
2018-12-19,86.87200164794922,83.41999816894531,85.08000183105469,83.91000366210938,20000.0,82.58509826660156
2018-12-20,84.0,80.2239990234375,83.4000015258789,81.59400177001953,17800.0,80.3056640625
2018-12-21,81.7239990234375,78.2699966430664,81.58999633789062,78.40599822998047,14900.0,77.16799926757812
2018-12-24,78.12899780273438,76.05000305175781,76.05000305175781,76.9800033569336,119200.0,76.9800033569336
2018-12-26,81.20999908447266,77.13700103759766,77.44000244140625,81.20999908447266,8900.0,81.20999908447266
2018-12-27,81.91999816894531,79.30899810791016,80.28700256347656,81.91999816894531,23500.0,81.91999816894531
2018-12-28,82.98999786376953,81.05500030517578,81.91999816894531,82.33999633789062,34000.0,82.33999633789062
2018-12-31,82.94000244140625,82.08999633789062,82.70999908447266,82.70999908447266,13500.0,82.70999908447266
2019-01-02,83.38200378417969,80.7300033569336,80.7300033569336,82.85099792480469,14900.0,82.85099792480469
2019-01-03,81.2300033569336,79.7699966430664,80.33599853515625,79.8489990234375,21500.0,79.8489990234375
2019-01-04,84.0009994506836,82.26000213623047,82.27999877929688,83.76699829101562,5600.0,83.76699829101562
2019-01-07,86.30000305175781,84.2300033569336,84.2300033569336,86.26000213623047,10500.0,86.26000213623047
2019-01-08,87.55999755859375,85.88300323486328,86.80999755859375,87.14099884033203,12000.0,87.14099884033203
2019-01-09,88.4489974975586,87.16999816894531,87.16999816894531,88.12000274658203,7900.0,88.12000274658203
2019-01-10,88.52300262451172,87.38999938964844,87.38999938964844,88.52300262451172,5700.0,88.52300262451172
2019-01-11,88.83000183105469,87.8499984741211,88.41000366210938,88.52400207519531,8400.0,88.52400207519531
2019-01-14,87.55899810791016,86.66000366210938,86.87999725341797,87.14900207519531,5300.0,87.14900207519531
2019-01-15,88.87999725341797,87.16000366210938,87.16000366210938,88.7699966430664,7600.0,88.7699966430664
2019-01-16,89.51000213623047,88.54000091552734,88.66000366210938,88.66999816894531,9500.0,88.66999816894531
2019-01-17,90.36000061035156,88.12999725341797,88.12999725341797,89.86000061035156,11100.0,89.86000061035156
2019-01-18,92.11100006103516,90.30999755859375,90.5,91.48999786376953,7800.0,91.48999786376953
2019-01-22,90.51000213623047,88.87000274658203,90.51000213623047,89.26000213623047,8900.0,89.26000213623047
2019-01-23,90.25,88.5,89.58999633789062,89.26000213623047,5300.0,89.26000213623047
2019-01-24,91.04299926757812,89.7969970703125,89.7969970703125,91.04299926757812,34400.0,91.04299926757812
2019-01-25,93.56999969482422,91.51000213623047,91.51000213623047,93.45500183105469,14200.0,93.45500183105469
2019-01-28,92.73400115966797,91.5199966430664,92.62000274658203,92.6719970703125,5500.0,92.6719970703125
2019-01-29,92.552001953125,91.69999694824219,92.44999694824219,91.75,7200.0,91.75
2019-01-30,93.58999633789062,92.06999969482422,92.1500015258789,93.54199981689453,10000.0,93.54199981689453
2019-01-31,95.6500015258789,93.41999816894531,93.41999816894531,95.38999938964844,20200.0,95.38999938964844
2019-02-01,96.55000305175781,95.3499984741211,95.83000183105469,96.5,16100.0,96.5
2019-02-04,98.0,96.5999984741211,96.5999984741211,97.7239990234375,18900.0,97.7239990234375
2019-02-05,98.45999908447266,97.81500244140625,98.25,98.2699966430664,17600.0,98.2699966430664
2019-02-06,98.5999984741211,97.97100067138672,98.11000061035156,98.20700073242188,11800.0,98.20700073242188
2019-02-07,97.0,95.51100158691406,96.88999938964844,96.38400268554688,12100.0,96.38400268554688
2019-02-08,97.63999938964844,95.4800033569336,95.4800033569336,97.56300354003906,12200.0,97.56300354003906
2019-02-11,98.5,97.53600311279297,98.04000091552734,97.76499938964844,32200.0,97.76499938964844
2019-02-12,100.03700256347656,98.29000091552734,98.29000091552734,100.03700256347656,23200.0,100.03700256347656
2019-02-13,100.37000274658203,99.58399963378906,100.30000305175781,99.86399841308594,8300.0,99.86399841308594
2019-02-14,101.05000305175781,99.62999725341797,99.86000061035156,100.79900360107422,15300.0,100.79900360107422
2019-02-15,101.25,100.43000030517578,101.25,100.64399719238281,12800.0,100.64399719238281
2019-02-19,101.30000305175781,100.06999969482422,100.06999969482422,101.1259994506836,12800.0,101.1259994506836
2019-02-20,101.97000122070312,100.9800033569336,101.08999633789062,101.12000274658203,12900.0,101.12000274658203
2019-02-21,101.44000244140625,99.93099975585938,101.44000244140625,100.39600372314453,15000.0,100.39600372314453
2019-02-22,102.73999786376953,100.37000274658203,100.37000274658203,102.73500061035156,7100.0,102.73500061035156
2019-02-25,104.43900299072266,103.41600036621094,103.45999908447266,103.58999633789062,12600.0,103.58999633789062
2019-02-26,103.43000030517578,102.72000122070312,102.97000122070312,103.0009994506836,11800.0,103.0009994506836
2019-02-27,103.56999969482422,102.26000213623047,102.91000366210938,103.48999786376953,12000.0,103.48999786376953
2019-02-28,104.2300033569336,102.5199966430664,104.2300033569336,102.90699768066406,12200.0,102.90699768066406
2019-03-01,104.73999786376953,102.91400146484375,104.73999786376953,103.69400024414062,17400.0,103.69400024414062
2019-03-04,104.4800033569336,100.58999633789062,104.08999633789062,101.9229965209961,17700.0,101.9229965209961
2019-03-05,102.43000030517578,101.59100341796875,102.11000061035156,102.29000091552734,14600.0,102.29000091552734
2019-03-06,102.55999755859375,100.61499786376953,102.55999755859375,100.7239990234375,8300.0,100.7239990234375
2019-03-07,100.68000030517578,99.41799926757812,100.31999969482422,99.72000122070312,12100.0,99.72000122070312
2019-03-08,99.7030029296875,97.45999908447266,98.94000244140625,99.7030029296875,12600.0,99.7030029296875
2019-03-11,102.70999908447266,100.61000061035156,100.61000061035156,102.5459976196289,8000.0,102.5459976196289
2019-03-12,103.16000366210938,102.05000305175781,102.87999725341797,102.6760025024414,9000.0,102.6760025024414
2019-03-13,103.41999816894531,102.54000091552734,102.81999969482422,102.68499755859375,10000.0,102.68499755859375
2019-03-14,103.5,102.54000091552734,103.12999725341797,102.93499755859375,9100.0,102.93499755859375
2019-03-15,104.18000030517578,103.24099731445312,103.45999908447266,103.62999725341797,19000.0,103.62999725341797
2019-03-18,104.51799774169922,103.11699676513672,103.7699966430664,103.94300079345703,5200.0,103.94300079345703
2019-03-19,104.94999694824219,104.2300033569336,104.86000061035156,104.5780029296875,9400.0,104.5780029296875
2019-03-20,105.0,103.30999755859375,104.58999633789062,104.31800079345703,6500.0,104.31800079345703
2019-03-21,106.66000366210938,105.59300231933594,105.59300231933594,106.58200073242188,15200.0,106.58200073242188
2019-03-22,106.0,102.87799835205078,106.0,102.87799835205078,14400.0,102.87799835205078
2019-03-25,103.14600372314453,101.81999969482422,102.10600280761719,102.9520034790039,5100.0,102.9520034790039
2019-03-26,104.31300354003906,103.09500122070312,104.30000305175781,103.49600219726562,2700.0,103.49600219726562
2019-03-27,103.3499984741211,100.98500061035156,103.3499984741211,102.0719985961914,6600.0,102.0719985961914
2019-03-28,103.0530014038086,101.9209976196289,101.9209976196289,102.88700103759766,3700.0,102.88700103759766
2019-03-29,104.45999908447266,103.55999755859375,103.55999755859375,104.44599914550781,12300.0,104.44599914550781
2019-04-01,105.85199737548828,104.80000305175781,105.33000183105469,105.85199737548828,11600.0,105.85199737548828
2019-04-02,106.37999725341797,105.38400268554688,105.38400268554688,106.36900329589844,5100.0,106.36900329589844
2019-04-03,108.11299896240234,107.08000183105469,107.37000274658203,107.43000030517578,12500.0,107.43000030517578
2019-04-04,107.79000091552734,104.3290023803711,107.79000091552734,105.62799835205078,20300.0,105.62799835205078
2019-04-05,106.69000244140625,106.25499725341797,106.3030014038086,106.30599975585938,5100.0,106.30599975585938
2019-04-08,106.44999694824219,105.0,106.29000091552734,106.44999694824219,4100.0,106.44999694824219
2019-04-09,106.41899871826172,105.94999694824219,106.16999816894531,105.94999694824219,4800.0,105.94999694824219
2019-04-10,107.0199966430664,105.72000122070312,105.72000122070312,106.90499877929688,5700.0,106.90499877929688
2019-04-11,107.16000366210938,106.63700103759766,106.9800033569336,106.68000030517578,28800.0,106.68000030517578
2019-04-12,107.38500213623047,106.94000244140625,107.18000030517578,107.34700012207031,5500.0,107.34700012207031
2019-04-15,107.4000015258789,106.3499984741211,107.37000274658203,106.8239974975586,22400.0,106.8239974975586
2019-04-16,107.77899932861328,106.76000213623047,107.20999908447266,106.9800033569336,5700.0,106.9800033569336
2019-04-17,107.79000091552734,105.62999725341797,107.79000091552734,105.97899627685547,5600.0,105.97899627685547
2019-04-18,105.9000015258789,104.17400360107422,105.9000015258789,105.3759994506836,16900.0,105.3759994506836
2019-04-22,106.5199966430664,104.56999969482422,104.56999969482422,106.41000366210938,8600.0,106.41000366210938
2019-04-23,108.47000122070312,106.47000122070312,106.47000122070312,108.18000030517578,12100.0,108.18000030517578
2019-04-24,108.72100067138672,108.08999633789062,108.45999908447266,108.11299896240234,4400.0,108.11299896240234
2019-04-25,108.79499816894531,107.0,108.08000183105469,107.94200134277344,4600.0,107.94200134277344
2019-04-26,108.5,107.06199645996094,107.06199645996094,108.47599792480469,6100.0,108.47599792480469
2019-04-29,109.54000091552734,108.875,108.94999694824219,109.14600372314453,5400.0,109.14600372314453
2019-04-30,109.51000213623047,107.94999694824219,108.5199966430664,109.23899841308594,8500.0,109.23899841308594
2019-05-01,109.61000061035156,107.96399688720703,109.33000183105469,107.96399688720703,4000.0,107.96399688720703
2019-05-02,108.91999816894531,106.83999633789062,107.58000183105469,108.14800262451172,6100.0,108.14800262451172
2019-05-03,109.9000015258789,108.33999633789062,108.33999633789062,109.80000305175781,7100.0,109.80000305175781
2019-05-06,109.45999908447266,106.88999938964844,107.0999984741211,109.23999786376953,8300.0,109.23999786376953
2019-05-07,108.447998046875,105.75199890136719,108.08000183105469,106.77999877929688,8300.0,106.77999877929688
2019-05-08,106.96800231933594,105.9000015258789,105.9000015258789,106.30999755859375,4000.0,106.30999755859375
2019-05-09,106.5979995727539,103.87000274658203,105.0199966430664,106.39299774169922,10500.0,106.39299774169922
2019-05-10,106.43299865722656,103.79100036621094,105.52999877929688,105.95800018310547,6700.0,105.95800018310547
2019-05-13,103.01000213623047,101.06099700927734,103.01000213623047,101.33200073242188,10500.0,101.33200073242188
2019-05-14,103.79000091552734,102.19000244140625,102.19000244140625,103.37000274658203,4200.0,103.37000274658203
2019-05-15,105.02999877929688,102.45999908447266,102.88999938964844,104.75800323486328,13000.0,104.75800323486328
2019-05-16,106.68000030517578,104.66000366210938,104.9800033569336,106.22000122070312,5600.0,106.22000122070312
2019-05-17,106.29000091552734,104.61000061035156,105.43000030517578,104.68000030517578,3100.0,104.68000030517578
2019-05-20,103.36000061035156,102.11000061035156,103.19999694824219,102.41400146484375,7800.0,102.41400146484375
2019-05-21,104.13099670410156,103.66999816894531,103.66999816894531,103.84400177001953,3200.0,103.84400177001953
2019-05-22,104.16899871826172,103.05000305175781,103.41000366210938,103.33000183105469,7100.0,103.33000183105469
2019-05-23,101.9800033569336,100.44999694824219,101.73999786376953,100.95999908447266,33700.0,100.95999908447266
2019-05-24,101.76100158691406,101.33999633789062,101.64099884033203,101.58200073242188,2900.0,101.58200073242188
