Date,High,Low,Open,Close,Volume,Adj Close
2017-11-02,18.399999618530273,17.450000762939453,17.5,17.700000762939453,505900.0,17.700000762939453
2017-11-03,18.25,17.649999618530273,17.75,17.850000381469727,333300.0,17.850000381469727
2017-11-06,18.200000762939453,17.649999618530273,17.950000762939453,17.700000762939453,211500.0,17.700000762939453
2018-05-24,24.68000030517578,24.100000381469727,24.100000381469727,24.450000762939453,188000.0,24.450000762939453
2018-05-25,26.200000762939453,24.399999618530273,24.399999618530273,25.299999237060547,337200.0,25.299999237060547
2018-05-29,25.350000381469727,24.649999618530273,25.350000381469727,24.75,240900.0,24.75
2018-05-30,25.200000762939453,24.649999618530273,24.899999618530273,24.899999618530273,229100.0,24.899999618530273
2018-05-31,25.299999237060547,24.049999237060547,25.149999618530273,24.25,207900.0,24.25
2018-06-01,24.950000762939453,24.049999237060547,24.399999618530273,24.799999237060547,292500.0,24.799999237060547
2018-06-04,25.350000381469727,24.790000915527344,24.799999237060547,25.100000381469727,286100.0,25.100000381469727
2018-06-05,27.0,24.75,25.049999237060547,26.799999237060547,673900.0,26.799999237060547
2018-06-06,27.0,26.149999618530273,26.75,26.649999618530273,639000.0,26.649999618530273
2018-06-07,27.0,26.450000762939453,26.799999237060547,27.0,1321800.0,27.0
2018-06-08,31.549999237060547,26.0,31.0,26.850000381469727,4362600.0,26.850000381469727
2018-06-11,27.299999237060547,26.0,26.850000381469727,26.700000762939453,939000.0,26.700000762939453
2018-06-12,28.200000762939453,26.700000762939453,26.850000381469727,27.200000762939453,756000.0,27.200000762939453
2018-06-13,27.399999618530273,26.600000381469727,27.25,26.899999618530273,471000.0,26.899999618530273
2018-06-14,26.899999618530273,25.450000762939453,26.899999618530273,25.75,858300.0,25.75
2018-06-15,26.049999237060547,25.399999618530273,25.5,25.799999237060547,830100.0,25.799999237060547
2018-06-18,26.450000762939453,25.700000762939453,25.700000762939453,26.200000762939453,314000.0,26.200000762939453
2018-06-19,26.299999237060547,25.75,26.0,26.049999237060547,255700.0,26.049999237060547
2018-06-20,26.549999237060547,25.850000381469727,26.200000762939453,26.350000381469727,806200.0,26.350000381469727
2018-06-21,27.149999618530273,26.200000762939453,26.299999237060547,27.100000381469727,705200.0,27.100000381469727
2018-06-22,27.700000762939453,26.5,27.149999618530273,26.700000762939453,923500.0,26.700000762939453
2018-06-25,26.799999237060547,26.200000762939453,26.549999237060547,26.5,407400.0,26.5
2018-06-26,26.950000762939453,24.299999237060547,26.549999237060547,26.600000381469727,246100.0,26.600000381469727
2018-06-27,27.600000381469727,26.049999237060547,26.700000762939453,26.149999618530273,526600.0,26.149999618530273
2018-06-28,26.75,26.0,26.0,26.649999618530273,329400.0,26.649999618530273
2018-06-29,26.950000762939453,24.850000381469727,26.75,25.049999237060547,590400.0,25.049999237060547
2018-07-02,24.799999237060547,23.700000762939453,24.799999237060547,24.350000381469727,623700.0,24.350000381469727
2018-07-03,25.149999618530273,24.350000381469727,24.5,24.799999237060547,200500.0,24.799999237060547
2018-07-05,25.0,24.049999237060547,24.950000762939453,24.299999237060547,347800.0,24.299999237060547
2018-07-06,24.399999618530273,23.350000381469727,24.200000762939453,23.649999618530273,740000.0,23.649999618530273
2018-07-09,24.299999237060547,23.649999618530273,23.75,24.049999237060547,413700.0,24.049999237060547
2018-07-10,24.149999618530273,23.600000381469727,24.0,23.950000762939453,364200.0,23.950000762939453
2018-07-11,23.75,23.299999237060547,23.75,23.600000381469727,357600.0,23.600000381469727
2018-07-12,23.0,20.5,22.700000762939453,21.25,1646600.0,21.25
2018-07-13,21.5,20.649999618530273,21.200000762939453,20.68000030517578,520100.0,20.68000030517578
2018-07-16,20.950000762939453,20.25,20.649999618530273,20.600000381469727,355400.0,20.600000381469727
2018-07-17,21.100000381469727,20.5,20.799999237060547,20.899999618530273,276300.0,20.899999618530273
2018-07-18,21.350000381469727,20.700000762939453,21.0,21.350000381469727,296000.0,21.350000381469727
2018-07-19,21.899999618530273,21.299999237060547,21.350000381469727,21.850000381469727,387800.0,21.850000381469727
2018-07-20,21.899999618530273,21.450000762939453,21.899999618530273,21.649999618530273,408200.0,21.649999618530273
2018-07-23,22.0,21.450000762939453,21.700000762939453,21.850000381469727,264400.0,21.850000381469727
2018-07-24,22.049999237060547,21.350000381469727,21.899999618530273,21.450000762939453,486000.0,21.450000762939453
2018-07-25,22.149999618530273,21.450000762939453,21.549999237060547,22.049999237060547,345800.0,22.049999237060547
2018-07-26,22.799999237060547,22.0,22.149999618530273,22.350000381469727,369900.0,22.350000381469727
2018-07-27,22.399999618530273,21.450000762939453,22.299999237060547,21.649999618530273,343900.0,21.649999618530273
2018-07-30,22.850000381469727,21.260000228881836,21.600000381469727,22.600000381469727,480800.0,22.600000381469727
2018-07-31,22.75,22.0,22.5,22.649999618530273,409600.0,22.649999618530273
2018-08-01,22.850000381469727,22.299999237060547,22.549999237060547,22.5,430900.0,22.5
2018-08-02,23.450000762939453,22.350000381469727,22.350000381469727,23.350000381469727,350900.0,23.350000381469727
2018-08-03,23.75,23.200000762939453,23.350000381469727,23.5,313500.0,23.5
2018-08-06,24.799999237060547,23.299999237060547,23.350000381469727,24.700000762939453,525200.0,24.700000762939453
2018-08-07,25.200000762939453,24.530000686645508,24.899999618530273,24.850000381469727,426600.0,24.850000381469727
2018-08-08,25.399999618530273,24.700000762939453,24.899999618530273,25.299999237060547,375700.0,25.299999237060547
2018-08-09,27.450000762939453,26.149999618530273,26.5,27.100000381469727,1044300.0,27.100000381469727
2018-08-10,28.850000381469727,26.850000381469727,27.0,28.049999237060547,668000.0,28.049999237060547
2018-08-13,29.350000381469727,27.899999618530273,27.899999618530273,28.600000381469727,623800.0,28.600000381469727
2018-08-14,29.549999237060547,27.850000381469727,28.649999618530273,29.299999237060547,819900.0,29.299999237060547
2018-08-15,29.25,27.950000762939453,29.25,28.399999618530273,446900.0,28.399999618530273
2018-08-16,29.049999237060547,28.0,28.399999618530273,28.700000762939453,350800.0,28.700000762939453
2018-08-17,29.149999618530273,28.399999618530273,28.600000381469727,29.149999618530273,389400.0,29.149999618530273
2018-08-20,29.649999618530273,28.950000762939453,29.149999618530273,29.5,276300.0,29.5
2018-08-21,30.049999237060547,29.100000381469727,29.700000762939453,29.899999618530273,262400.0,29.899999618530273
2018-08-22,31.799999237060547,29.739999771118164,31.799999237060547,29.899999618530273,496200.0,29.899999618530273
2018-08-23,30.100000381469727,29.350000381469727,30.0,30.0,529400.0,30.0
2018-08-24,30.149999618530273,29.030000686645508,30.0,29.75,555300.0,29.75
2018-08-27,30.0,29.0,30.0,29.399999618530273,335700.0,29.399999618530273
2018-08-28,30.100000381469727,29.450000762939453,29.549999237060547,29.950000762939453,481400.0,29.950000762939453
2018-08-29,30.049999237060547,29.25,29.850000381469727,29.950000762939453,222500.0,29.950000762939453
2018-08-30,30.350000381469727,29.700000762939453,29.799999237060547,29.850000381469727,256900.0,29.850000381469727
2018-08-31,31.229999542236328,29.75,29.799999237060547,31.149999618530273,236800.0,31.149999618530273
2018-09-04,32.70000076293945,30.799999237060547,31.899999618530273,31.25,661500.0,31.25
2018-09-05,31.299999237060547,29.850000381469727,31.299999237060547,30.100000381469727,731000.0,30.100000381469727
2018-09-06,31.0,29.149999618530273,30.100000381469727,29.149999618530273,798900.0,29.149999618530273
2018-09-07,30.559999465942383,27.549999237060547,28.600000381469727,29.200000762939453,1038900.0,29.200000762939453
2018-09-10,29.799999237060547,28.5,29.700000762939453,29.399999618530273,465300.0,29.399999618530273
2018-09-11,29.450000762939453,28.649999618530273,29.350000381469727,28.950000762939453,447300.0,28.950000762939453
2018-09-12,29.299999237060547,27.950000762939453,28.899999618530273,28.299999237060547,407800.0,28.299999237060547
2018-09-13,28.530000686645508,27.399999618530273,28.5,27.950000762939453,438300.0,27.950000762939453
2018-09-14,28.350000381469727,27.600000381469727,28.0,28.299999237060547,389500.0,28.299999237060547
2018-09-17,28.399999618530273,27.649999618530273,28.299999237060547,28.100000381469727,242400.0,28.100000381469727
2018-09-18,28.649999618530273,27.799999237060547,28.100000381469727,27.850000381469727,190800.0,27.850000381469727
2018-09-19,28.100000381469727,27.549999237060547,27.850000381469727,27.649999618530273,206100.0,27.649999618530273
2018-09-20,28.649999618530273,27.5,27.700000762939453,28.600000381469727,424500.0,28.600000381469727
2018-09-21,29.200000762939453,28.100000381469727,28.75,28.100000381469727,819200.0,28.100000381469727
2018-09-24,28.549999237060547,27.299999237060547,28.100000381469727,27.600000381469727,253400.0,27.600000381469727
2018-09-25,27.899999618530273,26.8799991607666,27.799999237060547,27.0,448500.0,27.0
2018-09-26,27.25,26.68000030517578,26.950000762939453,27.049999237060547,389700.0,27.049999237060547
2018-09-27,27.149999618530273,26.149999618530273,27.100000381469727,26.549999237060547,416800.0,26.549999237060547
2018-09-28,27.149999618530273,26.25,26.549999237060547,26.350000381469727,496100.0,26.350000381469727
2018-10-01,26.950000762939453,26.260000228881836,26.399999618530273,26.829999923706055,487500.0,26.829999923706055
2018-10-02,26.829999923706055,24.950000762939453,26.829999923706055,25.100000381469727,334400.0,25.100000381469727
2018-10-03,25.639999389648438,24.989999771118164,25.139999389648438,25.43000030517578,225400.0,25.43000030517578
2018-10-04,25.440000534057617,25.030000686645508,25.440000534057617,25.399999618530273,322200.0,25.399999618530273
2018-10-05,25.510000228881836,24.540000915527344,25.360000610351562,24.899999618530273,261900.0,24.899999618530273
2018-10-08,24.90999984741211,24.040000915527344,24.860000610351562,24.469999313354492,386300.0,24.469999313354492
2018-10-09,24.8700008392334,24.31999969482422,24.389999389648438,24.75,242000.0,24.75
2018-10-10,24.780000686645508,23.81999969482422,24.780000686645508,23.8700008392334,360900.0,23.8700008392334
2018-10-11,23.639999389648438,21.540000915527344,23.059999465942383,22.309999465942383,708800.0,22.309999465942383
2018-10-12,22.889999389648438,22.190000534057617,22.450000762939453,22.780000686645508,765400.0,22.780000686645508
2018-10-15,23.450000762939453,22.84000015258789,22.84000015258789,23.1200008392334,403800.0,23.1200008392334
2018-10-16,23.200000762939453,22.709999084472656,23.200000762939453,22.940000534057617,312100.0,22.940000534057617
2018-10-17,23.18000030517578,22.229999542236328,22.940000534057617,22.600000381469727,311300.0,22.600000381469727
2018-10-18,22.670000076293945,21.8700008392334,22.549999237060547,22.059999465942383,332800.0,22.059999465942383
2018-10-19,22.1200008392334,21.299999237060547,22.1200008392334,21.350000381469727,318700.0,21.350000381469727
2018-10-22,21.899999618530273,21.329999923706055,21.540000915527344,21.729999542236328,361200.0,21.729999542236328
2018-10-23,21.940000534057617,21.15999984741211,21.540000915527344,21.709999084472656,351900.0,21.709999084472656
2018-10-24,22.56999969482422,21.6299991607666,21.770000457763672,21.920000076293945,399400.0,21.920000076293945
2018-10-25,23.510000228881836,22.15999984741211,22.5,23.399999618530273,774200.0,23.399999618530273
2018-10-26,23.75,22.530000686645508,23.139999389648438,23.65999984741211,551100.0,23.65999984741211
2018-10-29,24.260000228881836,23.229999542236328,23.889999389648438,23.610000610351562,568100.0,23.610000610351562
2018-10-30,24.40999984741211,23.540000915527344,23.65999984741211,24.360000610351562,389800.0,24.360000610351562
2018-10-31,24.579999923706055,23.200000762939453,24.579999923706055,23.260000228881836,400700.0,23.260000228881836
2018-11-01,23.850000381469727,23.010000228881836,23.260000228881836,23.360000610351562,300200.0,23.360000610351562
2018-11-02,23.719999313354492,22.3700008392334,23.5,22.950000762939453,717900.0,22.950000762939453
2018-11-05,22.940000534057617,22.299999237060547,22.940000534057617,22.719999313354492,482200.0,22.719999313354492
2018-11-06,22.850000381469727,21.93000030517578,22.670000076293945,22.059999465942383,567400.0,22.059999465942383
2018-11-07,22.239999771118164,21.049999237060547,22.100000381469727,21.3799991607666,1098700.0,21.3799991607666
2018-11-08,21.729999542236328,20.600000381469727,21.3700008392334,21.6200008392334,876100.0,21.6200008392334
2018-11-09,21.610000610351562,20.829999923706055,21.59000015258789,21.06999969482422,603500.0,21.06999969482422
2018-11-12,21.510000228881836,20.989999771118164,21.149999618530273,21.239999771118164,438100.0,21.239999771118164
2018-11-13,21.31999969482422,20.760000228881836,21.270000457763672,21.049999237060547,192000.0,21.049999237060547
2018-11-14,21.729999542236328,20.799999237060547,21.200000762939453,20.8700008392334,349000.0,20.8700008392334
2018-11-15,21.170000076293945,20.200000762939453,20.75,20.920000076293945,420200.0,20.920000076293945
2018-11-16,20.969999313354492,20.100000381469727,20.739999771118164,20.899999618530273,381600.0,20.899999618530273
2018-11-19,21.15999984741211,19.850000381469727,20.899999618530273,19.969999313354492,521000.0,19.969999313354492
2018-11-20,19.940000534057617,19.049999237060547,19.3700008392334,19.149999618530273,592700.0,19.149999618530273
2018-11-21,19.969999313354492,19.0,19.329999923706055,19.670000076293945,298500.0,19.670000076293945
2018-11-23,19.75,18.829999923706055,19.600000381469727,19.020000457763672,315400.0,19.020000457763672
2018-11-26,19.520000457763672,19.0,19.25,19.450000762939453,402100.0,19.450000762939453
2018-11-27,19.420000076293945,18.8700008392334,19.399999618530273,19.229999542236328,294200.0,19.229999542236328
2018-11-28,19.31999969482422,18.81999969482422,19.229999542236328,19.229999542236328,645600.0,19.229999542236328
2018-11-29,19.469999313354492,19.030000686645508,19.229999542236328,19.209999084472656,447900.0,19.209999084472656
2018-11-30,19.739999771118164,19.270000457763672,19.270000457763672,19.719999313354492,574100.0,19.719999313354492
2018-12-03,20.1200008392334,19.280000686645508,19.780000686645508,19.8799991607666,417200.0,19.8799991607666
2018-12-04,20.200000762939453,18.899999618530273,19.90999984741211,19.209999084472656,901400.0,19.209999084472656
2018-12-06,19.600000381469727,18.520000457763672,18.8700008392334,19.260000228881836,1239800.0,19.260000228881836
2018-12-07,18.969999313354492,17.75,18.649999618530273,18.31999969482422,1204900.0,18.31999969482422
2018-12-10,18.799999237060547,17.950000762939453,18.229999542236328,18.700000762939453,727300.0,18.700000762939453
2018-12-11,19.049999237060547,18.549999237060547,18.889999389648438,18.709999084472656,734200.0,18.709999084472656
2018-12-12,19.059999465942383,18.549999237060547,18.729999542236328,18.799999237060547,748600.0,18.799999237060547
2018-12-13,18.959999084472656,18.170000076293945,18.84000015258789,18.309999465942383,653200.0,18.309999465942383
2018-12-14,19.09000015258789,17.56999969482422,18.219999313354492,19.030000686645508,713300.0,19.030000686645508
2018-12-17,19.5,18.530000686645508,18.969999313354492,19.15999984741211,853900.0,19.15999984741211
2018-12-18,19.5,18.829999923706055,19.270000457763672,18.979999542236328,475700.0,18.979999542236328
2018-12-19,19.190000534057617,18.549999237060547,19.059999465942383,18.6200008392334,497500.0,18.6200008392334
2018-12-20,18.670000076293945,18.0,18.549999237060547,18.5,481200.0,18.5
2018-12-21,19.040000915527344,17.940000534057617,18.540000915527344,17.959999084472656,651000.0,17.959999084472656
2018-12-24,18.3700008392334,17.760000228881836,17.860000610351562,17.8799991607666,314700.0,17.8799991607666
2018-12-26,19.1200008392334,17.969999313354492,18.100000381469727,19.059999465942383,299300.0,19.059999465942383
2018-12-27,19.059999465942383,18.559999465942383,18.889999389648438,19.020000457763672,342000.0,19.020000457763672
2018-12-28,19.34000015258789,18.809999465942383,19.0,19.010000228881836,245500.0,19.010000228881836
2018-12-31,19.239999771118164,18.690000534057617,19.09000015258789,19.170000076293945,254200.0,19.170000076293945
2019-01-02,19.729999542236328,18.8799991607666,18.989999771118164,19.6200008392334,439500.0,19.6200008392334
2019-01-03,19.65999984741211,19.0,19.469999313354492,19.360000610351562,392500.0,19.360000610351562
2019-01-04,19.989999771118164,19.229999542236328,19.520000457763672,19.850000381469727,333100.0,19.850000381469727
2019-01-07,20.8700008392334,19.8799991607666,19.889999389648438,20.790000915527344,487800.0,20.790000915527344
2019-01-08,21.299999237060547,20.700000762939453,20.90999984741211,21.09000015258789,441800.0,21.09000015258789
2019-01-09,21.399999618530273,20.899999618530273,21.219999313354492,21.270000457763672,331300.0,21.270000457763672
2019-01-10,22.899999618530273,21.149999618530273,22.170000076293945,22.889999389648438,765400.0,22.889999389648438
2019-01-11,22.950000762939453,21.809999465942383,22.709999084472656,22.18000030517578,494000.0,22.18000030517578
2019-01-14,22.440000534057617,21.860000610351562,22.18000030517578,22.09000015258789,373100.0,22.09000015258789
2019-01-15,22.200000762939453,21.3700008392334,22.18000030517578,21.729999542236328,258200.0,21.729999542236328
2019-01-16,22.459999084472656,21.6200008392334,21.719999313354492,22.360000610351562,383100.0,22.360000610351562
2019-01-17,23.15999984741211,22.149999618530273,22.149999618530273,23.15999984741211,569100.0,23.15999984741211
2019-01-18,23.790000915527344,23.110000610351562,23.25,23.75,455100.0,23.75
2019-01-22,23.610000610351562,22.969999313354492,23.510000228881836,23.139999389648438,505500.0,23.139999389648438
2019-01-23,23.25,22.790000915527344,23.139999389648438,23.0,265200.0,23.0
2019-01-24,23.389999389648438,22.770000457763672,23.040000915527344,23.290000915527344,336700.0,23.290000915527344
2019-01-25,23.889999389648438,23.34000015258789,23.5,23.8700008392334,243400.0,23.8700008392334
2019-01-28,25.049999237060547,23.75,23.780000686645508,24.93000030517578,557000.0,24.93000030517578
2019-01-29,25.25,24.270000457763672,24.84000015258789,24.780000686645508,371900.0,24.780000686645508
2019-01-30,25.489999771118164,24.670000076293945,24.850000381469727,25.280000686645508,554600.0,25.280000686645508
2019-01-31,25.670000076293945,25.049999237060547,25.18000030517578,25.40999984741211,419200.0,25.40999984741211
2019-02-01,25.579999923706055,24.700000762939453,25.56999969482422,25.139999389648438,409200.0,25.139999389648438
2019-02-04,25.520000457763672,24.739999771118164,25.40999984741211,24.950000762939453,1241900.0,24.950000762939453
2019-02-05,25.059999465942383,23.899999618530273,25.049999237060547,24.059999465942383,626400.0,24.059999465942383
2019-02-06,24.190000534057617,23.170000076293945,24.110000610351562,23.530000686645508,443600.0,23.530000686645508
2019-02-07,24.799999237060547,23.280000686645508,23.75,23.540000915527344,621100.0,23.540000915527344
2019-02-08,23.729999542236328,23.239999771118164,23.450000762939453,23.360000610351562,270900.0,23.360000610351562
2019-02-11,23.940000534057617,23.200000762939453,23.399999618530273,23.860000610351562,259200.0,23.860000610351562
2019-02-12,24.270000457763672,23.6200008392334,23.899999618530273,23.780000686645508,271500.0,23.780000686645508
2019-02-13,23.8700008392334,23.149999618530273,23.799999237060547,23.600000381469727,226100.0,23.600000381469727
2019-02-14,23.81999969482422,23.149999618530273,23.540000915527344,23.5,235300.0,23.5
2019-02-15,24.34000015258789,23.610000610351562,23.610000610351562,24.219999313354492,304700.0,24.219999313354492
2019-02-19,24.989999771118164,24.200000762939453,24.229999542236328,24.90999984741211,359700.0,24.90999984741211
2019-02-20,25.93000030517578,24.850000381469727,24.959999084472656,25.790000915527344,469300.0,25.790000915527344
2019-02-21,26.0,24.729999542236328,25.790000915527344,25.09000015258789,646700.0,25.09000015258789
2019-02-22,25.270000457763672,24.739999771118164,25.079999923706055,25.0,271900.0,25.0
2019-02-25,25.3799991607666,24.639999389648438,25.200000762939453,24.68000030517578,498600.0,24.68000030517578
2019-02-26,24.739999771118164,24.239999771118164,24.690000534057617,24.479999542236328,313200.0,24.479999542236328
2019-02-27,25.15999984741211,24.34000015258789,24.440000534057617,24.81999969482422,353400.0,24.81999969482422
2019-02-28,25.200000762939453,24.209999084472656,24.719999313354492,24.700000762939453,282000.0,24.700000762939453
2019-03-01,25.65999984741211,24.959999084472656,25.0,25.31999969482422,261800.0,25.31999969482422
2019-03-04,25.600000381469727,24.100000381469727,25.3700008392334,24.549999237060547,453200.0,24.549999237060547
2019-03-05,24.93000030517578,24.239999771118164,24.68000030517578,24.729999542236328,363700.0,24.729999542236328
2019-03-06,25.139999389648438,24.700000762939453,24.799999237060547,24.969999313354492,299800.0,24.969999313354492
2019-03-07,25.540000915527344,24.360000610351562,24.8799991607666,25.309999465942383,594100.0,25.309999465942383
2019-03-08,25.350000381469727,24.420000076293945,25.09000015258789,24.610000610351562,896600.0,24.610000610351562
2019-03-11,24.920000076293945,23.959999084472656,24.110000610351562,24.610000610351562,602500.0,24.610000610351562
2019-03-12,24.8799991607666,24.25,24.65999984741211,24.579999923706055,424100.0,24.579999923706055
2019-03-13,25.5,24.579999923706055,24.579999923706055,25.329999923706055,448200.0,25.329999923706055
2019-03-14,25.510000228881836,23.56999969482422,25.270000457763672,23.68000030517578,1099000.0,23.68000030517578
2019-03-15,24.15999984741211,22.0,22.68000030517578,24.0,2272500.0,24.0
2019-03-18,24.75,23.639999389648438,24.110000610351562,24.540000915527344,781400.0,24.540000915527344
2019-03-19,24.579999923706055,24.049999237060547,24.579999923706055,24.290000915527344,672700.0,24.290000915527344
2019-03-20,24.43000030517578,23.299999237060547,24.280000686645508,23.399999618530273,385900.0,23.399999618530273
2019-03-21,23.600000381469727,23.09000015258789,23.270000457763672,23.15999984741211,338200.0,23.15999984741211
2019-03-22,23.270000457763672,22.360000610351562,23.049999237060547,22.510000228881836,396700.0,22.510000228881836
2019-03-25,23.559999465942383,22.40999984741211,22.40999984741211,23.469999313354492,343300.0,23.469999313354492
2019-03-26,23.809999465942383,23.280000686645508,23.579999923706055,23.440000534057617,301700.0,23.440000534057617
2019-03-27,24.049999237060547,23.170000076293945,23.43000030517578,23.799999237060547,440100.0,23.799999237060547
2019-03-28,24.3799991607666,23.540000915527344,23.90999984741211,24.170000076293945,287900.0,24.170000076293945
2019-03-29,25.040000915527344,24.020000457763672,24.25,24.889999389648438,548600.0,24.889999389648438
2019-04-01,25.420000076293945,24.559999465942383,24.969999313354492,25.360000610351562,322100.0,25.360000610351562
2019-04-02,25.360000610351562,24.770000457763672,25.309999465942383,24.889999389648438,250900.0,24.889999389648438
2019-04-03,25.450000762939453,24.799999237060547,25.079999923706055,24.829999923706055,255400.0,24.829999923706055
2019-04-04,26.040000915527344,24.809999465942383,24.809999465942383,25.969999313354492,399800.0,25.969999313354492
2019-04-05,26.690000534057617,26.020000457763672,26.020000457763672,26.299999237060547,437500.0,26.299999237060547
2019-04-08,26.770000457763672,26.15999984741211,26.200000762939453,26.360000610351562,351000.0,26.360000610351562
2019-04-09,26.43000030517578,25.889999389648438,26.290000915527344,26.229999542236328,276600.0,26.229999542236328
2019-04-10,26.790000915527344,26.18000030517578,26.219999313354492,26.719999313354492,255700.0,26.719999313354492
2019-04-11,26.799999237060547,26.100000381469727,26.799999237060547,26.389999389648438,349200.0,26.389999389648438
2019-04-12,26.90999984741211,25.540000915527344,26.43000030517578,26.8700008392334,383700.0,26.8700008392334
2019-04-15,26.950000762939453,26.450000762939453,26.899999618530273,26.489999771118164,272400.0,26.489999771118164
2019-04-16,26.829999923706055,26.219999313354492,26.520000457763672,26.540000915527344,355900.0,26.540000915527344
2019-04-17,26.719999313354492,26.200000762939453,26.600000381469727,26.459999084472656,324900.0,26.459999084472656
2019-04-18,26.889999389648438,26.18000030517578,26.43000030517578,26.579999923706055,228500.0,26.579999923706055
2019-04-22,26.790000915527344,25.940000534057617,26.579999923706055,26.420000076293945,447500.0,26.420000076293945
2019-04-23,26.950000762939453,26.06999969482422,26.520000457763672,26.809999465942383,274800.0,26.809999465942383
2019-04-24,27.729999542236328,26.5,26.770000457763672,27.610000610351562,289300.0,27.610000610351562
2019-04-25,27.81999969482422,27.149999618530273,27.600000381469727,27.389999389648438,214800.0,27.389999389648438
2019-04-26,27.790000915527344,26.829999923706055,27.309999465942383,27.670000076293945,218700.0,27.670000076293945
2019-04-29,28.329999923706055,27.65999984741211,27.65999984741211,27.739999771118164,209300.0,27.739999771118164
2019-04-30,27.649999618530273,26.600000381469727,27.6299991607666,26.6299991607666,301300.0,26.6299991607666
2019-05-01,26.780000686645508,25.43000030517578,26.75,25.450000762939453,486300.0,25.450000762939453
2019-05-02,25.940000534057617,24.0,25.459999084472656,25.790000915527344,264500.0,25.790000915527344
2019-05-03,26.989999771118164,25.8700008392334,25.959999084472656,26.940000534057617,207600.0,26.940000534057617
2019-05-06,26.700000762939453,25.959999084472656,26.469999313354492,26.530000686645508,229300.0,26.530000686645508
2019-05-07,26.59000015258789,25.899999618530273,26.280000686645508,26.1200008392334,258700.0,26.1200008392334
2019-05-08,26.360000610351562,25.739999771118164,26.079999923706055,25.950000762939453,150800.0,25.950000762939453
2019-05-09,24.93000030517578,24.010000228881836,24.8799991607666,24.709999084472656,365600.0,24.709999084472656
2019-05-10,24.81999969482422,24.149999618530273,24.68000030517578,24.68000030517578,233600.0,24.68000030517578
2019-05-13,24.31999969482422,22.510000228881836,24.31999969482422,22.829999923706055,404300.0,22.829999923706055
2019-05-14,22.950000762939453,22.31999969482422,22.860000610351562,22.75,387800.0,22.75
2019-05-15,22.559999465942383,22.020000457763672,22.520000457763672,22.43000030517578,396500.0,22.43000030517578
2019-05-16,22.90999984741211,22.3799991607666,22.510000228881836,22.450000762939453,216800.0,22.450000762939453
2019-05-17,22.8799991607666,21.989999771118164,22.239999771118164,22.229999542236328,247300.0,22.229999542236328
2019-05-20,22.329999923706055,21.969999313354492,22.209999084472656,22.18000030517578,226100.0,22.18000030517578
2019-05-21,22.690000534057617,21.959999084472656,22.18000030517578,22.450000762939453,337500.0,22.450000762939453
2019-05-22,22.350000381469727,21.170000076293945,22.209999084472656,21.219999313354492,321300.0,21.219999313354492
2019-05-23,21.479999542236328,20.81999969482422,21.06999969482422,20.90999984741211,335400.0,20.90999984741211
2019-05-24,21.350000381469727,20.670000076293945,20.940000534057617,21.149999618530273,261400.0,21.149999618530273
