ALDX
STKL
IEHC
LMRK
CTLT
AGC
TGEN
MAT
AHH
CMG
HBMD
CODI
CADEX
KBR
UIHC
WSBC
BLL
CNBKA
PJT
PTXP
LJPC
XHR
PAGP
SM
ORC
USAK
MITT
RTIX
OMNT
LE
SOFO
SEMG
DYN
RESI
EDGW
FSFR
DKL
IPDN
IESC
ZDGE
CHK
JAG
MMAC
MTDR
TBBK
BGIO
WPX
BTX
CARO
VIVO
SPAR
AAP
WBA
DS
TGT
AOBC
LAUR
OAKS
MYGN
VCV
INTX
MCI
OTC
NRG
NICK
SRCL
TCS
AGEN
ULBI
LIVE
SONA
WLKP
PHX
CLMT
JFR
TIER
GER
LDL
GEC
PE
CRDA
DSU
DDR
COTY
SPKE
CNXC
FUND
VVV
HRTX
FSC
COT
TRNC
COG
COGT
UMH
CASC
KRP
FCEA
FFKT
INSE
GNC
HYT
NSH
SQBG
CNMD
RMPLX
EXXI
LCI
ARL
RRGB
ETP
CLMS
BW
OAS
CLFD
UBI
HP
CHCT
BYBK
MNR
MNK
INVH
CZFS
IVR
NI
NA
NS
VSTO
ADX
TMST
GMZ
FNBG
NEWM
CIO
TY
AB
STFC
CUBA
CNX
LGF.B
MRTX
AMC
